child_body,child_screen_name,child_user_id,child_tweet_id,parent_body,parent_tweet_id,parent_screen_name,parent_user_id
"@iROZHLAScz zacina predvolebni kampan, doufam ze opozice nezaspi",CzMtrh,997932742284382208,1231972530581377024,"„Nemá absolutně žádné zkušenosti z oblasti ICT, tento obor nestudoval a je bez jakýchkoliv praktických zkušenosti.… https://t.co/ee5PPgvxxC",1231969652470931456,iROZHLAScz,70725936
"@Aktualnecz zakon umoznuje, ale umet to a mit na to prostredky je jina vec, ani cina nedokazala  stopro uzavrit  :(",CzMtrh,997932742284382208,1231972122647580680,"Česko může při výskytu koronaviru uzavřít celá města, říká ministr zdravotnictví https://t.co/MgZhZepdvb",1231919077276442624,Aktualnecz,63115636
@dojnice je to komplot,CzMtrh,997932742284382208,1231610259443265536,"Zamčený pokoj s mrtvolou a klíčem zevnitř není zas až taková záhada proti situaci, když dáte s prádlem do pračky pr… https://t.co/yuaWVtT3dX",1231536232796168192,dojnice,3042273185
"@AdrianaCerna kde je valka pouzivaji se veskere prostredky, a pravda v ten okamzik nikoho nezajima, proste hajite s… https://t.co/HNrL3alOG5",CzMtrh,997932742284382208,1231255520952143873,"Z tohohle by me cert vzal. 

Alespon je videt, na jakem tematu Rusum obzvlast zalezi. A Google je spolupachatel.… https://t.co/x6iZRwCdyz",1230776821760876544,AdrianaCerna,107385141
"@jietienming co neprechylovat cizi rec, cizi jmena, a prechylovat cesky a v cestine ? to chcete rezignovat na cesky… https://t.co/0QGP9OWObs",CzMtrh,997932742284382208,1231254994466299907,"Majitelka čínské restauraci v New York City Rose Wuová.

Wuová

Wuová

Wuová

Wuová

Nemůžeme to přechylování už fakt zrušit?",1230841210761338880,jietienming,975641897350942720
"@Aktualnecz reci a clanky jsou k nicemu, dukazy a pak soud....a pravnici, kt haji zajmy svych klientu :) vse ostatni je ztrata casu  #mtrh",CzMtrh,997932742284382208,1231254341111119879,"Nařčení z korupce Babišovi prošlo. Omlouvat se nemusí, Transparency spor prohrála https://t.co/kkN3I7vh18",1230769913951744000,Aktualnecz,63115636
@martin__tomas no moc bodu uz neni a nektere body byli a jsou uz pridelene...,CzMtrh,997932742284382208,1230530387316703233,"Myslíte, že když to Kladno spadne (🙏), bude Jarda Jágr pořád tak horovat za uzavření Extraligy, protože to přece dává smysl? 🤔🙃",1230236035101184001,martin__tomas,1570237104
"@koranova_b @ochranceprav proc to neberete jako vyjadreni nazoru skupiny lidi ? bez dalsiho komentare , problem s nazory ostatnich ?",CzMtrh,997932742284382208,1230529546211995648,"To, co se dnes stalo před úřadem @ochranceprav, odsuzuji. Stanislav Křeček se nestal ombudsmanem z vlastní vůle, al… https://t.co/bRlZqfsxEJ",1230449920454332418,koranova_b,827490781720088577
"@Aktualnecz ne naopak je to hozena rukavice, rozjet organizovanou kampan pro nezvoleni, a myslim po tom co vlada pr… https://t.co/XGtUu2VZ9P",CzMtrh,997932742284382208,1230162336448761856,"Pokud ANO prohraje sněmovní volby, nebudu v politice pokračovat, tvrdí Babiš https://t.co/kxXMM6t2EG",1230105979716587521,Aktualnecz,63115636
"@_pavlas @pavelsafr samet ? organizovana zmena rezimu s divadlem pro lidi, a prerozdeleni majetku lidem, kt byli u… https://t.co/tXKZieHJ9m",CzMtrh,997932742284382208,1230161664026300416,"@pavelsafr Říkejte tomu ""daň za samet"".

https://t.co/JbpDsXoXac",1230026369507172354,_pavlas,321293934
