child_body,child_screen_name,child_user_id,child_tweet_id,parent_body,parent_tweet_id,parent_screen_name,parent_user_id
@ZdenekVoda Solidárně děkují za tip a radu.,FSrohy,1074305012430458887,1231486851682316288,"Povinnou solidaritu na způsob Brusele si představuji tak,že si solidárně přivezu z Německa domů 10 migrantů,že soli… https://t.co/tn9kDiBNP4",1231117662597664769,ZdenekVoda,878700666
"@vit__blaha @ChytilTom1 Divím se že jim to nedají k náhradě,když zjistí že to bylo naschvál,aby likvidovali ekonomi… https://t.co/InnsdzLZ4Z",FSrohy,1074305012430458887,1231486039233122304,"Můj kolega kdysi výpočetl rozdíl ceny nejmenovaného dopr. projektu - kolik by stál, kdyby se mohl realizovat v půvo… https://t.co/HYuiic1PPH",1231196627903418369,vit__blaha,24353963
"@Otravnej JÁ MÁM- PUDR,-POSUNOVAČ U DRÁHY.",FSrohy,1074305012430458887,1231105195708424195,"Se omlouvám předem, ale když si někdo na vizitku/jmenovku na kancl nechá dát Bc. Jméno příjmení, DiS., tak mi to ří… https://t.co/XfY7RDVq0E",1230585368048754688,Otravnej,3402466095
@SmutnyTomas Ta bestie se chystá k nám otravovat a my se chystáme ji to https://t.co/ygZAVEBtkSžná i to vajíčko neb… https://t.co/of2Mfnmmmn,FSrohy,1074305012430458887,1231104868389179392,"Jedna slovní hříčka má zamaskovat její vinu. Bez jejího vítačení, by se to nestalo. Prostě mu ruply nervy, přeskoči… https://t.co/zSDBOnUoxg",1230604257524690944,SmutnyTomas,308386226
"@ChytilTom1 Já mám své,žijeme za městem.",FSrohy,1074305012430458887,1231104082972114945,"Asi jediný odborník u nás, co pozná rozdíl mezi vajíčkem z klecového a volného chovu mimo prodejní ceny a textu na… https://t.co/2ihKfLuRkA",1230631977096818688,ChytilTom1,1093606585119768576
"@VasagitaS To bylo z radosti,že jde do p.ele.",FSrohy,1074305012430458887,1231103736111681536,"je tam jen hrska lidí, někteří tleskají tak nějak divně - jakoby byli vylosovaní, kdo se půjde před kamery rozloučit https://t.co/FgyvwsFlRB",1230619475097137152,VasagitaS,2494141045
"@AndrejBabis Jak se do lesa volá,tak se z lesa ozývá.Podnikatel a neví takovou důležitou poučku.",FSrohy,1074305012430458887,1230510705490776064,"Jsem hluboce otřesený, jako každý, kdo četl zprávu o střeleckém útoku ve městě Hanau, při kterém přišlo o život nej… https://t.co/f80zVoBR86",1230446825716559872,AndrejBabis,713035525
"@ZdenekVoda Pár vyhulenců a voda na mlýn čt, zase mají důvod štvát lidi proti sobě.",FSrohy,1074305012430458887,1230510030409142278,"Nikdy jsem nesouhlasil s ošklivou myšlenkou,že u Brna začíná Orient. Ale když se podívám na blbečky na obrázku vstu… https://t.co/oK3uuaHiYP",1230481067221622786,ZdenekVoda,878700666
"@AndrejBabis @boltapp Oni mají v plánu a my je vysazujeme,to je rozdíl.",FSrohy,1074305012430458887,1229833253814706176,"V centrále @boltapp. V roce 2013 ho založili dva studenti, o rok později už expandoval do zahraničí. Teď je ve 35 z… https://t.co/8ckywuBaIy",1229812521646907392,AndrejBabis,713035525
"@ZdenekVoda To bylo asi ran pukem,že tak zblbnul.",FSrohy,1074305012430458887,1229711418607505408,"Dominik Hašek: Jednou chci být prezident.
A proč tak skromně,pane Hašku? Když budete brát pilulky tak, jak je přede… https://t.co/zldxc48NYA",1229480880546209800,ZdenekVoda,878700666
