child_body,child_screen_name,child_user_id,child_tweet_id,parent_body,parent_tweet_id,parent_screen_name,parent_user_id
@alespok1 @Kdosi_tady @market_a Nečekej odpověď. Jeden z těch co mluvi a neví.,konecna_romana,1132868975338164224,1231980181256130564,@Kdosi_tady @market_a … tak proč to tak prezentují?,1231955798860926976,alespok1,1091370591259643905
@market_a Jasně věc. A ulice české ambasády v Berlíně se přejmenuje na Sudetoněmeckou.,konecna_romana,1132868975338164224,1231979952226131975,"Pražská rada schválila, že ruská ambasáda bude stát na Náměstí Borise Němcova. Je to uctění bývalého ruského vicepr… https://t.co/FIEybMOhhg",1231891595777232897,market_a,128663448
@josefberanek @CT24zive Vzhledem k vytíženosti D1 je Praha plná náplav z Brna,konecna_romana,1132868975338164224,1231979759699210240,"@CT24zive Přatelé Brnu se vyhýba každý. Já od roku 2004, kdy jsem tam zahučel s pohledávkou u jedné firmy v milione… https://t.co/NVFAv5QIES",1231975864189018112,josefberanek,619940053
"@tenDivnej @ilblog Jenomže kámo, ty auta mají nahradit současná auta nehledě na příjmy. Takže ještě jednou se zamys… https://t.co/w2vpWY1MUD",konecna_romana,1132868975338164224,1231642929644670977,"@konecna_romana @ilblog Když má někdo na elektroauto, tak asi úplně nejezdí autem do Chorvatska na dovolenou. A kdy… https://t.co/Qu06Uq9AmZ",1231590670445555713,tenDivnej,1006439016
@Forte_Ristretto Nepoužitelní a neschopní jsou i handicapovaní lidé. V přírodě by jich moc nepřežilo.,konecna_romana,1132868975338164224,1231527483708772355,"Velkým problémem naší současné společnosti je, že si neví rady s neschopnými a nepoužitelnými. Ti, kteří by dříve s… https://t.co/Yc4NxQMoUE",1231498945190354945,Forte_Ristretto,991248714437193729
@vydraj @moravekj @ilblog Nápodobně sluho,konecna_romana,1132868975338164224,1231503466125758464,"@konecna_romana @moravekj @ilblog Jojo, užívat mozek bolí, kočičko!",1231465023706423296,vydraj,137429719
@abctrutnov Na facku,konecna_romana,1132868975338164224,1231321611292286978,"Tak dopadlo to dobře, odbočku neminul. https://t.co/K4ZL7XCAqM",1231256551295520769,abctrutnov,58833198
@JiriParkes @oIilj5kc6sTTF2a Může. Nevíš co mu ta slepá Čupka v autě dělala,konecna_romana,1132868975338164224,1231279572647383042,"@oIilj5kc6sTTF2a Jacky, my jsme neřešili, zda je paní andílek, ale že taxíkář se tak chovat nesmí k nikomu.
A nemá… https://t.co/rxCEJYbj8b",1231176924971651072,JiriParkes,949940622084984832
@oIilj5kc6sTTF2a Drží zmrdi huby,konecna_romana,1132868975338164224,1231279477851860994,"Koukam,ze uz to leze ven.Kdepak jsou vsichni ti,kteri tady odsuzovali taxikare??? https://t.co/0GXD71lowK",1231175729036967937,oIilj5kc6sTTF2a,1185821501972533249
"@MalusekViktor Proč by se taky omlouval, když TI dělá to stejné.",konecna_romana,1132868975338164224,1231127853787484160,"Už někdo napsal, že je to nástup totality nebo že jsme v hajzlu nebo že soudce je agent? 
https://t.co/5B6XdlQzfi",1230816326781997056,MalusekViktor,861316058657021954
