child_body,child_screen_name,child_user_id,child_tweet_id,parent_body,parent_tweet_id,parent_screen_name,parent_user_id
"@PREZIDENTmluvci Kolik indulóny se spotřebuje na takové akci?
A používate universální nebo hojivou měsíčkovou?",LuboNovk6,1037205979685904384,1231923521527435269,Pan prezident na zámku v Lánech při příležitosti pracovního oběda přátelsky přivítal členy vlády. Na úvod pracovníh… https://t.co/ElDQ09NI1g,1231919164945846273,PREZIDENTmluvci,3055366126
@AndrejBabis https://t.co/JGaUhh0HIl,LuboNovk6,1037205979685904384,1231824328112640006,"Čau lidi, někteří z vás mi píšou, ať se vtělím do slepice, abych věděl, jaký to je. https://t.co/YmsJyANsqy https://t.co/kmWlO4HpX1",1231673737134714882,AndrejBabis,713035525
@tomio_cz Asi kvůli ochraně  Maďarské tradice punčochy nad krbem? 🤔,LuboNovk6,1037205979685904384,1231820275383140354,"Viktora Orbána naprosto chápu. A co Vy? :-)

Rodina na 1. místě! https://t.co/e1AvRTIPfU. 

https://t.co/e1AvRTIPfU… https://t.co/1u9VriZE96",1230960339921129482,tomio_cz,1710527172
@tomio_cz Ten kdo naučil Tomiho dávat písmenka do fotek by měli fakt pochválit :P,LuboNovk6,1037205979685904384,1228277919841210368,"Obávám se,že Daniel Landa má pravdu.Opět nám noví totalitáři zavírají ústa a zakazují nám říkat pravdu o islámu, im… https://t.co/1JeiGFcd2A",1228025883149131777,tomio_cz,1710527172
"@tomio_cz Však jak píšeš, choděj do Nemecka. Co by tady taky dělali,",LuboNovk6,1037205979685904384,1227564899326480384,"Počet migrantů, kteří nelegálně překročili hranice z ČR do Německa, se loni opět o něco zvýšil na 3979 osob, vyplýv… https://t.co/JpKfciZedc",1227527424809881600,tomio_cz,1710527172
"@jhamacek Tohle ti nepomůže, ono nakonec stejně polevíš jako vždy :P",LuboNovk6,1037205979685904384,1217408094965239808,"Chceme zrušit superhrubou mzdu, ale nesmí to ohrozit peníze na zdravotnictví, důchody nebo školství. Už tak bude tě… https://t.co/Bkd1yJiMNE",1217127923947274243,jhamacek,20664874
@AndrejBabis Já tomu i věřím :P,LuboNovk6,1037205979685904384,1207963004509282305,Neuvěřitelné. https://t.co/1XO5NQ50NS,1207747418957197313,AndrejBabis,713035525
@metnarl @AndrejBabis Kuli pár hračkám takovej humbuk,LuboNovk6,1037205979685904384,1207655970702348288,S ministrem Markem Esperem jsme před chvílí v Pentagonu dovedli do úspěšného konce kontrakt na 12 nových vrtulníků… https://t.co/3vQHpoouCG,1205221460102516736,metnarl,1044587777990569984
@MinFinCZ @strakovka Dealer taky jen zvyšuje ceny,LuboNovk6,1037205979685904384,1207526495884914688,"Poslanecká sněmovna schválila daňový balíček z dílny @MinFinCZ, který reaguje na zvyšování dostupnosti návykových l… https://t.co/r9bhuNnx63",1206964195272593408,MinFinCZ,724925828392427521
@ArmadaTweetuje A není jich nějak málo? 🤔,LuboNovk6,1037205979685904384,1205561684997349378,Největší modernizace v dějinách české armády nabírá na obrátkách. Kontrakt na 12 víceúčelových vrtulníků je podepsá… https://t.co/7TnwZx1wT4,1205227383176998915,ArmadaTweetuje,493539183
