child_body,child_screen_name,child_user_id,child_tweet_id,parent_body,parent_tweet_id,parent_screen_name,parent_user_id
"@DavyRang @AlexandrMitrofa V Rusku komunismus není ,a navíc  to není jejich komunista 😉",MilanH7e,596634183,1231152904888778752,"@AlexandrMitrofa paradoxni je, ze Moskva nepodpori ""komunistu"" Sanderse:-)",1230974897171705862,DavyRang,301423645
"@AlexandrMitrofa Propaganda Moskvy ,skrze své média a postoje je jedna věc ale ovlivnění voleb a nebo hacknuté volb… https://t.co/vMLxWh7KJ9",MilanH7e,596634183,1231152601988816896,"Kreml tedy sází na duel Bernie v. Trump, tudíž vyhodnotil, že cíl Moskvy, tedy Trump podruhé, tak bude dosažen s ji… https://t.co/KKO1DjbGjj",1230974403762102273,AlexandrMitrofa,452235950
"@konva333 Doufám že létá a po světě sbírají ty německý hosty co si ze Sýrie,a Afriky pozvali .",MilanH7e,596634183,1231151047332319232,"Bába provokuje. 
https://t.co/MsufsNFC4W",1230801662882832384,konva333,957709798170087424
"@CT24zive A kolik z toho zaplatí ta poražená strana , článek se sice nenašel přesto se našlo něco co prokazovalo Pe… https://t.co/UDi7nixe4O",MilanH7e,596634183,1231150654971924480,"Hrad za spor o Peroutkův neexistující článek dosud zaplatil přes půl milionu korun.

https://t.co/annynLSlVd",1230547330769833989,CT24zive,116411298
@tomio_cz Měli by dělat i hlavy aktivistů :-),MilanH7e,596634183,1231149996290007042,Tradiční zákusek - čokoládová pusinka - byla sluníčkáři napadena kvůli svému údajnému rasovému podtextu. V cukrárně… https://t.co/6ntgFHds8S,1230593096288788503,tomio_cz,1710527172
@TOP09cz Jinak jsme závislá země dokonce a potravinově a pokud se musíme držet nařízeními z EU tak nemůže být řeč ani o naší suverenitě .,MilanH7e,596634183,1231148828172136449,"Dnes je to přesně 30 let, kdy čerstvý československý prezident Václav Havel sklidil ovace ve stoje v americkém kong… https://t.co/1RCXoT2zn8",1230773128399187968,TOP09cz,46538880
"@TOP09cz Na polistopadovou dobu by jsme neměli vzpomínat nekriticky , vše se zpronevěřilo ,rozkradlo ,zprivatizoval… https://t.co/QdmEGbu0ST",MilanH7e,596634183,1231148571266834432,"Dnes je to přesně 30 let, kdy čerstvý československý prezident Václav Havel sklidil ovace ve stoje v americkém kong… https://t.co/1RCXoT2zn8",1230773128399187968,TOP09cz,46538880
@EHrindova Aj někteří vegani jsou násilní ... jenže ze vším tím rozvratem stojí vliv peněz  a poradenství z NGO . Mělo by se to zakázat,MilanH7e,596634183,1231147749288091648,"""Nejlépe se demokracie ochrání totalitou"" - zdá se vám tento výrok absurdní? Leč aktivity mnohých ochránců čehokoli… https://t.co/1VnmsciXHf",1230883119416389632,EHrindova,2770056264
"@EHrindova To jsou taky pěkní demagogové okolo toho slova demokracie ,vysvětlují si to hodně podle sebe a té tzv. L… https://t.co/hvo6vkahfj",MilanH7e,596634183,1231147097124229121,"""Nejlépe se demokracie ochrání totalitou"" - zdá se vám tento výrok absurdní? Leč aktivity mnohých ochránců čehokoli… https://t.co/1VnmsciXHf",1230883119416389632,EHrindova,2770056264
@CT24zive Lopatou přes ruce co to udělali .,MilanH7e,596634183,1231146493974925312,101 rozřezaných křesel a zničených 6 pohovek – bilance neznámého vandala na Právnické fakultě v Praze. Křesla pochá… https://t.co/R7ieSkGmQu,1230877380824137728,CT24zive,116411298
