child_body,child_screen_name,child_user_id,child_tweet_id,parent_body,parent_tweet_id,parent_screen_name,parent_user_id
@Hospodarky @vonpecka @TomZdechovsky Vyžraný Zdechovský bude konat proti vlastnímu státu a demokraticky voleným zás… https://t.co/L8LWBuyZfr,obcancz,730451397867622400,1231951446523994113,"""Zazněly požadavky, aby příslušný europoslanec nejel do Prahy a byl nahrazený jiným. To se týkalo třeba mě a europo… https://t.co/SLkWjzRY45",1231938662817988612,Hospodarky,60629880
"@lidovky Lidovky dělají politiku...
Který de... to napsal?",obcancz,730451397867622400,1231950426750300160,"ČSSD se podle Foldyny spojuje se skupinou lidí, která chce nahradit demokracii vládou „nikým nevolených samozvaných elit“.",1231949377356300289,lidovky,46105253
"@tomio_cz Nejdřív velký ramena a teď nebere telefon a mluvčí mlčí protože nemá noty...
To jsou Ty nejhorší povahy... 
ČSSD takový vybírá....",obcancz,730451397867622400,1231950166254596101,SPD požaduje okamžitou demisi ministryně Jany Maláčové z ČSSD kvůli kauze předražených zakázek na IT na ministerstv… https://t.co/2Ru1c85Djm,1231932911269666816,tomio_cz,1710527172
"@josephisstupid @tomio_cz Když tomu nerozumíte , tak se tak hloupě neptejte ...
Lidi se Vám budou smát, to přeci nemáte zapotřebí...",obcancz,730451397867622400,1231949643245899776,@tomio_cz A proc nepozadujete taky demisi A. Babiše?,1231934520917659648,josephisstupid,904362335560708096
"@Nikki_Petraskov Děvče, je evidentní , že o reálným světě víte ještě hodně málo. Nevyčítám Vám to , ale omlouvám se… https://t.co/OesHo3q8VK",obcancz,730451397867622400,1231949026037321728,@obcancz  Nechápu vaši útočnost.....TOP09 měla narozdíl od Zemanovců zveřejněné všechny své sponzory kampaní.,1231924647656030208,Nikki_Petraskov,4023374293
@ZdenekHrib Houbo a kdy začnete dělat něco pro Pražany?,obcancz,730451397867622400,1231925389171331074,Právě jednohlasně schváleno na radě: Náměstí Pod kaštany se přejmenuje na Borise Němcova. Zároveň pojmenujeme prome… https://t.co/s1rdmCojbd,1231885603823812609,ZdenekHrib,1282798525
"@market_a Aktivistka Adamová ....
Vypadá to , že až Vás vyhodí lidi po volbách z parlamentu založíte neziskovku za… https://t.co/nEKg1MLWnq",obcancz,730451397867622400,1231921653971640320,"Pražská rada schválila, že ruská ambasáda bude stát na Náměstí Borise Němcova. Je to uctění bývalého ruského vicepr… https://t.co/FIEybMOhhg",1231891595777232897,market_a,128663448
"@lidovky A Maláčová mlčí... proč asi ?
Je po...... strachy...",obcancz,730451397867622400,1231918721591103488,Podle informací LN policisté z Národní centrály proti organizovanému zločinu zadrželi dva zaměstnance ministerstva… https://t.co/p1DLCGn6CB,1231877223608700928,lidovky,46105253
"@Jarin50926789 @TomasZdechovsky @AndrejBabis @kducsl Tenhle závěr máte z jakého pozorování ?Z Bakalových novin, ČT… https://t.co/DAMr0W0NmC",obcancz,730451397867622400,1231917618338172930,"@obcancz @TomasZdechovsky @AndrejBabis @kducsl Ja Zdechovskemu nic nezeru, jedna se ciste o muj osobni zaver vyvoze… https://t.co/8NyvugnEmE",1231897991277162496,Jarin50926789,966683797382205440
@petr_sudek @AVejmelka @PavelFolpi @RobejsekPetr ?,obcancz,730451397867622400,1231896270001901575,"@obcancz @AVejmelka @PavelFolpi @RobejsekPetr Než budete mít chuť někoho hodnotit, zkuste si nejprve zamést před vl… https://t.co/Zy06MhsteQ",1231877643139788801,petr_sudek,790663733534199809
