child_body,child_screen_name,child_user_id,child_tweet_id,parent_body,parent_tweet_id,parent_screen_name,parent_user_id
@beneslenka @FilipHorky @jakubzelenka https://t.co/EF1jbBDzhx,OTPI10,2306166363,1231864814298959874,"@OTPI10 @FilipHorky @jakubzelenka To je pouze Vaše interpretace. Filip nic takového nepsal. Pak se nedivte, že máte… https://t.co/fiwGzRilcz",1231857653858676736,beneslenka,1086276800
@beneslenka @FilipHorky @jakubzelenka V cem je lepsi pristup Necase od Zemana. U servilniho Necase je to pochopitel… https://t.co/GopxFHLch1,OTPI10,2306166363,1231857009840021504,"@OTPI10 @FilipHorky @jakubzelenka tak jo. Otázkou: ""v čem je to jako lepší, ušlechtilejší přístup?"" jste reagoval přesně na co?",1231855977433108481,beneslenka,1086276800
@beneslenka @FilipHorky @jakubzelenka Nemam na nikoho naroky. Co me to podsouvate? Obycejne se zeptam a tohle se “r… https://t.co/uTeX2FtZx5,OTPI10,2306166363,1231854431664267265,"@OTPI10 @FilipHorky @jakubzelenka máte recht, hodnocení tam je. Od Vás. Ale rozumím tomu, že na ostatní máte jiné n… https://t.co/zOTkdGhCti",1231853550214483970,beneslenka,1086276800
"@FilipHorky @beneslenka @jakubzelenka Ano, zadne hodnoceni tam neni, pouze to @FilipHorky “definoval” (to je uplne… https://t.co/BolumvhHRx",OTPI10,2306166363,1231852582370529281,@beneslenka @OTPI10 @jakubzelenka Ono tam není. Ale pan OTPI to tam potřeboval vložit.,1231850997573726208,FilipHorky,68405620
"@FilipHorky @beneslenka @jakubzelenka A v tom je to jako lepsi, uslechtilejsi pristup?  Nejak presprilis si to doho… https://t.co/oxdgPVi6pR",OTPI10,2306166363,1231849673889021952,"@beneslenka @jakubzelenka Já bych to ještě defnoval tak, že zatímco Nečasova argumentace svědčí o tom, že z toho vy… https://t.co/o26oK8CVSA",1231842598270185472,FilipHorky,68405620
"@KarelHavlicek_ @KarelHavlicek_ zachranar roku. Karle, Ty a pan presdeda jste upli supermani. Jeste ze vas to blbe Cesko ma.",OTPI10,2306166363,1231570206616694785,"S ohledem na sílící vítr jsem dnes opětovně aktivoval koordinační skupinu, ve které jsou šéfové Ředitelství silnic… https://t.co/X1WAE6USPv",1231568723032657921,KarelHavlicek_,1105851826702897152
"@AndrejBabis Poslys, ty zlodejsky grazle @AndrejBabis , prestan tady z nas vsech delat ufnukane vyzirky co chteji n… https://t.co/6iCASTRW91",OTPI10,2306166363,1231508698620727301,"A i když není dohoda, mělo to smysl. Teď víme, která země kde stojí. Budeme pokračovat na dalších summitech. Bojova… https://t.co/hgghgPQI9K",1231114142716715013,AndrejBabis,713035525
"@JaroslavFalynek @Sakrasta1 @AndrejBabis @eucopresident Spravne, pred predsedou vsechno zaprit. Jeste bych chtel ta… https://t.co/FNox7wSlFJ",OTPI10,2306166363,1231270920700006403,"@Sakrasta1 @AndrejBabis @eucopresident Si asi s něčím pletete, my tam v igelitkách nosíme jen tříděný odpad",1231256650201346050,JaroslavFalynek,1014926334290784257
@Victor_Tovikrov Nemlzite tak trochu?,OTPI10,2306166363,1231235889436729346,"Z případů ombudsmana:

Borec omylem poslal prachy na nesprávný daňový účet. Finančák mu je odmítl vrátit, protože o… https://t.co/iKLzvNqTwe",1231162223357317120,Victor_Tovikrov,4373230119
"@Tatlow8 @robertzaruba @PhillDanus Je prece naprosto irelevantni, jestli jste komentator, redaktor, zoolog nebo tre… https://t.co/VzchoJRpgc",OTPI10,2306166363,1231224162628313092,@robertzaruba @PhillDanus Jste šikovný sportovní redaktor a svou práci nepochybně neděláte povrchně. V této věci se… https://t.co/byIRfIxPpe,1231185111036702720,Tatlow8,1016506940950659072
