child_body,child_screen_name,child_user_id,child_tweet_id,parent_body,parent_tweet_id,parent_screen_name,parent_user_id
@realphilhazard Kyselý nebo zásadový?,SetkaMiloslav,901450574620749824,1232021396903137280,Navrhnul jsem si nový logo jako iniciály mýho nickname a použil jsem random barvy. Co na to říkáte? https://t.co/C2PoNEKe3U,1232020943234641926,realphilhazard,20172481
@Jan62928357 Ono se to v ČSSD moc nepozná. Blbů neurekom,SetkaMiloslav,901450574620749824,1232020655119503361,Jak je bez blba Foldyny ? https://t.co/bbCm3xaJpj,1232003704460627968,Jan62928357,1149664745357754368
"@MartinBiben @Aktualnecz A uvažuje. SPD nebo ANO, nebo trikolóra? Všechno blbě Jardo.
Ta pravá partaj pro tebe je k… https://t.co/JFR7focLlV",SetkaMiloslav,901450574620749824,1231994596265164800,"Největší extremista v ČSSD Foldyna (těžko říci, zda levicový nebo pravicový) opouští stranu 25. února - v den výroč… https://t.co/2Fk8ujNT3G",1231940945379196932,MartinBiben,806557538
@MilanFladr Zaplacený.,SetkaMiloslav,901450574620749824,1231306240422301697,@SetkaMiloslav soudce Sommer je zřejmě idiot...,1231277091246759940,MilanFladr,1455346152
@PetrTnv Ruka v rukávě? Není lepší ruka v nohavici?,SetkaMiloslav,901450574620749824,1230955167081779200,"Když si žena nechá hladit stehna a záda, je už ruka v rukávě? 🤔😉😁",1230939432968183808,PetrTnv,791687737082580992
@SeznamZpravy Opustil nemocnici a odjel do Pelhřimova.,SetkaMiloslav,901450574620749824,1230927096937172993,"Předseda komunistů Vojtěch Filip v pátek po dvou dnech hospitalizace kvůli infarktu opustil nemocnici. 

https://t.co/g8eq7FMdAo",1230808130239574017,SeznamZpravy,723053842267398144
"@ales___1 @AndrejBabis @KarelHavlicek_ Na to se pamatuji. On tehdy šel za doktorem a ten řekl uříznout. To se
mu ne… https://t.co/bbCDkwqipJ",SetkaMiloslav,901450574620749824,1230795299490275329,"@SetkaMiloslav @AndrejBabis @KarelHavlicek_ A navíc mu upadlo péro, protože v Maroku chytil při koitu s velbloudem… https://t.co/7I5fbF7KEf",1230790522937249793,ales___1,948880382908338177
"@maestrosill @KarelHavlicek_ Fakt jsem nevěděl, že pan multiministr má tak dobré vztahy s Francií.
Tvl. žlutý vesty......",SetkaMiloslav,901450574620749824,1230592748983640064,"Multiministr @KarelHavlicek_ právě v živém vstupu, přímo z centra dění, informuje na Nově, že začíná rekonstrukce D… https://t.co/musS4sf9Nq",1230568623141347332,maestrosill,15231505
"@Aktualnecz Chcete identifikovat šmejda? Pokud se ho zastává Babiš, pak jste na 
správné adrese.",SetkaMiloslav,901450574620749824,1230442731220197378,"Kuberovi jsem cestu na Tchaj-wan také nedoporučil, říká Babiš a zastává se Jindráka https://t.co/zy1vDPnZ1K",1230442085020524550,Aktualnecz,63115636
"@JanFar_sky Nového ombudsmana zvolila sněmovna. Zvolila geronta, jehož morální kredit je spíše záporný. Jaký asi je… https://t.co/SNMxFKiU0O",SetkaMiloslav,901450574620749824,1230440679538601986,"Dnes převzal úřad nový ombudsman.
 
Chtěl bych vyjádřit velké poděkování paní Anně Šabatové za čas a energii, ktero… https://t.co/3NN7DY0YMz",1230437863407398912,JanFar_sky,721019072528400384
