child_body,child_screen_name,child_user_id,child_tweet_id,parent_body,parent_tweet_id,parent_screen_name,parent_user_id
@LiberalJiriO @FoldynaJaroslav At jde hlavne do prdele.....,TomasGuinness,758221934970675200,1231995259724476416,"No konečně, ale že to trvalo. Cesta k SPD, vandasovcům, Janě Volfové nebo Mlausovi se @FoldynaJaroslav otevírá. https://t.co/7xL2pUpWdA",1231934827865223168,LiberalJiriO,1036000062038581248
"@MikesVerca @PaulLife6 @Tapr20 Zatim co ty, drzitelka vysvedceni z osme tridy, stoupenkyne nacelnika Bocniho vetra,… https://t.co/tFTh4dhncd",TomasGuinness,758221934970675200,1231993927697342466,"@PaulLife6 @Tapr20 Ne jako  každá metropole...
Vy držitel diplomu ze zahraniční univerzity, stoupenec Grety se takt… https://t.co/DvEq5SUKjB",1231911184208744448,MikesVerca,3241685410
"@BrecaPetr Za dite je do doby jeho zletilosti odpovedny rodic, dale je chybou prislusnych ""veriteu"", ze nekontaktuj… https://t.co/iOjObj5QhJ",TomasGuinness,758221934970675200,1231936125515767811,"Já pořád nějak nemohu pochopit, jak nezletilé dítě může být zodpovědné za svůj dluh. Tohle je systémová chyba, kter… https://t.co/IC52yJp8aF",1231918703777898497,BrecaPetr,877469076951584768
@PaiMei791 Nezastavi....... Presne tak.,TomasGuinness,758221934970675200,1231927327464005633,"@TomasGuinness Solidní Koniáš, jen nechápe, že pokrok nezastaví ... https://t.co/JsvOYLll1x",1231926954716168193,PaiMei791,712753623768428546
"@VaclavKlaus_ml Ale za rok, prej bude i missak kriva huba, Veno, mas to v kapse, ale bacha, kriva neni jen o vzhled… https://t.co/fkmtQHT76Y",TomasGuinness,758221934970675200,1231925461950894081,Naprosto diskriminační soutěž. Proč nemůže soutěžit třeba osmdesátiletá babička (Oma:-))? Ta nemůže mít hodnotný ži… https://t.co/gpY3a5ZTaE,1231916217855881216,VaclavKlaus_ml,715165012055171073
"@_sukovf @TomZdechovsky @BlanikZ No, soudim jen podle nekolika serveru ( takze to neni reprezentativni vzorek, ale… https://t.co/n0eNbXCwye",TomasGuinness,758221934970675200,1231924729763725313,"@TomasGuinness @TomZdechovsky @BlanikZ Je otázka, do jaké míry se skutečná přání zákazníků podobají překotným naříz… https://t.co/NjgJRNMwec",1231924114706849793,_sukovf,1316022847
"@P_Fiala Na kolik? Kde? Co s pripadnymi propustenymi? Co analyza na urovni obci, kraju s nakonec celeho statu aby j… https://t.co/BHtFurUFmX",TomasGuinness,758221934970675200,1231923468234522624,"Vláda zavaluje lidi stále dalšími a dalšími povinnostmi, potom samozřejmě roste i počet úředníků. Naším cílem je zr… https://t.co/bcGHcvY5TM",1231895234856079362,P_Fiala,1464550303
"@1nikdo Budu hadat. Veledilo se jmenuje: ""Zviratka obdivuji kundu.""",TomasGuinness,758221934970675200,1231923037156659203,Tohle mi pripomnelo jeden obraz FR Cecha. (Screen K. Peka) https://t.co/KBeKfAZq0p,1231922261575249920,1nikdo,2164929979
"@_sukovf @TomZdechovsky @BlanikZ Tak to ano, to by bolelo, ale meli uz vetsi prusery, s kulhanim, ale dostaly se na… https://t.co/Ek4ACxY6EF",TomasGuinness,758221934970675200,1231921486400802816,"@TomasGuinness @TomZdechovsky @BlanikZ Nejde o jednu německou automobilku, ale o celý DE automotive, který tvoří ~5… https://t.co/OdykAYrbiT",1231920817690333186,_sukovf,1316022847
"@ondrejpales @TomZdechovsky @BlanikZ Ona ta ""lokalni evropska taskarice"" jak to nazyvas je docela problem pro celou… https://t.co/hz6vl7kXZs",TomasGuinness,758221934970675200,1231920274200834049,@TomasGuinness @TomZdechovsky @BlanikZ A kdo to posuzuje? A podle čeho?,1231919485092843521,ondrejpales,133638824
