child_body,child_screen_name,child_user_id,child_tweet_id,parent_body,parent_tweet_id,parent_screen_name,parent_user_id
"@rjicinsky @Hospodarky Nemyslim, ze nutne musi nastat tento scenar. 😉",vitulrych,248274121,1231965544892555264,@vitulrych @Hospodarky A tohle je budoucí hejtman... protože bohužel ovce mu to hoděj...,1231957633625677825,rjicinsky,89457564
@kubakutilek Dnes předkládá F. Weisbauer z naší @KoalicePCE Řešení problematiky adaptace na klimatické změny a problém sucha. 🌿☄️,vitulrych,248274121,1231842655077912576,"Pár praktických příkladů, jak adaptovat město na změnu klimatu. https://t.co/INriVQVZFE",1231838832062062593,kubakutilek,1112806320
"@VlastimilWeiner @JiriSeidler2 V patek a v nedeli mi telefon ukazuje, ze bude v Pardubicich snezit! ❄️",vitulrych,248274121,1231823970799845377,Překotný až praštěný vývoj letošní zimy. Jen chvíli jsme mohli stavět sněhuláky opravdové. Pak už jen atrapy (třeba… https://t.co/rHQqivLQkz,1231551642727833600,VlastimilWeiner,847048460666896384
"@honzajs82 @KoalicePCE @HCPCE @telhcz Nebojte, v tom nejste sam. Nyni ale myslim, ze je sance na ocistu i bez padu o soutez niz.",vitulrych,248274121,1231820658230931456,"@vitulrych @KoalicePCE @HCPCE @telhcz Navzdory tomu, že jsem fanoušek a přeji si, aby se hokej udržel v extralize,… https://t.co/hFeuKUmnlW",1231762736373227525,honzajs82,1690508150
"@HPrahy Ja to nectu, ale tam neni nic o tech zlych bohatych tradicnich statech EU, ktere nam (rozumej Agrofertu) ne… https://t.co/pwpgCflX7g",vitulrych,248274121,1231676018534100992,"Tak jo, Čau lidi je o slepicích.
A o Andrejově dětství,  jak prarodičům znárodnili hospodářství, museli do JZD, a j… https://t.co/E5ZjCVduHp",1231673777722986496,HPrahy,1008751848457719808
"@LukyHorak @KoalicePCE @HCPCE @telhcz a @Preeema Jiste chapete, ze Vam na tuto odpoved nemohu jako clen vyberove ko… https://t.co/etrlfXLqls",vitulrych,248274121,1231572434282852353,@vitulrych @KoalicePCE @HCPCE @telhcz Petr Dědek 🦾,1231545567291101184,LukyHorak,1326450878
@Posledniskaut Pro KLDR s jejim zdravotnictvim by byla epidemie #coronavirus doslova a do pismene smrtici. Proto ta drasticka opatreni.,vitulrych,248274121,1231312229087301632,"Podvečerní severokorejská - Ruský velvyslanec v KLDR Alexander Macegora: ""Karanténa kvůli koronaviru není příliš od… https://t.co/t5cbQ3lSLy",1231276591717797894,Posledniskaut,884811990
@janhrabal @srny73 @iROZHLAScz Ani ne Honzo. Kdyz on se s temito pribehy nejak roztrhl pytel. Chces sem jeste nejake dalsi priklady? 🤷‍♂️,vitulrych,248274121,1231241680956854273,@vitulrych @srny73 @iROZHLAScz Princip kolektivní viny? 🤷‍♂️,1231215070828486658,janhrabal,141916655
"@srny73 @iROZHLAScz Ja chtel puvodne napsat jeste jine slovo, ale neodvazil jsem se 😀",vitulrych,248274121,1231143193347084288,"@vitulrych @iROZHLAScz Chytrolín? Spíš typický ksindl, kterých je v ANO plno...",1231140008477831168,srny73,136248740
@Posledniskaut Hlavne Lucie Svobodova je opravdova dama....,vitulrych,248274121,1230930825522352128,Veselý. Gentleman. https://t.co/x0aNm8EWoC,1230929388662902785,Posledniskaut,884811990
