child_body,child_screen_name,child_user_id,child_tweet_id,parent_body,parent_tweet_id,parent_screen_name,parent_user_id
"@AndrejBabis Hmmm, 20% ve Francii bychom možná i zkousli, kdybychom vůbec měli na to tam jet 😁 Možna by jste si vy… https://t.co/7IvEAWn95C",havlikova_alice,987010934102216705,1229732216512688130,"Francie, hory, 2200m nad mořem, vysokohorská přirážka. 0,5l čepovaného piva 15 euro, DPH 20 % = 2,5 euro, přátelé.… https://t.co/5qMZVhFoph",1226491528266297344,AndrejBabis,713035525
"@BBC Stay strong🍀 You’re beautiful ❣ 
Amazing make-up job🤩",havlikova_alice,987010934102216705,990501480586244096,❤️ This make-up artist is using her skills to help scarred women feel beautiful again. https://t.co/BuQ3vMwtPn,990306166910701569,BBC,19701628
"@AndrejBabis @etabery @czKSCM Velice doufám, že se vy i vaši voliči budete brzy smažit v pekle... Nic víc si nezasl… https://t.co/HKC9bOqvEu",havlikova_alice,987010934102216705,988516939457880066,"Gratuluju Vojtěchu Filipovi ke znovuzvolení předsedou @czKSCM. Těším se na společné jednání s KSČM a ČSSD, snad to… https://t.co/IvCXW60PH7",987697282773549062,AndrejBabis,713035525
