child_body,child_screen_name,child_user_id,child_tweet_id,parent_body,parent_tweet_id,parent_screen_name,parent_user_id
What..?,BathedInDeepFog,a4iea,fkietmx,"Titus always has had interesting themes, going back to FCW when he threatened to put his wood on people.",fki4q8a,TheLoneWolf527,itfju
Brother Runt from The Brothers Grunt agrees.,BathedInDeepFog,a4iea,fkgoc9g,EV 2.0 legend Kahoneys agrees,fkg7kyw,pushinpushin,421ol0e3
God dammit. We all know what he meant. It was the four sides of ropes.,BathedInDeepFog,a4iea,fkgnxl0,Only with that damn four ropes promos in the middle of the peak of the cesaro section times,fkgllau,spiritualpunk,l7c38
Oooo. Also good points. This is a pretty smart sub. “Snake-like.” Nicely said. You just changed my opinion.,BathedInDeepFog,a4iea,fkgmxth,"Depends on who you ask, as I’ve also read exactly the opposite. I guess it’s just a bit old-timey and not in popular use anymore. See: Gone With the Wind or the psychic in Poltergeist. I believe the character of Alpha was affecting the accent to sound more preachy and hypnotizing. Much like her snake-like and animalistic movements were put on. Otherwise, they’d have her speak common like the British actors of The Gov, Jesus, or Rick, et al did.",fkgm4eq,Inessence4,6juht
I was hoping someone from that area would respond to my comment with some clarification on that. Thank you. Rick’s diction never really bothered me to be honest. Lincoln seems to be a really good actor from my naive perspective. Maggie though... I remember getting a ton of upvotes for commenting “It’s Glan!” when she saw those balloons,BathedInDeepFog,a4iea,fkglewj,I don't know what part of Louisiana those people claimed they have heard that accent but it is not from New Orleans not even close. I was born in New Orleans. Samantha's diction coach was the same for Lauren and Rick. Rick's accent is a better choice. Even Lauren's to an extent. That diction is awful. I hated her accent from the moment she spoke. So glad we never need to hear it again. That being said this episode was good but it felt incomplete to me. The ending was abrupt and off kilter. I had either Carol or Daryl as the person that let him out. It makes every decision Carol made considering that choice stupid and reckless. Earl and Judith were phenomenal in this episode. Ironically I felt something when Negan spoke about his wife's cancer. It spoke to a real experience for me personally. Its just odd that he would tell it to Alpha. That kiss at the end is a shock to me because he seemed like he actually cared for her. I expected more of an emotional scene there between Carol and Negan considering her emotional state this entire season. She was so nonchalant like season 5 Carol. I expected more.,fkgj7x1,SlmDiva30,3m1pcbpl
Yes! He should’ve just shot beta if he had the clear head shot.,BathedInDeepFog,a4iea,fkgguib,"I kept thinking she was about to get stabbed too when looking at the sky... why didn’t Alden just shoot Beta? Speaking of him, looks like his game is starting to show haha.",fkgdybx,Aus_10S,4l11zwjf
I’ve always thought it sounded kinda silly but I saw a bunch of people on here say that’s what a NOLA accent actually soundslike IIRC. I also found the ways she would tilt her head and stuff like that to be kinda cartoony villainry.,BathedInDeepFog,a4iea,fkggqqa,"I got used to Rick's as the show progressed. Morton's is far, far worse, in my opinion. I've loved her in other roles but never cared for her portrayal of Alpha.",fkga06x,Euphoric_Translator,24fqi9jq
"Yeah, a lot of people in Hilltop had to have died.",BathedInDeepFog,a4iea,fkggjkh,"The final scene was awesome. It was Carol's plan all along. Not 100% sure why she would continue to do such stupid and risky things if she already had Negan out there, maybe she didn't trust him.

The episode was great. I really wonder what's going to happen to Carol next. They will find out she unleashed the Negan, and ultimately everything that happened really falls on her shoulders.",fkg65f1,sebrebc,1642u8
"Absolutely.  Sitting here by myself I exclaimed out loud, “Fuck yeah this show is awesome now! Thank Christ!”",BathedInDeepFog,a4iea,fkge7uh,"Best episode of the season. That ending was so satisfying! Yes, yes, god damn yes!",fkg7c1i,caglebagel,1423x0
That percentage makes me happy. Still so much to come.,BathedInDeepFog,a4iea,fkg4buw,It struck me last night that we still have 19 episodes left of 63 total. That’s about 31% of the show left!,fkg1cah,BrovyIe,oyely
"“Damn Miz, you have great legs! You’re wearing trunks from now on.”",BathedInDeepFog,a4iea,fkfvfci,"""Dem legs tho"" -Vince McMahon, probably",fkfn0av,I_like_cakes_,3bnzn3ml
As a reminder of how creatively unfulfilling things used to be.,BathedInDeepFog,a4iea,fkdbbmp,"I had always assumed that storyline was just not spoken of in their household, but now I choose to believe Jon legit held onto it for some reason.",fkcpak4,Pyrozooka0,xa34d
"Man, I’ve seen some odd comment burials here, and this is one of them.",BathedInDeepFog,a4iea,fkdb6fc,"Hey man, I’m sure she’s got some major three minute long interviewing to get done.


(Look guys, Renee is awesome. But does she really do anything on SD outside of maybe five minutes of tv some weeks?)",fkcoseu,Reverse-Arrow,rjqgf
"You’re the real WrestleMania, Roman.",BathedInDeepFog,a4iea,fkdak3v,The real WrestleMania was the pandemic we had along the way.,fkbxo8a,bigpig1054,bm9m8
Chuck’s real suspicions of Jimmy and his crackpot psychosomatic illness?,BathedInDeepFog,a4iea,fkd7rcy,Funny how Walt from that episode is a lot like chuck. Hiding their real suspicions behind some crackpot obsession.,fkd611u,kiddfrank,hnjx8
Wow. The original comment is out of the hole at a +1 as of this comment. I thought it was gonna get buried. You’re just full of surprises.,BathedInDeepFog,a4iea,fkd7okf,I actually think most of them *don't* look better with makeup -- except Ruby. I think the issue is that WWE's makeup is so grossly over the top. I'd like to see a set like this of all of these women with *regular* makeup and especially *NO PHOTOSHOP* or filters of any kind.,fkd2855,Isk4ral_Pust,400r5xat
Heheh I came here to read the most downvoted comments. Nobody has really dared to say that any of them look better with makeup. I’m slightly surprised.,BathedInDeepFog,a4iea,fkd19qp,"I'm here for the wreddit virtue signaling and white knighting. ""ThEY ArE StiLl So BEaUTiFuL! GO KwEeNz!""",fkcswu3,Isk4ral_Pust,400r5xat
I was just teasing,BathedInDeepFog,a4iea,fkckqn8,What I meant is that it is a world of unkown to our gender,fkc9i0r,Mohamadyahia,nl317
The power of makeup is a man?,BathedInDeepFog,a4iea,fkc7ioc,"I hope I don't offend anybody
Yes they look different . Especially Io , Rhea and bianca looks really good without it
As a man the power of makeup is really scary to behold",fkbpeiy,Mohamadyahia,nl317
Thanks for adding nothing.,BathedInDeepFog,a4iea,fkbx5vn,Steriods have killed many people (including wrestlers).,fkad54x,SoccerJon,21v44i7i
It makes the most sense when I think about it. He had that Dr in BB that treated him and Mike after they went to Eladios. So they must’ve been tailing Mike on his walk home and jumped in to stop those punk hoodlums. Thanks.,BathedInDeepFog,a4iea,fka6b6r,"There’s this dude who does these analyses of all the BCS promotional material and he did a breakdown video of how, based on footage has been released and leaked set videos, its either the Vet who gives Mike shady jobs (doubtful he’s in Mexico) or Gus’ Doctor.",fka4x0i,lunch77,10sss1
Ah ok. Cool. Was that confirmed on the insider podcast?,BathedInDeepFog,a4iea,fka4rr1,He is Gus’ Doctor. It has been confirmed.,fka4ext,lunch77,10sss1
RIP to your lovely Abuelita,BathedInDeepFog,a4iea,fka3am6,"It's ok.  I did try to get my mom to watch BB at the same time, and she is the other lost cause. But I wasn't too hopeful there--we never like the same things. Thanks.",fk95tw4,stefanica,idmkc
Oh man. This is probably gonna happen. :(,BathedInDeepFog,a4iea,fka3263,"> Over 5 scenes we've barely seen anything. and Kim is like hate/love Jimmy every 2nd episode. 1 episode she likes him alot. next nearly hate and says ""if you play your cards right..""

I think this is key to my theory that we're *meant* to see Kim as the one who will eventually leave Jimmy, only for it to be more shocking when it's actually *Jimmy who leaves Kim*. Like his lunch with Howard last week, illustrating all the more clearly that Jimmy has a choice, and chooses to be the agent of his own demise.",fk9g2md,MikeArrow,bh19q
He was pretty hot back in the Mr Show days imo. Looked like he might've worked out a bit.,BathedInDeepFog,a4iea,fka2zcy,"Especially when Bob Odenkirk is half of that equation...  *shudder*

Don't get me wrong, the man is an amazing actor, but there's no way watching Saul Goodman grinding away on Kim wouldn't leave me permanently brain damaged.",fk98ab3,JackalSpat,11wwg2
I knew someone had to have beaten me to it.,BathedInDeepFog,a4iea,fka2x23,The only [sex scene I enjoyed.](https://www.youtube.com/watch?v=fKoQWhcdUHM),fk9wfq0,spankymuffin,69avd
Team America,BathedInDeepFog,a4iea,fka2udy,"I can count on the fingers of one hand, sex scenes that IMO added value to a movie or TV show.  Implied sex onscreen goes a lot further than explicit sex, most of the time.",fk8xp05,SPedigrees,q71mz
Wow. No wonder you guys and gals up there are so smart.,BathedInDeepFog,a4iea,fka2928,"Yes, we do.  Grade 4 curriculum for Ontario says the students need to identify and compare quadrilaterals and sort and classify them by their geometric properties.  Grade 5 students get to distinguish between polygons.  Fun stuff.",fka1pxn,thedevilyoukn0w,ol4j3
I am. That's why I thought the comment was funny.,BathedInDeepFog,a4iea,fka26n0,"You're not aware of why Hebner got fired from WWE, I see. It's a wild story.",fka1qv5,SpecialistProfessor7,571cuz8x
"It was Todd. They had a one night stand but she wasn't interested in a relationship. He became infatuated. (jk, sort of)",BathedInDeepFog,a4iea,fka24xi,"Maybe someday we'll learn why Gus has children's toys in his house or why Howard wears a wedding band.

I'm still vaguely partial to the idea that Gus and Howard are a couple with an adopted child.

For that matter, based on the timeline, Lydia has to get knocked up pretty soon. I kind of want it to be Lalo who does it because then Lydia's kid would be another Salamanca out there.",fk8d8to,bardbrain,6faf9
"So true. They've never ever let me down. I wasn't big on ""Fly"" at first but that was hardly a letdown.",BathedInDeepFog,a4iea,fka201e,"I initially was protective as hell over Fring’s mysterious past but the fact that the creators of Breaking Bad and Better Call Saul has never let me down has led me to believe if they reveal more of Gus’ story, it’ll be even better for the fans. They will do right by us.",fk6mjbh,lunch77,10sss1
"I kept reading these comments and wondering ""what doctor?"" So I went and watched it again. Are you guys talking about wherever it is that Mike woke up after being assaulted? Is it confirmed to be Gus's Dr or is it just a really strong and obvious prediction?",BathedInDeepFog,a4iea,fka1vwc,"My prediction: 

Gus' doctor knows what happened with Gus in Chile. He tells Mike a story. 

This influences Mike's opinion of Fring, causing a domino effect for him to start working with him in a permanent capacity.",fk6e4wj,lunch77,10sss1
Do the teach geometry that early where you're from? I think I took that in 10th grade and I was ahead a year in math at the time.,BathedInDeepFog,a4iea,fka19em,"Circle.

Triangle.

Pentagon.

Rhombus.

I can get almost enough from AEW to teach geometry to my grade 4/5 class!",fk9u8ff,thedevilyoukn0w,ol4j3
Hahaha. If this isn't just a joke it's /r/notkayfabenews material.,BathedInDeepFog,a4iea,fka15xg,"Rumors are he's their merch guy, and has taken it upon himself to collect certain orders from PWTees, and then bring them to the car parks of the arenas AEW is in",fk9vvfs,lakhyj,1csf4r5
"""I have to go now. My planet needs me."" -Kris Statlander",BathedInDeepFog,a4iea,fk9z2vu,"Whenever Cody's not on screen, all the other characters should be asking ""where's Cody?""",fk9he3t,jackcos,cszrr
"I don’t think steroids can fuck you up in like a euphoric way. I could be wrong, I’ve never talen them before. I think he’s just referring to addictive psychoactive drugs.",BathedInDeepFog,a4iea,fk9ncu6,"Where the fuck does it mention any type of drugs in the tweet?

It just says clean and sober for 9 years. So no drugs for 9 years which is obviously not the truth.

I really hope he is clean (and been clean in the last 4 years) but tweeting this horse shit when it clearly can be fact checked is stupid of him.",fk8p2yx,SoccerJon,21v44i7i
"Sounds like the footage from Fall River, MA.",BathedInDeepFog,a4iea,fk9n2bi,"On the Scott Hall documentary the wwe released, there was an appearance he he did on some indie show, and it was legitimately one of the most harrowing things I've ever seen. He was on his feet somehow, but I doubt he was even conscious at the time. Really had me reflecting on some life choices.",fk9ko30,ThaStoniest,12ww13
I’d marry Kim.,BathedInDeepFog,a4iea,fk5uus1,"Kim is one of my favorite characters introduced in BCS. So agreed, never less Kim.",fk5nros,MayorPufnstuf,vg1vj
"> Also I know Steve Wozniak used to collect 867-5309 in a bunch of different area codes, just so he could answer calls.

LOL Really?",BathedInDeepFog,a4iea,fk5m2eh,"I'm sure.  I know The Wire had to spend a lot of money for several years to get West Baltimore exchange numbers for the show to look authentic, but the phone company made them pay for the number for something like 5 years so it wouldn't be reassigned and harassed.  

Also I know Steve Wozniak used to collect 867-5309 in a bunch of different area codes, just so he could answer calls.",fk52qdh,Slpry_Pete,rmw75
Yeah I saw the Rico DVD. Who’s this Cena kid?!,BathedInDeepFog,a4iea,fk5jeyh,Yoooou looook sooo good to me,fk5entx,JDC4654,9fb8y
Stone Cold can do that?,BathedInDeepFog,a4iea,fk5id70,Wrestlemania is a much bigger threat than a local weekly AEW show because of the sheer number of people and the number of people that travel internationally for the event. The latter is a big reason behind Austin canceling SXSW. I,fk4vcqk,mrbrannon,4ahgx
This is the main reason I want to cut my hair short again. I’m so sick of it.,BathedInDeepFog,a4iea,fk5h6u2,"I've grown my hair out recently (up top, not down below) and I swear my shower length feels like it has quadrupled.

My hair has always been _very_ thick, so it took a thorough washing even when short, but by god it's like having a wookiee on my head now.",fk4xeu2,MattSR30,dse9r
So he stole the leap?,BathedInDeepFog,a4iea,fk5g096,"We're the audience, so we're seeing him in his real form. Those around him are seeing someone completely different who also just happens to resemble Mick Foley.",fk432au,monosaturated,ysn1z
Where else was this posted?,BathedInDeepFog,a4iea,fk58bo9,"You need a lot of background understanding to get what's going on here and it looks like some idiot has posted a wrestling clip in a non-wrestling community.

This clip, from 22 years ago, is not intended to be taken seriously or to amuse. The two men in the ring are friends, forced to fight one another, they're obnoxious immature bad guys who are making a mockery of the whole competition.

You're not supposed to get it if you're not a wrestling fan - this show was doing rather well in 1998. It should not cross your eyes, so blame the person who posted it somewhere other than a wrestling forum.",fk54ur7,RiC_David,dp32o
FUCK DR FINGERPOKE OF DEATH!,BathedInDeepFog,a4iea,fk580sq,and yet we all heard constant bitching about the finger poke of death for how long? Still?,fk4lbsg,sammo21,c2e7a
MOTHERFUCKER,BathedInDeepFog,a4iea,fk57shb,"☑️ Ruse 

☑️ Ploy 

☑️ Plot 

☑️ Charade 

☑️ Conspiracy 

☑️ Sham 

☑️ Conned 

☑️ Hoodwinked 

☑️ Bamboozled 

☑️ Wool Pulled Over Our Eyes",fk4o05w,chudslayer,414ua
Now he’s just sitting there. What is he doing?,BathedInDeepFog,a4iea,fk57hjs,Vince McMahon has crawled into chat.,fk42yx8,flashaguiniga,esrso
97 was my favorite year of WWE.,BathedInDeepFog,a4iea,fk56jxj,"It was the perfect synergy of everything, his body, his gear, the DX intro, and his in-ring style all meshed so perfectly, I know it's over the top, but this original DX run really tapped a vein with me as a kid.  And, we're fortunate because it kept him alive, but once Shawn came back sober and on the straight and narrow, a lot of the edge and attitude that really helped push this iteration of HBK over the top to me was gone and it was never quite this good.

So much of this version of Shawn was fueled by the man behind the curtain who was falling off the rails, but it wasn't sustainable.  But any time he tried to recreate this sort of attitude, it never felt as real as '97.

Both Bret and Shawn were impeccable in '97 to me, incredible matches, venomous promos, and maybe the best time a wrestling company ever blurred the lines of kayfabe with it not coming across as hokey or too convoluted.",fk411an,uptonhere,al2xm
Expecting to get heat too but I gotta agree. I like Letterkenny too but people constantly spouting the same slightly funny catch phrases gets a little old after a while.,BathedInDeepFog,a4iea,fk55dfr,That show doesn't hold a candle to Trailer Park Boys.,fk49ipl,JDBZ,djap1
I’d prefer “These Eyes” by Biohazard. Fingers crossed.,BathedInDeepFog,a4iea,fk54w2x,"And set it against ""these eyes"" by the guess who",fk4hlil,mahavishnunj,dt3rh
Great point. I forgot aboat that.,BathedInDeepFog,a4iea,fk54mn5,"I mean, he laid out a *perfectly folded* towel beneath his knees while vomiting up the poison in the cartel stronghold when seconds passing may have rendered him comatose.",fk4y6nv,CandyEverybodyWentz,yby9t4s
Yeah the towel example in the orher reply is one I’d forgotten about.,BathedInDeepFog,a4iea,fk54kou,Suddenly? Every facet of his character has always shown that is immensely obsessive compulsive,fk51hv1,g-a-g,k6tp1
OOhh! My B,BathedInDeepFog,a4iea,fk4utx3,I meant in her finisher name which was Wings of Love.,fk4tr0p,SethRollinsIsCool,534p5jne
Wings in her name?,BathedInDeepFog,a4iea,fk4t573,"Michelle was always an indy mark. Her favorites were always AJ and Daniels which is why she’d use the Styles Clash and the Angel Wings as finishers. Hell, she even kept the word Wings in her (edit) finisher’s name as a reference to the Angel Wings.",fk4cvy9,SethRollinsIsCool,534p5jne
I thought they were suddenly trying to portray that he has OCD.,BathedInDeepFog,a4iea,fk4s9mh,Absolutely. I feel like him touching and readjusting the frying pans in the end was showing that he actually was unsatisfied with the way they looked lol,fk4ac6a,Eggplantosaur,zt7df
"And I think they mean imitated, not initiated.",BathedInDeepFog,a4iea,fk4lary,"For the record, Ross has Bell’s Palsy. I don’t believe he’s ever been said to have CP. Two different maladies.",fk44xzv,mark_target,d9px6
Except for being tall,BathedInDeepFog,a4iea,fk4ksto,Jeff Cobb does everything he does but better and is less problematic,fk4jtny,BuckBacon,6w5er
They went to Billy’s,BathedInDeepFog,a4iea,fk381q4,I mean it looks like he's in Mexico so I assume those people who attacked Mike now live in barrels.,fk2qjje,BillTheCommunistCat,4dbl6
Like the Chinaman who stole my kidney?,BathedInDeepFog,a4iea,fk2vled,"Chinese have concentration / reeducation camps for millions that aren't considerex prisons, and also harvest the organs of prisoners.",fk2tu71,cpa_brah,ctdc2
I get up. I get down.,BathedInDeepFog,a4iea,fk1r3lj,"He heard them chant ""Cena sucks"", not a heel move. 

Super baby face move: he brought those fans closer to the EDGE of their seats!


I'll See myself out....",fk100ru,Merc_Mike,6s15y
"Wait, how did that kill him?",BathedInDeepFog,a4iea,fk0r7zx,"I don't think that, you are the only one saying that. 

A kid in my hometown literally killed himself by launching a bottle rocket out if his mouth. Humans in general are borderline too stupid to survive, and teenagers are even more stupid than that. Most manage to not do anything catastrophically stupid, but many do end up doing things that stupid. 

Terrifying? You seem very easily upset.",fjz9fvo,betterthanyouahhhh,4u0xjlw9
ooo that’s a good one,BathedInDeepFog,a4iea,fk0nz64,https://en.m.wikipedia.org/wiki/Tamam_Shud_case,fk0aplj,sniggity,10q0l
\m/,BathedInDeepFog,a4iea,fjzdmu6,I like yours.,fjzda3f,Lainey1978,fjwyv
"That’s awesome. 

> 300 day a week

I like that he did Steiner math in your dream.",BathedInDeepFog,a4iea,fjzceg3,"I once dreamt I was being forced to do a 300 day a week workout by Scott Steiner and he kept threatening to put me into the recliner. He also called me fat a lot and kept shouting promos at me. Then  he suplexed me out of the building and for some reason, I challenged him to a hat on a pole match. I won via DQ after Sting interfered and Kane proceeded to destroy the entire building. 

&#x200B;

I really hope my brain isn't taking lessons from the Russo way of writing.",fjyxds7,Thebritishdovah,2lbcoghw
"Right. I knew I must be forgetting something, which was the big bag of crystals he was holding up. Your other points are very valid too. Thanks!",BathedInDeepFog,a4iea,fjytn26,"Well they were just Tucos goons, and seeing how Tuco beat one of his bodyguards to death for saying ""just remember who you're working for"" to Walt, I'd say his goons are probably conditioned not to act without Tuco's approval. 

Tuco could have killed Walt right then and there if he wanted to, but Tuco wanted Walt around because he already knew Walt was an amazing meth cook, and he probably didn't want to get blown up either lol.

Walt basically played Tucos bluff, because he knew he had leverage being the master meth cook he was. Walt also had less to lose considering he already had terminal cancer.

In addition to that, after seeing the size of that explosion from just one crystal, that entire bag could have easily leveled that entire building if anyone shot him and he dropped it.

Even if one of Tuco's goons shot Walt and they didn't all get blown up, I'm sure Tuco would have killed the shooter for killing the best meth source he's ever had, and risking getting everyone blown up.

After Tuco gave Walt the money his goons knew not to fuck with Walt, because if Tuco wanted Walt dead, Walt would have already been dead, and his goons knew that.",fjyqf3k,Stank_Lee,iyr0y70
"While that was an awesome scene, I also found it to be one of the least realistic in the whole series. I might be misremembering something, but I doubt all those bad guys would really let him just walk away after that.",BathedInDeepFog,a4iea,fjyk0cz,"Ahh yeah that's right, that's how he was introduced to Walt to begin with. That whole situation with Tuco was what really pulled me into that show. It was good up until then but the feuding between Walt and Tuco just took it to a whole other level. The fake meth explosion to this day is probably the coolest scene I've ever seen on any television show ever.

""This..... is not meth"" Kabooooom lol so fucking awesome",fjybob7,Stank_Lee,iyr0y70
"Huh? Sorry, I’m new here.",BathedInDeepFog,a4iea,fjygmcj,Redirected to usual Torrent client...much painful! 😫,fjygj5o,LustrousGhost,5nmwe67y
I’ve heard that even in his new-found sobriety he can still be quite the asshole.,BathedInDeepFog,a4iea,fjyeobg,"He did many horrible things while not under the influence of drugs and/or alcohol, including no-showing events and holding up promoters for more money too",fjliy1s,Cwf1984,4x2e9kgf
It’s the only disease you can get yelled at for having.,BathedInDeepFog,a4iea,fjyelnp,"If you view alcoholism as a choice, by all means punish him for making it. But if you view it as a disease I don't think taking vengeance against someone who has recovered is a great way to impart justice. I would not refuse to hire someone for having once become completely unreliable at work if that unreliability was caused by cancer that is now in remission.",fjlhogu,ilovebuts,11bk8r
"Actually, maybe keep him around Hangman constantly. Any time Jake gets ahold of a beer Hangman will take it from him.",BathedInDeepFog,a4iea,fjye6d2,Somebody keep him away from Hangman!,fjl49yr,The_Homie_J,rbq4u
That’s actually remarkably normal for a wrestling dream. Not like the time Punk saved me from a forest fire.,BathedInDeepFog,a4iea,fjyd4ym,"I had this dream last night that DDP showed up and revealed he had the original WCW Championship belt, and the one that came to WWE was a copy that he swapped out at the last Nitro.

This led to Flair coming out, challenging him, and then beating him for the title.

Flair then said there was no way Cena would beat his record, because he had just won #18, woooooooooo.",fjy52tu,Genetic_Jealousy,h16lt
I still think they undervalue Bryan. If I was booking he’d be my top babyface.,BathedInDeepFog,a4iea,fjycvtf,"He was on the preshow last year when he and Rowan went after the tag titles after he lost the WWE title. Though, that could be a case of the WWE undervaluing the tag team division per usual.",fjy59f9,FlyingFootStomp,lq8w9
Me too. Competely blanked Diesel’s IC run and thought the face he made after Sami said it indicated that I was correct.,BathedInDeepFog,a4iea,fjy9zob,Honestly had it backwards. Thought Nash never had the IC belt but X-Pac did.,fjy2n3p,Tom_Dynamite,nbt52
Jeff Goonnee,BathedInDeepFog,a4iea,fjy9h1o,And J E Double F,fjy34f5,Lessiarty,70gyn
If there’s a hole in the side of their face that they’re sticking their tongue through they’re probably being sarcastic.,BathedInDeepFog,a4iea,fjy9boe,How can we tell if someone is being sarcastic if they don't use /s? It's literally impossible to know.,fjy6nqu,TristanUndIsolde,4zp9a9r6
LOL first thing I thought of too,BathedInDeepFog,a4iea,fjy8m2g,Saved by the Shockmaster.,fjy8f6s,TristanUndIsolde,4zp9a9r6
"“Have you seen by brother, Chris? (Holds hand up) You know, Abyss?”

In TNA he played an unmasked character who was Abyss’s brother named Joseph Park. He was a lawyer. The guy’s actually a pretty good actor.",BathedInDeepFog,a4iea,fjy8i6b,"I feel like introducing him would be difficult. He’s never been on WWE TV before. 

Also, who’s his brother?",fjy6u27,HighestFlyFlow,5dm0ghg8
"Just backstage. So far. He’s getting up there in a age but I’d love if he did at least one match, or maybe his brother could do something on screen.",BathedInDeepFog,a4iea,fjy59ws,"Abyss is in WWE????

Backstage or does he wrestle? Because I haven’t heard much about him.",fjy3y6x,HighestFlyFlow,5dm0ghg8
It actually stands for Skip and Darren and was meant to commemorate the Nexus.,BathedInDeepFog,a4iea,fjy56so,Wasn't it just to represent SmackDown?,fjy3gxu,SourMgk,5r5qu
Hope he doesn’t let anybody mention Ed Nordholm in any promos.,BathedInDeepFog,a4iea,fjy4sq2,Quick google search says he’s apart of Impact’s creative team.,fjxslr2,biglenny26,qpqrq
"“Please, just call me Big.”",BathedInDeepFog,a4iea,fjy3mo3,"I imagine this as a press conference with big e on the podium, saying exactly this and all the reporters going crazy.

""MR.E, MR.E, A WORD, MR.E""",fjxzjbr,TheTallOne93,azx72
I just think they’re neat.,BathedInDeepFog,a4iea,fjy3i3b,You can tell it’s neat cuz of how it is,fjy1lqo,annoyinglyclever,5myij
"I just found this:

https://www.reddit.com/r/Shazaam/comments/5m8o02/shazam_shazaam_with_sinbad_was_real_and_here_is/",BathedInDeepFog,a4iea,fjxyxxc,"Post it! As far as I know, I’m patient zero of the Shazam Effect (for real).",fjme86v,neonangel1977,2isc1zxl
Nice username lol,BathedInDeepFog,a4iea,fjxypzo,"You are conflating conspiracy theory with paranoia. They are very different things but they have been purposefully mashed together by tptb. 

Conspiracies are very real and they happen all the time, an ordinary person needs only to observe. Paranoia, however, leads to outlandish and irrational ideas disconnected from what one actually observes.",fjnm1in,IndridColdwave,4bh23f1k
That must’ve started because of that Homer vagina tattoo,BathedInDeepFog,a4iea,fjxvuta,I just learned something new thankyou sir,fjxnxls,jm3lab,2p52tu7x
Why do some people not like El Camino?,BathedInDeepFog,a4iea,fjxnxm1,"Here’s the best analogy:

Breaking Bad = The Godfather

Better Call Saul = The Godfather, Part 2

However, El Camino > The Godfather, Part 3",fjxidbo,Detzeb,14cepi
"> What? Is “NCIS New Orleans” someone who served in the Navy?

Hahaha! I’ve replied that way so many times and either nobody gets it or they think I’m a dick because it always gets downvoted.",BathedInDeepFog,a4iea,fjxnmbg,"I was disappointed that I couldn’t recall immediately any specific instances of my related pet peeve, especially the example from a campaign ad that has been annoying me for two months.

Usually, the statements I hear with mismatched clauses are something like, “as a busy defense lawyer, executive sedans are the best.”  What?  Are executive sedans busy defense lawyers?  

“As someone who served in the Navy, ‘NCIS New Orleans’ is the best of the franchise.”  What?  Is “NCIS New Orleans” someone who served in the Navy?",fjxmjr3,SumHighFalls,2hb1730a
"Yeah, most people would have left out the “to me” part.",BathedInDeepFog,a4iea,fjxfi1d,"As someone who rarely agrees with others, your comment made sense to me.",fjwurqd,SumHighFalls,2hb1730a
You’re one of the only people on reddit I’ve seen who uses the “as someone who etc.” line correctly.,BathedInDeepFog,a4iea,fjv7nga,"As someone who learned English as a third language, I agree. I'm no James Joyce, in fact I feel the opposite pressure to use normal words and not sound like a dictionary(I hope this doesn't sound like I'm humble bragging about it, it's cringy to flex your linguistic prowess needlessly). I envy you natives you are so lucky in being able to articulate what's on your minds in a natural and fluid way, all the more impressive when it comes out like Jimmy, man is an artist.",fjsalga,SenslessTooth,i8hm5
I knew a guy who measured distance in the beers he drank to get there.,BathedInDeepFog,a4iea,fjv7cja,only somebody from Chicago measures distance by time,fjumg05,Cautious_Practice,1psx2j4x
And you can’t teach that! I mean... his executed his autobiography excellently,BathedInDeepFog,a4iea,fjqpee6,"Best book there is, best book there was, best book there ever will be!",fjqkr2f,superrad99,y4i4p
Jesus. How is it still legal in some places?,BathedInDeepFog,a4iea,fjqji9e,"Can’t speak about what company I work for but I do it for a living. Due to the nature of it we get constant wellness breaks, therapists on site, funny videos playing on tvs 24/7 and a ton of other perks. The hard part is coming across videos of CP which is illegal in most countries but not all. So if we come across it from a legal country there’s nothing we can do as far as reporting it goes. CP rhymes with wild corn.",fjqho1e,o0_Eyekon_0o,6pyzh
"Yeah. And also, dish soap is an efficient multi-taker.",BathedInDeepFog,a4iea,fjqct2t,As if anyone in the Gallagher house could afford Dove.,fjq1w6m,StabigailKillems,39mm7mhk
Thank Christ.,BathedInDeepFog,a4iea,fjpxzj7,"Seems like he's doing better at the moment 

https://twitter.com/ScottDAmore/status/1236171480515268609?s=20",fjpvb9j,JuiceheadTurkey,26mwjna5
Starship Pain kinda blows. Doesn’t look like it would hurt at all.,BathedInDeepFog,a4iea,fjpn0k7,I kinda hope he starts using that as a finish over Starship Pain to be honest,fjpkz91,KaiserDynamo,lp06x
It’s takes a inventing mind to create this Microsoft.,BathedInDeepFog,a4iea,fjpmwv7,PowerPoint Gulak is so great he got over with Microsoft themselves.,fjphikf,Pyrozooka0,xa34d
I was surprised when they first stopped doing the politician type character and went with a more traditional approach. Glad he’s brought it back! People Powerpoint!,BathedInDeepFog,a4iea,fjpmuda,This gimmick will work better on the main roster than “guy who’s really good at wrestling” is the thing.,fjph6fh,Pyrozooka0,xa34d
Just look at it!,BathedInDeepFog,a4iea,fjpmkac,Yes. Look at I,fjpi2xe,SleeperHold296,3yr9lov3
Oh wow. This is the first I’ve heard of it. Very interesting. I could see how that could be difficult. Makes me think of Clockwork Orange.,BathedInDeepFog,a4iea,fjpm094,"Yes. Same with facebook video and all the other reputable services (even pornhub).

&#x200B;

Increasingly there is use of ""AI"" and other tools to help filter things out. But the stakes are high enough that there are still human beings checking the borderline content and anything else that meets certain thresholds.

And their lives are hell",fjpl4cw,Milk_A_Pikachu,3iskiooq
"Oh dude you gotta check out Mr Show. It was made by Bob Odenkirk and David Cross. I think most of the episodes are up on youtube too. 

Haha yes. I used to work with a girl we would call Jay Quellin because of that sketch.",BathedInDeepFog,a4iea,fjpjy27,"Honestly, never heard of Mr. Show sadly. East/West bowl is such a classic. So funny. So quotable. But Substitute Teacher does it for me. Every time.",fjpj41a,DrDizzle93,1x0cd02r
"Yeah, what flaws? I thought it was great but I must not have the attention to detail others do.",BathedInDeepFog,a4iea,fjpj86v,Go on,fjopgpi,CoolBeansMan9,arswz
