child_body,child_screen_name,child_user_id,child_tweet_id,parent_body,parent_tweet_id,parent_screen_name,parent_user_id
">We could all just be behaving normally right now if we wanted to

that's fine and dandy but humans are instinctively driven animals that like to panic",dickturd9000,3b219blm,fki6nt4,"Err, we're still not at a point where stocking up would be necessary except for the fact that everyone doing it is making everyone else do it just in case. We could all just be behaving normally right now if we wanted to.",fkh29k7,FatOldBrokeFix,51lslmxq
maybe for you. Anyone paying attention saw what was coming the first or second week of January when it came out it had a 10 day+ incubation time.,dickturd9000,3b219blm,fkfuhz7,"Actually, that probably was a bit premature haha",fkdy6vl,FatOldBrokeFix,51lslmxq
not when you're friends with people who refused to prepare,dickturd9000,3b219blm,fkdii28,6 weeks is a bit much probably....,fkdg5u3,ManofManyTalentz,9n2ak
eat more fiber. Then you get poops you barely have to wipe,dickturd9000,3b219blm,fkdeqwn,"Maybe 4 mega , supersized roll per month.   No way for regular size rules going to last me a month unless I have a bidet.",fkdeh0s,I_can_vouch_for_that,kk4cc
"oh baby, warm fondue temperature water to pucker my chocolate starfish. I'll have to look into this",dickturd9000,3b219blm,fkdd0zx,"Gotta go full gangsta and tap into the sink water supplies, so you get custom-temperature ass spray",fkdcxmg,dsac,4g36e
"i see this as good news though, honestly. If that many people have it and aren't dropping dead from pneumonia, it means it is far less severe than people are making it out to be. Which is what we're seeing in Korea where they have extensive testing. Something like a 0.6% fatality rate",dickturd9000,3b219blm,fkdcsdk,"Very, very far. Tom Hanks got it in a country of 24 million that only had around 100 confirmed cases. Chances of him interacting with one of those people seems really slim. It must literally be 1000x worse than what they are saying for all these leaders and celebrities to have gotten it.",fkd0ck5,cryptonewsguy,k1ykpw5
"he'll disappear for a few days, rumors will start, and then pence will announce it in a press conference that everyone already knows the purpose for. Then the stock market will take an even bigger shit, and insane retards on reddit will celebrate. You heard it here first !",dickturd9000,3b219blm,fkdcjm8,"He'll probably deny it despite being AWOL from the White House and hiding out at the Mar a Lago for ""Winter Break"".",fkd3r9w,cobrachickenwing,4cmvyodm
can only imagine how insane it will be over the weekend or when more high profile people come down with the wu flu. I really hope this event causes a consciousness shift in our society. People should already have disaster food on hand.,dickturd9000,3b219blm,fkdbz14,"My girlfriend is a cashier at Superstore, we just bought some extra food for just in case, she compared the current traffic to Christmas Eve traffic.",fkd7fxh,Geeseareawesome,2oa3qgz
"this is absolutely illegal though. Price gouging laws exist for scumbags like this, at least in the United States.",dickturd9000,3b219blm,fkdbva9,"You can thank this couple for the lack of Lysol. Apparently they clean out every Costco in the lower mainland on a regular basis.

https://www.thestar.com/news/canada/2020/03/12/were-hustlers-amid-coronavirus-fears-this-couple-has-made-more-than-100000-reselling-lysol-wipes.html",fkd9ya5,Shiara_cw,434el
"toilets are connected to the water supply with a flexible hose that you can unscrew. You put the bidet between them. I'm not sure if you use a tee fitting or if the bidet has a connection for the toilet, but either way it's easy",dickturd9000,3b219blm,fkdbmxj,What do you install it on for the water source?,fkd8otq,hootervisionllc,sk6ffpe
"seriously, canned food and other non perishables are way more important than wiping your ass. If you have a shower head, you can clean your ass. People's behavior makes literally no sense to me, especially the fact they waited until NOW to panic buy when the writing was on the fucking wall a month and a half ago",dickturd9000,3b219blm,fkdbec7,"Why are people buying so much toilet paper?

I saw a woman on the NYC subway home today carrying two packs of 6 paper towel rolls each.

Nothing else.

Just 12 paper towels. 

I guess they ran out of toilet paper.",fkd6jf6,BenevolentCheese,qsnss
">thought it just didn't get the job done 

but you thought smearing the poop around with a piece of paper would? It blows my mind there is almost a stigma surrounding bidets in the west",dickturd9000,3b219blm,fkdau7t,"Honestly, my mom has a bidet at her house and I always thought it just didn't get the job done, but after seeing all these replies I'm starting to think she just doesn't have a good one.. time to hit up Amazon.",fkd5l3u,mattchew1993,836eg
how much do people shit that they need so much toilet paper? 4 rolls is reasonable enough for anyone to get through a month. Excessive even. You see people with 60 or 80 rolls though,dickturd9000,3b219blm,fkdaq6z,"I went shopping in Toronto two supermarkets and both were not busy at all, everything (except TP) in stock.",fkd91td,thedrivingcat,4d1rj
"I feel silly saying this but people literally laughed at me for buying 6 weeks of food and some other necessities like toilet paper, maybe a month ago. They laughed when I said they should get a few weeks of food just to be safe

who's laughing now assholes...",dickturd9000,3b219blm,fkdamm4,I tried to go to Costco for regular every day reasons after work. I didn't even end up parking. I just bounced.,fkd1p14,FatOldBrokeFix,51lslmxq
they have it for the same reason games hold guns 2 inches from your nose and wave your gun around like a rain stick when you sprint,dickturd9000,3b219blm,fkc3qnr,It's also worth mentioning it's fucking stupid... Not sure why any games have head bob. It's unpleasant and pointless. Why is this even a thing at all?,fkc38t6,imabustya,6fn1s
"absolutely not true, played plenty of games on medium settings with ""minimum"" reqs. It's completely arbitrary and chosen by the devs / publisher",dickturd9000,3b219blm,fkc3d8x,"""Minimum requirements"" are just the requirement to start up the game, this doesnt mean the game is playable. every single game minimum requirements are like this.",fkbvddf,AyFrancis,10f5vb
they already changed the rules to get bloomberg in and keep tulsi out... of course they'll change the rules again,dickturd9000,3b219blm,fk6bxrq,"No lie, TYT is reporting that they're already trying to cancel the debate. They're trying to keep Biden out of the public eye and they're not even trying to hide it at this point",fk61quq,NilSatis_NisiOptimum,yg9o8
"they sure as hell don't make them like that anymore. The modern ones have unreplacable cables that connect screen to mobo, that wear out after being opened so many times",dickturd9000,3b219blm,fk3203j,"I’ve got a MacBook Air from 2012, first computer I ever bought, took me two summers of mowing lawns to save up for and it’s still going strong, even after I dumped a glass of water on it a few years ago",fk2kpo7,imnotbeingserious69,4uiz05zg
this. Skyrim had dragon priests iirc. It's a generic term like god.,dickturd9000,3b219blm,fk2vqx1,"Priest is generic for a certain type of organized religion. I hear people refer to ancient Egyptian priests, Aztec priests, etc. If you want to be a bit more distinctive, just do research into various cultures and their titles, based on the flavor you want to create.",fk1j94d,Abdul_Hazarat,5khve6vi
how would the MC see his own eyes? Assuming he is the narrator. Omniscient narrators fell out of fashion a while ago,dickturd9000,3b219blm,fk27sc2,">But I am unable to find any spots where I can attach a description organically.

here's an example: 

>“Okay. Gimme a second. I’ll be there.” MC started setting the device, **his bright blue eyes burning with concentration.**",fjxs5ae,zeppo_shemp,9e2g5
I write all my first drafts with pen and paper. Not having a screen is a god send. But unfortunately editing is only practical with a computer,dickturd9000,3b219blm,fk26rot,"If it helps, you don’t necessarily *have* to sit at a computer when you get home. Good ol’ pen and paper.",fk1fmyg,pretendsquare,uukxg3i
"I'm pretty sure everyone wants green energy to power the grid. Unfortunately that is technologically many decades away and we have to do what we can now. Natural gas is a necessary evil at the moment, that's just the sad reality of the situation. There is a lot of blame to go around, such as governments not funding peaceful uses of nuclear energy and instead trying to weaponize it at every single turn (there was an operating passively safe thorium reactor in the 60s that was axed) ... but here we are.",dickturd9000,3b219blm,fjzutc8,"Well, yeah, when in comparison to coal, I agree that it’s a better alternative. However, green is still better in every way, which is what I was getting at. 

Also, fracking releases toxic gases into the air, pollutes ground water, has radioactive waste, etc. And yes, I’m aware that when it’s done right that these can be kept to a very low minimum, but oil/gas companies have proven time and time again that even with strict government regulations in place that this will not be the case. Not to mention, it’s exempt from the Clean Water Act, which proves the government will not regulate its waste output to the level needed in the first place.",fjzu119,Wsweg,hqsqz
"wat. Natural gas outputs about 60% less CO2 per unit of energy than coal when efficiently burned. If we want to stop climate change our #1 short term priority should be replacing all coal plants with natural gas plants. They aren't that hard to retrofit. The only way that will happen is with cheap natural gas, which fracking enables. You can't have your cake and eat it too.",dickturd9000,3b219blm,fjztbnr,"Or, ya know, we could not rely on natural gas. Especially collection methods like fracking, which are bad for the environment by themselves.",fjzrxrk,Wsweg,hqsqz
"eh, they'll never be able to really compete with our fracked gas and oil. There's so much down there and it's so easy to get now with modern tech. The fracking boom initially began because the prices rose so high, and now they basically can't rise high again, at least here in the US. There's basically a ceiling on our gas prices until some moron bans fracking. Then we can have our $10/gal. Saudis can fuck around all they want, if they make fracking unprofitable then raise prices, companies will just start fracking again",dickturd9000,3b219blm,fjzpl6l,"Saudis lowered the price to where everybody can't compete, and once they have control, they'll drive prices back up. It's like Walmart putting local stores out of business and then raising prices.",fjzlm11,tonufan,od3yc
"purchase a firearm and train with it. For all you know the next time it could be a less ""nice"" crazy person who busts in through a window. Being scared in your own home is the worst feeling, it's a feeling of powerlessness, and having a weapon reduces that powerlessness. If you are a woman living alone don't take that chance. Even if you never have to use it, it's peace of mind",dickturd9000,3b219blm,fjzoi47,"Well take from me, it only takes one very not bad incident to change a person's mind. I've been anxious and jumpy all day. I'm honestly not sure I'll be able to sleep much tonight. The guy never made it in my house and I still feel very violated. My safe space has been taken from me. I've already checked the doors and windows like 3 times just to be sure.",fjzl1ew,WinterDog_SummerBird,4m5175cr
won't she just plead the 5th or muh confidential? Anyone with a brain would,dickturd9000,3b219blm,fjyexp9,Excellent. I hope it's broadcast. She should have to answer for her monumental fuck up.,fjyb5rz,my_nameis_mud,8yqhg
"the nebulae I've seen are usually an ethereal green color. OP said there's HII in this one, which releases a pinkish red when ionized, but I'm not sure that's ever visible with the naked eye. This is what the orion nebula looks like if you had a really sensitive naked eye, and this thing probably isn't different https://clarkvision.com/articles/astrophotography.m42-trapezium.true.color/m42.rgb.color.from.muse-i16g-RGB-b-srgb8.jpg",dickturd9000,3b219blm,fjy9sbp,"So are the colors not really there? Sorry for my ignorance but what color is this image, really?",fjxuw44,inthetownwhere,2vka6816
it's like taking a .01% opacity image in photoshop and pressing control J a couple thousand times,dickturd9000,3b219blm,fjy96km,"By combining, do you mean that this is actually many pictures stitched together? Amazing pic!",fjxwp9o,Yarakazam,rxti8
"since everyone else who replied seems to be english challenged, it's like the sun. Sunbeams. The sun beams on a warm cloudless day. When someone beams it's a radiant smile, that warms you like the sun",dickturd9000,3b219blm,fjy8fq6,"I don't know if it's slang or just used in a context unfamiliar to me, but what does ""beaming"" mean?

Sorry, not a native speaker.",fjy2aa1,Eoryr,nrlj0
your dad is a funny guy,dickturd9000,3b219blm,fjy8b7e,"I remember being in my parents room when I was young and my father (who had a very crude sense of humor) asked my mom if she wanted some shrimp. She said ""whatever"" and he told me to leave the room.

I stood outside for like 5 seconds before I opened the door to quickly ask them if they were going to tell me when I could come back in. He was holding his dick and like talking at her with it.

I guess it was some weird sex stuff, idk. He was really obese and I'll never forget how small but girthy(?) it was. Maybe an inch or two long. I can't forget about my dad's shrimp penis!",fjy2mbs,Joy-N7,2rd27j9l
"we'll never see an anti material or bolt action rifle again I guess, except on community servers that allow 2 marksmen",dickturd9000,3b219blm,fjx1ipo,"Great, can't use MK14 or SVD as anyone other than marksmen even in frenzy now, that fucking sucks",fjlfd3l,the_kilted_ninja,g0l5t
"they also haven't removed bots magically accurately tracking you when you go into cover for 3 seconds. I wish they'd just let someone from the community code the AI, or at least make it moddable",dickturd9000,3b219blm,fjx1g7v,So instead of fixing the aim-bot insta aim they have... They're removing the technicals? They're actually fun if you don't get instantly mulched by one.,fjnao28,pm_me_your_foxgirl,jckhf
wait did that happen to you too? Back when the game was fresh I got banned for no reason adn the only reason I was unbanned is I bitched about it on here and higby saw it and got it fixed right away. Bless higby,dickturd9000,3b219blm,fjws7vc,Password change doesn't do anything. I had thought they banned me for something silly again.,fjwgjca,Zettian_Maximus,d3h9s
if it makes you feel any better they smell like death,dickturd9000,3b219blm,fjnrhee,"I feel this way anytime I see a playful bear. I wish bears weren't so dangerous. Everytime I see one I just want to give it cuddles, but I also don't want to be a snack.",fjndcgk,JusticiarRebel,j3hpl
"the fact this shirt doesn't say ""coom"" is a tragedy

for those who don't know https://www.youtube.com/watch?v=0wdRQW8WmVI",dickturd9000,3b219blm,fjnlf34,Coom,fjndt1z,Rick_J-420,366za69e
"we dont even know what pvp in this game is going to look like or what form it will take. I can guarantee it won't be people in expensive ships ganking noobs in the starter systems. And as cliche as this sounds, people who pay early deserve some rewards because they're quite literally gambling money by funding the development of this game, it very well might never release",dickturd9000,3b219blm,fjm8d1q,"Yes, i have... but being someone who likes PvP, especially in MMOs,  being forced into the same PvP situations with godly gear and weapons when I'm just trying to get my feet off the ground isn't fun at all

of course i can do MMO PvE things, but that's like taking the extra sauce off of the steak that is MMO with PvP

it's just frustrating being time-locked out of something that people that bought the game before it even released aren't time gated out of because they were able to spend more money on the game... it's even worse that i can't spend money to get on their level after the game releases... more time-gating punishment for waiting after the product is finished before purchasing",fjkjpcp,organasm,4avcf
iirc they gave it out for free a while ago because they messed up something. Will disappear next wipe,dickturd9000,3b219blm,fjm80sn,"No, I am not a subscriber and I listed all the ships that I own or pledged for.",fjlv5pj,Timboron,ceaij
I'm pretty sure it's about perceived efficiency.,dickturd9000,3b219blm,fjl9bhp,"It's not about efficiency, it's about control.",fjkn3do,bmorefunyall,bmli6
not up to date at all on the tech but if I had to guess the future lies in fibers of some sort being added to the mixes. Can only imagine what titanium fibers or even plastic could do,dickturd9000,3b219blm,fjhtxie,"That was one aspect we couldn’t do very well until recently. New mixes are really getting kind of amazing, though. I got to look into using 30,000 psi concrete that hardens quickly and doesn’t shrink for infrastructure lately. The standard these days is still 3000-6000 psi and takes 28 days to reach service strength, shrinks quite a bit and is really susceptible to so many different failure modes. Really excited to see where we get the science to in the next few decades.",fjfvz8p,offthewall93,8eou7
"Roman concrete gets stronger over time so it is basically impervious to sea water. It grows a crystalline structure somehow. Modern concrete is not very strong in sea water, though I'm sure there are mixes that do it well.",dickturd9000,3b219blm,fjfv0k0,"I’m not an ancient Roman (but a stupid modern engineer) but isn’t the primary difference in that there’s no reinforcing steel in Roman concrete? Eventually, steel begins to deteriorate and that is almost always the cause for the first cracks and eventually spalls.

Also, most of the Mediterranean just isn’t as seismically active as many other places on Earth. I suspect many Roman ruins wouldn’t still be around if they were built in Japan or Southern California.

Edit: guys, guys, I get it, there are earthquakes in Italy. There are faults there, yes yes. Obviously, there are faults everywhere on this dirty earthen bitch. But you seriously can’t compare the vast majority of the Earth to the Pacific Rim for quantity and magnitude of ground motion.",fjfl9ty,offthewall93,8eou7
his ass,dickturd9000,3b219blm,fjfuqk4,any source,fjfuj0z,HappyHippoHerbals,lrswg
"honestly a simpler solution would be somehow lowering prices so an ambulance ride doesn't cost $10,000 thus necessitating insurance.... but hey I'm just a dreamer",dickturd9000,3b219blm,fjedace,"Come over to canada, simple solution (although not all healthcare is free here either)",fje5860,Yeekachu47,4to14tqx
"> human and property damage

this is called stupid people not building their house for the environment they live in (and also a lack of code on such a thing). Go anywhere on the East (literal) coast in the USA, people generally have houses built to withstand hurricanes or unusually high storm swells. Go to the West coast, they have earthquake resistant houses. In fire country you should have a fire resistant house/property. This would be rather easy to do with small natural wildfires that barely lick the bottom of trees but is difficult to do when you let brush build up unnaturally. When brands start flying around and landing on roofs, it's all but impossible to stop",dickturd9000,3b219blm,fjecbff,"I thought so initially, but then I watched a few fire chief interviews on the topic. All that I saw said that

1) backburning is not a silver bullet and it has a high risk-reward ratio

2) because of shorter non-fire seasons in SE Australia, it's not possible to do as much safe backburning anymore

3) the main reason for a reduction in backburning is the increased risk of human and property damage, not policies",fjdzlid,Tricky-Analysis,5k00pu4m
"no. Bush fires are a natural and necessary part of nature. Poor land management and not having more frequent smaller fires are the problem. Fuck the government basically. Short term comfort in not having fires that creates long term disaster 

I quote: ""Bushfires in Australia are a widespread and regular occurrence that have contributed significantly to moulding the nature of the continent over millions of years. Eastern Australia is one of the most fire-prone regions of the world, and its predominant eucalyptus forests have evolved to thrive on the phenomenon of bushfire""

There are plants that require fire to reproduce",dickturd9000,3b219blm,fjdk3o3,FUCK BUSHFIRES,fjdeyh0,Jackizback0,zqj8o
"surfaces of spheres have to be projected onto flat surfaces. The most accurate projection rips the poles all up and isn't really useful for looking at. So you end up with projections that keep the poles intact, but there is heavy distortion",dickturd9000,3b219blm,fjcur19,"Looking at Google maps, I was convinced this was wrong. Almost, Alaska looks half the size of the Australian continent itself. So I googled it. And in fact it is much smaller. Now I know I'm not crazy, but why is this? Does Google maps distort the size of land based on longitude or something? Some help I'm confused.",fjcp52o,Tina_ComeGetSomeHam,4p90ppf3
"or it got used to the microgravity like humans do because this is days into the experiment and it's just running because if you put any mouse in a cage it will run, especially if it has a wheel. In this instance the entire cage is a wheel. You guys really need to look into Occam's razor",dickturd9000,3b219blm,fjau97s,"Biomedical researcher here who works with NASA on balance research. One of the systems in our inner ear that detects vertical acceleration aka gravity (called the saccule) does not receive any input in microgravity conditions. Basically the mice are likely running around like that to mimic the effects of gravity and stimulate that part of their inner ear which can make microgravity feel much less disorientating.

Edit: Thanks for my first silver!",fjabtb0,jewkarjr,9zcw6
"as someone who has owned mice, they just really like to run. I even rehabilitated a wild mouse, and gave it a wheel, and it learned to run in it.",dickturd9000,3b219blm,fjau29q,"IIRC correctly the running mice were hypothesized to behave that way so they could comfort themselves/feel relatively normal (because the centripetal force from their running around acted similarly on their bodies/felt something like gravity). So, they are probably the ones screaming confusedly.

It's the mice that are free floating that are more like: ""Woo?""",fjaiiss,ThatGuyFromSI,4mf6ef0i
"I don't know why you got downvoted, I guess ""many"" is a weasel word. But I once met a girl playing a game and we somehow traded phone numbers and the first thing she asked for was a dick pic because she ""collected them""",dickturd9000,3b219blm,fj9615j,"That’s not true. Many women are abusive and predatory online (and off). Many demand dick pics, even.",fj9082a,Trauma_Frog,5c7thpgi
"I played with women in guilds in both WoW and Eve Online and nobody was ever disrespectful to them. And more recently I played with women in Planetside 2 and Insurgency:Sandstorm, and nobody was disrespectful to them. If anything, in my experience, having a woman in the mix makes all the guys work together better and act more polite.",dickturd9000,3b219blm,fj95nw5,This is how every girl feels to some degree every time she tries talking online.,fj8zxlk,Ambersfire,5tp8her3
but what the fuck does this have to do with writing a sci fi book or something?,dickturd9000,3b219blm,fj95k80,"This is legit, man. Ask a female friend what it's like. When a man goes out, he's lucky to get female attention. When a woman goes out, she's lucky to *not* get male attention. Most men use a low effort shotgun approach, which I gather is extremely annoying to be on the receiving end of. 

It's a totally different side of the coin.",fj90vpv,TomJCharles,w5rr1
"it really is the only fps out there like it. Locational damage, and a very high ttk that really make a high skill ceiling because luck is reduced. Plus loadout variety. I wish there was another game like it, but there isn't.",dickturd9000,3b219blm,fj95dk8,"The only reaspn I still play is because MWO is still the only PvP mechwarrior title out there, and its f2p. If you really need that mechwarrior pvp itch scratched with a low budget like me, welcome back. If not, stay away. Plenty of more polished games out there.",fhmqik8,JudgmentalApathy,5kffk7x1
"the theory behind it is that your head and back are both against a surface, so your spine doesn't distort when you are flung backwards in your reference frame. If only your back is against a surface, your back won't move when the car is hit, but your head will snap back and cause damage. So with the theory in mind, you want the seat and headrest to be positioned so while you are in your default comfortable driving position, they support your back and your head. And it should support your head at its center of gravity, otherwise your head would still fly back. For most people this entails the headrest being adjusted above the lowest setting.

When set up right it's not really comfortable at first but then again neither is a seat belt but we all get used to that. More modern cars have automatically adjusting ones",dickturd9000,3b219blm,fj5x4kc,Genuine question but what is the proper positioning?,fj5d5ho,threezygod,1mjqulr9
jesus. If the entire seat failed I wonder if you can sue the manufacturer? Because you're trusting that thing to save your life and not go flying,dickturd9000,3b219blm,fj5wyjk,"Probably true for many people, then there’s people like me who the Universe just hates. Had my headrest properly adjusted. Got rear ended and the impact broke my driver’s seat, causing it to go all the way onto the back seat... needless to say ended up with whiplash...",fj5knoa,Chaos_Theory_mk1,158ly3cn
"some people get struck by lightning like 10 times. Some people just have bad luck. If you drive for a living that also increases your risk. If you live in a city with morons that increases your risk. Rear ends are almost never the forward driver's fault because even if they refuse to signal correctly, the person behind has a responsibility to follow at a safe distance that allows them to stop in a worst case scenario, unless their brakes fail or something. 

This is why tailgaters need to die in a fucking fire. If someone hard brakes because a playing kid wanders into the street, they don't need your dumb ass ramming into them and pushing them forward into the kid.",dickturd9000,3b219blm,fj51phc,"I know people who have driven for decades and have had zero or one accidents. I find it hard to believe 7 accidents and they dont do anything wrong. Even if they are getting rear ended. Just because insurance says rear endings are the rear vehicles fault, does not mean you are driving perfectly.",fj4ufuq,PM_ME_UR_JUGZ,hafrp
"question: was your head restraint set up correctly? I have a feeling a lot of people don't have their seat and head restraint correctly positioned, and it's no fault of their own, this simply isn't something that is taught when you learn to drive. This has probably led to many avoidable injuries",dickturd9000,3b219blm,fj51g7w,Tell me about it.  I got rear-ended by a tractor-trailer at a red light.  The pain in my neck is undeniably harsh.,fj4mj1t,SeveralQuit,2lexy50f
do you even need an inert gas for this process though?,dickturd9000,3b219blm,fj4magr,Otherwise known as mig welding.,fj4e533,Ih8Hondas,9nfog
"3d metal printers are already a thing, they use a plastic binder mixed with metal particles and it works the same way a regular 3d printer works. The piece is then baked in an oven. They are used heavily in certain things now and are revolutionizing engineering, because with a cnc you can't mill the inside of a structure

OP's technology looks crappy in that demonstration but if refined it might be a cheaper alternative for simpler objects",dickturd9000,3b219blm,fj4lgsd,So 3d printing with metal?,fj47ccj,No1_RandomGuy,gqspsuc
at least it was at night,dickturd9000,3b219blm,fj2yat6,"I saw NSF's video of it - quite a violent destruction. Hope nobody was anywhere near it when it went off. ~~EDIT: apparently this was before the road was closed too. Wonder why they decided to test before the closure?~~ EDIT2: [Turns out the road was closed](https://twitter.com/BocaChicaGal/status/1233596330230079488?s=19), they just closed it earlier than the website said earlier in the day",fj2v587,ForeverPig,elxe0
hey facts against the narrative aren't allowed here on this very unbiased subreddit dedicated to very unbiased news. Downvoted,dickturd9000,3b219blm,fj2hfl1,"He did act though, there were programs in place for free testing in the effected areas, access to help signing up for Medicaid for those effected. Needle exchanges were illegal in IN, Pence was the one to reverse that law. You can argue that he acted too slowly, but you can’t argue that “He WaS hOpInG pRaYeR wOuLd FiX iT”.",fj1q11b,triconner,8hqop
aren't all iphones and sheit made in china? I have a feeling apple doesn't want to anger them,dickturd9000,3b219blm,fizcprl,Why nobody is taking about Apple here? It was apple who removed the software. They could have declined ;),fiy2jwq,Gamelabs,e8v4q
"thanks for the pandemic china. I wouldn't care at this point if the rest of the world teamed up and turned Beijing into a glass crater

As a side note, make sure you have at least two weeks of food. Don't be one of those guys who gets impaled by a swiffer mop handle during a fight over the last canned pineapple in the supermarket",dickturd9000,3b219blm,fizchag,"New update for Plague Inc., infect China first and you will automatically win because they'll cover up the spread until it has already hit every other continent.",fixuwjk,spar13,7oge7
"**nextdoor neighbor farts 500 feet away**

Cat : whelp I'll see you tomorrow",dickturd9000,3b219blm,fix04b5,Youd really hate to be a cat.,fiwqm3b,Torinias,n938l
those completely illegal house shakers always make me smile. I like to imagine a crowd of rednecks having the time of their life blowing up a garbage can. My cat on the other hand...,dickturd9000,3b219blm,fix021z,"Neighbors setting off giant fireworks 20 feet away like complete idiots. And I know it's weird, imagining that fireworks have enough power to shake a giant box like that. I didn't think it could and was horrified when I realized it did. I moved out of that area before the next holiday and into a much stricter area. But even in the city people will set off illegal fireworks like they *won't* catch a building on fire. (I do miss a good old 4th of July bbq and fireworks event... the redneck in me wishes I could stomach it but I avoid those events like the plague now, lest I get trapped near a set off point because people drank to much to drive my disabled butt home.)",fiwmupm,Cannibalistic-Fawn,3z2tkx73
yeah... us changed their policy a long time ago against sonic booms in civilian areas to the point most people under a certain age have never heard them. They have ranges for a reason. Hell they stopped doing low level flybys in the mostly empty nature preserve near me due to complaints,dickturd9000,3b219blm,fiwzwni,There is not an f16 on planet earth that is flying Mach two over residential neighborhoods,fiwzdog,zbs15,3dw3lfvm
overusing cliche metaphors is a big problem. We must avoid doing this at all costs because these overused metaphors lose their power.,dickturd9000,3b219blm,fisn9st,">I would like it if anyone had some advice on how to combat this habit of mine.

Be more literal. For example:

* ""His heart thundered against his chest like a mallet against a skin drum"" Actually, this one's pretty good. I like it. I wouldn't change this one. I can visualize the action, I can *hear* what it would sound like, and ""skin drum"" is an unusual image to use. All good here.

* ""He froze as still as a deer in the headlights"" This one's much too wordy given what you're trying to convey. On top of that a ""deer in headlights"" was pretty dull after the first guy said it probably a hundred years ago. You literally just need ""He froze."" It's succinct, blunt, does the job perfectly well, and echoes the short, quick action of ""freezing"" that the character is doing.

* ""The metal armor wrapped around the Knight's body like a steel carapace"" The problem with this one is that it's just repeating what you've already said. Metal armor wrapping around a knight is the same thing as a knight wearing a steel carapace. Again, quit while you're ahead. Either ""The knight wore a steel carapace"" or ""The metal armor wrapped around the knight"" is all you need. I prefer the ""steel carapace"" version because it's just more interesting than ""metal armor"". If you want to jazz it up a bit, say that the ""knight was encased in a steel carapace.""",fisc4hq,Minion_of_Cthulhu,njlhs
for a bit of context 2k is 8 pages and 5k is 20 pages. I've definitely seen chapters longer than 20 pages (hello SoIaF),dickturd9000,3b219blm,fismx5u,"It's really up to you, but the average length is between 2k-5k. Anything under is too short (unless it needs to be that short) and anything over 5k is a bit too long. I've seen short chapters over a span of 40 chapters or long chapters with only 15-20.",fishhzp,Jiinxx10,21yx2v4i
"yep. We should be pushing for a nuclear grid with solar in smaller applications like street lights and what not. Industrial scale PV is just awful for the environment, especially considering the fact energy use will go up an insane amount when EVs become the norm. I personally don't want the forests around me clear cut for ugly panels when a modest amount of real estate can pump out 10MW of clean (and now passively safe) energy with nuclear. There's already one PV yard near me and it's hideous and covered in snow half the year. Wind driven turbines are another environmentally unfriendly eyesore that need to die asap 

meanwhile the moronic new deal wants to ban nuclear because..... anti progress?",dickturd9000,3b219blm,filxlqk,"Residential PV is very expensive. Industrial scale PV and nuclear is cheaper. 
Power companies and governments should be building out economical carbon free grids rather than pass the bill to homeowners.",fiky6dj,kwhubby,grsbp
"not really. Xenophobia is part of the human condition so it's written about often. Stories about it are powerful and relevant. There is also endless depth to the notion that someone who helps society can also be reviled by it at the same time. The idea that you're only tolerated by someone so long as you are of use to them. The idea that those in government reflexively fear any threat to their stranglehold on control, almost like an immune system response. In my opinion if you can't see the depth here, it's *your* lack of imagination",dickturd9000,3b219blm,fij08ig,"if you can’t find another way to make your character flawed besides bullying/other external forces to make them ostracized, that’s just a lack of imagination.",fiit99s,papereater201,5erwdzo2
wouldn't the kerosene just evaporate? It's relatively volatile isn't it?,dickturd9000,3b219blm,fiioj7t,"We used to soak them in kerosene then lay them out in the lawn for a day or two to dry them out.

After that they made fairly long lasting torches.",fihhzpw,primewell,2mr8kr
"as a drumpf voter, it is not a good idea to compare Bloomberg to Trump. Just look at the difference in how they handled accusations of talking dirty (grab 'em by the pussy). One says ""fuck off it was locker room talk in a private conversation"", the other refuses to own it. Bloomberg should have said it was a different time, that's how we talked, times have changed for the better, now fuck off please, etc etc. Instead he just bent over and let Warren peg him with a big fat dildo. Buried in those reactions there's probably some psychological effect on people about how well they might lead, but I'm too dumb to articulate it

That said, Mr. SodaBan will probably pay off super delegates because the DNC's system is entirely corrupt, but oh well.",dickturd9000,3b219blm,fiin01p,"But ... do you remember how people talked about trump? How sure they were how unlikely his presidency would be? I was one of them, were you? I’m just saying: don’t assume anything anymore when it comes to American politics. The rules and the logic of it seem distorted.",fih8n5d,mrlanious,6ikzw
"yeah and axing them is completely alright. One of the things that stuck with me is from a book on writing I read. In it the author of the chapter said their agent told them to basically cut a third of their book out, but also said that writing it wasn't a waste of time because it helped them get to know their characters",dickturd9000,3b219blm,fiii5x7,"Oh okay, yeah I do feel that's where I'm heading. I have a feeling nobody wants to read an entire chapter about some of the stuff I've written.",fih0ybv,Strong_Physics,5he1tpy2
"IME just means 'in my experience'

as for the young protagonist who grows, it is a very common trope that's been done in a lot of different ways in fantasy books I've read. What matters is that it's done in an interesting way

don't be afraid to pants it and then cut half of it out. Even if you remove entire chapters you're learning characterization and where you want the plot to go",dickturd9000,3b219blm,figfwxn,"I saw your username and I was expecting something really condescending and rude, but luckily my assumptions were incorrect! Thanks, those points were really helpful. I'm trying to pants right now, and it is working, but it also feels like my draft is going to be 2000 pages long if I keep going that way. I think an outline would help.

The trouble with my story right now is my protagonist is quite young and is still preparing for the real world he is only slightly aware of at the moment. He still has a lot of mentoring and learning to go through.

Also, what are IME themes? Excuse my ignorance but I've never heard of those before.",ficr3x5,Strong_Physics,5he1tpy2
"""it is sounded smart""

the smart words of a smart man

smart is one letter off from shart",dickturd9000,3b219blm,fichol9,You sound grammatically elitist however you misused “it’s” so now I’m not sure as well...,ficg29d,ancientcetacean,2i4k7bfo
"I would like to add to your point that 5000 is literally nothing. If 1% of them buy your book, and that's being incredibly generous, that's 50 books. Literally jack shit.",dickturd9000,3b219blm,ficg9w5,"Ok, work at a publisher. Nonfiction, but it's a window into the industry.

Simply put, you DO have to sell your own work, so having a following HELPS. Publishers have to invest a lot in a new author to sell books, so an author with a network is damn helpful because it suggests they can move their own product. An author is the best salesperson for the book and they need to push their own product. Think of some of the top selling, or even just repeat, authors. They have websites, newsletters, social media. They nurture their audience and sell their book.

Does this mean you NEED a large network (and btw, 5000 followers is not large. You can't even use swipe up links in Instagram stories with only 5k followers...)? No, not at all. If a story is good, you should be able to get an agent and a publisher even if you are a digital unknown. 

Basically, publishers are looking for something they can sell. If you have an online following, it helps them think they can sell the book. If you don't? Well, that doesn't mean they won't take your book, just that they have more work to do to sell it. A social media following HELPS, but it isn't NECESSARY.

And, btw, I have absolutely no social following to speak of and my job does nonfiction and I write fantasy, so I am definitely hoping that the no following thing won't be held against me.",ficbpf5,BuggyTheGurl,1dbq31xx
"unless your name is Andy Weir. Or Peter Watts. Those two were always curious cases for me, they published their novels online entirely free and were still published after.",dickturd9000,3b219blm,ficg5mb,"Well, still most publishers aren’t interested in stories that the author has already posted for free online.",fic6d94,Pomguo,68ze1
honestly it's your cousin not your sister. Yeah it's a social taboo but it's a pretty dumb one as long as you aren't reproducing and ruining the gene pool. If your cousin is on medication it's probably a good idea to make up with her and make sure she doesn't feel guilty about ruining your relationship.,dickturd9000,3b219blm,fibfpf5,"I guess this is a good point, why would she do that - well, she was shitfaced too and the other detail that I didn't think would be relevant, but I guess it does a decent job explaining this, is that I remember her being super wet, like right away. So I guess she was into it too, *under the circumstances*. She's always been kind of strange, on a lot of medication, and I lived in a different state for most of our lives so we didn't know each other that well. Who knows man. I guess we're both just fucked up.",fiapzj1,fkditallup,5qu6sd9y
"100%. Intelligence is more or less your ability to learn new things. But some of the most intelligent people on earth don't have a creative bone in their body. So I'd say it's a measure of intelligence, *and* some innate talent, i.e., the way your brain is wired. Some people are way more musically talented, and I'd argue the same is true for writing",dickturd9000,3b219blm,fi9ae7z,Some people have to work much harder just to get half as good as others. It's definitely an aspect of intelligence.,fi85bzk,PGDW,50dhm0ul
"> All people are naturally bad writers

and some people stay naturally bad writers unfortunately. I think this is what OP was asking. Some people will always just suck at a given hobby. It's why I gave up drawing a long time ago. I just didn't have the talent for it.",dickturd9000,3b219blm,fi9a2pn,"Yes. *All* people are naturally bad writers. And musicians, and artists. Practice and accepting criticism and looking critically at your own work is how people improve.",fi7h7w4,Tesla__Coil,11jnt0
"I just realized you're talking about CRTs and that stuff. That makes no sense in a sci fi setting and in order for the audience to know what it is you'd have to literally spell it out because diagetically the narrator and characters would just call a screen a screen

if you really want to do it yu can just read science fiction from the 1950s and 1960s where they have some rather retro takes on the future",dickturd9000,3b219blm,fi2sqs5,"I’ve never written science fiction before, so it’s still a learning process. It’s going to be sci-fi horror and I’m more familiar with the latter than the science fiction element.",fi2faj4,franlcie,egmj9
"analog = a speedometer or other gauge with a needle

digital = an lcd display with a number instead of a gauge",dickturd9000,3b219blm,fi2shhk,What exactly is analog?,fi2g745,franlcie,egmj9
what if you put a big note up saying it's booby trapped? And have that note be booby trapped too?,dickturd9000,3b219blm,fhyzku4,"Usually illegal in most states *if* it can be shown that you'd have a reasonable suspicion that someone would fall for it.

Example: You dig a big hole in your yard and a guy sneaks into your yard and falls in the hole. That's fine. If you dig a hole *because* people have been sneaking in your yard then you'll probably be arrested.

It's dumb. But, it's the law in most places.",fhxryhf,fwipfwip,9kfun
"also worth mentioning the last time this happened it lost full authority but was still able to land upright. Guessing that's what happened here, if you watch the video there's a delayed splash of water on the camera. They'll probably be able to salvage grid fins and other components",dickturd9000,3b219blm,fhxxiji,"That's backwards, actually.  It stays on a safe trajectory that misses the drone ship or landing pad until the last few seconds before landing.  At that point it (the rocket) makes a go/no-go decision and chooses to adjust its trajectory to the landing zone or soft-land in the water.

It's designed this way to fail safe.  If something fails, i.e. it's going too fast, the attitude is wrong, it runs out of RCS propellant, or the engine doesn't light, then the drone ship or landing pad is not damaged.",fhxuljo,ElizabethGreene,pzdjy
"this was very good advice and op would have been stupid to not message you, but I don't think she was interested in hearing the hard truth, unfortunately. They also wrote in another post they hate office/computer work, yet here they are wanting to be an editor for some corporation. I'm actually kind of depressed now after reading their other posts, not gonna lie",dickturd9000,3b219blm,fhwlbcx,"Real talk: Most self-published authors make pennies. There are some who make a full career out of it, but they generally have 20+ books out, and most often are romance authors (just one of those quirks of the industry. Romance novels sell the best commercially). Even traditionally published authors generally need a day job along with their writing. For every Stephen King (making $42million last year) there are hundreds of thousands of smaller or midlist writers who are happy because their last royalty check is enough to pay for a nice dinner rather than just a cup of coffee this moth. You *can* make it big as a writer, but it's basically the same as moving to Hollywood to try to be an actor. For every story of someone making it big, there are hundreds of thousands more working as waiters while trying to get their big break--and many never do. You should 100% plan on having an external source of income on top of being a writer.

The good(ish) news is, you sound like you're planning for that by looking into publishing. The bad news again, though, is that more and more publishing houses are switching from having staff editors who make a living wage to freelancers/contractors who may or may not have enough to support themselves (and have to pay for their own health insurance :/) It is more likely to break into publishing, though, than writing fiction, so there is that. As others have said, though, having a self-published book is going to get you 0 interest in the editing world. Being a good writer in no way makes you a good editor (and being a good editor in no way makes you a good writer. My line editor is AMAZING, and yet she's talked about how she's amazed I've written almost a dozen books since every time she tries, she just can't seem to make one work). You'd be best off getting experience editing (you can start off by offering services for cheap to start a portfolio or you could do a certificate program) and building those skills, if you're interested in getting into the editorial side of publishing, rather than spending the $1000+ it costs to put out a professional self-published book that won't help you on the editorial side. 

(If you have questions, I am a published author who works as an editor for a midlist press to support myself, since my royalties don't pay the mortgage. I'm happy to talk about it, but definitely not the way to plan buying a vacation house in the Maldives).",fgk7qem,VanityInk,1vgpzi9f
"the reader isn't dumb, if you place clues as to the new situation / location they will piece it together. End a scene (unless you really have a reason not to) before it's ""over"", start the next one in the middle of the 'action'. If you ever watch a movie this is how scene transitions often work. Nobody wants to read or sit through 10 minutes of opening / expository garbage every single scene change. Scenes always begin on something interesting that makes the reader/watcher curious and want to continue reading/watching",dickturd9000,3b219blm,fhw0hfy,"Ugh, I'm having a horrendous bit of writer's block at the moment, because I need to figure out how to get the two main characters from their current location, to the location where the majority of the plot will take place. It's a significant location change, so it feels odd to just go from ""they are here"" to ""now they're here"", but I cannot figure out how to write it without it being boring.",fhvt72k,immortalsiren08,5md1q82h
"the judge also put a more or less unconstitutional gag order on him too so he couldn't discuss how fucking bias the entire thing was. 

viva frei did a great interview with mr barnes (who represented the covington kids) about how incredibly broken the entire process was https://www.youtube.com/watch?v=sqo12J90Rs4",dickturd9000,3b219blm,fhmuzhw,Or the prosecutors didn't stack the jury with a bunch of deranged leftists like the Roger Stone trial.,fhm9voz,xiao_ke_maga,4thosvnf
"If the Roger Stone case is anything to go by, he'll get 3 days probation because judges and juries are apparently loaded and corrupt",dickturd9000,3b219blm,fhmuc0g,"Could be up to 42 years in just this case.

When all of his court cases are over, it's likely that he'll be spending the rest of his life in prison.",fhm57vu,az116,le3g2
"indeed. It annoys me to no end that we do not have a culture of driving safety. Maybe it's because I'm used to the firearms world, where safety isn't an option, and if you are unsafe even in a way that only has a 1 in 100,000 chance for an accident, you will be expelled and ostracized 

meanwhile in the automobile world, speeding is cool and tailgating is the norm, two things that are definitely more dangerous at 60mph than violating certain gun safety principles",dickturd9000,3b219blm,fhgbjm3,"It does happen, a ton. Driving is the most dangerous thing we do in modern society.",fhfoxk4,Thorbinator,4k9jg
"not really on topic but I'm pretty sure these passing zones are designed for passing tractors or other very slow moving vehicles, not some guy going 10 under the limit, unless you have great visibility down the road. it's just nuts to me that people overtake on windy country roads at 60 mph. Surprised shit like OP doesn't happen more often",dickturd9000,3b219blm,fhfao8p,Drives me nuts when there's a passing zone and nobody in front of me will pass the slow moving vehicle and I can't risk passing multiple vehicles at once.,fheskvw,_breadpool_,pm3eq
hell it looks like that here in upstate NY in the summer in dairy farm country. Any place that's flat and green,dickturd9000,3b219blm,fhf9xix,"Or Ohio or Indiana, or pretty much any Midwest state",fhf5vtw,LtDanUSAFX3,7k6le
welcome to almost every blue state. It's fucking insane. I feel like we need an electoral college for governor elections. Having one city rule over the rest of the state is tyranny. The 1% controlling the other 99% of the landmass.,dickturd9000,3b219blm,fhccviz,"So you're passing laws which 91/95 (95%) of the counties clearly object to and somehow you're ""a government for the people"" These guys are fucking nuts!",fhc4mg6,TheFluffyNeko,15v0ezh7
...if the court sides with the constitution would that overturn new york's retarded magazine laws too?,dickturd9000,3b219blm,fhcckaf,"Yeah, all of it. It could also be overturned if appealed to the court and the court sides with the constitution.",fhc2bv9,Trooper636,ogvok
"snow blowers, circular saws, etc do not create low frequencies that will penetrate ear pro. I know because I use these things with ear pro. Unless someone is being an asshole with subwoofers or revving a semi truck in your driveway, your point is completely moot. Critical thinking in relation to the topic at hand can be interesting too.",dickturd9000,3b219blm,fh9p6hg,People that are hypersensitive to noise can be affected to low end vibrations in addition to sound. Science and facts can be interesting....just saying.,fh9ahs1,VanessaChaland,cnszr
if I had a disability like that I'd keep a set of ear pro handy. Just saying.,dickturd9000,3b219blm,fh95uqh,Hypersensitivity to noise is a legitimate medical diagnosis and affliction. Its nice of you to help your neighbors...but have some sympathy on those with rare medical problems.  :),fh92g37,VanessaChaland,cnszr
"this reminds me of a certain law in ancient rome. You were obligated to take care of the roads outside of your dwelling / property. Maintaining them, keeping them clean. I'm surprised this isn't the case for sidewalks",dickturd9000,3b219blm,fh95o0j,"I live in Boston. I'm a cripple. When it snows, some of the neighbors don't bother to do their sidewalks. When this happens my choices are:

* Stay home until it melts off
* Walk in the street when I get to that house because I can't make it over the ice their snow turned into with my cane, and hope I don't get hit by a car",fh90tzo,themcp,3cqd6
polite thing to do is ask at least. If I saw some random guy mowing my lawn I'd freak out and assume they'd demand payment later,dickturd9000,3b219blm,fh953k2,"People get so offended when you ask them to stop doing something you never asked them to do.

My grandfather has a riding mower and likes to mow his lawn. When he got a new neighbor he *thought* it would be a good idea to mow his lawn for him one day.

They didn't get into a fight or anything, but he did upset that he was asked to stop, even though he was never asked to do anything and technically was trespassing. They're friends now, but I'm just pointing out a specific example where people who think they are helping or being nice, really aren't

EDIT: I meant the new neighbor mowed my grandfathers lawn in case anybody was confused. Realized I never specified",fh92bul,armoured_bobandi,ydvvg
what kind of snow blower do you have? I have an old honda from the '80s and it's literally a motorcycle engine strapped onto a snow blower. When that thing starts up choked it sounds like a harley davidson. It's fucking great,dickturd9000,3b219blm,fh94e95,"My snowblower is loud as hell and I'm always worried that I'm annoying the neighborhood when I plow at 6:30am so I can get to work. So far, no one has said anything to me, but who knows?",fh86rf4,AngryCod,6z2uy
"https://i.imgur.com/kxEPqJy.jpg

now it is",dickturd9000,3b219blm,fh8n4el,Is this Photoshopped?,fh7qyjx,GodblessNolanArenado,16bi7hxn
"oh , oh god IM GONNA COOM",dickturd9000,3b219blm,fh49r7k,shidd and fard and coom,fh3rroa,rriolu372,5y1m7qy
"wikipedia, and I clicked through to source to some gaming news website. It didn't say it was PS3, just an unannounced title",dickturd9000,3b219blm,fh44s9d,Where'd you hear that?,fh20b63,marknate24,vyx0q
they supposedly developing another FPSMMO so I have a feeling this is the last real update PS2 will get. I hope I'm wrong,dickturd9000,3b219blm,fh1vm3s,"But will the Dev team preserve those numbers or will they fail?

I hope that they can increase the numbers even further.",fh0qy9c,NattaKBR120,wz6ezjb
playing in an outfit is infinitely more fun than playing solo or with two other people. Team work on that scale is much more satisfying than joining fights and not communicating with forces in the area. Plus you make friends.,dickturd9000,3b219blm,fguyqct,"Too outfit focused for my tastes; I personally will have little to no opportunity to use any of this stuff since my outfit consists of me and three friends; It will also give large outfits even more influence over how we experience the game which I find a little worrying. 

They mentioned that people who join outfits stay longer, I wonder how sure they are that it's not more of people who stay longer join outfits. This whole update seems to revolve around the premise that outfits are the life blood of the game which I understand that many people believe but it's anecdotal as far as I'm aware.

I'm glad there aiming big finally and that monitization wasn't discussed (gives me a small amount of hope), the stuff they are adding has the potential to evolve into something good but it's pretty obvious to me that a lot of changes will need to be made from the current plan; fortunately they acknowledged that it will be changing over time. This is going to be a balance nightmare for them and i hope the time and build an ""off switch"" on runtime if it doesn't already exist for all the new content just in case the initial balance is game breaking (which is current form I think it might be).

As is, this will likely have a major impact on all aspects of the game; they seem to be committing to a fundamental change to the game. Good/bad I'm impressed they are taking the leap here; Good luck everybody, this looks like a make it or break move.",fgqz2h8,BBurness,g6xn2
