child_body,child_screen_name,child_user_id,child_tweet_id,parent_body,parent_tweet_id,parent_screen_name,parent_user_id
"Goddamn right.

I’ve seen this before. He pays off her debt, and the minute it’s paid off, she bails on the relationship. Or vice versa. There’s no legal obligation to pay your husband or wife back for those ten years you spent paying off their debts because “they’d start contributing once they’re out of debt”

Sucks, but it’s a tale as old as time.",ForeskinOfMyPenis,1xz7oulo,fkkgsfg,A different direction where she can find someone else to pay off her 200k debt?,fkkgao5,ChaoticMidget,79jzd
"Sweet Christ, I give up.",ForeskinOfMyPenis,1xz7oulo,fkkgm6a,"So to clarify, what point are you making? Because it's very unclear atm.",fkkdlbo,IllIlllIIIlIIl,hyvv1
"I know. The author of the tweet tried to convince his aunt not to vote for Johnson. She did, despite the author’s best efforts.",ForeskinOfMyPenis,1xz7oulo,fkkcl0r,The he in the comment refers to Boris Johnson.,fkkccjx,IllIlllIIIlIIl,hyvv1
Read it again. His aunt voted Tory. He tried to convince her not to.,ForeskinOfMyPenis,1xz7oulo,fkkbvu7,"He doesn't care because he's not the one dying rather horribly, just like she didn't care until she was the one dying rather horribly.",fkk6uix,FletchForPresident,objzc
"Nobody’s an asshole, they’re just headed in different directions. She should pursue her goals and he can pursue his, in separate relationships.",ForeskinOfMyPenis,1xz7oulo,fkkb4tn,"Disagreed incredibly strongly. 

She doesn't think that her husband is a money and sperm bank. What an incredibly judgmental way to interpret the views of another person. She wants to be a stay at home mom for some period of time. It sounds like she wants to work, just not as a lawyer, and not while her kids are young. 

OP is obviously not TA for not being okay with this arrangement. But neither is the wife TA for not wanting to be a lawyer and wanting to raise her kids at home for the first few years. She's just kinda dumb, given her life choices to this point.",fkk5n00,CicerosMouth,2xk1iooe
They may need a little hot sauce with those potatoes though,ForeskinOfMyPenis,1xz7oulo,fkiz1qo,Mexicans love the Irish. The Irish helped fight for Mexico during the Mexican-American War.,fkiyozj,psychotichorse,bk9gn
Great. Now let’s make sure pharma companies don’t gouge for tests and vaccines,ForeskinOfMyPenis,1xz7oulo,fkib8kb,"Thankfully they’re cracking down on that shit: [He Has 17,700 Bottles of Hand Sanitizer and Nowhere to Sell Them](https://www.nytimes.com/2020/03/14/technology/coronavirus-purell-wipes-amazon-sellers.html?0p19G=2870)",fkhx0bi,imissrushmore,2vlnoysx
... good point,ForeskinOfMyPenis,1xz7oulo,fkiarwm,Yeah it's /r/foreheadtattoos,fki2igf,bgrabgfsbgf,5armxuop
Is there an /r/AwfulForeheadTattoos ?,ForeskinOfMyPenis,1xz7oulo,fkhpp8q,"/r/AwfulEyebrows, actually /r/AwfulEverything",fkhpk5o,thebardjaskier,5djl5qly
Is this praxis?,ForeskinOfMyPenis,1xz7oulo,fkhobv5,">*The story goes like this: Jesse and his gang stop at the farmhouse of a widow and ask for a meal. Frequently she is described as the wife of a former Confederate soldier and has several children living at home. There is little food in the house, but the widow feeds the visitors as best she can. When Jesse notices tears on the widow’s cheeks, she tells him that the mortgage on her home is to be foreclosed that afternoon by the banker from a nearby town. The woman has no money. Moved by her plight, Jesse provides the widow with the funds she needs and then departs. A few hours later the banker arrives, receives the money and has no choice but to release the mortgage. A mile or so from the widow’s farm, Jesse robs the banker of the mortgage payment.*

>*This story was also repeated by Judge James R. Ross, the great-grandson of Jesse, in his book I, Jesse James. Ross claimed that Jesse stopped at the widow’s house in the “hills of Tennessee” while on his way to Kentucky to visit kin. Ross stated that the widow’s name was Benton, and he said her husband had been a Confederate soldier and she had five children. Ross related the story to author Ted Yeatman in a 1993 letter, writing, “According to my grandfather [Jesse, Jr.], Uncle Ben [a family name for Frank James] always referred to her as the widow Benton when referring to her in front of the family, it being one of his favorite stories. My grandfather also received a letter sometime in the 1930s from a child of the widow Benton confirming the incidents and location. Unfortunately. . . this is lost, but I personally saw and read the letter.”*

Sometimes outlaws can be wholesome",fkhgkwd,unnaturalorder,2cfvzpzq
"[Very attractive women, you say.](https://i.imgur.com/988j7XD.jpg)",ForeskinOfMyPenis,1xz7oulo,fkho8mj,"She was off shooting a movie, and a very attractive women threw herself at him.  Dudes a man amongst men, which also means he be horny.",fkhfhhn,Toad32,83zg8
"Tel Aviv, for example",ForeskinOfMyPenis,1xz7oulo,fkhntls,First time? I need to get out more,fkhh4xv,dottmatrix35,3s6qulxc
I had [this scene in mind](https://youtu.be/YaQI8g4NJoI) but I think we’re on the same wavelength,ForeskinOfMyPenis,1xz7oulo,fkh26aq,"I'm imagining that the American version of this video would be like the block wars from Judge Dredd

Edit: [American quarantine enforcement](https://www.youtube.com/watch?v=itmNiTwHOsM)",fkh0x03,StickmanPirate,brs2u
"Ya know, first time I met a guy actually named Nimrod he explained to me that it actually means a great hunter but I had to explain that Bugs Bunny has ruined the name forever",ForeskinOfMyPenis,1xz7oulo,fkh20k4,"You made us all proud, nimrod.",fkh13vf,kp--,55a7xmgc
"I had a related story. Checked into hotel late at night. Went up to room. Turned on light.

Feet. Two sets of feet at the end of the bed. Faint noise shortly followed that sounded like two people that were dimly aware that someone had just walked into their room and turned the lights on.

Shut off the lights and closed the door. Went downstairs and said “there’s someone in the room already.”

Desk clerk says “There’s no one in that room.”

He picks up the phone with a smirk and dials the room.

_A beat._

I could hear his face fall from across the desk. It turned to shock and he quickly — without a word to the guests he had just called and woken — hung up the phone.

(He found us another room.)",ForeskinOfMyPenis,1xz7oulo,fkh0jsb," working hotel night shift right now. This is why you always knock before entering a room even when its supposed to be empty. Kinda like 'the gun is always loaded' rule.

Also could have been worse. You could have given the new guests keys to 43 instead of 34 and had two  very angry couples come down.

Management will probably have to give half off or comp their room but you'll probably just get a warning to double check what you're doing.",fkglbpc,Roflawful_,lh7mh
You mean it’s Shi Tpa Town?,ForeskinOfMyPenis,1xz7oulo,fkgzf8v,Ok. He has messed up sense of humor. The town is basically a shit hole.,fkglwnr,houstonspace,4i9xk
Definitely a yoink not a yeet,ForeskinOfMyPenis,1xz7oulo,fkgwbak,She got yoinked,fkgs7zw,TerranTitan,9fvf9
"Do they mail it to you, or do I have to meet at a Starbucks to pick up my toilet paper?",ForeskinOfMyPenis,1xz7oulo,fkgvf9k,"People are selling them marked up on eBay right now. Some people are even selling partial rolls, like 5 squares of so gle ply for a dollar. One of those listings I looked at over 125 people had purchased it lol.",fkgsvpz,wh1036,fivmf
"Mormons have it right. It’s good to have a stock of canned goods and the like, but you just cycle through it eating the oldest stuff and buying normal amounts each week to replenish.

I’ve got 15 lbs of rice and 10 pounds of beans in the cupboard, so we’re not starving anytime soon. And fortunately I like rice and I like beans, so as it runs low I’ll buy more.",ForeskinOfMyPenis,1xz7oulo,fkgvdge,That how they get ya. Everyone does this and so the cycle goes.,fkgoxt2,AussieEquiv,7ovb1
Remember when we saved Puerto Rico by bringing them paper towels,ForeskinOfMyPenis,1xz7oulo,fkgv48g,"What I can’t understand are the people buying bottled water. As if our taps are gonna get shut off. This isn’t the fucking apocalypse. Not to mention one of those huge tp fuckers from Costco lasts my family months. Why are people buying 5 fucking packs of that shit? Do they think there will be no toilet paper for a year? 

My wife went kinda off the deep end the other day. She got panicked when she heard we were gonna be quarantined. I had to keep telling her it’s not like we won’t be able to go to the fucking store to get food. Even if it comes to doing so by taking turns. 

I really feel like people can’t distinguish the difference between this and something like a natural disaster. I lived through hurricane Iniki on Kauai. We actually had no water, no electricity, no food. We bathed in the rivers and in cold showers the state set up weeks later. We ate MRI’s (edit cause I’m an idiot “MRE’s”) for fucking months. Even after shit was back to normal my parents would send me to school with extras. School wasn’t even a school really as mine blew away. Was just a bunch of grades in one room pretending to learn something.

Anyways. People fucking crazy. This ain’t shit man. And compared to people around the world who really have nothing it’s laughable. I love how everyone at first was chill. Then the second they have a chance of actually being impacted the lose their fucking god damn minds. We are a bunch of little fucking soft twats here in America. We pretend like things are so shitty here but it’s clear when the smallest thing goes wrong that people live a god damn charmed life. If toilet paper is the top of your worries you got none imo.

This whole thing is stupid. World is having a freakout over nothing. I bet when all is said an done less people die of this shit this year than the flu. Even better cause young kids are pretty much fine. Old people need to take care but everyone else needs to chill the fuck out.

Edit; for all of those required to buy bottled water for ongoing situations you have currently then sure. I enjoy my clean filtered water as well. I’m talking about the tons of pictures I’ve seens of people with loaded carts of water along with paper towels and toilet paper. The people who can drink their tap but for some reason think they need massive amounts of bottled water. If anything fuck these people more if they are taking drinking water away from those who don’t have access to clean tap.",fkgnu5k,whatevers1234,i9jyg
Tremendous shits.,ForeskinOfMyPenis,1xz7oulo,fkgv0xz,People are saying.,fkgnqc5,KeetoNet,gvo9s
I prefer a hand-styled “asshole just got out of bed” look.,ForeskinOfMyPenis,1xz7oulo,fkguy0z,"They sell special tiny round brushes to go with the dryer too, so you can get that just-coiffed feel on your sphincter.",fkgs0u7,Pissed-Off-Panda,n6v3z
"Activision pays overtime? Shit, negro, that’s all you had to say!",ForeskinOfMyPenis,1xz7oulo,fkedaa0,Overtime pay. That’s the one perk to working non stop where Activision is in crunch is that they’re making pretty decent money and don’t have time to spend it.,fke0gtd,HBCDresdenEsquire,220owkld
"Skilled labor gets a little something called **overtime.**

I can live with long hours if I’m getting paid. Not getting paid for them is bullshit.",ForeskinOfMyPenis,1xz7oulo,fked5kf,"Yeah. As a millennial, I don’t get my Whiney peers complaining about working hard at the end of a project. If shit didn’t go smoothly or things come up at the end of a deadline, you get it done. 12-16 hour days to deliver on your goals is not “unethical” it’s dedication. I work 9-12 hour days nearly every week and (rarely now) weekends too. Worked 20 straight days. Never would cross my mind to bitch and moan about “my rights”; it just fucking happens. If you own a small business, you don’t just punch out after 9 hours; you go the extra mile to be proud of your accomplishment. No one hires a lazy skilled laborer if they can get someone who takes pride in their craft. 

Ima get bitched out for this but it’s true. 

My generation is too soft and entitled in some things, but educated elsewhere.",fke91wg,ShadowChief3,iu5m4
"Also, destroying evidence is criminal whereas “just keeping it safe” is maybe legal-ish",ForeskinOfMyPenis,1xz7oulo,fkecgqf,"My first thought ""why didn't they just destroy it? if they wanted to protect him?""  

Second thought ""blackmail/leverage""",fke1lru,AztecWheels,fvn3q
"Maybe he was, I don’t know, _afraid for his life_ or something",ForeskinOfMyPenis,1xz7oulo,fkec9vf,"Let's say Epstein didn't kill himself. Why didn't he speak up after the first ""suicide"" attempt? That was the time to yell for help Anybody know why?",fkebxgm,nightintheslammer,16onqh
Excuse me sir this is a Shia LaBoeuf thread now,ForeskinOfMyPenis,1xz7oulo,fkai6dd,"I’m dying laughing over here. This gets funnier every time. It’s like his legs took over & just wanted to kill him. 
“You will not simply fall big man. We’re in charge now & we will not give out until we lead you over there to crack your skull!”",fkaa57c,Rambonics,ayi90
"> Things changed since Friday, when a Dept. of Corrections source told us Weinstein was in a cell by himself.  As of now, he has a cellmate -- one Rikers source says he has 2 cellmates.  We're also told Weinstein fell today and hit his head. He's being treated.

Aww, what a fucking shame. I hope they CAUGHT THAT ON ALL THE CAMERAS",ForeskinOfMyPenis,1xz7oulo,fk8y66m,"I just read they gave him a wing to himself in jail. Sounds like he is already being treated like royalty.  Speaking of which I wonder how Bill Cosby is doing?

edit: For those requesting a source: [LINK](https://www.tmz.com/2020/03/08/harvey-weinstein-floor-to-himself-rikers-island-infirmary-24-7-security/)",fk80f7o,meatwads_feet,2qjggiqq
"Wait, you mean [Bill Engvall](https://youtu.be/Oo_wV5l2Umg)",ForeskinOfMyPenis,1xz7oulo,fk6j87m,[Bill Engvall](https://www.youtube.com/watch?v=2WMzuNgJADg),fk6eo2a,ChillyCheeseFryz,1jzy1a6y
"A pity his wife doesn’t have one, then",ForeskinOfMyPenis,1xz7oulo,fk6iaea,I wasn’t referring to the character.,fk6d8r5,Btd818,xx89vn3
"See, now that’s classy.",ForeskinOfMyPenis,1xz7oulo,fk6i0id,https://i.imgur.com/llm80vN.gifv,fk58uhg,Capgunkid,ugyza
I love that her ringtone for him is “Fuck The Pain Away”,ForeskinOfMyPenis,1xz7oulo,fk6hs28,[There's only one Wesley Snipes in this world.](https://youtu.be/6GT1797-rQQ),fk69m49,osburnn,8bfo4
"“Oh my God, I’m turning into my mother!”",ForeskinOfMyPenis,1xz7oulo,fk6hnbr,She's probably a freak but I'm betting her dirty talk is more like a comedy routine and would spoil the mood.,fk5vtl2,throwdemawaaay,xzr44
_ACT UP has entered the chat_,ForeskinOfMyPenis,1xz7oulo,fk6hgpy,"You bastard, how dare you study history?  This is a seriously underappreciated comment about a truly scary time in our history.  Astrologers and ""Just Say No"" Nancy were the sane and stable ones in the White House.  

&#x200B;

And I'd go back to those days happily, over the madness we've got now.",fk6eeyz,AchievementUnlockd,xs9ts
The next step may surprise you!,ForeskinOfMyPenis,1xz7oulo,fk4apy7,A Redditer maintained a 1113 day streak on Duolingo. This is what happened to their leg.,fk3s8av,Melimathlete,ij4ef
"C’mon, show us all up and come back with an African woman",ForeskinOfMyPenis,1xz7oulo,fk424m5,and thots like this are exactly the reason I'm moving abroad to find a non western woman. they've only gotten worse the last 30-40yrs since this was filmed.,fk3xe4a,MemesAndBlunts,3ln0www9
Otherwise known as pedo retirement village,ForeskinOfMyPenis,1xz7oulo,fk3zdi8,Alive in Thailand I believe,fk3z1ih,scribefire,dchn6du
That’s kind of John’s schtick though,ForeskinOfMyPenis,1xz7oulo,fk3zbj0,John Lydon did on the radio and was banished for it,fk3ucfp,GaussWanker,do4lb
What is the CDC’s position on eating ass,ForeskinOfMyPenis,1xz7oulo,fk2oeni,"Don’t touch...

#your fucking face.",fk2hluc,ScribleSean,30coe0lb
I thought of [this](https://youtu.be/Ob9w0dzwPB8),ForeskinOfMyPenis,1xz7oulo,fk2i7b2,I thought of this https://www.youtube.com/watch?v=ZiLjEQ6PlZE,fk29acc,Bulletti,bbfhf
"Plus, he commits.

Tom Cruise in a vampire movie: _I don’t want any blood on my face._

Director: _What? But you’re a vamp—_

TC: _No. Blood. On. My. Face._

...

Nic Cage in a vampire movie: _So this is where I eat the cockroach?_

Director: _Sure. Now we have this fake cockroach made out of..._

NC: **crunch crunch crunch**",ForeskinOfMyPenis,1xz7oulo,fk26ub7,"I've only seen two with him that were DTV recently, Mandy and Color Out of Space.  He was good in Color, great in Mandy.  He needs a director that knows what they want, Cage actually has hella range compared to some box office darlings.",fk1teqd,Gemeril,85xnt
Moonstruck 2: Moonstruckier,ForeskinOfMyPenis,1xz7oulo,fk26ggg,"He's pretty close to the part of his career where he stars in a Tarantino movie or something, gets an Oscar nomination and reboots.

Maybe the Coens put him in something again, or Spike Jonze. It would be WILD to see him in a Wes Anderson film. (I'm rooting for this)",fk1ysyd,punchgroin,bhltl
"I mean, every rich guy has a copy of Action Comics #1. The mark of true wealth is having a mint collection of all of Action Comics",ForeskinOfMyPenis,1xz7oulo,fk269q4,And don't forget Action Comics #1,fk1zwjs,jadenstryfe,p3i8o
He was also in The Roc,ForeskinOfMyPenis,1xz7oulo,fk263cw,"Knational Treasure.

Checkmate.",fk22pin,Dorkamundo,arqoz
Now we need a picture of your house knocked down and you standing there looking lost,ForeskinOfMyPenis,1xz7oulo,fk23h91,Poor fella looks lost,fk1l0qx,nevermore524,2ce8u2t0
That’s kinda cool actually,ForeskinOfMyPenis,1xz7oulo,fk0nl53,I was thinking the exact same thing [link (maybe nsfw?)](https://imgur.com/gallery/fp9mg),fjzg189,anamea,96u5g
That’s not a knife,ForeskinOfMyPenis,1xz7oulo,fk0ga20,"4,915 per year apparently

44% of that's with a knife though",fk0dxlm,neon_overload,5hwy8
"I’ve eaten lots of onions and never hallucinated, am I doing it wrong",ForeskinOfMyPenis,1xz7oulo,fjymapt,Onions,fjy8mmv,U_Sam,12said
"Let me tell ya, those five year olds are like purpose built to get in close and deliver a vicious nut punch",ForeskinOfMyPenis,1xz7oulo,fjyff54,You’re telling me a 5 year old got in the mix?,fjy845t,sunlitstranger,2rx80l3q
I’m going to need more shrimp,ForeskinOfMyPenis,1xz7oulo,fjyf4c7,"It's like the jerk store called, and said it was having sex with the bullies wife

or something",fjy6f28,GodOfAtheism,32ql1
But dudes still in jail for selling it back when it wasn’t,ForeskinOfMyPenis,1xz7oulo,fjyeq54,And now weed is legal,fjy51xy,untraiined,z5miy
So like House M.D. but for code,ForeskinOfMyPenis,1xz7oulo,fjydzus,"I actually smoke more now than I ever did... but that's because I'm missing part of my leg so it's actually a medicine. Without it the constant pain makes me too nauseous to eat.

I regret nothing. I remember having a conversation at the time and the person asked me if I was going to let this one moment define me for the rest of my life. I remember not hesitating with a 'hell no.' It's a chapter in the book, not the end of the story.",fjy9ng8,landertall,13kdyn
My first roommate in college got his girlfriend pregnant. They had both gotten into the same school but once she got pregnant he got to go to college and she didn’t. He dumped her and I never heard about her or his son again.,ForeskinOfMyPenis,1xz7oulo,fjycaos,"When she got pregnant and a few years later she moved to another school district.

Edit: didn't expect this to explode and realize that's its common in most school districts.",fjxstyu,Havok1717,m9m0hlx
That comes free with the drugs,ForeskinOfMyPenis,1xz7oulo,fjxrogj,you forgot to mention the rape and molestation,fjxpr9j,TheEnchantedHunters,10tdwv
Your buddy has a jar of fingers somewhere,ForeskinOfMyPenis,1xz7oulo,fjxnyx0,"Buddy's friend said he had a persistent issue with the people sneakily reaching into his windows and blindly grabbing whatever they could. He opted to keep some bolt cutters by his chair and when he noticed an arm pop through the window he was sat by, he quickly relieved him of a finger. I never asked for photo proof, I dont want to see that mess haha but he says things are bad but he doesn't feel like he's constantly going to die, home is relatively safe.",fjxktwf,aDuckSmashedOnQuack,whuko
"No.

Friends premiered in 1994. Coupling premiered in 2000.

Don’t get me wrong. For a British “Friends,” it’s not bad. Just get out after Jeff leaves.",ForeskinOfMyPenis,1xz7oulo,fjwrnb3,Cool. He has a good sense of humor. Coupling is a British show that is similar to Friends but predates it.,fjvy7su,Seven_Year_Lurker,1e73el
And this ladies and gentlemen is what may happen if you donate your body to science,ForeskinOfMyPenis,1xz7oulo,fjwqeq0,"According to this experimental study on jamming fingers in car doors (https://www.degruyter.com/view/j/bmte.2013.58.issue-1/bmt-2012-0004/bmt-2012-0004.xml), an average force of 1458 N is required to fracture a human finger. The average human jaw can exert a force of about 1100 N, around the molars. Breaking through a carrot would only require <200 N.

So we probably couldn't bite through a finger, and definitely not like we could a carrot.",fjwlqa2,RevolutionaryDong,vxer2cs
"If programmers are ever replaced by robots, those robots will only know how to cut and paste code from stackoverflow",ForeskinOfMyPenis,1xz7oulo,fjud8jn,"Exactly. With StackOverflow, etc, while people can provide an answer... You really should be working through it to figure out WHY they did it that way, and does it make sense? Blindly copy/pasting anything is a terrible idea.",fju7vvz,I_just_made,iy73q
"We already have a UBI system, it’s called the stock market. Just put your excess income into it and reap the rewards. Skim off the profits of industry and put it back in your pockets!

Hmm? What’s wrong with this plan? You have no— what?",ForeskinOfMyPenis,1xz7oulo,fjtb9ij,"real talk: productivity has increased by huge bounds since the 70s. [look at this fucking thing](https://thumbor.forbes.com/thumbor/960x0/https%3A%2F%2Fblogs-images.forbes.com%2Ftimworstall%2Ffiles%2F2016%2F10%2Fwagescompensation-1200x1093.jpg) but the dirty secret is that **this is due to automation** not injustice. starting in the 70s, computers made it so 1 guy can do the work of 50. that's fine. this also makes bosses super rich. which is sorta fine, but not really the point i'm about to make.

the takeaway isn't ""bosses bad"" or even ""automation bad"", it's ""we need a fucking plan for when the robots are doing all the work and nobody has a job"". that's where UBI comes in. when the robots are doing all the work, we're not ""printing money"" by doing UBI shit, we're simply using our existing wealth system as a way of distributing resources the robots are producing for free.

we need to decouple human worth from how much shit you've done, because *in the very near future*, aint nobody gonna be doing shit but amazon robots and google AIs. this will either be a very good thing for everybody (100% free time and leisure) or a very bad thing (tiny upper class that owns robots and killer drones, controls everything, humanity spends the rest of its existence with a boot on its face)",fjsylpn,xi88_,2opp3vji
"Oh sorry, not in Switzerland, my reading comprehension is poor",ForeskinOfMyPenis,1xz7oulo,fjt58di,"You did? In Switzerland? Seriously, that's the first time I've heard of that.",fjsy4s5,_ThereWillBeCake_,g8ysa
"Bullshit, I’ve gotten letters from my ISP about _one goddamn file_",ForeskinOfMyPenis,1xz7oulo,fjsuqcz,"Afaik even though uploading is illegal, the ISPs won't give out information about you if it's just about a couple files. So as long as you're not hosting a giant filesharing website, I wouldn't expect much trouble.",fjrxe0j,_ThereWillBeCake_,g8ysa
Shut the fuck up,ForeskinOfMyPenis,1xz7oulo,fjstljs,CNN reporting,fjsohn3,singles77,102u71
Old TVs refreshed at 50-60Hz.,ForeskinOfMyPenis,1xz7oulo,fjssprp,"Effectively, it’s that old TVs were moving at too slow frames per second (roughly 24). Now humans only need about 16-20 frames per second to piece together a moving image. Dogs and cats need closer to 70 though. So when they watched TV, all they’d see is a flickering screen while their brains tried to make sense of the image.

Edit: Tube TVs have a rate of about 50-60. Still too slow for a lot of animals to process though.",fjsrp4g,ThatsAGeauxTigers,raywk
Look it’s bad enough we’ve all gotta figure out who the hell the garbos are,ForeskinOfMyPenis,1xz7oulo,fjsffq7,"Mailman? Mate, it’s a postie.",fjqxxl3,Flornaz,foh14wi
There’s a movie about all this called “A Cry in the Dark” starring famous Australians Sam Neill and Meryl Streep,ForeskinOfMyPenis,1xz7oulo,fjsehwf,"Wait, what?
I'm an Aussie and I didn't even know that!
I went to the Northern Territory last year, to visit Uluru, and there was a little shop that had children's clothes and the sold onsies that had ""D for Dingo"" to buy, I thought it was a run on joke in bad taste. Didn't know she did time! What about dad?",fjrokj0,m-d-c-87,4al70no1
"Yeah, I’m fine clearing the lint trap, it’s remembering to clean out the exhaust vent that annoys me. So this sounds like a great solution",ForeskinOfMyPenis,1xz7oulo,fjprljf,Ventless dryers are less likely to do so as they dry at lower temperatures (this also makes them less likely to damage clothing) but all dryers produce lint.,fjprg0y,collinsl02,dpnhz
"That reminds me, do they still make multi-angle porn",ForeskinOfMyPenis,1xz7oulo,fjpkki1,"Imagine the worst day of your life. Now imagine it was recorded.. then imagine that day, that low moment, was posted online with multiple angles! Incredible!",fjpjbha,-Toshi,l3ori
"Moving in the US is fucked. Want to cash that check? Oh, you’re not a customer. Open an account! Your funds are on hold for thirty days. Need to buy groceries and pay rent? Sucks to be you.

Hey, there’s a check cashing place down the road. They’ll keep 30%. Best of luck. Welcome to Hollywood.",ForeskinOfMyPenis,1xz7oulo,fjpk3xz,"Everyone here acting like she was totally out of line to yell at a bank teller and I'm just here wondering why he wouldn't cash the check in the first place?

If I had a legitimate check that I needed to cash and the teller just refused for no reason I might get a little aggravated too. Impossible to tell from the context here.

*Edit: Thanks for the answers, I see how it could happen. Jury's still out on her level of Karen-ness though in my opinion. Depends on the volume of the screaming I suppose.",fjp8a3x,FiveFive55,ba9yw
"“Watch this video about playing with fuzzy balls!”

“Sure... hey, _wait a minute,_ is this an 80s music video? I’d hate for this fuzzy balls video to be an 80s music video.”",ForeskinOfMyPenis,1xz7oulo,fjpjhsc,"No way in hell am I clicking that 
I’ve served my 5th tour in *rick rolling* I will not be played like a fool!",fjp5e6f,joseph-b-stalin,4nisseby
Yah don’t look into what happened to First Nations / Native Americans then,ForeskinOfMyPenis,1xz7oulo,fjozx1m,This makes me irrationally mad. You should never have to lose such a vital piece of your culture like that.,fjouv9w,BigBlackGothBitch,34bowhn2
The devil writes from the bottom,ForeskinOfMyPenis,1xz7oulo,fjozuzt,"I'm the same way. Idk about your daughter, but I think mine happened when I had to switch writing hands. Born lefty, teachers in the south told me to write with my right hand because ""the devil writes left handed.""

Now I suck at writing with both hands, and all my letters /numbers start at the bottom.",fjoc986,justins_porn,cw923
"Fuck energy efficiency, I just want something that won’t get clogged up with lint and catch fire",ForeskinOfMyPenis,1xz7oulo,fjozp4x,"Energy efficiency will play an increasing part in our future - and it saves us money in the long run in bills, especially in non-US countries where energy is much more expensive.",fjoe0jl,collinsl02,dpnhz
Sticky icky. It’s a good thing!,ForeskinOfMyPenis,1xz7oulo,fjozkuz,Fuck. Now I need to come up with a new user name. Hi fans! Buy my dish towels and egg cups!,fjosm8m,notacrackheadofficer,3wxji
Except in Quebec,ForeskinOfMyPenis,1xz7oulo,fjozg9t,It's legal to grow in Canada.,fjog6gr,WutangCMD,lwlm5tu
[Fine.](https://youtu.be/6xrG5e3KKYA),ForeskinOfMyPenis,1xz7oulo,fjowzfb,Post that shit. Upvote that shit. Smoke that shit.,fjowlgo,Luxx815,ccosl
Where’s Natalie Portman speaking Hebrew for me to upvote?,ForeskinOfMyPenis,1xz7oulo,fjowj5j,[Bradley Cooper speaks fluent French also!](https://www.youtube.com/watch?v=2_v6HztMeU4),fjohf1k,Luxx815,ccosl
Are we palling around with terrorists yet?,ForeskinOfMyPenis,1xz7oulo,fjmof2v,yeah straight up can we take a page out of the book from the PIRA and start lobbing mortars at government buildings and car bombing cops please?,fjmfpfj,TurnipZombie,10kzev
"Okay, but I’m still allowed to believe that Asia Argento is a piece of shit, right?",ForeskinOfMyPenis,1xz7oulo,fjmf864,"I strongly believe he had Anthony Bordain hit.  Harvey was in crisis image-protect mode and Bordain had a saucy interview where he really didn't pull any punches. It all lines up, someone needs to investigate.",fjljv35,wutangjan,wy187
Which one is the Epstein Didn’t Kill Himself jail?,ForeskinOfMyPenis,1xz7oulo,fjmewf2,"NYC here, not only is Rikers Island not a rich mans jail, its one of the worst of the worst in the country. I know hard ass gangsta types of people who are terrified of setting foot back in that place. It's right up there with ""The Tombs"" in Manhattan. 💀 

I hope the fat fuck enjoys his stay.",fjl7690,_CattleRustler_,n2zvg
Are you the guy from the Cattlefish Gaming Forums?,ForeskinOfMyPenis,1xz7oulo,fjlxvqm,">Cattlefish

ಠ_ಠ",fjls1sk,GlamorousCuttlefish,ubpc0
If it’s a cult and it’s profitable it’s called a tech company,ForeskinOfMyPenis,1xz7oulo,fjltkj1,"No, it's still a cult. Rajnishpuram was profitable for a time, and was still called a cult.",fjlasdo,NobleLeader65,16gpp3
It’s like University of Phoenix. It doesn’t have to be in Phoenix,ForeskinOfMyPenis,1xz7oulo,fjlsmmk,Did Cedars finally figure out they got their geography off by 7500 miles?,fjlet5i,stalkythefish,58u1o
"Haha, came to make this exact comment. Enjoy your upvote.",ForeskinOfMyPenis,1xz7oulo,fjk8usn,This quote always reminds me of when I was intentionally infected with HIV,fjjqe4z,Uniqueusername360,2isug2v6
Goddamn eagle ate my liver and flew off.,ForeskinOfMyPenis,1xz7oulo,fjk4zr9,"The Great Beloved Eagle comes down and transports you with his talons. But he only comes once every 4 days and you have to be outside waiting for him when he arrives. If you miss him, you have to wait another 4 days.",fjk2cz0,ridiculouslygay,139620fz
"If it were real, _it wouldn’t be called ‘magic’_",ForeskinOfMyPenis,1xz7oulo,fjk43xw,That’s so fake,fjk0nyq,IVEMIND,3vyfm
So [like this?](https://youtu.be/Jko5BGhc-Ys),ForeskinOfMyPenis,1xz7oulo,fjjzvne,"You double kiss the wood and the gun jumps 

If your hand is too close you get a nail

No a whole lot of blood vessels in bones

Source: impaled three fingers with a 3 1/14” galvanized ring shank nail using a pneumatic Passlode and boss pulled it out with a pair of Channel locks",fjjv5lu,IVEMIND,3vyfm
P-p-p-p-p-p-p-p-poke bowl,ForeskinOfMyPenis,1xz7oulo,fjjz1bh,"Sal mon a...sal, mon, monella.",fjjy5ln,Doubleupperdecker,3sio9o0d
"It’s okay, it’s just 10,000 porn sites",ForeskinOfMyPenis,1xz7oulo,fjjyus8,Can't view community..,fjjpk7g,IaMtHel00phole,5kw32e38
https://i.imgur.com/nM5ieoc.gif,ForeskinOfMyPenis,1xz7oulo,fjiwmuy,They are ass to ass with anal beads in both of them. Last one to keep the beads in wins!,fjipu9d,ooglepoogle1,4hfm4lj1
I’d let her use her Final Swalloution on my Choadsen People,ForeskinOfMyPenis,1xz7oulo,fjhgkyw,Can deep throat jews,fjh93oo,WillyBigy,2pp5yf2v
"As a man with a swastika tattooed on his asshole, I agree",ForeskinOfMyPenis,1xz7oulo,fjhgcm2,...it only takes one Asshole to ruin a cool symbol...or mustache QQ,fjhbs59,ShadowRunner2049,17gjvj
But Cosmo told me it was one of the ten tips that would drive him wild,ForeskinOfMyPenis,1xz7oulo,fjhff0z,"I love how in all these posts there's always the wacky, zany description of sex.

>So, I’m BALLS DEEP in my gf as she’s riding me, and my dad just casually walks into my room and essentially gets a full ass view of my gfs fuckin butthole and my willy half-way up main street.

We get it dude, or the lady yesterday who thought she had to put stickers on her nipples to attract her husband. That's not how the male libido works good lord. Someone needs to make a bingo card for this sub.",fjhb1xy,ballgkco,2heatfs8
Speak for yourself,ForeskinOfMyPenis,1xz7oulo,fjh46nx,But not the one we need right now.,fjh24v3,fozzyboy,h8sus
Like closing time at the Hometown Buffet,ForeskinOfMyPenis,1xz7oulo,fjg2n9k,That shot of him post cheek gorging carrying extra food trying to fit in the tube was way too relatable.,fjfsynu,TomCat891,fgcc3
Plus it makes a great story. Especially when someone returns your ruler after borrowing it.,ForeskinOfMyPenis,1xz7oulo,fjg1gwu,It’s a nice ruler.,fjffaio,DougWeaverArt,6qcfm
"That there, that’s not me",ForeskinOfMyPenis,1xz7oulo,fjfb6i7,"Now, they make songs about it instead.",fjf6y1f,RenderedKnave,osxpz
11 seconds? _no time for that!_,ForeskinOfMyPenis,1xz7oulo,fjcke83,"chinchillas can grip shit?

edit: I didn't watch the whole vid >\_<",fjcguag,AlcoholicToddler,bj9b5
We got a guy breaking a restraining order here and we’re yelling at the girlfriend for not following directions,ForeskinOfMyPenis,1xz7oulo,fjacac0,Can't follow the simple fucking instruction of keeping the doors locked (and the windows closed you fucking moron) when dealing with this kind of person. Slow doesn't begin to describe it...,fja3csw,SmaugtheStupendous,fcps0
"If Michael’s upset about it, he can cry himself to sleep face down in Catherine Zeta-Jones’ pussy",ForeskinOfMyPenis,1xz7oulo,fja9wk4,Good for him.  His children don't need it and probably told him so.,fj9x590,Rancherort,14i0ce
http://ifuckedanncoulterintheasshard.blogspot.com/2005/04/farmers-market-on-fairfax-and-3rd-is.html,ForeskinOfMyPenis,1xz7oulo,fj96h1e,"> I would honestly think it was a pro Warren liberal.

It is. Ann Coulter is a pure grifter. She doesn't believe what she espouses, but she's one of those people who finds joy in intellectual games like twisting a set of shared assumptions and facts to make a contrarian counter argument, like how a crossword puzzle is intellectual fun for other people. It's what debate club students love doing to their friends, except some people turned it into a career that served extremely powerful interests and got loads of money and publicity for it.",fj8wqyb,The_Adventurist,5cghl
Director Chris Sanders is an animator. I’m 100% certain that’s what drove his decision. He wanted to work in a familiar medium he could control.,ForeskinOfMyPenis,1xz7oulo,fj95qk5,"Wait, really? They used a CG dog for the ENTIRE movie? I assumed it would only be CG for like dangerous stunts and shit, and it would be a real dog the other 95% of the time.",fj8l57k,DontCareBoutReposts,8yn1n
