child_body,child_screen_name,child_user_id,child_tweet_id,parent_body,parent_tweet_id,parent_screen_name,parent_user_id
Suddenly all my work to keep my weight down is looking really good in the short term and not just the long term.,indyK1ng,4fhpw,fkjlhg1,"Yeah, and in the case of obesity (2016 data):

[https://www.cia.gov/library/publications/the-world-factbook/rankorder/2228rank.html](https://www.cia.gov/library/publications/the-world-factbook/rankorder/2228rank.html)

Italy   #107   19.9%

China #169   6.2%

Korea #187   4.7%

So the data we have is really skewed.",fkjkl58,invictus_inmoralis,5lpis7ah
"Frequent, short duration panics were common before the Great Depression. Part of why response was slow was that people didn't realize at first that it was going to last a while.

If we look at [the banking era preceding the Great Depression](https://en.wikipedia.org/wiki/List_of_recessions_in_the_United_States#Free_Banking_Era_to_the_Great_Depression) we can see that there were recessions every few years, most of them lasting 2 years or so and the recovery only lasting about 2 years on average.

By comparison, the time period since the Great Depression has seen most recessions last less than a year and the US go 3-10 years between recessions.",indyK1ng,4fhpw,fkjl5zf,"I am of the opinion that these kinds of crashes will become more common, but last a shorter period of time. We didn't use to to have inverse, levered ETFs, where a simple retail investor can make 3x the S&P's decline.  It used to be only hedge funds that could do this kind of trade, but my two brothers threw almost all their IRAs into SPXU this down turn.

Also, trading us much, much faster. People used to have to wait the trade day, plus 3 business days to trade. Now brokers will let people trade on unsettled funds. Hence, higher frequency and bigger downside moves.",fkjk3nj,FerroInique,5aydpr4w
"Ah, I should have specified color.

I actually haven't used their black and white a lot, I bought a big lot of expired HP5 that I split with a friend that I'm still working through.",indyK1ng,4fhpw,fkjksmj,At least not the colour films (Tri-X and T-Max do well),fkjkbc4,King_Pecca,4odrywjw
"So they fired him and then didn't pay him the money for the hours he'd worked before being fired?

I'm not a lawyer, but I'm pretty sure that's illegal.",indyK1ng,4fhpw,fkjjg0q,"No vacation. The back pay was only until the point of termination:
https://www.snopes.com/fact-check/man-fired-stop-kidnapping/",fkjh4pc,arrenlex,1w8o2
"Diabetes, here I come.",indyK1ng,4fhpw,fkjj1zh,Uh oh it’s Moby Dick,fkj794b,dbx99,b25ig
"That seemed pretty well resolved by the end of ""Emissary"".",indyK1ng,4fhpw,fkiuh8s,There was the whole Sisko blaming Picard for being locutus and killing his wife thing...,fkifv9q,11MileBay,3qea8qfi
"In my experience, Kodak's consumer films don't react well to overexposure.",indyK1ng,4fhpw,fkipu0c,That was my first roll of film so i overexposed everything by one stop. Maybe that was the problem i am not that experienced.,fki46b4,kylehectic,7m3lz
Maybe they forgot who they were before they became shapeshifters.,indyK1ng,4fhpw,fkibnbh,Even though their big thing other than shape shifting is being a shared-memory race...,fki3nyg,degathor,3p3q6p4e
And then over time they forgot who they were and where they came from.,indyK1ng,4fhpw,fkhy630,"Probably just a coincidence, due to wanting to make her look a little bit like every race... but maybe through genetic experimentation while they searched for other life they became Changelings... It would fit too, if they created other life like the Jem'Hadar.


Fun idea!",fkht8em,Makal,p935
There have been multiple comments about impromptu gun shows at these parties. I was mostly commenting on the inadvisability of taking photos during that.,indyK1ng,4fhpw,fkhxw35,"Lol! I don't think your perception fits the reality of what actually happened. I doubt they walked around with weapons in plain sight, these guys were gentlemen from what I understand... To the general public that didn't mess with them anyways. 

It was more photos where we can catch a glimpse of him/them in the background walking around, whatever. Something natural that gives us a glimpse of what life was like back then.",fkhxaem,ModernRefrigerator,49ledvw5
"Yeah, let's just take photographs of the mobsters throwing a party and showing off their automatic weapons. That'll work out great.",indyK1ng,4fhpw,fkhwfkj,Damn y'all got me intrigued! Is there any photos/videos available?,fkhug4u,ModernRefrigerator,49ledvw5
I agree with everyone else - getting sworn in ASAP is the proper thing to do after an assassination. You don't want to leave our military without a commander-in-chief or our country without a leader for any extended period of time. The former to avoid someone taking advantage of the situation militarily and the latter to alleviate fears among the population and ensure everyone that someone is in charge.,indyK1ng,4fhpw,fkhm7we,"I've been listening to a podcast about the assassination of JFK and Johnson was so in a rush to be sworn in as president after the shooting that he was inaugurated right next to JFK's corpse on Air Force One. Very douchebaggish.

Edit: I definitely agree with everyone when it comes to something like this. A lot of accusations can be thrown around about how he acted with less tact and decorum than maybe he should have for Jackie's sake but when you're ramping up to a war measures must be taken.",fkhitgr,Sally_twodicks,13efqu
Didn't he join Death Row after he got jumped leaving Biggie's studio? I thought that was why he got involved in a gang as well - he wanted protection from that happening again since Biggie was gang-affiliated.,indyK1ng,4fhpw,fkhlcvp,"It's much more complicated than that though isn't it. Going into it is a big job, and people are better off looking things up themselves, but many of the things about his character that made him an inspiration, also worked against him... Wearing his heart on his sleeve, being too trusting, etc.

By the time he got to death row he felt like the world was against him, and he'd all but given up on trying to be 'good'. You can see when he decides: ""Ok, everyone sees me this way no matter what I say, I might as well indulge them and get rich in the process"".

Not the wisest decision, but again, we're talking about a 23/24 year old who is also a superstar and suddenly realised he couldn't trust anyone around him.",fkhe731,zekerpik,dhnb758
Maybe Coronavirus was what nearly killed Goku. Apparently it can exacerbate existing conditions in addition to the pneumonia.,indyK1ng,4fhpw,fkhjbjo,A Sayain get's stronger every time he beats the coronavirus.,fkhd4ug,Very_Talentless,1gpmi80c
"Fair enough. I would like to point out that most people probably don't get enough vitamin C in the first place. Enough to prevent scurvy, but not enough beyond that.",indyK1ng,4fhpw,fkhhy0y,"I should clarify, EXTRA vitamin c doesnt help your immune system. We need vitamin c to work our immune ststem, but extra won't make it stronger.",fkhf9l7,DrProfScience,8bpxb
"I was wondering why it looked like a research journal article. I honestly didn't know that the NIH hosted papers for free.

The [list of citations](https://www.ncbi.nlm.nih.gov/pmc/articles/PMC5707683/citedby/) is enough to make me think the paper I linked is regarded well enough by the medical community.",indyK1ng,4fhpw,fkhhuoe,"Dude regardless of the point you're trying to make, an article on PubMed is NOT an NIH endorsement.",fkhfy7k,Jackcooper,5pxx9
"That's interesting because [the NIH certainly thinks vitamin c improves immune system health](https://www.ncbi.nlm.nih.gov/pmc/articles/PMC5707683/). Quite frankly, I'm more inclined to believe the National Institute for Health over people on the internet.

But yeah, alcohol also wrecks your immune system.",indyK1ng,4fhpw,fkhepso,"No, vitamin c just doesnt actually boost immune system, and alcohol is horrible for you if you're sick.",fkhc8g6,DrProfScience,8bpxb
Supported Gamergate and things along those lines is what I'm aware of.,indyK1ng,4fhpw,fkhba2i,Pretend I haven’t payed attention to current events like a bethesda protagonist. What happened?,fkhamjh,Nabono,3s9ja9ek
"Okay, Gowron.",indyK1ng,4fhpw,fkhb6br,"At least war would give us the chance to die earning some GLORY, unlike this dishonourable disease.",fkguyi5,ferrango,9si5e
"Given one doctor said that he was mixing cauliflower into the President's mashed potatoes to improve his diet, I'm sure they're trying something to get him tested even without his knowledge.",indyK1ng,4fhpw,fkgcgjg,They haven't been doing shit and you know it.,fkga8gl,p-wing,ga4df
"I could be wrong, but I think the alcohol denatures the vitamin C.",indyK1ng,4fhpw,fkgc11b,Could be worse. Recommend it for the health benefits,fkg8h1n,shieldofares,5db95hxw
"I mean that I don't think the host when they married was Curzon.

Someone else said it was Torias Dax which makes sense because I seem to remember them arguing about a crash or accident.",indyK1ng,4fhpw,fkgaa6c,"Well, curzon Dax’s wife since curzon still married both her and the symbiont, right? I always saw it like they were halfway soulmates lol",fkg5vyb,marzipanlesbian,15p0e6jt
Was it Curzon's? I thought it was the current host of the symbiont who was hosted by the wife of a host predating Curzon.,indyK1ng,4fhpw,fkg5dv0,Yeah jadzia and kurzons wife I think,fkg4xv1,stevenmctowely,76gbc
"3.6. Not good, not terrible.",indyK1ng,4fhpw,fkg3s42,"Not true!  We have a meter!

 https://i.imgur.com/GBTCqbo.jpg",fkfyc52,Daddy_0103,nffzh
"Yes, I thought you were overestimating because ""blood in the streets"" seemed like an extreme idiom choice.

And while what you said regarding the factors working against the spread of the virus are true *now*, we're a good couple of weeks behind when it probably came in.",indyK1ng,4fhpw,fkfpabn,"I’m overestimating? Blood in the streets is an idiom. I think it’s going to be bad, but using Italy as your main reference point also seems like a mistake. 

Italy is the most effected country right now and the virus is doubling 2 full days faster than in any other country, but everyone is saying we’ll follow their same course. I think that’s an overreaction. We’re a much younger and more socially distanced country than Italy and while our testing is still abysmal, people are taking precautions quickly. While it could be bad, I don’t see definitive evidence that we’ll follow Italy’s course at this point.",fkfp2i1,Arboretum7,abnhe
"Italy ramped up really quickly.

I also think you're overestimating what will happen. Our hospitals will be flooded but the water will run, the electricity will be on, the internet will function. Most people will experience minor symptoms at worse, but it's so infectious that even those that don't will be enough to flood the hospitals.

But those who work in utilities will still be there. In the worst cases people will be asked to pick up new jobs temporarily to keep the lights on.",indyK1ng,4fhpw,fkfmc4i,"I hear you, but I’m in SF, which should be pretty bad. I just drove by our main trauma center (where you go when shit is really going down) and it’s not looking any busier than normal. Yes, we don’t have the tests we should, but I don’t see blood in the street.",fkflqrm,Arboretum7,abnhe
"Given some of the cities it's in, like NYC, I think we're closer to 100x underreported.",indyK1ng,4fhpw,fkfgqmc,"I'm someone showing symptoms who asked about getting tested earlier this week. With how tough it is to get tested (up until these new testing strategies hit), I expect the number of cases being reported to be about 10x lower than the actual number of cases",fkff5s8,AIDS1255,13m8db
"No, that's a towel.",indyK1ng,4fhpw,fkff0n9,I read an article saying it's about wanting to feel like you're in control of an uncontrollable situation. More toilet roll = more in control,fkf0z8w,podshambles_,g9ney
"Yeah, that and behavior like that really soured me on the character.",indyK1ng,4fhpw,fkfcnds,That phone thing was a pivotal moment for me too. She had basically insisted he put her over the job and then was willing to destroy him for her job.,fkevgb9,neurobeegirl,kgwck
I had completely forgotten about Errybody in the Club by J-Kwon. Why did you have to remind me?,indyK1ng,4fhpw,fkesreq,"Erybody in the club gettin sick
(Errybody in the club gettin sickly)",fkeqlxm,squishee666,3nitb
Don't catch you tripping up.,indyK1ng,4fhpw,fkeq1ng,This is America,fkek60j,OdinsBeard,3vr97
"Setting aside the issues with patronizing Amazon and Walmart, there's more to life than grocery shopping.

There's night life, book clubs, game bars, record stores, things to photograph, and more depending on your personal preference. You can buy from much more that's local than your food in a city. And if you want to go further away, the bus and subway can take you to other food and places and parks.",indyK1ng,4fhpw,fkdy66x,"Where would you go? Amazon or Walmart will deliver everything to your doorstep. Maybe you go out to eat occassionally, or get your hair did. Live near friends and you should barely drive.",fkdkw8z,e1MccyK8UU9,3erdtecj
That usually happens as needed since the conditions aren't as controllable or clean. They can't keep patients as separated as they can in a hospital.,indyK1ng,4fhpw,fkd5k4b,They should take over gymnasiums and even arenas. They aren't getting used,fkd2srx,snoogins355,7tn0y
This time their excuse will be that it happened only 17 days after their mock pandemic.,indyK1ng,4fhpw,fkd2xlc,"At the end of October WHO did a mock up and made a video summing up the challenge of responding to a global virus pandemic.

  


The last thing the woman in the video said was ""we need to start preparing now. In ten years if this happens what will be our excuse?"" \[sic\]

That was 17 days before it happened",fkd11i9,darkstarman,weo312b
"I'm sorry, but living in a city has reduced my transit carbon emissions to below where they'd be living in a more suburban area. Between taking mass transit to work and being able to walk or take mass transit for everything else, I was able to sell my car entirely. If I lived in a more suburban area I'd still have to drive for everything.

So living in a city is far better for your carbon footprint.",indyK1ng,4fhpw,fkd249a,"Hopefully we can move away from expensive city houses as well, and there will be less congestion and pollution.",fkcr1o4,beigs,8ym16
Pitchford was barely involved in DNF. It honestly sounded like they bought the rights then had the dev team polish the existing turd rather than start over and perpetuate the joke.,indyK1ng,4fhpw,fkcy65i,"randy fuckface pitchford aint involved, so its inherently better than duke forever",fkci619,KelloPudgerro,dxxwh
Don't you put that evil on me!,indyK1ng,4fhpw,fkcu32h,Tom Hanks might be next. :(,fkct8og,BoreDominated,5y8n5
"Don't they have him manning Tactical in Nemesis, too?

Like, you're now an honored dignitary but you're going to know your damn place on this ship!",indyK1ng,4fhpw,fkcrp31,"Yeah, and the end of DS9 he becomes the Federation ambassador to Qo'noS. The only time we see him after in alpha canon that is in Nemesis, when he's presumably still the ambassador",fkce0eg,uss1701jb,ez7ha
"After he spent all that time teaching at the academy, too.",indyK1ng,4fhpw,fkcrj8s,O'Brien in transporter room 2.,fkax4bo,Ponkers,4b4ra
I can live with it.,indyK1ng,4fhpw,fkcoza1,ERASE ALL PICTURES OF RON,fkcirfy,Tincansailorman,e41d9
And he got rid of the role at the CDC meant to specifically handle this situation.,indyK1ng,4fhpw,fkcm20j,"It's not his fault a new virus is running rampant and that russia and OPEC are at war, true. But it is his fault the us is completely unprepared and that we cut taxes last year and are in a bad position to deal with everything.",fkclxe0,Barron_Cyber,123wjw
Are you me?,indyK1ng,4fhpw,fkcfni8,"My office is going remote tomorrow.

I hate working remote. I actually like being around my coworkers and having face-to-face talks. This makes me unusual in IT, but whatever.

When this things clears, I'll be happy to come back into the office. I'm too easily distracted at home. The next few weeks will be a productivity challenge for me, for sure. I'll be making heavy use of video chat for everyone who will agree to it.",fkcc09h,dont_remember_eatin,i02su
"Put the ship's counselor where she has to work for a living!

EDIT: [Spoilery video linked here](https://www.youtube.com/watch?v=wgIOdcBkkzg)",indyK1ng,4fhpw,fkceej5,"A fellow SF Debris fan!

The USS Ben Sisko's Motherfucking Pimp Hand",fkce4j8,Dschuncks,12l4np
I'm ... You think I'm sad?,indyK1ng,4fhpw,fkcap5r,Looks like something Andy would have done after telling Toby hes always sad.,fkbwzpr,DarthLeftist,4xv8m8z9
"Sisko was in charge of the shipyard when it was first designed but only O'Brien could keep it from flying itself apart.

I also recommend watching SF Debris' take on Sisko's design philosophy when in charge of it.",indyK1ng,4fhpw,fkc1rq9,"okay literally, if I knew the Defiant originally made its appearance in DS9 I would have been sold day one!! I love the baby screen time it gets in STVIII: First Contact.",fkbnedq,Christo_Iron,1560dw7m
/r/lostsubways has a lot of maps made to represent the old public transit systems before cars took over.,indyK1ng,4fhpw,fk9p5gn,Seattle had a train that went to Green lake in 1919?!?!,fk9fy4x,ohisuppose,xu97h
"You're right, he did. Sorry, it's been a long month.

And I can't remember if that was before or after the first travel cases were found after they'd entered the country but I feel like it's been a month since Seattle started reporting community spread.",indyK1ng,4fhpw,fk9olxj,Didn’t he put a ban in place with China 6 weeks ago?,fk9o48a,HammMcGillicuddy,b5rveuc
"I don't think Tom Hanks pays for those kinds of services, even for other people.",indyK1ng,4fhpw,fk9mxo8,"Yep. Or, you know, just sending your private plane (with or without escorts) to pick up said specialist to have his favorite dinner on your private yacht (with or without escorts).",fk9klfk,MarkusBerkel,133bmt
"You're talking about a claim made by the guy who thought nukes could stop hurricanes and who drew a line on a map with sharpie to make it look like he wasn't lying.

Nothing is going to stop that claim but it not happening.",indyK1ng,4fhpw,fk9mu9r,Where it's summer. Maybe they will help the US realize this won't necessarily disappear in April.,fk9k07a,Crak_McCranium,yu8et
"If the ban had been put in 3 weeks ago and had included China, South Korea, and Japan maybe it would have been very effective. But at this point, it's already in the cities with good public transit, they just haven't been able to test many people to find it yet.

And those cities are travel hubs, too. Boston, NYC, and Seattle are all regional hubs for a number of domestic airlines. At this point community spread within the US is probably to the point that an air travel ban from Europe isn't going to have much of an effect.",indyK1ng,4fhpw,fk9lu62,"Trump even said he was overseeing ""the most aggressive and comprehensive effort to confront a *foreign* virus in modern history."" While it may be a virus that originated elsewhere & has had a bigger impact elsewhere it already has a toehold in the US. It's not foreign anymore but calling it foreign seems blame others for it illegally crossing the border into the US. As if the virus had a plan and Trump is the only one who can stop it. 

I don't know enough to say he's over reacting or under reacting but it certainly appears that he shifted his stance from *It's not a big deal* to *It's a big fucking deal* fairly quickly. The markets are going to shit themselves.",fk9kjrv,alcontrast,jmqpo
Norway is in the Schengen Area.,indyK1ng,4fhpw,fk9l2jj,Then countries like Norway would not be included either.,fk9iezx,beagleboy167,fzc57oz
That's why I've been WFH so much - I have a minor cold but don't want to risk getting my coworkers sick on the off chance that it is COVID-19.,indyK1ng,4fhpw,fk9jj2i,"Those symptoms are so minor too. we’re all gonna get it.

Edit. If this came off like panic, it’s not. Just extremely upsetting that the world was so unprepared for something like this to happen.",fk9i4vw,haffbaked,93cc8
The Siege of AR-558 and It's Only a Paper Moon. In that order.,indyK1ng,4fhpw,fk9es72,Thanks for encouraging me to watch it.  I forgot how good it was. Any other recommendations?,fk9b5n9,ChiefPan,4m81ymq
IT. IS. REAL!,indyK1ng,4fhpw,fk9eq3m,This isn't an accurate hand washing tutorial... IT'S A FAAAAAAAKE!,fk95yrz,unique0130,ntbks
"In the first scene, iirc.

I also haven't seen it since I was in theaters.",indyK1ng,4fhpw,fk9eoot,"Nope, haven’t watched Nemesis since I was a kid but I’m now going to assume they die",fk8q9dg,TheMentelgen,mo4ny
And then there's the two local cons in January and February - Arisia and Boskone. Though those tend more toward literary SF/F for their panels.,indyK1ng,4fhpw,fk9eggc,"Yea, to add onto that, this is ACE Comic Con Boston. I'm pretty sure this is the first ACE con in Boston. These cons tend to specialize in bringing in marquee movie celebrities so fans can take photos and meet them in person. I'm 100% not surprised they postponed this.

The ""real"" comic con is Fan Expo Boston which is scheduled in August.",fk996l6,ItAlsoTravelsInThyme,7m2hn
Boomer Related Inhalation Disease.,indyK1ng,4fhpw,fk94vl5,"Also boomers. Actually, petition to rename COVID-19 'boomeritis'",fk8gjrv,ZviHM,9rgbr9
I wonder if the data shifts if you also account for diabetes and cancer rates per state given those preexisting conditions can greatly increase the chances of needing intensive care.,indyK1ng,4fhpw,fk838fb,"Created by me for [city-data.com](https://city-data.com). Python and d3.js. Sources: CMS, Census, Chinese Center for Disease Control and Prevention. I calculated the number of the most vulnerable people in each state based on Covid-19 mortality rate and the distribution of each state's resident ages. The number of ICU beds is the max of 2017 and 2018 - best estimate because not every hospital reported every year. The state with the most ICU beds (KY) has proportionally 2.4 times more beds than the state with the least beds (VT). Bar charts here: [https://twitter.com/LechMazur/status/1237545167659253763](https://twitter.com/LechMazur/status/1237545167659253763)",fk802b0,zero0_one1,p2tr0
"Sorry, Phil",indyK1ng,4fhpw,fk7qr7b,[Kill phil!](https://youtu.be/BiKx8lOEktQ?t=69),fk7qhvu,simple1689,nzdtq
"It wasn't a rebate, it was an advance.",indyK1ng,4fhpw,fk7pwqe,"I think the big problem is that I won't stop, and continue into the next scene, episode, season, until I finally say ""Tomorrow"" and realize that I don't have much skin left, and my water bill exceeds the $700 Charlie should have been owed in taxes if HR 1783 hadn't ripped him off.  


Rebate my ass.",fk6eonp,OvertFemaleUsername,9e8xh
"The whole line is a reference to Shaun of the Dead where the protagonist's plan in a zombie apocalypse is to save his loved ones and take them all to the Winchester, his favorite pub, and ""wait for all this to blow over.""",indyK1ng,4fhpw,fk7pkto,"I didn't get the ""Winchester"" reference. +1 for a sale anytime, though.",fk7p3ke,sambare,1p8ptc8i
"That's what he tells himself, anyways.",indyK1ng,4fhpw,fk7ozuz,He doesn't hate them for who they are. He hates them for what they made him become.,fk6lmhd,13104598210,cw6k2
"DS9 had the best season 1 of the TNG era Trek with only 1-3 truly bad episodes and just a lot of mediocre ones.

And then it ends on the double whammy of ""Duet"" and ""In the Hands of the Prophets"".",indyK1ng,4fhpw,fk69e8w,Every season 1 except TOS was trash. TNG at least had that cool conspiracy episode and the pilot was ok. DS9 was a full season of the space Palestinian peace process.,fk55a38,turalyawn,isxj8
"No and delaying only a year would avoid double-packing the Summer and Winter Olympics in the same calendar year, although they would still only end up about six months apart either way.

Beijing's 2022 Winter Olympics are in February. A 1-year delay would put the Summer games in late July/early August, ending about six months before and a 2 year delay would have it start 5 months after.",indyK1ng,4fhpw,fk65i74,"Honestly it would be kind of cool if they were to postpone them to next year, it could (hopefully) be a sign of a return to normalcy. A year postponement would also ideally give most of the athletes a chance to still participate, whereas a full cancellation might age some of them out before the next games. 

Would it be a logistical nightmare tho? Are there any other major sporting events in summer 2021?",fk631zf,HHNTH17,5hpz2fzp
Totally.,indyK1ng,4fhpw,fk61jwt,I'm in though right?,fk61d2n,goofysfanbase,1xw6go0h
It doesn't have one because it's a conspiracy I literally just made up.,indyK1ng,4fhpw,fk619h3,".... Ok, give me the link to the conspiracy page",fk5ylkk,goofysfanbase,1xw6go0h
My dad was once on a turboprop flight with so few people they had to rearrange the passengers because they didn't have enough ballast for all of the passengers to be on one side of the plane.,indyK1ng,4fhpw,fk5vwa0,I've heard some of the smaller aircraft do that. Which is why I only fly to places that can fit a 747 or bigger.,fk5uub6,KJParker888,15yg2y
The EU is really a secret Hapsburg plot to consolidate all of the countries they are heir to.,indyK1ng,4fhpw,fk5vkvi,"Not to mention the world wars and the dissolution of his country multiple times.

Isn't the King of Spain technically the heir to the French throne too?",fk5vfyt,punchgroin,bhltl
"It's not that the Abrams movies are action movies, for me at least, it's that they're mediocre action movies.

Good Treks didn't rely solely on brute force to win. The action reflected the characters and the dynamic between the protagonist and antagonist.

Wrath of Khan shows the experienced veteran with a team against the book smart genius king.

Search for Spock is the survivalist against the warrior and Kirk had to trick the Klingons off their ship.

Six was the patriot in the open fighting against a hidden coup and he had to use his crew's ingenuity to get a weapon that could work..

First Contact was a man trying to save his friend from a cult using diversion.

Beyond they had to come up with a way to use the weakness of the aliens in order to get into a position to stop the release of the virus.

But when we look at the Abrams movies, there's not a lot of motivation beyond punching the other guy harder. There's no tension when you see Spock and Khan taking turns punching each other.",indyK1ng,4fhpw,fk5lq54,"All Star Trek movies, with the exception of TMP and The Voyage Home, are action movies. Thats why I never understood people complaining about the action in the Abrams movies.",fk50btb,PrivateIsotope,11kfsz
"Part of it is that the common cold is also a coronavirus.

It's important to distinguish in these cases because we don't want people freaking out over the common cold.",indyK1ng,4fhpw,fk5kf9i,Seriously that’s pedantic as hell,fk56sk5,SegaSonic85,3sdoefxu
Flights were getting cheaper. This will probably cause a bump in prices in the short term.,indyK1ng,4fhpw,fk58b77,"conversely, flights are probably getting cheaper and you can sit wherever on the plane",fk4eetk,TheLamestUsername,kjlw2
People get promoted out of the way all of the time.,indyK1ng,4fhpw,fk57w7u,"Something like that is a promotion for O'Brien. Remember he's not an officer, so being Chief of Operations on a Space station from a Transporter Chief is a step up.",fk4u5k5,Kaiserhawk,64x9f
It's Rome's revenge,indyK1ng,4fhpw,fk3mw4t,"Damnit, Italians are trying to kill us all!",fk3jvzc,umjustpassingby,lypb5
"I thought that the ship nearly flying itself apart was part of why it was mothballed. If I recall correctly, Sisko says the engineers on Mars couldn't figure it out for months and it took O'Brien to fix the issue.

This is also evidence by Red Squad also having a Defiant class vessel with the same issue - Starfleet had apparently been building them without including the fix in the patch notes.",indyK1ng,4fhpw,fk3jo2x,"If they had to, Starfleet could fix that within months, if not weeks. Remember that the Defiant always has been a prototype and as such was never expected to be flawless.",fk3aypd,Cloud_Striker,odiqb
I feel like at some point I'd just throw up on the manager.,indyK1ng,4fhpw,fk2rghi,"This is a pretty typical experience for retail workers in the US. I've literally thrown up in the bathroom at work while my manager was standing outside asking if I'd be much longer because we're busy and understaffed.

That's the other thing they left out, your boss constantly guilt tripping you if you ever are actually sick. Acting like it's your fault you're sick, and it's your fault there's customers waiting. Your fault that they're understaffed, ""Think of your coworkers, how will we cover it without you"". All that shit.",fk0pz3s,LoRn21,c8179
Are you telling me Scotty doesn't know?,indyK1ng,4fhpw,fk2oxxh,"Dunno, but that's where Scotty said to look.",fk2oppl,Ralph-Hinkley,pxwcm
But would Orks have the ability to believe their guns are real to the point that they become real?,indyK1ng,4fhpw,fk2o3a1,"So, the big trick here is that while the 40K armies are vicious and ruthless in their backstory, as miniature war figurines they are just as dangerous as a Barbie. Like the Little Green Army Men, they retain the military training and approach of their backstory, but they adapt to being a preteen's plaything, focused on their charges happiness through play.   


Presumably, they gloat and tease the other toys about how Andy likes them now, and spends all his time painting them and taking them to competitions, while Woody and Buzz are ignored, but are more like cruel bullies than existential threats to the other toys.",fk2ee5m,mugenhunt,m9lij
Behind Jupiter from which angle? How did they hide it behind Jupiter from both Earth and ships coming into the solar system from that angle?,indyK1ng,4fhpw,fk2nx0n,"Then yes, that was the biggest muscle I had seen of any Starfleet ship. No wonder they had to hide it behind ~~Jupiter~~ Titan.",fk1uqom,Ralph-Hinkley,pxwcm
"""Just nobody tell them it can't get above warp 6 and we cancelled the project before we fixed that.""",indyK1ng,4fhpw,fk2nscl,"Between the Obsidian Order, Section 31, the Tal Shiar, and a dozen other special interest groups, there was already an arms race, especially in the cloaking department.  That's probably why the Federation went with shock-and-awe.

I'm willing to bet that's why the Federation only built 1 as a statement, ""*Mars is ready to build a fleet of these little hellcats...don't give us a reason.*""",fk1nrz8,Nearsighted_Beholder,1191rs0t
"That ship was also crewed with a bunch of over-hyped egotistical cadets who didn't know enough to even get the warp drive operating at full capacity and far less experience than an actual crew of Starfleet officers.

If they had the same mission with the actual Defiant, they probably would have pulled it off.",indyK1ng,4fhpw,fk2ncul,"yeah, in fact we saw this with that red squad DS9 episode.",fk1rtj5,MatityahuHatalmid,j9ari
*Dominion country,indyK1ng,4fhpw,fk27no3,"""We can't stop here, this is Borg country!""",fk0u849,nick_nastardly,56wr9vle
There are labs that haven't been approved that could really boost the testing rate in the US but they're not getting approved.,indyK1ng,4fhpw,fjzo7q7,There is a lack of test kits with that the numbers can’t be accurate.,fjznayg,abcdefghig1,51dctjjj
"Honestly, I'm mostly watching their playthrough of Kakarot to see if they bring out any of the material they were thinking of for the Buu saga.",indyK1ng,4fhpw,fjznzpy,I think they could totally do just an AMV hell/robot chicken like video with random skits,fj5605c,Aulus79,16b51t
https://i.imgur.com/povLchO.jpg,indyK1ng,4fhpw,fjzl9wc,No love for Ezri? Or Zoë? I can’t tell... Curzon? I like’em all.,fjzkbhs,DGlennH,25vuq6yc
That boy can't handle his grapes.,indyK1ng,4fhpw,fjzkd6l,I don’t like grapes.,fjzh9cw,timf2012,1tkhlei0
"You could, but if you want to live in a reasonably populous city the rent alone would bring it down to less than a decade, assuming you were going to live alone.",indyK1ng,4fhpw,fjzg71i,"You spend 360k in a few years? Sheesh, I would make that shit last a decade.",fjyi7gi,The_Honest_Owl,nptet
What was Lyman's before he hit the Prius and they discovered the fan site dedicated to him?,indyK1ng,4fhpw,fjzf2yy,"Josh:  Prius or Lemon

Toby:  Yankee 

Leo:  Shotgun or Big Cheese.",fjzdodn,SpaceCampDropOut,7hpth
"And every non-human student starts going [""the fuck?""](https://i.imgur.com/29RX7Vw.jpg)",indyK1ng,4fhpw,fjz45o5,"I want a series of him teaching at the academy.

""And there was that one time where our runabout got really tiny and we flew around inside the Defiant while avoiding evil dinosaur aliens""",fjyj9xw,Knull_Gorr,2j7xeqmz
Salvation Army actively discriminates against LGBTQ+ homeless who need shelter.,indyK1ng,4fhpw,fjylpcl,"Doesn't Goodwill save money by hiring disabled people so they don't have to pay them full price? That's basically the premise behind the charity that they help people get job skills. 

Salvation army store and the veterans thrift store around here have way better prices than Goodwill. Goodwill's main hub down here has an overstock sale every couple of weeks where they sell you stuff by the pound. eBay sellers and flea market flippers fill those carts to the brim for a couple hundred bucks. You sell what you can and anything else you donate to one of the other thrift stores at inflated value so you keep your taxes low.",fjyfpob,the_cardfather,117wrz
"Bashir says he requested the assignment, so it would have had to involve some subterfuge to get him to want to go to request the assignment.",indyK1ng,4fhpw,fjxmzsa,Tenner says that some admiral had booted Bashir to DS9 because he wouldn't stop hitting on his niece.,fjxcyr7,Coma-Doof-Warrior,13bg8w
"I think it was a Stark Industries attempt at replicating it, possibly derived from one of the last ones Howard Stark managed to document and drop off before his assassination.",indyK1ng,4fhpw,fjwt1jt,"I don't think it's the true super soldier serum, but one derived from Banners attempt to recreate it.",fjwrje6,capness1228,mmihl
/u/ToryBruno might have Jim's number.,indyK1ng,4fhpw,fjwpch0,"This is real reason we need a moon base.

Somebody phone Jim B (NASA admin)",fjw96o8,Faeyen,ykq8g
"Thing is, he'd probably deny he was sick until it was pretty far along.",indyK1ng,4fhpw,fjwmrs7,Even if he gets sick the president has access to the best medical care... but lung transplants from advanced viral pneumonia are more iffy.,fjwjf7z,ImposterBot9k,1ozyq03r
"Then we'll all go down to Dixie. Away! Away!  
Each Dixie boy must understand  
That he must mind his Uncle Sam",indyK1ng,4fhpw,fjwjznf,"Right away, come away, right away come away",fjw6iyb,vsanjiv007,3bw1xilu
"I didn't get a good look at him except the back of his head and his brown jacket, but this was inbound from Porter.",indyK1ng,4fhpw,fjwiul0,"Lol I saw the same thing on the red line yesterday too. What did the guy look like, I think I might know who you’re talking about.",fjw9zpj,g00f12,5n07ilwf
Better than Trump isn't the same as good for the country.,indyK1ng,4fhpw,fjwipqj,Biden is better than Trump. Stop this shit.,fjw442u,CincyBrandon1,4mdjljbc
"Both.

Both is good.",indyK1ng,4fhpw,fjvz1s5,"Why not both?

Nightmare can shape-shift, I think it'd be interesting if he was played by several actors.",fjvuf7q,PeteysParker,2gak5wdw
"Yesterday a guy wiped his nose with his finger and put it on the handrail on the red line.

Don't tell me this stuff isn't going to spread all over the place, people on public transit is going to be a huge vector.

But for most people below 50 it will only be a cold.",indyK1ng,4fhpw,fjvom6r,A voice of reason. Thank you.,fjvhaf3,ciaodog1227,5dgg8ygs
The threshold for bombarding an area populated with civilians not being a war crime is simply that a reasonable effort be made to minimize civilian casualties. Warning of an attack and asking civilians to evacuate has historically been considered sufficient.,indyK1ng,4fhpw,fjv08c9,"Yes, he didn't do it in cold blood. I don't know if one could call it honorable, but it certainly separates him from being a criminal, IMHO.",fjuxz8r,manawydan-fab-llyr,o1dlg
One if the first identified cases.,indyK1ng,4fhpw,fjuqrsx,Eli5 how do we know he is the first case especially since he hadn't been travelling? Would it not be logical that he contracted it on the subway from someone with more mild symptoms?,fjuld0s,HiddenMaragon,iu1sr
"I wasn't saying not to get it, just that what the person I was replying to was asking for something that's escaped science for 50 years or more and why the vaccine is sometimes ineffective.

Remember, even if the strains picked are wrong, there may still be a boosting effect that will reduce the overall severity.",indyK1ng,4fhpw,fjuh6ju,"Still, even if there's a 20% chance that the flu shot will be effective, I've bought lottery with worse odds than that. I get the shot every year and more people should too.",fjucuw4,godspeed_guys,5pxqijm7
