child_body,child_screen_name,child_user_id,child_tweet_id,parent_body,parent_tweet_id,parent_screen_name,parent_user_id
Will governmental pensions end or is this just the elites way to enslaved the entire population!!!,kmcmanus15,17pngwnx,fjltwyv,"Love the Yang Gang Long Game play here.

He's essentially expanding on Venture for America with an org that will get WAY more attention over the next 4-8 years, and he's integrated himself into the platforms that ignored him during the 2020 run.

Shows that he's invested in his original message, as well as building on the momentum of his 2020 campaign.

He's the most refreshing politician that I can recall, and his campaign and response has given me new hope for the future of the political landscape in the US.",fjknyeq,jachinboazicus,rpqyr
"How about going after the Asian rivers that are responsible for the largest amount of plastic being dumped into our Oceans first, then create some mad science shit!!!!",kmcmanus15,17pngwnx,fjilc5n,"More likely we figure out what enzymes they're producing, and figure out how we can  start making it in 1000 gallon lots.",fji143k,prof_the_doom,n36bi
"Who is from Bermuda? Kirk Douglas was born in Amsterdam NY and his family were Jewish immigrants from a region now called Belarus! He was a professional wrestler while taking acting classes and a classmate,  Lauren Bacall, told producer Hal Wallis about Kirk and he got the lead role in “ The Strange Love of Martha Ivers (1946)! He had starred in Broadway but a 4 year long tour of duty WW2 stopped his Broadway aspirations and Hollywood called! Kirk, was dirt poor as a child and a self made millionaire, maybe his kids got Bermuda from his Hollywood career but Kirk’s monies were earned!!!!",kmcmanus15,17pngwnx,fjbmq46,"Not even on their own. They come from a very wealthy family here in Bermuda. Their childhood was spent frolicking at the resort they owned called Ariel Sands. [Michael has been trying to get it redeveloped for ages](https://www.thebermudian.com/culture/our-bermuda/can-michael-douglas-save-bermuda/) now but just can't seem to get it off the ground.

e: [more of my pretentious prose, if you care](https://www.thebermudian.com/from-the-crows-nest-culture-society-news/reza-baluchi-not-the-hero-we-want-but-the-hero-we-deserve/)",fja1qo8,Ayy_2_Brute,14d4p9
"What BS!!! I have trained hundreds and the difference of success is becoming better than your immediate boss by learning as hard as you work! A lot is possible if you got heart, the only thing I cannot train!",kmcmanus15,17pngwnx,fjbkzu6,So fucking true! When managers make their employees feel bad for not working when they are sick or have family obligations,fja0pu7,bunnybates,3v0o72n4
"Yet, all the Billionaires threaten daily about giving up their monies to help mankind, I guess they’re still looking for a kind man! That would be Kirk Douglas!!!",kmcmanus15,17pngwnx,fjbjtwg,Kids are rich on their own. Can’t take it with you. He did the right thing!,fj9t68t,Sirnando138,n88x3
"The EU has 4/5 of the worst performing economies and has an average unemployment in the mid 20% so staying with the EU collectivists would have done what for England, when Greece, Italy, Spain and France can’t employ their citizens!",kmcmanus15,17pngwnx,fjbiw02,It'll make a select few a metric fuck ton of money is what the headline should say,fja5cnp,oman54,10db4b
The Irish must be black because they were enslaved from 1250 to 1919! Black as night in enslavement experience!!!,kmcmanus15,17pngwnx,fjbifng,"I was with her for the first part, because there are non-black people living in Africa, but then the second part was like oh...",fjao31m,CrashDunning,g631l
"Yet, it’s is the Christians who support Israel! Who knew!!!!",kmcmanus15,17pngwnx,fjbex20,[Supply-Side Jesus](https://www.beliefnet.com/news/2003/09/the-gospel-of-supply-side-jesus.aspx) approves,fjalc6t,ZRX1200R,5gq31
They have received 350 billion since 1975 and now 4 billion a year subsidy!,kmcmanus15,17pngwnx,fj8aeiv,"It's worth noting that every Israeli citizen must serve in their military coming out of high school.  So, it's not really that they are getting anything for ""free"".  Of course they're paid while in service, but they also receive healthcare and subsidized education.",fj7tugv,BoomerKeith,ha78o
It was a cash deal directly to Hunter Biden made at the strip club for child support payments!,kmcmanus15,17pngwnx,fj51936,Funny how this crucial detail never came out during his trial.,fj4b2vq,HiImTheNewGuyGuy,58hajmau
You should have taken your profits out before or right after the coronavirus was announced!!! The panic cause by the cdc and DemoRats so why wouldn’t take your profits out?,kmcmanus15,17pngwnx,fj21u62,"> Never believe that they are completely unaware of the absurdity of their replies. They know that their remarks are frivolous, open to challenge. But they are amusing themselves, for it is their adversary who is obliged to use words responsibly, since he believes in words. They have the right to play. They even like to play with discourse for, by giving ridiculous reasons, they discredit the seriousness of their interlocutors. They delight in acting in bad faith, since they seek not to persuade by sound argument but to intimidate and disconcert. If you press them too closely, they will abruptly fall silent, loftily indicating by some phrase that the time for argument has passed.

...quote from [Jean-Paul Sartre](https://medium.com/@mustaphahitani/understanding-the-alt-rights-psychology-through-sartre-s-writings-e797e59a93fa).

[bonus example](https://www.reddit.com/r/worldpolitics/comments/fauo3d/congratulations_president_trump/fj3mbua/?context=3)",fj12fzy,hereforthefeast,17b47w
Take cash and no one will know!!!,kmcmanus15,17pngwnx,fj215q8,"The loophole is that the $3 tip is still going to the driver.

The company just lowers their payment to the driver based on what's tipped.",fj1h03x,CJGibson,37no0
"He stated that he’ll make the $ 15.00 dollar an hour the minimum wage; then he said anyone making over $29,000 would be taxed 52%, so true to Socialism your reward is being paid $7.25 after federal tax!!!! And the band plays on!!! Core Curriculum math I guess or the Dictator giveth and taketh at the same time for himself, family and friends!!!",kmcmanus15,17pngwnx,fiqdwd3,I worry for his safety with pledges like these... he’s going up against the most powerful and corrupt forces on the planet.,fiq02hk,e_nathan,u9oynxl
Go to California and ask your Question again to a libtard because there you will find your true answer!,kmcmanus15,17pngwnx,fiqd9zr,I will say that present-day America is helping me understand how easily someone like Jesus could be crucified for such peaceful messaging.,fip4olt,beardiac,kr29a
"Most Chinese want out, most Cubans want out and most Russians want out, so within these populations exist armies of support for freedom!",kmcmanus15,17pngwnx,fi0vtvz,"You know that the combined populations of those two countries is under 500 million.  The population of China is 1.5bn.  I mean, I don’t want to be a dick, but neither Russia or America could even manage to defeat Afghanistan.  I think they might really struggle with China.",fhsqc8v,canlchangethislater,3fp2uekm
And over one hundred million dollars!!,kmcmanus15,17pngwnx,fhv5nti,"Obama has class and dignity.  
Donald Trump, in spite of his wealth, schooling and status has no class, and not a shred of dignity.",fhsjqf1,euphonious_munk,8n143
"If you never had kids please justify NJ 10,000 in property taxes that are for schools yearly, where someone could pay in 30 year mortgage $300,000 in property taxes and never utilize their services; the family next door has 6 kids and that $10,000 is $1,650 per child per year not so bad! Pay for the services you utilize on an equal basis or you will have the “poorest” having the most kids, while your trying to be financially responsible but have to pu the expense differential! Plus when taxes go up you voted on this rate increase? No, the Government has already proven they are not trustworthy of our taxpayers cash because of the theft, pensions and gross entitlements and you want to give them full control! Good luck Conrad’s I will either be killed defending my personal liberties and freedoms or move! Please understand I’m Irish (700 years of slavery and a fake famine to kill our population down) and my wife is from Cuba!!!, so we both understand the BS once yours freedoms or weapons to defend those freedoms are gone!",kmcmanus15,17pngwnx,fhtt62a,"Taxation is not being neighbourly -- it is paying for services that were provided collectively, like roads and policing and garbage pickup and park maintenance.  I do not take the hard line that all taxation is theft and the only just thing to do is to charge everyone separately for every service they wish to provide. Plus, it's nowhere near as efficient.",fhtpxb2,ether_reddit,1dsh8
"Barry will be coming to your home to live, please send addresses! It worked so well for France! Just open them up and anyone can come to America because Medicare for all can pay for everything thru the tremendous saving! Core Curriculum 2.0!",kmcmanus15,17pngwnx,fhsr2h1,When you improve two of the same luxury.,fhscdg8,Pokegun,2ec8q7ym
Russia from the west and America from the East done deal!,kmcmanus15,17pngwnx,fhspdws,"I don’t foresee an invasion working.  Even Very Oppressed Peoples seem to take exception to foreign powers coming into their country to do their revolutions for them.  (See: Afghanistan, Iraq, etc.)  

(Also, I suspect a war against China would be unwinable.  Who could even fight it?  Russia?  No.  America?  I very much doubt it.  Europe?  Wouldn’t even try.)",fhs1f32,canlchangethislater,3fp2uekm
"She is dead already and America’s believing that lack of personal freedoms or liberties is OK because Socialism would never happen to the US, like China? We will be collectivists who die after telling truths or die when resources are all taken by Sanders and friends!",kmcmanus15,17pngwnx,fhsp6mz,I really hope her words don't fall on deaf ears because she's likely to pay a horrible price for speaking them. I hope she gets by okay.,fhrq7l1,Linxiekins,5o46g
"You will never be ever free from England’s  Enslavement of over 3 million black slaves or 700 years of Irish enslaved and the false narratives of a famine! Keep telling yourself that you Brits have the Moral high ground, especially to yourselves because the world knows the Truths!",kmcmanus15,17pngwnx,fhsl55l,"Greed, my British friend.

You guys really innovated on it during industrialization, but America is working to perfect it.",fhrdigd,Comrade_Witchhunt,4fb26r0l
"Or kill Christians or kill Muslims or kill atheists, you poor sweet child! Enough hatred or the projection that you are always hated are both false witness for false narratives! Hatred kills anyone anytime for no rational reasoning! They do it because they are evil!",kmcmanus15,17pngwnx,fhsj8ot,You think people who hate black people don't hate jews? Oh you poor sweet summer child.,fhqtkbm,CultCombatant,r5yt24u
"If Californians politicians or politics are the liberal platform then yeah, everyone is scared when homelessness becomes extreme, poverty becomes extreme, drug abuse becomes extreme to where we accept defecation on our streets or in our stores and the Conversation is about WHAT can we do for NON Americans! Yes, I would say that America is divided by non actions with impoverished Americans and security of our borders! As far as Racism, it exist, but it’s amplified by media into the collectivists ideals that all are racist, when we know that it is the extreme small proportion of both sides that exhibit these horrific acts of hatred!",kmcmanus15,17pngwnx,fhsglgr,"Oh for sure, liberals are guilty of it too. Each side is convinced that the other is out to destroy America. At some point we are going to need to accept that we are all on the same side and that each others views are not as evil as we think. 

That being said, there are some extremists that are very toxic and their views can not be normalized (racism, sexism, etc). They exist on both sides and are unfortunately seen as the norm by the other side. Liberals often see conservatives as all white supremacists, and conservatives often see liberals as all feminazis. It makes it really hard to find a middle ground when you are convinced that your opposition is evil.",fhqxwoa,atorin3,1m3n6i95
"Moron, Obviously a stick just leave in gear, on a hill facing downward put in reverse, I never used my parking brake in 5 cars all stick shifts",kmcmanus15,17pngwnx,fhm015e,Good thing the dogs were there to help.,fhkg63s,IReallyLikeAvocadoes,5rpxb8r
"Bernie is a US senator so why was 542 billion going to be appropriated to foreigners if he is so concerned with today’s impoverished Americans! Corporate welfare does include all the entitlements that are giving, taken, utilized for personal gain or given to anti American causes, so why hasn’t this Socialist stated that nobody in Government should receive Pensions or is that because we will be like China, where we become wards of his STATE!!!",kmcmanus15,17pngwnx,fhjavs1,"Sorry if this is off-topic but this occurred to me... wingers have used the typically conservative, reflexive opposition to taxes, for a long long time; in fact they've become one-trick ponies when it comes to a really childish version of tax law.

I think the Bernie camp can do a great job of educating this electorate about the need for a fair tax system that restores some sanity to America's economy, since the average voter seems more amenable to the idea that Republicans have been practicing what's now widely known as ""corporate welfare""...",fhibgq5,DrJekyllStrange,3fdx7jrt
Fuck up in the arse!,kmcmanus15,17pngwnx,fhfu8jr,"
Keep_Track requires a minimum account-age and karma. These minimums are not disclosed. Please try again after you have acquired more karma.  

*Moderators review comments/posts caught by automod and may manually approve those that meet community standards. As this forum continues to grow, this may take some time. We appreciate your patience.*

We encourage you to be mindful of Disinformation tactics. Our goal is to keep this forum focused and informative. You may find the following thread of use - [The Gentleperson's Guide to Forum Spies and Online Disinformation](https://www.reddit.com/r/Keep_Track/comments/awzi10/effective_immediately_new_rule_top_10_comments).


*I am a bot, and this action was performed automatically. Please [contact the moderators of this subreddit](/message/compose/?to=/r/Keep_Track) if you have any questions or concerns.*",fhfh8vb,AutoModerator,6l4z3
"I have a recurring nightmare that all children will have to-teach Core Curriculum to the teachers first, then become collectivists that believe Trudeau is the son of Castro, while going insane from the constant sounds of Quixote’s windmills!",kmcmanus15,17pngwnx,fhfsgjb,"I'm FB friends with several of my old teachers. I once wrote about how I had the recurring nightmare of being in my chemistry teacher's class and having to take an exam but not having studied for it.

He replied saying that his recurring nightmare is my being in his class.",fheemh4,Notmyrealname,338yt
Orange County in California got 120% of eligible voters to vote! So not fraud or Dade county in Florida!,kmcmanus15,17pngwnx,fhfh8tv,"This will absolutely be the basis of his overturning the result should he lose. He has demonized the intelligence community, co-opted the DOJ, and owns the SCOTUS. No one on the Republican side has an ounce of integrity. It will get very ugly because he and his GOP underlings will go to jail as soon as a light is shone on their various schemes or their tax returns. They can’t afford to lose.",fhau70o,mgyro,12797ezn
"I am not a part of this behavior maybe you enjoy today’s decadence, but I speak for those who seek drastic change from what some make call normal practices of beliefs! We will not seat and be slaughtered, we will fight!",kmcmanus15,17pngwnx,fhf8rs2,"Uh huh.  So by drinking that ""blood of christ"" and declaring yourself to be a ""Man of God"" any amount of rape of children is just fine. Interesting policy you have there.",fhf2z60,dcsievert,hb1hy
I guess we will see who drank wine or the blood of Christ! Collectivists I shall never be only individualism who understands beliefs value!,kmcmanus15,17pngwnx,fhe1pj9,"Drank a lot of the kool-aid, didn't ya pal?",fhdsbu2,dcsievert,hb1hy
"All Religions are the institutionalization of God! Man made thru actual documentation and historical accurate first hand accounts that prove That Jesus Christ and every other prophet existed! Like a collide-scope every one’s own personal experience from birth to death has equality! How were raised, read, music, beliefs, truths, hopes, realities change every moment of everyday, how we perceive these sensory perceptions, their affects, time or change which may at some possible point lead to a conclusion that a belief system, no matter what or how much it changes, can be very powerful medicine! What you do as you become more involved in understanding your beliefs you change, for most very positive, for some not so, but life is a journey of finding purpose, so from the time you’ve arrived, until you die, there may lie a meaning you’ll never know!",kmcmanus15,17pngwnx,fhcxgl6,"""Magic skydaddy loves ME the most!""

All religions are disgusting in their own rights, be it catholicism or fundamentalist evangelical christianity. Stop trying to murder people because your magic book tells you to, you're not even a little bit better than ISIS and boko haram.",fhaw8ml,anti-DHMO-activist,1kdw51xv
They still mutilate the clitoris in young women in many countries!,kmcmanus15,17pngwnx,fhckgcf,"For anyone curious, this was most like written because of pagans who mutilated themselves for the purpose of a ritual, which the Levites wanted to keep out of their sanctuary.",fhayoxv,ChopperMaskDotA,7ntn61c
North Korea is better economically than South Korea is Que! At least N Korea can get Cononavirus for free! Yeah China equals 0 personal freedoms or liberties but who needs them!,kmcmanus15,17pngwnx,fhcjw94,"They will find the loving, warm and tight embrace of China much more to their liking than US affections.  

China, being a bastion of freedom, development and happiness in Asia.  Is a much better friend to any other Asian country than the US.  

One need only look at the very high level of development already reached by countries that have been working with China for a very long time.  To see the irrefutable benefits of engaging with China.  

The best example being North Korea.  Probably the Greenest country in the world.  They barely use electricity.  Much less fossil fuels.  They are a shining example of not only dedication to saving the planet but also the benefits of long term engagement with China.  

The future of PH is bright.  Not literally.  Since North Korea is pretty dark at night time but bright in the sense that they can depend on the most dependable and proven help any country can get by engaging with China.  Good luck!",fhby4g3,Talldarkn67,155gpt
"This Pope is dead to God for constantly paying for the same original sin Pedophilia! You bare false witness into a false narratives that have caused harm and death to millions! Many new Christian Soldiers are awakening for Time Has Come Today and the 10 year cycle of over 100,000 Christians slaughtered each of these 10 years makes over one million Christians killed and this cycle will now come to an end! Power to corrupt and destroy for heavenly rewards on Earth is not the Reward of Heaven! The Wind(women), the womb and the child are not the things God will allow to be destroyed for man’s pleasures! It is the man that should feel PAHHAD!",kmcmanus15,17pngwnx,fhars1p,"Which is highly inaccurate, itself.",fh8oe1m,dcsievert,hb1hy
"So maybe this gives a true glimpse into what Communism really is!!!!! My wife is Cuban and at 6 she became a ward of the state, taken from her families and placed in a dorm! Her jobs were to fertilize Plantains or other agricultural! America has many flaws but liberties and personal freedoms always outweigh collectivists though or control! They didn’t even inspect if he had the nourishments to exist in his Locked residence!",kmcmanus15,17pngwnx,fh2jkqq,Imagine someone just coming to your door one day and telling you that they are gonna lock you in your house and cannot leave. That's fucked up y'all.,fh0p6ma,only_4kids,j8mtj
"Remember this was in private, so we have closet DemoRats or BS!!! Oh forgot Mittens!",kmcmanus15,17pngwnx,fgr4bxc,The dumbasses do realize that by removing him from office he may also be arrested and no longer a threat right?,fgpmmsn,kopskey1,46t6dlo
"But the Mexican Cartels get a pass!!!! America’s addiction to Avocados I guess clouds the endless drugs, human trafficking and violence!",kmcmanus15,17pngwnx,fgr45cp,">**Citing Justice Department sources, CBS reports that more federal arrests targeting neo-Nazi or white nationalists are coming down the pike, including people with ties to networks in Europe, Ukraine, and Russia.**",fgq30lu,Wattsferatu,bbnih
He is protecting his son involvement in the Ukraine! Honesty is not in Romney’s vocabulary! I’m sure Utah is happy about his performance as their interim Senator!,kmcmanus15,17pngwnx,fgpbak7,Never thought Mitt would turn out to be the Paragon of Honor in the GOP.,fgms5bo,BluestreakBTHR,4t9zzsv
Socialistic pizza “ half baked ideas that make individuals violently sick”,kmcmanus15,17pngwnx,fginz1j,That looks illegal.,fggua6z,AyyBasha07,11vvumch
Must be a lot of fascists in Portland Oregon! Almost everyone crossing their streets that they block! Mussolini also kept Italy’s train on time so I guess you are right about the violent behavior needed to make the trains late or chase Climate Scientists in Germany! Like CICIG and The One World Initiative and the Ukraine all have been treated fairly and never for personal financial gain!,kmcmanus15,17pngwnx,fgehalp,"Fascists: want an ethnostate of a fictitious race of people and considers all people they deem unworthy for that ethnostate to not be human and worthy of death.

Antifascists: Take political action against fascists to ensure they never rise to power again, even if that means using violence.

You: I sEe nO dIfFeReNcE hErE",fg79xz9,xo_lauren,d03t2jx
With the lowest unemployment at 17% and most between 22-33% Sealand had passed on this opportunity to join the EU because their economy is base on people working not St. Greta’s wealth creation thru climate change collectivists! Watch the taxes rise and not the seas!,kmcmanus15,17pngwnx,fg6qa35,There has always been an opening for Sealand!,fg6eo5m,Whoden,zf1we
Antifa represents the same Nazi BS and this is exactly what the appropriate answer is to Fascism everywhere!,kmcmanus15,17pngwnx,fg6pg9l,"OP's explanation:

---
>It's a nazi getting punched in hist stupid nazi face. Wow this needs a lot of characters to go through I sure hope this is enough

---
If you think this gif fits /r/BetterEveryLoop, upvote this comment. If you think it doesn’t, downvote it. If you’re not sure, leave it to others to decide.",fg5gsbg,2Botter2Loop,3efd9zdo
10 speed automatic are so much more effective on utilizing the maximum gear rpm correlation but a six speed is always fun so buy the Camaro beast iLE with a 10 speed to tear up Porsche’s then get a bike for clutching enjoyment,kmcmanus15,17pngwnx,fftm3iy,"Most anyone can drive stick, people just tend to be too nervous to learn for some reason.",ffr5hui,CantSeeShit,4oupu
Or you could have purpose and strive to be the best you can with it!,kmcmanus15,17pngwnx,ffpe7zv,Yeah dude! Viktor Frankl called it “Negative Happiness.”,ffn0oya,Phranquelyhnne,7ntx4nb
"Amazing reporters could find any corruption in Angola, because the Ukraine in 2014, was subject of billions missing but this includes Soros and I guess he untouchable!",kmcmanus15,17pngwnx,ffag3cc,"Hijacking top comment to add **mirror for international viewers**:

https://www.youtube.com/watch?v=jqOKwLB_CM8",ff8dc0b,JohnKimble111,ahpz8
And Bernie is still holding his breath until Hilary gets him a “Happy Meal”,kmcmanus15,17pngwnx,ffadd17,The discovery process is going to be interesting.,ff9kc3d,FauxVacuum,1pk3bi7n
"Got your costumes, mask and bat ready to help those pacifists who denounce Antifa as Mussolini’s misguided youth of today! Batters up!!!!",kmcmanus15,17pngwnx,ff9khn4,No no no. Only in a small minded trump supporter would you call antifa for nazies. Antifa is against all prejudice. Trump supporters blame all their shit on brown people just like the nazis did with the jewish. So yes trump supporters are way closer to nazi's than violent people on the left. Anyway i can't be bothered with this anymore. You are clearly a mouthbreather just trying to rile things up without understanding any of the nuances. Good day and piss off.,ff97nlk,GillianGIGANTOPENIS,3mh37oda
I believe you call them Antifa!,kmcmanus15,17pngwnx,ff94zk1,uh. nazi reference. grow up you little shit.,ff92mqj,GillianGIGANTOPENIS,3mh37oda
"Can you send me some short sleeve brown shirts please! With the heat, I doubt I’ll need a long sleeve?  But who knows?",kmcmanus15,17pngwnx,ff1g6xf,He is saying they are shit cars we don't need around here. A van will do what pickup does and better. We also just buy or rent a trailer if we need to haul something. no need to get a specific car for the purpose.,fesi539,GillianGIGANTOPENIS,3mh37oda
"In June of 2018 the EU put a 25% tariffs on all American bourbons and whiskeys and the American tariffs in precious EU wines were not raised the scotch tariff raise to equal the 25% a year later! The EU also was found to be illegal aiding airbus, The French tax on Apple and Google are inherently bad because they do not have a strong presence in either! It’s the American consumer fault? This is the market that everyone in the world needs but rarely are the imports from other countries tariffs allowing fair trade and trade practices of the past were almost non existent tax on French wines but the EU tariffs on American wines have always been higher!",kmcmanus15,17pngwnx,fezb66r,"🤦‍♂️ 🤦‍♀️ 🤦‍♂️ 

Have you been to Europe?  Could you imagine driving a massive F-250 or Hummer in Euro conditions?  This is why they don’t sell.  Gas is expensive, space in cities is tight.  And this has zero to do with the proposed tariffs.

At any rate the tariffs proposed are NOT competitive  tariffs.  There is no intention to boost the US wine or food business.  The tariffs are intended to bully France into taxing tech companies less.  They currently tax tech companies highly (including French and EU companies).  Trump doesn’t like that because Google and Apple are being taxed as well and they are US based.  The 100% (yes, not 10% or a small competitive number but rather 100%) boost on EU wine and foods is intended to bully them into removing these taxes - which they will never do.  It has nearly zero upside for US wine and food producers and is instead estimated to be absolutely devastating to citizens working in the sector.  This will trickle down to distribution level, will greatly affect restaurants, and will cause big trouble for support services like shipping companies (many of whom are dedicated to wine and food).  The estimated cost is 80k jobs and $10 BILLION JUST in the wine sector.  The tariffs are a terrible idea and are going to ruin lives of many US citizens.  So.  Get your facts straight.",fetql7q,AlbinoWino11,12mkul
"I sure our sugar cane, tobacco, corn, soybean, cotton, hemp, cannabis, maple sugar, tomatoes and everything else grown in America sucks but you drive fords they are your largest car manufacturer! I’m sure our corn fed age Kansas City cuts wouldn’t make list! Ok sure not tariffs protections How about Argentina beef is that also banned?",kmcmanus15,17pngwnx,fey3omx,"i mean your cars are shit, thats why we dont drive them. US food is also banned from many nations due to its low quality (US meat fails almost every Australian standard, the only meat we get here from you lot is jerky).",few53em,VitriolicViolet,zbvbjz
And the Audi and Mercedes drink water!!!,kmcmanus15,17pngwnx,fes1hv9,"Tariffs aren't the reason we don't want your pickups. They're too big, drink fuel and are less practical than a van for most trades.

They're cool and all but it's marketing that sells them, not quality or practicality.",ferix5w,Gow87,43fkh
How many American Pick ups you see in any other country so maybe it the others tariffs that keeps our largest selling vehicles in foreign soils and for decades no competition so tariffs work both ways!,kmcmanus15,17pngwnx,fergssv,"The reality is that it’s the US people bearing the cost of them though.  So he is just further burdening his own citizens.  The proposed tariffs on EU food products are estimated to cost US citizens nearly 80k jobs and about $10billion in the wine sector alone!  Please write to your Congress person.

https://www.nytimes.com/2020/01/06/business/economy/trade-war-tariffs.html

https://www.reuters.com/article/us-usa-trade-china-un/trump-tariffs-cost-china-35-billion-hurt-both-economies-u-n-idUSKBN1XF267

https://www.reuters.com/article/us-usa-trade-france/u-s-wine-industry-fears-armageddon-of-costs-from-tariffs-on-french-imports-idUSKBN1Z7014",fepiap2,AlbinoWino11,12mkul
"Go to Wikipedia and look at the corruption in the Ukraine well before a 2016 call from Trump! The Ukraine lost Crimea in 2014 the exact year the Biden’s, Kerry’s and Soros’s all were part of the bond debt scandal!! Unless some believe Wikipedia is BS!!",kmcmanus15,17pngwnx,fel8nda,"I got banned for commenting in one of their threads with a fact-based defense of this finding. The 7th rule of their sub is that you're literally not allowed to engage in non-conservative discussion, including disagreeing with current conservative consensus regardless of its factual basis.",fel5ggb,Vhu,66l30
Maybe the highest ranking prisoner!,kmcmanus15,17pngwnx,fejtkgr,The title is what Obama said when he read the tweet.,fejh4vg,MysteriousRony,3c738qzz
"John Prine Hello in There
“We had an apartment in the city
Me and Loretta liked living there
Well, it’s been years since the kids have grown 
A life of their own, left us all alone 
John and Linda live in Omaha 
And Joe is somewhere on the road
We lost Davy in the Korean War
And I still don’t know what for, doesn’t matter anymore 
Ya’ know that old trees just grow stronger
And old rivers grow wilder ev’ry day
Old people just grow lonesome
Waiting for someone to say,
“Hello in there, hello”
I wish your father peace and God Bless your family!",kmcmanus15,17pngwnx,fejszdr,"I'm very sorry for your loss. This must be a difficult time for you, and I'm so glad you have this support. 

My mother took her life a couple years back. As per her wishes, friends and family showed up to her memorial in the comfiest of sweat pants and flops. 

Everyone here is doing honor to his memory. 

Much love to you and yours during this time.",fej5n2x,DaManaCrusher,2v6hnus7
Royalty Uber for western Canadians!,kmcmanus15,17pngwnx,fejrbab,"I dont mind them coming, but are they not self sufficient?",fehyvjf,thetrueelohell,oa547
188 arrests wrong!,kmcmanus15,17pngwnx,fe2ky6t,Go away. You’re clearly wrong and you are only damaging our country more.,fdrogmu,PM_meSECRET_RECIPES,4980fgt5
Well arson was a definite contributor!,kmcmanus15,17pngwnx,fdqz38t,"got a link to the legislation? RFS has debunked a lot of hazard reduction misinformation spread by murdoch. They said the biggest reason a controlled burn doesn't go ahead is weather, resources are also an issue. Never mentioned legislation was a problem, said no political party has any control over their controlled burns (but I guess if they don't have the resources you could look at the government)",fdq7r5b,chezty,9y4kj
Or we could set Australia ablaze after passing legislation not to clear dead bush so nature supplies the fuel and CO2 weather collectivists lit the Match! Great science and without Question Got Everyone’s attention and hard nipples from the fires heat!,kmcmanus15,17pngwnx,fdq71to,All hail OP! https://i.imgur.com/2QOmBQp.jpg,fdq0ot7,PM_meSECRET_RECIPES,4980fgt5
Who cares if you didn’t attacked the embassy you would be alive! It’s that simple: for every action there is an equal or greater reaction. This was yours and far too late for too lives have been lost under your command!,kmcmanus15,17pngwnx,fdeh8vr,"They probably won't hit the properties, but the doubt in people's mind will affect his businesses.",fddpab2,ProtoplanetaryNebula,yfmrd
Pelosi would never get out of SF with a 2 drink minimum!,kmcmanus15,17pngwnx,fcsgzb7,Can you imagine if congress had a two drink minimum?,fcs1roi,Thelit1,qhnlfyb
The Reverend Al Sharpton host rally at Md church for pre inauguration march Dec 6 2016 ! There are more!,kmcmanus15,17pngwnx,fcsbqdx,Find a campaign rally hosted at a black church (or any church) for a liberal candidate and get back to me. Speaking engagements =/= campaign rallies,fcr51lo,embarrassed420,z1jln
Is Israel a secular country and would never exist without the 350 billion in god we trust dollars since 1975!,kmcmanus15,17pngwnx,fcs6wto,"A real secular country would also get rid off: ""In god we trust""

WTF US?

Also a good example of ""collusion""

https://www.wordnik.com/words/collusion",fcrdrz2,Nearby_Mongoose,2qellzw1
"All religions are the institutions of God and as such spreads misinformation or indoctrination for self serving agendas, but the value of a personal belief system based on Godly virtues is for the betterment of mankind! Simply put there is purpose, which is the meaning of your life, find yours, continue to educate yourself and above all treat others as you wish to be treated! Godspeed",kmcmanus15,17pngwnx,fcrpzqa,"I'm a Christian (Methodist) and want to be respectful of all religions. The *cult* thing was manifest the first time I attended an Evangelical church service (Baptist), when the minister proclaimed that only the persons in that *room* would be saved. Never mind non-Christians. Never mind other Christian sects like Methodists and Lutherans. Never mind those who attended other *Baptist* churches. This minister told his congregation that everyone in the world was doomed except the 300-400 who attended *his* church.

Besides being theologically absurd and offensively arrogant, the minister's premise was obviously aimed at capturing those in attendance as *his*. CULT.

I hope he was an exception.",fcqo2jv,the_lousy_lebowski,wi280
She grabbed a man’s arm that has no problems with the continual payment of the same original sin Pedophilia! What Respect can he Command from others when he cannot control The Catholic Church’s predatory behaviors of it’s own!!!,kmcmanus15,17pngwnx,fcrnedw,Is that what Jesus would do?,fcqp4jp,sonofabutch,ag7v9
And this was why Rosemont Capital was started because Senator Heinz felt that Government loans should go to the families of government officials so with the Kerry’s and Biden’s they streamlined the process from creating the laws to insuring its proper allocation of funds!,kmcmanus15,17pngwnx,fbue42b,"The real change—the invention of modern ketchup—occurred in the 20th century, and it’s a story of both politics and personality. It begins with an unlikely alliance between one of the country’s richest food manufacturers, Henry J. Heinz, and an underpaid federal chemist. The two men bonded over a mutual belief that unsafe and untrustworthy food was a growing national problem.

Heinz’s stance was a shock, especially to his fellow industrialists. He refused to fall in line with other U.S. corporations, which were mostly moving to block any effort to establish food and drink standards.",fbtx6yw,sdsanth,11wgll
Our National security exists with the Ukraine really why would Americans invest there when 30 million Americans are starving! How does Ukrainian Gas equate to a better America? We gave 50 million in 2014 was that not enough? Emergency funds for military really? The US gave another 1.5 billion in Military aid that never made it to the intended recipients should we not investigate where the taxpayers monies went?,kmcmanus15,17pngwnx,fbdmaob,"Hunter Biden could be a murderous cannibal and that still wouldn't make it okay for the President to block emergency military aid, undermine national security, demand personal favors from foreign heads-of-state, and flagrantly defy Congress's constitutional authority. I find it difficult to give a fuck about Hunter Biden when our current president is actively committing crimes.",fbdgsbl,SentientRhombus,4aysu
Than buy them!!!!!! 1000% of solar panels companies want this to be law!!!,kmcmanus15,17pngwnx,fbdfo3v,Here in Phoenix we have 370 days of sunlight per year. Heck yeah I’d love solar panels.,fbbhfi0,AdevilSboyU,z6im6
"Boa Bla Bla every stated is in itself your views but a complete review of every detail of John Kerry’s family and friends activities in the Ukraine funny You didn’t mention Devon Archer, John Kerry’s fund raiser who became a Burisma board member or John Kerry’s chief of staff, David Leiter who becomes Burisma’s lobbyist and the sec. of State King Kerry comes to the Ukraine and pushes like VP Biden taxpayers cash for Ukrainian gas! How about Rosemont Capital formed in 2009 with the sons of the Kerry’s, Biden’s or Heinz’s which received 130 million in TALF SV bailout loans! You’re correct in this Impeachment is needed to get everything on the table and then Term limits and No Pensions!",kmcmanus15,17pngwnx,fbdfd92,"There is this phenomenon going around right now where people are having real trouble understanding the simple fact that republicans do not argue in good faith.

here is a ELI5:

> It means that you're not arguing to come to a mutual understanding. In a true debate/argument, both sides must be willing to acknowledge if the other side has good points and be open to changing their minds. If you tell someone you want a ""debate"" but you really just want to antagonize them or preach to them, you are lying when you say you want to ""argue"".

> Bad faith generally is an intent to deceive.

I see it right now Live on the TV impeachment Debate before The Vote right now.

Republicans standing there, and repeatedly arguing in bad faith. Using out of context information, disproven information, various levels of lies and misleading misrepresenting points. 

And when rebutted with factual evidence, what happens ? They changed their mind and acknowledge... 

NO THEY DIG IN DEEPER BECAUSE THEY ARE NOT THERE TO REACH A MUTUAL UNDERSTANDING. THEY ARE NOT ARGUING IN GOOD FAITH.

There is a reason why every republican there has yet to defend the obstruction and actions of the president. All they go back to are mute talking points meant to distract ; Chalupa, Minority hearing, DIdnt Have Access, ALL FUCKING LIES. 

These people stand there lying on tv right now how they are protecting the country, standing there deceiving the people in bad faith.

Republicans are not going to go ""Oh you caught me, i confess"" They will lie cheat and decieve at any cost, because there is ONE FUNDEMENTAL TRUTH, the gop voting base is dying. They know it. Thats why they know that their ONLY chance of maintaining and having any power in government is to destroy democracy. 

They are already purging hundreds of thousands of voters in preparations for the 2020 elections, they have loaded the courts with unqualified lifelong judges whos main priority is to curtail to republican wants, they have the senate which has over 200+ bills bipartisan bills on McConnells desk, bills like lowering insulin prices, that the republicans are deliberatly not allowing to go through, to DECIEVE the public into believing that government is ineffective and the democrats arent doing anything as house majority. They are literally playing with your lives for their own personal profits.

And people are still surprised when they only hear double speak and gish gallop from a republican.


Edit: For Those that have achieved that sweet enlightened centrism and ""both sides are same"":


_____

**Republicans don't care in the slightest about actual policies, or their supposed ""principles"". They just care what the Party (and particularly Donald Trump) is in favor of at any given moment. Meanwhile, it's worth noting that Democrats maintain fairly consistent opinions about policy, regardless of which party favors it, or who is in power.**

#The Party of Principles:

* [**Exhibit 1**](https://i.imgur.com/lTAU8LM.jpg): Opinion of Syrian airstrikes under Obama vs. Trump. 
[*Source Data 1*](http://apps.washingtonpost.com/g/page/politics/washington-post-abc-news-poll-september-12-15-2013-us-economy/456/), [*Source Data 2*](http://apps.washingtonpost.com/g/page/politics/washington-post-abc-news-poll-on-missile-strike-on-syrian-air-base-april-7-9-2017/2192/) and [*Article for Context*](https://www.washingtonpost.com/news/volokh-conspiracy/wp/2017/04/13/48229/?utm_term=.8ad12d500fe4)

* [**Exhibit 2**]( https://i.imgur.com/j7wRGS0.png): Opinion of the NFL after large amounts of players began kneeling during the anthem to protest racism. [*Article for Context*](https://www.nytimes.com/interactive/2017/10/11/upshot/trump-nfl-polarization.html) (viewing source data requires purchasing Morning Consult package)

* [**Exhibit 3**](https://i.imgur.com/nVfMiaJ.png): Opinion of ESPN after they fired a conservative broadcast analyst. [*Article for Context*](https://today.yougov.com/news/2017/05/03/Conservatives-seem-to-be-turning-away-from-ESPN/) (viewing source data requires purchasing YouGov’s “BrandIndex” package)

* [**Exhibit 4**](https://i.imgur.com/OBrVUnd.png): Opinion of Vladimir Putin after Trump began praising Russia during the election. [*Source Data*](https://d25d2506sfb94s.cloudfront.net/cumulus_uploads/document/ro9rimrce9/econTabReport.pdf ) and [*Article for Context*](https://today.yougov.com/news/2016/12/14/americans-and-trump-part-ways-over-russia/)

* [**Exhibit 5**](https://i.imgur.com/0YO0wWu.png): Opinion of ""Obamacare"" vs. ""Kynect"" (Kentucky's implementation of Obamacare). Kentuckians feel differently about the policy depending on the name. [*Source Data*](http://msnbcmedia.msn.com/i/MSNBC/Sections/A_Politics/NBC%20News-Marist%20Poll_Kentucky_Annotated%20Questionnaire_May%202014.pdf) and [*Article for Context*]( https://www.vox.com/2014/5/12/5709866/kentuckians-only-hate-obamacare-if-you-call-it-obamacare)

* [**Exhibit 6**](https://i.imgur.com/surFuKz.png): Christians (particularly evangelicals) became monumentally more tolerant of private immoral conduct among politicians once Trump became the GOP nominee. [*Source Data*](https://www.prri.org/wp-content/uploads/2016/10/AVS-2016-Supplement-Topline.pdf) and [*Article for Context*](https://www.prri.org/research/prri-brookings-oct-19-poll-politics-election-clinton-double-digit-lead-trump/)

* [**Exhibit 7**](https://i.imgur.com/Haz331E.png): White Evangelicals cared less about how religious a candidate was once Trump became the GOP nominee. (Same source and article as previous exhibit.)

* [**Exhibit 8**](https://i.imgur.com/qF5to28.png): Republicans were far more likely to embrace a certain policy if they knew Trump was for it—whether the policy was liberal or conservative. [*Source Data*](https://www.dropbox.com/s/jo4kq5g24zpz0zs/Does_Party_Trump_Ideology_.pdf?dl=0) and [*Article for Context*](https://www.nytimes.com/2017/09/14/opinion/trump-republicans.html)

* [**Exhibit 9**](https://i.imgur.com/JW9mwrt.png): Republicans became far more opposed to gun control when Obama took office. Democrats have remained consistent. [*Source Data*](http://assets.pewresearch.org/wp-content/uploads/sites/5/2014/12/12-10-14-Guns-release.pdf) and [*Article for Context*](http://www.pewresearch.org/fact-tank/2015/01/09/a-public-opinion-trend-that-matters-priorities-for-gun-policy/)

* [**Exhibit 10**](https://i.imgur.com/2JXBCZF.png): Republicans started to think college education is a *bad thing* once Trump entered the primary. Democrats remain consistent. [*Source Data*](http://assets.pewresearch.org/wp-content/uploads/sites/5/2017/07/11101505/07-10-17-Institutions-release.pdf) and [*Article for Context*](http://www.pewresearch.org/fact-tank/2017/07/20/republicans-skeptical-of-colleges-impact-on-u-s-but-most-see-benefits-for-workforce-preparation/)

* [**Exhibit 11**](https://i.imgur.com/B2yx5TB.png): Wisconsin Republicans felt the economy improve *by 85 approval points* the day Trump was sworn in. Graph also shows some Democratic bias, but not nearly as bad. [*Source Data*](https://law.marquette.edu/poll/results-data/) and [*Article for Context*](http://www.jsonline.com/story/news/blogs/wisconsin-voter/2017/04/15/donald-trumps-election-flips-both-parties-views-economy/100502848/)

* [**Exhibit 12**](https://i.imgur.com/0PYGHIp.png): Republicans became deeply negative about trade agreements when Trump became the GOP frontrunner. Democrats remain consistent. [*Source Data*](http://assets.pewresearch.org/wp-content/uploads/sites/5/2016/08/08-18-2016-August-political-release.pdf) and [*Article for Context*](http://www.people-press.org/2016/08/18/5-issues-and-the-2016-campaign/)

* [**Exhibit 13**](https://i.imgur.com/4rwOOh5.png): 10% fewer Republicans believed the wealthy weren't paying enough in taxes once a billionaire became their president. Democrats remain fairly consistent. [*Source Data*](http://assets.pewresearch.org/wp-content/uploads/sites/5/2017/04/13170749/04-14-17-Taxes-release.pdf) and [*Article for Context*](http://www.people-press.org/2017/04/14/top-frustrations-with-tax-system-sense-that-corporations-wealthy-dont-pay-fair-share/)

* [**Exhibit 14**](https://i.imgur.com/VNOiRiJ.png): Republicans suddenly feel very comfortable making major purchases now that Trump is president. Democrats don't feel more or less comfortable than before. [*Article for Context*](http://news.gallup.com/poll/206792/republicans-upgrade-views-own-financial-situation.aspx) (viewing source data requires purchasing Gallup's Advanced Analytics package)

* [**Exhibit 15**](https://i.imgur.com/8UsOCIk.png): Democrats have had a consistently improving outlook on the economy, including after Trump's victory. Republicans? A 30-point spike once Trump won. [*Source Data*](http://assets.pewresearch.org/wp-content/uploads/sites/2/2017/04/04124855/Pew-Research-Center-U.S.-Economy-TOPLINE-FOR-RELEASE-April-3-2017.pdf) and [*Article for Context*](http://www.pewresearch.org/fact-tank/2017/04/03/americans-give-economy-highest-marks-since-financial-crisis/)

Donald Trump could go on a stage and start shouting about raising the minimum wage, increasing taxes on the wealthy, allowing more immigrants into the country, and combating climate change. His supporters would cheer and shout, and would all suddenly support liberal policies. It's not a party of principles--it's a party of sheep. **And the data suggest that ""both sides"" aren't the same in this regard.** It's just Republicans.

Last Edit : This was just stated on live TV and it really says it

**JUST BECAUSE YOU REPEAT FALSEHOODS DOES NOT MAKE IT TRUE, IT ONLY MAKES ITS DELIBERATE.**

When Republicans deceived the public for the 100th time when they falsely claim secret depositions held by the democrats. The SECRET MEETINGS had given access to over 100 members of congress and gave republicans every chance to attend and oversee. These are again the types of lies that republicans utilize to deceive and sow distrust in their base.",fbbkhru,MightyMorph,4few0
"Russian gate first 2 1/2 years now impeachment he only been president for 3 yrs so yes all of this BS is about Hilary losing and NOT covering The Obama administration illegal activities and there are so many! But maybe you believe that Hunter Biden is just one of the finest individuals to walk on this Earth and because of this he would have had no problem securing a $80,000 a month no show job it was just a coincidence that Daddy was VP",kmcmanus15,17pngwnx,fbdekdt,"> So it doesn't matter if they are unlawful or not.

...but also they are unlawful. Bribery, soliciting election assistance from a foreign national, and obstructing Congress are all quite explicitly illegal. And just a few amongst the dozens of other laws Trump has likely broken while campaigning or in office.

So the objection is frivolous on all counts: A specific crime is not necessary for impeachment, *and yet* there *are* specific crimes on top of a heap of other qualifying malfeasences.

The other line I keep hearing from House Republicans is that impeachment is ""an attempt to invalidate a legitimate election."" Bitch, the election's got nothing to do with it. Impeachment is a completely separate process, as spelled out in our Constitution. I know they know this so fucking stop pretending.

God damn they're making our country look so pathetic. Bunch of petulant children who won't do their damn jobs.",fbbxlq9,SentientRhombus,4aysu
Try Core Curriculum and no longer teaching Civics this is DemoRats territory! Not R cuts! American students can no longer pass a 1900 8th grade test even as 12 graders! But that’s OK because we’ll send these morons to college for big bucks and that will fix their poor remedial studies! Exactly how did this pan out?,kmcmanus15,17pngwnx,fbddu1b,"Amazing how several of the R reps were were quoting Hamilton’s other writings on impeachment, without full context. Basically confident their constituents have never read the Federalist Papers. Thanks R education cuts.",fbbur5z,chonks1985,348zlotm
So picking you nose is high crimes but wiping your arse with same hand is a misdemeanor!,kmcmanus15,17pngwnx,fbddf13,"Impeachment is purposefully presented in The Constitution in such a way that the president doesn't have to have committed crimes in order to be impeached.  From Wikipedia:

> The Constitution limits grounds of impeachment to ""Treason, Bribery, or other high Crimes and Misdemeanors"".[\[2\]](https://en.wikipedia.org/wiki/Impeachment_in_the_United_States#cite_note-law.cornell.edu-2) The precise meaning of the phrase ""high Crimes and Misdemeanors"" is not defined in the Constitution itself.  
>  
>The notion that only criminal conduct can constitute sufficient grounds for impeachment does not comport with either the views of the founders or with historical practice.[\[1\]](https://en.wikipedia.org/wiki/Impeachment_in_the_United_States#cite_note-CRSReport2015-1) Alexander Hamilton, in Federalist 65, described impeachable offenses as arising from ""the misconduct of public men, or in other words from the abuse or violation of some public trust."" [Source](https://en.wikipedia.org/wiki/Impeachment_in_the_United_States#Impeachable_offenses:_%22Treason,_Bribery,_or_other_high_Crimes_and_Misdemeanors%22)

So it doesn't matter if they are unlawful or not. It's not a criminal trial and the charges are not criminal charges. This also means just because the president breaks the law does not mean he has to be impeached.",fbbo702,robfrizzy,d51gq
"Maybe A study of Pearson Education’s Core Curriculum Deal where they received 310 million from The Obama administration and he received a 65 million dollar book deal! Of course this is the DemoRats way you pay and we play! Good luck in a long trial in the Senate and after! Most Republicans want a similar investigation into John Kerry, Devon Archer, his his largest fund raiser an A Burisma board member or David Leiter, John Kerry’s chief of staff who became Burisma’s lobbyist and so much more! If a phone call bring the DemoRats raft if Kahn what do you think the Actual Theft will get! Enjoy your fleeting moment!",kmcmanus15,17pngwnx,fbdc98c,He finally beat Obama at something!,fbctm8i,New_Alphabet,3gw1vk10
"The last ice age lasted from 2.6 million years ago to 11,700 years ago, now we utilize small 20 to 50 years segments in particular areas and denies that fact the area weather changes can be drastic as the past suggest the Shara Desert which in the past was a great sea called Tethys 7 million years ago and now 28 tons of sand (phosphorus) is pick up by winds and fertilizes the largest rain forest the Amazon! So we just beginning to understand this phenomenon but if the sea does not dry than what? In today’s Weather Doomsayers we would probably save the lake and loose the Amazon. My point is we know very little about our own planet except it is constantly changing! We need all DATA from every scientific study from every angle NOT one Narrative fits all or opposites views are attacked by Antifa!",kmcmanus15,17pngwnx,fb7azzy,"> A ""once in a lifetime"" heatwave

Unless this one kills you, I'm pretty sure you'll live to see a lot more.",fb70uyr,dansdata,5x4de
Most now have a system where you put a quarter to release on cart then when you return the cart back once connected the quarter is opened a released! This saves a lot of parking spaces especially when it snows! There is also a thought that common courtesy no longer exist and people only care for themselves! Maybe it’s true! Or maybe their time is more valuable than yours?,kmcmanus15,17pngwnx,fb7a4sd,"“Here, I’ll put that right there for ya.” Immediately after  the guy initially hands the bumper sticker back to him. Haha. I lost it.",fb6fip6,HeyIJustSaid,zimmo
"Pretty hypocritical when your country committed the Genocide of the Christian Armenians and other Christians sects in Turkey. The Armenian church is from the first century and Turkey was part of the Holy Roman Empire and Emperor Constantine became The western ruler in 312AD whereas The Armenian Church dates back to 301AD. It is very important to study the past but when 1 million Christians have been killed the last 10 years ; Tell me what has this Great man from Turkey learned other than committing the Exact same atrocities of the early settlers in America and that is : To Engage in The Systemic destruction of others in the exact same country you live in!!!! Because if the color of their skin, the belief system that differs from yours or their ancient ways of life make you uncomfortably concerned! So, another chip in the pile for repeating only the worst of our intertwined past!!!! Even today with only 1-2% being Christian the persecution continues, “What a Wonderful World It Could Be”",kmcmanus15,17pngwnx,fb44r2j,"Good, everyone should.",fb2z1iw,nx85,3deyo61k
And 90% say they were never ask!,kmcmanus15,17pngwnx,fb0p6sv,There has to be a tremendous flaw in this poll.. There is absolutely no way in hell 70% of Americans support this.,fazyz0o,MonkeyBrown2,39n5m32y
"Hold what American Politicians to what standard? My God The fisa warrants abuse from the best educated most highly trained officers of the law in America and they get the pass that they just made mistakes, when every mistake was in their favor! Also, we are OK with children of politicians getting serious financial support for their parents influence, well it wasn’t influenced in was Taxpayers greenbacks the Ukraine got! I am glad you are Good with the end of democracy because every president from here on will have their whistleblower hiding in secrecy and we’re pissed that this president didn’t Just give the money with no Questions ask! It should be very interesting the years to come when less evidence is needed to oust a president than a homeless person from your yard! Godspeed and welcome to The Machine!!!!",kmcmanus15,17pngwnx,fajubmv,"It won’t, I’m afraid. The Republican Senate simply will not vote to remove him. Even *if* they can somehow be pressured into admitting he did even a single thing wrong, they will claim it does not merit removal.

That doesn’t detract from the importance of the House’s duty, however. This is what they were elected in 2018 to do—hold the office accountable by any means available to them. That others betray their duties is neither their fault nor responsibility. It is ultimately the job of the people who vote for their Senators to punish or reward them for their refusal to act.",faj06h7,GrafZeppelin127,pz4s8zu
Why are students still paying for hard copies of scholastic book instead why don’t colleges just download books in separate lab tops and charge nothing or very little for the download each semester,kmcmanus15,17pngwnx,f7d7fcq,My mother in law is terrible about this. She's gone to college and 2 trade schools and doesn't use any of those for the job she has now. It's all paid off. She'll get on my wife and I sometimes about how we've struggled but refuses to look at any of the differences. My books alone are more than the cost of one semester for her back then. I can't buy a house for 40k. Maybe not even a trailer. Their house payment is less than what it costs me to rent the cheapest apartments in our area so saving feels impossible to put a down payment on anything else. We don't have insurance because all the jobs around here are either still filled by their generation and whenever one retires the competition for them is insane and often irrelevant because of nepotism.  When something needs addressed like a dentist visit or even just bloodwork done it tends to make the next month or two really thin living. But no they could manage all that at their age...,f7cfger,Invideeus,13qt7g
The first trillionaire has existed for quite sometime The Rothschild’s might be worth around 700 trillion?,kmcmanus15,17pngwnx,f4vhzyk,"Oh there’s no doubt he’s a narcissist, possible sociopath.

He’s on the record saying that:

•he wants to live forever 
•wants to be the world’s first trillionaire
•wants to be PM of Israel 
•wants to be the first “world president”

-

Venture Capitalist firms are pretty much gamblers. They invest in  “lootboxes” (a bunch of startups) and hope they run into a unicorn. Then they reap in the returns once they do.

It’s comical how often these apparent experts and consultants get deceived. Check out the story of Theranos if you haven’t already.",f4uofhc,NicoKlein,2wnlhn5h
What about all the children never found might suggest that murder is the end of the original incident,kmcmanus15,17pngwnx,ets91ru,"That doesn't say child molesters have a recidivism rate of 50%, it says they expected that in the study.  

If you read the citation, it points to this study: http://www.wfsbp.org/fileadmin/user_upload/Treatment_Guidelines/Paraphilias_Guidelines.pdf

for their 50% figure.  Which is weird, because the study says:

> The mean estimate re-conviction rate for sexual
offences is 13% (lower with incest offenders 4%, as
compared with boy victim paedophiles 21%)

I believe they're citing this study for the 50%:

> The re-offence rate for 334 individuals taking
depot MPA was greater than with CPA, with a mean
rate of 27% at the end of the follow-up (range 6
months to 13 years) as compared with 50% before
treatment (Meyer and Cole 1997). 

But, that being said, that's one study with one outcome.  It isn't a 50% across the board as the type of offender (Morally indiscriminate, situational regressive, fixated) as well as their victim (Incest, friend, stranger) has a huge impact on the recidivism rates.  

This is a really good summary of the different numbers:

https://reason.com/2018/11/14/the-frightening-and-high-factoid-about-s/",ets4uyg,meditativebicycling,7ao8g3n
Would he be testifying on the origin of the original FISA warrants and everyone that signed off on these warrants?,kmcmanus15,17pngwnx,ep5kws8,Just subpoena him! It is so frustrating watching Democrats looking for and hoping some court or prosecutor will step in and enforce the rule of law. They (Democrats) have to do it themselves. No savior is coming.,ep4lxiq,8to24,3l818505
Great will have fake faces giving fake news. Great!,kmcmanus15,17pngwnx,eok283x,"Boy, society is in for some challenging times ahead.",eoi82ap,falloutmonk,8aaj8
"Taxing the rich more will help but pension abuse has killed our state NJ paying over 11 billion a year in pensions with the overwhelming amount of these NJ pensioners living in less taxed states. Why do all government employees state local or federal get pensions. Very unfair system and the amounts paid to individuals is staggering. We pay a ex school superintendent a $ 197,000 pension per year what BS Term limits no pensions time to make government employees equal to private employees compensation",kmcmanus15,17pngwnx,en7kmmz,This distinction needs to be made very clear for all of the republicans,en5mn4c,rhodehead,e7u8n
I believe the worst crime is BOT control of our  opinions and the disappearance of comments and even subsequent responses to my post also disappeared must be the Donald controlling free speech what BS,kmcmanus15,17pngwnx,elzn18e,Trump could've been charged before he was president!  Now he has lawyers that will go to prison for him.,elz4kj6,NicestUsername,yp24prn
"Obama and Hilary Clinton sell 20% government’s uranium to Putin for 120 million for Hilary’s campaign and $500,000 for her hubbies speech. What did Obama expect to gain for these treasonous act was Putin to back him with Iran stopping their nuclear weapons defense programs! Obama also wire tap Trump and thousands of other Americans via a solo White House effort not including our FBI Serious breach of US laws!
What crime of The Donald equals up to selling weapons grade uranium to Putin and keeping the money?",kmcmanus15,17pngwnx,elziiap,Trump could've been charged before he was president!  Now he has lawyers that will go to prison for him.,elz4kj6,NicestUsername,yp24prn
Getting their Harvard for $50.00 a year will cause extreme competition and the awful anxiety that’s built in their higher education procedures but it’s also fair that the very best get in and not the richest. To me the next top 20% in grades should get a virtual home teaching from that school. To make college tuition affordable we need all private universities to offer very affordable virtual college experience!,kmcmanus15,17pngwnx,elzhm49,"The competition is crazy. I know an Indian guy who graduated from Stanford University. He was from Tamilnadu, and when I asked him about his decision to study abroad, he told me how he dropped out of the race in India because his cut-off mark was too low for VIT (which, while it is a good college, isn't exactly the top college in India). 


It's crazy that the competition is so fierce locally that the Ivys are now safety schools for those that can afford to study abroad.


Also, the regular dynamics of state vs private is magnified by a thousand in India. The cut off mark for affordable government college is much more tough than the expensive private colleges. One mark could literally be the only thing standing between affordable education and financial ruin for your family. And when I say one point, I don't mean between 79 and 80, I mean between 97 and 98 (if you look at it from a out of 100 scale). Many of these people would be considered geniuses in the West.",elz40cb,god_im_bored,1260eq
Just have a term limit of 8 yrs no pension move up or move out. Also no lobbying to government officials or their representatives only can lobby directly to the public via advertising or social media,kmcmanus15,17pngwnx,elr7u95,I think at this point Baltimore just needs to get rid of everyone in city government and elect people not from Baltimore.,elqlg1b,The_Best_Balatro,320bmiej
What BS name one plan you’ve heard the Democrats have stated on the US horrific homelessness problems! They allowed open boarder policy before taking care of society’s lowest common denominator! What’s amazing is the worst homelessness issue exists in the very liberal west coast states. I don’t here any jokes on late night tv satirizing the pathetic opulence of the rich liberals in Ca vs their well over A million homeless The Democrats are now offering free monies or floating trains or anything they believe will get them elected(including election fraud)except tackling difficult issues like homelessness which is a multifaceted complex social issue that will cost probably well spent billions. You can be as altruistic as you want but socialism only brings eventually shared misery! great statement! Enjoyed your humor!,kmcmanus15,17pngwnx,elne96u,"FUCK. THESE. SWINE.

Rich old white fucks convincing the poor and the desperate to keep paying them in order to achieve righteousness. They are the ""doctors"" slowly poisoning their patients, and if I believed in hell, I'd hope they have it branded on their flesh. Goddamn charlatans. They are the rapists of the soul.",elm6zut,secamTO,criom
"The final total of Poles killed by Germans and Soviet 6,028,000 3 million ethic Polish, 3 million Jewish Polish and the rest where Polish citizens. There were 5 concentration camps in Poland but there are stories of Poles crying as the Germans were leaving and when asked why do you cry and they replied here come the fing Russians!",kmcmanus15,17pngwnx,elholts,"I heard Hitler decreased the unemployment rate by killing the Jews! He’s amazing, I can’t quite understand how this idea hasn’t caught on...",elhbubs,Anterwo,3axjtjbb
The investigation was on collusion correct?,kmcmanus15,17pngwnx,el1rcvx,"Thanks, that's a really interesting answer. I might have picked Rod Rosenstein with the question ""What did Trump tell you when he said he wanted to you to fire James Comey?""

IMO obstruction of justice is an easier case to prove than collusion, particularly when it extends to the court of public opinion. Most people mistakenly believe that collusion (or more accurately, ""conspiracy"") only matters if it succeeds in its aims. In truth, the conspiracy is a crime all by itself regardless of the outcome.",el1dktl,veddy_interesting,5gvw2
So you’re for dismantling all armed forces in the USA and abroad with open boarders? ,kmcmanus15,17pngwnx,ek3hyhy,"Ultra militaristic nationalism is a big problem in the US, it’s a very underlying value that soooo many ppl have and it’s intertwined into everything.

This happens in a lot of places but the glorification of Troops and the army for “fighting for our freedom” is so harmful in making war seem noble when most of the troops still alive today fought in wars of aggression and weren’t protecting anything except the bottom line of the military industrial complex and oil companies.

",ek307oo,ItzEnoz,c784w
Do you also want transparency of the Clinton foundation?,kmcmanus15,17pngwnx,ejd8tkb,"**We want transparency. If Trump can satisfy us that he's innocent, then we won't have to worry anymore. But he's going to have to let us look.**",ejd1p4v,justasapling,44grp
Please investigate Enron where Wassermann report cost 87000 employees of Arthur Anderson there jobs only to have most of the charges reverse. My point is there is not 300 pages of facts most is conjecture speculation of what possibly happened at this or that meeting. All Americans deserve factual information on exactly what who and why not a fucking novel for tv,kmcmanus15,17pngwnx,ejd8okv,"Because this isn't about tribalism or ""playing ball"", it's about the nation. I want Republican politicians to care about America instead of their wallets. Don't you want that too? I mean... I want the same from Democrat politicians - I know they're pounding their partisan bibles too. But what I want is a return to doing what is right for the country - if that means exonerating Trump, then that is what it means. And if it means locking him and his family up for treason, then that is what it means. I certainly want one of those more than the other... but more importantly I want to live in a safe and democratic nation that isn't influenced by foreign elements and isn't rife with corruption.   


I'm fucking tired of all the divisiveness. We can disagree on political priorities, and still be good neighbors. So can't we just agree that this report needs to come out because it is comprehensive and well investigated? And if the news it contains displeases one or both of us, that it's still news that needs to be heard?",ejd00e4,fargmania,4myu3
So moving forward every investigation report on any Americans should be released to the public? We are changing rules of law for what 300 hundred pages of facts I think not. The disrespect shown to the Attorney General is pathetic he is not anyone’s boy he is and his record shows his own man and every pertinent Fact not innuendo’s! ,kmcmanus15,17pngwnx,ejd2m3s,Everyone does want it released... and it will be. This is a filler article.,ejcse9e,My_RealName,9angl
Wouldn’t every American Iike to hear that hey you didn’t commit a crime but this doesn’t exonerate you! ,kmcmanus15,17pngwnx,ejc63ej,"“The Special Counsel states that ‘while this report does not conclude that the President committed a crime, it also does not exonerate him.’”  - Nadler  
  
So now what?
",ejabmqq,AspiringScreenwriter,mvzln
Agreed get trump Hilary Mueller’s complete team everyone connected to Ukraine dealings and let’s get the truth!,kmcmanus15,17pngwnx,ejc0jwi,"THIS.

Get this fucker under oath. Get them all under oath and release as much of the report as possible.

I can’t help but wonder if this was a misplay on the part of Barr and Trump. They’ve basically neutered any argument about shielding this shit because Trumplandia now believes the report is a glowing endorsement of what a good boy Trump was in 2016, despite Barr clearly trying to get in front of the obvious and brazen obstruction by Trump.",ejaiv2q,DirkDiggler_Chiraq,tn2v7s7
Call antifa,kmcmanus15,17pngwnx,ej71c37,"Have you ever tried to Be Best?  It’s so hard!  You see a dark-skinned person and it’s so hard to not call the cops on them!  And forget about trying to not beat up people who aren’t heterosexual, it’s just not possible.  I gave up cross-burning for, like, 3 weeks and it nearly killed me.  ",ej6xxv4,YourExtraDum,ry7o1
What about Shell the Dutch giant gas company?,kmcmanus15,17pngwnx,ej6yfb5,"How about ban _all_ Big anythings from lobbying the EU, eh? Not just ones that piss you off by not appearing for trial. ",ej6v4o0,feesih0ps,l3d8p
"What about eyewear 90% manufacturing is one company or health insurance (monopolies state wide) or any business that kills the competition thru innovative technology services or price and becomes market king? McDonald’s coke Pepsi Red Bull but in the EU Air Bus gets financial backing and own their marketplace only comp Boeing? Also, break them into what?",kmcmanus15,17pngwnx,ei35uop,"I just finished that series.

It really does make for an interesting problem, since the big tech companies of today aren't really doing what Standard Oil did in the past.

Legislation targeting individual companies is generally not OK in America so I see why Warren wants to just target companies that single-handedly bring in more than 25B.  This would also target Microsoft and Apple.  Apple in particular would be an interesting one to try to deal with.

I'd like to see what she has to say about the ISPs.",ei2ox8s,wayoverpaid,5elfh
