child_body,child_screen_name,child_user_id,child_tweet_id,parent_body,parent_tweet_id,parent_screen_name,parent_user_id
Saw the KingGee shirt and figured it had to be Australia.,shofmon88,101hme,fkistoa,Credit: wildcatcentre (Instagram),fkhoeyi,Suchy499,4pmw3i8l
kidsinthesandbox still scars my mind to this day. I can't believe it was that long ago.,shofmon88,101hme,fkd7mku,"Like I mentioned in another comment, there was a clip of that going around back in the 90s typically called **kidsinthesandbox.mpeg**.

My Google-fu must be weak because I can't find a mention of it anywhere else on the Internet.",fkd5a73,ChryslerDodgeJeep,aoe2hv4
"With climate change already fucking up this world, there's no time for normalcy.",shofmon88,101hme,fjf4txe,"Ugh.  I don't like Biden, but come November if he's our guy, he's our guy.  Vote Blue no matter who!  Once normalcy has been restored we can go back to voting on ideals.  Right now, this is survival.",fjf40r4,Cloberella,4433c
"Votes need to be earned, not given, and I would much rather not violate my conscience and not vote for someone who's views mostly don't align with mine. It will be very hard to convince me to vote for Biden. It's looking like a write-in for me.",shofmon88,101hme,fjf4mv5,(Please don't downvote me to death) I think it's sad that Bernie supporters are ready to jumpship on democratic chances and not vote at all just because Bernie may not be the nominee. You have to vote blue no matter who,fjf41in,CapitalPlayz,1v9506d7
"You should do that the other way around. Straight D down the ticket, as they're the ones that control whether nominations go through.",shofmon88,101hme,fjf1vk5,"If Biden wins the nomination I'll vote for him only to prevent Trump from getting anymore SC picks, but I'm going to vote straight Republican down ticket to send the DNC a message.",fjf1kli,einv0lk,mck9a
Yes. The American Progressive Party.,shofmon88,101hme,fjf1q4y,"Does anybody think we should have three parties, like a liberal party, a democratic party and a republican party?",fjf1mgf,KamalaHarris46,3cc4r8s9
I would assume PBS would be the most unbiased.,shofmon88,101hme,fjewxad,"Hmph, the only live coverage I can get on YouTube (watching from abroad) is NBC, CBS or PBS. Which would you all recommend?",fjewmqt,distantapplause,553kn
"The 1974-75 bushfires were mostly grass fires, caused by excessive rain the two years prior. They mostly burnt in remote areas and did relatively little damage. The burnt areas quickly recovered. This season's bushfires were much more damaging, and burnt at a much higher intensity.  Rainforest which had never burnt before went up on flames. Total area is only part of the story.",shofmon88,101hme,fjdioox,"I find it odd that the 1974-75 fires burned 117 million hectares, and the 2019-20 fires while burning only 18.6 million hectares, have been widely regarded as an apocalyptic sign of the end times as a result of climate change.  

So... which is it?  That’s 117 vs 18.6.  Fires 6 times the magnitude of what we just saw happened 45 years ago.  And major bushfires seem to be a feature, not a bug, in Australia.

Is it climate change?  Poor land management?  A combination of both?

Edit:   Or a strange suite of factors that we can’t imagine from simply reading about the past online?",fjdfhnh,OfCourseIKnowHim,njffu
"I live in Australia, but *used* to live in Colorado and still vote there. Sent in my ballot for Bernie about two weeks ago. Can't wait to vote against Gardner too.",shofmon88,101hme,fiyi9nb,I live in Colorado already sent in my Ballot. Proud to have voted for Bernie Sanders.,fixhczo,FraustFortress,166skt
But Gladys is a Liberal and is a terrible Premiere and oh sorry we're not talking about Australia,shofmon88,101hme,fijcof7,"You're forgetting something: the white suburban women, including white suburban college-educated women demographic encompasses old women too.

We know that soccer moms will vote liberal. The hard part is getting Gladys and the bingo gang to vote liberal.",fiivxr7,SadlyReturndRS,ndri7
"Yeah, I know. I use steam (proton) on Linux, but I haven't had good luck with compatibility. Fallout 4 has no music, and multiplayer doesn't work on Borderlands 2. I mostly play older titles, and a lot of them just aren't supported well by wine/proton.",shofmon88,101hme,fham4k1,"Well, U can do gaming on linux too.",fhaem8v,DoorsXP,1qtmv66q
It will be the same drives.,shofmon88,101hme,fh9uwu5,As long as the hard drive remains the same from the previous build I think you should be fine.,fh9o2rm,MrDrProfPizzaMD,uhcd8aa
"Well, I do have a third hard drive with Windows 10 for gaming. But that's a problem for a different forum.",shofmon88,101hme,fh9uut6,"With Windows you would, but if you're running Linux, no.",fh9s5ik,thefanum,x8iu3
"That's valuable info, thank you! Would there be a way to check for missing drivers/packages, like --fix-missing?",shofmon88,101hme,fh9t0cy,"Since you are moving to an `AMD` chip, I'd suggest that you install the `microcode` package for that processor family... and maybe any firmware required for onboard devices that differ (lan / audio etc).

Apart from that, just re-plug and play!  No-one is trying to detect hardware changes for licencing purposes or owt....",fh9q803,ang-p,f8att
"That's pretty scary. Though the chance of him actually living to 2048 is zero. Of course, that dismisses the fact that we have a president who now thinks he can rule for life.",shofmon88,101hme,fgnee0i,"Uh oh, looks like Trump is taking the cue.. 

https://twitter.com/realDonaldTrump/status/1225174713992990721?s=19",fgne41s,Rudi_de_Hue,334499dg
"You're either a troll or a complete moron, neither being mutually exclusive of course.",shofmon88,101hme,fgnc9ic,Democrats just cost themselves the 2020 election. What a waste of time and taxpayer money. Was originally a Bernie supporter but going to vote for Trump come 2020.,fgnc30t,ReswobRS,398s5hf
"Fucking hell, this is the funniest thing I've read in a long time. I actually study insects for a living too (no, not like that you weirdo).",shofmon88,101hme,fgi5y67,Fucking disgusting. But I’m not gonna sit here and act like them ants from bugs life don’t got that WAGON,fghops9,chris_051201,5hzslii1
"In my case, there was no absentee ballot for the primary from my state in 2016, since it was a caucus. That being the case, I would have been disenfranchised had it not been for Democrats Abroad. The organisation has had state-level representation since 1976. I guess the fact it exists shows that Democrats are the party that cares about the democratic process, as there's no equivalent for the Republican Party.",shofmon88,101hme,fgbv9r0,"TIL.  I just assumed that Democrats Abroad was for people who couldn't otherwise vote, but it looks like you can always vote in your most recent state of residence, even if you haven't lived there in a long time.

I wonder why the DNC does Democrats Abroad separately, instead of saying ""You moved to London from Kentucky in 1993, so get an absentee ballot from Kentucky""?  Weird.",fgbbb52,AwesomeScreenName,7bdt3
"I'm an American overseas. Democrats Abroad allows us to vote in the Democratic primary, especially, as you said, if you aren't registered in a state or your state has a caucus. But all Americans are entitled to vote in the general election; how you actually go about doing that differs depending on your situation.",shofmon88,101hme,fg906sj,"50 states, DC, Guam, Puerto Rico, US Virgin Islands, Overseas (U.S. citizens living abroad who can't vote in another jurisdiction), plus a few others I'm forgetting.

None of those (except the 50 states and DC) will be able to vote in the general election in November, but the Democrats let them all vote in the primary.

*Edit: I was wrong about Democrats Abroad.  Generally, U.S. citizens who live outside the U.S. can still vote in the general election.  For whatever reason, in the primaries, they can generally vote as part of Democrats Abroad, or in their home state.  There may be some exceptions; I haven't studied it sufficiently to say for sure.*",fg8omi6,AwesomeScreenName,7bdt3
"The window of opportunity to do controlled burns is rapidly shrinking. It was such a warm a d dry winter that hardly any burning could be done. That said, burning isn't a magic solution. It can be damaging to biodiversity, and in some cases can even lead to an increase in subsequent fires.",shofmon88,101hme,ffwjeq1,And how about you do control burns to remove dried underbrush.,ffwfkcr,Soulfire1945,13pk8u
"Indeed it does. As someone originally from Colorado, I find snow gums pretty weird. You shouldn't have green broad leafed trees in snow...",shofmon88,101hme,ffsxpn7,TIL it snows in Australia,ffsv5pv,newhappyrainbow,7zf6t
Pretty sure this is in Australia. Most people here have no clue about snow. Probably his first time visiting the Australian Alps.,shofmon88,101hme,ffs7d9i,Must be visiting or new to real winters. No way a native would mistake ice-pack for powder snow.,ffrw8m1,Rezzone,b2rx1
"That's likely the Sheriff, and not the police chief.",shofmon88,101hme,ffnupsl,Interesting. In my city they are elected.,ffnolyt,PM_ME_YOUR_HOG_PLZ,1t7em68j
"I have Nelnet. This is specifically for income-based repayment plan recertification, which had to be done at the aforementioned site. Nelnet has similar issues though, but I was able to get them to bypass the phone number thing by calling them.",shofmon88,101hme,ffcqfc0,You can manage them through you servicer. I have great lakes. Granted perhaps those websites do it too but you should really be going through your servicer for most things.,ffc4oqw,ioshiraibae,5exwuoae
"I've had better luck with Chase than Capital One. I was able to call up Chase and have them manually add my Australian number to my profile. I can now use their online banking at least. 

Capital One, however, has no way of handling foreign numbers at all. I now have to pay my credit card bill by calling them, since they forced 2-factor authentication. Also, the Capital One app isn't available outside the U.S., but Chase is. 

The worst offender by far is the U.S. government. I'm required to have a U.S. address and U.S. phone number to use studentaid.gov. Basically, the only way to manage my Department of Education loans is live in the U.S.",shofmon88,101hme,ffb5sxs,YES! I was recently in a banking catch-22 with Chase for months because I was using a google voice number and couldn't just hop into a branch to show them my ID.,ffb1ljz,moremango,8fe4o
"$103,800 was the exclusion last year. 

I personally don't owe anything, but need to file still.

Makes student loan repayment quite interesting.",shofmon88,101hme,ffaufkn,"The exemption is quite high though. Income up to $100000 or something is exempted, so to the IRS, you make nothing. And therefore, you owe nothing.

To owe them anything, you'd be beyond the middle class to me.",ffaqwu7,la_voie_lactee,15nkop
"Also, if you live overseas, you're required to have a U.S. phone number and credit card in order to use TurboTax. Complete bullshit. It's astounding how many rather essential services in the U.S. require this. It's like the rest of the world doesn't exist. U.S. citizens can live in other countries, what a shocker.",shofmon88,101hme,ffaqtke,"This isn't accurate. TurboTax won't show you an all forms view until you pay, perhaps unless you already qualify for the free version.

I've tried this in years past out of curiosity and there was no way to get a full forms view until after payment, only partial information.",ff9zo2k,kyrianfox,e1rjw
"Unfortunately, they do not support filing taxes if you have an overseas address.",shofmon88,101hme,ffaqdgm,"FreetaxUSA

Used it for the last 7 years and this one as well. Never paid to file federal. We have interest income, student loans, itemized deductions, 1099, kid credits, etc.

They even prompt me to check my dumb things before filing. Easy peasy tax return squeezy.

Edit: Thank you for the awards. I'm glad so many people found this website suggestion helpful.

Lots of folks are asking about specific forms or income types. I can't vouch for my ability to answer everyone but the website can help you. Their homepage is super easy to navigate. Look for ""supported forms"" on desktop or ""learn more"" on mobile. The list is extremely long.",ff9pyoe,BicarbonateOfSofa,31ixq0uz
"The United States requires all citizens to file tax returns every year, even if they've never stepped foot in the country.

""All U.S. citizens are subject to U.S. income tax on their worldwide income, regardless of where they reside. U.S. citizens residing abroad are subject to the same income tax filing requirements that apply to U.S. citizens living in the United States. All U.S. citizens must file a U.S. federal individual income tax return each year – Form 1040, 1040A, or 1040-EZ – if their gross income from all sources meets the amounts in the filing requirement charts located in the forms’ instructions.""

[Source on the IRS website](https://www.irs.gov/individuals/international-taxpayers/us-citizens-by-birth-or-through-a-us-citizen-parent)

There are plenty of horror stories of people who didn't know they were U.S. citizens visiting the U.S. and then being detained or kept from departing until they pay off their back taxes. [Here's a good CNBC article describing what U.S. citizens living abroad face.](https://www.cnbc.com/2018/06/27/more-americans-are-considering-cutting-their-ties-with-the-us-heres.html)",shofmon88,101hme,ffapnqv,??? Am so confused... Can you please explain why you have to do both?,ffamlqy,csirp,ot2s3
"As an American in Australia that's required to do both, there's no comparison. My Australian taxes are done in about 5 minutes. My American taxes take me the better part of a day. I don't even have income in the U.S., or properties, or investments, nothing. They just want their slice of what I make in Australia.",shofmon88,101hme,ffa7pot,"It's even easier now if you link your my gov account to the taxation office. I didnt even use E-Tax last year.. it's just not necessary unless you have complicated adult taxes with properties and stuff.

I can't even imagine having to do my taxes like Americans do. Poor things.",ffa3iwv,Kittehfisheh,crbzhbb
"All of those are on the western side of the continental divide, therefore, on the western slope.",shofmon88,101hme,felxpnx,None of which are west slope,felqm9j,streams28,gkuey
"A little over 1/5th of Colorado would be burnt. 

Current area of the fires is 6 million hectares, or 60,000 square kilometres. Colorado is 269,837 square kilometres. So the fires are about 21.4% the size of the state.",shofmon88,101hme,fd2xj1o,That’s a lot of my Colorados worth of area.. can some math boi calculate exactly how many Colorados would be contained within?,fd0f5ct,Artholos,87ocx
"You're mixing up your units. Current area of the fires is 6 million hectares, or 60,000 square kilometres. Colorado is 269,837 square kilometres. So the fires are about 21.4% the size of the state.",shofmon88,101hme,fd2xch5,"Area of Colorado approximately 270,000 square Km.  Thus about 20 Colorado's in 5.5 million square Km.  All credit to Google and my phones calculator.",fd0hzfq,Petrochromis722,7h8pm0d
"You're right, it's way too low.",shofmon88,101hme,fd1uane,that's a bullshit number... Aus hasn't even measured the GBR in 15 years.,fd100s8,prjindigo,c2goi
"Addressing your edit, volcanic soil and soil in burnt areas is certainly fertile, but that's not what I meant. Your tree won't grow back if it's reduced to ash (vs lightly scorched, where tissues are still living).",shofmon88,101hme,fcz8iz9,"Wait, shit, what? I hadn't heard news of Aussie rainforests being touched. Nvm then.

> You can't grow back from ash. 

https://previews.123rf.com/images/aaabbbccc/aaabbbccc1801/aaabbbccc180100144/94729142-rows-of-cabbage-growing-in-a-field-in-a-fertile-volcanic-soil-on-a-high-plateau-in-the-gunung-bromo-.jpg

You can...",fcz6r1o,Legario,fbeyn
"There are very few taxonomists left overall. Many groups have no one working on them at all. Much of Australia is still relatively unexplored when it comes to the biota, there are a lot of hard to reach remote areas, and nowhere near enough funding or manpower to survey them adequately. Most trips that collect new species only visit an area for a brief time; you miss out on things that may appear in a different season, or you might have missed a spot where there's a locally high amount of biodiversity. There's also different sampling methods, and they yield very different species, but some are quite intensive and can't be used all the time. Couple all that with the vast number of insect species out there, and it's no surprised the majority are still unknown. We estimate that about 1/3 of our focus group is described in Australia, and that's about 1,500 species already.",shofmon88,101hme,fcz82gw,how the hell can there be so many potentially unknown species in Australia? y'all don't have people going about and studying the life out there regularly?,fcz6z14,ElderScrollsOfHalo,435oiy7m
"This was back in November.

https://www.theguardian.com/australia-news/2019/nov/28/unesco-expresses-concern-over-bushfire-damage-to-australias-gondwana-era-rainforests

Shit's fucked.",shofmon88,101hme,fcz736s,"Wait, shit, what? I hadn't heard news of Aussie rainforests being touched. Nvm then.

> You can't grow back from ash. 

https://previews.123rf.com/images/aaabbbccc/aaabbbccc1801/aaabbbccc180100144/94729142-rows-of-cabbage-growing-in-a-field-in-a-fertile-volcanic-soil-on-a-high-plateau-in-the-gunung-bromo-.jpg

You can...",fcz6r1o,Legario,fbeyn
"A lot of Gondwanan rainforest has burnt. As far as we know, it has *never* burnt, even under the indigenous fire regimes. That type of ecosystem is extremely fragile, and will not regenerate. Even in stands of dry sclerophyll forest, there are microhabitats and species that only occur in old growth areas. We're still talking hundreds of years for these things to return, if they do at all.

The temperature of the fire also matters immensely. A lower temperature fire may only scorch trees and other vegetation, and the existing trees continue living and can put out new growth. These are the sorts of fires the Australian forests can cope with. But the fires now are burning hot enough to torch the trees completely. You can't grow back from ash. Furthermore, those species dependent on fire for reproduction, like some *Banksia* species or lodgepole pine in North America, do have a temperature limit their seeds can withstand. Too high, and they will die instead of germinate.",shofmon88,101hme,fcz5vmc,"I dont mean during the fire, but afterward. And yes, a forest has a long time recover, but Australia is not covered in European/African style old wood. It's always had a cycle of fires that regularly burn through and the perpetually young plant-life has adapted to that. Same as the American Southwest. ""Heat"" of the fire makes no difference there. A patch of trees burning at 230C vs 260C isnt going to make much of a difference to the trees or anything organic in them.

Not saying the fires arent unusually widespread, but pretending they're gone forever just isn't ecologically correct.",fcz2311,Legario,fbeyn
"Growth of some species is increased by fire, and some species even depend on it. But these fires are so hot and intense that even these species are impacted. And we still haven't had rain. 

Regardless, it takes hundreds of years for a patch of forest to fully recover.",shofmon88,101hme,fcyz50u,"To be fair the areas leiden with ash should regrow quicker than the normally do given the uh, fertilizer leftover.",fcyjt6i,Legario,fbeyn
"You'll be happy to know that brown recluse spiders don't actually pose much of a threat. There are very few cases of actual bites, and their reported necrotic effect is likely due to secondary infections by flesh-eating bacteria. In fact, most necrotic bites reported are often just infected ingrown hairs. The brown recluse can be horrifically common where it occurs (I lived in a basement in Kansas during college, I had thousands), but the species is very non-aggressive, and they additionally have a hard time actually puncturing our skin. They also have a pretty small range, mostly confined to several states in the Midwest. So you likely have no reason to worry about brown recluses.

The Australian white-tailed spiders is similarly maligned. But do watch out for black widows (or redbacks in Oz), they're nasty customers.",shofmon88,101hme,fcyxqn5,Yes.  Much much more.  I know spiders aren't the most dangerous creature I could encounter and aside from a brown recluse don't pose hardly any threat to me at all.  I can't help it.  I see a spider and it freaks me out.  Part of a phobia is that the fear is irrational.,fcy80he,CuddlePirate420,n1hp6
"I just saw a photo of one of these for the first time the other day. It's not the group I study, but they're still an awesome insect.",shofmon88,101hme,fcywwtl,"Something that may interest you. I saw a giant blue robber fly in mudgee, NSW yesterday. Never seen one before and it took me ages to id it. I'm assuming it came to get away from the fires",fcy5hda,Herpkina,4e0xz04
"Money in government from coal interests, as well as pressure from right wing media.",shofmon88,101hme,fcjklfe,"Well, what's stopping them? If they've got a business model that is cheaper, why haven't all the existing coal power station been replaced with renewables?",fcjjzov,Sweepingbend,4un2cbz4
Yes and yes,shofmon88,101hme,fcirt5j,"Does it take into account transmission costs from SA to the rest of the country?

Can the other states replicate it?",fcimwpm,Sweepingbend,4un2cbz4
"[A shift to clean energy has led South Australia to have the cheapest wholesale electricity prices in Australia.](https://www.theguardian.com/australia-news/2019/dec/24/south-australias-clean-energy-shift-brings-lowest-power-prices-on-national-grid-audit-finds)

So no, this argument doesn't really hold up.",shofmon88,101hme,fc6n0rc,"There is a lot of space and solar is being built in some of these areas but unfortunately when you combine solar cost and transmission costs the exising coal fire power stations produce cheaper electricity. 

They are coming to the end of their lives so they'll be replaced hopefully sooner rather than later and they won't be replaced with new coal because new coal just isn't cost competitive. 

The problem we face is that electricity prices will have to rise regardless of what we replace the old coal with and it's guaranteed Murdoch media will blame renewables for this.",fc6ln5p,Sweepingbend,4un2cbz4
"There's always Dutton. He tried for PM when Scotty got it, and you know he hasn't given up on that dream.

What a frightening prospect that is.",shofmon88,101hme,fc5nqvw,"A leadership spill is a distinct possibility, but the current Lib/National coalition doesn't really have a strong individual who could successfully oust him. Many of the current cabinet members have no real experience in a leadership role as public or visible as PM. 

Frydenberg (Treasurer) and McCormack (Deputy PM) probably have the largest public profile, but are pretty unlikely to unseat Scotty because A) Frydenberg is his right-hand man and B) McCormack is a from the National party.

As for a challenge from the backbench, its very unlikely and even less likely to be successful. The current crop of backbenchers are pretty new on the whole, and there aren't any former Prime Ministers lurking back there biding their time, Turnbull didn't contest his seat last election (retired) and Abbott lost his seat to Labor.",fc5c7rf,Convictfish,6ay6t
https://youtu.be/xRnpVwHBl_8,shofmon88,101hme,fanwjal,I performed this show... I'm clearly too old to understand what just happened here.,fanqeeu,forevertexas,m832q
"Not in Australia. They consider the start of summer to be the first of December. Seasons aren't as well defined in Australia as they are in much of the northern hemisphere. But astronomically speaking, the first day of summer would be the 22nd of December at the solstice. It's just not observed.",shofmon88,101hme,f9gg72n,"Summer starts on the 21st or 22nd (leap year dependant) of December.

https://en.wikipedia.org/wiki/Summer#Summer_timing",f9g5bvu,PlankWithANailIn,ntiw8
"""...and the other hamburger will ALSO be made of your lungs""",shofmon88,101hme,f85nd4f,A better analogy than the alarm would be to suggest the GOP wants to give the bank robber the chance to question the person who reported the bank being robbed - it's purely an intimidation technique so they can continue to rob,f85mluf,Showmethepathplease,qx7qz
Obviously not one I got. My bad.,shofmon88,101hme,f83f1gp,It was a spongebob reference ):,f83dn6o,mcsmackington,n600eq
You are mistaken,shofmon88,101hme,f82ydia,If I’m not mistaken this frog is actually dead and before it freezes it produces a large amount of specialized proteins which prevent the ice crystals from causing too much cell damage. It’s either this frog or another frozen frog.,f82azzj,nightman713,8uewu
"It's a grey treefrog, either *Hyla chrysoscelis* or *Hyla versicolor*",shofmon88,101hme,f82y7js,ALSAKAN! WOOD! FROG!,f826aiw,mcsmackington,n600eq
He boomed you,shofmon88,101hme,f6y5tyb,"Yeah,not gonna lie, you got me.",f6y4fer,EnderBunker,f3ghj
[And here's my own snap using the holder](https://i.imgur.com/c94Q5z3.jpg),shofmon88,101hme,f6pmwgl,"For anyone wondering, this is at the Byron Bay Lighthouse in Australia. It's a crowdsourced project to track beach erosion. The holder is so you take a picture at the same angle and location as everyone else. You then upload the photo to social media and tag the project, including the date and time. [Here's the sign next to the phone holder.  ](https://i.imgur.com/LQ30R8n.jpg)",f6pmpgf,shofmon88,101hme
"I agree is a species of *Casuarina*. It's trimmed/shaped pretty oddly, but there's no mistaking it's leaves.",shofmon88,101hme,f5hmfu7,*Casuarina*?,f5h6wi9,Klekihpetra,10d7r5
Glad to hear it!,shofmon88,101hme,f5bt38t,I did this and I believe it worked! Thank you.,f5bkmey,goalieperson,91r0i
Make sure it's 9am on a Friday on a rainy day. That'll ensure Sydney Trains is having a meltdown.,shofmon88,101hme,f437h8t,"Nah, 9am or 4.30pm, dump them in peak hour traffic.",f412kls,dumblederp,4tlav
"I'm originally from the states, and the backwards seasons still confuse me here.",shofmon88,101hme,f3efc8h,"I thought, ""wait but robinias already flowered this spring"" then I say you saying Sydney",f3edjmd,The_Great_Pun_King,4bdnjt56
"Thanks. I knew it was recognisable, but just couldn't place the species.",shofmon88,101hme,f3ecsmd,*Robinia pseudoacacia -* black locust. It is indeed from *Fabaceae*,f3ebs28,Pademelon1,pmyqa
Same poster,shofmon88,101hme,f228hde,Isn't this the same bullshit list some other guy just got destroyed for posting? Lol these people are a joke.,f22869p,crewchief535,et248
That's what the NSW government and Australian government are all about these days: hiding records and avoiding accountability.,shofmon88,101hme,f0g63g3,"And of course, any terrorists are too stupid to crack a book on architecture, etc. or just plain learn to recognize it.

But, what a GREAT precedent for sealing public records from being audited by the masses.",f0g0dtm,escadian,htyg4e6
Are we really? But I thought we're just dirty Millennials who are too young to know any better,shofmon88,101hme,ezxyaa9,Fellow 88er here! FYI we’re considered “older” round these parts (Reddit).,ezxw247,Dinkin______Flicka,4dlyp24e
"Yup, I feel this.",shofmon88,101hme,ezxxva3,Much to my dismay as someone born in 1988 who has been adding it to my usernames since my teens.,ezxoxlv,Tetsou88,dkkcg
You got it!,shofmon88,101hme,ezcv4dh,Cool--is that why it has such an unusual veining pattern (parallel length-wise)?,ezcq4yi,taleofbenji,13ghn9
">They’ll often call it “common sense”, which just means “shit I’ve known so long that I can’t remember what it was like to not know it.”

As a scientist, I feel so called out right now.",shofmon88,101hme,ey51rts,"You run into this in lots of people who are highly skilled in one particular subject area, and have worked in it for years. They’ll often call it “common sense”, which just means “shit I’ve known so long that I can’t remember what it was like to not know it.” This scientist was (for some reason) tasked with writing a non-technical description but ended up writing three paragraphs of verbal pseudo-code instead.",ey4jdcu,ctishman,4ddyy
Neither family actually has piths,shofmon88,101hme,ex3yllz,"I did know that but it would ruin the stupid pun

""so is the Strelitziaceae member"" is way less pithy than ""so is the palm""",ex1xhxx,slightlyusedeggplant,yiuqv
What would you say the best *playing* contra is (regardless of weight)?,shofmon88,101hme,ewyljje,"They play like garbage. Stuffy as hell. No false tones. Higher range is very out of tune. Requires the use of the first valve cheater lever for proper intonation. 




Perhaps if they built the horn right the first time, you wouldn't need such an implement. But that's what i expect from Taiwanese clones of Kanstul products.",ewyh6k9,Contrabeast,15nidk
"IMO, BK has the best dynamic contrast of any corps, full stop. They also use silence and minimalist elements to really bracket moments of impact, which makes them all the more forceful.",shofmon88,101hme,ewwbbsv,Not to mention very MUSICAL moments unseen at the very top as far as dynamic contrast.,ewvxxbh,blahblahmunchen,4ahq5
What's the Sydney Morning Herald have to do with anything?,shofmon88,101hme,ewvc4u6,Returning to the US banking system was like going back in time. smh,ewv8gf5,-Redfish,8mz5r
"This seems incredibly misguided. Spend money on sound equipment and staff, otherwise the judges won't think you're clear enough, and will mark you down.

Judging in DCI needs an overhaul. And maybe DCI needs to not be so reliant on domes.",shofmon88,101hme,ewqivp9,"They help with clarity and impact to reach the judges when the judges are in a dome and all the way in the back of the stadium.  


Also, people clap for loud things. ¯\\\\\\\_(ツ)\_/¯",ewqe847,Top12DCIsoundguy,aewewj7
"The trick to field mics is getting them the fuck out of DCI. Seriously, why are they needed? The impact they have on audio quality is hideous.",shofmon88,101hme,ewpy0hn,"The trick to field mics is making sure that they’re never louder than the acoustic sound. Once your ears get pulled to the speakers, you’ve gone too far.",ewn4y7c,Top12DCIsoundguy,aewewj7
That drill during the end of the show was spicy. Good stuff.,shofmon88,101hme,ewb0e8t,"Magic '02 was fantastic. [Full show](https://www.youtube.com/watch?v=THkc6zjHVCM) for those interested.

Powerhouse staff, with Wayne Downey arranging brass, Jeff Sacktig drill, Gino on horns, and I believe Colin McNutt drums. Love those [uniforms](https://assets.dci.org/5bd2f34c629f4b0a832f7ad8_WcZV0-UFBVK9AlFiD1Ficuya-hiQiQBF.jpg) too.

Also features one of the nastiest falls in DCI history (circa 1:20 in the video I linked) -- a quad player ate it during the opener (tripping over a guard prop), and fell backwards with his drums falling off the harness. The drum judge actually came over to see if he was okay, and the member received a huge round of applause when making it back to the corps.",ew9iqd3,BACsop,7gixr
RBG and Hyde Park were Poochyena,shofmon88,101hme,evvxxx4,Same here for me in Sydney,evvqwbr,Pugcuddle,125a9jfl
Do it,shofmon88,101hme,evayome,You know I thought about clipping all his speech into phonemes and running it through a deepfake program just for the hell of it. Might actually be worth it lol.,evaar7s,esjay86,7vs8f
"It's a little corella, which is a species of cockatoo",shofmon88,101hme,ev8lqtb,"Not a cockatoo, but this bird is a fuckin legend
https://www.youtube.com/watch?v=DRRIjOkzHPM",ev8jxzj,moocubed,v11ysr5
"Little corella, actually",shofmon88,101hme,ev8lnhg,"That’s also a Cockatoo, just a different type. Looks light it may be a Goffins or Slenderbill, not positive though.",ev8gcio,Loreddd,4v6rb
I've never heard of that actually being a problem.,shofmon88,101hme,ev888uv,At least one performer passes out per show,ev82knj,jnpconcept,5holi
"Honestly one of the best shows of this decade. Beautiful and classy, and really the last of an era.",shofmon88,101hme,eufgptk,I feel like no one ever talks about SCV 16 for some reason. It’s such a good show and it deserves so much more,eufdio8,PM-ME-INTENSE-DOGGOS,ck7m0lr
"Wow, I had never seen or heard their 2003 show before. Talk about underrated!",shofmon88,101hme,eu4br9z,"https://www.youtube.com/playlist?list=PLr4P1FxXs-lBGYCTIzllIz1PHDrE1Sa7Y

This dude has a playlist of a few of BK’s shows",eu3h0qh,JRPike,13czl12o
You're missing Blue Knights at this show.,shofmon88,101hme,etxoeml,"\*top 6, arguably top 7 or 8",etxevja,dabassist19,hpxm3
Which is why they were beaten by BD and BK?,shofmon88,101hme,etx5t6h,"I saw the battery last night and they're 100% better, cleaner, and tighter than everyone else, except for SCV (which is just unbeatable in the percussion caption at this point).",etwptmh,factorone33,3xmm1
"It'll be interesting to see where their percussion places. Usually it's higher than their brass. The last time they faced the Cavaliers, BK's percussion came out on top.",shofmon88,101hme,etvsty8,"BK was definitely improved in a lot of areas. The hornline had good power and balance, but the drums were a little muddy. I thought it was weird how the entire percussion section was practically devoid of almost any cymbals until the closer when the front ensemble brought out some crash pairs.",etvsehv,factorone33,3xmm1
"Ugh. Tarps. Only good for tripping. 

(*waves from Australia)

edit: how were the Blue Knights?",shofmon88,101hme,etvrlyi,SCV unveiled a tarp tonight. It's huge. Also a bunch of mini tarps around their cage-looking props. Interesting to see what they do for GE.,etvr01z,factorone33,3xmm1
"Cycads are not related to palm trees at all. Cycads are gymnosperms, in the same group as pine trees. Palm trees are monocotyledon angiosperms, and more closely related to things grasses, sedges, irises, etc. You're probably mistaking the common name sago palm, which *is* a type of cycad, as an indication that the groups are related.",shofmon88,101hme,etf3lgi,"It isn’t a zamia, it definitely is some kind of cycad though (so, related to zamias). It’s resin, and it oozes out if it’s been raining/wet for extended periods of time. It’s harmless, it’s just the plant getting rid of excess moisture 👍",eteog2n,jcthefluteman,d6jnc
"I'm saving this comment. What a wealth of information, thank you. 

I really wish I could get my hands on a Kanstul 5/4 GG. But I fear that'll be impossible now that they're out of business (and I doubt there's a single G contra of any sort in Australia).",shofmon88,101hme,etdswih,"G contras were never a member of the tuba family. They are not considered descendants of the Saxhorn family, therefore are not tubas. Marching BBb tubas are, however, Saxhorn-related, and therefore properly considered as tubas. 




Here's where you can get some muddied waters...




The Dynasty Super Magnum contras (D979 - 2 valve, G379 - 3 valve, G380 - 4 valve) are actually the same main body as the Willson 3100 BBb tuba. The Dynasty M880 BBb marching tuba is therefore a marching version of the Willson 3100. This technically makes the Dynasty Super Magnum family an extension of the tuba family. 






Kanstul made convertible tubas in 3/4, 4/4, and 5/4 sizes. The 4/4 and 5/4 sized marching-only tubas came in BBb or GG. The 5/4 GG contra was very similar in design to the King K-90 contrabass, which itself was designed based on the King 2341 tuba. The 2341 was later the basis of the King 1141 3+1 valve BBb marching tuba. Therefore, The Kanstul and King contras are also very much based on tuba designs, and therefore descended from tubas.





The Dynasty 4/4 contra, the G378, and the previous D978 2v horn, were based on the design of the Olds Ultratone contra, the first 4/4 sized contra. These horns were often called ""pea-shooters"" because of their small bore, small bells, and light weight. The Ultratone wasn't really based on any extant tuba design, except that it used the bell and bottom bow of the Olds O-99 student tuba. The rest of the tubing was a completely new design for any instrument. Prior to the Ultratone, contras were largely built in 3/4 size, with some using student line tuba bells and bows, such as the Smith Music Sales and Whaley Royce models, and a true 3/4 size in the Getzen ""baby"" contrabass, which was partly built with concert euphonium parts and featured a .570"" bore, same as Getzen's bass baritone. Some of these 3/4 sized GG contras even used small shank tuba mouthpieces they had such tiny bores. These horns were designed as an extension of the baritone bugle voice, and therefore aren't tubas. 






A GG contra can project only as well as the player behind the mouthpiece. The best sounding contra lines used the 5/4 horns from Dynasty, Kanstul, and King. The scale of the bore of these horns, the quality of the brass construction, and the quality of the silver plate all helped to make these horns in particular have a deep, sonorous color to their sound. Also, given the key of the instrument, the natural overtones of the horn are amplified. On a wide-spectrum tuner, such as PitchLab Pro, I can play my G contra and have a perfectly identically tuned 5th appear on my tuning display. Having a line of 12 or so GG contras all playing power chords in tune means that the fundamental, plus the 5th, are being heard by the audience. In pipe organ construction, design, and performance, space can be saved on the bass pedal notes by providing a stop called ""Resultant"". In a pipe organ, the Resultant stop is a soft sounding pipe stop that plays a 5th above the desired note, which reinforces the 3rd harmonic and creates a perceived pitch of one octave below the desired note. Since the GG contra can produce the 5th of a given note more easily than a BBb tuba, a line of GG contras can produce a resultant pedal very easily, which can be reinforced by having one or two strong players playing the actual pedal.




To answer whether a BBb tuba can be designed to play more like a GG contra, the answer is no. Part of this is because GG is simply a different key which leads to different temperaments on pitches. It's the same reason why a BBb tuba, CC, Eb, and F all sound slightly different. They all are tubas, built very similarly, but the pitch centers, the difference in cylindrical vs conical bore lengths, and bell sizes all determine the actual timbre of the tuba. The Dynasty M880 BBb Super Magnum and the Kanstul 5/4 BBb marching tuba both play very differently than their GG counterparts. The actual differences between the two horns boil down literally a few feet of conical tubing, and a little bit of extra cylindrical tubing in the valve and leadpipe section. That little bit of tubing makes all the difference in the way two otherwise identical horns play. 






Of course, it also helps that your BBb tuba is made from good materials and designs to begin with. The Yamaha design is good, but too light and therefore doesn't have the projection or ability to create overtones. The Jupiter design is too heavy because of bracing, and uses too thin of brass, so plays way too stuffy. The Adams horn is too light and small to project. The System Blue horn has promise, but needs thicker metal and better quality controls. The King design is a decent playing horn, and probably has the closest sound to the GG contra of the current designed horns. The Kanstul 5/4 BBb was the closest, but isn't made anymore. 





What else would you like to know? I've been playing tuba for 17 years, and GG contras for 10 years, so I have spent a lot of time behind the valves of both.",etbltnn,Contrabeast,15nidk
"Thanks for the firsthand info. I'm enjoying learning more about G contras. I never would have guessed they would be better playing horns. 

How did they compare in volume?",shofmon88,101hme,etaxy34,"Resell value wasn’t necessarily a thing back then. Cadets used those same contras for several years. I suspect we may have used Yamahas because they played better than the alternative. They were great horns.

Edit:

They were also much lighter than anything else being used at the time, and generally had better tuning and build quality.",etauytp,mcconnell514,bv4h3
"I've heard this before, but I can't figure out why they would do something like that. Was it so they had a higher resell value (as Bb horns)? I can't imagine they sounded that great.",shofmon88,101hme,etauqje,Cadets marched Yamaha Bb contras in the 90’s that they modified with 4 extra crooks to lower the pitch to G.,etatu1v,mcconnell514,bv4h3
"Kanstul sold a variety of convertible tubas, from 3/4 to 5/4 sizes. So I guess it depends.",shofmon88,101hme,etaojkd,The No BS! Brass band uses a convertible tuba. I believe those tend to be on the smaller side.,etajdax,tuba4lunch,1im0mj
I'll allow it.,shofmon88,101hme,et9h7p7,"It’s a type of craft beer.

https://www.beeradvocate.com/beer/profile/2372/53886/",et9fvca,wokeryan,3whtn34x
Pretty sure I wanted to talk about turtles.,shofmon88,101hme,et9h4cq,"Oi, PhD in Bio or not, pretty sure they were talking about the person you responded to",et981ey,TheKijana,bjqrl
Sounds like they would be fun for jazz. Better than my Yamaha Eb concert tuba anyway.,shofmon88,101hme,et977yy,"The bass trombone effect is true for the smaller contras; I don't have too much time to get into it this morning but prior to the Olds Ultratone (\~70's) contras were 3/4 size with a narrow bore. Ultratone was the first 4/4 size and the Kanstul Grande brought about 5/4 (and eventually, the oversized mess that is the Jupiter Quantum).

Those baby contras were a bit blatty, and that's true for 3/4 and some 4/4 Bbs today.",et95b3u,tuba4lunch,1im0mj
"Wait, G contras are *smaller* than Bb contras? I was under the impression that a 5/4 G contra was larger than a 5/4 Bb contra. The Kanstul G contra has the same bore (0.689"") and bell (21"") as its Bb model.",shofmon88,101hme,et94e5y,"I would assume similar: because G contrabass are smaller than their Bb counterparts, the tubing has to be narrower to keep the horn practically light. The narrower bore all along the length gave the bugle a brighter sound allowing it to cut through the line better.",et93epa,Foef_Yet_Flalf,re1cy
"I have a PhD in Biology. I'm allowed to be pedantic about turtles. I *could* have said that terrapins are members of the family Emydidae, while softshells are in Trionychidae. I could have also said that the particular turtle is in the genus *Apalone*, and it is likely *A. spinifera*, though it could be *A. ferox*, depending on where this was filmed. 

I could have said all that, but didn't.",shofmon88,101hme,et943aw,"When will people stop being pedantic about turtles? 

And when will people stop being so damn authoritative and wrong at the same time?",et92gaz,Raytiger3,a6bwc
"As another redditor pointed out, terrapins are a type of turtle. This also happens to not be a terrapin, but a softshell turtle.",shofmon88,101hme,et91gtd,"That’s a terrapin, not a turtle.",et8sb9q,Swedish-Butt-Whistle,j762x
"Rule #1 for this sub should be ""Don't be a dickhead"".",shofmon88,101hme,et5j45q,"if you want us to do things you have to use the report function.   


if you have a request specifically for the mod team, you should use the modmail feature. on the desktop site, it's the little envelope button on top of the modlist. on mobile, it's one of the options under the hamburger button on the top right corner.    


making a thread like this doesn't really do anything for anyone. the effort you put into typing this up could have been spent reporting the ""fake accounts"" that are apparently ""overflowing"" the sub. as far as the mod team can tell it's one person using two or three alts, and not really breaking any rules other than being kinda mean sometimes.",et5ersm,watch-tan,blu87
"I'm no fan of Windows, but that's fucking cool. I would never have guessed that was an actual photograph.",shofmon88,101hme,et57fpp,"Wow, that's unnecessary micromanagement if I ever heard it. In a way though it makes the end result seem more alive, like with the Windows 10 desktop wallpaper [which surprisingly isn't computer-generated](https://youtu.be/hL8BBOwupcI).",et4ygav,klodderlitz,fklid
I did not know either of these,shofmon88,101hme,eszke9r,"As you probably know, Cadets' 2000 show was the music from the Epcot fireworks display.

As you may not know, they play the same music on the video monitors when you go through immigration (passport check) at some US airports when arriving from overseas.",eswn4ki,LeifSized,ktgow
Norms are a bit different in Australia and New Zealand. I still shit a brick when someone asks if I want to get Jap food. [Seppo living in Oz],shofmon88,101hme,esx2jfb,Can...can we say chinky again?,eswlafq,tribalDemon,x7gt0
"I've worked with the USDA on their NRI surveys. I spent 3 years going out to private property to conduct vegetation surveys. I spoke to numerous ranchers during that time, in Nebraska, Colorado, and Nevada. Most will not listen to studies like this. They distrust any sort of research, because the researchers ""don't live out here, and don't understand how it actually is."" And that's that. You can't convince anyone of anything if they just wilfully ignore solid evidence.",shofmon88,101hme,eslgma5,"You should pass on to the ranchers there that [the USDA has found elevated sustained CO2 levels are reducing proteins in the grass in grazing lands.](https://www.ars.usda.gov/ARSUserFiles/1354/59.%20Augustine_2018-ClimateChangeForageQuality.pdf)  Their cattle are going to start going underweight over time and eventually start getting sick because they're not getting enough nutrients.  The USDA has peer-reviewed solid evidence of this, and it's going to impact their ranching business badly if something is not done about it.  And if they want to know why more people haven't heard of it?  A certain government administration has directed the USDA not to release this info because it supports Global Climate Change, and they don't want that.

Maybe if we start showing ""typical Republican supporters"" how their party is on the road to wrecking their livelihoods and endangering the entire US and most of the world... maybe then some of them will start looking this stuff up and start paying attention.  Goebbels would be proud of Trump.  Squash any info that might make you look bad.     
     
EDIT:  Linked to a document containing the info on CO2 affecting proteins in grazing lands.",esky4g9,TheOldGuy59,ai5da
"Was an iPhone 4s, then SE user. Loved my SE. But the SE is aging, and my phone was starting to have issues with its screen. But in looking for a replacement, I felt abandoned by Apple. There wasn't anything in the right price range or size range. So I decided to try a Pixel 3a, and I'll be damned if I don't love the thing. There's features I miss about iOS (air drop), but there's a lot of neat things the pixel can do that an iPhone can't. 

Give one a try, you might be surprised.",shofmon88,101hme,esf86gl,"I’m an iPhone user. Didn’t love Android interface (had a Note and a Galaxy S), comfortable with the iPhones. Yes there are cheaper phones on the market, unfortunately they’re not iPhones.",esf6h2v,c__ortana,kdrx0
"You are required to have private health insurance (typically Medibank or Bupa) as an international student in Australia as a condition of your visa. However, the private insurance does usually cover all costs, unless you're at an out-of-network private hospital, and that hospital charges more than the bulk billing price.",shofmon88,101hme,esf3z8h,"I studied abroad in Queensland for a semester (I’m american) and I broke my hand while I was there. I kept expecting a bill to arrive from the hospital/doctors I had to see, but none ever came. It was shocking to me",eseznrf,pattyfrankz,r8tlo
"The Medicare levy is 2% of your taxable income as well, over the normal tax rates. https://www.ato.gov.au/Individuals/Medicare-levy/",shofmon88,101hme,esf3bq2,"Dunno about them, but for Australia, with similar free health care and subsidized drugs too the tax rates are: 
$0 – $18,200	Nil

$18,201– $37,000	19c for each $1 over $18,200

$37,001 - $90,000	$3,572 plus 32.5c for each $1 over $37,000

$90,001 - $180,000	$20,797 plus 37c for each $1 over $90,000

$180,001 and over	$54,097 plus 45c for every $1 over $180,000

The average income for a 38 hour week is about $82,000 per year. Which will be about 25% tax on income. Plus there is a 10% tax on most goods and services, raw food ingredients for example are not taxed, but prepared food is, so we get weird things like sauce labelled as marinade so it's tax exempt. The idea is poor people can buy basic food and essentials cheaper. So, call it 25-33% tax depending on how you spend it.",eseozwo,Rubik842,lg8uz
