child_body,child_screen_name,child_user_id,child_tweet_id,parent_body,parent_tweet_id,parent_screen_name,parent_user_id
"They could probably do that just depending on how the software works. For example, imagine if the software was designed to take your ID and your vote, but if it's your second time voting it just accepts your input and doesn't count it. That would allow them to use registered voters and still have that backup filter(from being discovered) in case the person ends up voting.

This is just me talking, but I'm saying it would be incredibly easy to control this stuff if you were running the whole thing without extensive public oversight.",AKnightAlone,4971h,fjgiav0,In every state there are registered voters who don’t vote. What if they use those identities to fabricate voting submissions?,fjgh3ht,takeme2urveggieburge,1ea9gm55
I want him to call it rigged then say he's running third-party and if the DNC doesn't back him then they're agreeing they support Trump.,AKnightAlone,4971h,fjge3ls,"I do not understand why he has not run third party. At the least he would get 5% of the vote and legitimize a bonafide third (second really if you are paying attention). I don't think people including Bernie understand  the impact a third party has. Equal FEC monies, committee chair appointments in Congress,  mandated debate time and the people benefit the most since less than 51% can enact law. The true travesty is his refusal to declare third party and change this whole country in the process.",fjg4ok1,rdrigrail,bhc3de
Probably the same ones Romney owned and used vote flipping algorithms on.,AKnightAlone,4971h,fjgdwxk,Who makes the voting machines?,fjfvn6a,DruidicMagic,3i7fyako
They should only put the fucking candidates still running.,AKnightAlone,4971h,fjgdtpx,Randomised should be the only acceptable option.,fjgcdpc,lol_and_behold,arx82
"I called it. They're using a vote-flipping algorithm like Romney's anomaly showed in 2012. They manufactured consent with the endorsements and the media onslaught. 

It's absolute insanity. We're going to end up with the whole country on fire and all these billionaires will just fly off to their private islands.

Oh and I think Warren and Bloomberg are being used as little anomaly cushions to make it easier to engineer.",AKnightAlone,4971h,fjgdjm2,"And one can't help noticing mainstream media's labored attempts to make the narrative seem convincing: ""Wow, a sudden and utterly unexpected groundswell of support for Biden! Where is this coming from? We don't know, but it's truly amazing and surprising and gee, what an age we live in, etc.""

I've been saying it for years: popular sentiment plays absolutely no role in the electoral process. ***None.*** The ruling class rigs the whole fucking thing from start to finish. (And remember, James Madison admitted as much. Free elections would be a very, *very* bad thing for ""the minority of the opulent,"" and that's why the entire process is rigidly controlled.)",fjfqqyj,NotJustYet73,2pel9gwb
I wouldn't be surprised if a lot of their replies are copypasta.,AKnightAlone,4971h,fjgcxm1,I wouldn't be surprised if a lot of their replies are copypasta.,fjgbfg5,Cosmickev1086,9zkruq
The US regime is an inverted-totalitarian corporate oligarchy.,AKnightAlone,4971h,fjgcngw,"The US is a corporate run cabal

FTFY",fjfwlae,blizzzyybandito,2h1cd3p
Mexmemeico.,AKnightAlone,4971h,fjgby6s,"Please, please tell me.",fjfgcz1,PelagianEmpiricist,aazvsf
"> What’s the appeal of Biden for black voters

Well, The New York Times and Washington Post put up giant banners ""BLACK VOTERS PUSH BIDEN TO THE LEAD."" I'm pretty sure it's that kind of bias we've been getting for decades and while we had the black guy in office.",AKnightAlone,4971h,fjgbjkf,"What’s the appeal of Biden for black voters?? ELI5 please, non US resident here.",fjgae3e,deltaetaxciv,31dw783
Nothing constitutional or republic about this. It's a corporate oligarchy.,AKnightAlone,4971h,fjg8sui,Because it's not. It's a constitutional republic.,fjg393r,WxwXwxWxwXwxW,213irxd8
This is why gamers are the most oppressed class.,AKnightAlone,4971h,fjfqssp,"Go to therapy man. You crumbled under today’s society, you would have been destroyed in past cultures.",fjfgatd,sadate,ozckx
Why is that comment removed?,AKnightAlone,4971h,fjfjvl4,Hell of a speech there fellow countryman. ~~Here here!~~ Hear hear!,fjey3m4,malfurian,qhuhv
"Fuck off, nerd.",AKnightAlone,4971h,fjffti7,Socially awkward nerds who cry about how feminists took away their manliness have never been manly in the first place. It's not women's fault if you're not manly enough. You're just a pathetic loser.,fjf5bvc,NoNerdsZone,5jht5taa
"They've been. Sorry. I forgot to fully detach from my existence. You know, America fucks the rest of the planet because we're a bunch of sociopath oligarchs. You feel me?",AKnightAlone,4971h,fjffs05,"You: I'm speaking passively

Also you: Modern men have nothing manly or confident to look up to because we've been culturally emasculated.

>we've been culturally emasculated

>**we've** been

>#**we've**",fjevdgo,Majestic-Insurance,4r9sk92d
Because we grew up being babied and emasculated to the point that we can't function.,AKnightAlone,4971h,fjffmt5,Why is it the people who would be eaten alive in a hyper masculine culture the same ones always fighting for one?,fjeu1fa,sadate,ozckx
Revolution.,AKnightAlone,4971h,fjffjxs,Fair enough. How are you gonna get there without getting Trump out?,fjet33v,humancartograph,ba1y9
