child_body,child_screen_name,child_user_id,child_tweet_id,parent_body,parent_tweet_id,parent_screen_name,parent_user_id
That's one hairy potter.,Assasin2gamer,12m6g1,fjhiv8h,That's just an inverted boat.,fjh34w3,d1nKd,rfoy4qi
Most videos on reddit are just cropped tik toks,Assasin2gamer,12m6g1,fjhiusu,big chumgus 100 fortnite bad normies reddit approved everybody liked that donkey Kong happiness noises,fjhb2vq,ultraconcrete00,5ftdr4e1
"Probably, though I’m burning up!”",Assasin2gamer,12m6g1,fjhirdr,"Would using a metal branding/heating tool like he is be more cost effective than burning it with a propone tank + weed burner?

Interested in trying this out",fjhhled,DrinkingCherryShots,czy45
"Gotcha. Anyway, all good now, I'm back""",Assasin2gamer,12m6g1,fjhifzf,"Gotcha, didn't know the name.",fjh1urv,ImCaptainRedBeard,20xpl109
Lol this just made me so strangely happy!,Assasin2gamer,12m6g1,fjhifoe,Lol I use to think everything was filmed/broadcasted live as a kid,fjh98la,Harambiz,2t0o3ts7
RIP bro. Thank you /u/MissVeya,Assasin2gamer,12m6g1,fjhi3ty,Downtown bro lol,fjh49lq,jvgkaty44,dz9vn
A 4th wall break. That’s Wanda,Assasin2gamer,12m6g1,fjhhnga,"Hmmmm... Military? 

It’s okay if you prefer not to share...

I hope the best for both your closing and opening of different stages in your life. Rock on, bro.",fjh950k,Rycan420,n3yne9x
That's better. I don't consider this cringe.,Assasin2gamer,12m6g1,fjhgxvh,"It's true.

The Collective Labour Agreement for educational personnel  in The Netherlands pretty outrageous.  


Those sick days come with a little bit of a but.. I don't know the law like the back of my hand but it's something like this:  
 The employer can order you to go to a doctor, you must do everything within your capability to get better and resume working (but the employer must do everything to find suitable work withing your capabilities) and those days are limited to 2 years.   


But if you do get sick during your holiday (even abroad), you get those days back.",fjgfwxa,K_R_O_O_N,lshy3
Surely people should be banned from future events.,Assasin2gamer,12m6g1,fjhgsl6,"It's really not that good lol

They just used spot healing from the visible counter area to fill in the rest.",fjhe75d,26x210,56n74674
Time for a squad of bananas to beat endurance,Assasin2gamer,12m6g1,fjhghh8,"It’s because news is literally dogshit these days.  Headlines are usually something like “SEE WHAT KIM K WORE WITH KANYE TO THE 68264TH AWARD SHOW THIS YEAR!”, when there’s literally a slave trade in parts of Africa *to this day*.",fjhb2n5,LordHervisDaubeny,1ps88jkp
I think he even made Germany capitulate,Assasin2gamer,12m6g1,fjhepoa,They couldn't see anything because your over the toilet seat not the glass floor but I don't wanna be that guy who makes anything unfunny so yee stinky poo,fjgscqp,Lil_Lulatsch,2xm8x2oh
"I think /r/damnthatsinteresting, not WTF.",Assasin2gamer,12m6g1,fjhd7ig,"And If you look at OP's profile, he's been reposting this shit for like a month. Also posting your own drawing to r/ThatsInsane is pretty fucking cringey",fjgwy37,Bradp13,4eqcs
Almost as bad as my French.,Assasin2gamer,12m6g1,fjhcpcb,Almost certainly,fjh6teo,servicestud,65xys
Use ecosia!!! It plants trees!!!,Assasin2gamer,12m6g1,fjh99k6,"If by my life or death I can protect this paper dwarf, I will. It will have my sword.",fjgsj6r,perpetuallydying,4t5la1zf
[He has a youtube channel and gf.,Assasin2gamer,12m6g1,fjh7y25,What's your YouTube channel,fjh4637,farFromSUBTLE_,5j7lzrub
"> Khabib vs Ferguson

This is madness.",Assasin2gamer,12m6g1,fjh7l6i,"Now this, is an Avenger size threat",fjh7fo7,rroser,ksxw5a4
