child_body,child_screen_name,child_user_id,child_tweet_id,parent_body,parent_tweet_id,parent_screen_name,parent_user_id
"I knew it was a terrible idea for Iraq back then. But yeah, I don't blame folks that voted for it at the time for both of your reasons.",BlueBelleNOLA,93k6z,fjhtgr8,"It's not that, it's that most American's realize that AT THE TIME it appeared to be the correct decision given the information that the Bush Administration put out. And AT THE TIME most American's supported going to war. It was after the fact the we learned it was under false pretenses when the public support changed.

 [https://www.pewresearch.org/2008/03/19/public-attitudes-toward-the-war-in-iraq-20032008/](https://www.pewresearch.org/2008/03/19/public-attitudes-toward-the-war-in-iraq-20032008/) 

So, as someone who was old enough to vote and remembered most of the events after 9/11, I do not give two shits if anyone voted to go to war at the time because it appeared to be the right decision given the ""evidence"" and we had just been attacked.",fjhr0x0,RoboFroogs,l18xv
"And took away co-pays for well visits, provided free birth control, and mandated mental health be covered.  

But yeah other than all that stuff it was total garbage /s",BlueBelleNOLA,93k6z,fjhjxhs,"> Insured coverage of preexisting conditions 

yeah, that's huge.

also, it kept young people on their parents insurance longer.",fjhit0b,greg19735,46j5p
"This is what I just commented, this source is trash. How does it have so many upvotes?",BlueBelleNOLA,93k6z,fjhj88k,"Wow, we are to the point of upvoting CNSnews simply because it's pro Bernie.  The fuck?  


 [https://mediabiasfactcheck.com/cns-news/](https://mediabiasfactcheck.com/cns-news/)",fjgl6jd,veryblanduser,1jytmwh6
"Actually I was wondering about that, are they allowed to vote, including for themselves?",BlueBelleNOLA,93k6z,fjhgj7i,"> You know who else are superdelegates?

Bernie is also a superdelegate himself.",fjhgeko,hypnosquid,46z1w
I auto downvote those. Along with Jacobin and Common Dreams.,BlueBelleNOLA,93k6z,fjhfhpa,I saw a National Review article on the front page a day or two ago.,fjgwjy6,throwaway5272,87vpf
"I'm really uncomfortable with this ""Biden is senile"" line of attack. The man grew up with a stutter and has had word mixup gaffes for years. I haven't seen anything other than mashup videos of said gaffes to indicate he has lost his faculties, it just seems like a reboot of people saying that about Trump. Maybe I'm wrong, idk, but it seems unnecessarily mean and divisive.",BlueBelleNOLA,93k6z,fjgw0jp,I’m with you on the sentiment of this comment but the wife/sister meme is dumb.  They had literally just switched places on stage,fjgod6o,throwhooawayyfoe,j91wa
History moves in cycles. Yes things are looking a bit grim right now but we are still heads and shoulders better than it was in the 75 years ago.,BlueBelleNOLA,93k6z,fjgpyjn,"I wish that was true. What we are seeing worldwide is a huge wave of nationalism which used to be the exact opposite of the left.

This is not just true for the US and Europe,  we see it in India, in Brazil. .",fjg4xu3,I_run_vienna,1xt07zjl
"Meh. One super, who explicitly has said if Sanders wins the majority he will be the nomination. You know who else are superdelegates? Omar. Tlaib. AOC.",BlueBelleNOLA,93k6z,fjgozo5,"Come again?

https://www.salon.com/2020/02/29/superdelegate-pushing-convention-effort-to-stop-sanders-is-health-care-lobbyist-who-backed-mcconnell/",fjgmhf5,SimpleJack69,94f65
Yeah I really want to see what is next for Pete. He has an amazing future ahead of him assuming he doesn't do anything crazy (which would be pretty out of character for him from what I've seen).,BlueBelleNOLA,93k6z,fjgkvld,"I think she would make a better Secretary of Labor or Secretary of treasury. Klobuchar hasn't been in the senate for long enough to be majority leader, so maybe AG for her. Pete is probably going to get Veterans affairs.",fjgksxa,CaptainIronBoobs,skpxs
I don't hate Sanders but I loved Warren and I'm really sad by this. She would 100% have been the front runner if Sanders wasn't in the race but I guess it wasn't meant to be. Hopefully she gets a Majority leader if we manage to take back the Senate.,BlueBelleNOLA,93k6z,fjgknoo,"Okay, but if Bloomberg dropped out, by that logic Bernie would still lose. Maybe start looking at your candidate instead. Everyone Warren supporter I know is a former HRC supporter who hates Sanders. I supported Klobuchar and was non-plussed because she wasn't doing what she needed to do break out. Your candidate is entitled to win, and if they can't win that's on them.",fjg3hwf,CaptainIronBoobs,skpxs
Actually there are quite a few. They just get very little support.,BlueBelleNOLA,93k6z,fjgj01p,No we don’t have an independent party,fjgh0ti,take5b,ghxsi
Because they understand what he actually meant by that and aren't letting a clumsy choice of words convince themselves he's not an ally?,BlueBelleNOLA,93k6z,fjgihgc,"I don't understand how the dude that said ""poor kids are just as bright as white kids"" is getting any minority support. Surely they aren't just going off of him being vp of Obama?",fjgbjks,legendfriend,15cc6j
That's the part that is so bananas about this conspiracy theory. There are already superdelegates that have endorsed him. Superdelegates by and large are just members of Congress and local party officials. It's like they're envisioning some wicked cabal of all the CEOs in the country or something which is just false. It's people that have been in the Democratic party for decades because they believe in what they are doing. If I was a delegate (regular or super) this conspiracy BS would be really disheartening.,BlueBelleNOLA,93k6z,fjgh5zw,"> would vote against bernie in a brokered convention if he didn't win a majority of delegates.

Well yeah, that's what the rules for the nominating process state, that if a candidate does not get a majority then super delegates get to vote and they can vote for whomever they wish.  I would imagine the super delegates that support Bernie also would not vote for Biden in that same scenario.",fjg3ran,toastymarbles,175mbc
That's how I feel about Warren.,BlueBelleNOLA,93k6z,fjgg97o,"I am disappointed but not discouraged. I will still vote Bernie until he drops out. Then i will vote Biden if he wins the nomination.

Simple as that.",fjgfm82,UltramusMaximus,yjz6g
Oh yeah likely. That's why I asked. The SoS sets this in LA and he's a giant asshole.  I am so disappointed we didn't vote him out last go around. But he was up against a black female Democrat and this is Louisiana.,BlueBelleNOLA,93k6z,fjf9i0g,"I understand that it’s bureaucracy, but bureaucracy that only puts ONE polling place on a campus as big as UCLA is not doing its job in good faith.",fjf9dbo,SpoonLord57,ngmng
"Who is the establishment, in this case? Do you know who in CA determines polling place locations? How many machines there are? Are polling staff volunteers? What are CA's rules around non-local students voting based off their legal address? 

It's not some mysterious cabal. It's a bureaucracy. If you want things to change you need to start WAY lower down than President, although they can help in some ways.",BlueBelleNOLA,93k6z,fjf8w0a,"there is only one polling place for 45,000 students at UCLA tonight. the fact that youth don’t vote as much is not an accident, it’s a strategy by the establishment",fjf3dxr,SpoonLord57,ngmng
