child_body,child_screen_name,child_user_id,child_tweet_id,parent_body,parent_tweet_id,parent_screen_name,parent_user_id
This one thing is why it sold like it did. I knew more people using it for a DVD player than gaming.,decoy777,xwrk8,fjhf5nc,"Yeah, it was also a DVD player at a time where dvd players were expensive.",fjh01tr,i_sell_you_lies,eim3n
"Yet if you look at states from 2016 to 2020 on how good bernie did vs Hilary and it seems like a very close % that bernie went down is the same amount of votes Warren had.  This is in Maine, MA(I believe) and MN at least that I saw examples of maybe another state too. But when you'd add Bernie + warren you'd get 2016 numbers. So it sure seems like they took from bernie.",decoy777,xwrk8,fjhe0oj,"Yeah, the Warren crowd doesn't seem too hot on Bernie.",fjh0drt,Wartodas1,3n3idrbm
"This is a dumb statement, Bloomberg was hurting Joe's chances to win states, not Bernie. He would have just backed Biden and threw money his way if he wanted to see Bernie lose. Which he will do now that he got his beatdown and saw money can't just buy votes(even if that's what Bernie is doing promising free stuff to everyone, but it's not his money it's those that works money) Warren on the other hand is the one who cost Bernie votes. Which is why the DNC might just encourage her to stay in it longer.",decoy777,xwrk8,fjhdmlc,"He spent 500 million to prevent Bernie from getting the nomination.  If Bernie had been able to get any of his policies through, Bloomberg would have lost more than 500 million.  Well worth it for him to protect his pocketbook.",fjguxym,jeremygl09,fv780
Psss most these fires were started by arsonists.,decoy777,xwrk8,fjedjar,How long of a break do they get until next fire season?,fjd5ekg,postedByDan,m3toc
Yeah I do everything I can before progressing main missions. I was super high leveled in Witcher 3 because of this.,decoy777,xwrk8,fjed3ni,"I normally do all the side missions and such, in that given area before I go do story related stuff. Gotta make sure I clear the place out before I move forward.",fjdu3q5,datguyjay88,4dn1asq1
Just need to know when to be with the Bull Gang or Bear Gang.,decoy777,xwrk8,fjc2hr7,"wsb is a mess when it comes to options, never trust them for help. Piling on puts @ 50vix and get massacred outright yesterday",fjc26yq,bighand1,13cni6
"He praises communist dictators and communist Soviet Union and you say he isn't a socialist? Sorry was giving him the benefit of the doubt, but I guess communist would be more appropriate. 

Being a ""democratic"" socialist means nothing more than how you got to power. Normal socialist usually take it by military force. But a democratic socialist is voted into by the people instead.  Either one it's still the same resulting socialism. It's only different in how you got there.",decoy777,xwrk8,fjbn11y,"He isn’t a socialist. For whatever reason, he brands himself as one, but wanting to do what the rest of Western capitalist nations do doesn’t make you a socialist.",fjbmncd,11eagles,javth
"I mean he isn't a Democrat, he's a socialist, so they should have just said to him, hey you can't run in our primary.",decoy777,xwrk8,fjbmb1m,Being distrustful of the DNC is completely reasonable given how they’ve treated him in the past.,fjba743,11eagles,javth
Bernie bros are the most annoying people ever.  I mean bernie isn't even a Democrat why did they even let him run in their primary to begin with? He should be running for the socialist party.,decoy777,xwrk8,fjbm67c,"If I've learned anything from this campaign so far, it's that *anything* that goes against Bernie Sanders is a conspiracy, according to social media.

Moderates supporting moderates? Conspiracy.

A Democrat not voting for Bernie? Conspiracy.

DNC not throwing ALL of the backing to Bernie? Conspiracy.

Media covering Joe Biden's victory? Conspiracy.

Candidates staying in? Conspiracy.

Candidates dropping out? Conspiracy.

It's annoying AF, to say the least.",fjb7bzz,AFlaccoSeagulls,uary7
He's just a mad bernie bro it seems.,decoy777,xwrk8,fjbm0p2,I got the impression Amy and Pete's policies matched up with Biden's.,fjarf2e,PM_tits_Im_Autistic,2jacrsab
"Ok that makes it a bit better. I thought this was costing 1,000 a day for tickets and hotel only.",decoy777,xwrk8,fjblhp8,"This included literally everything. Gas, hotel stay on the way there and back, food, hotel on property, park tickets, water park tickets, souvenirs, tip money, and hidden expenses. The wife and I saved a long time to make it happen. We plan to go again in a few years.

Go to Disney World. You'll have a blast. It's worth it.",fjbl59v,TheKingOfMidgard,3h4xexqq
Who in the right mind would do this?  That's insane.,decoy777,xwrk8,fjbkkx2,"Yup. Went two years ago. 7 days, on property, $7000. Two adults. Two small kids.",fjbcoe9,TheKingOfMidgard,3h4xexqq
"So if $DIS is $150 today.  You buy a put which lets you sell 100 shares in a weeks time at the price of 150.  If it drops over that week to say 140, but you get to sell at 150, you made money because you are selling it for more than it's currently being sold for.  But now say it goes up...well then you lose money because if it's 160 and you are selling at 150 you're out 10 per share.  And there is a WHOLE lot more to it than that over time with the greeks and such and yeah... go check out r/wallstreetbets they will help out.",decoy777,xwrk8,fjbjy95,A contract that allows you to sell 100 shares of a stock at a specific price,fjbgp8k,stamatt45,674sb
"Or dear God no, would a race car driver ever driving a racing sim with a real life version of a track they are about to race on to maybe learn it a little better? Please tell me NO! Why would they want to do that???? Oh the humanity!",decoy777,xwrk8,fj6zvvg,A lot of football players play Madden too.,fj6zcqq,Fumb-Duck,lj31a
And would a NBA player ever play a basketball game? What why in the world they do it for a living O!M!G!!!,decoy777,xwrk8,fj6znpj,A lot of football players play Madden too.,fj6zcqq,Fumb-Duck,lj31a
I think more play to experience what it's like to be evil sadistic crazy people that get to torture people and not worry about going to jail for it.,decoy777,xwrk8,fj6zkno,"> Why would humans play The Sims????

Because I get to imagine what it would be like to have a successful life.",fj6y0ra,IdeaPowered,5llys
