child_body,child_screen_name,child_user_id,child_tweet_id,parent_body,parent_tweet_id,parent_screen_name,parent_user_id
Found the White Knight,Give_It_To_Gore,5ilc32hm,fjcvxoj,“Consider saving this animal while you eat sprinklings of other dead animals.”,fjcht8d,JohnsonCrossroad,36mb52wz
"They aren't sharing pictures to girls at bars of wreckage that is easily available on Google.

Some of you get to get outside",Give_It_To_Gore,5ilc32hm,fjcuvse,My parents saw a car that had gone under a truck last year. No visible bodies but it was clear that there were no survivors and it fucked them up a little. Wreckage can still be graphic.,fjcthxm,studioRaLu,iowyy
No you didn't,Give_It_To_Gore,5ilc32hm,fjcus8b,yes I read the article.,fjcpch8,damisone,4tvg6w4y
Welcome to the USA!,Give_It_To_Gore,5ilc32hm,fjcuosm,"Imagine running a shit hole country with much poverty and suffering with a crumbling economy, and focusing on controlling people's personal affairs",fjbo8og,reality_czech,64k5d
What can Brown do for you?,Give_It_To_Gore,5ilc32hm,fjcum0r,"Now it's ""going brown"".",fjcnufr,juanhuey,4iqcic4q
"I'm so sorry.

You live there .

But why?",Give_It_To_Gore,5ilc32hm,fjcul5z,"Edmond, Oklahoma is where I live and every time I pass the post office when that happened... I feel about shamed. That ""going postal"" originated here and I am embarrassed.",fjcerfn,TheDenaryLady,4ogeqvzg
Why doesn't it consider the mass raping of tens of thousands of children a problem?,Give_It_To_Gore,5ilc32hm,fjcufvp,"As a mostly conservative, raised Catholic (but now atheist) Irish-American, I too am disgusted.

The Church has been clear that just because Catholicism considers homosexual acts to be sinful (which is its own hornet's nest of issues I won't get into), that does not give Catholics the right to treat gays as lesser people.

If Jesus washed the feet of his disciples knowing that they were sinful men, you can be a fucking decent human being to gay people.",fjalba1,QueequegTheater,nqhur
"Scottish American. Can confirm.

If you can't get laid on StPD, quit life or have a serious overhaul.

Eh hem r/redpill",Give_It_To_Gore,5ilc32hm,fjcu80j,All St Patrick's day is in NA is an excuse to wear green and get as drunk as possible.,fjajilw,Grambles89,1562w6
Yet don't vote,Give_It_To_Gore,5ilc32hm,fjctzp1,"not all of them are ""not allowed"" so much as they are choosing not to go essentially in protest. Because young people care about freedom and don't stand for this kind of bullshit.",fjai9t9,GenocideOwl,z9mzq
"Basically Staten island is small town America right next to NYC.

I have 37 years experience in small town America before moving to the East 

Fuck you Spokane",Give_It_To_Gore,5ilc32hm,fjctxn5,"The people of staten island like it this way. They take pride in where they live more than anybody I've ever met. It's a hateful bubble and an echo chamber. Growing up there I remember gossip being relentless and some pockets had the most malicious ""communities"" that were ready to cast you out at the drop of a hat. At least in the areas I grew up in, i'm sure there are outliers.",fjaslgp,Machomarsupial,vo29525
You're a Faggot. Come down to Princeton but say your goodbyes before,Give_It_To_Gore,5ilc32hm,fjcttha,"We need to hand over that entire landfill to New Jersey, so they can join the rest of the garbage.",fjb424c,baghdad_ass_up,h1vea
"Weird. I'm from the Princeton area and find people welcoming, but obviously not the North NJ area you're referring to.

That's just strange to me",Give_It_To_Gore,5ilc32hm,fjctnn4,"I live in an area in NJ that is populated mostly with people from SI and the first thing they will tell you is, ""We're from Staten Island.""  Since my family is from NJ and not SI, we are pretty much shunned by the community.",fjbhe9k,1_Happy_Curmudgeon,yyqo8
"Staten island is a quarantine of sorts, if you will",Give_It_To_Gore,5ilc32hm,fjctej3,"What do mean? Staten Island, homophobia or old people in charge of things?",fjahu55,jasontronic,hb3yv
"Cliff notes

Not the greatest country by a long shot",Give_It_To_Gore,5ilc32hm,fjct3fh,"As an Aussie I struggle to grasp your political system but I love reading about you guys getting behind this Bernie fella.  Ive seen you guys on the world stage over the years and these last few years I’ve been worried, to be frank, and I still am. But, wow, this movement behind Bernie is fucking wonderful to watch. Gives me hope and confidence amongst the madness in my country and abroad. Don’t know if it’s legal but tempted to donate myself. Good luck!",fjcnuto,Happy_Ohm_Experience,1m5yno35
If the young voted we'd never have to deal with agent orange or Moscow Mitch in our lives,Give_It_To_Gore,5ilc32hm,fjct24d,Even just talking to your parents/friends and voting yourself is what we need. Whatever you can do do it and let's win,fjc7qky,Bigbadbuck,cfi02
"Jesus Christ security and safety? Get off your high horse.

It's Cool, but she should also agree for him to not be involved or financially responsible.

BEcAUse feMIniSm wE aRE alL EqUAl?

Wait for it....


Wwwaaiiittt foooorrr iiiittt",Give_It_To_Gore,5ilc32hm,fjcnbr3,"He doesn't get to play the 'poor me' victim card after carrying on a secret affair and having kids elsewhere. Your comfort and security come before his. Period. The added stress is not healthy for the baby or you, especially during labor.

This isn't a revenge issue, this is a security ans safety issue. You, at your most vulnerable, do not need to be near someone you just found out obliterated your trust. You deserve peace during such a critical health and emotional moment.

Anyone that doesn't see that can get gray-rocked as to when you even go into labor. F\* them. After you give birth and feel okay, THEN they can be told your LO is born.

NTA in any way shape or form. His entitled self and family can wait until you are good and ready to be up to visitors. He gets no say.

edit: I wanted to thank the anonymous donor of the silver. Thank you for this honor!",fj9y3fu,C_Alex_author,4bps92g1
