child_body,child_screen_name,child_user_id,child_tweet_id,parent_body,parent_tweet_id,parent_screen_name,parent_user_id
*Mic drop*,heebies,by9x4,fjfkrp5,"How are you this dense? Conversion therapy is almost never initiated by the person getting the therapy. Not only that, but it’s not regulated. You can throw your child in a sexuality conversion camp whenever you so please and they can’t do anything about it. 

Gender conversion therapy isn’t even allowed to occur unless a licensed psychologist confirms that the patient suffers from gender dysphoria and that that it’s a viable treatment. And a parent can’t force their child to undergo the therapy against their will. 

Again, you have no idea what you’re talking about and you’re parroting what other people have told you to think. Please learn to think for yourself.",fjf2jjm,StClevesburg,2blqvjnl
I read this in Napoleon Dynamite's voice lol,heebies,by9x4,fjfipbm,Fucking idiotic and unconstitutional!,fjfgd7j,MiTreasureHunter1,2dve8wtc
You should change your username to IAmIncel,heebies,by9x4,fi40e9q,a hail of bullets lmao,fi3vgwk,IAmGod101,3t9210om
Exsqueeze me?,heebies,by9x4,fi408pl,"Libarals be like ""RACIST""",fi3xy40,MajorChoas,5d5heama
Maybe don't comment stupid shit like this? Just common sense.,heebies,by9x4,fi0tzwb,A bit surprised that you dont usually have tampons or pads with you? Just hygiene,fi0i9xp,toniliene,4ua59f18
"Can you read, idiot?",heebies,by9x4,fi0tp90,Didn’t you prepare for that kind of thing?,fi0im5x,Bruxinth,ylmx3
Okuck,heebies,by9x4,ffy6eto,Ok retard,ffxsug8,DrFateYeet,2cw95s09
Ok cuck,heebies,by9x4,ffxgley,Ok retard,ffx8m0c,DrFateYeet,2cw95s09
"Glad you're ok with it, but I wouldn't be if I were you.",heebies,by9x4,ffx7zro,Lol ok retard,ffx7ijt,DrFateYeet,2cw95s09
"And you are a cuck, and most definitely not shredded",heebies,by9x4,ffx7ggf,"They are COCKS, theyre shredding COCKS. Im a child on the inside",ffwq7ph,DrFateYeet,2cw95s09
"Maybe you should represent atheism accurately? It's not a belief, it's a lack thereof.",heebies,by9x4,ff861sk,"First of all. Who cares if an athlete is an atheist? Does that somehow give more credence to the belief?

Secondly, If you're going to talk about a belief system at least represent it accurately.

Finally, does this sub not bother anyone else? I have no problem with atheism (I lean that way), but the comments in most threads boil down: Religion bad. Me smart. Hehehe.",ff706ar,matthewjc,c7aj6
Yes,heebies,by9x4,ewv9ihk,Am I the only one who does not find george carlin funny?,ewv42i7,naim_the_dream91,16juyy
Are the majority of Reddit users butthurt about stupid clichés?  That sounds like a stupid cliché.,heebies,by9x4,ernnoid,"It's a bit sad & ironic to see that the majority of Reddit users (Millenials) are butthurt about stupid clichés attributed to their generation, yet use every opportunity to spout equally dumb clichés about other generations... Baby Boomers being the favorite target",ernmz7p,Potemking,2haui1ci
"Looks like your trolling attempt isn't getting much attention.  Here, have a downvote.  Don't want you to starve now.",heebies,by9x4,ephnktg,By exposing corrupt Hillary lmao. You snowflakes just can't let it go. Trump won. Is winning. Will continue winning in 2020. Good day kids.,eph8brs,rublestein,10lbks
"You disagree with someone having a sex change, but what about Trump's incestuous comments about his daughter?",heebies,by9x4,eoscfw3,"You disagree with someone doing something because ""God"" told them too, but you agree with someone mutilating their reproductive organs and taking hormones they don't naturally produce before they are fully developed because they ""feel"" like a different gender? Hmmm.",eorkgyi,FlyingTwisted,34imllcm
Your lack of knowledge is astounding.  Come back after you've read up on the issue.,heebies,by9x4,en164q8,"Imagine you have so little problems you think killing your self is the only option. Suicide is only a privilege the West. Don’t go around telling people who don’t have food and water how sad you are you look insane. Don’t tell me I don’t understand mental health. You shouldn’t kill your self, period. If you are you’re a failure and that’s how we should look at things. Suicide is for the weak. Just because you’re sad yourself or know someone who’s dumb enough to do it doesn’t make it any more real of an issue.",en104id,DaddyHugeLeg,17h6l7
