child_body,child_screen_name,child_user_id,child_tweet_id,parent_body,parent_tweet_id,parent_screen_name,parent_user_id
"Not really, though. Unsurprisingly, there's actually statistics about the quality of care. You can go check some of them out.",houndi,a900n,fjgmbny,"Correction: most* times the best specialist is in the United States, sometimes somewhere else. Big difference.",fjgjicc,careofKnives,y97q1
">People have a right to believe what they want. Its good and bad, but it's better than the alternative

Perhaps, but it shouldn't be extended to other people. Your rights end where other people's rights begin.

Seems like your legal system has seriously dropped the ball on this issue, in most of the states at least.",houndi,a900n,fjgg9cv,"Courts and law in general act on laws of the area. Laws in the area are determined by votes of the populace, which are based on their morals and  beliefs, and rarely by hard science. You underestimate the cobtrol of religion especially in the southern states, and how it shapes the governing of the people.  If a judge, senator, and doctors all follow a religion that believes homosexuality is a sin/mental illbess,  it would be hard to change the law.  Its why there are countries where female genital mutilation occurs, or more relevant to the western sphere why even sham medications still exists despite not having hard evidence to support their medical uses.

People have a right to believe what they want. Its good and bad, but it's better than the alternative",fjgf1ja,Smilinturd,rgq4f
"That happens in many places. The best treatment depends on what kind of an issue you have. Sometimes the best specialist is in the States, sometimes somewhere else.

It's pretty stupid to assume only the US has medical tourists coming in for best care, that happens all over the world. US people go abroad for better and cheaper care as well.",houndi,a900n,fjg9gp5,"Actually I was going to point out that we have the best healthcare that money can buy, and that rich foreigners come here to have their lives saved...awkward.",fjfw1os,careofKnives,y97q1
"Yeah, I get that, but I can't believe the courts would be interested in people's absurd believes about hell rather than concrete evidence. I guess I just don't understand your legal system.",houndi,a900n,fjg87vs,"I agree with you. But the people in favour of these thing seem to believe that homosexuality is 'bad' and that it would as such cause more suffering than these 'treatments'. I guess If you believe in Hell and the sorts, it's a pascals wager of a sort, where any suffering on earth is outweighed by eternal damnation. (Again, that's not my view)",fjg63d7,m_y_reich,2mpjwb3
"Sure, that seems like a pretty universal principle. I just don't understand how this issue can be disputed in the first place. There is no medical issue, so obviously there can't be a treatment against a medical issue either. If that worked, every child abuser could use that defense and tell the court they're only beating their kid to cure them from an imaginary illness.",houndi,a900n,fjg0mdh,"Until there’s a dispute about the interpretation, then depending on the legal system laws are added based on the results of the dispute, or the decision serves as a reference for future disputes of comparable cases.
(not a lawyer)",fjg05dy,m_y_reich,2mpjwb3
"But surely homosexuality hasn't been considered a mental illness in a long time over there? Wouldn't that automatically shut down the attempt to defend this practice as a medical procedure? You can't treat something medically that isn't a medical issue un the first place, right? Why would the courts still accept that defense even when it's obviously flawed?

I don't understand your court system that well, but wouldn't the defense have to be somewhat tied to reality to be successful?",houndi,a900n,fjg0dqp,"That way of thinking is true in today's standard and believed by logical people. It can't be said 100 yrs ago.

By law it is allowed to give treatment without consent to children if given by parents. Children are allowed to get/reject treatment if they are mature enough (depends where you live, my area is 16 for all things, 14 for most things). The pretense of it is that severe mental health patients can be treated without their consent even if their adults, and the archaic way of thinking that  homosexuality is a mental illness is the reason it took so long for states to ban this practice",fjfywjc,Smilinturd,rgq4f
"Kidnapping children by force isn't a medical necessity, though. Also, being non-straight isn't a medical condition either. It is not a medical issue by any stretch of imagination.",houndi,a900n,fjfy47l,"The definition in question is regarding the validity of conversion therapy as ""treatment"" and the role of the parents as decision makers regarding treatment decisions.  Jehovah witness patients were allowed to refuse blood given to their children and it was only when the issue was taken to the courts and specific laws and rules were made thday allowed doctors to disregard parents decisions.  Law in general can be a lot more descriptive than you think requiring thousands of previous cases used as precedent law as a way to minimise law making.  Even worse in medical law",fjfxzma,Smilinturd,rgq4f
"My country hasn't made it illegal according to that list, because there is no need to do so. It's already illegal as it's child abuse, which is illegal.

Why would you need to ban every action specifically when there already is a blanket ban on abuse, which fits also this activity?",houndi,a900n,fjfxkuc,"Dark ages? The hyperbole is so ridiculous lol calm down. They are the 20th state to ban it, that means there are 30 states who have not. All it takes is a quick Wikipedia search to see even in Europe very few countries have completely outlawed it. https://en.m.wikipedia.org/wiki/File:Countries_banning_conversion_therapy.svg",fjfgxaf,terp_on_reddit,ydp5m
"You don't define everything exactly, you define in broad terms that include many actions.

You don't have to separately specify that you can't hit a child with a fist, and you can't hit a child with a cane, or with a brown belt or with a red belt etc. You, for example, legislate that you can't hit a child, period, which includes all of the above.

The same goes for mental abuse, such as the conversion therapy. Not to mention those programs also use physical abuse as a method, to my understanding.",houndi,a900n,fjfx4x9,Child abuse has to be defined. With laws.,fjfvafu,catiebug,9ke0k
That's child abuse. That is illegal.,houndi,a900n,fjfkytc,Everything is legal by default unless explicitly banned/prohibited. That's how laws work.,fjfe2ow,MobiusCube,hfri4
">Here's an article on Finlands ""slow"" medical tourism and how the one hospital marketing it, only received 12 patients lmao. 

That article talked about a pilot program in one hospital, aimed at one country. Did you really think that's all the medical tourism there is to the country? How fucking stupid would you have to be to think that?

You do what the word ""pilot"" means, right? Well, apparently not.

>...Which totals 12 people

>It's even more amazing when you consider that 80,000 russians, who have socialized healthcare, travel abroad for medical care and they don't even choose Finland, which has a large land border right next the 3rd most populated city in Europe.

>Rekt. 

I'm sure you have a source for all that. No, wait, you don't, because you were stupid enough to think a one single pilot phase program is the same as a country wide sector of business. Unbelievable.

>The metric used to determine ""happiness"" was created by the likes of Finland and the rest of the Nordics. 

Sure, there's always excuses. This one, like all the rest of your excuses, you pulled straight out of your ass. Unsurprisingly.

Look. I'd love to go on, your stupidity and stubborness to come up with elaborate excuses out of thin air to justify your ignorant false sense of superiority is absolutely hilarious, but I do have better things to do to argue about something every even somewhat educated adult knows already, so bye now. I'm sure your trolling will find another target soon enough.",houndi,a900n,fjcs6nr,"It's always entertaining talking to frauds like you who don't use facts, but rather propaganda to make your point. 

[Here's an article on Finlands ""slow"" medical tourism](https://www.imtj.com/news/growth-medical-tourism-finland-slow/) and how the one hospital marketing it, only received 12 patients lmao. 

>No, people born all over the world, dumbass.

...Which totals 12 people 

It's even more amazing when you consider that 80,000 russians, who have socialized healthcare, travel abroad for medical care and they don't even choose Finland, which has a large land border right next the 3rd most populated city in Europe. 

Rekt. 

>Finland happens to be rated as the happiest country in the world, with the rest of the Nordics right up there behind them.

LOL 

The metric used to determine ""happiness"" was created by the likes of Finland and the rest of the Nordics. 

Anyways, Finland ranks 3rd in the suicide rate among EU countries.  
The highest teen jobless rate in the Nordics. 

Maybe it's so ""happy"" because everyone kills themselves? Having been to Finland more often than I'd like to admit, there is nothing interesting or inspiring about the country itself. 


Here's a wonderful article that shits all over your propaganda. 

https://www.bbc.com/worklife/article/20190924-being-depressed-in-the-worlds-happiest-country",fjcosl1,Ohuma,beume
">Probably cause they were born or live in Finland.

No, people born all over the world, dumbass. Why would a player live on a different continent than the one they play in? With specific injuries they go find the best possible doctor for that specific injury. The richest and best connected clubs have an extensive global list of specialists they go to when needed. 

>50,000 Canadians, a country with socialized healthcare, and not Americans in Canada, travel to the U.S. for medical treatment each year.

And Americans go abroad for medical treatment as well. People form everywhere go all over the world for better or cheaper treatment, Americans included. When you want the best in a specific field, you go where they are. Sometimes in the States, sometimes in Finland, sometimes somewhere else. Top specialists come from all over the world for specific things.

>If you think Finland and Scandinavia are so great, go live there. You'll probably learn quickly why these countries have the highest suicide rates and treated depression in Europe.

I already do, and know for a fact they don't. In fact, Finland happens to be rated as the happiest country in the world, with the rest of the Nordics right up there behind them.

Nothing you've said has made any sense, you're like a living example of all the idiotic ignorant American stereotypes. Go read a book for once, if you can.",houndi,a900n,fjcl29m,"Probably cause they were born or live in Finland. Good call, though lmao 

50,000 Canadians, a country with socialized healthcare, and not Americans in Canada, travel to the U.S. for medical treatment each year.

If you think Finland and Scandinavia are so great, go live there. You'll probably learn quickly why these countries have the highest suicide rates and treated depression in Europe.",fjchzu2,Ohuma,beume
I guess that must be the reason why sometimes even  US sports stars go to places like Finland for medical care. It's not like they have money or care about the quality of care.,houndi,a900n,fjchgex,"Socialized healthcare. Healthcare for all, but not great healthcare for all",fj9o0kw,Ohuma,beume
"That doesn't explain why it was impossible to play the match at all, even with closed doors, with a Milanese club just a few days earlier, yet it's okay to play one with fans around a couple of days later.

I didn't blame it on Juventus, as I don't have all the facts, I just noted that somehow Juventus if the only one benefiting from the decisions.",houndi,a900n,fj9fjwl,">...unless people around Torino are magically unaffected by the virus.

* Milan is in Lombardy and so is considered high risk.
* Turin is in Piedmont and is not considered high risk.

If the situation was reversed, Milan fans would be raging that it is unfair for Milan to host Juventus behind closed doors because Juventus had fans in their home fixture.

It's a shitty situation for all, to try and blame it on Juventus is a bit far fetched.",fj9eu4o,Queeg_500,a3p54
"Absolutely. Where I'm from, you're qualified when you're 18 at or before the election date and a citizen. In municipal elections you're qualified if you're 18 and living in the municipality at the beginning of a year, regardless of your citizenship.

If you qualify, you can just stop by in any one of thousands of the polling stations around the country in the few weeks before the election or go to your designated station, or any of the embassies abroad, on the election day, show your ID (if you don't have one for some reason, you can get one for free for voting) and cast your vote. I've never spent more than a minute or two to get it over with. If you're unable to attend the stations there's mobile stations visiting places like hospitals, retirement homes, prisons, military bases etc. so everyone gets to cast their vote if they wish. 

You can't call yourself a democracy if you're not making it easy for everyone to exercise the right to vote.",houndi,a900n,fj9f21f,"In my country I ""register"" to vote by checking a box when I do my taxes. The fact that you have to ""look up"" how to do that in your country is a massive antidemocratic effort.",fj8tq7u,amiserlyoldphone,50jv2h0f
I thought you guys are constantly bragging about being a free country. How come protesting is supposedly illegal now?,houndi,a900n,fj9ej3s,"That's like saying an ATM isn't the only way to get money out of a bank, because you can always rob it at gunpoint. 

While technically true, most of the population is just fine with the legal, non-violent option.",fj8culn,Zebidee,5xmbl
