child_body,child_screen_name,child_user_id,child_tweet_id,parent_body,parent_tweet_id,parent_screen_name,parent_user_id
"Can confirm, I would 100% cry.",jakethedumbmistake,5nsv246e,fjhsrwj,I would watch a sitcom with those two as roommates.,fjhcji0,tatertotpower,31ihbqsn
For I/O or outboard it’s irrefutable.,jakethedumbmistake,5nsv246e,fjhqfnn,O,fjgvc7a,xfoondom,7inya
Im Fur-ious over how precious this smol is.,jakethedumbmistake,5nsv246e,fjhpr5z,But also learn how to walk?,fjhgr0n,FakeStoryDetectorBot,5sci40ci
LeBron James has got to be altered,jakethedumbmistake,5nsv246e,fjhm1b8,Which is being ruined and altered by us humans : /,fjh57ed,Watermelon_Dog,4jxanm5y
You can tell by the post’s title.,jakethedumbmistake,5nsv246e,fjhkyg6,"Fake, they obviously reversed the video.",fjhb4l8,hixpwarior3,6to1s
"Or, i know this to be true](https://www.imgur.com/a/uyHo5uW)",jakethedumbmistake,5nsv246e,fjhkx7w,Yeah. They say yes. Cus there's only like 7 of us running the entire branch. We like our coworkers... We know what workload they'll be out through if we say no.,fjgnymo,StAliaTheAbomination,112w6z
“What’s a water buffalo!,jakethedumbmistake,5nsv246e,fjhjos6,"That mom water buffalo is like ""God damn it Steve leave the elephant alone!""",fjgxhnv,MysteriousDixieDrive,fkn8v
He should give it back ……,jakethedumbmistake,5nsv246e,fjhjeja,"He doesn't have to travel to awards ceremonies, it's not an integral part of his job.

He could easily reduce his carbon footprint by a more significant measure than most of us.",fjgeyos,Budget-Mode,5epwv9no
I was in the military than civilian life.,jakethedumbmistake,5nsv246e,fjhektr,"It depends. There's a lot of great schools in the U.S.  but there is a lot of shitty ones too.

People like to think of the U.S. as monolithic but it's roughly the sizeo (bigger or smaller?) of Europe in population with just about as much cultural differences.  

And like anywhere, there's a lot of really awesome people and a lot of really shitty people just trying to get by.   The beaurocracy is the same.

and the country is very pretty.",fjh0am5,FlyYouFoolyCooly,1r1nqko7
Old cartoons are the best customers.,jakethedumbmistake,5nsv246e,fjhebff,"I, too, miss watching Xmen and Saturday morning cartoons",fjh8txi,shortsleevedpants,ax1gj
Hugs. If she is a horrible mother.,jakethedumbmistake,5nsv246e,fjhdz4v,That’s silly. For a trend to start someone had to have started it. If this weren’t the case we would all be wearing the same thing we wore a thousand years ago. People follow what society dictates but what society dictates is based on what a majority of people consider the norm; aka the individual has to make their own decisions before a society can even exist,fjh0fri,ebai4556,xn2ud
Any reason why he’s still time,jakethedumbmistake,5nsv246e,fjhdcdn,I still have my fabulous ps1 and ps2,fjgsm9g,ergon2002,3sw25pl5
[Don’t fuck up my money 😍,jakethedumbmistake,5nsv246e,fjhc573,I might be thick in the head but what the fuck is an egg slicer,fjguc0c,Scuffleboard,14rcfagl
Maybe no one will notice,jakethedumbmistake,5nsv246e,fjhbe2q,Well it was about that time that I notice that tattoo artist was about eight stories tall and was a crustacean from the palezoic era.,fjgsu8y,edwardsmith3077,15t9or
And to be fair I’m coming for em,jakethedumbmistake,5nsv246e,fjhaxfp,You know you’ve enough reddit for the day when you see stuff like this,fjha1sv,Sayena08,16ohz3
Yoda **is** a five pound pickle.,jakethedumbmistake,5nsv246e,fjh9dba,Your alternate outfits put a much-needed smile on my face. The meat dress is particularly inspiring.,fjh68ax,lost_the_sauce,3z1y7e42
