child_body,child_screen_name,child_user_id,child_tweet_id,parent_body,parent_tweet_id,parent_screen_name,parent_user_id
"Lol, they'll eat their fuckin faces.",KineticPolarization,15bfxr,fjeyyws,Give em enough bath salts and they can take the crocs,fjeac9o,spartyon15,bfmw4
"I mean, even if it was a rich person on a hill thing, there are often non-rich people living at the bottom of said hills correct? Where is all that mud, rock, and other material going to slide down through? Their homes. This issue has nothing to do with class. It's just a natural disaster (could it be classified as one?) that impacts anyone unlucky enough to be in that area at that time.",KineticPolarization,15bfxr,fjebgmj,Mudslides are more of a rich person's problem since they tend to live in the hills. I don't know how many people live in the hills since Oz is portrayed as a mostly flat scrubby desert land.,fjdx79y,nemo69_1999,pad8x
They're used to gators. Crocs are a bit of a different league aren't they?,KineticPolarization,15bfxr,fjea6xb,Floridians,fje9f08,spartyon15,bfmw4
"I can't understand actual adults that have issues with swearing, as if a potty mouth is any indication of the quality of the person or of what they say. It's understandable for a sub to ban someone for cursing *at* someone in a very confrontational and antagonistic way. But just regular talking that happens to have a curse word shouldn't be against the rules. It's overstepping in my opinion. And it's weird to have adults get so offended by naughty words. Like children would.",KineticPolarization,15bfxr,fje1mu3,"no swearsies the puppers dont like.

*I am a bot, and this action was performed automatically. Please [contact the moderators of this subreddit](/message/compose/?to=/r/rarepuppers) if you have any questions or concerns.*",fjduw79,AutoModerator,6l4z3
Screw just the nickname. Everything about that story was bad ass!,KineticPolarization,15bfxr,fjcqnhs,"There's a guy in one of the sagas whose nickname is ""bottle back"". The story goes that as he was out drinking with his friends, someone tried to assassinate him. Unfortunately they weren't very good and hit the gourd of wine on his back without dealing a deadly blow, hence the namesake being the item that saved him.

Some time later, during the butchering and retrieval of a beached whale (a very messy process) a battle broke out. Bottle back was there and ready. He ran up onto the whale, spotting the man who had attacked him, and ran along the whale towards him wielding the same axe that was wielded against him.

He yelled ""Here's your axe back"" (no joke that's what the saga says) and plunged it into the man's head.

That's a pretty badass nickname to me.",fjcmg84,dexmonic,4ly66
You think whatever you need to in order to make yourself feel better. I'm putting this unproductive interaction out of my mind anyway.,KineticPolarization,15bfxr,fjcozj7,What is it like being so stupid and so arrogant?,fjbfkl8,JoshAllenforMessiah,4obbwf4q
"So would you recommend Bose headphones then? As well as the company in general? I'm looking around for a new pair but there are so many options, and it's sometimes hard to cut through the marketing to the truth of the products and companies.",KineticPolarization,15bfxr,fj927r0,My dog did this to my Bose QCII headphones twice. Bose replaced them free both times no questions asked even after I told them my dog did it. They were still under the 1 year warranty period.,fj7ycxw,phohenadel,10qx8s
Sure bud.,KineticPolarization,15bfxr,fj8ktmi,">Which can be said of all the people claiming they and people they know are thriving.

That's the entire point.

>All you people seem to have a real difficulty with the difference between personal anecdotes and empirical data gathered on an entire society of 300+ million individuals.

No, you missed I was explicitly making this point but you are such a pseudo-intellectual it went right past you so you could lecture people using your very basic understanding.",fj6ycni,JoshAllenforMessiah,4obbwf4q
"I never said to specifically use the word ""trash"" to shame or ridicule dangerous behavior. To call it inconsiderate is a gross understatement. It kills people. And not just the person doing it, so they're imposing on others right to life. That's unacceptable and should be treated as such by society as a whole so as to condition it out of people as much as possible.",KineticPolarization,15bfxr,fj8km2y,"The girl does what thousands of drivers do every day.  I travel a lot and see so many drivers texting while driving, a staggering amount.  It is an incredibly inconsiderate thing to do for sure.  I'm not willing to call them ""trash"" though.  

Calling someone ""trash"" is a kneejerk reaction based on emotion.",fj6gi4s,axisofelvis,4ll9l
Ok bud 👍,KineticPolarization,15bfxr,fj8i662,Sorry but I couldn't care less about what you think I should be spending my time doing.,fj6f2pz,axisofelvis,4ll9l
"OP, please record this and upload to r/KidsAreFuckingStupid",KineticPolarization,15bfxr,fj7ocmq,Hope he doesn’t try that next week. He won’t make it.,fj4m4p0,RealCabber,3ro1tds
"And what makes this a novel virus is that the entire time before you actually show symptoms, you're still contagious. That is the major difference I think between this one and SARS. So people will be going about their days spreading it around, then when they do show symptoms, some will do like you said and not get properly checked and treated. I really hope our society wakes the fuck up from this and begins to actively advance science, technology, and medicine. Instead of always being reactionary. It's so fucking stupid how things never get worked on until *after* tragedy.",KineticPolarization,15bfxr,fj5v8hk,"Well I dont trust china's numbers. With that said, . People may get this, think its the cold or the normal flu, and never get checked. they would never be included in the stats.",fj5mjh3,milehigh73a,iy5kk55
Alright. I still think we should be committed to fighting it and eradicating it. I sure as fuck wish we didn't have Mike Pence in charge of dealing with the virus. The man that doesn't even believe in evolution or damn near anything remotely scientific.,KineticPolarization,15bfxr,fj5ulb4,"Maybe the initial numbers weren’t flawlessly accurate, but at this point they are reporting everything. The whole world is paying attention. Even if the numbers were 10x more than reported initially, the total number of cases would be roughly 800k, nowhere near the millions of people one of these guys said would die here in America.",fj5ir0c,APx_22,4oglhc3k
Lol no worries. I was confused.,KineticPolarization,15bfxr,fj5udgv,No it didn't go to the right person. Sorry.,fj5i2x7,Appaloosa_Slim_Chode,7mqv3
I missed where they were being rude to anyone. Care to elaborate? Cuz I didn't see any rudeness.,KineticPolarization,15bfxr,fj5hrhj,"I've got non-binary friends and they aren't going to get pissy for you saying sir or ma'am. If they don't know you personally, it doesn't matter. You're making up a situation that has never happened to you and probably never will, to make people you don't even know look bad.

You should care about other people, because they are people. You don't have to be rude just because you think it doesn't exist or whatever.",fj5f2sr,mandmrats,xzny0
Can you say with certainty that the numbers China has provided are accurate? Authoritarian governments don't like to appear weak and are notorious for down playing serious issues.,KineticPolarization,15bfxr,fj5gnbt,Because China has at least 1 BILLION more people than the US and they are nowhere near the millions for infections,fj5a9w7,APx_22,4oglhc3k
