child_body,child_screen_name,child_user_id,child_tweet_id,parent_body,parent_tweet_id,parent_screen_name,parent_user_id
"This. Evolutionarily speaking, it is bad for a virus to kill its host, because it is more likely to kill the virus. A high kill rate is a bug, not a feature, of a successful virus.",Mildlygifted,t8rxs,fje8g8s,"Not all viruses have a high rate of mutation and even those that do, like the flu, don’t all of a sudden start becoming drastically more deadly. While it’s not impossible, I feel like some people are just letting their imaginations run wild and panicking beyond what is reasonable.",fje0kex,Alchemista,4phiq
"That’s right! Thanks, that was bothering me.",Mildlygifted,t8rxs,fje5xdn,Parks and Rec! Ton says it after meditating with Chris,fje190v,FartIntoMyButt,17a1rq
"Man, I remember a line like this from some show or movie or something. Can’t think of where. What’s it from?",Mildlygifted,t8rxs,fjdydfb,“These nerds tried to get me to ‘meditate’ instead of going to detention. I showed them. I sat there for the full two hours. Didn’t think of a thing.”,fjd1ufb,jacks_nihilism,wfpqf
I’ve had a couple 4Runners. Definitely leaning towards it as an option,Mildlygifted,t8rxs,fj42ase,Definitely get the 4 runner. Or the Toyota Tacoma if you need a bed. Both will fit all 3 kids. It’s just whether you want the truck bed or third row. They’re effectively the same vehicle.,fj3tc5y,barcifc,13ivv6
Thanks! I’ll check it out,Mildlygifted,t8rxs,fj426wz,"2015+ Ford expedition and Lincoln navigator get decent mpg with the ecoboost V6 engine and are reliable. They have independent front and rear suspension giving good ride and handling for a full size suv. The independent rear suspension also gives it more interior space in the third row and cargo space by lowering the rear frame. They also have a good 4wd system, and are built on a truck chassis that can take the tough roads. Tons of room for a family and there's an extended model called the navigator L/ expedition EL that's similar in size to a suburban",fj41ji5,GoldenBungholio,5p2nvyg3
Excellent idea,Mildlygifted,t8rxs,fj3ivxd,"Haha Perfect. No go take that $45k and buy a used Dodge Charger Hellcat. Fits the family, and takes care of the midlife crises early.",fj3ikoy,creativityisafarce,ne8d9
Love the 4Runner. I’ve had a couple of them in the past.,Mildlygifted,t8rxs,fj3ildw,"Outback is your best Wagon option
4Runner is your best SUV option
All trucks have an Off Road trim, this is a personal choice.  I am a RAM fan myself.",fj3hw2z,Huuk9,11fo4m
Nice. Funny thing—my wife has an Ascent. I hadn’t considered trading with her on days when I have to drive off road.,Mildlygifted,t8rxs,fj3ierr,"Subaru Ascent gets 27MPG, has three rows, solid AWD platform and more ground clearance than a Ram 1500. 

https://pictures.dealer.com/soa/715ea4660a0e09a77430394fc757e2ff.pdf

If you wanted to go truck route I would go for a 6 passenger Ram 1500 v6 (for the MPG), rambox, 4x4, with north edition package which nets you bigger tires, mild lift, and nice color matched front bumper. The Rebel gives more off road chops but loses a seat which I think is handy for families. 

https://www.google.com/amp/s/www.caranddriver.com/news/amp25239700/2019-ram-1500-north-edition/

Both options are well under budget.",fj3hxvj,creativityisafarce,ne8d9
"Any suggestions on make/model for trucks/suvs, then?",Mildlygifted,t8rxs,fj3hn6k,I know how a truck/suv works not really a Subaru wagon tho,fj3hhnz,TheManOfTheRocky,55okzkcf
"Yes, truck or SUV would be ideal, I think. I’m considering smaller AWD wagons for gas mileage, but I don’t think I’d be satisfied with them. I’m currently in an F150 but it’s 2WD and when unloaded that rear wheel traction is terrible.",Mildlygifted,t8rxs,fj3hfhm,Truck or suv Edit: it will be something fun and still have a daily that can carry or pull heavy stuff if you want,fj3gqd1,TheManOfTheRocky,55okzkcf
"That and the lack of decent health insurance. Too expensive to see a doctor, too broke to take the day off.",Mildlygifted,t8rxs,fiyfq85,"And I bet a good majority of them, even the ones that are already feeling sick.. are working because wtf else are they going to do.. take time off and not get paid?

The lack of sick leave in this country is going to accelerate the virus tenfold.",fiy8ac2,Globalist_Nationlist,qcv9y8
That last part of the last sentence sounded like Mitch Hedberg,Mildlygifted,t8rxs,fiycahq,Is it your astrophysicist daughter or do you have a personal astrophysicist with a clever daughter? I mean....thats pretty bad ass to have your own astrophysicist....im always impressed when people know a good mechanic or have a guy for things but Imagine sitting around wondering about population III stars & the epoch of reionization and being like....hey...I should call Dave.,fixbpfj,aronlamerson,5bcfu03r
Not yet. I guess it could happen.,Mildlygifted,t8rxs,ffyea3x,Did they make a claim with his estate in probate court?,ffyd7ih,--RandomInternetGuy,2i1w4fyl
"Cream goes well with sugar, though.",Mildlygifted,t8rxs,faa58fd,"Hey, at least you're probably gonna cream Georgia in the sugar bowl.",fa6qkbf,debaterthatchases,z4wewa8
"I was hoping to see Souls mentioned here. I have to agree with you. It’s (any game in the Souks series) so starkly different from every other game. The environments are memorable and brutal but beautiful. The game makes you work for everything you get, and as soon as you get cocky, it puts you on your ass. I haven’t been lost in a game like that for years",Mildlygifted,t8rxs,f8c5erd,The Souls series.,f8b0kf9,FudgingEgo,y8hvz
"I’d like to see a place that specializes in non-alcoholic versions of popular mixed drinks. I.e., replicated the flavor of things like gin and tonic, mojito, etc. and used a lot of fresh ingredients.

A reasonably good coffee would be nice, too.",Mildlygifted,t8rxs,f84qcpg,"As someone who has never had an interest in drinking, I hope these get more popular.  It's almost impossible to hang out with people without alcohol being involved in some way.  From craft breweries to wine tours to brunch, everything has to have or be about drinking these days. I hate it so much...",f843sps,doctorpanda,607wy
