child_body,child_screen_name,child_user_id,child_tweet_id,parent_body,parent_tweet_id,parent_screen_name,parent_user_id
But all of these people on Reddit just know none of those underprivileged students will see any of that money.  They just know the money is going to people like Donald Trump instead of the students.,Sondermenow,2jd3y01b,fjc4p81,"The Kirk Douglas Scholarship benefits underprivileged students. I think that’s worthwhile.

https://www.stlawu.edu/admissions/kirk-douglas-scholarship",fjaez5m,thats1evildude,17c8i3
It’s a good thing you know more about where his money is going than his estate planners.  He should have asked you first?,Sondermenow,2jd3y01b,fjc4eur,This is wonderful news but I have a feeling that the money will not be going where it should :(,fj9ybst,AnonDooDoo,14879r
This is supposed to be a joke thread.  This couldn’t be more true and on the money!,Sondermenow,2jd3y01b,fj5t92l,The first guy orders a refill and gets accused of reposting.,fj5qbc4,Davis51,64r9x
What would a non-extensive peer review process look like?  My experience has been there is a peer review process or not.  Should peer review claims be peer reviewed?,Sondermenow,2jd3y01b,fj3wp05,"The vast majority of the papers I read in the top journals, like Science, Nature and PNAS, were of high quality and reviewed extensively. However, there are lower-tiered publications that don't have such an extensive peer review.",fj2lvhc,teacher1throwaway,gcj7l
Your experience has been been different than mine.  If you are talking about peer reviewed journals I don’t know what to tell you.,Sondermenow,2jd3y01b,fj2cw66,"I've read hundreds of scientific articles, ranging from publications like the Lancet to more technical publishers like Science and Nature. In fact, while getting my Master's in Biology, we had an entire class devoted to scientific research and writing, where you would look at these specific sections of a paper and determine whether the methods or the procedures were done correctly. I remember one journal article we read, the researcher literally stepped on their property, shot birds down and collected specimens that way. Obviously, the flaw would be that N = 1 if the generalization of the specimen collection was meant to represent an entire area.  Another paper eliminated all alternative hypotheses without testing and providing support for the original hypothesis, which isn't technically wrong, but isn't technically right either. Just goes to show that even though a publication might end up in a reputable journal doesn't mean that they did the experiment correctly.",fj1q337,teacher1throwaway,gcj7l
If someone wanted to mask the flaws of a paper they would just write a magazine article.  Why do you make such statements about scientific papers when you don’t even read them?  How would you know?,Sondermenow,2jd3y01b,fj1gbh3,"That's also the problem. While the abstract is a succinct, summary of what the paper is about, often times it can be used to mask the flaws of a paper. I look at three sections of a paper: the introduction of what it is proposing, the results of their findings and the conclusion of what they were trying to convey. If the results and the conclusion don't make sense, there is probably a huge flaw that they are hiding in their methods section.",fj05td3,teacher1throwaway,gcj7l
He won’t just magically stop with the anger.  The new home will be hell soon enough if he is allowed to be involved in any way.  The grandmother and child services need to be notified in a way that is strong enough to work and that won’t backfire on the OP.,Sondermenow,2jd3y01b,finhifv,"Congratulations. I am happy that you are in a safe place now. The only thing that I would recommend is to speak to child services (if you didnt) and talk about his terrible anger issues. He might love her ow but he will eventually abuse her. They need to know about him before they place the baby in his care. Also maybe mention it to the granma, so she is aware of it.",fimsyer,Anvime,4dhuw9ga
"So, without the quote marks the bottom didn’t show up.  After the edit of adding the quote marks the = and ## did show up.

I was wondering if this could be used in some way if you wanted to add invisible notes to a comment?",Sondermenow,2jd3y01b,fifgwqc,"The above was accomplished by:


Edit

“=“
“##”",fifg4wm,Sondermenow,2jd3y01b
"The above was accomplished by:


Edit

“=“
“##”",Sondermenow,2jd3y01b,fifg4wm,"=
##",fiffydu,Sondermenow,2jd3y01b
"=
##",Sondermenow,2jd3y01b,fiffydu,"Two ways I’m seeing on this thread: using “=“ and using two “#” signs separated by a line. 

How I found out: I went to share comment, text, copy text.",fidnln8,throbbingpens,33fzspie
"I’ve never stated I didn’t know how to use google.  That, you are just making up.  

What I asked you to do is provide evidence for your claims.  That is your burden, not mine.

https://yourlogicalfallacyis.com/burden-of-proof",Sondermenow,2jd3y01b,fi9dn6q,So you are still going with the 'I cant figure out how to google this shit' really? It's a shame you have to plead such ignorance to keep from admitting what a bunch of criminals your people are. But I want you one more time to tell me you couldnt figure out how to find this shit out on your own. And then I'll show you how myself. Brain cells.,fi9bm3q,iamnotarobotokugotme,zvlzv
"I’m not stating there is contrary information.  

I’m asking you to provide evidence for your claims.  Stating “brain cells” is not proving evidence to support any claim.",Sondermenow,2jd3y01b,fi93myh,They're called brain cells. Where did you see contrary information?,fi8pzye,iamnotarobotokugotme,zvlzv
"Do you have any with the evidence to back up what they are saying?  Anyone can have an opinion.  If you can show better evidence than NASA please provide it.  

Keep in mind only peer reviewed evidence can show previous studies should no longer be considered accurate.",Sondermenow,2jd3y01b,fi93djb,you can watch the last one I posted from 2010.. they pick apart some nasa data.. keep in mind who funds nasa and why they may portray things in a specific way..  I did not rewatch some of what I posted just got them out of my history... the 2010 one I watched today though..,fi8om3s,zenxteninc,11xvr4
"I did watch some of this video starting where you suggested.  I didn’t see where they were backing up their claims with evidence.  Just that those talking agreed their wasn’t evidence the suns’ solar flairs were not a big part of climate change.

I thing the evidence points to human activity is what is causing climate changes at an accelerated rate.

“In its Fifth Assessment Report, the Intergovernmental Panel on Climate Change, a group of 1,300 independent scientific experts from countries all over the world under the auspices of the United Nations, concluded there's a more than 95 percent probability that human activities over the past 50 years have warmed our planet.

The industrial activities that our modern civilization depends upon have raised atmospheric carbon dioxide levels from 280 parts per million to 412 parts per million in the last 150 years. The panel also concluded there's a better than 95 percent probability that human-produced greenhouse gases such as carbon dioxide, methane and nitrous oxide have caused much of the observed increase in Earth's temperatures over the past 50 years.”

https://climate.nasa.gov/causes/

“For the first time, researchers have developed a mathematical equation to describe the impact of human activity on the earth, finding people are causing the climate to change 170 times faster than natural forces.”

https://www.theguardian.com/environment/2017/feb/12/humans-causing-climate-to-change-170-times-faster-than-natural-forces",Sondermenow,2jd3y01b,fi8ir63,"https://www.youtube.com/watch?v=gJwayalLpYY

Skip to 32 minutes and 39 minutes in.. pretty crazy this was from 2010..",fi87bfh,zenxteninc,11xvr4
"You have every right to believe what you want.  However, you can’t provide an opinion and reference it as a source.  What you can do is state a YouTube video either convinced you to see something a particular way or states the way you feel in a better way.

But that isn’t evidence.  All I was asking is if you had any evidence that helped support your take.",Sondermenow,2jd3y01b,fi8h2xa,"Yeah but of course their data takes validation etc.. I will live respibly and use resources the best I can but I am not on board with the sky is falling in the next 12 years and we need to vote people in who want to tell you how to live while they fly around in their private jets..  :) 

This is a simple one about the 97%..   https://www.youtube.com/watch?v=ewJ6TI8ccAw",fi7xr4g,zenxteninc,11xvr4
Where are you getting this information?,Sondermenow,2jd3y01b,fi7s063,"Ok you got me. I was wrong. It was three countries. It's been a while since I looked it up. GB, Ukraine, and Russia. You probably still think Trump paid hookers to pee on Obama's bed dont ya? You absolutely cannot make this shit up. ""Oh wait, what's this? It turns out you can. At least Steele admitted under oath that he did any way. Democrats were stupid enough to pay their donors money for a list of dirt on trump that the guy who they bought it from admitted he got most of from cnns website. He said he thought it was fact checked. You really cant make that up. There is youtube video of all this stuff everywhere. EVEN CNN ADMITS IT WAS BULLSHIT for fuck sake. Wow what a bunch of fucking dupes.",fi7rbcd,iamnotarobotokugotme,zvlzv
