child_body,child_screen_name,child_user_id,child_tweet_id,parent_body,parent_tweet_id,parent_screen_name,parent_user_id
"I mean it wasn't exactly viewed as great at the time either, especially compared to the shockingly good Dreamcast launch line up. When it hit NA in October it hadn't exactly improved.

Armored Core 2   
DOA2: Hardcore    
Dynasty Warriors 2   
ESPN International Track and Field  
ESPN X-Games Snowboarding   
Eternal Ring  
Evergrace   
FantaVision   
Gun Griffon Blaze   
Kessen   
Madden NFL 2001  
Midnight Club   
Moto GP   
NHL 2001   
Orphen   
Q-Ball Billiards Master   
Ready 2 Rumble Boxing: Round 2   
Ridge Racer V  
Silent Scope    
Smuggler's Run    
SSX   
Street Fighter EX3  
Summoner  
Swing Away  
Tekken Tag Tournament  
TimeSplitters   
Unreal Tournament  
Wild Wild Racing   
X-Squad  

There are some good games to be sure, but really nothing exceptional for the PS2 outside of AC2, SSX, and Tekken Tag. None of that mattered though because people wanted a cheap DVD player that they also knew would have the new Final Fantasy, Tony Hawk, and Metal Gear Solid in roughly a year and also graphically that was probably the last massive leap on the console side (yes I know the PS3 looks a lot better than the PS2, but comparatively).",Tlingit_Raven,59nyq,fjhmo3a,In all honesty - that looks like a pretty awful lineup thought that might just appear this way as these games aged really badly.,fjgxdui,nostril_extension,179mfour
"Man I'll never understand people liking DS3 over 2. Like yes opinions, no not saying they are wrong, but my brain just doesn't get it at all.
I love DeS, DS1, DS2, and Bloodborne. Hoping From will return to their roots a bit with Elden Ring.",Tlingit_Raven,59nyq,fjglfzl,"DS2 is like the step child of the soulsborne games, the others are so much better.",fjgdskg,ConstantDoubts,1ra6bo5b
">[Casey McDermott:  
Senator, I don't need to tell you that there's been a lot of back and forth over the last week about a conversation that took place between you and Senator Elizabeth Warren of Massachusetts in 2018. She says that you indicated that you did not think a woman could win the presidency. You have strongly denied that. But I want to get at a few questions here that I don't think have been addressed thus far, because this issue of gender and electability has been on the minds of lots of voters. Understanding that it's possible for two people to walk away from the same conversation with vastly different interpretations of what happened,did you talk at all with Senator Warren in that conversation about whether gender would be an obstacle for someone?](https://www.nhpr.org/post/watch-or-listen-2020-candidate-forum-bernie-sanders#stream/0)  

>[Senator Sanders:  
I really don't want to get into what was a private conversation. But to answer your question, let me just say this. It is hard for me to imagine, or anybody, in the year 2020, could not believe that a woman could become president of the United States. And if you check my record, I've been saying that for 30 years. In fact, as I mentioned the other day during the debate, there was a movement that are were well aware of because it took place here in New Hampshire significantly to draft Senator Warren to be president in 2016. You know what? I deferred. I did not announce my candidacy until after Senator Warren indicated she did not want to run. And anybody who looks at 2016, Hillary Clinton won the presidential popular vote by 3 million votes, a few hundred thousand votes in three states, she would have been president today. So you know all that I will say...you know, the media has blown this thing up and I really don't want to get into it anymore other than to say, of course, I believe,always believed, and believe today that a woman can be elected president of the United States. And trust me, if I am not the nominee and a woman is, I will do everything I can to make sure that she is elected.](https://www.nhpr.org/post/watch-or-listen-2020-candidate-forum-bernie-sanders#stream/0)

Which part of that shows what you're claiming?",Tlingit_Raven,59nyq,fjeikr9,"He confirmed he said something like it on NPR after denying he said anything of the sort at the debate.

Seems the only lie was his.",fjdp030,fuddyduddyfidley,4vgdu00z
">And Biden still far outperforms Bernie with black folks in 2020.

[You may want to look at data from this year.](https://www.wsj.com/articles/sanders-running-even-with-biden-among-black-voters-wsj-nbc-news-poll-finds-11582282800)",Tlingit_Raven,59nyq,fjehy8f,"In 2016 he absolutely did. Note that I said ""has had"". Past tense.

And Biden still far outperforms Bernie with black folks in 2020.",fjdp84b,fuddyduddyfidley,4vgdu00z
"> The candidate that has had issues attracting women and minorities

[False](https://www.newsweek.com/bernie-sanders-leads-nationwide-among-black-hispanic-white-voters-poll-1487934) and [false](https://www.wsj.com/articles/sanders-running-even-with-biden-among-black-voters-wsj-nbc-news-poll-finds-11582282800).

This isn't harassment by the way, it's just data you don't like that exists here in reality.",Tlingit_Raven,59nyq,fjehozf,">No one looked at what she was doing as a good-faith criticism of Bernie.

Lots of people did, what are you talking about? There's a reason it made it to the debate stage - people were seriously concerned about this.

The candidate that has had issues attracting women and minorities to his campaign allegedly told his longest-standing ally that a woman can't be President. He then called her a liar.

I cared about it, lots of women cared about it, and it is a big deal.

>Why else would she choose to wait until days before the Iowa caucus to suddenly reveal that Bernie is actually a secret sexist?

Days? You mean *weeks*?",fjdf398,fuddyduddyfidley,4vgdu00z
r/selfawarewolves,Tlingit_Raven,59nyq,fjefb3z,"[Sealioning \(also spelled sea-lioning and sea lioning\) **is a type of trolling or harassment** which consists of pursuing people with persistent requests for evidence or repeated questions, while maintaining a pretense of civility and sincerity.](https://en.wikipedia.org/wiki/Sealioning)

Go. Away.",fjdxg5u,fuddyduddyfidley,4vgdu00z
"[Here's a fun read for you on this, the latest round of bullshit](https://www.factcheck.org/2020/02/anti-sanders-ad-misleads-on-toxic-waste-site/)  


Don't get lost in all the blue text, I assume you're not used to seeing that in things you read. They are links that direct you toward evidence supporting the specific claim being made in case you weren't aware of what a citation looked like.",Tlingit_Raven,59nyq,fjef5qq,">I'm not sure if any candidate has shown more consistent human decency over the course of their political career and agenda than Bernie

Like dumping nuclear waste on a poor latino community without a care?",fjdp8gj,lifeinrednblack,ho743
Should be super easy to grab some example comments then I guess.,Tlingit_Raven,59nyq,fjdyx6e,It’s literally in every single r/politics thread. Every single one of them.,fjdmenh,Dr__Venture,14ygbn
You'd have to go to Oz to see a strawman be constructed so quickly out of nothing.,Tlingit_Raven,59nyq,fjdrb8q,"Cool, so you support the suppression of free speech and suppression of the press. Good to know Bernie supporters are against the First Amendment, just like Trump supporters!",fjdpz51,aneomon,5m38e
"> Hey man, I'm consider why Bernie's been in lock-step with Russia.
> 
> 

No need to consider falsehoods, it's not worth the time.",Tlingit_Raven,59nyq,fjdr6dv,"Hey man, I'm consider why Bernie's been in lock-step with Russia.

Voting against sanctions. Against the Magnitsky Act. Hiding the fact his campaign was getting Russian support for over a month.",fjd8aqx,aneomon,5m38e
"[The Magnitsky Act that the Obama administration, and espcially Hillary Clinton, opposed before it was stapled onto a bill they did support which normalized trade relations with Russia by removing tariffs?](https://foreignpolicy.com/2014/05/15/the-magnitsky-flip-flop/) The Russia and Moldova Jackson-Vanik Repeal and Sergei Magnitsky Rule of Law Accountability Act of 2012?

Or were you referring [Global Magnitsky Human Rights Accountability Act](https://www.congress.gov/bill/114th-congress/senate-bill/284/), which Sanders supported in 2015?

Sorry I don't have time to do this for each erroneous point, life simply isn't full of enough time to correct every random person spouting nonsense and then whining about being shut down for ""posting facts"" when that couldn't be further from the truth. Glad to see you're getting a workout running around this thread trying your best to change reality with the current narrative you're being fed though.",Tlingit_Raven,59nyq,fjdqv89,"Bernie voted against the Magnitsky Act, Russian sanctions, and immigration bills.

Bernie has done a fraction of the work in the Senate that Biden and Warren have done.

The only thing Bernie has consistently done is enable his fanbase to lie, harass, and belittle the other campaigns. Bernie has also condemned the Washington Post for pointing out he was getting Russian assistance.

That's not change. That's Trump.

And I'm getting downvoted posting facts.",fjd54ya,aneomon,5m38e
"> So why is the extreme toxicity a unique problem among Bernie’s base, and no one else’s?

Simple answer: it isn't. I see example of the same degree of toxicity from people who supported Buttigieg, people who support Warren, and people who support Biden. Sure I see it less here, I just see it on Twitter or in their specific supporter subreddits. If you willfully ignore something and then claim it doesn't exist that doesn't change reality.",Tlingit_Raven,59nyq,fjdowi8,"Moral authority, to me, is shown not only by how you act, but how you inspire others to act. So why is the extreme toxicity a unique problem among Bernie’s base, and no one else’s? It’s because he’s the only one who uses the rhetoric of a populist demagogue. And that inspires some real nasty passions. So even if it’s aimed at the right problems, it still brings out the worst in people, and this country doesn’t need 4 more years of populist demagoguery. 

You can quote meaningless campaign slogans all you want, but you undermine the sentiment completely when you follow it up with “His supporters are turning out to support *the only candidate pushing back against the upper class taking advantage of everyone*.” Because it very clearly *is* all about Bernie, and how “only he can fix our problems”. 

The left is waking down a very dangerous path, the same one the right walked down a decade ago. And I always asked myself: if the left ever rallies around a demagogue, will I have the integrity to oppose it - even if it would be beneficial for the policies I support? Or will I throw out my convictions and follow the crowd? So far I am proud to say that my independent streak is holding firm.",fjdb69k,So__Uncivilized,58xpp51a
"He's just one of many bad faith accounts that became far more active in the past few days, totally unsuspiciously.",Tlingit_Raven,59nyq,fjdommu,"This is entirely untrue. For the most part, the sanders base has been incredibly positive and issue oriented. 2 out of 3, where did you get that number?",fjd700b,Krunk4Chris,9x8wd19
"> A ridiculous, strawman argument.

r/selfawarewolves",Tlingit_Raven,59nyq,fjdm9lu,"I love that this is the take Bernie supporters have. A ridiculous, strawman argument.

I expect him to promote decency in his campaign. If he's on a show where the hosts attack the other candidates with insults and slurs, he can tell the hosts to knock it off. His staffers who were also on the show can tell them to knock it off.

Bernie endorsed their show, and their words, by appearing on it.",fjd6cax,aneomon,5m38e
"> only his supporters are engaging in this vile behavior.

Ah, so you just don't spend much time online I suppose. I mean it's clear what you're doing, but I would think people trying to argue in bad faith would work a little harder to not make such laughable statements.",Tlingit_Raven,59nyq,fjdk1po,I think he's doing everything to not bring light to the fact that out of all of the campaigning Democrats only his supporters are engaging in this vile behavior.  Even his surrogates and employees take part in this behavior.,fjdcudy,JayRU09,f7jz8
"FFVII is only 50+ hours if you haven't played a JRPG ever before or are trying to do literally everything to waste time. The main game itself shouldn't take anyone else more than like 35 hours on their first playthrough, maybe 40 if you slowly read everything.",Tlingit_Raven,59nyq,fjddsh5,"It's a third of a trilogy based on a 50-60 hour game which pretty much hits the typical time for a JRPG of the era.

Longer if you do sidequests. Especially if they have Chocobo breeding like the original.",fjd1t7p,The_Brownest_Darkeye,5rgh47m2
