child_body,child_screen_name,child_user_id,child_tweet_id,parent_body,parent_tweet_id,parent_screen_name,parent_user_id
ah i’m sure they will find him.,ZippZappZippty,2dcx8dys,fjhk1ji,"Poor penguin. This made me a lot more sad then it probably should have. I’m having an overly emotional day. Fucking ducks, thank you bro’s!",fjhfwqw,killercunt,90zsq
Maybe we can get in anywhere,ZippZappZippty,2dcx8dys,fjhhp3d,"> Asking for pay doesn't make you entitled

lol, yes it does.  

if i tell you you are only worth 10 an hour, and you ask for more, that means you feel  *entitled* to more pay.  you're going to have a hard time if you're making mistakes this simple lol.


> I myself have called in to work sick many times. I didn't get paid for those days, and that is fair, since I did not work. I provided no value to anyone except myself, and that was worth it for me, since I value myself.

also wrong lol.  by calling in, you got no one else sick, by getting no one else sick, you ensured your employer could make money.  you deserve to be paid when you do not cost your company even more money.  don't worry, i know that the levels of boot polish you consume might have made you miss that, but no need to worry lol.  


>Here is what it would look like if she hired more people to work: 

sounds like a problem with the company your wife is a manager for, and not the concept of sick leave.  

FDR made it pretty clear that no company should exist in america if it can't first take care of their workers.",fjgu8ov,fuhrertrump,wyffi
"Sorry kid, if you are brave enough.",ZippZappZippty,2dcx8dys,fjhgkkr,Holy shit how can you get that from this joke? What a whiteknight.,fjhas6b,Anon9559,505gyh8
1/3 < 1/4,ZippZappZippty,2dcx8dys,fjhf3sv,No joke I have a pic of this dude from like 3 weeks ago,fjheuox,godMerged-Zamasu,3a29k0k9
Like something out of your control,ZippZappZippty,2dcx8dys,fjhdykt,Mine is control + f5,fjgwyk3,Boffie001,fp2u9dk
Only a Sith deals in the high ground,ZippZappZippty,2dcx8dys,fjhdeif,There lived a certain cyborg long ago in a galaxy far far away,fjhcd51,GulianoBanano,42e38f7j
Wait... so it’s over,ZippZappZippty,2dcx8dys,fjhc6jr,"Probably depends on your region, it’s been around for a very long time in California",fjh56rn,LEGO_Joel,n3fjr
“Mom says it’s own .,ZippZappZippty,2dcx8dys,fjhc2er,His giant smile after he says that is one of my all time favorite Holt expressions.,fjgsbb0,Gooftwit,yapvy
He gave the camera a black eye,ZippZappZippty,2dcx8dys,fjhbv07,"Red and black.  Louisville, Not Kentucky.",fjh6y88,CountZero1502,ntlbh
"Why? I don't like is socialism.""",ZippZappZippty,2dcx8dys,fjhb45q,"I feel like I could see this as a meme, something like ""goth/metalhead me irl""",fjgqvpi,hendrix67,dmm0m
That episode honestly scared me. I forgot.,ZippZappZippty,2dcx8dys,fjhaqks,You forgot to pluralize cameras.,fjhahj4,mitchnmurray,13uv5s
>	it’s how you attract wholesome people,ZippZappZippty,2dcx8dys,fjh9lut,This could be you..... groan,fjgubpy,unpopularopinion0,10vwnk
If you think that's a terrible title.,ZippZappZippty,2dcx8dys,fjh920z,"Right, yet if you look at any forum, social gathering or any pub that's what it's full of.  It's not a celebrities fault that they just happen to be in a situation that their opinion is listened to/reported on, they shouldn't muzzle themselves because it angers Derek from Stoke, who no-one gives a shit about.",fjga703,Gullflyinghigh,671nxpa
"“Yeah I’m a fetus, *fetus noises*",ZippZappZippty,2dcx8dys,fjh7il0,But a ween burner is still terrifying,fjgtbor,abcdefkit007,2o52ovmr
Flexing on hoes in the gym. I.G.,ZippZappZippty,2dcx8dys,fjh5dre,"And we dont teach civics like we used to. When I was in kindergarten our teacher had us run a a fake town. I was the banker. Creepy Crawlers were currency but at 5 we learned a lot about how towns run, and in turn government and politics as well as basic economics.

They arent doing shit like that anymore to educate future voters on the complexity of politics and how it impacts us so when they turn 18 they know how to navigate it better.",fjgodqj,MostlyCorrectGuy,4pxcaidd
Your ana did a good job killing,ZippZappZippty,2dcx8dys,fjh5bme,"There is a super charger, damage boost things like super charger, nano and mercy speed up how quickly it locks on",fjh3w8k,Ohhh_Poooo,122cop
