child_body,child_screen_name,child_user_id,child_tweet_id,parent_body,parent_tweet_id,parent_screen_name,parent_user_id
"So that's the next step? If so, I hope they don't do that until after beerflu settles down at the end of the bell curve.",BucDan,tgqfk,fklp597,"Three words:

NEGATIVE


INTEREST


RATES",fklozao,Babybear_Dramabear,3qzk5hul
"Why so? Having 0% rate doesn't really do much for momentum when there's still do much uncertainty and the market's mood still wants to continue down.

When the infection numbers come out, after the quarantine period ends, then a 0% would've made more sense.",BucDan,tgqfk,fklp1kk,"It was obvious we were going 0 on Tuesday..

And it’s better to blow wad early in these cases IMHO",fkloqbz,Jordykins850,2uifna8f
"Semantics for the Aberage Joe. The word I would lean on is ""may"". 

Correct. The 2014 law prevented stores from assisting customers. 

I'm on the side that would prefer not to tread the line in converting an SSE 2.0 homebuild to a semi auto because it can bring legal issues. I would prefer not to be a test case. For your question, correct, since it's common for us modify handguns that are on the roster, it should no different in modifying an on roster bolt action AR pistol. There's actual wording against SSE pistols but not the other on roster pistols. People change parts like the trigger or slide on the approved roster handgun all the time, that's my reasoning.",BucDan,tgqfk,fkhmoxo,">This is what CA DOJ has to say:

>may be considered manufacturing

> It's very much grey area, but enough for me to say, ""you snooze, you lose"".

>Since the law changed, changes to a SSE 2.0 pistol can be considered manufacturing an unsafe gun.

Which law are you talking about?

>[Can](https://www.dictionary.com/browse/can?s=t): to be able to; have the ability, power, or skill to: 

>[May](https://www.dictionary.com/browse/may?s=t): (used to express possibility)

Consider: 1) The CA DOJ has chosen not to charge anyone who has performed the single-shot to semi-auto conversion with the crime of Manufacturing an Assault Weapon. 2) The CA DOJ has said nothing about this other than the statement you cited posted on their website. 3) Thousands of people used this exact part of the law with their Single Shot Exempt pistols that they shoot and legally carry every day. In 2014 a law was passed to prohibit the conversion of a semi-auto to single shot, and thus ending this Single Shot Exemption, but the law does not disallow the single shot to semi-auto conversion, which is the case we find ourselves in here. Amusingly, this **may** mean people who remove their AR's gas tube are committing a crime, but that's not worth discussing here.

>You can build one. You have to do it from a metal 80% lower (not polymer). Get your serial number from the DOJ and you build it as a single shot by doing a fixed mag with a mag blocked to 0. Once you've serialized it and finished that whole process you can block the mag to 10 but it still has to be a fixed mag.

>It doesn't work that way anymore.

It does exactly work that way, though it should be added that the omission of a gas tube in your build will ensure it has no semi-auto function until parts are added during the later conversion.

>And going with the Franklin Armory gun is a better bet as it is a bolt gun that can be modified.

I don't understand this argument. A completed 80% AR pistol is a single shot gun that can be modified. Do you mean 'it's a better bet because the CA DOJ mentions the words ""single shot pistols"" but does not mention the words ""bolt action repeaters""'?",fkhl4rc,problemgrumbling,2j8r186r
"Since the law changed, changes to a SSE 2.0 pistol can be considered manufacturing an unsafe gun. The SSE building scene basically died in 2018.

This is what CA DOJ has to say:

""Aftermarket changes or modifications made to certain single shot pistols (i.e. changing upper receivers, connecting gas tubes) may be considered manufacturing these pistols into assault weapons. See California Penal Code section 30515, subdivision (a)(1), for a list of assault weapon characteristics. The purchaser could be in violation of Penal Code section 30600, prohibiting the manufacture of assault weapons, and Penal Code section 30605(a), prohibiting the possession of unregistered assault weapons.
Alterations of a single shot pistol (i.e. changing upper receivers, connecting gas tubes) may also be considered manufacturing an unsafe handgun. See California Penal Code sections 31900-31910 for the definition of unsafe handguns and 32000(a) for more information on illegal acts involving unsafe handguns.""

It's very much grey area, but enough for me to say, ""you snooze, you lose"". OP basically only has private party transfers from SSE 1.0 owners, or find a LEO who ""bought an AR pistol, didn't like it, then surprisingly sold it to OP"" sinfe LEOs are exempt from handgun roster rules. Can't transfer ANY 80% guns anymore.

The issue isn't the AW status with the old bullet button, the issue is the unsafe handgun status should OP convert from SSE 2.0 status to semi auto with a hellfighter kit per the end of the quoted text.

Op can very much mill a 80%, get a serial number from the CA DOJ, apply it to the gun, but LEGALLY it has to stay as SSE 2.0 pistol else he risks manufacturing unsafe handgun status, per the quote.

Like I said, we all know what the insinuations are, but OP should go in educated with what he chooses to do. And going with the Franklin Armory gun is a better bet as it is a bolt gun that can be modified. It's gray area, but has more standing than  converting an SSE 2.0 gun.",BucDan,tgqfk,fkhgk4b,"How does it not work that way? That meets the unsafe handgun, ghost gun and assault weapon laws.",fkhdpza,Randomguy_2187,5insr2ma
It doesn't work that way anymore.,BucDan,tgqfk,fkhdeox,You can build one. You have to do it from a metal 80% lower (not polymer). Get your serial number from the DOJ and you build it as a single shot by doing a fixed mag with a mag blocked to 0. Once you've serialized it and finished that whole process you can block the mag to 10 but it still has to be a fixed mag.,fkh10z0,Randomguy_2187,5insr2ma
"Wth. That guy posts a sensational tweet, then goes through putting qualifiers that aren't concrete and pure assumptions. That's the definition of cooking the fake news.",BucDan,tgqfk,fkfw9uf,[https://twitter.com/SethAbramson/status/1238216578161926145](https://twitter.com/SethAbramson/status/1238216578161926145),fkfuy66,porscheninja,1hwrc0x
"Dude, WSB is filled with leftist shills now after this sub went big on r/all. No can shut the fuck up about their political leanings instead of posting relevant losses or gains.",BucDan,tgqfk,fkf4rin,"lmao the amount of people in here that are already biased against trump finding the smallest reason to be pissed off. worrying about small shit like being late to a presser is not worth your time, kings.

i fully expect furious downvotes",fkf4gq6,brushmeister,a8nvj
Yes.,BucDan,tgqfk,fkedqch,I'm up on this pump cus I'm retarded. Sell?,fkedgao,egotripping7o,lzrs6
WSB is infested with liberal shills from r/all. They want .gov to tske care of them.,BucDan,tgqfk,fkednmc,"Can we smack the ""if the fed can hand $1.5 trillion to the banks the government has no excuse to not give us M4A, a federal jobs guarantee, UBI, and student debt forgiveness"" types I keep seeing around jfc",fkedgjc,BenHeisenbergPS2,16fzp53
Ban,BucDan,tgqfk,fkc8aep,"Real shit talk.

Anyone know a good place to learn how about hot put options work?

Everyone here is making a killing off them.",fkc8780,Doogra223,kuju0hz
Likely not until next week.,BucDan,tgqfk,fkc6kzu,"Bulls (probably late):

https://www.cnn.com/2020/03/12/investing/ny-fed-trillion-coronavirus/index.html",fkc6ik0,robertcole23,10jxgi
"Word is that people advised him not to, because it would affect the market and hit bonds. But look at that, it impacted it anyway. He's a germaphobe already, should've just shut down all flights from international, period, and not worry about media backlash.",BucDan,tgqfk,fkc6g8h,"Trump is a doof, and has handled this situation terribly, but a small part of me feels kinda bad for him. I mean, shit, in less than a month, SPY has crashed down to July 2017 levels. That’s all the way back to when Trump was in office for 6 months. Almost all the economic growth under his presidency has been reset due to Corona and oil. That’s really gotta fucking sting. I bet he’s so mad right now. I bet he’s crying tbh no cap",fkc626t,SkyBIueDreams,3em2gxkf
I'm dumping eod tomorrow. Chances that 1T pump and rate cuts next week are high.,BucDan,tgqfk,fkc5y88,Anyone else think tmrw blood red then a rebound Monday?,fkc5nkz,Gagex,3fqzthas
Summer time.,BucDan,tgqfk,fkc4zed,"Okay we're all having fun with our puts. But, the real fun will come with the inevitable bounce back. How the fuck do we time this right",fkc4kon,zyzzyva17,9x1kg
"Don't. 

Down the road in the future, you'll be pumping that 10K into the market through spending or blowing it on FDs anyway.",BucDan,tgqfk,fkc42sg,I never knew making $10k could feel bad😞,fkc3odm,Toyake,nlz4n
"Correct, only E used Winchester. Winchester came in around the halfway point of the E model. If OP gets one dated pre 6/2013, he'll be ok as it'll be Corona. I have an E model. Just have to be objective with what you're looking at when buying, that's all.",BucDan,tgqfk,fkbsjzm,"I thought they were the only models using a Winchester, if he doesn't buy an E, he should be safe.....",fkbn8i1,Sinister-D-,mv18i
Just have them take a picture of the serial number portion on the back. It tells you the date manufacturer. I think pre 6/2013 is good to go for E models. Anything after that date is Winchester.,BucDan,tgqfk,fkbse2y,is there a serial number or some other code on the 360 the ebay seller could tell me?,fkbqjc5,splendidEdge,6j7z8
Why not? They work fine as long as they're not winchesters,BucDan,tgqfk,fkbmxgy,Don't buy an E Slim model.,fkbljuu,Sinister-D-,mv18i
"Funny enough, TDA doesn't tell you like RH if you're hitting the day trade limit. SEC won't do anything when they have bigger fish to fry.",BucDan,tgqfk,fk4bfkw,Hmm I went over my day trades yet TDA is still letting me trade.. should be banned from even buying.  SEC gonna fuck me? Lol,fk4bage,RideTheWaveRW,o3a347e
"TDA. Where have you been these past few months? Time and time again, RH has been shitting the bed everytime it counted. People never learn, until they learn it the hard way.",BucDan,tgqfk,fk0u3vd,What’s a good broker with a good mobile app. Fuck Robinhood. I’m mostly pissed cause I promised my wife we’d get our son a badass headstone with my winning from my spy puts this morning but I can’t even fucking sell em. I’m fuming.,fk0tpjm,BakedForskin,3nlegf7f
"Knowing how this market is, it'll probably come down again mid day tomorrow.",BucDan,tgqfk,fjlwdnw,You deserve to get fucked for holding AMD puts when this storm of nonstop good news about them has been coming out for the past few days. Nobody to blame but yourself,fjluacu,SkyBIueDreams,3em2gxkf
"Yeah. If I would've known about the analyst day AMD was going to have, I would've dumped my puts at EoD.",BucDan,tgqfk,fjlo3ee,Do you see this random ass $48.11 at 5:40??,fjlkzxm,Kitty573,pddxb
"Yeah, but even when good numbers released, beerflu overshadowed it.",BucDan,tgqfk,fjllvcf,I remember when this sub would talk about upcoming market events such as the unemployment numbers being released tomorrow.,fjllpuc,Ermahgerd_Rerded,8d9cf
This guy gets it.,BucDan,tgqfk,fjlbyp8,"But cops ask for your driver’s license when you get pulled over, not your ID card.",fjlbgfc,de-la-qrem,3l4gvp46
"Puts at the top, bet on super Tuesday Bernie wins a lot of states.",BucDan,tgqfk,fjd6d8d,I have 350 left how can I yolo it?,fjd6ayd,hottakesandstakes,4z24xshd
"It makes me facepalm. Not sure why I care about a stranger on Reddit losing his money, but Jesus, RH has proven time and time again to be unreliable when it counted yet people ignorantly stay with it, harming themselves. 

It's literally staying in an abusive relationship.",BucDan,tgqfk,fjd2mxs,Oh come on brother. This is just fucking sad. He doesn’t need to be beaten more on his way down...,fjcficu,hitaccount,i8bctd8
"Are you using thinkorswim? Or the online webpage? Mobile TDA? Or mobile ToS/TDA Trader?

TDA has been the most consistent for me.",BucDan,tgqfk,fja378l,"Any platforms that are better than TD? I like the interface, but I'm not a big fan of the performance lately.",fja314c,senditboy,1urgkqx0
Anything mods can do about the hundreds of comments flooding the thread in the first 30 minutes about RH? Some quality control to get past the nonsense would be appreciated. They're almost as bad as first time posters that didn't get wiped by paper trading.,BucDan,tgqfk,fj9vre8,"Due to the influx of new users, I want to reiterate that anyone maliciously attempting to pump, manipulate, or spam the discussion thread with low quality content, false/unverified information, or fake news will be **permanently banned**. Consider this your only warning. Making jokes and trolling is fine, derailing the daily thread with fake news and spam is not.

To all new users: don't believe anything you read on here. Do your own research, no one is going to do it for you.

Also, everyone knows that Robinhood is a terrible broker. Spamming the daily thread with 690 comments about how much Robinhood sucks isn't going to make the problems go away. You get what you pay for, find a real/more expensive broker if you're not okay with these issues. Anyone posting referral links to another broker will be **permanently banned** as well.",fj9vb1q,theycallmeryan,46fhw
"Yes. Both ways, buy and sell. Spending over a $1 to make sure you don't get fucked out of your positions is worth it.",BucDan,tgqfk,fj9v0jh,Aren't there .65 contract fees on TDA?,fj9uvl3,OnlineRespectfulGuy,3hc2j7gd
"Ah, I see thanks for the clarification.",BucDan,tgqfk,fj1ih4p,Err it's not? Only difference from buying in steam is the launcher and the account is tied to the steam account. It's still the same game and server.,fj1aq7y,ArqueleonVeq,1521ic
Pretty much. It's all controlled opposition.,BucDan,tgqfk,fizgr2r,What happened with KIA?  I heard somewhere the mods were all replaced with “approved mods” like what they are going to do to the donald?,fizgipe,Freedom2speech,1110vy40
"Surprise surprise, right? Many more dangerous comments on other subs, yet they run freely. 4 different Bernie subs, and Bernie adverts are appearing, all before Super Tuesday. Coincidence? I don't think so. 

I remember when Reddit was libertarian.",BucDan,tgqfk,fizfyls,"Could be, but the donald had so many members and was the ammo bay for most of the pro trump memes you see on the internet. Most groups have already fallen with left biased mods that simply delete conservative comment. Which is sad because now Reddit has mostly become a left wing echo chamber, which is safe for advertisers and neo marxists but not for free speech.",fizek6z,zamease,g2rsh
Nope. All cool bots are gone.,BucDan,tgqfk,fiyn3zj,can we still get a coat?,fiyjh74,Trump_Always-er,4wgrybr8
Correct. Go read up on this stuff before messing with it.,BucDan,tgqfk,fiyi48m,"I'm very new to this and have a question. I have a put expiring tomorrow 2/28. That means I have until the end of the day to sell the option, not the beginning of the day? Thanks",fiyi1nr,Bluerigg,keimtkf
"When you watch her intro trailer, there was a difference there.",BucDan,tgqfk,fiyct19,"FALSE  
Different Lighting and camera is slightly higher and slightly to the left

if you are using that picture comparison as ""proof""   
then you might as well say that ""boobs are 2 times larger in DoA6""  
since she looks like a C on the left and a B on the right

Nice try troll but try harder next time",fiwm8u7,DiscoJackster,5csqkqe
"At Thursday, might as well bear the whole week man. Too much risk for bulls over the weekend.",BucDan,tgqfk,fixy2mw,Bear till Thursday next week my prediction.,fixxu4n,thehenrylong,crum2x2
Exactly. Bear through next week.,BucDan,tgqfk,fixxohf,Super Tuesday + Corona Virus = Uncertainty,fixxl1f,g4romja,oyb9f
Yep.,BucDan,tgqfk,fixi403,AMD?,fixc5xl,markthemarKing,yxz3j
Buying ammo? Been doing that in bulk since 2008. Lead is cheaper than gold.,BucDan,tgqfk,fixbg7p,so uhhhh who else is using their puts to buy ammo (they're even cheaper than fucking OTM FDs!),fixbc5d,freehouse_throwaway,16l3q6
"Not even. With how fast this shit state Gov't is raising taxes and chasing people away, yeah right. Farming is big in CA, and yet CA is ass fucking them.",BucDan,tgqfk,fiunw6d,Cali economy = US economy,fiun7z1,CleverName4,6sseu
"Not to be a dick, just trying to use any advantage I can get after getting killed these red days that put me far under the magic number.",BucDan,tgqfk,fiuldpd,LMAO,fiukyku,Better_with_toast,6gikw
"I know. Just trying to get the number as what they use to ""protect"" you. Almost at 25k, but this 3 day kill slowed me down. Just trying to take advantage of what I can do, that is all.",BucDan,tgqfk,fiukv6p,TDA doesnt decide day trading limits. If your account is under 25000 then you are limited to 3 per 5 business days,fiukp80,nikofili,11brrg
I'm aware dipshit.,BucDan,tgqfk,fiukr8u,"Holy fuck, NORMIES GET OUT

It's a fucking federal regulation by the SEC",fiukm6j,Better_with_toast,6gikw
"4 per week, or 4 per 5 trading days?",BucDan,tgqfk,fiuklmu,4,fiukk2q,ajdaconman1,tzec7
3pm pacific time. 6pm eastern.,BucDan,tgqfk,fiukjew,"Trump is speaking on beer aids today at 3pm I believe. Power hour is gonna be 🔥🔥🔥

3pacific, 6pm eastern",fiukf78,--IdiotSavant--,5g50y6r6
"And still not making profit from what I recall. They just kept reinvesting, evem if negative. Too big to fail.",BucDan,tgqfk,fiu18cv,"Amazon went 20 years not making a profit, and look at them now...",fitztiu,Kocrachon,a23o4
Wtf. It's your play money. Give her a purse or something and tell her to leave you alone.,BucDan,tgqfk,firzaj4,Ugh my wife wants me to cash out. She saw how up I am. God Damn it. I’m gonna have to put in high stop sell orders so I can retain value in a worst case scenario now.,firz3jt,IS_JOKE_COMRADE,8qquh
Exactly.,BucDan,tgqfk,firyjj7,"When you're down over 90 percent in your options, what's the point of selling anyway?",firyepc,ZeusThunder369,ljrou
Continue playing DOA4 and older. Maybe DOA5 should you need something a bit more modern.,BucDan,tgqfk,fir5xi9,People who still blindly support this franchise live with nostalgic vision. Doa is not doa anymore,fiqviqu,MentorAjani,utfnm
Ammo is better.,BucDan,tgqfk,fiplezb,"One lesson to learn:

The only right way to buy gold is physical. Gold should be seen as an insurance against money printing and collapse of the financial system as we know today.

Allocate only small proportion of your portfolio to gold but remember to own at least some of it.",fipl4ph,wsbyolowsb,47u68tb7
"I believe Disc 1 is the main disc, Disk 2 is treated as DLC. You'll know when you see the data on each disc.",BucDan,tgqfk,fipjftc,How does it do it automatically? Does it only work if your going from the first disc to the next disc? Is there a way to do it backwards if I open Disc 2 of the game but need to load Disc 1?,fiphy3v,sairgem,hptwi
"Which is the dumb part. The music industry is a thorn for things like this. I hope developers and publishers basically include the license price of the music in each game so we'd ""own it"" outright.",BucDan,tgqfk,finr1kx,The problem is not just getting the game to work. It's also getting the appropriate licenses. Specially the music is a challenge.,finpy71,myanimal3z,x7hqe
"Didnt know that about the driver leaks. When weekend coders make a PC emulator for the PS3 on their spare time, but Sony doesn't want to put in the effort. They really are on their high horse.",BucDan,tgqfk,fino8ov,It's very true. It's how ps4pro works with PS4. Also driver leaks of the GPU shows the compatible frequencies with all the older software. This was their best option since they never invested in the solution like Microsoft did.,finlrab,myanimal3z,x7hqe
"If that's true for Sony, big mistake. We've come to a point in time where they can easily brute force old PS1, PS2, PS3 games with a software emulator and use your everyday x86 programming for PS4.",BucDan,tgqfk,finiu2k,"Actually, the reason Sony is in a pickle right now with the ps5 is because of their backwards compatibility solution.  Sony instead of going there software route for bc they chose hardware. This limits them to 40 CU. The ps5 pro will likely have 80 and just shut off half the system when using it.",finb03m,myanimal3z,x7hqe
TDA has been fine. App isn't going gay with no data unlike RH. Just a long ass list of people trying to get orders filled which was expected today.,BucDan,tgqfk,fin4u1a,All brokers are having trouble right now tbf,fin4ij9,Lukakukakukaku,yjf8m1u
"The advantage is hoarding. Hoarding doesn't effect anything. Anyone can build the lowest recoil gun when desired. Storing it means absolutely nothing in this game. Better gear isn't dependant on your storage size, everyone can buy the same gear. Like I said, storage means nothing. Having money means everything in this game. I'm not disagreeing with you, but I am adding the qualifier that it doesn't change play mechanics at all.

No one cares to store 20 sets of good gear, that's hoarding, which is the most inefficient way to play. Everyone usually only stores a handful while dumping the rest for money.",BucDan,tgqfk,filrijk,"> When I think P2W, I think of the mechanics where I have an upper advantage

This is pay to win. You pay money, you get advantage.

Having a larger weapon buffer and therefore better equipment on average is an advantage. Just because its one step removed doesnt make it any less true.",filqg90,Cory123125,cvjj3
"I'd say likely only Tuesday and Wednesday.  Lots of market numbers this week, but the weekend news will kill Monday.",BucDan,tgqfk,filqi5i,Man will there even be 1 green day this week?,filpzir,levon105,6hezs
This 100%. There'd be a communication and attempt to compromise if the love is real.,BucDan,tgqfk,fikpg2i,"How are you gonna deal with, “Take the kids to school today or I’m getting a divorce?”

People who really love each other rarely give ultimatums!",fijutm9,rabaize,1m2x5wxh
"I worked on my hideout, sold everything everytime except for 3 average gear sets for raids. After working the hideout, I'm basically farming rubles every day. Have about 40 million. Of course, doing it alone is hard, in a group is easier as you have people cover you as you do your tasks. My storage is pretty minimal ever since I got myself setup with a bitcoin farm. Millions and millions of rubles later, like 30 million worth of upgrades to the hideout, it's all paying back and I can run whatever gear I want witg no fear of losing them. I basically reached true peak of endgame where I have more money than I need.

If you play the game, I suggest working on the hideout and put no mind in your stash or raid gear especially on the next server wipe.",BucDan,tgqfk,fik67en,"Money is strength in Tarkov, in a game about looting, being able to 100% save the highest value items you loot is an incredible advantage.",fik4tjx,BroodLoli,45j3g2pq
"I admit it is an advantage to hoard should you wish to, but thankfully it doesn't make your character any stronger in anyway.",BucDan,tgqfk,fik4qqj,It is quite literally an advantage that you get by paying more money.,fijqmjs,BroodLoli,45j3g2pq
That sucks. Game has been bad since the boom of popularity due to server issues. It has its down days and better days.,BucDan,tgqfk,fik4blf,The devs don't offer refunds and the game servers are in the worst state they've been for over a year.,fijqo96,BroodLoli,45j3g2pq
"What you hold in your stash doesn't affect what you bring into the raid. When I think P2W, I think of the mechanics where I have an upper advantage when competing with the other players in the raid where I'm talking Black Desert or old ArcheAge mechanics, here; like more HP, more sprint speed, less hunger, all bought by money. 

Just because you can hoard more stuff in your stash, doesn't mean it makes you a stronger character in raid. That's my point. A bigger storage just lets you hoard more useless crap that a basic player can craft weapon boxes to be the more efficient player.",BucDan,tgqfk,fik3li6,"I love that you start by saying no pay to win, then have a long diatribe where you admit, and then proceed to downplay the pay to win it does indeed have.

If people always make excuses it never stops.",fijskh4,Cory123125,cvjj3
"Agreed. But it forces you to be inventory efficient. The healing mechanic puts a lot of new players in a bad position. But it's an RPG, so I respect the effort they're trying to keep it as such and not a looter shooter. Wait until they implement radiation, that will put people in for a spin. 

The servers need to be more stable. Ever since the game blew up in popularity, it seems that they can't keep up. But they're getting there.",BucDan,tgqfk,fijq5b4,"the tetris inventory and the items for healing and stuff just put me off.

those aside, everything else feels excellent",fijp71h,cho929,2kdcceqp
"After playing the maps 100 times, you kinda start remembering your exitd based on familiarity. Customs is probably the only map where it becomes hard because there's like a dozen exits in total. Fsctory and Woods are the easiest to learn, imo.",BucDan,tgqfk,fijpy9x,"to add: I haven't played in, well a good while.  but the MOST frustrating thing about learning the game was figuring out how to leave the dogdamn map.  That is to say, figuring out where YOUR exit is.  They really need to rework that if they haven't already.  So yeah, online maps are basically required.",fijf3t2,PaulTheMerc,er2ry
"You do know that if you focus on your hideout, you can easily farm millions of rubles and then buy any gear you want? It just takes a grind and willingness to focus on tasks and selling looted gear to use on your hideout. The game rewards playtime. Not once did I feel undergear like an MMORPG PvP. A moderate AK74 with BP ammo can take out high gear players easily especially if you get thr jump on them.",BucDan,tgqfk,fije0nq,It's 100% pay to win.,fijdegi,GodsGunman,cr3oq
"You can't control what happens outside the game, unfortunately. The game makers don't endorse such methods either. No different than account selling of MMORPGs. That's why there's no premium currency, it all can be obtained with the 3 in game currencies. Could they flag absurd trading options like a bandage for 15 million? Sure, that's why the game taxes the hell out of you to counter the ebay sellers.

Better gear increases your chances of survival, of course. But it also has negative stats to counter it and ammo that can kill it. Only real game changer is character stat building, but even then, it's a small amount.

It isn't perfect, I agree, but it is as even as you can get it while providing a challenge without giving freebies.",BucDan,tgqfk,fijdmhx,"Sure, no item in the game will make you better, but you can certainly get items that give you a better chance at surviving. The question was about Pay 2 Win mechanics, not actual game sense. If I can pay money to get more storage outright, instead of going into raids and collecting the items and upgrading it manually over time, I'd call that a form of P2W. If I can go on eBay and buy 5 million roubles for $15 and buy whatever the hell I want with it on the Flea Market, then I'd call that a form of P2W. I love this game, but it goes without saying it has many problems. People fan boying over it and not addressing it's issues doesn't help",fijd7lx,o13Dennison13o,74gzg
"More storage doesn't make you better. You can't kill a person faster. It just lets you hoard more. Hackers in every game. High value items don't matter. Play the game just fine without being a try hard sweaty. You don't need high end gear to be successful. Just good at sneaking, and armor piercing BP ammo with a decent gun. You'd shred that player with level 5 armor and helmet with their low recoil meta build if you get a good drop on them. Could walk away with half million rubles worth of gear easily. Of course, that person will just rebuy their gear, and that's ok. 

Now the thermal optic users, yeah it's almost cheating. But those guys usually only run it at night or in a full group. I hope they release thermally insulated clothing to counter it.",BucDan,tgqfk,fijca0l,I'd say the game is slightly pay to win. There's a few different versions of the game that you can buy which give you more loot/storage/etc. There's also plenty of hackers and people selling high value items and currency on eBay for real money,fijbsho,o13Dennison13o,74gzg
"The MOST the P2W goes, Id say is the more expensive game package gives you more storage. That only matters if you're a hoarder as item cases, weapon cases, ammo cases reduce that effect, or lets you hoard more. But you can upgrade the package down the road on the next sale if it's to your liking. That's what I did, bought the cheap game, loved the game, became a hoader, then waited for the next sale to upgrade to the more expensive game. It really doesn't effect the game at all, they won't do more damage to you, or control recoil better or anything like that. That can't be bought, only trained as a stat in game by playing, the recoil control I mean, though only a minute amount. 

I wouldn't say high skill ceiling, but just a learning curve of how the game plays with sprint/aim down sight fatigue, footstep creeping, hunger/hydration, and more effects to make it a greater RPG looter shooter. There's weapon building that effects weapon control and recoil. The game is very meta should you try to build only meta guns. The game is VERY unforgiving to new players that keep dying, I can't stress this part enough. But once you get  the hang of it, you'll be just fine. Because you WILL be in the situation where you're new, with no money, injured player, and your SCAV still has a 15 min cooldown so you're stuck scrounging for a cheap gun and running the map, sneaking around not fully healed just so you can loot. But like I said, once you get the mechanics of it all down, you'll do ok.

But just a tip, don't hoard guns or gear. You'll be tempted to, trust me. Sell them, build your money. It's better to sell them and get money, than let it sit in your inventory as a safe queen, something you'd never take out to a raid because you're scared to lose them on a raid to a player that kills you. If you die as your main PMC, you lose all of the gear you took in, besides what's in your protected gamma/beta case unless you insured your gear and no one loots it by end of match.

EDIT: Keep 3 sets of decent gear and guns to use in raids, sell the rest of the items you loot.",BucDan,tgqfk,fijb52z,A high skill ceiling won't bother me as long as there is literally zero means to influence the game using real world money. I've wanted something for my STALKER itch for awhile so I may check this out. Thanks for the quick response!,fij8lnv,Arinde,quagp
"Yes!

No loot boxes. No pay to win. Expect to get wrecked by seasoned players and lose a lot of in game money because you're always buying new guns. Lots of sweaty players.",BucDan,tgqfk,fij8c8p,"If I liked STALKER, will I like this? Also, does it have any loot boxes and/or pay to win in it?",fij86c6,Arinde,quagp
 Correct. Trump was the only venue that gave Dana White and the UFC a chance when everyone ran away.,BucDan,tgqfk,fib099k,IIRC Trump is a big reason MMA ever got off the ground.,fiawobh,Herbivore4Life,186maevq
 Makes sense.,BucDan,tgqfk,fi964bv,Because we didn’t get them.,fi95sk7,007meow,qyqdk
"Ah, got hacked?",BucDan,tgqfk,fi8zet7,It doesn't matter if I can choose the other login types if my account is on the Facebook one,fi8xbmp,Sebastianyogs,y7m6a
Hey hey hey. You look familiar.,BucDan,tgqfk,fi8om7j,Time spent gaming = time that could be better spent learning a new skill or researching.  Don’t get me wrong I love gaming and know how great it can be for entertainment on the cheap or escapism but at a certain point it crosses the line and eats into your much-needed productivity time.,fi85t65,NorCalAthlete,h0z6u
This is some next level shit right here!!a,BucDan,tgqfk,fi4rwmy,"**Not buying SPCE calls 15 minutes before close be like**

🪐$38.50🌑$40🪐

🚀

\^

\^

\^

\^🌾🌾🌾🌾🌾🏃‍♂️ FUCK!!!!!",fi4ric6,nosalute,175yyb
"No kidding! They killed it last time as well, but they dropped. So WTF.",BucDan,tgqfk,fi4n56x,They went up this time lol,fi4mau3,kayaker4lifee,h20lb
"To be fair, it's public broadcasting. No different anywhere else. If it were a ""premium"" service, then yes it would be a problem.",BucDan,tgqfk,fi3ji98,"Friendly Reminder that the ""Broadcasting Ethics and Program Improvement Organization"" is an NGO roughly equivalent to a moral guardian lobbying group ala ""Focus on the Family."" 

That being said, it's not too surprising, alas. This isn't the first time an anime series is being cancelled on Japanese TV due to pressure.",fi2m80q,md1957,ii1ve
Because Apple will never sell it.,BucDan,tgqfk,fi2hjlw,why not Apple A13?,fi2g7p8,HappyHippoHerbals,lrswg
Have faith in the boomer. He takes his sweet ass time instead of going 0-100 like TSLA and SPCE.,BucDan,tgqfk,fi1dyk0,Hmm... feeling slightly better about 210 July17 MSFT calls. Still not great though.,fi1dspe,Brautigan79,12kr2b
Repeal of Prop 187 double rammed it in.,BucDan,tgqfk,fi1dct7,He needs to save California. Reagan fucked us out here. It’s time to Make California Great Again.,fi1cdix,WJKovax,2m2f9em7
"Problem is, creating the ecosystem around it. Could Samsung create their own console for the console wars? Likely, they have the money for it. Unless they just want to be a PC-based handheld that bumps the shoulders of the Switch so devs don't have to try too hard to recompile the game as the Switch is ARM as well.

Or likely, Samsung will just dominate the phone space and stick to their bread and butter and enhance mobile gaming instead, where the money is at.",BucDan,tgqfk,fi194ow,">Even then ULP Zen isn't enough due to power usage. Gotta go ARM for that  5W performance. I'm hoping AMD restarts their ARM project.  


Not quite AMD but Samsung. I truly cant wait to see what Samsung baking. I have big hopes that sudenly SAmsung will jump from around the corner and will say : Hey, do you like gaming? There is our handheld console, most powerful portable console ever. Its 8cores , 512 NAVi cores and plays 1080p portable gaming!

[https://wccftech.com/samsung-amd-rdna-gpu-2021/](https://wccftech.com/samsung-amd-rdna-gpu-2021/)",fi17z2q,opelit,e6klo
"According to GFLOPS count, apparently the Adreno in the SD845 is faster than the Switch. I know GFLOPS aren't everything, but it is still intriguing how fast Qualcomm is catching up to Nvidia.",BucDan,tgqfk,fi17zcd,"or better yet, just use a Tegra X2.",fi0x10e,ryanmi,6eoth
Even then ULP Zen isn't enough due to power usage. Gotta go ARM for that 5W performance. I'm hoping AMD restarts their ARM project.,BucDan,tgqfk,fi15jns,Nintendo should make a Pro switch with Zen2 or 3,fi0shm9,Twanmallaz,42teiwil
"Ah ok, so find a complete listing that has both games as they originally should, got it.",BucDan,tgqfk,fhzbwux,"Oh both Ultimate and Ultimate 2 are remakes of the first and second game's in the series, and there normally pack together with one box and two discs, but it seems people on eBay are selling each disc sperate https://www.bing.com/images/search?view=detailV2&ccid=sZgTQ8GR&id=D566BA8D6450AB42B5DF3C4C274D366B665F3631&thid=OIP.sZgTQ8GRKmuDseEtNS_-NAAAAA&mediaurl=https%3A%2F%2Fi.ebayimg.com%2Fimages%2Fg%2F3z4AAOSwR69cz8N1%2Fs-l400.jpg&exph=299&expw=400&q=doa+ultimate+box&simid=608007187785778367&selectedindex=35&ajaxhist=0&vt=4&eim=1,2,3,4,6,8,10&sim=11",fhzbbia,ssjasonx,r8g5kx7
"No different than, go to war with china, ask china to sell us steel to make more planes. POTUS has been doing everything right, manufacture at home so no one can hang one over our heads or use it as leverage.",BucDan,tgqfk,fhxd074,"Go to war with China. Kindly ask China to provide medication for the wounded.

If the percentage is correct, then is stupidity on steroids. Made in China steroids.",fhwod3x,Rookie_2,wut7m
"What's the price difference between the two CPUs for you? If so, for you, get the i5.",BucDan,tgqfk,fhwljni,"Looking to have this be my daily driver with a ton of tabs, O365, and soon, more and more with Linux. My main reason for this is to use and develop more in Linux, including potentially sideloading Ubuntu if this doesn't work well with Crostini (not sure yet)
I still don't think that I need the i5. Plus, the ability to use this as a tablet would be pretty useful. Plus, the screen I've heard is quite nice.",fhwks66,atlthunderdan,117v2f
"Yes, the one at Best Buy. I heard the Dell waa brighter as well, but we are all differently sensitive to brightness requirements.",BucDan,tgqfk,fhwj472,Is that the HP x360 ?   My friend had that and got the dell.  He thought the screen was brighter on the Dell.   I didn't get to compare but I've read it is brighter.,fhwirfi,njchris65,ouuvj
"It depends on what your use would be. Anything beyond browsing or basic work with the Play store would be overkill I'd say. I believe the i5 would run warmer with a louder fan than the i3. 

The AMD A6 is an option, but designs with it wouldn't come close to the looks of the intel equipped laptops. The AMD A6 would be between the Pentium and i3 though with better video, I'd say.",BucDan,tgqfk,fhwia70,"Adding on to this, I'm looking at getting the X360 with 8GB RAM especially since I'm wanting this to be my daily driver. The kicker is debating if I want the i5 with the HP 15 or the i3 with the x360.  
I'm seeing 350-425 for these guys, and that too is my range. I was debating about finding one with a better GPU, but it doesn't look like that exists yet. Not for the money at least.",fhwgcy5,atlthunderdan,117v2f
I'm between that laptop and the HP in gold/white,BucDan,tgqfk,fhwectw,"I love my Dell Inspiron 14"" 2 in 1 Chromebook.  It's on sale right now at Best Buy for $349.  It comes with a stylus also.  Screen is awesome.  I know its 4gb with 128gb flash. I havent had any issues with the 4gb.",fhwe6nz,njchris65,ouuvj
Are the i3's passive cooled?,BucDan,tgqfk,fhvf7r0,"You would definitely want the i3. The HP  CB x360 14 launched with the i3 for around $600. Best Buy and Amazon regularly have it on sale, sometimes with add ons. I bought my on release in 2018 and still got it for $450 and with a Google Home mini.",fhvccqf,jkt1954,4ggtdrm
"How does the Celeron perform in Chrome? I was eyeing Pentium at minimum, i3 preferred or the AMD A6.",BucDan,tgqfk,fhuutqi,"I normally recommend the Acer Chromebook 14, but if you have a Costco membership, here's an HP that's on sale for $200. The best part is you can still return it 3 months later if it's not for you.

https://www.costco.com/hp-14%22-chromebook-bundle---intel-celeron---1080p---bonus-sleeve-%2526-wireless-mouse.product.100511326.html",fhute1d,cruisetheblues,m2yg6
"I'm just trying to find it for the mother who likes Android. Doesn't use it much, but needs it for billing, billing that shouldn't be done on an old WinXP laptop anymore. I was shocked, so just looking to get it right and cheap.",BucDan,tgqfk,fhuryld,Id always go used and get a quality machine instead of the garbage ChromeOS offers new in that price range.  Look at a Acer Spin 13 or Lenovo Yoga.,fhunhrs,MrSh0wtime3,xqw5r
link?,BucDan,tgqfk,fhtsoiy,Hp chromebook 15 with 8gb and core i5 is 399 at best buy,fhtqba8,CaptainSquishyCheeks,2juapn1x
"People that blame porn are no different than people who blame guns; no different than people who blame video games; no different than people who blame white people. This blame game puts you down to the level of the politically correct SJW communists of the left. 

We are supposed to be the party of liberty, freedom, and prosperity, which is the MAGA way, which is why I became a conservative, 100% because of President Trump. This puritan stuff of the early 90's isn't it because it shares parallels with the SJW left that want to control, rather than allow freedom and personal responsibility with their social aspects. I prefer not to differentiate between the old social conservatives and the MAGA conservatives, but each time you guys bring something like this up, you're splitting the party over things that shouldn't matter to you in a MAGA America, live and let live as long as you aren't harming anyone. We don't agree with everything, and that's ok, but trying to claim superior morality won't get anyone on our side to fight for a greater comon good.


If Trump is the middle between a Ron Paul/Ross Perot Republican and an Evangelical Mitt Romney Republican, then I'm 100% happy he's our president. 

It is inevitable that Pence is up next, very religious which is cool with me as long he doesn't try to overextend his religious morality onto others as if he were right and the rest of us were wrong.",BucDan,tgqfk,fhsvv9t,">Who cares if porn's one of the biggest reasons our society keeps becoming more and more degenerate and insane and me saying don't watch it does absolutely nothing to prevent that, you do you bros",fhrxupb,srikor,2n0waoa0
Agreed,BucDan,tgqfk,fhmjjas,I liked Whittaker.  Wish he could have been appointed AG.,fhm18wy,PopulistDeplorable,4sk5kag1
Stop using a shit broker. You're willingly wanting to get cucked and fucked over and over again.,BucDan,tgqfk,fhm69y7,Got a message from RH about MSFT early assignment risk due to ex dividend next week. Could you imagine getting fucked by both RH and MSFT when so many tendies were within sight earlier this week?,fhm6164,0z1o2t,51oxncb1
"Don't get greedy. Period. Some people learn the hard way. Your 401k woulx barely get 20% in a year, if you'd take 30% gains every time, you will always come out on top.",BucDan,tgqfk,fhlcf0d,I understand the sentiment but I'm sure theres more that I should be taking into account,fhlc125,sixplaysforadollar,1ml9ud6y
It's common in Asia bro. It's just culture differences from the west. Makes Asia no less than the west.,BucDan,tgqfk,fhiv2w9,Public bath,fhies0g,WuVirus,5irth15y
"It's common in Asia. It's normal there. Just because we don't have it in the west, it doesn't make them any less terrible. Just different cultures and ways my dude.",BucDan,tgqfk,fhiuzm4,What a country.. they have public bath houses. This is such BS.,fhien7h,Time4puff,y7k15
Blatant interference? Proof? The decision was up to the Deputy SecDef and JCoS.,BucDan,tgqfk,fhibtc5,"And this is exactly why this court case is taking place, because of his blatant interference in the process.",fhibmrh,BooneCreek,17gn9b
"Reset every week, especially with beerflu having the potential to drop the market over the weekend. Buy ITM long dated on market open, sell it by friday mid day, rinse and repeat while beerflu is news.",BucDan,tgqfk,fhi3wdt,After this terribly long winded battle with msft I think I’ll take a nice break win or lose. This shit is mentally exhausting. Idk how people hold longer than a day of actually just tanking,fhi3560,Prayaa,4utc9b2g
"Depending on how much he bought and what position, could've been very smart, or very stupid.",BucDan,tgqfk,fhhz6ws,"My friend sold his MSFT calls at a 80% loss
I WILL NEVER SURRENDER
BELIEVE IN THE SATYA",fhhyjqf,RebornBull,4yyer996
