child_body,child_screen_name,child_user_id,child_tweet_id,parent_body,parent_tweet_id,parent_screen_name,parent_user_id
How does Bernie pay for the free healthcare and no student loan debt?,calebdallas,x5ne0,fkmeluh,"Lol what a ridiculous comment...this shit is actually happening under trump, no one else. It’s not a trial run of anything, it’s the incompetence of the current administration on display.",fkmd2di,MenaFWM,bt58p7j
If I get the Travis Scott’s from him...will it be missing all the Nike logos?,calebdallas,x5ne0,fk5zah7,Did you get them from qinmin123?,fk5knb5,_james11,31kt22e0
Calm down says the guy who assaulted his cousin and wants to use her for his scat fetish,calebdallas,x5ne0,fk0j6et,Calm down,fjzgche,Blended_whiskey,5hlijf75
Fake account spreading racism and sexism. Ignore this bitch.,calebdallas,x5ne0,fk0j16i,Go outside,fjzejgz,MonstrousAlabaster,51o78k1u
Yes. We can!,calebdallas,x5ne0,fjxvwan,Can we win this?,fjxvlt4,XanthusVIII,ia1yr8j
Gavin? Where’s Gavin?,calebdallas,x5ne0,fjxv3by,"Damn man, you had to use my name😢",fjx6cp4,Gavin710,3694crhq
Girls give blowjobs. You asked another man what it sounds like? That’s a little stranger if you ask me,calebdallas,x5ne0,fjugdb5,"It does.... But with all the chicks online, why i would watch cocks?",fju2v1j,Krepki,4ugw6ayq
Porn exists.,calebdallas,x5ne0,fjteiu6,"It is said in plural
Cocks

I have just one...

So no, no experience",fjt7l00,Krepki,4ugw6ayq
He left it quite vague. He could have been implying him personally sucking dick or receiving...so I was clarifying.,calebdallas,x5ne0,fjkwdqa,He literally just said he has no experience,fjkw5yk,DFWnation,znd1c
You’ve never had your cock gargled on?,calebdallas,x5ne0,fjkuzkn,"I wonder...
How does gargling cocks sound like?

I have no experience...",fjktns8,Krepki,4ugw6ayq
TheDonald.win is down :(,calebdallas,x5ne0,fjjwvw4,"I'm out, people. No way am I supporting Reddit with ad traffic.  See you on thedonald.win",fjjvkvi,freundwich1,97skr
"Google “tik tok Chinese government”
It’s not hard.",calebdallas,x5ne0,fjitgkh,Proof?,fjilpv9,shameunloaded,4abzntr3
We get it...you don’t like Luka,calebdallas,x5ne0,fjh2s2v,"Yeah Luka forcing brick 3s and Zion pounding us in the paint will be so much FUN 

Edit: Hmmmmm Love farming these easy downvotes from Lukasexuals in this sub",fjh0yl2,mizunash,6jrprm9
So there is no plan on how to pay for it...gotcha,calebdallas,x5ne0,fjfg3lk,Same way we’ve somehow afforded pointless wars?😂😂,fjffhxd,hoejabithicc,370awp98
"What has he destroyed?

(Nothing)",calebdallas,x5ne0,fjf5dsy,"sorry bernie fans TRUMP will destroy him, then finish destroying the country!  the reason clinton lost was BERNIE!  Bernie gave us trump FUCK bernie!",fjf1q61,mxzrxp,8mmb8
Still in production? What are you talking about? And do you seriously not know how collecting things works?,calebdallas,x5ne0,fj43vtf,"But what I’m trying to figure out is how an 8 year old record that’s still in production is rare and if you don’t know that answer, that’s fine. I’m certainly not trying to harass anyone about it but it just doesn’t make sense to me.",fj1gkqx,smithysmithens2112,6gtynmc
One of my professors at my university made us have to come up with 10 jokes about the president so he could pick which was funniest...,calebdallas,x5ne0,fj2wem3,Face it... if you want to save your grades these days you have to add some clever left-leaning curve bullshit here and there to get at least a B.. outside some business and economics professors*,fj2vf8o,datooflessdentist,9ptj4
"I just had a little commie message me that I don’t understand what communism is. LOL
They lurk here obsessively...

Hey odst94!!! Hahahaha",calebdallas,x5ne0,fj1pow1,Now imagine how close we were to these PINKO CUNTS running the country,fj1grt3,Collusion_illusion,1iyp6gl3
"Hahaha the polls?
Here’s a video to remind you of the importance of your [“polls”](https://youtu.be/M3rByJgOYqA)",calebdallas,x5ne0,fj16nb5,"Lol Bernie is destroying the polls even compared to 2016, but the DNC has money interests as well so I honestly can't say that they wouldn't prefer Trump over the guy that threatens their money and power.

I'm confident he'll win, by I'm also confident the gop and trump will do everything they can to keep their power.",fj15ppq,Evenlymade,nri22
If. Haha not even confident that your side can win the presidency after all the outrage y’all claim on a daily basis. Funny stuff.,calebdallas,x5ne0,fj15gyx,Bet you it doesn't matter if he wins if the Democrats win the Senate,fj15bup,Evenlymade,nri22
Hahaha I’ve been reading the same thing since his inauguration. Bet you $100 he wins re-election.,calebdallas,x5ne0,fj128kf,"They have, but they don't have the Hammer. Soon though",fj0omb7,Evenlymade,nri22
I use Hulu and it’s been great so far,calebdallas,x5ne0,fj0rxd3,"So as someone looking to cancel my cable provider, who should I go with, Hulu? Not feeling $55 a month when almost all the competitors are way cheaper",fiynt19,2slimey,20oglweh
"He’s still your president. He’s still in office. Mueller found nothing and hasn’t been mentioned at all by liberals since they were so sure they got him this time! They even tattoo’d the guys face on their back like he was a hero...yet he found nothing. Impeachment didn’t go any further than the house which was expected by liberals. Lol

Just like the kavanaugh shit...y’all keep looking stupid.",calebdallas,x5ne0,fj0oy1k,"Hmmm, impeachment comes to mind. Had to change his residency to Florida, the Muller probe. It's one thing to say that he hasn't been convicted of anything because he's got the entire GOP to run interference.",fj0osft,BadMuthaFunka,11apn7
Swingman is a great cheaper option,calebdallas,x5ne0,fj0m9rk,New to NBA apparel - what's the difference between the Swingman and Authentic jersey? Material quality or something?,fj0kv4t,James-Wing,dulxm
Haven’t nailed him with anything yet lol,calebdallas,x5ne0,fj0m60q,"In 2-3 months the coronavirus scare is going to fizzle out, Trump will brag about how great he is and Democrats will find something to nail him with.  That’s been the entire administration.",fj0lnnt,Justin_T_Credible,mwqpc
That would be one extremely odd and disturbing joke....,calebdallas,x5ne0,fj0m00j,Could this possibly have been a joke? I know nothing of the guy so excuse my ignorance is he’s known for being a creep.,fj0bpo9,timmyjd96,u0oe4
I don’t skip it like I do past life on currents but it’s getting played less than glimmer at the moment. I’m gonna listen to the slow rush a million more times so I’m sure I’ll eventually fall in love with it.,calebdallas,x5ne0,fizn1q4,Not a fan of Instant Destiny? Feel like it’s such a hit or miss track haha.,fizmlt2,MBatista137,n6nnhp9
u 2!,calebdallas,x5ne0,fizl9jm,Get fucked,fizks4l,aboveyouisinfinity,bjupj
I can’t find any links confirming that we bombed Syria or Yemen today...heck even the past month,calebdallas,x5ne0,fix9zkd,Did the truth hurt your ears? As we speak we are bombing innocent people in Syria and Yemen,fix6wob,Thesungod1969,194nwv3q
Mine came up as a notification. I wonder if there’s a way we could search it. I’ll google.,calebdallas,x5ne0,fiu39p5,How do you check(i have spotify too),fitz34t,jacinto_32,170liq
Whoops...I fixed it ☺️,calebdallas,x5ne0,fisj0mf,its my reddit bday but thank you!,fisixaa,Ioannnou,oofebzf
Good question! Gonna be interesting to watch.,calebdallas,x5ne0,fis6n5z,But with his player option does he opt in or opt out and get a bigger contract?,fir218u,Senjoi,cofaa
What was it?,calebdallas,x5ne0,fiqhze5,Did anyone see the half time entertainment???? What was up with that....,fipprxh,dirksdick,1p4od1cx
Yet you call the boys in blue when you’re in need of help.,calebdallas,x5ne0,fiqhap2,Only boy in blue who deserve respect,fipwdk5,Mysteriagant,xbpm1vg
This should be at the top.,calebdallas,x5ne0,finxawn,"Sanders's three homes:

Sanders's VT Lakehouse

>The use of the word camp is a Vermont colloquialism. In other parts of the country, Sanders' vacation home would be called a cabin or just a summer home. Its purchase price — $575,000 when he and his wife bought it in 2016 — suggests it's not exactly a rough and rustic shack in the wilderness. - [WashPo](https://www.nytimes.com/aponline/2020/02/20/us/politics/ap-us-election-2020-sanders-houses.html)

Sanders's DC home

>The 1890 rowhouse cost Sanders $489,000, and it is located only three blocks from the capital. It has appreciated to a value of $562,500 in 2019. - [Propy](https://propy.com/blog/bernie-sanders-real-estate/)

Sanders's Burlington Home

>Sanders and his wife Jane purchased this modest four-bedroom, three-bathroom family home for $405,000 in 2009. The two-story property was built in 1981 and remains the couple’s main address. - [NY Post](https://nypost.com/2020/02/21/the-million-dollar-property-listings-of-bernie-sanders-and-mike-bloomberg/)

BTW, a US Senator's salary is $174,000.",fintbna,TheNaughtyMonkey,8ttz0
His own campaign crew got caught threatening to burn cities down and throw people in gulags.,calebdallas,x5ne0,fima5hf,[Shirtless Bernie in Russia...](https://v.redd.it/fsum0yb189d21),fikilgy,Cayotic_Prophet,n43vt
Eh don’t sweat it. You do you. You’re jamming to a killer album and having a good time.,calebdallas,x5ne0,fil41u9,"I know, I really do need to buy a better one. The Crowley was a gift from my parents when I got into collecting records. 
I'm aware it's pretty shit though.",fikzi2k,SunnyKyong,114a33
He’s supposedly helping Bernie now. Lol,calebdallas,x5ne0,fijgqfb,Putin 2020,fijg83x,Chisinf,heog2
No need to hide it. Trump 2020...and it’s not gonna be close.,calebdallas,x5ne0,fijfn8r,>!TRUMP 2020!<,fijdgr3,BigBazar,16zgq7
"That’s not a tradition...
Don’t be a sore loser ;)",calebdallas,x5ne0,fibz6fw,The Electoral College.,fiby1eo,Stylin_N_Profilin1,o78k5mv
"That’s not a tradition...
Don’t be a sore loser ;)",calebdallas,x5ne0,fibz2wb,Electoral college,fibyzgg,ArickBaughts,14xnzs
Gotta say...those “joke” tweets weren’t too funny but I let it slide...but the amount of underage jokes he made is borderline bizarre.,calebdallas,x5ne0,fibcxpa,"To be fair, Gunn himself ain't much better. They're both gross, really, really weird men.",fiaq38m,Rock_and_rolling,3271nxva
RICH,calebdallas,x5ne0,fi2xbzo,# **SETH**,fi2w8jp,yelloWhit,8wyer
It was in my notifications that you posted requesting a link...then when I opened it...it was deleted. Don’t be mad dude. It’s ok! None of this truly matters...right?,calebdallas,x5ne0,fhxyzjo,"I never asked for a source. I don’t give a fuck what she did. I already knew. So you are dick riding me because you confused me for someone else you were talking too. Cool. 

Send that link to luka, not me.",fhxybav,theaaronromano,wm9hi
"She drugged men and had her tranny friends rape them while she robbed them. 

She also called off a show just before it started and live streamed herself shitting to confirm why she cancelled. Tweeted about wondering what urine tastes like.

She’s pretty fucked.




You asked for a source and then deleted it (cause you found it yourself) but I’ll post a link regardless

https://www.hotnewhiphop.com/cardi-b-jokes-about-drugging-and-hooking-men-up-with-trannies-in-resurfaced-video-news.75656.html",calebdallas,x5ne0,fhxblvu,"What’s the deal with people coming at me for saying I’m a fan of cardi b. 

Luka says he is a fan and that’s ok. Like 4 other people in this thread said it and thats cool too. I say it, and people start jumping on my dick. 

They must be tomi lahren fans.",fhwz51j,theaaronromano,wm9hi
"[Snopes: The Obama administration, not the Trump administration, built the cages that hold many immigrant children at the U.S.-Mexico border.](https://www.snopes.com/fact-check/obama-build-cages-immigrants/)",calebdallas,x5ne0,fhvvi3i,"I think it takes a special kind of disgusting person to try to justify concentration camps 3 seperate ways.

1) your claim of ""soccer TV's and video games"" flies in the face of testimonial accounts of American citizens who have been forced into these camps as the result of simple bureaucratic errors. 

https://www.google.com/amp/s/www.washingtonpost.com/nation/2019/07/23/francisco-erwin-galicia-ice-cpb-us-citizen-detained-texas/%3foutputType=amp

2) newsflash, someone else doing concentration camps doesn't make doesn't make them right. 

But, I'd like to point some things about this common defence of the camps out, due to a lack of information, we don't really know the difference in how the camps operated under Trump and under Obama. The few things we do know is under Obama the camps processed fewer people. Quicker. Which seems to be a step away from the gross negligence it has seen under the trump administration. Along side his zero tolerance separation policy.

However if they were truly as horrible under Obama, then Obama and everyone in that chain of command, deserves to be shamed for the rest of their life. 

The only problem is that we don't have that proof that it was anything like that under his administration. And the appoligists for the concentration camps use that lack of information as proof that they are the same.

3) being raised in America I was taught there are certain inalienable rights such as life liberty and the pursuit of happiness. The idea that we deprive these people of their most basic rights. For crossing a border... Often in a way that they are legaly allowed (such as seaking assylum which doesn't require ""allowed port of entry"" or ""stopping at the first safe country"" as many falsely claim.) These people deserve fair trials. And the freedoms afforded to any human being. 

And they are not because of a gross misunderstanding of criminal justice and massive amounts of cruelty.

Cruelty you are now defending.",fhvmr26,itsalwaysfork,bt1v1
"They have food, a place to stay and medical assistance. They also have soccer, TVs and video games. Obama’s administration didn’t get pinned for the exact same thing happening. They even said how nice it was on the news back in 2012. You only care now cause you don’t like the president. They are here illegally. How are they supposed to handle it?",calebdallas,x5ne0,fhv32zl,"[https://www.theatlantic.com/ideas/archive/2019/07/border-facilities/593239/](https://www.theatlantic.com/ideas/archive/2019/07/border-facilities/593239/)

When there are literately concentration camps at the border, yeah.... orange man bad, no matter how ridiculous you try to make it sound",fhuvdio,itsalwaysfork,bt1v1
Which ends the discussion. Batfleck killed. Justified or not...he chose to kill.,calebdallas,x5ne0,fhnydkn,"Dude we've been over this, it wasn't just Keaton who intentionally killed.

Kilmer killed henchman and Two-Face.

Christian Bale caused the death of multiple people in the League of Shadows people.  Made it a point about not saving Rhas Al Ghul in the train leaving him to die.  Tackling Harvey Dent in TDK causing him to die.  And killing Talias driver in TDKR with The Bat (killing him with a gun which is ironic).  Even if we ignore KGBeast Batman still kills multiple people using the Batmobile chase sequence.",fhmnjt1,DarthMurdok,794kt
Bingo.,calebdallas,x5ne0,fhniolk,Flip the S&A categories and you got mine,fhmbqgl,omnicientanomoly,dx7tcod
Past life is my least favorite. The only skippable track on Currents. Still a decent song though!,calebdallas,x5ne0,fhngcxk,Same dude. I revisited Currents today and full of bangers. Was never a fan of Past Life at the time but have listened to it a couple times today.,fhn9v83,rds060184,1kfxagco
"Yep. Also best track on the album, imo. What an album.",calebdallas,x5ne0,fhnfscf,That's On Track,fhmj7j8,CynicalSkeptic__,ga3sl07
Didn’t he throw a crate box at a guy smashing his head into a wall?,calebdallas,x5ne0,fhl829a,"That was meant to be Batman at his absolute worst. In the Warehouse scene Batman doesn’t try to kill anyone. You can even see as the AA gun is shooting at Batman in his jet, he fires at the front of the truck which ignites it and the subsequent trucks. If you don’t believe me, rewatch the scene at .25 speed on YouTube. You can see how Batman stops firing immediately after the truck blows up, which to me indicates that wasn’t his intention (to blow up the truck, rather to stop the mounted gun from shooting him down). The grenade guy? Batfleck just knocked a dude into him which made him let go of the grenade. He throws the crate at the one guy who smashes into the wall, likely causing TBI followed by KGBeast who killed himself by threatening to burn Martha alive. Had he surrendered, Batman would’ve probably just tied him up like he did the criminal in the beginning he had branded.",fhl1kt6,angrygnome18d,g5ukb
Agreed.,calebdallas,x5ne0,fhf07e4,this was cringe.,fha7klk,RoughoutGoods,4xdl26fh
"Believe me, I can.",calebdallas,x5ne0,fhcyggq,“Breathe Deeper” is the dance disco one,fhcq6t5,Mooch_89,4eci7wxd
It’s incredible. I can’t stop listening to On Track.,calebdallas,x5ne0,fh9y2ng,On 5th playthrough. This is actually some of the best shit I have ever heard.,fh9w805,A_Buh_Nah_Nah,zj4ez
Yes!!!!! It’d fit perfectly,calebdallas,x5ne0,fh9wnea,"After ""On Track""",fh9qwdp,PeacefulPlayer20,12faylh1
Have you seen the rallies? Lol,calebdallas,x5ne0,fh9sptw,"Re-elected? By who? The 5,000 supporters he has left?",fh9rjrd,driverofcar,15a5wh
"Same here.
It’s so groovy now.",calebdallas,x5ne0,fh6txug,"tbh i didnt even like the first version, but now im loving it",fh5xlih,exxarxis,1fuxx5
Haha yes it is.,calebdallas,x5ne0,fgyt1ur,"Isn't he that kid who got paid to give up his first spot in the iphone line by the lady who was going to buy out the whole lot only to find out that there was a 1per customer limit

https://www.youtube.com/watch?v=FqUKEhyvFaM",fgydi3r,6chan,8ybqb
Seems like something Alefantis might have utilized...,calebdallas,x5ne0,fgyix20,"Fucking contemporary art. And there’s your money laundering vehicle right there. Slap some paint on a canvas, parade around some eccentric weirdo as the artist, have a silent auction and watch as you make millions appear clean",fgx3z89,thisaintkyle,1dabuk7m
The dude looks like a mentally challenged Alex Smith.,calebdallas,x5ne0,fgygl4f,"Travis Sarandos looks exactly how you’d expect - full of soy, low on testosterone. That hairline is awesome",fgx12sm,Mass_Deporter,40ystfkp
"they love to live in fear...

everything they dont agree with is hitler...or i guess...saddam now...LOL",calebdallas,x5ne0,fgv9q3c,"omg maybe they both drank breast milk as children? who knows how similar they are, right? scary, yup real scary stuff.",fgv7cpc,Ban_this_nazi_mods,mlq0c
agreed. was not a fan of the first mix but this one is a huge upgrade!,calebdallas,x5ne0,fgv71lo,"Digging the new Borderline, so much more funky and groovy.",fgv6vvi,Fallout4TheWin,rmy8v
Didn’t Pete just beat Bernie in Iowa?,calebdallas,x5ne0,fgp0043,"I’m not sure why you had to phrase it like that but, yes it’s 2020 and I’m talking about Trump. Do you smell burnt toast?",fgozocs,crainur,xgq0d
Trump 2020.,calebdallas,x5ne0,fgo4z2n,Fuck me this is bullshit and everyone is just cool with it,fgo4su3,crainur,xgq0d
It was so cringe on her part.,calebdallas,x5ne0,fgmqjvu,"One of the pettiest and most powerless things I've ever seen anybody do. 

&#x200B;

That's all she's got? How brave lmao.",fgm9en7,ColonelNugget,1wfu4h8h
Very true! Have a good day. :),calebdallas,x5ne0,fgh65q5,"Yes of course, polar opposites.  And yet we can have a nice discussion.  Cheers.",fgh643q,RedRose_Belmont,3mf8im17
Maybe to you.,calebdallas,x5ne0,fggxlxo,"Yes, of course.  It’s kinda like a ‘the operation was a success but the patient died’  type situation",fggxaqe,RedRose_Belmont,3mf8im17
But won the electoral and is President of the United States.,calebdallas,x5ne0,fggwb4o,He actually lost the popular vote.,fggl1c4,RedRose_Belmont,3mf8im17
Didn’t he win in 2016?,calebdallas,x5ne0,fgghgxl,"62 ads with Trump dead last by ratings, Michael Bloomberg 60th.

Trump got 136.6k YouTube views; Bloomberg got 4.3M.

So maybe Bloomberg got his money’s worth, and Trump, well, he was spending other people’s money. But he’s still a loser.",fggf3dj,Deathbyhours,10lwas
They look either mentally challenged or like hardcore drug addicts.,calebdallas,x5ne0,fgbmmk6,the antifa mugshot compilations are GOLDEN,fg81m90,Islamic-Shrek,4ezv6lxf
100% agree coming from a huge Tame Impala addict. Pond is the best performance I've seen. When they played Don't Look at the Sun......still gives me goosebumps thinking bout it.,calebdallas,x5ne0,fgbmcas,I could feel comfortable putting pond above kgatlw and tame for best live performance,fg88iwk,Aboves,ikkf1
hahaha thank you for posting this. Made my weekend.,calebdallas,x5ne0,fgblr1d,Sauce https://youtu.be/t1TgpicJfpc,fg8livb,thatsjustwong,10ctxpxv
That movie sucked. Didn’t matter who was casted for the parts.,calebdallas,x5ne0,ffhemmz,"Can't say this makes me excited for the film. So far nothing has.

Perhaps I'm just salty about last time. I enjoyed the 2016 film and the kicking it got was uncalled for. How come having kids as the main characters (like its some Saturday morning spinoff cartoon) is more acceptable than it being all female?",ffhdbey,aukondk,4y1tf
I agree! It was a steal for what we gave up.,calebdallas,x5ne0,ffhcu3j,i think he will be solid,ffhcsw6,passfirstplayer,54roh4pv
The first couple weeks were ridiculous. People were calling for his head daily.,calebdallas,x5ne0,ffgwcyk,"Who is saying that? Maybe I don't frequent this sub a bunch, but it seems pretty pro-Rick IMO.",ffgjb6a,chanaandeler_bong,1750zd
Either that or a nazi...as they continue to silence anyone who goes against their false narratives.,calebdallas,x5ne0,fffx56z,That's what happens when you are winning an argument with a liberal. Surprised they didn't call you racist.,fffwpli,d0ugh0ck,z4lo9sg
"Clinton was on the Lolita express several times, traveled to his pedo island, has a painting in a dress and heels in his townhome and Epsteins lawyer said that Epstein helped start the Clinton Global Initiative. 

https://www.nationalreview.com/news/jeffrey-epstein-lawyer-claimed-alleged-pedophile-helped-devise-clinton-global-initiative/

https://nypost.com/2019/08/14/epstein-had-bizarre-painting-of-bill-clinton-in-dress-heels-in-townhouse/?utm_source=twitter_sitebuttons&utm_medium=site%20buttons&utm_campaign=site%20buttons

Here’s [Bill Clinton on the Lolita Express](http://nymag.com/intelligencer/2020/01/photos-bill-clinton-jeffrey-epstein-plane.html)

[One of Epstein’s sex slaves said he was at the pedo island.](https://pagesix.com/2015/01/24/sex-slave-claims-bill-clinton-visited-epsteins-orgy-island/)",calebdallas,x5ne0,fffu142,Yeah I remember when Bill Clinton said he and Epstein had the same taste in women.  Oh wait...,ffft69x,famousevan,14ycn4
I can only handle water after a workout...and yes...I drank a ton of Gatorade last week when I had the flu,calebdallas,x5ne0,fffrex5,"Do people actually drink sugary sports drinks after working out....or is everyone like me, and pretty much only drinks them when they are sick or hungover",fffrb36,Ron_Fuckin_Swanson,1uzi4iuw
Knicks fans would know all about that.,calebdallas,x5ne0,ffebsyk,Double penetration? Y’all some weirdos,ffe13b4,HouseKnicks,50cl9px3
TDS in a nutshell,calebdallas,x5ne0,ffe57ej,"Hi, crazy people.

Just checking in to see how you people are dealing with impeachment.

Looks like you're taking the low road.

We'll see no evidence that proves his innocence, but we'll also not remove him. Even though he admits to a lot of his crimes, and brags about obstructing justice. Like he did again, recently.

It's pretty amazing how you sheep keep the flock so unified through blatant ignorance.


A trial is being conducted and the evidence is being withheld.

But Schiff is obviously the idiot, here.


#B I G  Y I K E S",ffdneyx,RectalSpawn,e2eqh1c
Damn. Poor kid.,calebdallas,x5ne0,fephr8i,[She don't close doors in her house](https://www.youtube.com/watch?v=Ml79j4zNVcE),feph34p,BubbaRay88,4e52g
Holy shit.,calebdallas,x5ne0,feizb73,"Luka 22 pts | 15 rebs | 17 asts LMFAOOOOO

Luka ""Shaq"" Doncic",feiz9cc,hitchhiker87,10osao
Tatum and Brown combined aren’t on Lukas level when it comes to superstar potential.,calebdallas,x5ne0,feevt59,“Hasn’t worked so far” You do realize they’re both very young and have a lot of potential. Potential to make the Celtics a force in the East for years to come. Really dumb comment.,feev3bh,TheYoungin7003,mrxc3
He has a better chance at it than that combination.,calebdallas,x5ne0,fedj6e8,">  A combination of Tatum and Brown won’t win you a championship (hasn’t worked for the Celtics so far with them as second and third options). 

Luka wont win you a champinonship ( hasnt worked for the mavs so far with him as a first option)",fediyoq,xfashionpolicex,3501bsot
Exactly! A combination of Tatum and Brown won’t win you a championship (hasn’t worked for the Celtics so far with them as second and third options). Luka has the star power to carry a team on his back in the playoffs as the number 1 option. Untradeable potential!,calebdallas,x5ne0,fediitx,Yup. The winner is always the team getting the best player in the trade.,fedhy7n,TheFrenchDownvoter,2zvfpgeb
"If you can’t comprehend that way of thinking, why let it bend you out of shape? They aren’t gonna change their mind on it. (For the record...agreed that the lakers bested my dudes tonight)",calebdallas,x5ne0,fdu4l6o,"it sure seems so. It was not even close anyway, lakers bested them  fairly, with few wrong calls. So now fuck any team that beats them?",fdu17r7,SuchHealth,4rxornzq
He had a painting of Bill in a blue dress and heels in his island home,calebdallas,x5ne0,fdoe8az,"what about Clinton and Epstein posts? some people say that they were in much, much more closer relationships...",fdo97kp,anvil_lasha,16t500
This is the full story.,calebdallas,x5ne0,fdj1933,"I've seen someone posting a different side of this, gonna toss it in here *just for the contrast* (don't hate me, not my president, not even my country).

May 2019 - Iran attacks oil tankers in the Gulf.  
June 2019 - Iran shoots down US drone.  
July 2019 - Iran seizes British oil tanker.  
Sept 2019 - Iran attacks Saudi state run oil co.  
Dec 2019 - Iran attacks US military bases in Iraq.  
Dec 2019 - Iran storms the US Embassy in Baghdad.  
Jan 2020 - US air strikes Baghdad, killing an Iran commander.  
Jan 2020 - People and the news media says President Trump started this war.

edit: cos formatting is hard",fdj11as,freman,3bs2k
When has reddit ever put non biased news on the front page?,calebdallas,x5ne0,fdce5hb,This is flat out untrue lmao,fdcchtq,slotback67,1409mj
I have a liberal friend at work thats spouting off about how this is the beginning of a world war and Trump had no right. I’m having a good day though. :),calebdallas,x5ne0,fcz33fq,"[seriously, check out how they're acting in this comment chain](https://thedonald.win/p/3wfK5FH/)

Iranian general leads attack on US embassy in Iraq.

US strikes when he and his officers are alone.

US is being treated like the bad guys.

I'm sick of this site and the obvious shills and actual retards.",fcxyumm,ChrisTheDrunkITGuy,1luesfmn
They were fooled over gorilla channel and obsessed that trump orders two scoops of ice cream. Add those to the list!,calebdallas,x5ne0,fcswx2r,"Progressives:

""Trump has tiny hands, Trump has weird hair, Trump holds water bottles weird, Trump's child should be murdered, Trump doesn't know how to eat steak, Trump has larger salt & pepper shakers, Trump is a fat slob, Trump wants to be a dictator, Trump is literally Hitler reincarnated""

Rightwingers:

""Pelosi looks and acts like an elderly alcoholic""

Progressives:

""REEEEEEEEEEEEEEEEE""",fcsq0p2,FightMeYouBitch,tr9z7e0
It’s just exciting to feel like the mavs got a shot in big games again. I just hope it’s a good game...wouldn’t mind a win though...,calebdallas,x5ne0,fcczae3,You guys are going to beat us again tomorrow aren’t you? God damn this guy is good,fcc8ztd,Boltzfan1995,11ltjj
Luckily it’s the NBA and not MMA.,calebdallas,x5ne0,fcbsr1q,Chriss is garbage but he’d rock tf out of Luka,fcbqyoc,KamikazeMack,11ijqi
Fuck Antifa.,calebdallas,x5ne0,fc6id8o,">Atlanta Antifacists

Literally braver (and better people) than the troops",fc5ljei,0en0m2,mnn8q7e
You my #1 with the lemonade,calebdallas,x5ne0,fby6iqs,#CLOSED ON SUNDAY YOU'RE MY CHICK FIL A,fbxf1he,imniceatpingpong,2ou8cp0p
Extremely boring. Would rather just hear the stadium audio.,calebdallas,x5ne0,fbcnsar,Sooo is it me or do these broadcasters suck?,fbcnqm1,ComicalCalamity,w5e3zry
Reminded me why I don’t ever watch their trash.,calebdallas,x5ne0,fbcm1jn,Nowitski??? gtfo ESPN... so disrespectful,fbclsc6,Erp117,1z4eqvwa
He’s a rockets fan,calebdallas,x5ne0,fb7l5z5,this dude is putting down luka every chance he gets tho,fb7d34g,xfashionpolicex,3501bsot
"The “we should trade for Chris Paul” talk was wack, as well.",calebdallas,x5ne0,fa1zq5o,"Free agency? Most of this sub was panicking a few weeks ago when we lost to the Knicks twice. 

Rick needed to be fired. THJ needed to be benched in favor of Brokehoff or Courtney Lee and Powell needed to be traded.",fa12kg3,IamDocbrown,62mav
Nooo bring on the ugly jerseys!!,calebdallas,x5ne0,f9hbd5a,Would you rather take an ugly win with an amazing jersey?,f9gi6f9,SlovenianStallion,2em0r8hk
