child_body,child_screen_name,child_user_id,child_tweet_id,parent_body,parent_tweet_id,parent_screen_name,parent_user_id
"Yeah, always",dastumer,2l4btl,fkler2c,"That is such a retarded idea wtf 

Are the kikes that desperate to shill to zoomers?",fkle2n9,Mongrelcel,4dh8sst8
My understanding is it's from a new movie showing what the Shoah would be like from the perspective of a girl with snapchat.,dastumer,2l4btl,fkijyp0,Can anyone give me the actual context to this? Please tell me it’s real,fkhxmh9,nlggaballs666,5wwih4c7
"“Do not forget that these people want you broke, dead, your kids raped and brainwashed, and they think it's funny.”",dastumer,2l4btl,fkg0v75,"Is anyone really surprised? 

They hate us, and will celebrate our deaths. A Democrat Councilwoman suggested people with coronavirus attend Trump rallies to kill everyone there with the virus. Their hatred for us borders on derangement.",fkeuqqe,I-Hate-Suppositories,14obmdmo
**happy gay noises**,dastumer,2l4btl,fkfdmll,"Comrades, now we are all beautiful anime catgirls! Hatespeech and wrongthink have been defeated for good.",fkfcp3k,Basedchupakabra,oyjqen3
"So basically, you’re monky",dastumer,2l4btl,fk97m8x,"In 2013, I spent two months backpacking through SE Asia. I'd always dreamed of the freedom to travel through that part of the world. It was the trip of a lifetime, at least until I got to Bangkok.

The first two days were great. Beautiful weather, dollar pad thai and ice cold Chang. Day three, I'm a lot of beers in and it's late, probably 2AM. I'm a 30 minute walk from my hostel. 35 minutes if I'm drunk, which I was. I start the trek. 

My headphones are in and I'm cutting through an alley behind a shopping mall when I feel a small hand grab mine through the narrow bars of a parking garage window. I jump back against the opposite wall and feel a tail curl around my neck. I look up, the face of a monkey looking back, hanging from the firescape above. The tail tightens around my neck. I blink wildly, questioning my reality. Two more furry hands appear from behind my head, covering my mouth with a damp cloth. I still remember the strong smell of acetone as my eyes grew heavy. 

I woke up surrounded by them, chained to a chair. At least 500 monkeys filled the large hallow room I was in. They spoke quietly to each other, briefly acknowledging my return to conciousness before returning to their muted chatter. I felt weirdly calm, almost as if I belonged with them in that room. 

I finally looked down at my hands and legs. My heart stopped beating. My breath halted. My limbs, were not my own. They were smaller. Yet stronger. Hairier. They were monkey limbs. When I frantically returned my stare to the monkeys around me, they were closing in and chanting something. Something I understood. ""One of us, one of us."" It was at that moment, I knew I would never be the same. I was monkey man, and I had crossed over into another world. 

Anyways, turned out it was just some potent LSD I'd had earlier that night and the weird wallpaper in my 12-bed dorm. Beautiful country, Thailand is.",fk8kn4f,donfolds,3zhls
"And then there’s the GM cars that automatically turn on the reverse light for several minutes after they’re locked, so you can’t tell if they’re about to reverse or just parked and have left.",dastumer,2l4btl,fk9081i,I get nervous walking in parking lots sometimes when I see reverse lights go on. Some people are either too trained on using their rear cameras which can sometimes miss things or they’re just clueless and will back right into you without thinking. I’d rather not have an SUV on top of me.,fk8hlay,CMDR_KingErvin,ia1jjp
"Yo, based?",dastumer,2l4btl,fk8w9og,Orange man bad. Diversity = skin color. Fuck white people. Borders are bigotry.  Trans is beautiful. Race and IQ have no correlation. War is peace. Freedom is Slavery. 1+1=3. Women are the most oppressed minority. Babies are parasitic lifeforms. Corporations love us. Eat the bugs. Coom & consoom.,fk8q32g,MM_MTG,cz50z56
"LET ME INNNNNNNN!!!!!

Please",dastumer,2l4btl,fk2rgsz,[reddit.com/r/Rapture\_City/](https://reddit.com/r/Rapture_City/),fk1mzeg,LastResortHAte,5jzrd7q6
"Those are a fairly recent addition as well. They weren’t at most stations four years ago except for Seoul Metro lines mostly, but when I went a while back nearly every platform had them.",dastumer,2l4btl,fk2ozc2,"I was shocked when I took the subway in South Korea and found they have clear sliding doors on the platform edge blocking anyone from falling in. Ive always thought this was clever, wouldn’t be too hard to implement, and would solve this exact problem",fk2by2p,ArtisticRutabaga,cqiixd2
"Yes, but I'm pretty sure you don't get a ban message for it. I've come across communities I've been banned from, like r/offmychest, but I never got a ban message.",dastumer,2l4btl,fk1ydkx,You absolutely can be banned without ever having commented.,fk1vxey,TheCrowGrandfather,16ic46
Everybody liked that,dastumer,2l4btl,fjsp0fg,Imagine all the douche bags paying Reddit to signal that they enjoyed a post.,fjr1czy,jacketforsmash,4jnuoldh
"America, the land of freedoms. People want the right to do anything if it gives them a chance to get more pleasures out of life. Just take a look at the speeches at the recent pro choice rally in California and even the Oscars. People are attributing their gross wealth and “success” to having the right to murder their baby.",dastumer,2l4btl,fjs6j7h,"I'm wondering about what other Catholics really think about abortion. I do agree that it is murder, and in my country it is banned. I'm just so confused with the Americas though. Is it really that necessary to them?
But I also understand different places have different morals and ethics though.",fjpglbb,Chestarpewnewtbattar,1mx65rjr
"I genuinely feel bad for the man. He needs a caretaker, a nurse, or something, not a presidential campaign.",dastumer,2l4btl,fjs2fns,Or as someone else calls it: [Super Thursday!](https://youtu.be/S5y3XHIyLRM),fjrifx2,perpleqz,14pdy2
"They’re more noticeable in person, but I printed at a 0.08mm layer height at 30mm/s, which made the print smoother. I think painting also helps. I primed with Tamiya surface primer L, and airbrushed several layers. First layer was the blue, then several gloss coats for decals. Another layer of gloss over the decals, and then a couple layers of flat clear for the finish. All of the paint was Tamiya acrylics. Removing the shine at the end helps hide the layers, and I think the many layers of painting might have helped fill in the lines a bit.",dastumer,2l4btl,fji82ll,"It may just be my screen, but I don't see lines the print, what do you do to make the lines less noticeable?",fji5lc4,Alucard9001,158hd68d
"I've got some ribbing detail and other small details, and the chances of losing them are too high for me. From my understanding, filler primer works well, it's just better suited for lower detail prints that can be sanded easily.",dastumer,2l4btl,fjfll9f,"I’ve heard of some people using filling primer to hide the layer lines, but I don’t know if that would work well.",fjflaa8,1832jsh,2czl3k1i
"Thanks! Yeah, I think N scale is a bit small for FDM. I would like to do resin printing, but the fumes and hazardous waste are a bit too much to deal with. The prints are at 0.08mm layer height with the stock 0.4mm nozzle, with the speed set at 30mm/s. I didn't do any post processing besides shaving off a couple lines, blobs, and supports, as I was afraid sanding/filling would loose detail. I primed and painted with Tamiya acrylics. Layers and imperfections are still visible, but from a foot or so away on the layout it looks fine.",dastumer,2l4btl,fjfl4vg,"Very nice, whenever I do prints for N scale, they never end up looking great, probably because it’s so small, I think I need to switch over to SLA for that. I must say, that looks really great for FDM at that scale. What is your layer height and nozzle diameter? Did you have to do any post process, and if so, what?",fjfkf7l,1832jsh,2czl3k1i
"Standard FDM printing in PLA on an Ender 3. It's not perfect, but looks pretty good and I'm happy with it. This is HO scale, using standard Kadee #58 couplers and boxes. The trucks on the older style box car (closest) are Kato S-2 trucks, while the others have European Y25 style trucks by evemodel.",dastumer,2l4btl,fjfk1e2,"This is really great to see, I am always so disappointed that nobody is really interested in doing railway modeling of South Korea. What printing process are you using? What couplers are you using? What trucks are you using? Is this N scale?",fjfjb1z,1832jsh,2czl3k1i
"No, you can still see the headlights. They just don’t touch the road surface further than that",dastumer,2l4btl,fjf4bsk,"So you shouldn’t be able to see the headlights from >75 feet? That doesn’t seem right.

Pre-post edit: they also specify that the “beam” means intensity >300 candlepower.",fjexwgq,Hawke666,df6h9
"Same. I hope I can change, it just feels weird to change from what I’ve been doing for so long.",dastumer,2l4btl,fjeoclc,I was taught to take it via hand so tongue just feels weird to me,fjdki7r,SavageMarlin,3h0hug51
"Living off the land, sustaining yourself, with some politics as well.",dastumer,2l4btl,fjbufrm,But what's the private sub a bout,fjbqf33,sezONdiscord,142l3mic
Public face for a private sub,dastumer,2l4btl,fjbgz4e,"2 upvotes and I go there, also what happened to r/197 in your counting?


E: I don't know what the fuck is r/200. SFW FYI. It's banned for hate?",fjatrqt,sezONdiscord,142l3mic
Tf is your problem lmao,dastumer,2l4btl,fj9p4u2,"Reported, alt righter troll",fj9l2dm,DonnaHightower,5sejgd1c
"Whaddya mean Rip, it’s still right there dude.",dastumer,2l4btl,fj897ny,Rip r/waterniggas,fj80g9i,Loudanddeadly,oonu9
"My understanding is that the high speed lines are built and operated at a substantial loss, with the goal being to increase connections across the county.",dastumer,2l4btl,fj7jg3n,"Correct. At a population of a staggering 8 million people, Wuhan is only the 10th largest city in China. I’ve travelled on Chinese many public transportation systems, and while efficient, it is never a pleasant experience. But the traffic on the highways is even worse. The reason China has invested so heavily in public transportation (mostly built by foreign contractors) is because they have no choice. Cars and air travel are simply not an option for most people living in Chinese mega-cities. US cities could have similar rail systems anytime the taxpayers decide they are ready to give up their cars.",fj7fp8v,Bishop_Pickerling,137rww
Chad moment,dastumer,2l4btl,fj5pndz,"Hahahahaha, why? Because *you* say so?

That's the problem with you lunatics, you think you can define everyone and boss people around. And you know what? I'm done with you.

I am a POC, regardless of how inconvenient it is for y'all, regardless of how many ""as a black man"" you throw at men, regardless of all your stupidity.

I lean left, regardless of what you redefined left to mean in the last few years. The original left. The one about free speech, freedom from censorship, freedom from authoritarian lunatics, freedom from puritans, freedom from corporate overlords, et al. The left of occupy, the left you probably never fucking knew, or understood, because if you did, you'd see the fucking corruption and cancer you all have brought to it.

The left that was not about labels, but about understanding, not about control, but about knowledge, not about restrictions, but about *freedom*.

Now, you have taken to redefine all into becoming a more puritan, more authoritarian force than the right ever was. 

So, you know what? You can't have the designation left. You do not get to say who is part. You don't get to do shit, other than try, impotently, to silence those who disagree with you, from your tightly controlled echo chambers; just to inexorably cry and cry and cry to the high heavens when you find out the people you find inconvenient *still exist*.

You? You are not left. You do not even fucking understand what it means. You don't understand the difference between political and economic systems, you don't understand words, geography, economics, and life in general.

Fuck, I'd be surprised if you understood anything other than when to take your pills.

So, blow me, ""you fucking idiot"".

Your task was being better than the man you declared ""the worst in the world"", and through your unintelligible screeching and years and years of nonsense, it seems like his biggest crime is *being orange*.

Well, someone I like, someone who was also on the left, not your left, mind you, but *the left*, before it was replete with mentally ill soylatte sipping hipsters and lunatics; once said: ""Judge not a man by the color of his skin"".

Enjoy his continued reign. You had merely to be better than the worst person in the world, as you'd define it...

And you blew it.

Now go take your SSRI's and Benzos and leave the adults alone, try not to get the feces on yourself this time.",fj4bizq,Tutsks,j2mrx
"If kids are behaving unsafe, or otherwise causing an incident, the driver needs to be able to take control of the situation so that the bus may continue on safely. Without effectively talking to the kids and being authoritative, a fight or other things can easily get out of control. My dad was a driver for a while, and even without communication issues he had to pull the bus over several times to try and regain order, and I’ve heard of instances where police had to be called to deescalate. Not being able to communicate makes the situation that much worse.",dastumer,2l4btl,fj3jf1i,"I fail to see why having a hard time talking with kids make you less safe on the road, can you help me out?

One could even argue that not talking to the kids makes you a even safer driver.",fj2ymxq,s-cup,pmh1l
"A lot of the school bus drivers around here are immigrants who can hardly speak English. I get that you need a job, but how can you be trusted with keeping a busload of kids safe if you can’t communicate with them effectively?",dastumer,2l4btl,fj2tkjk,Used to drive a school bus. I would never let my child ride in one. Some of the drivers are complete morons.,fj2kyum,AreWeThereYet61,4t04tusc
"School elections are also used to predict real election results, as kids tend to vote as their parents do.",dastumer,2l4btl,fj25xfj,"I think most of the time when they do that it’s honestly just introducing the kids to the political process, not really pushing anything.",fj0q67g,nono_baddog,1q5ohm2
"The components themselves don't add a ton of density though, as circuitboards don't fill the entirety of the housings and they aren't terribly dense either. Even if the phones were glued together with no modifications, I don't think it would be very solid.",dastumer,2l4btl,fj0vjdy,"On the weight thing, I’d bet this weighs more than a dense wood guitar. Unless I missed part of the video where he removed all the components and these are just aluminum shells.

Edit: I did indeed miss the first 15 seconds of the video. Carry on.",fj0laht,BrianMcKinnon,5y1t4
I would think your arms would get scraped up after playing that for a while without sealing,dastumer,2l4btl,fj0cz7i,It would have been easy to fill those voids with tinted epoxy. Baffling.,fj08me7,Rofl_Stomped,6n2h1
"I was there at the end of CringeAnarchy. That was glorious, and the same happens to this sub I want to be here for it.",dastumer,2l4btl,fizi05g,"Me too.  I wanna be ""the guy who gets the lights"" if they shut us down.  I want to say, in 20 years when this has turned into a huge deal like Watergate, that I was here until the end.",fizgv2l,ajt666,iacws
Being single isn't boring when you can fantasize about your Kpop idol being your boyfriend essentially.,dastumer,2l4btl,fixr3yz,I still don't get how the picture makes sense,fixhupw,Mman07311,kytob
"It’s a word used by women/girls to address a guy older than them, their boyfriend often being one of them.",dastumer,2l4btl,fix8b52,Wtf is oppa,fiuw83p,Mman07311,kytob
"My middle school had something similar except they were school store currency. Only the “bad” kids would get them because they were rewarded for being not bad, and throughout the duration of the year so many were given out to them that the inflation rate would be really high, thus prices at the end of the year being significantly higher than at the start. Real economics.",dastumer,2l4btl,fis3w4b,"This happened in my school. We had ""passes"" but for being good. Teachers would have incentives to keep them giving them out and kids used these ""passes"" to put in for a raffle drawn every 2 weeks throughout the year group for a $20 voucher.
Gambling games started. Put 5 in and guess how far through the principal would say his 'catch phrases' in assembly and you could win the whole lot everyone put in.
Died pretty fast when people started copying and making their own.",fipmomf,purplebananainatree,w9akj63
"I think that expression is accentuated by her drawn on eyebrows. That and the other eye makeup makes it a bit more difficult to see what her expression is, although I do agree with you.",dastumer,2l4btl,fi6pw2i,"It's simple. Whenever in this situation remember a lot of human expression is in the muscles around the eyes. Take the first two fingers and spread them into a V but turned sideways (horizontal) , hold this up to your eyes and use the V to block out all of her face except the eyes. Here we can easily see it is in fact terror in her eyes. What have I done? What have I become? What do I need to do to fill this emptiness inside me? These are some of the questions I'd imagine she's asking of herself.",fi60o0m,Steve_Danger_Gaming,12svk1
Gonna piss your pants maybe?,dastumer,2l4btl,fhx4vl3,Gonna cry?,fhx4nvt,Super-Creep,3gmebjsf
Damn,dastumer,2l4btl,fhrfexg,Your view of balanced is so far skewed Ripley wouldnt believe it.,fhr52xo,CharlatanNewsNetwork,3pjxd2kl
Long gone rip,dastumer,2l4btl,fhrf92o,u/PeterExplainsTheJoke,fhree9g,Rylen_018,11v9gq
O shit gassup,dastumer,2l4btl,fhr8yse,"Look out, here come dat holocaust!",fhpw1y3,Vid-Master,eezj2
"If that’s your first kit, I would recommend you start by putting together a “shake the box” kit like an old Athearn Blue Box or Accurail first. It’ll get you introduced to the process, as the kit you have is a bit more involved and might not be ideal for a first try.",dastumer,2l4btl,fhlombv,This is my first ever kit too,fhhvg4m,RandomDarkNes,3g6v4hbu
"I think even Hyundai has a turbo Sonata, and the new N-Line version coming out as well",dastumer,2l4btl,fh9d5db,Never seen one of these! Why would we (in the US) not want a turbo sedan?? I will never understand car companies over here,fh7xzh3,rwakes2,1ayvzso5
Get me on that bus,dastumer,2l4btl,fh9cuua,"[Get in, King, we're going for a trip](https://i.imgur.com/y8xUeBR.jpg)",fh7x6od,Balkanisagod,49knjraa
Perhaps. I'd also think that China doesn't exactly care a whole lot about following those rules.,dastumer,2l4btl,fh93awc,True. I was referring more to embargo regulations against Cuba. It's not easy to lawfully export things there which are not considered necessities or humanitarian aid. I suppose this could have been categorizes as a necessity? I'm just guessing.,fh89cu9,TheStateToday,74js1bv
"Chinese locomotive exports aren’t uncommon. A lot of developing countries have some Chinese power, as China does some work in those countries already and Chinese locomotives are probably a bit cheaper.",dastumer,2l4btl,fh7otn9,"True! Specially when you consider embargo regulations etc.. Something like this would probably have to get cleared as humanitarian aid/necessity to meet law standards. That, or the Chinese are not worried about American sanctions",fh7kbcf,TheStateToday,74js1bv
What did it say? Looks like it got deleted,dastumer,2l4btl,fh1wjcq,Here’s the original tweet if you want to look [here. ](https://twitter.com/jeonchiid/status/1226158039331491840?s=21),fgzgesn,Koreaboocop,5c2mu51h
There are. The cab is at the back,dastumer,2l4btl,fgq4564,Uhhhmm..except there are no windows on this thing? What am I missing?,fgq2y8q,jamie_liberty,2o06ouh8
"Cab front window, like any other steam engine.",dastumer,2l4btl,fgq2smk,Eh...where does the driver look? Or not necessary in this one?,fgpsbdh,jamie_liberty,2o06ouh8
"Not OP, but I use a Creality Ender 3. It is the best deal you can get monetarily, and I think the detail is good enough as it is. The biggest downside for modeling is that it's an FDM printer, but I'd rather use that than deal with the potentially toxic complications of resin that still exist.",dastumer,2l4btl,fgq1rwi,What 3d printer do you have? I'm looking into them,fgpyk1w,xredbaron62x,7c86b
"Different guy, but on my case the state government keeps on importing people from third world dumps, and they bring their crime and destructive culture with them. As “affordable housing” gets forcibly shoved into neighborhoods across the city, we all get to deal with these guys whether we like it or not. The only solution would be to leave our lives behind and move, where the problem will inevitably spread anyways.",dastumer,2l4btl,ffyzca1,And why are you forced to live somewhere you don’t want to? (Same question goes for your poor poor neighbors lol),ffyyezz,Do0ozy,17jf4i
I legit cannot tell the difference between these guys. Are we sure it’s not just the same guy with and without a beard lol,dastumer,2l4btl,ffptwp7,"Jeff T got in the mix as well:

https://twitter.com/itsjefftiedrich/status/1221582967803383808?s=21",ffp0jt7,CletisTout,2hj37jks
"I commented this in another thread a while ago, but I think it bears saying here too.

Half Korean here, I do feel torn at times. I look more white than Korean, but I find myself identifying more with my Korean family and values than those of my White family, and it kinda hurts that I can never fully be a part of that Korean side. Don’t get me wrong, my Korean family loves me as much as they do anyone else, but I still feel like the odd one out and it’s not a good feeling to have. Living in the States, most people would never notice I’m not fully white without a closer look, and I don’t like that an identity that is important to me is hidden like that.

The thing with racial mixing is that with a lot of other races if you are white and something else, you can primarily identify as that something else. Mixed black people are still considered black, mixed Hispanics are still often considered Latino, and there are actual percentage requirements in order to be Native American or Jewish. I might be wrong, but from my experience it seems like mixed Asians for the most part aren’t really considered to be Asian, and it really depends on looks./end

By all means, have kids. If you can provide a loving family environment with both parents present, go for it. That’s the most important thing, and I still wouldn’t trade my life for anything, and new life far outweighs any sort of negativity from this. My day to day life is not affected by this in the slightest, and I don’t want to give you any discouragement. But that being said, I think it is important you be aware that your kids may have some sort of pain figuring out their identity, so make sure you can show the best aspects of both worlds and give your kids something to be proud of.

Also, on the topic of looks: Friends and family on both sides tend to think I’m pretty good looking, but that’s a pretty biased source so idk",dastumer,2l4btl,ffp9xyj,"This makes me sad. My kids would be half Filipino, and that's a bad thing? TF? My niece is half and she's the cutest baby on the planet, and clearly part asian.",ffmbv3b,SinCityLithium,2g7fvomh
"It’s not too hard to get started with an airbrush. I got a cheap starter set on eBay and I’ve done a lot with it. You can pick up train set quality rolling stock for cheap at shows, or undecorated models, so you aren’t potentially ruining anything. I’m having fun with it!",dastumer,2l4btl,ffp548c,Beautiful! I wish I had the confidence to paint,ffjz6qr,Spinier_Pigeon,2atmgaar
From a guy who was recently a kid- every homeschooled kid I encountered was really weird or at least a bit off. Just make sure that they get normal social interactions and friendships with a scope of people so they get social norms and whatnot.,dastumer,2l4btl,ffo0s7z,"I can agree with most of that as well. Next year, we will be homeschooling all of our children. My wife and I think that it is better to mentor the children as they are learning instead of passing them off to a stranger at the school, whose values and morals are unknown. Public school is even worse, for the government has no morals or values anymore.",ffnrchz,craigjames357,1w3yyilt
They’ll get to 110 by their own doing this time,dastumer,2l4btl,ffnyipj,oh no please not that,ffnw5zx,TrappyIsBae,4bdsv5xl
"It’s a Nissan GTR, so yes",dastumer,2l4btl,ffmemtx,"lol, love it... They're just mocking her openly now. I hope that car spews a shitload of carbon and greenhouse gasses.",ffkewwg,albusb,au892
Yeah it’s Japanese lmao,dastumer,2l4btl,ffjellr,Correct me if I’m wrong but isn’t that *not* Korean?,ffix592,Thicc-pigeon,1exc234u
"Probably happened at some point in time. As long as the two are speed matched you should be good. I can’t see the couplers, the picture doesn’t really show it. As long as you’re not forcing a knuckle coupler to mate to a horn hook you’re fine.",dastumer,2l4btl,ffcgk5i,"If you zoom in, you can see the colors are slightly different. Can you also group a gp9m with an emd 40? Are these accurate?",ffcc4dr,50th_draft,2mqdi0q2
"I believe Märklin/Trix makes American models that run on three rail, although I’m not sure how modern those models are. They are the only manufacturer I know of, as 3rail HO is nonexistent for North America.",dastumer,2l4btl,ffagf66,"8701 looks nice!

As someone grown up with European trains I don't really see the appeal for all these (in my eyes, just an opinion) extremely similar looking north-American bulky locomotives, but this really seems sharp. 

I would love one of these for 3rail / AC (I'll just park it in the train museum bit and it works out fine..) but can't find nice, high quality, ones. Is there a manufacturer producing these for rail / AC?

edit: so it seems MTH and ESU make pretty nicely detailed 3rail/AC compatible American diesels https://www.eurorailhobbies.com/product.asp?mn=29&ca=3&sc=HO&stock=ESU-31452",ff8xrgu,Bastionna,3nsms
"What slicer are you using? I just crank down the general speed setting in Cura, but if you had to mess with specific ones it would be outer wall, wall speed, or something similar.",dastumer,2l4btl,ff7kh9h,"Which speed am I changing? I have options to change quite a few different speeds. Like raft speed, infill speed. Genuinely curious, since I teach 3d design as a teacher, and just got a printer from my district.",ff7d49q,drivinthe3wood,d7ldvqt
"I would want to add a straight section to the right side of that oval to move the top half of the curve up just to mitigate any chance of an s, although flex track might do it as well.",dastumer,2l4btl,ff6bkmd,"Ye of little faith, it can’t cause problems later on, BECAUSE IT ALREADY HAS.

every time any loco with a tender takes the curve if the tender isnt coupled to a carriage it pops off like a GWR exec being told they have to run their trains to a schedule.

I may have to take it out and put in a curve of flex track instead",ff5ayqn,Daleftenant,1q1xyjtw
On the box,dastumer,2l4btl,ff52zmk,Where would I find that usually,ff512bx,jphgolf4321,kkgsy
"TSG multimedia on YouTube has a great series where they super detail a blue box model using these parts and more. It’s probably way over what you’d want to do if you are just getting started, but a cool watch nonetheless.",dastumer,2l4btl,fevcg0p,"Awesome, thank you!!!!!!",feow6pd,Kingraptor410,42lsev2k
Inconsistent filament perhaps?,dastumer,2l4btl,feojeqv,"I've recently seen an odd artifact popping up in some of my prints - diagonal ripples on outside corners.  This seems to be related to a new brand of filament that I've been trying out, as I haven't seen the issue when I use other filaments.

I know to look for horizontal banding as a sign of z-axis wobble, or vertical ripples as a sign of x/y ringing, but I don't think I've ever seen anything about diagonal ripples like this.

The pictures are of 2 different prints of the same part, but two different brands of filament. Same printer, both printed in the past week, basically the same g-code, but one brand gives the diagonal ripples and the other doesn't.

What could be causing this issue?",fen4p28,Ambient-Chaos,rqy3a
Wasn't one of the recent school shooters nb or something?,dastumer,2l4btl,felczy1,"FYI, this person claims to be 15-years old. It's only a matter of time before we see the first trans Elliot Rodger IMO.",fel8q31,impersonated_essence,11tq7w
"Could be, it’s hard to tell from the video. Perhaps the motor shaft is slipping on the gear? If you just got it, Märklin should be able to help.",dastumer,2l4btl,fejwodr,Its märklin 3 Rail but the problem is not the Sound its the motor,fejcarr,nellerkiller,3cdpui4k
"You definitely need to get closer to the bed. There are wide gaps between your extrusion lines, and no “squish”. Resolving that will help the print stick. I use a purple glue stick to help prints stick, but on textured glass like that it shouldn’t be necessary if everything else is good.

Edit: Nvm zooming in shows those aren’t gaps. Actually probably the opposite, the nozzle is too close to the bed.",dastumer,2l4btl,fej0mfg,"Thanks for the reply, but whenever I go much lower it can be seen in the prints and it still does it",feiyw9u,gabrielp2004,5c3hvee8
"Correct, if you swap out the GPU to a non iMac one you cannot adjust brightness. If you don’t swap out the GPU, on Mojave and Catalina you don’t have graphics acceleration, which renders the OS almost unusable.",dastumer,2l4btl,fe5f9tt,you really cannot adjust brightness?,fe4role,filnaa,3tzxjfla
"Why not what?

2011 iMacs are already available with the specs you seek out, but so are 2012+ models. If you are ok with replacing the graphics card, not having a boot screen, and constantly having your screen at maximum brightness, go for it, but that is too much of a sacrifice for me at the price you end up paying for the computer and upgrades. The screens on these are really bright, so it hurts to look at full brightness for too long.",dastumer,2l4btl,fe2ixe5,"Why not? I’m currently looking for a 27 inch 2011 imac because I want to upgrade it to 2gb gpu some ram and i7 cpu... I just want it to be as fast as my MacBook Air (2019, which is pretty slow tbh) and seeing that you can upgrade to Catalina and continuity was a big do it for me",fe13opf,filnaa,3tzxjfla
"I’ve heard more people say it with “me,” but they could be wrong idk",dastumer,2l4btl,fdzt6wa,"Serious question:


""My"" anmarr, or ""Me"" anmar?


Anmar or onmar?


Not picking no fun. I have a last name some usta try to pick on me about, but I held comfort in my 200 IQ. (That number may suffer it from unrealistic inflammable pressure)",fdzsfko,anynamesleft,6lt2k
"https://www.amazon.com/WINSINN-Cooling-Creality-Turbine-Brushless/dp/B07WGXBZZZ/ seem alright by the looks of it. I used an NTE fan, model 77-4010D24, but the Winsinn looks like a better deal.",dastumer,2l4btl,fdr78pn,"Yeah, that's what I was afraid of. Do you have any good replacement recommendations?",fdpilft,ThatAnnoyingKenku,4nie3phx
You could try raising it by 5 degrees at a time,dastumer,2l4btl,fdqn4dj,PLA at 200.,fdpcqwi,help-this-sucks,4d63nst8
"Doubt it, Tyco is long gone.",dastumer,2l4btl,fdnfxf9,"Does that 800 number still work?  

(That would be impressive!)",fdj3jrq,peter-doubt,2qmwhl15
They’re playing 50D chess with that,dastumer,2l4btl,fdmjfzl,900 IQ plays by Iran,fdky0hy,NemisisZen,4cpdhr8f
Here’s an article I found: https://www.seeker.com/earth/animals/snake-pops-its-head-out-of-frogs-mouth-as-it-is-eaten,dastumer,2l4btl,fdiudvh,So… what’s actually happening in this?,fditvdx,smiley6536,oagg1
"If you are doing long prints while you aren’t at home, I highly recommend you use AstroPrint. Super easy to set up, with no complicated network things required. All you need is a raspberry pi. You can remotely watch your print from a webcam and cancel the print if it fails. It has saved me from a few disasters now.",dastumer,2l4btl,fditxpb,Actually this one I didn‘t unfortunately. I wasn‘t home so I couldn‘t stop it,fdd3v3o,GalaxyLeadz,2eq0x61j
"I only replaced the fan, the hotend is the same. Don’t think it’s overextension, as most of my prints are a tad underextruded more than anything.",dastumer,2l4btl,fdg3loe,Maybe your new hot end is a bit...hotter...looks like it could be over extruded.,fdfn6gl,Kraken_smackin,1ndlezor
"It’s the other fan I replaced, not the part cooling fan, so I can’t control the speed. Currently trying blocking off the part of the fan blowing at the heater block with tape so that the heatsink still gets cooled while keeping the heater block stable.",dastumer,2l4btl,fdg3fes,"If you can find a way to chart your temps.  I use a raspberry Pi running Octoprint.  works just great.

Also, I have tried different part cooling fan speeds on my old Anet AM8. Turns prints better at 75% fan speed.

&#x200B;

Also try this.  I just got an Endre 3 and it helped a ton.  

 [https://www.thingiverse.com/thing:3071464](https://www.thingiverse.com/thing:3071464) 

&#x200B;

Great youtube channel.",fdfokhn,wastedwu,15m2vv
I was thinking it might be the new fan blowing harder than the original. I’ll try and mess around with that. Temperature fluctuations would make the most sense,dastumer,2l4btl,fdf0vsr,Try a PID tune?  I had banding issues and did a tune and it helped a lot. My hot end temp was fluctuating too much.,fdez1o9,wastedwu,15m2vv
"Horizontal lines, not vertical. Certainly not supports.",dastumer,2l4btl,fdezos5,"You sure those aren't supports, like if you have supports turned on and there is a lip at the top of the model?",fdevn3q,jakabo27,jfo2b
"Can’t really change where the fan is aimed, it’s all fixed in place. I run the printer off of AstroPrint, which doesn’t have graphs from what I can tell, but just watching the temperature readout shows it to stay locked on 200.",dastumer,2l4btl,fdev7di,"That is another decent suggestion, that the new fan has some real juice to it and is affecting temps. 

You might have to increase temps slightly to compensate for the stronger cooling. Adjusting PID tuning might also be a good idea, but I'm always a bit skeevy about messing with control loops...

Can you watch your temperature feedback and see if control is being messed up by the fan? I have no idea what Cura has but I know Repetier Host has real nice temperature monitoring graphs.

Maybe you also aimed the fan too close to the hot end?",fdeinb9,DiscordDraconequus,76xqb
"Same filament, purchased a year after the first one. Looks like the winding process has changed, as it is wound in an opposite direction from the first roll. From what I can tell, it seems fairly consistent ranging between 1.66 and 1.74mm, and the filament has just been taken out of the package. The carriage seems stable as well, which is why I’m miffed about it. In the picture you can kind of see horizontal striping in the left object, it is not so much there in the right one. It isn’t terribly pronounced, but there. The only things I can think of is that the new fan blows harder than the old one and is messing temps up, or the filament is inconsistent and I’m just not noticing it.",dastumer,2l4btl,fdehypy,"The white filament makes it difficult to see exactly what's going on.

Was the new filament from the same supplier, or was it from a different brand? If it's different, it's possible that it has different properties and you may need to recalibrate. 

Even if it's the same supplier, it is possible there it was manufactured differently. Perhaps the diameter has changed slightly on this roll and you are overextruding now. I'd measure the outer diameter with calipers in several places and make sure the filament is the right diameter, round, and consistent. Overextrusion can sometimes cause defects that look like defects. 

How old is this new filament, and how was it stored? It may be possible that it absorbed moisture and that is affecting the print. 

The only other thing I could suggest would be that you have somehow messed up your hardware somehow with the fan change. Perhaps the extruder carriage is not seated quite right on the X-axis and now it can wobble.",fdeg18x,DiscordDraconequus,76xqb
"Agree. No matter what an issue is, if people simply try and “raise awareness” without taking any action themselves, I have a hard time taking it seriously. If you really care about an issue, be a part of the solution, live what you preach.",dastumer,2l4btl,fdcusnu,"There are actual events where people roll coal for sport, create thick black clouds of toxic exhaust for funsies, these people aren't there. There are factories that rival a large city's pollution output in a day, these people aren't there. There are places these people and these protests could make an actual difference, or at least actually face the threat they are protesting, but they aren't there.
 
Instead Extinction Rebellion is blocking traffic in major cities to ""spread awareness"", as though this is the 60's and we still have to be convinced. Do something about it, present a plan, disrupt something like a nascar event, they drive in a circle 200 times as fast as they can for no reason, these poor people are just trying to get to work. The protesters are too scared to face the actual problem, so they inconvenience people who are nominally on their side and when there's no repercussion they can pat themselves on the back for ""raising awareness"" and ""being such a good person"".  


What they're doing instead is making climate change look like the battle cry of crazy people, and this does the entire world a disservice.",fdbtc4r,Dafuzz,34r5s
The poster had said it wasn’t his video I believe,dastumer,2l4btl,fdcdwvg,"And nowhere near the city where the video took place. 

And may be the first time a justice sub posted data that had nothing to do with justice.  A sub asking where places are I can see Percocet gps locations but this is a mere catahrsis sub where people enjoy comuppence.",fdaavsd,KaltatheNobleMind,iz8kl
"No, it is not. You don’t need to unplug your battery to do an SMC reset. To me it seems like your display data cable might have jarred loose, try unplugging that and plugging it back in if SMC and PRAM do nothing.",dastumer,2l4btl,fd2wm3z,"I attempted them, but I'm not sure if I did it right. Would draining the battery completely be the same as unpluging the battery?",fd2li8y,DonavanSkywalker,3smn7c2z
"I mean to be fair, that’s just about every cell phone these days. Just about everybody I know with a phone 2 years or older have bad batteries. At least iPhones aren’t glued together so batteries can be replaced fairly easily, a lot of android phones need to have glued on panels pried off first.",dastumer,2l4btl,fcn80xr,"#Apple is the best. That's why you can't replace the battery and it degrades within the span of the next iphone release to the point of needing a new cellphone. And your new cellphone phone is of course going to be the newest iPhone. 


😁",fcn0r6t,happybillmoney,12wfbjss
"White passing half Korean, feel the same way.",dastumer,2l4btl,fcm51ou,White passing Japanese. It sucks. I love my heritage but I look like one of those people that are suddenly obsessed with something that their 23 and Me said they were .6% of.,fcm2dad,vodka_berry95,y5ypt
"We had warm weather which melted some snow, and then it all froze over last night leaving the roads covered in ice this morning. Sometimes this happens despite preparations.",dastumer,2l4btl,fcb1ai2,how do the roads in snow country go THAT untreated for THAT long...,fcavvmh,plausocks,479qyy3p
Trigger of a gun I think,dastumer,2l4btl,fc2nugf,I get it but cannot discern what the third panel background is,fc2nbz8,The_Foil_Lard,db043
"Nope, these are fine. It’s 2011 AMD models that were officially recognized, although the late 2009 and 2010 models were affected to an extent.",dastumer,2l4btl,fc20atj,I think this is one of the ones with the sudden graphics failure...,fc0uea7,some1_aka_me,5a51smkg
"Good read, kinda surprising to see something like that come from Vox.",dastumer,2l4btl,fbrir7d,"This is a great article, and very prescient considering when it was written. 

Full link below for those who are curious to read it. 

https://www.vox.com/2016/4/21/11451378/smug-american-liberalism",fbr0pam,RevolutionaryClick,ifiif5h
"Yes, as long as you make sure it has solid walls and isn’t one-sided. Generally, there are some design guidelines to follow so that an object is printable, but most files can be made printable. Check out r/3dprinting if you want to get into it!",dastumer,2l4btl,faztsz8,"Cool. What file format does it take? Could one print anything they make in Blender, for example?",fayhcj4,Up_Late,5vpkz
He then died like a month after that.,dastumer,2l4btl,fa17xer,The doctor in this video apparently had his medical license taken away for over prescribing narcotics and botching an abortion.,fa173rk,wastedottawayouth,a0pig
"Here’s my take that doesn’t make the unnatural argument. Homosexuality is immoral because it puts sex at the forefront. With a heterosexual relationship, the result of sex is having children, with sexual pleasure being the incentive to do it. Thus, you get something of greater meaning out of it, and you can continue to devote your life to better things. Yes, that means I think even heterosexual sex purely for pleasure is wrong. With homosexual sex, the only result is physical pleasure, nothing fruitful comes of it. Thus, sex is not a necessity and only deviates people towards devoting more of their lives to sex. You might say that homosexual relationships are not only about sex, but the insane amount of sexual acts and deviancy that are blasted at nearly every lgbt publicity event shows otherwise.

The reason I say that excessive, or really much any devotion to sex is wrong is because it is a form of idolatry, a violation of the first commandment. For me, as a Catholic, I see it as putting something above God in your focus on life, and putting anything else above him results in a poor life outcome and potential self destruction. The same goes for putting money, power, fame, or anything else as what you idolize. People ruin themselves morally when they idolize more often than not, living lives not completely fulfilled as they focus on the temporary material world rather than one beyond that.",dastumer,2l4btl,f9icgyc,"I’m with him on one thing... the naturalist argument doesn’t make any sense. His examples are whack, but it’s true that natural vs unnatural has no bearing in good vs bad.

Thing is I have never heard a homophobe explain why being gay is bad without at some point saying it’s “unnatural.” Even if it was (spoilers: it’s not!) how does that make it wrong? Do they wanna argue that antibiotics and crop rotation are evil too?!

I can’t help but think the only real reason people are homophobic is because they’re scared by people not conforming.",f9gvuo3,Moldy_slug,yh5x5
"That drive setup used to be common on cheap starter/toy tier trains, but they’ve disappeared in the last couple decades.",dastumer,2l4btl,f95eywg,"The traction-tyres are made using heat-shrink tubing which works very well. Let’s just hope the ride is still smooth-ish. Never seen this type of front pickup, rear driven wheels before, very interesting...",f94xpbm,beemer_lab,317ao52o
"My O sets came with O-31 curves. It’s so tight that even a 2-6-0 has its middle drivers overhang past the rail on curves. I can’t imagine how stuff goes around O-27 without some binding, I think I’ve seen trains slow down quite a bit when they hit those curves.",dastumer,2l4btl,f95esjr,"O-36 curves. I'm in an apartment so space is quite tight for me, but surprisingly my K4 handles them pretty well. Apparently my Lionel 28023 can handle curves all the way down to O-27 however I find that a little hard to believe.",f95e8zb,keytarin,5owfz
"He isn’t a crane game channel, more anime related content. I used to watch him a lot, but his content started declining as YouTube monetization changes pretty much forced him to completely change what he made, pretty sad.",dastumer,2l4btl,f91x2a7,"I hate this fucking face. It’s like 50% of thumbnails with a person in them, they’re making this fucking face.

Also, every crane game channel is such a scam and it totally disgusts me. It’s promotion gambling to children. Get them hooked on consuming product while they’re young...",f91fhjp,bjarke-,3oydjtm4
It’s all I buy because I go through filament too slowly to even justify 1kg spools. I’ve had my printer for a year and I’ve only gone though about 1kg total,dastumer,2l4btl,f91hkkn,"That's a lot of AIO Robotics! That's my favorite filament, but I can only justify buying it for special projects.",f911ivm,karmavorous,899wa
"I especially like the way you set up the station, it makes it seem bigger than it really is",dastumer,2l4btl,f8wmp48,"Thanks mate! It’s a 6x4ft so definitely on the small end for a layout, but I’ve been trying to make the scenery look as realistic as I can to take away the ‘train set’ appearance. I figured that for a first time attempt, it hasn’t been a bad job so far.",f8wfajo,ackers5861,pvq49
"UP and NS have been doing heritage schemes for years, UP’s locomotives were delivered 2005-2006. They are SD70ace units, so different from the model pictured.",dastumer,2l4btl,f8u8ah3,"Oh wow I've NEVER seen that paint scheme - is it prototypical? I'm glad to see UP actually doing some heritage stuff for the RR's they bought out if that's the case. Are you doing the paint jobs?

Way cool on the 3D printed radiator; are you putting your designs up on Thingiverse?",f8tz6bz,GrumpyTexan73,4tcia0lu
"Side rods, crossheads, all of the detail parts. Just look up pictures of it and you’ll see.",dastumer,2l4btl,f8oscno,realy what im i missing?,f8os2od,Savllen,4acr1nun
"I’m not sure that you can get the level of small detail necessary for small gears out of a printer, unless you are doing SLA. I got into 3D printing for similar reasons, although I do custom rolling stock. Feel free to post pictures here, if you can’t get satisfactory answers I would also try joining a model train forum as well.",dastumer,2l4btl,f8chkay,It’s funny you mention shapeways. I actually picked up the train set because I bought a 3D printer to tinker with. It doesn’t seem to be a pancake motor. Guess I’ll just have to do some more digging. I’ll be posting some new photos of the engine tonight when I get home if you’re curious. Thanks for the info!,f8caucf,Turbo_Shades,h5pljx8
