child_body,child_screen_name,child_user_id,child_tweet_id,parent_body,parent_tweet_id,parent_screen_name,parent_user_id
((group hug)) :),Donald303,15gxva,fknnggi,I’m in the same boat with my parents.  I’ve actually stressed out relationship badly in pushing them to take it seriously and I’m worried they might die when we are angry at each other.  It’s so stressful to know this is happening hundreds of millions of times over around the globe.  I love you all.,fklw12o,maadirounder,5ghgr
"Found this progression map too...

 [https://nssac.bii.virginia.edu/covid-19/dashboard/](https://nssac.bii.virginia.edu/covid-19/dashboard/)",Donald303,15gxva,fknm4up,I don't know about anything official but I've been writing the numbers on my calendar. Hope this helps  https://imgur.com/a/NY3QE50,fkli7m5,mrslugo,4dnsggw2
Cool \~ would love to know an update if you have one later :),Donald303,15gxva,fkniezi,"A friend sent me a link that directed me here...
    I live near Ridgway and work out of Telluride and have seen no Nat Guard presence, FWIW.   If you’ve ever been to Telluride, you know that something like this would be nearly impossible to miss as its a very, very tiny town with one way in and out.
     That said, I’ll be picking up clients there later today for a guided trip.   So we’ll see what’s going on.....

-G",fknbl7j,SpottedDogAdv,4v4w985v
I'm an idiot. My screen wasn't scrolling & the article looked complete. NOW it decides to scroll! Thank you for posting the link ;),Donald303,15gxva,fknbjbu,"This link does not show the screen shot. I cannot find anyone who can confirm that the above screen shot is accurate. If someone can, please let me know! This has been shared on several posts & I want to be sure it's true.",fknb8fg,Donald303,15gxva
"This link does not show the screen shot. I cannot find anyone who can confirm that the above screen shot is accurate. If someone can, please let me know! This has been shared on several posts & I want to be sure it's true.",Donald303,15gxva,fknb8fg,That’s nuts. Thank you for that.,fklxdke,Drwhalefart,h8dzj
"Thank you for your efforts! Can't wait to see how this materializes!

""I am working on giving all of us a way to get organized and work together toward something bigger than ourselves. """,Donald303,15gxva,fkmxxno,"Hi all - I just wanted to provide an update.  I was able to get some milk to someone quarantined with a one year old, which was super cool.  It highlighted a different problem the collective ""we"" have, which is organization.  I am working on giving all of us a way to get organized and work together toward something bigger than ourselves.  The reality is that if we don't come together now, we are all in trouble.  We are also all about to have some spare time on our hands so I think we can find a way to make all of this work.  I can't say that I know what I am doing, but it'll sure be fun to figure it out.  

To those that filled out the form offering help, thank you!  I will be in touch shortly once I have a clear plan on next steps and how we can all be most effective.  

My name is Jeff by the way.  It's nice to ""meet"" you all and thank you all for helping!  As well as the platinum and Super Heart Eyes.  You all rock!",fkm3zcn,HumanIntroduction,4h8x6tj6
That makes a lot of sense. THANK YOU so much for the reply so I can sleep a bit easier.,Donald303,15gxva,fkmtcbd,"So far, in the US, veterinary care has not been restricted. Although I heard that in Ohio, they are trying to limit people from opting for elective surgeries. I think they're just trying to make it so that people just aren't out in about. Some more than likely, the people in Italy won't be going to the vet anytime soon",fkkbwz1,cytaux76,3qmltt9c
((big hugs)) to you,Donald303,15gxva,fkmt9wm,"My dad’s not in assisted living but I can’t go see him either. He’s high risk and I love him too much to accidentally spread it to him. 

I just want to hug my dad so much, he gives the best big bear hugs...

You’re not alone OP, we’re all suffering through this together :(",fkmrnfo,FizzleKit10,2nhr3jsg
"Love that sentiment ;) I hope to be more like you when I grow up. In my 40's now, so \~ not sure when that will happen...",Donald303,15gxva,fkmt10e,"No need to worry boss, I just got kids and I'm trying to take responsibility for being a day to day asshole. Nothing biblical!",fkli3ec,Weouthere117,nchyeqp
Seriously lol'd at this commentary ;o) SO true! It really is refreshing to see more civility online though.,Donald303,15gxva,fkmsz4q,"Your willingness to take ownership of your error is quite commendable. However, having a Redditor behave in a respectful, mature manner after making a mistake is more of an omen to herald the Biblical apocalypse than any coronavirus plague could ever be, so now I’m actually scared for the first time since this whole thing started.",fklho5y,Cavinicus,bni4q
LOL \~ I feel kinda bad about enjoying that comment so much ;),Donald303,15gxva,fkmsn6d,"Well, there's still a few things we don't know about this virus. Let's not rule that out",fkll1eh,Cultivated_Mass,pdx2f
They REALLY need to close everything before dumbasses go out on St Patrick's Day.,Donald303,15gxva,fkmndgj,"This is directly related to the misinformation spread early on.  News said it wasn’t so bad, no need to worry.  Now they are having a difficult time walking back those statements with folks who still think the flu is worse.  It’s really unfortunate how many people are risking exposure/contagion due to the crappy info relayed early on.",fklha8i,Conspiring_Bitch,3he8w7z1
So glad we all have each other in this weird Reddit way!,Donald303,15gxva,fkmn4sy,"Thank you so much. I’m in Summit and a lot of people aren’t taking this seriously. Huge group of vail resorts employees are headed to Moab. Even though they’re asking people not to leave the county.

Thank you so much for the kind words. They’re seriously so appreciated right now. I hope you’re holding up okay there.",fkmmbdl,ohdorf,11q0joci
"That may sound paranoid to some, but it makes sense to me. Seems like this would be kind of a ""trial run"" as to how to handle things on a small scale to be a bit more prepared when the real shit hits the fan.",Donald303,15gxva,fkml4w2,It's so we can see how bad areas are being hit. They are taking sample sizes of populations to determine future ops.,fkmel4h,alphazulu8794,i53mf
NOTHING TO SEE HERE FOLKS,Donald303,15gxva,fkme2m2,So don’t be alarmed by an alarming and unusual situation...things are getting weird...,fkmcoql,LettingMyLightShine,roqoz
& Cocoa Krispies?,Donald303,15gxva,fkme0ax,"If we're gonna debate, let's get real deep. I like the texture of Cocoa Pebbles over Cocoa Puffs but regarding the flavor, in my opinion the difference is negligible. As far as I'm concerned Cocoa Puffs are Reese's Puffs for filthy casuals.",fkmdqz6,TripleMusketMan,at5hs
Pretty sure Schoodle is Will Smith or a reincarnated Dr. Seuss.,Donald303,15gxva,fkl5v5a,"Finally got to see a comment by you before it’s blown up. Thanks for bringing positivity, especially in these trying times!",fkksopv,SoldMomForKarma,3sh0gh4v
"From what I've read, it takes a day or two to get results so you'll be going home.",Donald303,15gxva,fkk7b8s,"Honest question, if you are tested and it's positive, do they immediately take you away and quarantine you or are you allowed to go home as long as you stay home?",fkio7h6,GuineaPigHoarder,5otzde9m
"Also read that there's a blood shortage, so if you're up to donating in that way - &/or encouraging others to do so - they'd find that helpful as well.",Donald303,15gxva,fkk69q8,Thank you,fkg1bs6,HideIt1,5nlmlat2
It's very cool of you to help them in that way :),Donald303,15gxva,fkk646i,"I'm a CO Health insurance Broker. There is unfortunately NOTHING that can be done prior to April 1st regarding coverage. Colorado has its own exchange so don't waste your time at Healthcare.Gov.

If you want to discuss options feel free to pm me and I can walk you through different options and might even be able to help with the UHC clause as CO has also established $0 cost coverage for the outbreak.",fkg7la2,et2792001,bhs6z
"Very kool of you, Kellen ;)",Donald303,15gxva,fkk52wg,"DoorDash delivery guy checking in. It’s really hard to do what’s needed given shortages in stores, necessity of work to pay rent, etc.

Still, I am reminding every one of the people I deliver to that they need to wash their hands before eating. Hopefully the restaurant didn’t contaminate the food, but in the very least if the customer touched something earlier it might get washed off before they stick some fries in their mouth.",fkhhzal,koolkellen09,2tas7si4
This is very awesome \~ thank you!,Donald303,15gxva,fkk4zng,The data is derived on the fly from the CDHPE [source document](https://docs.google.com/document/u/0/d/13bsMNnTb5kilxWJS6OHGNEP6I1HqBaeWLdtSEMVirAE/mobilebasic#heading=h.ibhmxsv1l6ii) so any updates to the source document will be reflected in the dashboard,fkgjof9,dtdv,l0dvk
exactly this /\\,Donald303,15gxva,fkk2dfy,"""Low level crimes."" What the hell does that even mean, and why the *fuck* would they think announcing it is a good idea?",fkiny0d,MattieTizzle,oohx4
Shit \~ I can totally see that too.,Donald303,15gxva,fkk2c5y,Good call.  I’m thinking we may see an uptick in smash & grab car thefts too.,fkhvmhp,sailcatsuperfan,4dn2ax9o
Oh wow! I hadn't seen that page yet. THANK YOU!,Donald303,15gxva,fkk25de,"[I gotchu](https://geodesystems.com/repository/a/colorado_covid_dashboard?&map_bounds=43.71609,-108.2533,37.02948,-103.85876&zoomLevel=6&mapCenter=40.45589,-106.05603)",fkjc9jf,Rhyme--dilation,166ke9
" [https://www.autoyas.com/US/Lakewood/1704155189703148/Localhost-Denver](https://www.autoyas.com/US/Lakewood/1704155189703148/Localhost-Denver) 

 (720) 204-4604",Donald303,15gxva,fkk1je5,This is crazy that they think this is ok! I'm calling them tomorrow. Just looked it up & they open at noon. Will post the # in another post \~ as I'm not sure if that's allowed?,fkk1inz,Donald303,15gxva
This is crazy that they think this is ok! I'm calling them tomorrow. Just looked it up & they open at noon. Will post the # in another post \~ as I'm not sure if that's allowed?,Donald303,15gxva,fkk1inz,"Someone does have to stand up to them. I tweeted at them, you should too. Keep posting about this in the r/Denver covid thread, etc.",fkjmhtd,TheWaystone,5vungrvi
Kay? Is that you?,Donald303,15gxva,fkjkzcs,Swamp gas from a weather balloon was trapped in a thermal pocket and reflected the light from Venus.,fkixjyi,phletch,5l5p9
👏👏👏😸,Donald303,15gxva,fkdn9f6,"No he can't, because he's a cat.

Look out it's spider cat.",fkdiuqe,Incogneto762,1qzn3pji
I also lean to show him how it's done ;),Donald303,15gxva,fjqntmy,"It's so funny whenever I'm watching a dog in situation like this I'm SO cheering for that guy. C'mon, you got this!",fjqd3da,allaboutthismoment,zaosu7g
Someone give this kitty a real bug!,Donald303,15gxva,fjqlppt,I'm sorry John,fjqa5qy,Piemaster113,ge32c
"Lol! Add an artist who heard this all the time when I started, this cracked me up!!",Donald303,15gxva,fjlnp44,"What if it was for my kid's birthday and I was a single mum, and I could get you serious exposure? /s",fjl7qql,Memento_Mori_Geist,20vqgebh
I still love you ;) & love this post!,Donald303,15gxva,fjlniny,Usually the case,fjlg1qp,TheAlonesomeWanderer,4tgjsqe8
Kind of you to share! Thanks!,Donald303,15gxva,fjh2qf5,">insomnia

Wash your hands and legs, don't dry it off. Put on rain inside car from youtube with headset. Might work. Works for me every night.",fjgetgh,007ninjaprincess,5nsoy4ko
"""I just gotta have a wildebeest""",Donald303,15gxva,fjfwcx4,Hyenas are the weirdest animals ever. So cute but so scary,fjfry7d,SierraMayleen,22m9bnsn
It almost hurts not being able to!,Donald303,15gxva,fjfw9gc,I *simply* must pet this cat.,fjfl0k9,CyberStorms,3vkn5vht
That's wonderful!💕,Donald303,15gxva,fjfvka0,"He was with his sister luckily, we adopted them both :)",fje3svn,Rahwel,4w9l86ih
So adorable!,Donald303,15gxva,fjfv19m,"She looks so pleased.

Having a box nearby also works quite well.

[https://imgur.com/vwaC84G](https://imgur.com/vwaC84G)",fjfuwo3,KittiesAndKitbashes,515389mh
Rucifie cat cat! Love that ;),Donald303,15gxva,fjfumin,"Me three! Usually, though, ""Lucifer"" is modified to ""Rucifie"" after the cat in Cinderella.",fjf7aab,smt004,9xeok
& this time he's wearing a shirt that fits! Niiiiice :),Donald303,15gxva,fjfu8eg,Not all heroes wear capes.,fjfocmz,Givemetreefiddyplz,mkjxeq9
"🎶So sad that it should come to this
We tried to warn you all but oh dear🎶",Donald303,15gxva,fjcm2i7,So long and thanks for all the memes.,fjbtxa1,PresidentialMemeTeam,3v2dnrtv
"Mmm cheese, Grommet!",Donald303,15gxva,fjclszn,cheese too... they love that guberment cheese 🧀,fjc09xh,Gordon-G,1twrh2t4
Adorable eyes (FIFY),Donald303,15gxva,fj5vk4r,Funky eyes,fj5i8g9,I_Camioneta,3o8xksp5
Lmao! Cats are such fabulous little assholes.,Donald303,15gxva,fj5uyor,My old cat used to watch me until I yawned or opened my mouth and then shove his paw in it. It was very effective.,fj3g9ro,betterintheshade,6m70n
Mine gives me adorable nose nibbles,Donald303,15gxva,fj5ux5k,Then your cat sneezes on you.,fj48uc8,TacticalSanta,3yvei
Omg I need to see this type of cuteness in real life!,Donald303,15gxva,fj5uswv,It's a puppy!,fj5lqoe,AnTaurr,5t5br36t
This/\,Donald303,15gxva,fj5ujmw,"We will be needing Bruce updates, please.",fj5p1e3,Ambidex111,4ytidu67
I can't believe they're real! Very cool.,Donald303,15gxva,fj5tpdc,Miniature disco men,fj4iulb,broommanherro,16gq2w
Classic dem logic!,Donald303,15gxva,fj3144j,"Isn't it weird, how the admin's response to supposed ""not enough moderation"" was literally to remove like half the mods?",fj2jd12,TinkleTinkleLittle,5ap8cf8t
Damn it. Now I want a toasted marshmallow.,Donald303,15gxva,fit4szv,Looks like a toasted marshmallow. Adorable.,fit3pm7,Zombiecancer566,18w9zd38
"My family all knows that as long as I have it together even just enough to enjoy time with a kitty, then I'm happy to continue living my life. Others may not feel the same & that's fine... they can go to a right to die state & end themselves. This, however, is a shining example of how the love for animals brings endless comfort & joy for some people.",Donald303,15gxva,fit4pmw,Regardless of opinion that comment does not belong in here.  Have a little sensitivity.  You don’t have to say nice things.  Just don’t say rude shit and be mindful of who is reading it - the guys wife.,fit35il,gotBooched,je0o3
That's beautiful. This post & your thoughtful replies are all beautiful.,Donald303,15gxva,fit4hw1,He thinks it’s real.,fit3kug,pwrightde,4x04ugg6
I love the dramatic flop!,Donald303,15gxva,fipyn14,That ear twitch!! So cute!!,finvuj4,winsom_kate,10nm9zzg
There is no spoon,Donald303,15gxva,fipydnw,Ah... the prophecy was true,fiosa2o,frickinmylife,4sja37to
& those pink toe beans! Adorable!,Donald303,15gxva,fipycbi,There‘s something about chubby cats that make them look even cuter!,fiorelz,Sayajinno,h37m1
Lol I just got my reddit warning!,Donald303,15gxva,fipmq1y,"uh oh, I upvoted all of these, and then downvoted them and then upvoted them again and repeated until my finger cramped up.

fuck",fip7bdt,nu11andv01d,4b3is5an
"If I upvote your upvote for the upvote, does that make my penalty 3x's as bad?",Donald303,15gxva,fioyq1u,"What if I upvote the upvote, then you change your upvote to a downvote? Let's really fuck with em",fiowd3d,YEarightty,4olmyd0u
The proper term is va-jay-jays.,Donald303,15gxva,fioym64,Wait...boys have penfifteens and girls have vagenes!?,fios9tq,kornesque,14ksu4
I love that Jussie's lie has become a shirt!,Donald303,15gxva,film9ky,Great T-shirt.,fil8x34,B4size25paper,gzzg4
Thanks for posting so I didn't have to watch the shitty video,Donald303,15gxva,fil051x,This was from a year ago. [it’s the same exact story](https://y102reading.iheart.com/featured/andi-and-kenny/content/2019-05-31-ddg-farmers-keep-quiet-during-auction-so-family-can-buy-farm-back/),fik5lfl,leavetheshoeson,1x3lxqre
And my axe! Wait...,Donald303,15gxva,fikz82a,You have my spoon!,fikw98t,MythArcana,yxqx3
Exactly... Logical dislike = jealousy to some people ((eye roll)),Donald303,15gxva,fiko1go,"Sincerely not jealous in anyway and I am a trump supporter 

I hate her because she makes our side look retarded. She argues like a retard and is the living embodiment of the strawman that leftists crave for us to be",fiknhe6,KuanLuPi,1klka7c4
🎶I wanna be like you Ooo Ooo🎶,Donald303,15gxva,fikl664,"just


like


you",fikdtv9,birchskin,ciy00
/r/Birdsdon'texist,Donald303,15gxva,fijp76w,Not a bird. Potato.,fijoqaw,sexyankles,6l0tv
Total bliss,Donald303,15gxva,fije6cr,If only we could feel that good!,fiioalz,sharby2308,47zqtba4
Beautiful! So glad to hear a fabulous artist is getting paid for his work :),Donald303,15gxva,fijbhp8,Yeah I paid him. He has done other drawings for me as well. Usually about 75 for them,fif08hs,Spoomplss,3ek5s5eb
SPEW!,Donald303,15gxva,fij828g,Same here.,fiiw8od,Imoralpenguin,5ej8e81g
It would be awesome if he was wearing a sock ;),Donald303,15gxva,fij7zck,give dobby a sock,fihgzss,happy4me5347,5pv29m6i
Long I feel like I'm cheating on my cat because of the instant love I feel for this cat!,Donald303,15gxva,fij740a,So pretty!,figfqmb,BlackCatTrot13,5ho68tlz
"I wonder if he enjoys ""Lady & the Tramp""?",Donald303,15gxva,fij5wqq,As someone studying animal behaviour I'm not even sure haha,fififgk,McElroy00,cumwf9f
Wait until you're outta the house 'cause they can't appreciate kitty awesomeness ;),Donald303,15gxva,fij5mee,I’ve always wanted a cat but my siblings and parents say they are evil. How can you say they’re evil after watching this,fihfja1,X_skank_X,3lkmiujl
Aww Biden thinks he's as legit a presidential candidate as Buzz thought he was a space ranger.,Donald303,15gxva,fij3ulq,"Biden: ""I was there putting the flag on the moon alongside Buzz Lightyear.""",fiivahx,klendathu22,hx7eb
All while being chased by Corn Pop while kids played with his leg hairs.,Donald303,15gxva,fij3lhp,"No, Biden's right. He was arrested while visiting Nelson Mandela, and was held for 12 years a slave. Afterwards he escaped, helping to defeat the Spanish at the Battle of Waterloo. He finally arose to national prominence when he accidentally invented penicillin while trying to tie his shoes.",fiime9h,TangoFoxtr0t,12njx1gg
Such a great show,Donald303,15gxva,fij3htl,Like Junior Soprano,fiixny0,jesuss_son,ju3wi
Thanks! I had no idea either ;),Donald303,15gxva,fij1fvh,He hates Bernie. Said it might be better another four years for trump. Compared Bernie to Nazis invading France.,fij11ka,thyroidnos,191pzbro
You summed it up perfectly 👌,Donald303,15gxva,fiizllt,"I think the difference with the Trumps compared to dems is that even if something is calculated, they seem to genuinely find enjoyment in the situation. Dems seem to grit their teeth through shit like this or try too hard to seem relatable. The trumps are legitimately grounded despite their money. Don Jr especially seems to be very self aware that he has money but also doesn’t give a fuck is he needs to sleep in a couch during campaign tours.",fie2yn9,gen_xe,4qow40ch
This is why I love cats 😁,Donald303,15gxva,fiddwee,This is why I love dogs.,ficdpw3,EndStorm,iz090
"Have a cat that does the same... arthritis in her bum & joints, but w/moderate pain meds, she gets along just fine :)",Donald303,15gxva,fiddp96,That is a GLORIOUS bully in the back!! Mine sits side saddle too.,ficupxf,BaconAndBooze,97by37u
"Good lord, me too!",Donald303,15gxva,fibbtp0,Omg thank you I was struggling to work this picture tf out,fialygl,DarkPanda555,13c798
Keanu? Is that you?,Donald303,15gxva,fiasxsf,You're breathtaking!,fi9s69f,mispeleed_username,1m8g8hdi
Omg I love you guys,Donald303,15gxva,fiame27,Perdue! Pompeo! Steve Mnuchin! Baaaaarr!,fiam1yh,Thanatos2996,16gfi6
"Yeah... I was hoping her 15 minutes were up, but she's back again :/",Donald303,15gxva,fi9m9st,"She’s a bitch. Doesn’t deserve to be assaulted by a mob of NPCs, but she definitely should not be representing the 2A community. She’s a clown with no self awareness.",fi965xz,Kiiboisbestboi,snegnnx
I'm doing my part! :),Donald303,15gxva,fi76clc,We need to take Colorado back from the California fleers.,fi6zc9a,MarkCStevens,116pdj
As someone wisely posted... He's Hillary in this scenario ;),Donald303,15gxva,fi768ci,Tonya wasn't the bad guy in this story as much as her dick of a husband (ex?) was,fi715z8,Cygnus_X,5etj2
Ha! A real life Vermeer!,Donald303,15gxva,fi6cld6,What a beautiful bunch of kitties! This looks like it could be a painting lol,fi6asez,invaderpenguin,hnlwi
Bonus beans!,Donald303,15gxva,fi6cguu,"Toe
 #*B E A N S*",fi6c22k,Oofnatiam,40zzbqj2
Have you seen a bunny yawn?,Donald303,15gxva,fi6c6mx,I have but still fascinated when i see a kitty sneezing,fi68rza,BestoryAnivia,11giwa8g
((hugs)),Donald303,15gxva,fi6c2n7,This subreddit is helping me through the worst time in my life. Milo looks wonderful. Tysm ❤️,fi5yhan,seanoggin,10s5lmj2
They're both perfect!,Donald303,15gxva,fi6awnn,"Oh my gosh Mango is adorable! Pekka has fallen asleep with his mouth hanging open, but he hasn’t started to sprawl like Mango yet.",fi5li1r,MizNoThanks,4n852pvb
Someone should really call Dirk Gently.,Donald303,15gxva,fi6aox2,Your cat is merely experimenting with Quantum mechanics this is perfectly normal for a cat just make sure that all the smoke detectors are out of reach or he will use them to make a dirty bomb.,fi413b7,LordOfSox,2n60s4yv
"""WHAT a dog""",Donald303,15gxva,fi69tdm,"You see, Pidge, when you're footloose and collar-free, you take nothing but the best!",fi5u4j7,drkidkill,35bm3mjm
I'm sure we're all on a list for being on here ((eye roll)),Donald303,15gxva,fi695an,So the FBI investigates people based on the videos they watch?  Interesting.,fi5bq7c,from_the_dont,11k2na
It cracks me up when it's triggered when someone mentions Kubrick ;),Donald303,15gxva,fi68xhi,LMAO Jesus fuck for the first time I’m not 100% happy to see this bot,fi647yg,alexzang,9o0kk
Those are some dreamy eyes!,Donald303,15gxva,fi5f7pt,"His eyes are just gorgeous (as is everything in this pic, but his eyes stood out to me).",fi49ano,karmagirl314,y7gz9
That would be a great dog name!,Donald303,15gxva,fi5f11z,"Hehe, grog.",fi45tjr,scoutarooni,40k1x7oj
Sublimation at its best!,Donald303,15gxva,fi5egig,Cats being a liquid at room temperatures are thusly quite easy to boil into a gas as we see here. The properties of gasious cats are best left undiscribed.,fi4k3nr,atlusblue,65mne
Thanks for posting this!,Donald303,15gxva,fi5bmke,"[since you won’t see them on MSM; here are some of President Trump’s accomplishments, enjoy](http://promiseskept.com) welcome on board the Trump train, we are glad to have you with us to KAG!",fi4ttot,Jackpotsevens,smcgp7x
Love this reply :) Max... I get the movie reference ;),Donald303,15gxva,fi2xybl,"No, but ""for better or worse in sickness and health"" to me means I would happily be her eyes for her.",fi2w4ia,unidentifiedsubob,j072u
😁👌,Donald303,15gxva,fi2xe8k,Orange cat good,fi2izty,Moonwalker917,8tuq4
Ooo so much niceness on reddit! Love to see that :),Donald303,15gxva,fi2x9ya,Your all good man,fi2e88l,___EEEEEEE___,3hpktyq4
He can now pee on the happy little trees.,Donald303,15gxva,fi0pxz7,"This would be appropriate for Bob Ross to come back as a happy doggo. If any of us deserve such a reward, it'd be him.",fi0fxof,JustAFrontDeskJockey,szhiz
