child_body,child_screen_name,child_user_id,child_tweet_id,parent_body,parent_tweet_id,parent_screen_name,parent_user_id
"You can't enter banned communities.  We're talking about subs here that aren't banned or quarantined by the admins but later get banned by the admins because they think it's ""ban evasion"" of another banned or quarantined subreddit.

It's bad enough to ban disconnected communities for being similar to previously censored subs, but to ban the users as well is rather harsh as it effectively expects that all users should know about any and all subs reddit has ever banned before participating in a community.",FreeSpeechWarrior,1ww3fe,fkkxd1c,"Error. Nazi found. The point of the argument is invalid.

Also, you are given notice the moment you enter into a banned or quarantine community. You cannot claim ignorance. A list is not required.",fkklanz,Linux-Is-Best,50aq8oru
"Reddit bans communities for evading quarantines as well, for example r/Mr_Trump",FreeSpeechWarrior,1ww3fe,fkkuxjm,"Chapo1 hasn't been banned, just quarantined. They probably should be banned though, since they continue to break site wide rules.",fkk7a4u,tehbored,36oxw
They weren't at the time of posting.,FreeSpeechWarrior,1ww3fe,fkkuos0,3/5 of the comments linked in that sub have actually already been taken down,fkk1ri7,AndemanMan,2ra4ubsn
"Not sure exactly what you mean by this?

But in general the idea is you report a sitewide rule violation, get a response about it, and then see the content is still up.",FreeSpeechWarrior,1ww3fe,fkj5vzq,"Honest question is there a way to track ""allowed""?  

Apparently the story is they are shadow banning people, demodding subs and then banning the sub claiming its unmoderated",fkj5t76,UOLZEPHYR,13x5gv
"Hulk angry, Hulk SMASH",FreeSpeechWarrior,1ww3fe,fkgprxf,No but you can turn into hulk mod with a green bling bling anytime  you wish to (just like the previous comment by u/FreeSpeechWarrior),fkgpo9g,AndroidMasterZ,169emw
Minecraft has books last I played.  This project makes me want to update my install and set up a VR mod and explore the library.,FreeSpeechWarrior,1ww3fe,fkg5kd3,"lowkey kinda neat, does it use a mod like computercraft? Hows the info stored",fkg3f02,Gondor128,ea2ql
"> I’m confident that Reddit could sway elections. r/WeWouldntDoIt, of course. And I don’t know how many times we could get away with it. But, if we really wanted to, I’m sure Reddit could have swayed at least this election, this once.
>
> — Reddit CEO",FreeSpeechWarrior,1ww3fe,fkg45bw,"It’s because the election is around the corner. Their efforts in 2016 were not enough, they need absolute control of all dissenting subreddits to manipulate and shape the opinions of people.",fkg3y7y,Barrack-HusseinObama,2h5zvw8a
"No, you get criticized for trying to enforce r/HiddenPolicy that reddit refuses to delineate in a vain attempt to prevent your subreddit from getting banned only to have the admins ban it for no reason instead.",FreeSpeechWarrior,1ww3fe,fkg42z7,"What's it like being a Mod?  

Do flakes of gold snow fall before me when I venture outside?",fkg3y1w,asianabsinthe,3sgqmne2
"Would you like to mod here?

If Reddit's gonna pull shit like this we could use more mods.",FreeSpeechWarrior,1ww3fe,fkg2egp,"/r/RedditHasCancer banned.  Look at the reason.  ""Unmoderated.""  I was a fucking mod.

Admins just made it perfectly clear that you can follow all of their rules and comply with all of their silly demands all you want, and they will just fucking ban you or your community with no warning, for whatever reason they want.

There is literally no fucking point in trying to comply.  Any subreddit could be next.

Remember a few years ago when they promised they were only going to ban the *really* nasty subs, just the neonazis and racists, stuff like that?  Yeah, that's all bullshit.  They lied.  They were just planning on easing into this new normal very slowly.  Now scores of subreddits are banned every week for reasons that aren't even explained.

Good luck out there, folks.  The good-old-days of the internet are *over.*  Welcome to 1984, and remember, Big Brother is watching 👀",fkfxm34,Dumpscape,36dy9s2f
Perhaps he'll come back as u/IkkiIkkiPtangZoopBoing?,FreeSpeechWarrior,1ww3fe,fkg1vdp,Account has since been suspended :(,fkg0j61,FutureMike999,5kun1lfv
"> I’m confident that Reddit could sway elections. r/WeWouldntDoIt, of course. And I don’t know how many times we could get away with it. But, if we really wanted to, I’m sure Reddit could have swayed at least this election, this once.
>
> — Reddit CEO",FreeSpeechWarrior,1ww3fe,fkfk2yr,"Reddit admins protect their candidate of choice via election meddling.

Nobody is surprised, they are doing whatever they can to push China's will.",fkexujf,TerpenoidTester,3p39xb5u
BTW I have confirmed that links to joebiden.info are hard blocked by reddit and can't even be approved by moderators.,FreeSpeechWarrior,1ww3fe,fkervm2, Anti-Evil Operations team is such a misnomer lol,fkerqoz,FirstCatchOfTheDay,9e8pk
"Not sure.

It's not just that though, they also nuked a zerohedge article on r/conspiracy and this post to r/conservative:

https://new.reddit.com/r/conservatives/comments/ff60v5/a_confused_joe_biden_says_we_can_only_reelect/

Which was the impetus for me creating this subreddit, things are getting blatant.",FreeSpeechWarrior,1ww3fe,fkerjjj,is joebiden.info the site in question?,fker3r7,FirstCatchOfTheDay,9e8pk
"They've already started using softer measures to suppress our sub:

https://www.reddit.com/r/ModSupport/comments/d0k2ju/our_community_was_previously_ranked_37th_in_top/

We've drastically altered our moderation in response to these threats, but there is no way to appeal this action, r/ModSupport has banned me, and u/redtaboo refuses to further discuss the issue.",FreeSpeechWarrior,1ww3fe,fkeolx9,"pretty likely, but i think that WRD is slowly getting so big that reddit would have to deal with some sort of backlash from the community. at the very least it would be extremely ironic to ban that sub. it would be like censoring and banning a free speech movement somewhere in real life. but then again reddit really doesnt give a shit anymore so whatever happens absolutely wont surprise me.",fkei8rc,Maltures,p81jr
https://www.reddit.com/r/WeWouldntDoIt/comments/fi1w9t/how_to_spread_the_word_and_raise_awareness/,FreeSpeechWarrior,1ww3fe,fkenstt,"r/WeWouldntDoIt

Edit: Reddit, Inc has a hard block on joebiden.info. It's a parody site with several disclaimers saying as much. If I put the link as a hyperlink, it won't show and I can't approve it. This is blatant election Interference.

(Also, let's put it out there on the record: My horse in the race was Buttigieg, but I've thrown my (unenthusiastic) support behind Biden now.)",fkeni8g,ThomasJeffersonMod,46u45882
"> I’m confident that Reddit could sway elections. r/WeWouldntDoIt, of course. And I don’t know how many times we could get away with it. But, if we really wanted to, I’m sure Reddit could have swayed at least this election, this once.
>
> — Reddit CEO",FreeSpeechWarrior,1ww3fe,fkekfrw,"I'll make one soon. There have been some other really dumb anti-evil removals as of late, but this one really does take the cake (unless I'm missing something here!).",fkdh9sn,axolotl_peyotl,489lm
"If you use https://old.reddit.com/r/The_Donald/comments/f7ai4e/sjw_diversity_hiring_strikes_again/ you can opt in without email.

But it doesn't show any indication that ""Anti-Evil Operations"" censored the post, which is why I use the https://new.reddit.com/r/The_Donald/comments/f7ai4e/sjw_diversity_hiring_strikes_again/ link",FreeSpeechWarrior,1ww3fe,fkcklof,"when i click this post to view its content it says it is quarantined. but sometimes i can view a quarantined sub by clicking ""yes continue"" or w/e

this one demands i verify my email or hit ""no thank you"" there is no option to continue

why do some subs offer a verify email and some offer a ""yes continue""?",fkcizaw,wideweb11,5wz14gbd
"That’s an assumption a leftist will make seeing this, but the right wing argument against diversity hiring isn’t as simple/racist/dumb as that.

It’s that prioritizing diversity over competence leads to less competence, not that minorities are bad.",FreeSpeechWarrior,1ww3fe,fkb706f,"i think it'd be more productive if they linked the actual reason why things were failing instead of just implying ""all nonwhite workers bad.""",fkb1jj5,TheBindingOfMySack,11bkse
"A user ping of spez asking him to “Announce the actual content policy”, but what likely did it in was suggesting he and his “Orwellian bullshit” should be fornicated.",FreeSpeechWarrior,1ww3fe,fka6sqb,what was it,fka0ykk,DevWolf59,o415o
"Yes, it's unlikely we're ever gonna have any proof either way on this, and as a mod team we honestly don't give a shit who it is we just want it to stop.",FreeSpeechWarrior,1ww3fe,fk9ytcb,u/freespeechwarrior is it still “unconfirmed” that it’s AHS you fucking shill?,fk9yr1l,dingusdongusbongus,1xi8pclt
"Reddit doesn’t care enough about our privacy to use end to end encryption to begin with.  It should have little to no effect on Reddit.

The “EARN IT” act is piggybacking on techlash to try to end the privacy protecting practice of end to end encryption.",FreeSpeechWarrior,1ww3fe,fk9ag5k,"What's your take on what reddit admin might do if this stupid ""EARN IT"" bill proposal by Lindsey Graham were to become law? I mean ending end to end encryption and giving Barr's DoJ one of the last pieces of the total citizen surveillance network him and the feds have been building for 40+ years and how they could use the data files to bring investigations on users would change how this platform works?",fk892rd,Liquor_N_Whorez,1w9stjj6
"I used to be a shitposter like you, but then I took a shadowban in the knee.",FreeSpeechWarrior,1ww3fe,fk8tzl6,"u/FreeSpeechWarrior Wait, I Know you, You have committed crimes against Freespeech and her people, what say you in your defense?",fk8qahc,Zonewaver,37kobcgq
"Both sides are making the mistake of assigning the qualities of specific individuals to entire groups here.  It's collectivist nonsense.

One asshole faked a post here, and the mod team here banned them and publicly called them out on it once it was shown to be the case.  This doesn't condemn all the participants here.

Even if it is an actual AHS user creating throwaways to sow chaos in WRD (which I doubt) it doesn't condemn your entire community either.

It may well be the same individual in all of these cases.  The actions of individuals cannot be extrapolated to the behavior of entire groups.",FreeSpeechWarrior,1ww3fe,fk80yu0,Remember the time you guys tried and failed to frame that topminds mod? AHS is going to win. Your pathetic false-flag attempts are only going to get you burned in the end.  I look forward to reading your temper tantrums as your users continue to be banned for their poor behavior.,fk7vwyc,ButtViper,jtqha
"Not sure, approved and I'll have our automod expert look into it.",FreeSpeechWarrior,1ww3fe,fk8033s,u/freespeechwarrior which word is banned?,fk800ho,carpathian_florist,5e4yqlp5
"> I’m confident that Reddit could sway elections. We wouldn’t do it, of course. And I don’t know how many times we could get away with it. But, if we really wanted to, I’m sure Reddit could have swayed at least this election, this once.
>
> — Spez",FreeSpeechWarrior,1ww3fe,fk5kj5q,"Spez, this is blatant election interference. If you cared one tiny shred about a fair democracy you would open T_D back up RIGHT NOW. 

But we all know you don’t care about fair elections.",fk51ebp,BrickHardcheese,4z691
"AHS having detestable opinions (a desire for censorship) alone is not enough to kill reddit.

Reddit policy giving in to those whiners and changing/enforcing policy to placate them is.",FreeSpeechWarrior,1ww3fe,fk4zejg,"No!

I am tired of being abused. Insulted. Slandered. 

Is this also not why Reddit is dying? Because this group is allowed to behave !Ike this and everyone else gets to eat dirt?",fk4z01l,ThatCoconut,9mdd8vk
This same line of reasoning is used to attack and censor r/The_Donald and other right wing communities.  It should be rejected.,FreeSpeechWarrior,1ww3fe,fk4yj3x,"AHS has radicalized their users into thinking they are on some holy mission to fight imaginary NaZiS.

Now that their radicalized users act up again they are supposed to get a pass?

No.",fk4ydd8,ThatCoconut,9mdd8vk
"Anyone can say they support whatever whether they believe it or not in an attempt to associate heinous acts with a disfavored group.

Just like r/HateCrimeHoaxes",FreeSpeechWarrior,1ww3fe,fk4xxfl,"What more evidence do you need? We have solid proof that allies and users of ahs posted this. Their post history is littered with ahs supportive messages and the were active in ahs, by defenition an ahs user and supporter, the same account posted cp, so by extension ahs users and/or supporters are posting cp on subs ahs doesnt like, that is irrefuteable.",fk4xptt,Ftang_5,3yjzb45x
"No, that behavior is also consistent with someone intentionally trying to place the blame on AHS.

The bottom line is individuals are responsible for their own soul, even if these scumbags *are* members of AHS it doesn’t condemn their community any more than the minority of Nazis who follow WRD should condemn our community.

There is plenty to dislike about AHS’s censorious tendencies and report brigading, but attempting to tie them to these attacks isn’t going to do any good for anyone.",FreeSpeechWarrior,1ww3fe,fk4x3f4,"I have screenshots of pm's from 2 raiders saying they want wrd banned and they are about to go hit chungus lovers club, sure enough they did. Would the screen shots of pm's be proof?

The evidence is piling up, 4 now defunct pedoccounts which posted cp to subs ahs is known to hate and also encouraged ahs users.
2 accounts with usernames almost identical if not the same as frequent ahs users
2 raiders pm'ing me both then attacking subs ahs hates.
We have screen shots of the post history of 3 of the  4 defunked pedoccounts showing coorsion with ahs and hitting anti ahs subs with cp


I think we can begin to draw some conclusions here....",fk4wq68,Ftang_5,3yjzb45x
That was an imposter account. with an capital I instead of the lower case L,FreeSpeechWarrior,1ww3fe,fk4ijug,"There was a screenahot of removed posts, i recognised a frequent ahs user, who is now banned called disgruntledeageslave",fk3dl02,Ftang_5,3yjzb45x
"I do check modmail and just checked again, we got no notification of this.",FreeSpeechWarrior,1ww3fe,fk4cdd4,"~~/-Ph03niX- is a mod (with no other permissions but to view the log)~~

You mustn't check modmail often, I left on my own accord a couple days ago. I'll have no parts of what you willingly foster over there.",fk3fjwu,-Ph03niX-,19odvs9j
"Guilt by association is not something I believe in, a single AHS user pulling this stunt doesn’t condemn their subreddit or users any more than the literal nazis that participate here are reflective of all our users.",FreeSpeechWarrior,1ww3fe,fk38qsr,We atleast have proof he aligns with ahs users and is aiding them. Thats pretty decent evidence to make a connection.,fk38gnd,Ftang_5,3yjzb45x
Still not definite.,FreeSpeechWarrior,1ww3fe,fk38cth,He has posted to ahs supporting them and telling them about where he hit with cp,fk38asg,Ftang_5,3yjzb45x
That’s not proof and it’s pretty flimsy as evidence,FreeSpeechWarrior,1ww3fe,fk389d9,Also he has said he's from ahs. We have proof now,fk37z6m,Ftang_5,3yjzb45x
"Already did (as did many users)

Admins seem backlogged, probably too busy dealing with the incredibly broad and subjective content policy they’ve crafted to efficiently snuff out this sort of thing.",FreeSpeechWarrior,1ww3fe,fk37x9t,"The user name sameaward isnt banned and posted cp. Its still on his profile, report him and ban him pls",fk3789r,Ftang_5,3yjzb45x
"He means it's legal depending on the context.

If you have a picture of your own kid in a swimming pool in a bathing suit it's likely legal, if someone is posting it with a sexual context/title it likely isn't.

That's the sort of shit these lowlifes are spamming here (from the thumbnails anyway, no way I'm opening that to investigate further)

The account has been banned by us, keep reporting if you see it.",FreeSpeechWarrior,1ww3fe,fk35gqh,*Legal* kiddie porn? **LEGAL** kiddie porn? EXCUSE ME!? WHEN WAS THERE ANYTHING LEGAL ABOUT KIDD-oooooo wait I forgot about furries drawing cub porn but STILL...WTF,fk33er9,WolfsuMidNightWolf,3w8k05p3
"u/-Ph03niX-

So you have the time to make 15 comments on this one post but not respond to this single comment?",FreeSpeechWarrior,1ww3fe,fk2yy0y,"You have access to the ModLog of our subreddit and should be able to confirm that these posts have occurred in our sub and are getting removed:

https://www.reddit.com/r/WatchRedditDie/about/log/?type=removelink

Some people are making the claim that we are entirely making this up and that’s not the case at all.

It’s true that we have no evidence of what if any communities these throwaways are associated with, but it’s also true that our mods are not leveling accusations at anyone.

Even if this individual were associated with AHS it would not condemn that entire subreddit IMO, I do not believe in collective punishment or guilt by association.",fk1b4e2,FreeSpeechWarrior,1ww3fe
"> Both the government and private companies can censor stuff. But private companies are a little bit scarier. They have no constitution to answer to. They’re not elected. They have no constituents or voters. All of the protections we’ve built up to protect against government tyranny don’t exist for corporate tyranny.
>
> Is the internet going to stay free? Are private companies going to censor [the] websites I visit, or charge more to visit certain websites? Is the government going to force us to not visit certain websites? And when I visit these websites, are they going to constrain what I can say, to only let me say certain types of things, or steer me to certain types of pages? All of those are battles that we’ve won so far, and we’ve been very lucky to win them. But we could quite easily lose, so we need to stay vigilant.
>
> — Aaron Swartz (co-founder of Reddit)

https://streamable.com/ny568",FreeSpeechWarrior,1ww3fe,fk262jr,">I think all censorship should be deplored. My position is that bits are not a bug

>That we should create communications technologies that allow people to send whatever they like to each other.

>And when people put their thumbs on the scale and try to say what can and can’t be sent,

>we should fight back - both politically through protest and technologically through software

**— Aaron Swartz (1986 - 2013)**",fk1piww,tigeer,z5ald
"You have access to the ModLog of our subreddit and should be able to confirm that these posts have occurred in our sub and are getting removed:

https://www.reddit.com/r/WatchRedditDie/about/log/?type=removelink

Some people are making the claim that we are entirely making this up and that’s not the case at all.

It’s true that we have no evidence of what if any communities these throwaways are associated with, but it’s also true that our mods are not leveling accusations at anyone.

Even if this individual were associated with AHS it would not condemn that entire subreddit IMO, I do not believe in collective punishment or guilt by association.",FreeSpeechWarrior,1ww3fe,fk1b4e2,"> No. Hate subs like WRD don't just call you a pedophile, [they make up fake evidence in an attempt to ruin your life.](https://www.reddit.com/r/AgainstHateSubreddits/comments/ffd3py/no_users_are_not_conspiring_to_post_illegal/fjxvnkl/)

> > To be fair, once it was revealed the guy had forged it all, mod quickly banned him permanently

> > > There is no ""being fair"". Freespeechwarrior used this opportunity to extort TMOR into modding him so he could violate our sub's privacy under the guise of verifying that an obviously fake screenshot was fake.
> > > 
> > > This ridiculously fake screenshot managed to incite a bunch of vicious morons into harassing the TMOR mod team with pedophile allegations for months. How the same people who refuse to take the bile and vitriol of hate subs seriously manage to take a single screenshot as an admission of guilt beggars belief.

https://www.reddit.com/r/SubredditDrama/comments/ffip3b/rwatchredditdie_claims_users_from/fjz0txf/",fk0no7y,-Ph03niX-,19odvs9j
Yes and Biden is also in his 70's,FreeSpeechWarrior,1ww3fe,fjzvpno,Keep in mind Bernie is literally almost 80,fjzuolw,StopTryingHard,5v7x46et
Not if you limit your targets to government facilities.,FreeSpeechWarrior,1ww3fe,fjzs6vh,that isnt cool Andrew Yang. Theft is a violation of the NAP,fjy6axb,daily_dose_of_fiber,yuuilzi
And they are welcome to post here despite them denying me that courtesy in their own sub.,FreeSpeechWarrior,1ww3fe,fjzjk2l,The user you’re replying to is an AHS mod.,fjzj44h,Wheream_I,49e77
"That's their opinion, and they are welcome to it.

It does seem to have been a pattern/correlation, but nobody can really say for sure (other than Reddit) if there is a causal link and I myself doubt that there is.",FreeSpeechWarrior,1ww3fe,fjzg1la,"According to users here, these attacks have been employed many times and the targets have been all but defenseless against it.",fjzfwlz,ButtViper,jtqha
"We've had this in place since yesterday but would prefer not to as it is a form of censorship.

Posts removed this way get an automated message informing the user of what's happening and suggest they contact us for approval.",FreeSpeechWarrior,1ww3fe,fjzfj2j,"Its something that literally any well modded sub does, but im sure this one has avoided because muh censorship",fjz7jwt,DubTeeDub,3c96t
">  if this is such an effective and foolproof tactic

We've never suggested that it is, only that it is happening.",FreeSpeechWarrior,1ww3fe,fjzfckq,"So why isn't this sub banned yet then? if this is such an effective and foolproof tactic, this sub should be banned now.",fjzez3u,ButtViper,jtqha
"We will remove any content that includes the images or usernames that have not been permanently suspended.

If you have screenshots of the titles and censor usernames that reddit hasn't banned those will be allowed.",FreeSpeechWarrior,1ww3fe,fjz0743,A lot of people claiming that we should provide evidence that the cp was posted here. How could users actually post such evidence without jeopardizing this sub or their account?,fjyxlw1,Terror-Error,17by7l
"IDK, you’ll have to message the mods there.

It was open yesterday and the sidebar claimed that the name was just a parody of r/AgainstMensRights other than that I really know nothing about it.",FreeSpeechWarrior,1ww3fe,fjyf5sv,How do we get an invite?,fjyevbh,Relwof_,47alzwai
"I’ve approved the comment, and I’m not sure offhand why automod nuked it but I’ll have our automod expert look into it.",FreeSpeechWarrior,1ww3fe,fjyersv,"can't make heads nor tails about what could have triggered it on 2 of my recent comments

https://www.reddit.com/r/WatchRedditDie/comments/ffazrp/ragainstwomensrights_gets_created_and_is_banned/fjy95k8/?context=3",fjye0ro,throwaway_XXXX2,3fpv7867
Not sure what you mean by this.  If something is filtered here automod will reply when it censors the comment.,FreeSpeechWarrior,1ww3fe,fjydlk9,is \\* filtered?,fjydfot,throwaway_XXXX2,3fpv7867
"For reference the other quote I mention is from Reddit’s former rule page:

https://archive.is/6oKPc

And reddit still claims to be “pro-free speech” on active help documents:

https://www.reddithelp.com/en/categories/rules-reporting/account-and-community-restrictions/posting-someones-private-or-personal",FreeSpeechWarrior,1ww3fe,fjyd9q2,"Ah interesting, I guess there was some disagreement 


https://www.theguardian.com/technology/2015/jul/14/reddit-ceo-free-speech-ellen-pao",fjyd2rc,Rumhorster,2xye9lmv
"Reddit’s co-founder u/kn0thing in an interview with forbes:

https://www.forbes.com/sites/kashmirhill/2012/02/02/reddit-co-founder-alexis-ohanians-rosy-outlook-on-the-future-of-politics/",FreeSpeechWarrior,1ww3fe,fjycwsx,Who purported that Reddit is a bastion of free speech? Just wanna know where that quote is from,fjycqit,Rumhorster,2xye9lmv
We did this yesterday.,FreeSpeechWarrior,1ww3fe,fjybnfp,"Can you implement automod,that removes posts from new users?  I don't want this sub to be brigaded like others",fjybk87,different-opinion_,5q4qwnzb
"Voat is not growing I don’t even think they allow signups at this time.

You’re better off checking out other r/RedditAlternatives",FreeSpeechWarrior,1ww3fe,fjyaqe0,Why not dedicate that energy towards making another site better?  Voat is still growing and getting better by the day.,fjxh7ir,throwawayyinc,3ts3roj5
r/leftwithsharpedge and r/deathtoamerica got banned as well.,FreeSpeechWarrior,1ww3fe,fjy70o6,"The only thing i can think of is the banning of r/liberal_irl because the 1 mod went insane

Otherwise r/FULLCOMMUNISM and r/ChapoTrapHouse are both quarantined which isnt saying much",fjxmf5z,Obama_Brigade,5f06ah16
"K reapproved, thanks.",FreeSpeechWarrior,1ww3fe,fjy6ix2,Done.,fjy6hha,themynameisjeffboy,3wf8dvzo
It’s still quarantined,FreeSpeechWarrior,1ww3fe,fjy40cb,Not entirely true - they briefly quarantined ChapoTrapHouse.,fjy1w68,Schadrach,7a6t1
We will as soon as the over-broad u/reddit-policy returns to sanity.,FreeSpeechWarrior,1ww3fe,fjw6wd7,Ok now fix the fascist automod.,fjw6ak0,keeleon,rxfhm
Yeah 3d printing is a great way to make useful guns without asking permission but it’s not the most efficient way to bulk produce something that’s technically a firearm for the purposes of reclaiming stolen money through tax funded buyback programs.,FreeSpeechWarrior,1ww3fe,fju936s,one guy made a bunch of junk shotguns with basically a pipe screwed to a piece of wood as a stock.,fju8opm,newaccount2019-12,54mzns9i
"Depends on the definition of the buyback.  If they require something that will fire: https://en.wikipedia.org/wiki/Liberator_(gun)

If they require any piece that is regulated you could print glock or hi-point frames but this is a 1-2 day print.",FreeSpeechWarrior,1ww3fe,fjtmp1j,I wonder if you can just use a 3D printer to just print money via the government.,fjt9oed,MasterMorgoth,14sef8
"I see that as letting terrorists win.

Their goal is to shut us down, we’re not going to shut down.",FreeSpeechWarrior,1ww3fe,fjtkwwd,What do you think about setting the sub to private for a few days if they start spamming too much?,fjtkokm,angrytapir,rzgdn
"I’m not aware of any evidence that AHS is involved other than their occasional posts to AHS suggesting they want the sub banned (circumstantial at best).

There has been at least one person posting gore, and images *purporting to be CP* in the title (but not identifiable as such from the thumbnail alone)  and then taunting us in modmail about getting the sub banned when we ban their accounts.

I’m not going to be linking to these posts for obvious reasons, but the admins have been permanently suspending the accounts when we report them.  This is an example permanently banned account (which is also attempting to impersonate a moderator here):

https://www.reddit.com/user/Sam-Spade6

IMO the images being posted are most likely not actually CP but the titles claim they are to further weaponize the posts.",FreeSpeechWarrior,1ww3fe,fjth1oe,"Any proof, any at all, of this alleged conspiracy? I see this claim made constantly, but nobody ever has any proof at all. Not one screenshot, not even any personal anecdotes about seeing this alleged CP posted by AHS. (Not that personal anecdotes are actual proof, but they'd be slightly more believable than the constant ""Well I heard that..."".)",fjsyw2s,kittybikes47,339me7oa
Sounds like a plausible explanation to me.  Shit is getting pretty crazy.,FreeSpeechWarrior,1ww3fe,fjtff9i,"This had nothing to do with alts. I got banned even though I only use one account (until now). I was simply subscribed to r/coomers. The ban message only mentions alternative accounts because joining a subreddit isn't against the Reddit TOS so they had to select another reason from the drop-down menu to suspend our accounts and slapped on a note that they were actually banning us for being active in a community.

&#x200B;

CC u/freespeechwarrior",fjtf7m7,Im_banned4nothin,5vfi9ol5
"https://www.youtube.com/watch?v=CYOtSyrdzvQ

https://www.youtube.com/watch?v=N6uVV2Dcqt0",FreeSpeechWarrior,1ww3fe,fjt66ud,"E-fucking-xactly

Can't worship two gods from two different religions at once.

And yes, for authleftists, statism is a religion.",fjruc11,Incog_Niko,46lt5677
"Neither does the poster of this meme.

We believe corporations/individuals should have the right to control their own property however they see fit.  That doesn't mean we are never critical of those decisions.

Compare it to the example of not baking cakes for gays or excluding minorities from restaurants.

We don't think the government should force the issue but many of us (myself included) would be highly critical of businesses that behave this way and would make the personal choice to boycott them.

Supporting freedom doesn't mean supporting every choice, it means supporting having a choice.  Forced morality is not morality, and the power that accumulates when doing so is incredibly dangerous.",FreeSpeechWarrior,1ww3fe,fjt2nkb,Oh libright. Other than your whole capitalism deal I have no idea what your actual deal is.,fjq3yub,Yipper46,48j0a5ho
"This is a great community one of the few left in reddit that allows for true discussion between those of different beliefs.

But I’m conflicted about participating here.

https://www.reddit.com/r/WatchRedditDie/comments/fen4pc/please_explain_the_rational_behind_using_reddit/fjp5q2o/?context=3",FreeSpeechWarrior,1ww3fe,fjt14nj,"Oh man that's a long story. So I've had issues with unironic violent rhetoric ever since the rise of the Q cult on Reddit. I mentioned once that I was thinking about contacting the FBI about some threats to kill people I was seeing from Qultists and one of the people behind the Qanon account tried to leverage r/cbts_stream (the first Qanon sub on Reddit) and 8chan to dox and go after me. That failed thankfully, but it set me on the path to joining AHS in order to get subs that were violent banned. I was a very active member and eventually became a mod.

The first major breakdown was when I posted violent content from r/chapotraphouse and got attacked for it. Getting called a Nazi for condemning violent rhetoric from some of the same people that were attacking TD for it was an eye opening experience.

The second was while I was helping run a sub called r/stopadvertising. The idea was to target Reddit's advertisers in order to create pressure to get violent subs banned. We were targeting TD pretty heavily and one of the TD mods asked to join our discord. We agreed and he was just the nicest motherfucker you could imagine. I ended up becoming friends with him even though I was trying to get his sub banned.

The last straw was the whole r/thebanout2018 thing. The fallout from that, specifically the Q subs getting banned, was the opposite of the goal. The Qultists fled Reddit for Voat, where they got **much** worse, since they were no longer interacting with normal people and only interacting with the dregs of Voat. The mde style subreddit subscribers all fled to other subs and turned them to shit.

Add all that to the increasing tendency of AHS to target more and more innocuous subs, my discovery and participating in r/drama (a centrist sub  like here where I was eventually made a mod because of all the drama around r/thebanout2018), and my friendships with more and more right wing people, and I just couldn't be part of AHS anymore so I quit.

There's more and I'm skipping over a lot of details but this is already a novel lol

\*Oh and a special shout-out to u/freespeechwarrior for convincing me off the importance of free speech even if it's speech I don't agree with. If you're not already active here buddy, you should be",fjslh1x,The_Homocracy,5qy0diqa
"OP is not a mod here.

> I see this conspiracy assblasted all over the place, but there's not a single bit of evidence to support it. 

Agreed, I’d like to see more evidence for this claim.",FreeSpeechWarrior,1ww3fe,fjpzu6c,"The bodymessage for this post is literally: ""AHS is trying to get this sub taken down it seems.""

If you feel the need to warn the sub of this apparent raid, why not make your mod post about it? 

Why would AHS need to post cp to get subs banned when they get banned regardless of whether or not they have cp? I see this conspiracy assblasted all over the place, but there's not a single bit of evidence to support it. It just doesn't make sense.",fjpzcxv,advantone,23s66zvd
"I don’t think AHS is coordinating this myself.

Worst case is that some users radicalized by communities like AHS have taken it upon themselves to do this.",FreeSpeechWarrior,1ww3fe,fjpz45p,Where's the evidence that it's from AHS? Facts should come before feels.,fjpyyxb,advantone,23s66zvd
"> If there are zero subreddits for the Trump campaign because they're all banned, Reddit would not be classified as a distributor but rather as a publisher and liable for any content published

This is incorrect.

Section 230 makes no requirement for service providers to be unbiased or transparent to receive immunity from civil liability.

https://www.law.cornell.edu/uscode/text/47/230

spez and co have a legal right to censor whatever they feel like on their platform, and there is no mechanism in law for their censorship of others to turn them into a publisher of information liable for the content they do allow. (With some [possible exceptions relating to the DMCA and the specifics of moderation](http://cyberlaw.stanford.edu/blog/2017/04/bad-news-livejournal-bad-news-dmca-safe-harbors-post-1-3))

Section 230 makes no provisions for *criminal* liability, and to the extent that Reddit's biased censorship rises to the level of illegal in-kind campaign contributions or other illegal forms of political interference the oft-cited Section 230 offers no protection at all.

But I don't think you can get at Reddit this way either though, as such contributions typically must be directed in support of specific candidates to run afoul of elections law (This is why you see so many attack ads funded by third parties that don't support any specific candidate)

That said, as a matter of public opinion, I do think that the more Reddit censors the more responsible it can be said for the content that is allowed to remain; and that it is unconscionable for Reddit to claim to be a neutral content provider while heavily censoring content in often biased ways.  Reddit's behavior here is despicable especially compared to their historical statements and framing of the site.

tl;dr Reddit is deceptive, politically biased and scorn-worthy but still likely in full compliance with the law on these matters.  If you think there should be a legal remedy for this unconscionable behavior your only hope is that Reddit's increasingly blatant content manipulation drives legislators to change the law.",FreeSpeechWarrior,1ww3fe,fjpqoep,"Exactly. If there are zero subreddits for the Trump campaign because they're all banned, Reddit would not be classified as a distributor but rather as a publisher and liable for any content published : https://en.m.wikipedia.org/wiki/Section_230_of_the_Communications_Decency_Act

It would also be election interference since the Chinese Tencent owns a big part of Reddit https://en.m.wikipedia.org/wiki/Section_230_of_the_Communications_Decency_Act",fjowfd6,article10ECHR,nuvpg
[Not always](https://www.reddit.com/r/reclassified/comments/7jhxay/rhawtschwitz_the_sub_for_posting_pictures_of_hot/),FreeSpeechWarrior,1ww3fe,fjpqkj5,"Hey, as long as genocide and racial supremacy is a *fetish*, it’s alright.",fjntu4u,R483,41yu2ew6
"As you may have noticed, you’re welcome to complain about our mods here, we don’t censor that either.",FreeSpeechWarrior,1ww3fe,fjpk51o,*You are one of the people we have a problem with.*,fjpk1wy,MichaelEuteneuer,11qfjj
"Not according to the one entity that matters for the purposes of this discussion.

The supreme court overturned the speakers conviction and ruled the law he was charged under unconstitutional.  It is considered protected speech.",FreeSpeechWarrior,1ww3fe,fjpfh7q,And I just proved they are imminent lawless action.,fjpfel7,ewolfg1,ei6i8
"Yes, we are reading the statement about LBJ the same way, what you are failing to recognize is that the Supreme Court explicitly approved those statements and said they were protected speech, not rising to the level of “imminent lawless action”",FreeSpeechWarrior,1ww3fe,fjpe95f,Are we reading the same words here? Watts very clearly stated he would at the very least threaten if not kill the President if Watts was made to carry a rifle. Since making him carry a rifle isn't a crime it would be illegal for him to kill the President. That's at the very least terroristic threat. He is by the very nature of his words inciting lawless action and whether or not it's imminent is entirely based on whether or not his name just got pulled on the draft but it's still inciting violence because he is encouraging those whose name's did just get pulled on the draft to do that very action. That is very imminent lawless action.,fjpdn8u,ewolfg1,ei6i8
"That’s simply not true.

https://en.wikipedia.org/wiki/Imminent_lawless_action

It is true to the extent that the speech is directed at and likely to incite “imminent lawless action”",FreeSpeechWarrior,1ww3fe,fjpbxwt,"> violent rhetoric

...is never allowed under US free speech laws. Inciting violence is a crime and violent rhetoric is inciting violence. Getting the authorities to prosecute is another matter entirely, but make no mistake those are crimes. It was no different during WW1 when people were imprisoned for speaking out against the war. The Supreme Court ruled back then that it was legal to imprison them as well but the law does in fact actually allow everything those people said. Watts got away with it because those justices were ok with him making those remarks not because the law actually allows it. It's the same with abortion, it's ""legal"" only in the sense that the Supreme Court ruled it to be ok to murder children. The law still says murder is a crime.",fjpbqxs,ewolfg1,ei6i8
"What is legal/illegal when it comes to speech in the US is widely misunderstood.

Most of the violent rhetoric and edgy memes of the right that Reddit has censored is protected speech in the US, and this is also true of the violent rhetoric from the left that is allowed to remain.

https://www.mtsu.edu/first-amendment/article/707/watts-v-united-states

https://www2.law.ucla.edu/volokh/rothman.htm

Some examples of statements that have been determined to be legal in the US:

> They always holler at us to get an education. And now I have already received my draft classification as 1-A and I have got to report for my physical this Monday coming. I am not going. **If they ever make me carry a rifle the first man I want to get in my sights is L.B.J.** . . .They are not going to make me kill my black brothers.

...

> If we catch any of you going in any of them racist stores, we're gonna break your damn neck.",FreeSpeechWarrior,1ww3fe,fjp8wf3,"Cool. Anytime anyone sees this, skip the admins and go to the FBI. If people want to post illegal content, take legal action.",fjoviby,Bagtot,theuk
The admins just today censored a comment in this community even milder than yours advocating reasonable self defense.,FreeSpeechWarrior,1ww3fe,fjmbluq,Yeah we wouldn't want to protect ourselves would we,fjlyi2r,RedditNormieIdiot,5gshoi6t
"I'm not talking about rights here.

I think it's desirable to have the option to view all content on even terms without the forceful suppression of a singular authority (Reddit in this case)

I agree, nobody should be forced to listen to any of this, but giving people the option to ignore what they don't want to hear is not the same as Reddit suppressing what they don't want people to hear.",FreeSpeechWarrior,1ww3fe,fjfpnx6,"Just because you have the freedom to speech, doesn't mean you have the right to force people to listen to you. A quarantined sub still allows free speech without putting it in high visibility places like the front page.",fjfn5t4,Quigglypoo,khp4b
"> Subs that encourage others to use and manipulate others are toxic.

It's not just femaledatingstrategy that sees their fellow humans as walking piggy banks.

Every political subreddit does this to varying degrees.  It's not a clear line in the sand.

Reddit should give users the necessary tools to avoid content they have no desire to see, but they should stop censoring legal speech.",FreeSpeechWarrior,1ww3fe,fjfmv5z,"It's not about that. One of their admins has posted that ""men are only good for money"" and they frequently talk about strats to use men like tissue paper or walking piggy banks. Romance is one thing, but If a sub popped up with guys talking about how to take advantage and use women it should be quarantined as well.  Subs that encourage others to use and manipulate others are toxic.",fjfmfpm,Quigglypoo,khp4b
"I don't think it's that simple.  This kills thedonald.win

I think a better approach has to do with truth in advertising.",FreeSpeechWarrior,1ww3fe,fjdoxvo,"I'm all for a company is they only want a specific type of community, however they should lose all aspects of platform protection in order to have them.",fjcxfps,apparently1,2lg1s84e
"https://www.state.gov/huawei-and-its-siblings-the-chinese-tech-giants-national-security-and-foreign-policy-implications/

> Though they may have formally private ownership and operate in the national and in the international marketplace, global Chinese firms – including Huawei – are in key ways not genuinely private companies and do not make decisions entirely for economic and commercial reasons.  Whether de facto or de jure, such giants can in some important respects or for some purposes act as arms of the state – or, more precisely, the Chinese Communist Party, to which the Chinese state apparatus is itself subordinate.

...

> Firms such as Huawei, Tencent, ZTE, Alibaba, and Baidu have no meaningful ability to tell the Chinese Communist Party “no” if officials decide to ask for their assistance",FreeSpeechWarrior,1ww3fe,fjc6lkf,"Apt comparison because reddit, like Hong Kong, is now owned by China.",fjc499w,swohio,4azeq
"Since it was banned:

https://www.reddit.com/r/redditrequest/comments/83xgib/requesting_runcensorednews_banned_subreddit/

March 12, 2018",FreeSpeechWarrior,1ww3fe,fjblca1,"Still at it, eh? How long have you been requesting it now?",fjbl49t,implordofall,ru535
"> me and our policy lead Jessica were like, “Well, doesn’t look like they want to be un-quarantined next week.” 

This same person (Reddit's head of policy) speaking of Trump and his supporters before they joined reddit:

>Given that Trump and the Islamic State are similarly exploiting populist phenomena, it follows that the method to defeat them is also similar. While drone strikes on Trump Tower are probably not coming any time soon, the fact of the matter is that Trump has energized a disaffected constituency of angry, mostly white, lesser-educated people who feel a lack of opportunity and exude a sense that career politicians in Washington not only don’t represent them, but are actively conspiring against their interests.
>
>...
>
> Therefore, rather than sticking our heads in the sand and tut-tutting that Trump and the Islamic State will self-destruct, it is necessary to actively confront both — on the campaign battlefield in the case of Trump, and on the literal battlefield with the Islamic State.
>
>...
>
> the Republican Convention in Cleveland next July might unexpectedly find itself helplessly nominating Caliph — I mean Candidate — Trump, nearly two years to the day after Baghdadi’s declaration of the Caliphate.",FreeSpeechWarrior,1ww3fe,fj8lf0e,"[Months Before His Suicide, Reddit Co-founder Warned Corporations Could Censor the Internet (2013)](https://archive.is/Quqkv)

*While the Internet is generally seen as a beacon for information and openness, he expresses concern that private companies have less restrictions on censoring the Internet than government...*

>*""Private companies are a little bit scarier because they have no constitution to answer to, they’re not elected really, they don’t have constituents or voters.""*  

*He says that while proponents against censorship in the private sphere have been successful, advocates of a free Internet should be concerned about both private and public censorship efforts in the future.*

&nbsp;

[Interview with former reddit CEO](https://archive.is/uTcEK)

*We stand for free speech. This means* _**we are not going to ban distasteful subreddits.**_ *We will not ban legal content even if we find it odious or if we personally condemn it. Not because that's the law in the United States – because as many people have pointed out, privately-owned forums are under no obligation to uphold it – but because we believe in that ideal independently, and that's what we want to promote on our platform.*

&nbsp;

[Reddit's CEO claims reddit wasn't created to be a bastion of free speech. Here is reddit's creator saying reddit is a bastion of free speech.](https://archive.is/wzVJ3#selection-2531.0-2537.132)

https://imgur.com/a/HC8lFsu

&nbsp;

>[Vox Interviews reddit CEO About T_D Quarantine](http://archive.is/7Qsxr)

>*I have in mind of a series of things they could do that would be steps in the right direction. One of them, without going into specifics, one of the things I would like to see is ownership of, “We are going to support the president, but we are not going to have anything remotely violent on this community, and we are going to enforce that ruthlessly.”*

>*If I saw that message, and then I saw them do that in the data, that would be a compelling argument. Instead, we saw a YouTube video stickied on the top that was the equivalent of “send her back,” and so I saw that, and* _**me and our policy lead Jessica were like, “Well, doesn’t look like they want to be un-quarantined next week.”**_ *So, we’ll see.*

Supporting Ilhan Omar is one of reddit's undisclosed Quarantine criteria.

Until this subreddit implements rules banning ALL Ilhan Omar content that doesn't refer to her as *stunning and brave*... the quarantine remains.",fj798kc,weltallic,idjhy
"Did this change get reverted?

A user here suggests that they were given no indication of what triggered a recent warning:

https://www.reddit.com/r/DeclineIntoCensorship/comments/fbg4z3/this_message_threatens_harasses_and_bullies_and/",FreeSpeechWarrior,1ww3fe,fj5g1ik,"This should be updated today, it'll now let you know what content you upvoted.",firl0fd,woodpaneled,17gioq
https://old.reddit.com/r/wuhan_flu,FreeSpeechWarrior,1ww3fe,fj2yu0r,I want to read it but don't want to give my email,fj2ytbe,too_many_guys,4h011xyt
"Here have another: https://www.npr.org/2017/05/03/526655831/a-forgotten-history-of-how-the-u-s-government-segregated-america

IMO If you mean systemic racism you should say systemic racism.

Users get punished for individualized racism on Reddit which is why redditors accuse Reddit of hypocrisy when other individuals engaging in racism are not.",FreeSpeechWarrior,1ww3fe,fj2f2ak,"https://www.aclu.org/other/cracks-system-20-years-unjust-federal-crack-cocaine-law

TL;DR the punishment for crack cocaine is higher than the punishment for an equal amount of powder cocaine because racism.

---

https://www.reddit.com/r/Blackfellas/wiki/bbarrests

TL;DR  black people get arrested at a higher rate than white people because racism.

---

https://eji.org/news/louisiana-voters-could-abolish-split-verdict-rule

TL;DR  Louisiana changed their constitution so that it only required 10 jurors to convict someone of a felony instead of 12 because racism.

---

https://www.topmastersineducation.com/school-funding-post-racial-us/

https://psmag.com/education/nonwhite-school-districts-get-23-billion-less-funding-than-white-ones

TL;DR  There is a significant racial disparity in public education school funding distribution

---

https://www.vox.com/identities/2017/9/18/16307782/study-racism-jobs

https://www.sciencemag.org/careers/2019/06/racial-and-gender-biases-plague-postdoc-hiring

TL;DR racist hiring practices still persist.

---

https://pubs.aeaweb.org/doi/pdfplus/10.1257/pol.20170329

TL;DR Judges give harsher sentences to black defendants than similar nonblack defendants, and harsher sentences to males than similar female defendants

---

Systemic racism in policing:

https://www.reddit.com/r/dubteedub/comments/dak5mo/police_racism_and_white_supremacy_pasta/

---

""A kind-of long history of racial discrimination in America for redditors"":

https://www.reddit.com/r/blackfellas/wiki/rrace

---

Just, seriously, read this entire thing

https://www.reddit.com/r/N8theGr8/comments/fazu67/copied_from_rblackfellas/",fj1cbrj,N8theGr8,43xhb
https://i.imgur.com/bc0X8xt.gif,FreeSpeechWarrior,1ww3fe,fj23g9z,"> hands-off discussion

Can't have that.  People might start thinking for themselves.",fj23b1a,flinxsl,4xzzr
"> Though they may have formally private ownership and operate in the national and in the international marketplace, global Chinese firms – including Huawei – are in key ways not genuinely private companies and do not make decisions entirely for economic and commercial reasons.  Whether de facto or de jure, such giants can in some important respects or for some purposes act as arms of the state – or, more precisely, the Chinese Communist Party, to which the Chinese state apparatus is itself subordinate.

...

> Firms such as Huawei, Tencent, ZTE, Alibaba, and Baidu have no meaningful ability to tell the Chinese Communist Party “no” if officials decide to ask for their assistance",FreeSpeechWarrior,1ww3fe,fj14ptk,"Absolutely nothing in the article that says they meddled in an election, nor any of the things you mention in your original post. This subreddit is turning into a cesspool of idiots posting click bait shit that's nowhere near close to what they claim, but hey, MAGA, Fake News and all that",fj0a9v0,acoluahuacatl,j3sae
"Reader transparency for that sort of automod removal would also be a good thing,

All I’m “preaching” about here is that *readers* should be made aware of domain blacklists and white lists for the feeds they read.",FreeSpeechWarrior,1ww3fe,fj0u26q,"Also, you can already blacklist a domain with automatic automod removals on old.reddit. The thing you're trying to preach about isn't affected by this change at all.",fizwsgm,Time_Terminal,64d2n
"Yes I'm aware the blacklists/whitelists have been a feature of the redesign for a while (and thus not all that effective being redesign only)

What I'm asking for here is a way for readers/lurkers to be made aware of the active whitelist/blacklist and other hard enforced rules of the sub in the interests of transparency.  This doesn't exist to my knowledge but should.",FreeSpeechWarrior,1ww3fe,fiyzj98,[https://i.imgur.com/2gMtnpt.png](https://i.imgur.com/2gMtnpt.png),fiyyso7,shiruken,4amlb
Could you link me to an example of what this looks like then?,FreeSpeechWarrior,1ww3fe,fiyqt59,That's been a feature of Post Requirements almost since it was added.,fiyq7z2,shiruken,4amlb
Most traffic on this site is lurkers who don’t even have an account and they shouldn’t be left in the dark about how the feeds they read are manipulated.,FreeSpeechWarrior,1ww3fe,fiyca07,"I don't think most readers do.  If a significant amount did, the mods could put such a list in the sidebar.  Even if they didn't, curious users could, as you said, try to submit and see the requirements themselves.",fiyc2nw,TheSpookiestUser,137v1d
"> readers

This feature builds a domain white/black list feature into Reddit.  Readers have an interest in knowing what domains are blocked or allowed even if they have no desire to post.",FreeSpeechWarrior,1ww3fe,fiyav8v,"> Of course readers as usual will still be left in the dark, is there any way to view the post requirement settings of a community before submitting? 

The point of this feature is that it will not let you submit in the first place if you do not meet the requirements - it will ask you to change something and try again.",fiyaq03,TheSpookiestUser,137v1d
"https://ceddit.com is not a reddit alternative, it is an alternate client for reddit.

https://notabug.io *is* a reddit alternative",FreeSpeechWarrior,1ww3fe,fiy9xr9,"Various social media platforms are now heavily involved in political censorship.
Here are alternatives that can help you keep a free access to the content creators you choose to see.


Make sure to spread the message. If you're about to get banned you might as well go with a bang!

**Reddit alternatives**
* https://ceddit.com
* https://discussions.app
* https://gab.com
* https://joinmastodon.org
* https://raddle.me
* https://ruqqus.com/help/about
* https://saidit.net
* https://voat.co

**YouTube alternatives**
* https://bitchute.com
* https://dailymotion.com
* https://joinpeertube.org
* https://metacafe.com
* https://veoh.com

**Utilities**
* [Reveddit](https://www.reveddit.com) to review the removed posts of a user.
* [Archive.is](https://archive.is/) To archive pages before they are modified or censored.
* Single-File for [Chrome](https://chrome.google.com/webstore/detail/singlefile/mpiodijhokgodhhofbcjdecpffjipkle?hl=en) and [Firefox](https://addons.mozilla.org/en-CA/firefox/addon/single-file/): Save a whole page into a single standalone HTML file.",fixku1y,ProtosBot,4af6itve
"The head of u/reddit-policy (responsible for the treatment of r/the_donald) has this to say about trump and his supporters:

https://foreignpolicy.com/2015/09/04/what-the-rise-of-the-islamic-state-tells-us-about-donald-trump/


>Given that Trump and the Islamic State are similarly exploiting populist phenomena, it follows that the method to defeat them is also similar. While drone strikes on Trump Tower are probably not coming any time soon, the fact of the matter is that Trump has energized a disaffected constituency of angry, mostly white, lesser-educated people who feel a lack of opportunity and exude a sense that career politicians in Washington not only don’t represent them, but are actively conspiring against their interests.
>
>...
>
> Therefore, rather than sticking our heads in the sand and tut-tutting that Trump and the Islamic State will self-destruct, it is necessary to actively confront both — on the campaign battlefield in the case of Trump, and on the literal battlefield with the Islamic State.
>
>...
>
> the Republican Convention in Cleveland next July might unexpectedly find itself helplessly nominating Caliph — I mean Candidate — Trump, nearly two years to the day after Baghdadi’s declaration of the Caliphate.",FreeSpeechWarrior,1ww3fe,fixzz17,"saw atlantic council, didn’t need to read further",fixlep1,imnoturfatherboi,16nmol
"This man speaks the truth regardless of how much you disagree with it ^

https://www.reddit.com/r/HiddenPolicy/comments/fa5id4/heres_the_person_replacing_the_mods_of_the_donald/fiwiee5/?context=3",FreeSpeechWarrior,1ww3fe,fixy837,">Reddit is no longer a platform, they're a publisher and need to be treated as such.

I know this is the new right wing talking point that is used as a justification to regulate social media platforms but that's simply not what the law says. At all. A platform has complete discretion to ban or remove users under the CDA. Banning people and deleting content does not make one a publisher. This is a nonsense legal argument.",fixt1s0,Woujo,ubv6c
Thank you for clarifying.,FreeSpeechWarrior,1ww3fe,fixru16,"No, it just hasn’t been prioritized. I followed up on the ticket and it looks like someone will be fixing it in the next couple of weeks",fixrbvj,LanterneRougeOG,o30pnrf
"He knows:

https://www.bitchute.com/video/rTh5R5KAPJA/",FreeSpeechWarrior,1ww3fe,fixnrfs,"Got the attention of tim pool, not sure how people feel about him but still a known name.",fixdyq1,nestlebottle,gk2ky
https://www.reddit.com/search?q=%22lives+don%27t+matter%22&include_over_18=on,FreeSpeechWarrior,1ww3fe,fixml4w,"It’s not clear which protected groups are actually protected by the admins. Obviously, saying something like “Asian lives don’t matter” or calling for genocide against Catholics wouldn’t warrant this same action despite both also being protected under the same policy",fix4ku3,Iapd,2hfkgusq
"Section 230 makes no requirement for service providers to be unbiased or transparent to receive immunity from civil liability.

https://www.law.cornell.edu/uscode/text/47/230

u/spez and co have a legal (and IMO moral) right to censor whatever they feel like on their platform, and there is no mechanism in law for their censorship of others to turn them into a publisher of information liable for the content they do allow. (With some [possible exceptions relating to the DMCA and the specifics of moderation](http://cyberlaw.stanford.edu/blog/2017/04/bad-news-livejournal-bad-news-dmca-safe-harbors-post-1-3))

Section 230 makes no provisions for *criminal* liability, and to the extent that Reddit's biased censorship rises to the level of illegal in-kind campaign contributions or other illegal forms of political interference the oft-cited Section 230 offers no protection at all.

But I don't think you can get at Reddit this way either though, as such contributions typically must be directed in support of specific candidates to run afoul of elections law (This is why you see so many attack ads funded by third parties that don't support any specific candidate)

That said, as a matter of public opinion, I do think that the more Reddit censors the more responsible it can be said for the content that is allowed to remain; and that it is unconscionable for Reddit to claim to be a neutral content provider while heavily censoring content in often biased ways.  Reddit's behavior here is despicable especially compared to their historical statements and framing of the site.

tl;dr Reddit is deceptive, politically biased and scorn-worthy but still likely in full compliance with the law on these matters.  If you think there should be a legal remedy for this unconscionable behavior your only hope is that Reddit's increasingly blatant content manipulation drives legislators to change the law.",FreeSpeechWarrior,1ww3fe,fiwiee5,"Surely this jeopardizes Reddit's stance that it is not a publisher of information?

Also, from their userpage:

> 
You can read up on the policy on quarantine here. It's not used for policy violations. It's used for content that, while not prohibited, average redditors may nevertheless find highly offensive or upsetting. The purpose of quarantining a community is to prevent its content from being accidentally viewed by those who do not knowingly wish to do so, or viewed without appropriate context.

Versus

> 
This community is quarantined: It is restricted due to significant issues with reporting and addressing violations of Reddit's rules against violence and other aspects of the Content Policy. As a visitor or member, you can help moderators maintain the community by reporting and downvoting rule-breaking content.

Apparently Reddit doesn't even have internal agreement on what quarantines are for?",fiwheqx,hyphenomicon,25nbc3g1
"Not a joke, u/arabscarab reddit's head of policy (responsible for the treatment of r/the_donald) has this to say about trump and his supporters:

https://foreignpolicy.com/2015/09/04/what-the-rise-of-the-islamic-state-tells-us-about-donald-trump/


>Given that Trump and the Islamic State are similarly exploiting populist phenomena, it follows that the method to defeat them is also similar. While drone strikes on Trump Tower are probably not coming any time soon, the fact of the matter is that Trump has energized a disaffected constituency of angry, mostly white, lesser-educated people who feel a lack of opportunity and exude a sense that career politicians in Washington not only don’t represent them, but are actively conspiring against their interests.
>
>...
>
> Therefore, rather than sticking our heads in the sand and tut-tutting that Trump and the Islamic State will self-destruct, it is necessary to actively confront both — on the campaign battlefield in the case of Trump, and on the literal battlefield with the Islamic State.
>
>...
>
> the Republican Convention in Cleveland next July might unexpectedly find itself helplessly nominating Caliph — I mean Candidate — Trump, nearly two years to the day after Baghdadi’s declaration of the Caliphate.",FreeSpeechWarrior,1ww3fe,fiwat7u,Wow I thought that was a joke,fiw49i2,FIREDINKER,47553lj6
"> We will tirelessly defend the right to freely share information on reddit in any way we can, even if it is offensive or discusses something that may be illegal.
>
> — u/reddit

https://en.wiktionary.org/wiki/tirelessly",FreeSpeechWarrior,1ww3fe,fiw5exh,"There is no right to any speech on reddit. And this feature has absolutely nothing to do with such an issue anyway. So even if you had any valid concerns, they wouldn't be valid in relation to this feature.",fiw46je,IsaacEiland-Hall,tfmob
"It’s been over a month and this is still happening.

Should we assume it’s working as intended?",FreeSpeechWarrior,1ww3fe,fivakvd,"No, I don't think this is intentional. I'll file a bug",ffr09e9,LanterneRougeOG,o30pnrf
