child_body,child_screen_name,child_user_id,child_tweet_id,parent_body,parent_tweet_id,parent_screen_name,parent_user_id
"""Hollywood Reporter""   
You're so brainwashed it's hysterical.",MattyyyS,vz6s8,fj238pn,"https://www.hollywoodreporter.com/thr-esq/google-victorious-dispute-alleged-censorship-conservatives-youtube-1281348

https://www.entrepreneur.com/article/346882

Your bullshit is astounding. Too bad judges disagree  as well as the constitution. I'm sure you'll say something dumb like ""Fake news"" and ""Liberal judge"" but the fact is, the DoJ disagrees, so does the constitution. Conservatives aren't censored, if anything the fake news pandemic you've spread via Fox News and Facebook is what needs regulated.",fiy5tgh,Stupid_Bearded_Idiot,4vkm910l
"Because of the Protocols. They're not the only group enacting global societal warfare, but they surely did start this era of it with the Judeo-Communist takeover of Russia and the establishment of the USSR after WWI. Read the Protocols of the Elders of Zion. Of course, Jewish ""scholars"" have ""disproved"" it. but I'd totally trust the Jews to be honest about their plan for World domination and who they've brought in on it.",MattyyyS,vz6s8,fivuezc,Why does it have to be Jew bashing?,fivsp1v,Idislikecheesepizza,136xua
"200k in 15 years versus how many this year alone in the Middle East? If you can't differentiate the two, you lack mental capabilities. It's not a common practice in the US, whereas it is in the Middle East. But go ahead, professor Google, keep giving flimsy, laughable comparisons and ""gotchya"" points that ignore context entirely. 

Side Note: Those 200K kids in the US deserve as much justice as virtually every little girl in the Middle East, but that's not what we're talking about right now.",MattyyyS,vz6s8,echpb9r,[god forbid they be in the west](https://en.m.wikipedia.org/wiki/Child_marriage_in_the_United_States) ,echov2h,Patzy_Cakes,11ylqp
"Holy shit you're dense. Okay, lets break this down. 

One, I support the death penalty in extreme cases of vionent, unrepentant murderers, pedophiles, and rapists, but definitely not by crucifixion and 100% not for things like being gay, a woman with an individual idea, or speaking out against your government, all of which will net you a death penalty in Saudi Arabia. How do you take yourself seriously with a comment like that?

Two, yes, none, due to it being a modern, Western European country where beheadings aren't commonplace.

Three, I'm talking immigration of the common people, not oil rich Saudi princes.

You should stop commenting now. You're embarrassing yourself. ",MattyyyS,vz6s8,e3v4l8l,"Lol there are vetting processes that can tell whether or not you support the death penalty? That's amazing!

Have you ever traveled abroad? What sort of psychological evaluation did you receive?

Friend, if you make over 100 grand a year there is no country on earth besides maybe Iran and North Korea that's going to stop you from at least visiting. And a VISA? Piece of cake. ",e3v14jg,Judgethunder,itpyl
"Yeah, where they'll be stopped by proper vetting processes to ensure they're not like these animals. Having money to buy a ticket doesn't mean shit if you can't get past customs.",MattyyyS,vz6s8,e3v0afo,Border Security? You know that Saudis have more than enough money for a VISA and a plane ticket right?,e3uvhgj,Judgethunder,itpyl
"Literally just google it.
https://www.politico.com/interactives/2017/obama-hezbollah-drug-trafficking-investigation/
http://www.foxnews.com/opinion/2018/06/08/marc-thiessen-obama-took-lying-to-new-heights-with-iran-deal.html
https://www.cnn.com/2018/06/06/politics/iran-united-states-bank-exchange-republicans-report/index.html",MattyyyS,vz6s8,e0cvetv,"Wow, really would like to read that news article, can you post a source? Yea, didnt think so.",e04qtu0,whataboutism_istaken,1ieollfu
"You know he cheats, right? ",MattyyyS,vz6s8,ddqm3bm,"I think we filmed the spicy ramen challenge a few days prior to him asking to step down. But yeah that does kind of suck haha, glad he agreed to do the video with this on his mind.

Everyone has their opinions on Yassine, but he really is a great person and was always very polite to everyone around him. He treated everyone with respect and for that we wish him well.",ddpalt5,Counter_Logic_Gaming,wmxts
I can write a webscraper in python in 15 minutes that will provide the functionality OP asked for. Why is this not done already? ,MattyyyS,vz6s8,daj1u0c,my guess is HLTV wants $$$ for using their API and this subreddit obviously doesn't want to pay for it,daiz9as,MORE_SC2,7fmx0
"k01n is a cheat dev for source based games (CSGO mainly) that wored on HeadZots, and now Project Cocaine, but is useless outside of that engine. He can bypass ESEA, FaceIT, CEVO, MM, etc. It took a manual ban behind an elaborate fabricated story from ESEA to get him to leave. loljk he still cheats daily on other accounts.
",MattyyyS,vz6s8,daerlin,"I'm /r/OutOfTheLoop/ on this one, explain?",daeop4k,ThatDistantStar,awlt9
Yes. ,MattyyyS,vz6s8,da83qfg,"2:48

You expect us to believe that wasn't cheated? ",da83n1q,lmaothisgame,117dfa
I don't cheat.,MattyyyS,vz6s8,d9em0d2,Cause it shows you aimlocking. ,d9cmqjc,TribeWars,bjawj
You can't be serious. ,MattyyyS,vz6s8,d9ci5bs,"Look at his comments/posts on reddit, then you know immediately in which business he is active. 

",d9bnce1,snimix,kwbd0
"400 dpi, 1.82 in game sens.",MattyyyS,vz6s8,d9c1if4,"well maybe he plays with a joystick, would explain the wobbles. 

the aim isn't done with a mouse anyway.",d9bvuxh,YxxzzY,btori
lmao I mean it works tho so,MattyyyS,vz6s8,d9c1i28,That kid moves his mouse like he's fucking retarded. Jesus.,d9buhyr,1337pre,pfv7r
Why did you link my video?,MattyyyS,vz6s8,d9c1hqh,https://www.youtube.com/watch?v=jSrkftVcukc,d9boyp8,ThatTomTouch,lpiqt
I'm taking the hard route. The easy route is for chumps. ,MattyyyS,vz6s8,d9blyy9,"Not saying that you do, but just saying the EASY way is to obviously cheat.
""hard"" way is to stay clean, because you meet cheaters now and then.",d9b6t4k,vedde,jk4d6
#exposed,MattyyyS,vz6s8,d9bfy5t,"Why tf subexp0sed, mattys and waff are trolling this subreddit. You subexp0sed, we all know youre OMG and we all know youre in that Group too and you already know that mattys is cheating, even in his stream, he was using hexui. Mattys is Just a troller Who is using 5$ cheats and waFF is Just and idiot and we all know which cheats he is using atm. Youre such a fucking troll, unsubbed",d9bdnpj,ReddiTheoo,ry7yl
wAFF is the coolest non-cheating cheater I've ever met.,MattyyyS,vz6s8,d9bfwlt,Wasnt he accusing wAFF for cheating and then at one time he started protecting him? LUL He won't get Pro anyways just a public hero like all the others,d9b9mv9,St1lox,xvpyo
What? lol,MattyyyS,vz6s8,d9b5fr8,"And who cares about the group ""$Boatware"".

The easy way to getting pro is to cheat anyways.",d9b5ffy,vedde,jk4d6
"That's how I feel. Like, why is this even a thing? ",MattyyyS,vz6s8,d9b5a28,Who?,d9b57w8,vedde,jk4d6
Thanks! ,MattyyyS,vz6s8,d9avs1p,Downvoted again,d9av8vj,famouscheaterjc,12fdun
lol thanks. ,MattyyyS,vz6s8,d9auw6e,"my friends just 4 people including me

only use in mm

only ever overwatch banned if I go blatant

Oh, and enjoy your down vote ",d9au68b,famouscheaterjc,12fdun
Idk man.,MattyyyS,vz6s8,d9aq7cc,I'm confused on how you think this looks like cheats in the first place.,d9aokl3,Tailz07,thi91
Hahahaha I wanna get to A+ and maybe S eventually. ,MattyyyS,vz6s8,d9aq4sz,"i hope he go PRO and keep cheating!!!
GO MATTYYYS, lets prove the CS scene is a JOKE",d9aq03f,b0tz1n,zfox6
I love you Gravesy. #BoatSquad,MattyyyS,vz6s8,d9am4q6,"one of our members has an esea bypass xd. he has been working on it for close to 8 months
",d9albn7,xGravesy,12fabo
lol,MattyyyS,vz6s8,d9al123,Who can i contact to buy it?,d9aksz5,dantsp,ezlbj
"How would you know that, you cheater? :3",MattyyyS,vz6s8,d9akw45,Use r_drawotgermodels 2 to get xray. SV cheats required,d9aku47,bigtastie,eszgr
<3,MattyyyS,vz6s8,d9akvln,"$boatware is literally the greatest cheat ive ever used. i can speak for all when i say boatware is worth the 150. Im also in the steam group

",d9akueb,xGravesy,12fabo
The point is known cheaters can play as long as they don't have a ban on that game / that league. ,MattyyyS,vz6s8,d998l0p,krystal may have cheated back in source but he wasn't banned in any league lol,d995tme,gohypar,gb25r
"Same reason kRYSTAL is allowed to play on Penta. He cheated elsewhere.

xenn cheated on ESEA / FaceIT. Not ESL or CEVO, so he can still play there. It's fucking ludicrous. ",MattyyyS,vz6s8,d991b8v,Yes it is the xenn that got banned on faceit and ESEA dont know how hes allowed to play online leagues. Just weird :/,d990qb3,St1lox,xvpyo
"Yeah, C++ / C# is your best bet probably. ",MattyyyS,vz6s8,d98nivl,"you could, but c++ would be easier to accomplish the same goal. its why you see the vast majority of private cheats being written in some variation of C even though python is generally considered the easier language to learn",d98naqy,nivek_c,q0hro
"Yeah, I was just stating that it's possible to do so. I'm sure someone with enough time on their hands and knowledge of ESL's inner workings could do it without much cause for concern. ",MattyyyS,vz6s8,d98n5e8,"Let me rephrase that, it's possible to use python based hacks in csgo, but the needed libraries are very predictable and almost impossible to sneak past ESL wire. Is that better?",d98m72v,nivek_c,q0hro
"It is possible to break into a process and read / write memory in python. 

Sincerely, a paid professional programmer. ",MattyyyS,vz6s8,d98ksoi,"glad im not the only one that smells bullshit. no proof what so ever, focused more on talking about pro's cheating. claims method for live use is one that lan organizers already know about and have prevention for, claims to code an injectable in python (which AFAIK is not doable), and states that his exploits wont work on usb 3.0 (strange since the only thing thats really changed between 2.0 and 3.0 is transmission bandwidth, and higher transmittable wattages).


a lot of this shit just doesnt add up, and the methods hes describing are so rudimentary that theyve been countered for more than a year now....",d97b01t,nivek_c,q0hro
Hi.,MattyyyS,vz6s8,d902ja2,hi matty buns,d8zpcut,FallenEdits,j4rcq
"You're retarded, aren't you?",MattyyyS,vz6s8,d902j8r,im literally DMG can can look like that in aim botz xD,d8zj36c,derick1337,82bz0
Yeah. Essentially. ,MattyyyS,vz6s8,d902il9,"This, I've looked at my own demos previously and have had instances which would be considered locks or 'offset locks' while changing direction/looking at walls for sound.  I do think there are some pros hacking but a lot of people in this sub see something that's only about 5% suspicious and claim it as 100% evidence.",d901jp7,Ihasakarots,azz3c
"It wasn't that at one point. That's what this post is about. It's about us looking dumb, which helps them discredit us a conspiracy theorists, and keep cheating happily.",MattyyyS,vz6s8,d8zbi2d,"No one takes this sub seriously. If your crosshair is over a player through a wall for a half second, then it's extremely suspicious and likely that you are cheating. No pros are legit and everything is cheating - Motto of this sub. It's pathetic and hilarious.",d8z2kbo,EpicCheesyTurtle,ilc6x
"That's not true. I ""aimlock"" pretty consistently in all of my ESEA games. There's nothing really fishy here. ",MattyyyS,vz6s8,d8yyusv,It's so obvious how blatant/consistent so many guys are in the pro scene.  If you watch a demo of yourself you will rarely ever find sketchy shit or random traces through the wall.  And if you do they are generally so inconsistent to anything that would ever look like cheats.  In the pro scene these literally happen NUMEROUS times EVERY single game.  For someone to think cheating is not a major problem in pro cs go would have to be braindead.,d8wj8ai,forthegiggles1,v11af
"Edited for clarity. I was implying that they came together within their own teams and decided to toggle off entirely, or dial it back a bit using only low fov aimbots for light correction during aim duels. 

Side Note: The Coldzera clip on Train in ladder is not suspect. You can hear Ts moving around near the A Main exit from that position, and I think he's just positioning himself to hear where they are if they slip up and run or jump, trying to combat CSGO's shitty directional sound. I do this a lot too. I'll sit in a corner and look around into the wall at different angles to hear footsteps more clearly. You can get a better read on footsteps by constantly changing your viewangle, making the directional sound change. ",MattyyyS,vz6s8,d8ywr9d,"That's retarded. First of all, there's been more obvious clips before, there's the Flusha clips and especially an old Byali clip from starladder. Second, that all (or many) players from different teams would acknowledge that they cheat, I really dont think that would happen. Third, why wouldnt any team just say ""Hey, all the other teams wont be cheating so if we cheat we win this tournament easy"". Forth, there's been some suspicious clips. Maybe not as many as from other lans but the coldzera clip is pretty obvious cheat imo.",d8yw3gm,Kathula,glwcu
"pSilent and NoSpread still exists in 2016.

https://www.youtube.com/watch?v=FeSXLybpc6E",MattyyyS,vz6s8,d8yw3q2,"Program-wise aim punch is coded by a 3D vector that tells how recoil modifies your view angles.

Externally, using the ReadProcessMemory system function, you can retrieve this vector and negate it by changing your view angles accordingly.

That's how standard external cheats work (specifically, this is referred to as RCS ( Recoil Control System)).

That doesn't yield perfect recoil compensation, though. Valve added a server-sided inaccuracy factor known as spread. You can't make up for that (some say a NoSpread exploit is still out there, I don't know about that)",d8xmvrh,gabsens,nze8r
"Go look through any of my ESEA demos from this month. I dropped my dpi to 400 and sens ingame to 2.17.

I can guarantee you that I lock at least 13454233 times a game when swiping to check areas. 

https://play.esea.net/users/629303",MattyyyS,vz6s8,d8yvkl1,Sounds great you can do it all the time! Now give some evidence of it... (btw I didn't downvote your comment),d8yvh0y,kloyN,iudid
"Is that for real, or are you just making a stern Russian joke? ",MattyyyS,vz6s8,d8yurdv,"they are russians dude, they have 2 admins behiend every team and they got some nice anticheat measure",d8yp3ib,ZPHH,k8ysl
"Kid plays an average of 2 pugs a month where Hoppin carries him and he mostly goes negative. He's a 65ADR average bot on client but pulls the most ""nuttyyyyyXD"" shots ever off client. Come on now, think with your brain.  ",MattyyyS,vz6s8,d8yufuf,"hey bro I think ur missing some of the picture man

http://imgur.com/4VroUIe here u go

3 pugs played this month,
10 rws average,

oh yeah but lets take his rws after one pug that'll show how bad he is.",d8yh7cj,holdingW,10b6vc
"Most people largely ignore or don't even notice the small discrepancies in the server to client communication. They're not skilled enough at the game / know enough about how it works internally to even care about that sort of thing, often chalking it up to the broad strokes reason of 64 tick or lack of skill. ",MattyyyS,vz6s8,d8s70bj,"I experience the same thing. Player models are way behind on my screen as compared to where the sever sees them since they're able to shoot me before they even come to a complete stop among many other things. 

The problem is, interpolate is for demos and gotv. That being said, lag compensation is what allows us to shoot what we see on our screen and it be accepted on the server. 

I still think clock correction is at fault but for varying reasons. For one, it's the only thing that can have any effect on enemy player positions. What causes the drift is still only guesses. I'm sure it doesn't help that CSGO reads our CPU speed incorrectly if HPET isn't forced. Also CSGO reports 2 different ping values, the one on netgraph and one when you type the command 'status' or 'ping' in developer console (it's always 30ms more than netgraph). I still don't get how lag compensation and the server side seed spread work together since what I'm shooting at is only true for my screen, and then CSGO has to generate the spread seed value, and see if your shot hit. [if anyone can explain please do so]. 

It's just crazy to think how so few people experience the problem. I get a DM every 2 weeks asking if I have any updates since the game is unplayable. Still that's only a handful of people. I don't get it. ",d8s6agn,Clyq,ep9vk
"Every single game above MGE will have at least 1 cheater either using ragehack (obvious) or legit settings (non-obvious, literally obtainable for $7/mo off the front page of google, I can tell you 4 different providers you could get right now for this). It's not hard to cheat at a semi-pro level with a semi-public paid cheat.",MattyyyS,vz6s8,d8je3cz,"I don't fully agree that it doesn't make any difference. It makes a difference for the blatant kid who gets a hack from a public forum and wants to mess about and make people mad. Having prime makes those types of cheating practically non existent.   

You've got to consider that the majority of cheaters aren't paying money for their cheats, or finding a guy who knows a guy to get in on a private circle. The majority of people are looking on the public forums we all know, and downloading from there.   

I get your point, prime isn't making a difference for the guy who doesn't go to public forums for his publicly available cheats, but prime is doing what valve probably intended it to do, stopping rage hackers from coming against legit players early on. 

",d8ic84o,Rideout1234,8w1bq
"They took it down, but it's still all over YouTube if you look. 
",MattyyyS,vz6s8,d8gqara,Good point. The first 2-3 bullets even hit yam and azr just seems to get in the way. btw what happened to the clg snapchat video where u can clearly see him spamming his ALT key for no reason?,d8goazq,Redtard1,xksf6
Steel is mentally handicapped. ,MattyyyS,vz6s8,d8gm6o7,I really hate how steel and tarik won't shut up during the interview.    Moe would have gotten a lot of useful info but the two retards wouldn't shut up so they never got too deep into the topic.  ,d8g1p48,forthegiggles1,v11af
I assume it's salty wAFF fans.,MattyyyS,vz6s8,d8gm5ut,"Absolutely know idea why you are being downvoted.

An ex-cheater and a former pro calling out a current cheater. That's it.",d8g9e8v,EJ250,z5rd1
Who are you?,MattyyyS,vz6s8,d8b7zr1,Go back to esea u lowbob,d8apb1g,refleXive-,h9391
"Lmao I'm not a cheater. I'm a guy who gave out information about cheats and why certain measures won't solve cheating alone.

The evidence against Subroza is more damning than the evidence against Hillary Clinton. If you think he's in any way legit, you're mentally handicapped. ",MattyyyS,vz6s8,d8b7zem,"you're a cheater. so youll think anybody cheats who shows any type of skill

honestly you should be banned from this subreddit, youve given nothing and act like you have given it everything",d8avsky,strobino,ir0d6
With a cheat off the front page of google for an extended period for testing purposes. FaceIT's anticheat is nothing special. A group of cheaters played in the DreamHack Qualifier against Optic and almost won blatantly cheating.,MattyyyS,vz6s8,d8am4xa,And how you did?,d8al0hp,kEEWAIT,mta20
"This was originally going to be just the face can video thing, where I say that I'm going to make a new more in-depth cheating video.

However, I've been streaming a lot over the last few weeks. People wanted me to clip me warming up legit and out it on YouTube to compare and contrast.",MattyyyS,vz6s8,d89vy55,What is the purpose of this video? I dont understand.,d89cobm,kEEWAIT,mta20
JasonR's config. ,MattyyyS,vz6s8,d7xsu45,Crosshair settings just wondering?,d7xew0v,DAMNTHISNAME,de7qg
Most of them aren't. That's the problem. ,MattyyyS,vz6s8,d7xsp7s,"I agree that we are blind to many things going on now. BUT...
Like everything in life. It takes time to figure things out. To get to the bottom of things. To clean it up.
Many of these things are not solved over night, over a week, or even over a year..

Eventually more people will get caught, and MANY will get away without consequences. The fact that people have the balls to even...

Either way..

PEOPLE CHEAT IN EVERY SPORT/GAME/JOB.

That's life.

Just don't try and let it ruin the enjoyment of pro CS for you. 
After all.. Most of these guys are real pros.",d7xs48h,xH4sh,11le3h
Kek,MattyyyS,vz6s8,d7wyxve,"til i am mod.

cool.

i ban u now, k thx.",d7v34zr,forthegreaterreddit,nlp7a
True. ,MattyyyS,vz6s8,d7uqvfu,"No he's not. But what's really sad about this whole situation is how the community is handling it. Like Thorin always says, they don't want to believe that their beloved pro role models are cheating.",d7tun8l,SweetJordgubben,zgprv
Hi r/go mod. ,MattyyyS,vz6s8,d7uqv13,"i promise u the only people that care about this place r other conspiracy theorists.  mods dont give a shit what happens here, it either breaks the rules or it doesnt.",d7uiak8,forthegreaterreddit,nlp7a
That kid is just another Subroza in the making. ,MattyyyS,vz6s8,d7tpjkh,hopefully people realize this before they start calling people like wAFF legit :)))),d7lp21e,Tailz07,thi91
They removed this post about 15 times. ,MattyyyS,vz6s8,d7tpip4,Did the mods delete the post or what? I can't find it on this subreddit.,d7lpfv7,omba01,mzksx
I left it on for demo purposes. ,MattyyyS,vz6s8,d7tpido,Didn't see much recoil compensation on that wrist movement. Hacks,d7lp70q,milkman6453,emsr6
"Essentially that. Oh, so we can only talk about cheating post-ban? Nah, lets get even more of these fuckers banned. ",MattyyyS,vz6s8,d7ow7zg,"I agree with everything said in this post, but that still doesn't mean they can just disregard that rule. Reddit global mods have started to care a lot more about the witch hunt rule after the whole boston bomber drama.

e: what I personally hate the most is how they're very content jacking off to the 11k new vac bans headline but then don't allow things like this",d7ocka0,ableist_retard,105mdx
"So, Subroza?",MattyyyS,vz6s8,d7oc9lg,"The average cheater you run into is delusional.  

They literally think they are better than you, not because of what the cheat is letting them do but because they probably think finding hacks online, paying for them, installing them and using them makes them better than you.  Cheaters, from my experience, are typically pretty pompous and it shows a clear disconnect in their brains where they think that everybody that plays CS and doesn't cheat is only doing so because they don't know how to cheat or they cant pay for it.  The cheaters pat themselves on the back for ""figuring it out"" and they literally think they are better than you.  

Its like that kid in high school everybody knew that talks about how he's a ""LEET HAXOR"" because he knows how to Torrent or use KaZaa or some shit.",d7o4lc2,radeon9800pro,jq7mt
"You can still use really small fovs to gather info. I do this in games sometimes. My fov for my aimbot is incredibly low, maybe a few cm off my crosshair in each direction. I'll look behind me, which looks like checking a flank. Hit my aimkey a few times mid turn and i can feel it pull somewhere. Looks completely normal on handcam and to spectators, but I know I didn't wiggle a little. And you can train yourself to do random jiggles when you hit your aimkey. You can hide this very easily. ",MattyyyS,vz6s8,d7nzbdh,"I don't think the idea of hand cams were ever intended to catch aim adjust cheats. It would certainly solve the ""information gathering"" locks through walls cheats though. 

I believe this is the most used cheat in the pro scene as it doesn't attract much attention unless it accidentally locks perfectly onto someone but this is also why they're all offset now as its intention is not to make the shot, just to identify where the closest enemy is.",d7noos9,maxoys45,gryg4
"It's a rule they made specifically for their subreddit. This is something they can choose to follow or not. It was made in 2014 thanks to people spamming the subreddit with 127641784612784512784512 clips of flusha, only about 4 of which showed anything substantial. It was an understandable rule for the time it was made.

This is not a witchhunt. This is not theory. This is an educational video on cheats and how well you can hide them, even when being watched by a handcam. There is no witch hunt for Subroza, he has multiple accounts under his email on cheating sites, he's blatantly cheated on ESEA for years, he's now openly cheating on Stream and LAN, he went full damage control and deleted all his Twitch VODs because they were blatantly cheated, moved all his items off his STEAM account, logged into those cheating sites and requested his accounts to be banned there, and then threatened FODDER and that subExp0sed guy with some serious shit for exposing him.

Either way, this is a discussion that needs to happen. Subroza, Flusha, and the other pretty obvious cheaters aside, this conversation needs to happen for the sake of CSGO on a whole. It's impossible to play MM, FaceIT and Cevo have cheaters in almost every game at any given rank in any leauge, and even ESEA has quite a few high-profile cheats driving the upper ranks and ladders. We should be able to openly discuss this. Reddit isn't North Korea. We should be able to speak about serious problems. 

Don't be a moron. ",MattyyyS,vz6s8,d7nyvxu,Tell me how you want the globaloffensive mods to circumvent the reddit global rule that prevents witchhunts. I'll wait.,d7nm5hn,ableist_retard,105mdx
Name checks out.,MattyyyS,vz6s8,d7nided,it's a redditwide rule you imbeciles ,d7mouq8,ableist_retard,105mdx
"Because of how well he's trained himself to make it look like all the jumpy snappy movements are actually him.

Watch this video I made. You can very easily hide your cheats even to people watching your hands.

https://www.youtube.com/watch?v=mRWIzOYBi88",MattyyyS,vz6s8,d7nf2so,"You really think so? Because this video suggests to me that C9 is clearly mocking the notion that Subroza is cheating.

Consider this. How could Subroza hide that he's cheating from his own team? Even if somehow his teammates don't pick up on the supposedly obvious ""fishy"" moments, how could Subroza himself ever just start cheating competitively, knowing how obvious it must be to his teammates? If you think his teammates are in on it, why do you think a big esports brand like CLG is willing to risk its entire reputation just so Subroza can win them the occasional online map and never even make a major or make it to the semis of a respectable LAN with their shitty lineup? The risk/reward analysis doesn't add up here in the slightest. ",d7n73es,eggeak,i4jfl
Essentially. :/,MattyyyS,vz6s8,d7mgbrs,same shit like now with Williams tennis sisters and doping,d7maycj,turbotoniextra,11aqj9
"I was playing on upwards of 10fov on the deagle. I was trying to be a little obvious, but nowhere near as Subroza. 

My mouse video desynchs from the game video a few times. Tried my best. 

Also, there's a bit of confidence bias in your judgement of my clips because I told you I was cheating. If this were anyone else random, you'd be like ""That's just normal desynch."" Or, ""Maybe there's some suspect stuff, but nothing too convincing.""

Like, I wouldn't give this video an overwatch conviction, you know? Especially on a smaller FOV with the recoil control disabled, you'd never be able to tell. ",MattyyyS,vz6s8,d7m2yxq,It doesn't matter how small the FOV is. You still will be able to see a different. I was seeing a difference in your video when I put in on .25x speed. ,d7m29kv,TheRealF0xE,j7758
Nope. ,MattyyyS,vz6s8,d7m07jl,was this cheat LeagueMode?,d7loexr,yEtts,makhl
How's Subroza's dick taste?,MattyyyS,vz6s8,d7m07bo,np mate. I instantly reported it as soon as I saw you were going to post it there.,d7ll9gz,Brian2one0,5x46e
That doesn't seem too far from possibility. I've suspected Valve of letting this shit go for the sake of their bottom line for years. ,MattyyyS,vz6s8,d7m061n,"It all has started at DHW14 when the whole scene (90% of pro teams) including was calling to ban flusha for cheating. There was a secret meeting with Valve and since then pros, reddit and hltv shut down all talks about cheating ""for the sake of the scene"". I dont even watch matches anymore. Just observing the fall of this farse. I dont even blame pros who are silent are 2nd wave cheaters. I would behave the same like them. 1st wave cheaters and hosts are to blame.",d7lndf0,turbotoniextra,11aqj9
"No, you won't. Film it any way you want it, if they have handcams, they'll just use incredibly small fov aim correction.",MattyyyS,vz6s8,d7m004i,Well obviously not from that snapchat's point of view you won't see anything. But if you have a bird eye view and you literally slow both clips down you will see a noticeable difference. So handcams aren't completely useless. ,d7lwm8k,TheRealF0xE,j7758
"While I agree with this, it will just mean the pros will turn down the fov on their cheats. So, we won't have 2014 Flusha 180 dicklocks across the map anymore, but they will still be cheating, so what's the point?",MattyyyS,vz6s8,d7lo9hp,My main reason for wanting handcam is to track the movements that pros can't predict. I.E. when a Pro snaps onto a person through walls. That's the kind of shit where a mouse cam would be perfect.,d7ln54k,mckaystites,g2ysv
Are you implying it's hard to do this in league?,MattyyyS,vz6s8,d7lo7tq,No one cares do it in league.,d7ll6w1,Brian2one0,5x46e
https://www.reddit.com/r/VACsucks/comments/52j5li/why_handcams_wont_solve_anything_subrozas/,MattyyyS,vz6s8,d7ljrjv,I feel your pain....you have no idea how pissed I was when I heard that this guy went pro....now I'm full rage mode because he's a dirty fucking cheater!,d7lj0su,BonkeyCS,n40iz
Yep. Left recoil control on for video for demo purposes of how legit you can look while cheating from a spectator's view. ,MattyyyS,vz6s8,d7limlc,At the AK spray with still mouse not moving down u would've been caught,d7lhs0p,BonaB,laub8
I have. It's awful.,MattyyyS,vz6s8,d7liknd,Trust me...if you've ever had the inconvenience of playing with him on ESEA you'd know that you're 100% correct. The most toxic narcissist in NA,d7lhzf1,BonkeyCS,n40iz
"Yep. Immediately removed. No mention of Shitroza in the thread. 
http://imgur.com/a/RZUVt",MattyyyS,vz6s8,d7le9en,"did you try posting your vid on r/globaloffensive w/o mentioning subroza or CLG in the topic? It might not get removed if you just simply present it as ""why handcams aren't useful."" Or create a separate vid w/o mentioning subroza/CLG in this one (forgot if you did or not).",d7lcqvq,CarrierAreArrived,10bse0
Answered. ,MattyyyS,vz6s8,d7ldkkh,"I realy dont feel like writing the cheat's name publicly. I dont want even more people get to know cheats. Once you get the advantage it's rather difficult to let it go. I'll write you a PM.
What i can tell, its an external cheat.",d7lcnpc,Cheat_Busters,11d4q0
He's a raging narcissist. He thinks he's untouchable. ,MattyyyS,vz6s8,d7lcjet,I just love that he didn't see this coming.,d7l9zk1,the_lochness,79dwb
Link this video everywhere possible when people say Subroza isn't cheating and that hand cams prove innocence. ,MattyyyS,vz6s8,d7lcizg,"Exactly the type of vid I was looking for, thank you.

I immediately called bullshit on that snapchat clip from CLG cause it not only wasn't the same clip as from his streams, it proved absolutely nothing as he could've been cheating anyway, like this. I immediately got downvoted, even though I was 100% right, as proved by your vid even further.",d7laun1,CarrierAreArrived,10bse0
That's really interesting. Mind me asking which cheat? Internal or external? I'm using external. ,MattyyyS,vz6s8,d7lchv1,"yep, i enabled smoothing additionaly, to have a slower aim.
The cheat gives me the option to enable curve in form of a percentage. Maybe I do some experimenting with it tomorrow...",d7lc5e1,Cheat_Busters,11d4q0
"Did you do that with like added smoothing, or is that a feature of the cheat? It's really smooth. Curve aimbots aren't really anything new, but Beziers seem to be the new thing now seeing as you can account for a ton of points and soothing in a very small amount of time processing wise. ",MattyyyS,vz6s8,d7l8mox,"Well, I can deal with a simple curved one, though it doesnt seem to use the bezier curve algorithm.
https://www.youtube.com/watch?v=MXaud--J7oM",d7l7pvh,Cheat_Busters,11d4q0
Already did. Top thread. I want this to spread like a fucking virus. ,MattyyyS,vz6s8,d7l52ct,please go to /r/vacsucks,d7l4vxi,orbitjc,yxwsu
Thank you!,MattyyyS,vz6s8,d7l51kj,Great video.  Anybody who supports this guy is absolutely retarded. ,d7ku1cn,forthegiggles1,v11af
It is a really good book.,MattyyyS,vz6s8,d7l0h8l,"Off topic, but I'm actually re-reading it again. I read it in high school but it's hard to appreciate it without experiencing real world examples of this shit slowly starting to happen (all over the world, too, not just online). It's a god damned great book.",d7l01pc,moonpresence-,zf3xf
"The cheat I used has LAN capabilities. Think about that. $15 a month. Not huge LAN, because it's a littke harder there, but I could probably hit local LANs with this rather easily.",MattyyyS,vz6s8,d7l00xu,"My team and I started talking about this after a scrim where the enemy (2 players specifically) knew exactly when to peek us on a 100% consistency. And after reviewing the demos, they were watching and waiting for us to look away. Same can also be said for LAN players, Online Gods but trash at LAN.",d7kzndh,sgh0st9,8gu5s
"That happened to me and a friend too. I practiced my ass off, hit global, hit faceIT master, hit rank B+ around 14rws in ESEA and just kind of realized that there's no real point.",MattyyyS,vz6s8,d7kyvaw,"I am in the exact same boat.  It's honestly not even that I'm afraid I will run into cheaters and lose....it's that I will run into people cheating and never know they were cheating, just thinking I wasn't good enough to beat them.  Finding out how easy it is to cheat and make it look legit has ruined a lot of the magic for me.  

When I first started playing global offensive, I met this guy named ""red"".  Red was really really good. He was LEM, and we were all SEM/GN...He carried all 4 of us...50 bombed on d2.  40 bomb on overpass.  I thought to myself ""I want to be that guy"".  So I hit DM really hard, watched tons of pro games, and got to global.  Around the time I hit smfc, red got a vac ban.  I was pretty crushed.  I would ask him for advice and everything.

Edit: To add on to this story: Red actually accused ME of cheating by the time I hit smfc",d7kukkg,coreytherockstar,5q2gz
"Yeah. I just wanted to show that even with a low tier front page good cheat (that's ud on everything except ESEA) you can make yourself look incredibly legit while cheating your ass off. I'm around 14 rws, 100+ adr, and >1 FPR on ESEA, so I know what looks legit and what doesn't. I have the knowledge to know what I can get away with. And what you can get away with these days is getting more and more ridiculous.",MattyyyS,vz6s8,d7kyote,"Fantastic video, the most annoying views were those of ""you can see him move his arm, can't possibly be cheats"" etc. 

This completely debunks that mindset. Just because a player moves their hand / arm doesn't exonerate them from possible cheating or producing suspicious clips.

This is just what people need to see, although the majority will still be in denial.



",d7ksflj,EJ250,z5rd1
Right? Welcome to 1984.,MattyyyS,vz6s8,d7kyjwv,It's like a fucking dystopian police state where the government has absolute control over what we say and think. It's fucking disgusting.,d7kwifj,moonpresence-,zf3xf
"Because of blanketed rules that stomp out conversation in favor of the same shroud clip every day. It's a joke, just like this game. ",MattyyyS,vz6s8,d7kqqoj,"The most frustrating part of this whole thing, is that there is SO much evidence.  Like....it's fucking undeniable at this point.  All of these other pros with lots of clips, it's like 95%....this is 100% bullshit that is going on, and we can't even have an open discussion about it on /r/globaloffensive.....and why?....because of a ""witchhunt""?...What the fuck is going to possibly happen?....is CLG going to sue /r/globaloffensive mods?....no.     Why is it that we can't question shit like this in a forum designed to talk about the fucking game?!  Witchhunting a pro on a public forum is NOT going to do anything except have the matter looked into.",d7kqn1n,coreytherockstar,5q2gz
"Why, so you guys can allow the same 5 shit post Rank S super awesome insane nutty clips every hour? No thanks. This information will spread, whether you mindless drones like it or not. ",MattyyyS,vz6s8,d7kpzxx,If you continue to knowingly violate our rules it will result in a ban. Thanks.,d7kpy4o,bze,61ptl
"""Your thread was removed under **Nonsense Blanketed Rule: Restriction of Open Speech About Serious Problems This Game Has.**

Please take a moment to feel like you're in Soviet Russia.",MattyyyS,vz6s8,d7kpx5a,"Your thread was removed under **[Rule 6: Scamming & Cheating](https://www.reddit.com/r/GlobalOffensive/about/rules/)**.

---

Please take a moment to visit the rule linked above; many rules contain details which may not be evident by the rule title.",d7kpvlr,bze,61ptl
You're a moron.,MattyyyS,vz6s8,d7jka9k,"he doesn't hack man. I've been following subroza's play for a while, he's just that good.",d7jguv2,Yukizukiyo,tqidg
"Yes. Most front page google cheats come with aimbot overshoot, to make it wiggle and miss a bit, but he's using a Bezier Curve aimbot.

https://www.youtube.com/watch?v=_qlia9x4yKM ",MattyyyS,vz6s8,d7jk74k,"So just to clarify:

We're looking at a video on a phone filmed with *another* phone discussing aimbot wiggle.

Is there such a thing as aimbot wiggle? Because I don't know. And you all seem to know.",d7jeajs,misconstrudel,4tiep
lmao this game is a joke,MattyyyS,vz6s8,d7j7uol,Exactly. That's the point we're at right now. Subroza can jump on stream and aim-hack more blatantly than anyone I've ever seen and no one with any authority is calling bullshit.,d7j4454,the_lochness,79dwb
"Were you on Unhinged? You got screwed. Archer is 100% not clean. The game knowledge from WIL seems to be pretty consistently on point with what you guys are doing, and you can see it when it comes down to CT retakes from them. They have pin-point timing on your rotations through sites and seem to be uncanny at picking the exact moment when you guys turn to check something else. Not only that, but Archer is using a slight aim assist. It's nothing crazy, probably something along SNM's config for the cheat he uses. It's very slight, but I can see him pull mechanically in his sprays. He pulls fairly normal shots for the most part, and is a decent player with cross-hair placement, but you can see it on pistol plays more so. Their aim is way to jerky and not consistent with their rifle play, which makes me think their rifles are smoothed along with a very slight recoil control system whereas their pistols aren't. I suspect Phychiic of cheating too, based on his pistols, but I can't say for certain because he mainly awps, and you'll never be able to catch a cheating awper unless the cheat malfunctions.  

I speak from experience, you guys got screwed. You didn't exactly help your case though, you guys played right into them at most point, didn't check corners, executed site takes poorly, choked and baited, and overall performed poorly. They didn't have to abuse their cheats to win, like you see more commonly at higher tier LAN plays.  ",MattyyyS,vz6s8,d7isrpv,"https://www.youtube.com/watch?v=opz1I93hrH0

Here you go.  Thats the VOD for the final (we lost 2-0, second map went to OT).  The rest of the VODs are there too.

Why dont you pick out all the bits where people were cheating please.

I am telling you for a fact.  No one at the LAN I played at was cheating.   No matter how easy you might think it is to do about this particular one you are wrong.

Keep your hackusations to yourself (or have a chat with Dan M).",d7gsyz2,Bassmekanik,s6teb
"Someone was probably cheating. Are you aware of how lowkey cheats can look?

https://www.youtube.com/watch?v=sZs_VYbjBlc&feature=youtu.be

Someone was probably very likely cheating. ",MattyyyS,vz6s8,d7gp0n4,"It can be yes, but all the comments I wrote above were related to an event i actually played at, where I am 100% positive that no one cheated.  Theres even VOD's up of them on youtube, which I have watched as well.

So your Subroza comment means nothing in the context of my comments.",d7fcjez,Bassmekanik,s6teb
"It doesn't matter what event, cheating is a lot more simple than it looks, especially being able to smuggle or hide the cheat.",MattyyyS,vz6s8,d7euvu5,"I think you confuse which event I am talking about.

Read my first comment.",d7dwey7,Bassmekanik,s6teb
I know. It's funny.,MattyyyS,vz6s8,d7dogtq,I agree and also in premium they dont even try to hide cheats..trust me.If u send ticket to support they will not be banned bcs they dont care.Only if u make video like this guy they will maybe be banned.,d7dod8z,SkeBo91,wuwtu
"Premium makes no difference in the amount of cheaters, just how hard they try to hide it.",MattyyyS,vz6s8,d7dnqza,"It's so obv that Faceit care only about money.They maybe even have their cheaters to force us to buy ""Supporter or Premium"" bcs they say in premium que is less cheaters.",d7dn2mv,SkeBo91,wuwtu
