child_body,child_screen_name,child_user_id,child_tweet_id,parent_body,parent_tweet_id,parent_screen_name,parent_user_id
I use it well enough.,NewSpaceMark,nuit3,fjf71rv,I’m not going back to win. The mobile app is horrid. Not even bad. It’s unusable.,fjf5dc9,VDLPolo,vx6a7vo
"Use both, man.  There’s content there that you won’t find here and vice versa.",NewSpaceMark,nuit3,fjf70ex,Whats the best way forward? Should i close my account here for thedonald.win or should i keep it open?,fjf2mjt,AloweiseEdelhuberIII,4lmrgo2q
"Am I the only one who thinks it’s ok to visit both?  I don’t understand why people are picking sides. We’re all on the same team.  On top of that I’ve personally interacted with an obvious shill (hour old account talking about ‘us pedes’) who was hyping up this mod drama in an effort to be divisive and so discontent.  I’ll contribute here if I’m allowed, at win and anywhere else I find the spice that made T_D great.",NewSpaceMark,nuit3,fjf6lsp,"I am quite disappointed in this whole T_D vs Win thing, it's now just plain bullshit with not being able to post on T_D. I was on the Win thing as a backup, thought it was a good idea. Until good mods got screwed in order to push the Win thing, now it's no longer a backup but rather controlled opposition. This is my opinion and observation as a 3 yr supporter of T_D, so if I'm gonna get banned, oh well, then I get banned. In the grand scheme of things, this is just an online forum and there a bigger fish to fry. I was so very proud of all the posters here and very impressed with the amount of younger pede's here actually standing up and knowing what the hell was going on in our government, impressive and I always commended you when the subject came up. Now a few ego's got in the fray and here we are, sad. I'm glad to have had the experience and for those of you who gave this old lady faith in the future.",fjf2vju,Mom_Dukes,10pox5
"I don’t care about mod dramas. I have 3 warnings for upvoting in 3 days. We all know what’s happening you fucking shill. Blaming the mod team that has volunteered countless hours and  hours of their free time to protect us is what speaks volumes. At the risk of becoming repetitive, get fucked.",NewSpaceMark,nuit3,fj5cyof," [https://archive.vn/1dsTm](https://archive.vn/1dsTm) 

that was months ago and speaks volumes",fj57yng,MAGA_Mod_SkullFucker,5t18cpfq
"No, I think beastiality is fine on Reddit. Traditional American values including liking hot women over pigs are not.",NewSpaceMark,nuit3,fj4w7ll,"I still wouldn't fuck her with your dick.

Edit: will I be banned for this?",fj4v9xa,pisstowine,9rbtq
"What are you even talking about?  No pedes are going to be running anything here. It’s fucking over, man.  I don’t even know what my warnings are over. They’re going to limit the posts and try to drive us away with shitty counterfeit content and then they’ll turn this sub into a mockery of what we were in an effort to hurt trump and the maga movement.  The fight has to move to another arena. The only way we can cost reddit anything is if we force them to make us martyrs.  Banned for upvoting on Reddit, a voting site.",NewSpaceMark,nuit3,fj4vx64,plenty of pedes here who will continue the fight...tell the mods to hand it over to one of the 800K+ pedes here and stop holding us hostage.,fj4u60l,MAGA_Mod_SkullFucker,5t18cpfq
"Because it will remove their ability to maintain any  credibility. If we allow a watered down version of T_D as we’ve known it to continue with our support, it is a tacit endorsement of what they’re doing to us. If they have to ban all the amazing talented patriots that make this place special, that’s a news story which could launch a new home, like dot win, for us with massive publicity. Don’t let them quietly deflate us. Make them pop the balloon with a fucking bang.",NewSpaceMark,nuit3,fj4v47w,"Why, Reddit in general doesn't see them.",fixdycv,EvanOnTheFly,1rduf8q
"Come on, dude. She’s clearly lost weight. Look at the picture. She hasn’t been that tight since... well ever.",NewSpaceMark,nuit3,fj4u8ql,"Kek. Fun fact, pigs are declining in popularity for this hobby because it's hard to keep them from eating the truffles. You know, like it's hard to keep the Meg from eating everything in sight.",fiy7x9a,pisstowine,9rbtq
"I’m at 3 so far. The sub is done as our mods have stated. They can’t protect it anymore. I want the cunt admins to have to ban us all. If they’re going to take the community we built the least it should cost them is their credibility. They shouldn’t be allowed to wear us like a cloak, pervert our message, contort our positions until it seams they were right about us all along without us having a fair chance to rebut their falsity.  If I can get banned just by clicking the button they gave us to click then imma do it. Ban me you fucking commie pussies so I can go out on my shield instead of merely walking away in disgust.",NewSpaceMark,nuit3,fj4tolb,I finally got mine.  keep upvoting ciramella's and trany fluids and you will get one too eventually.,fiw19es,javn,6v0oh
Oh like two guns would go off at exactly the time the camera did?!?  Come on! That part is faked.,NewSpaceMark,nuit3,fit1sa9,Haters will say it's fake.,firm2ht,DragonsAndDiamonds,3bwtf3kq
"Me too. I see a grey, I paint it orange. It’s how I know what I’ve read and not read.",NewSpaceMark,nuit3,fiox61w,Exactly. Already got a warning today as well. Have no idea what for.,fiov8gw,wake_up33,121zrz
Is it any wonder they’ll drive a van into a tent of Trump supporters?,NewSpaceMark,nuit3,fh3nbdv,Is it any wonder these people are miserable AF?  I can't imagine a mind that thinks certain destruction is better than a prosperous USA.,fh2nt3k,rainman_or,14ps3c
Why isn’t THAT terrorism?,NewSpaceMark,nuit3,fh3jjb6,The democrats constant lies about Trump have consequences.,fh2pccr,booblitchutz,9rzmy
"It’s incredible.  Her story even addresses the black communities as “Boy” while pretending to understand the black communities, and while admitting dems are lying vote whores. Clueless.  Can you imagine if that were a Trump quote?",NewSpaceMark,nuit3,fh1irl2,"I posted this to the Warren subreddit and it’s almost at the top of the page now.  They have no self-awareness at all.

Edit:  it’s at the top now!",fgy88il,JeskaiMage,24i7z4ws
It was clearly a reckless abuse of power.  Impeach The Hag!,NewSpaceMark,nuit3,fgo5k2s,Even if she didn't violate the law...endless investigations are fair game now.,fgo51nt,wharfthrowaway,12zfy3
I imagine they included a ‘won’t be murdered by Hillary’ clause for extra incentive.,NewSpaceMark,nuit3,fgkelut,I'm sure he got a fat Bloomberg check and board seats at multiple corporations in addition to a do nothing neocon think-tank title so he can still get occasional talking head money from CNN and MSNBC to shill  for the agenda.,fgjmb8k,PoisedUncertainty,sfwk1p2
The guy drew Trump buff! Nice job. Rent free.,NewSpaceMark,nuit3,ffaskcf,"Nice color and shading tho.

I don't hate this piece.  I mean, yeah the obvious, but he shoots himself at least twice and is still standing and grinning?  No blood?  

Fucking Bulletproof.",ffab2sx,soberlight,w2p5s
"Indirectly, yes!",NewSpaceMark,nuit3,ff7ysl1,"That you, Scott?",ff7o7dh,Lakeforlife,3d7aame
"Also, Tom, why is Adam Sandler there?",NewSpaceMark,nuit3,fefsym6,"Tom, what does this mean? Will justice be served? This Awan thing is really serious stuff and no one seems to even care.",feem925,NoBreaks2016,12nowv
Then they’ll want to know about whoever George stole the joke from as well!,NewSpaceMark,nuit3,fdg3ktr,"Its very serious my friend made a comment like that years ago and secret service actually showed up to his house to speak with him and his parents. Apparently they have to look into any threat made and then classify it a certain way to know how much of an actual threat they are.

Someone like George Lopez is automatically a higher threat because of his connections to powerful people, wealth, etc.",fdesq9n,JacobDerBauer,oib0ue7
"And when they can’t find a hate crime, they create one of those too. How many times have we seen that in the last 5 years?  Fake news for fakers and fools.",NewSpaceMark,nuit3,fculhsu,Fake news isn't found -- it is created.,fcu8dw5,fthecoup,3310mlao
And yet https://youtu.be/kc1-lDNBPMo,NewSpaceMark,nuit3,fc7ytkv,He brings on guests to lie so he doesn't have to ... so much anyway.,fc6ppjv,Eli_Truax,hdrtx63
Why didn’t he pick a female wife?,NewSpaceMark,nuit3,fb6o7uw,If women make better leaders why are so few ever elected? You can't be a great leader unless people want to follow you. Also why didn't Obama pick a female running mate?,fb6e08c,ChuckedBeef,1u7o00ij
"I literally begged for someone to make
This point earlier today. Gaetz to the rescue.",NewSpaceMark,nuit3,famn3xd,HOW DO THOSE NUTS TASTE,famhqsl,SRaccount1,zbt6l
"It was meant to be ironic, sweetheart.  I’m curious, what made you feel comfortable judging OP’s and trying to make her feel shame for pursuing her goals?  You levitating above the rest of us or something?",NewSpaceMark,nuit3,faknf7h,"Hah! Nah homie, quite the opposite but thanks for playing *""Throw random insults at people on internet to reveal how much of a douche you are"".* You win!

Edit: Based on your post history you seem to have and odd infatuation with both ""fat pig"" *and* Donald Trump. Theory confirmed, you *are* a douche.",fakeaq4,madam1madam,5el37
Spoken like a fat pig,NewSpaceMark,nuit3,fajq2yx,">*I am upping my Instagram game*

Certainly there's better things to focus your energy on than a perpetual game of trying to convince strangers how pretty you are.",fahuf2s,madam1madam,5el37
Exactly. Brennan in the summer and Obama in the early fall.,NewSpaceMark,nuit3,fai354q,Barr said the whole “they went to Russia” and such in his interview on MSNBC,fai12xn,generalgdubs1,14vwya
"Delayed. They would fester and incubate in the North. Then in a single generation if you’re in Arizona, Florida or Palm Desert you’ll have to listen to their ideas all winter.",NewSpaceMark,nuit3,f9ljkeo,if they had moved to canada then the problem would be solved by now,f9l91dt,crimsonpowder,la172
All he had to do was check out her gynae.,NewSpaceMark,nuit3,f9ixnv5,I’m disgusted that a physician would treat this brave woman so poorly.,f9il5vn,SubversiveInterloper,1sob09kl
Yep.  Like there's never been a cop with a personality problem? Some are hall monitors with roid rage.,NewSpaceMark,nuit3,f989g32,"The dad could well be a cock, who knows. Sounds like a dysfunctional family all around if that's how they behave, but all we have is her Twitter and the dad cop caring enough about the word pig to complain to the media",f986hhq,SummonedDaedroth,3o4jsrj4
"Hmm. No DNA test on the corpse, and 2 weeks after he dies in prison his plastic surgeon dies from improbable retardation... nah, nothing fishy.",NewSpaceMark,nuit3,f8zq36m,"Nothing fishy here....just a surgeon pilot who doesn’t know what kind of fuel to use in his plane...

Never mind the person who fueled the plane knew better... it was his choice.",f8yvk33,t3hdubzy,ilbdz2i
"Don’t get fooled by the makeup. Here’s a pic from the green room:  
http://magaimg.net/img/9sey.jpg",NewSpaceMark,nuit3,f8w16lg,"I stand behind this statement. 

Dare I say... I’d pork her.",f8w0b4n,DOOM-Yu-Ji,3io7bpju
Including all the honest ones.,NewSpaceMark,nuit3,f8rlh1w,Most of the people who run for president in Mexico are dead.,f8qy4e4,KingWolfei,tjq37
"This is the guy who just lost a pitched battle between his armed forces and the cartels. What does he call them, freedom fighters?",NewSpaceMark,nuit3,f8rlcpw,"Is the guy a complete moron, or cartels own him? Butchering civilians and flooding the streets with their body parts to instill fear is the textbook definition of terrorism.",f8qsoo0,Rookie_2,wut7m
Exactly her attitude.  The level of ego involved ... “There’s no way they would do that when we haven’t told them to.”,NewSpaceMark,nuit3,f8rkmqp,This can't be accurate because we own all the black people… but we are not racist!     -Socialists,f8qw4rz,HomemadeTARDIS,4t8zoftu
Deep state,NewSpaceMark,nuit3,f8ngrzq,DS?,f8nfwga,PrelateFenix87,3k6sjitr
They loose their man hair?,NewSpaceMark,nuit3,f8dix1y,What does mommy say about boys who lie in impeachment hearings?,f8d2vou,MAGAinOK,14n9mb
When was the last time anyone saw Balkie?,NewSpaceMark,nuit3,f8df9by,When I first saw her I assumed she was a tranny. Are we sure she isn't?,f8cy0yz,Jack_Lemon,4xd931
‘They Live’ sunglasses.,NewSpaceMark,nuit3,f8d749q,All 13 rules should be understood by everyone. It's like putting on the 1984 sunglasses.,f8d03lp,ONE_MAN_MILITIA,12hfiu
Those ears are earned.,NewSpaceMark,nuit3,f8724yl,2- time NCAA champion and 3-time all-American in wrestling and inaugural Chairman of the Freedom Caucus.  He's been super impressive in these bogus inquiries.  I'm all for Jordan 2024.,f86w1gp,Rush_Is_Right,91qw8
Also Trump is Putin’s bitch so he’s bribing Ukraine to put pressure on Russia. It’s only coherent if you drink a lot.,NewSpaceMark,nuit3,f813unn,Let's make sure we are clear on the position of the Democrats. A republican president is NOT allowed to look into corruption by democrats.,f7yfc6t,Gmama2,3j3lwdje
Ahead of schedule and under budget,NewSpaceMark,nuit3,f811xtn,"Watch, It ends up being the only thing good at doing the job right, lol 🤣",f7zo5rz,SuperPwnerGuy,cqlyu
"Meanwhile, I’ll be getting me some of those reparations I keep hearing about",NewSpaceMark,nuit3,f7y5qji,Blacks can identify as white too! Then they can enjoy all that white privilege they’re missing out on.,f7xrxfj,pghmommiedearest,1ymifra7
"No, it hasn’t, but it used to be at least diverse. Now it’s all owned by 6 globalist megacorps. There’s no room for MAGA or any nationalist perspective.",NewSpaceMark,nuit3,f7vcpu5,No longer? It's never been honest media,f7uherq,illumiNati112,um887
And Pelosi’s,NewSpaceMark,nuit3,f7mkhzy,Not just the VP’s son. The SOS Kerry too. They’re all dirty. They started a coup so they could loot the country.,f7l17eo,Apersonofinterest666,6j6ff
Maybe she could share a cell with Roger Stone. He did far less.,NewSpaceMark,nuit3,f7mkefa,"Yes, should.  But in reality, nothing will be done to her or to any of them.  I really wish something would be done about it, but I have little faith in real justice.",f7lyy3u,Mongozuma,i69k8
"If you ONLY and ALWAYS vote with your party, then you have no power.  Not saying I agree with any of those positions but it could be strategic.",NewSpaceMark,nuit3,f7mkak1,"* She voted to condemn Trump on Syria. 
* She voted with the Dems against Trump declaring a national emergency. 
* She was also one of the 12 House Republicans who voted against the 2017 tax cuts/reform bill!",f7m3ecj,lla26,12ur7y
"Fuck waiting for appeal. Trump should pardon them now. With the shampeachment on full display, and Epstein Didn’t Kill Himself memes popping up in the real world every day, now is the damn time to rip their guts out by exercising his authority.",NewSpaceMark,nuit3,f7mjpaz,Definitely judge shopped. Can't wait to see these overturned on appeal.,f7lrfwn,TotallyClevrUsername,6wzsr
Kek,NewSpaceMark,nuit3,f7iwf42,Quid Pro Navajo,f7ioeak,FedUPSEx,3t2ptl83
And what head of state to head of state call is not a negotiation?  Every conversation 2 leaders have is by definition a quid pro quo or it wouldn’t be worth having and wouldn’t have happened. The notion that a leader calls up another when they don’t need something is naive to the point of being developmentally challenged.,NewSpaceMark,nuit3,f7iwbmc,What negotiation with any foreign state is NOT a quid pro quo?????!,f7i3kgo,K-Harbour,127iro8t
Word,NewSpaceMark,nuit3,f7dr67v,Because it's a made up system. They could start at year 7 and skip to purple if they wanted.,f7dosku,B1indedBySight,3pwrs17y
"You seem a little touchy. The best estimates put Christ’s birth around 5 BC. So it’s all fucked anyway, bro.  Does anyone other than you care?",NewSpaceMark,nuit3,f7dnxe0,"Luckily now that we have all realized that doesn’t make any fucking sense to continue, we’ve collectively decided to count decades in a way that does. Yourself excluded, of course.",f7dn6ej,plumbtree,dbqwg
"How can it have gone immediately from 1 year BC to year 1 AD?  It’s because AD means basically in the year of the Lords birth. There was no AD 0, or even more precisely all years before AD 1 were AD 0s because it hadn’t happened yet.",NewSpaceMark,nuit3,f7dn21j,"Lol! You’re the dumbshit. It doesn’t matter that there is no year 0. The first decade after BC didn’t have a 0, but every one after that does.",f7dghdn,plumbtree,dbqwg
He should be Prime Minister instead of the Mrs. Dressup we have now.,NewSpaceMark,nuit3,f7dlknk,Wow I like this guy even more for not backing down,f7cfco8,FixitFelix88,yrli1
My nephew has Downs Syndrome and is way better looking than either of them. Even he wouldn’t fuck that thing.  How in the heck can you have an open marriage when you’re the only guy in the world that would bang your wife?,NewSpaceMark,nuit3,f6puy8y,Looks like he has down syndrome,f6p6396,bmorepirate,144j1u
"Canada still isn’t cucked when it comes to our boys getting the job done.  Ms. Dressup aside, we’ll be there when it counts.",NewSpaceMark,nuit3,f6l4mc3,I remember.   Also Canada was not so cucked back then and managed to hide and smuggle out 39 American embassy personnel at the time.,f6j85xk,Astroblink,21f9adm3
"Hey, so is Bankruptcy!",NewSpaceMark,nuit3,f6kx1ez,"Rape is sexy 

👁👃🏻➖",f6joyi9,BurtReynoldsWrap,6atrd
Too funny.  And gotta love the pseudo intellectualism. He’s ‘quantifiably’ the worst dancer. See it’s science.,NewSpaceMark,nuit3,f6jdqrr,Lmao. The fact that they get triggered enough to write whole fucking articles about it means that it clearly worked 😂,f6i8z4w,MisterUniverse1,2fsk23ov
Loyalty is secondary to sticking to principles you believe in.,NewSpaceMark,nuit3,f6atijw,"Ted Cruz has been just as, if not more, loyal to GEOTUS. Change my mind. But also yeah I do agree with you on the premise that the people of this sub need to know of senator Paul’s loyalty.",f6a21iz,ToastyTree69420,2xm4tqrs
This is the point. He was maga before it was cool. Just like his dad.,NewSpaceMark,nuit3,f6atdr6, I know he is pro America and that is a great.,f69feo0,ZestyTreat,2amojp2q
"Thanks. That’s right.  How were they not empty of white men the next day?  Oh yeah, cucks. That’s why.  I am going to start a charity for straight white men. A safe place for us to succeed on nothing but the merit of our ideas and actions.  I’ll call it a ‘company’ and it will make money that we can share. Now that’s progress, eh?",NewSpaceMark,nuit3,f6265lj,That was [yahoo](https://www.cnbc.com/2016/10/07/lawsuit-yahoo-ceo-tried-to-get-rid-of-male-employees.html),f624pg4,aisle-is-closed,yu1aj
There was that female CEO who said in a huge company meeting that she would NEVER promote a white male again!  Like it was fine.  The vile witch would’ve had my resignation in seconds if I worked there. Even if I were the janitor.,NewSpaceMark,nuit3,f622t98,"I’m a woman, in engineering. This is happening every day, it’s just not allowed to be called racist. 

White men. You are being past over for jobs all the time in large corporations because of your race and gender. You should always ask about diversity programs, and if they admit to having one, sue when you miss out.",f61zbhb,aisle-is-closed,yu1aj
He sure fights like a frightened coward... what are you afraid of Adam?,NewSpaceMark,nuit3,f5u9pxt,*arrested,f5thdpe,iRubGuacOnMyArmpits,1gzlg958
I thought it was Dustin Hoffman...,NewSpaceMark,nuit3,f5u9897,It's Pat!!!,f5swx1n,navyguy556,17alll
A fucking Tootsie right there.,NewSpaceMark,nuit3,f5u94d0,"Well, she's a guy, so...",f5tg1xo,Lincoln_Ford,w77kn
"One hell of a jawline for a lady, isn't it?",NewSpaceMark,nuit3,f5tfl08,"That's a man, baby, YEAH!",f5swah9,Lincoln_Ford,w77kn
Worked for me. Try refreshing the page. I have to do that often with twitter links.,NewSpaceMark,nuit3,f5pd8wo,Right. I just got here. Someone give us a new link!,f5pcq6a,tattoosncupcakes,53r74ma
John Bagdadhi?,NewSpaceMark,nuit3,f5juril,Brennan is a Muslim.,f5f108b,littleirishmaid,i3d84
I can honestly say that NOTHING means less to me than some other dudes sex life.,NewSpaceMark,nuit3,f5jnpvj,"Why not, what does anyone care what you do in your bedroom?",f5i7ufh,tnmuddobber,17k6f9
He was on guard duty patrolling the perimeter and as they were going by had a chance to get in. But yeah he’s reckless by nature.,NewSpaceMark,nuit3,f57rqp4,Got some balls to sneak onto a blacked out cargo plane... jesus...,f57pgz2,Monk_of_Trump,cflhr0u
It did. The US was trading guns for coke to the Sandinistas.  I have a buddy who was stationed in Panama at a US military airstrip. One night a blacked out (no markings) C-130 landed. They offloaded a bunch of guns and loaded up a bunch of odd containers. He and a friend snuck on the plane and it was filled to the rafters with blow. Few hours later it took off heading north.  He was apolitical but it shook him up and he quit the military within a year.,NewSpaceMark,nuit3,f57osjn,"Yup, he started talking about the CIA trafficking cocaine into Mena, Arkansas. I believe that it had something to do with the Iran-Contra scandal but I was just a wee lad back then so I don't clearly remember.",f57nodw,LowBloodHighEnergyRI,xe9s3
When we’re done they’ll be canker sore,NewSpaceMark,nuit3,f4z4y9x,They're a canker sore.,f4z4qal,Imnewidkwtd,y3ac1tt
You can clearly see Pepe having a great time.,NewSpaceMark,nuit3,f4ud6k9,"Leftists: ""THERE'S PROOF!!! IT'S NOT DEEP FAKED!!!!""",f4u64it,BannedRussianKekBot,1qbvsdb0
It’s real. Pretentious puffta flipping off a man saving who’s him from himself. Welcome to 2019.,NewSpaceMark,nuit3,f4ucog6,It's extremely disrespectful and distasteful.,f4u3z7n,1I2I3I4I5I6I7I8I9I,4r39v1
YOU CAN’T BE RACIST WHEN YOU’RE IN BLACKFACE!  ONLY WHITE PEOPLE CAN BE RACIST!,NewSpaceMark,nuit3,f4tr3ge,"I will no longer believe any leftists claims about blackface being offensive. Trudeau and Northam are still in office, their credibility is now completely shot.",f4qmm2h,brlove0915,78jxgeu
Especially since he’s short enough to look up her skirt most of the time,NewSpaceMark,nuit3,f4nt2ak,Isn't the worker accusing him a transgender?  I thought xer had an adam's apple in the photo I saw.  That would make it even more amusing if De Niro was sexually harrasing xer.,f4mvxg5,Comanche_Moon,124oko
Damn right. This is the point. Mexico doesn’t control its northern border. The cartels control the border. So if we don’t control our side we are literally gifting the control of OUR border to the cartels. Fuck that. Build the wall now.,NewSpaceMark,nuit3,f4nsbud,"Folks we need to finish the wall, like yesterday. Anyone who thinks this couldn’t spill across our borders and happen in the United States is in dreamland. 


https://mobile.twitter.com/DonaldJTrumpJr/status/1186287408301727750",f4lnz6i,TDSisReal,19c41gx2
"I’m buddies with a former DHS investigator, who started as an El Paso beat cop then SWAT team members.  He says the cartels long ago bought judges and politicians north of the border.  They knew they were on target when certain stateside lawyers would show up to defend whoever they’d just busted.  They’re well established.",NewSpaceMark,nuit3,f4nrvaf,What if I told you the drug cartels ARE the federal government in Mexico...,f4m4i2n,sonny68,f57m5
"Near Arctic Pede here. You don’t build a fire in an igloo. It would melt. You do light a candle though and it will keep the inside temp one pube above freezing. And it’s a blonde pube not black.  What’s really interesting though is, Epstein didn’t kill himself.",NewSpaceMark,nuit3,f4angaw,"While this seems cool and all and I don't know the science behind it, so I'm stuck thinking the whole place will be fill with smoke and it'll be un-breathable.",f49okzc,Kromium6,342cbl2a
Prediction: Hillary isn’t one of them ...,NewSpaceMark,nuit3,f498673,"Oh, let the fun begin!",f47txsd,SpacePort-Terra,k97b0
He’s blown my mind twice in as many days and countless times before.  He simply fucking nails it.  This outrage culture is just re-packaged envy masquerading as high morality.,NewSpaceMark,nuit3,f45jwz5,Damn...that's good. Professor Sowell says the wisest things.,f44rocq,Trumpsyeruncle,146cs5
And he's in Dallas today.  Last time the Deep State killed a President it was in Dallas.,NewSpaceMark,nuit3,f42tg03,That Biden gaff the other day really got my hackles up!  Probably nothing but today I’d the day I suppose,f41kle0,-STIMUTAX-,l82i8
Right?  You disapprove. Who cares?,NewSpaceMark,nuit3,f408edu,"Oppose it all you want.

&#x200B;

Declare war, or go fuck off, dickless wonders.",f3z2ias,freemiumxxx,1sm72t50
28,NewSpaceMark,nuit3,f4080zf,It's funny how pissed off they are about GEOTUS pulling 50 soldiers out.,f404agl,imafarttrustme,cq472
"Who cares?  It doesn’t mean anything, right? 
‘We are going on record saying we don’t like this’ ... Acknowledged, next topic.",NewSpaceMark,nuit3,f406mkl,"JUST IN: House votes 354-60 to condemn President Trump's withdrawal of US forces from northern Syria; 129 Republicans support the resolution. 

WHAT???",f3ypkmj,pghmommiedearest,1ymifra7
"It’s truly surreal.  These people are trying to impeach him on bullshit charges and they come out whining he was rude to them. What the fuck did you expect, witch?",NewSpaceMark,nuit3,f405fai,"I am actually laughing IRL I can't stop. ""There are communists involved, so you guys might like that.""

And then, what makes it so funny, is that the Democrats were so offended and mad that they stormed out of the meeting and ran to their friends to the press to ""tell on him"" about how mean he was.

They TOLD on him. lmfao. These little bitches. They actually TOLD on him. ""TRUMP WAS MEAN AND MADE FUN OF ME! HELP MEDIA!""

Oh God this really is the best timeline.",f3zyitg,Parogarr,x3lvv
Or is it a Shep in Wolves clothing?   Or a Rat in Sheps clothing? So many possibilities,NewSpaceMark,nuit3,f3auth3,"Should be a sheep in wolf clothing.

The few remaining Conservatives should dump their Fox contract and start their own free media operation.",f39iast,stonep0ny,11ltzw
"Right! OK Newsweek, Now do Planned Parenthood.",NewSpaceMark,nuit3,f2qfbdw,Every business targets whoever is going to buy their product...no wonder Newsweek went to online only.you can't print this shit.,f2nphr1,letrainwa,114ozc
In which the taste of your own medicine is the taste of girl dick.,NewSpaceMark,nuit3,f25txe0,The marxist ponzi scheme,f258j37,prettyfamousguy,yx4q15
I’m an outlier on this.  Drudge is still the biggest news site on the internet. Just continuing to put infowars links at the top once a month is enough for me.  I think he’s riding the line in these fractured times to hammer key red pills home.  I still support him even though I’ve gone from checking in twice a day to twice a month.,NewSpaceMark,nuit3,f1wblj2,"Someone called Rush out on that about a month ago and he refused to talk much about it. The most he would do is admit that he had noticed the decline of what was on page, but that it didn't jive with Drudge's personal views.",f1vr4ya,DankItBobby,m0bt3l7
Yeah,NewSpaceMark,nuit3,f1lkkw8,">  It blows out the entire genesis argument for Russian collusion.

That argument has been blown out about a dozen times already. I'm still waiting for the counterattack.",f1lf3vz,black_cat_,fv25c
That’s why the money is completely implausible. How is it going to hold a martini with cymbals strapped to its hands?  I mean come on.  26 times a day?  I don’t think so.,NewSpaceMark,nuit3,f1d8muz,Its called alcoholism and its neither the beginning or middle stage for her.,f1crhj3,magic_red_hat,2ydgj3ke
"Fukushima is 50’s tech.  There’s designs now that we could iterate within a couple of years that go beyond Thorium. Can’t meltdown and use old spent fuel rods as inputs among other sources.  Safe and cheap within 5 years.  Would ‘solve’ the fossil fuel ‘crisis’ if it matters, and bring us closer to the golden age.  We all know why none of the hysterical climate change champions won’t support it. It fosters independence and that ain’t what they’re aiming at.",NewSpaceMark,nuit3,f1cm8xh,"Fukushima isnt doing so good though is it.  Look at pge with all their fires, explosions, and overall corruption and tell me you want to give them more plants to mismanage.  Diablo valley is already a disaster waiting to happen.  We need thorium power but I dont know how we get there with the current plutocracy.",f1cdfzo,BillybobjoeIV,2ykvrdbx
Not to mention the CIA connections. Hers and theirs.,NewSpaceMark,nuit3,f0ntfzo,You mean the ... companies that run social media websites? Surely *they* wouldn't cooperate with a socialist hatchet job?,f0ninnc,bobskizzle,9t09r
It was preceded by a popularization of the phrase ‘it’s not gay if it’s in a three way’ which covered T-shirts and mugs from the era.,NewSpaceMark,nuit3,f0eay8w,"No you’ve got it all wrong. The French invented homosexuality in the late 1500’s, just after the ménage à trois period of 1490 - 1540.",f0djydd,avanti-nz,3eeqld55
O’Rourke would be ridding side saddle,NewSpaceMark,nuit3,f09hlai,I’ll see your Romney and raise you an O’Rourke.,f09amru,SigmaCronos,iytnr
We will!,NewSpaceMark,nuit3,f05r5zx,But who will pay for them if we all go transracial?,f05flyy,cmchn,5hptx2z
Did Kamala wipe her mouth off?,NewSpaceMark,nuit3,f02tya0,commercials still going but Everyone is already back out on stage..only bernie and biden aren't.,f02tv8n,IncomingTrump270,117wa9
We might have a winner there for the most retarded comment out of “thousands” tonight.,NewSpaceMark,nuit3,f02tuy7,Beta said that the wall has produced 1000s of deaths. PROVE IT! I guarantee you can't,f02to1f,manbearpig_man,eeywe
Oh they merely committed suicide. All 6 of them. One just days from retirement. In less than 8 weeks apart.  Nothing to see. Nothing fishy.,NewSpaceMark,nuit3,f02h5nn,"We have so easily forgotten. Exactly what they like. 

Now if I remember correctly, a few NYC cops were found dead. Just weird it was the same NYC cops that had access to the laptops.",f01g10s,Beepboopcomrad,134eavbl
"But how can he pay for 65,000,000 beds. Even the master couldn’t do that, or could he?",NewSpaceMark,nuit3,ezsju46,Then he'd run in 2020 unopposed...the Democrats would have no one available!,ezs80z4,NippleBuddy,itkmf
