child_body,child_screen_name,child_user_id,child_tweet_id,parent_body,parent_tweet_id,parent_screen_name,parent_user_id
**FREE**the**DOM**,NotNolan,9us3f,fjpohwi,"We might as well call this sub ""The_Fitton"" heh - please keep using this platform this way.",fjpm924,megaspif,atc3p
Hey we have to keep TD locked to keep the admins from locking TD follow along,NotNolan,9us3f,fjpogjd,"> Tom, you gotta start posting on www.thedonald.win

I disagree, fellow Pede, IMO we need Tom here dropping Redpills and calling out the Leftists for their hypocrisy on their own platform.",fjpmzj3,Greg-2012,9pv4t
Waiting for a new post like starving dogs,NotNolan,9us3f,fjkszmp,The irony of us having to come here to discuss the status of .win is inescapable.,fjksc9y,JediMasterGandalf,1hycnij
The logic that says we will prevent admins from shutting down r/The_Donald by shutting down r/The_Donald reminds me of the same logic that brought us a dossier filled with foreign-sourced lies being used to prevent foreign election interference.,NotNolan,9us3f,fjgvezz,"I plan on staying. I would absolutely love it for them to ban me for upvoting “wrong think”

It is not wrong think for me to say “I support President Trump.”",fjg78q5,911child,hs4y1
"[Sorry Joe](https://www.foxnews.com/politics/biden-campaign-comey-endorsement) **NO REFUNDS**

**FREE**the**DOM**",NotNolan,9us3f,fje9l52,"You guys have it all wrong. Biden said today would be Super Thursday. 
Sheesh...",fje5dtr,GeraldMungo,otdfa
Mods? I’ll settle for a few more approved posters up in this bitch,NotNolan,9us3f,fjbu322, New mods have to come **legally**.,fjbq5cb,zroxx2,zmynr
**FREE**the**DOM**,NotNolan,9us3f,fjbt9jy,Trump2020,fjbpxqk,StonewallSoyah,5cqxgut5
So inclusive,NotNolan,9us3f,fj82o06,"👇🏿👇🏿👇🏿👇🏿👇🏿👇🏿👇🏿👇🏿👇🏿👇🏿👇🏿

👉🏿👇🏾👇🏾👇🏾👇🏾👇🏾👇🏾👇🏾👇🏾👇🏾👈🏿

👉🏿👉🏾👇🏽👇🏽👇🏽👇🏽👇🏽👇🏽👇🏽👈🏾👈🏿

👉🏿👉🏾👉🏽👇🏼👇🏼👇🏼👇🏼👇🏼👈🏽👈🏾👈🏿

👉🏿👉🏾👉🏽👉🏼👇🏻👇🏻👇🏻👈🏼👈🏽👈🏾👈🏿

👉🏿👉🏾👉🏽👉🏼👉🏻**THIS**👈🏻👈🏼👈🏽👈🏾👈🏿

👉🏿👉🏾👉🏽👉🏼👆🏻👆🏻👆🏻👈🏼👈🏽👈🏾👈🏿

👉🏿👉🏾👉🏽👆🏼👆🏼👆🏼👆🏼👆🏼👈🏽👈🏾👈🏿

👉🏿👉🏾👆🏽👆🏽👆🏽👆🏽👆🏽👆🏽👆🏽👈🏾👈🏿

👉🏿👆🏾👆🏾👆🏾👆🏾👆🏾👆🏾👆🏾👆🏾👆🏾👈🏿",fj82khj,SigSeikoSpyderco,13c6gpdl
"This right here. We’ve all been doing this awhile, I think the mods got a liiiiitle too self-important.  This community can handle a couple shitty mods. Believe me.",NotNolan,9us3f,fj80z8f,"Mods need to open up the subreddit and allow the community to self-report rule-breaking content.  By keeping it restricted, will only bring demise to this great forum.  Most of us don't have enough interest in transitioning fully over to .win, as is proving evident by comparing activity between both places.

Make The_Donald Great Again!",fj80jn1,TimothyHalpern,zvc1h
Radical leftist journalists and editors successfully disguising themselves as moderates is the source of most of our problems as a nation. Change my mind.,NotNolan,9us3f,fj6s9wf,"Agreed. The Overton window has shifted dramatically leftward due to MSM bias.

Commonsense positions from 20 years ago are now derided as reactionary conservative.",fj6pnjz,quarthomon,3ee1wgcd
"Many of them do not even realize that the core emotion underlying their radical beliefs is ENVY. They cannot stand the thought of anyone having more than they do, so they want government to balance the scales.",NotNolan,9us3f,fj6s66a,Yep. They used to try and be sneaky with their facist/commie ways and try to hide/deny them. Now their emotions and rage have gotten the best of them. Media too. Now their insanity is on full display for everyone to see.,fj6ol9b,Joesf23,3jcry710
Radical leftists want you to believe politics is a continuum from left to right. It’s not. It’s a continuum from liberty to tyranny.,NotNolan,9us3f,fj6s23o,"By definition, conservatives are the true liberals. We just want more freedom instead of a totalitarian government.",fj6ninm,oneUnit,g8151
"The way they distinguish it is by saying the bakery was discriminating against a protected class, whereas Reddit is only discriminating against political opinions - which in their mind is perfectly fine.",NotNolan,9us3f,fj6qtie,"So refer to the cake post above. That is a similar legal precedent from a logical perspective. How do you reconcile them both?

I AM a conservative. I'm actually upvoting your posts because we need less echo chamber and more decent discussion. 

Let's keep it civil.",fj6okrp,Trathius,3qzxm5gs
"The fact that the leftist subs here mockingly refer to the First Amendment, one of the bedrocks of free society, as “muh freeze peach,” tells you *everything* you need to know. 

If you can’t win an argument without silencing your opponents your argument is shit.",NotNolan,9us3f,fj6qcox,"Yep, they LOVE free speech as long as it is THEIR speech.  Then a lot of the time they put on a black  mask.   Guess that is in case they want to smash a window or two and loot and destroy other peoples property as they “exercise their free speech”.   John Kennedy, Hubert Humphrey and other Democrats that were great and built the Democratic Party must be rolling over in their graves.",fj6mxhc,Bartman1959,4hwauj4o
"I’m not talking about the quarantine I’m talking about right now, with all posts being restricted to a few mods",NotNolan,9us3f,fj5uwvr,The full mod team and the millions of pedes here weren’t able to stop the shills that planted the vIoLeNcE aGaInSt CoPs posts. Why blame the mods for spez fucking us over?,fj5l7c4,Fred_Winston,77i8cgg
Maybe the top posts over at .win should make the grade then. Right now r/The_Donald has pretty much become a couple mods’ personal Twitter feed.,NotNolan,9us3f,fj5l4qy,It is all posted on .win.,fj5kbpi,CovfefeBucks,2iyufn
"Only Trump can save r/The_Donald now, and if he’s not worried, we don’t need it.",NotNolan,9us3f,fj2da1a,"It would be great to save T_D, not sure how to do it though.

We can redpill elsewhere on Reddit but then it's hard when the new converts have nowhere to go.",fj2d5wd,Block_Helen,xb1ku
"And the difference to you between radio, television, and the Internet is...?",NotNolan,9us3f,fj16bju,">but why does the equal time rule apply to television and radio

Because they're *television and radio*. Holy fuck.",fj15oib,Mlarcin,6lffh
But why does the equal time rule apply to television and radio?  Don’t private companies own television and radio stations?  How can they be controlled in their broadcasts?,NotNolan,9us3f,fj143rn,"Reddit is not television. Reddit is not radio. The equal time rule doesn't apply. Reddit isn't even a website that is inherently political, it just had sections that have different political leanings or topics. 

Please stop reaching.",fj13tn9,Mlarcin,6lffh
Have you heard of the “equal time” rule?,NotNolan,9us3f,fj13lhn,">If they choose to offer the platform it had to be politically content-neutral

It absolutely does not. If it was a government website it probably should. But, again, it's a private company.",fj10wia,Mlarcin,6lffh
If they choose to offer the platform it has to be politically content-neutral. Your entire argument assumes good faith on the part of the admins. That’s a questionable premise given the disparate treatment of the left-leaning subreddits.,NotNolan,9us3f,fj10btu,"If it was a government website, you'd have a point. But Reddit is a private company that has every right to enforce it's own ruleset. So you're not saying anything meaningful. 

And once again, the government is not censoring your right to speak, therefore your first amendment right is not being violated. The other comment you made about the FCC providing the license to the website and that making Reddit an extension of the government and that making it a violation of the first amendment is nonsensicle. By that logic, no website of any American company can ever remove anything anyone says because doing so would be a constitutional violation of their first amendment right. And if that were the case, anyone ever banned from this sub for disagreeing with the god emperor would have a case against the mods who banned them.",fj0xbve,Mlarcin,6lffh
"No terms of service can override the First Amendment. 

**SHALL. MAKE. NO. LAW.** Not that hard.",NotNolan,9us3f,fj0w78g,If it's part of the terms of service that you agree to by using the company's service? Absolutely.,fj0w0cy,Mlarcin,6lffh
"The government provides the Internet address that allows Reddit to host their little forum, just like an FCC broadcast license allows CNN to pipe in their bullshit. Reddit’s rights to use America’s internet come with responsibilities to follow America’s Constitution.",NotNolan,9us3f,fj0vqpx,Is the government censoring or preventing anyone here from speaking their piece?,fj0qj6z,Mlarcin,6lffh
So you think a public forum can exclude one set of viewpoints as long as nobody goes to prison?,NotNolan,9us3f,fj0v8kf,To me it means the government cannot censor someone via imprisonment or other means. Not when a website enforces it's terms of service and people willingly leave it.,fj0pv3k,Mlarcin,6lffh
"Let’s hear what you think it means and we’ll decide who’s right. 

We’ve got nothing better to do today.",NotNolan,9us3f,fj0piad,I don't think free speech means what you think it means.,fj0m5bw,Mlarcin,6lffh
"The election was decided by 70,000 votes across three states. There were 250,000 verified subscribers here at the time of the election. Under those circumstances no one can say any 250,000 people did or did not make the difference.",NotNolan,9us3f,fitl2xx,"I strongly disagree. 

I didn't come to T_D until after he was elected, *after* I voted for him.

62,984,828 voted for Trump. 63 million voters did not visit reddit nor were they influenced by anything said on reddit.",fit9r62,Cass05,n1adl
"In fairness... it likely could have prevented his first term. 

Far too late now.",NotNolan,9us3f,fiswzoc,"Reddit is stupidly arrogant enough to think their little man complex games will prevent a second term for President Donald John Trump.

Only little minds and little dicks fear free speech and the different opinions free thought brings.",fisvqt9,10gauge,gdd6k
"I don’t know what’s my favorite part, this, Biden saying “homeboner,” Bernie talking about the bright side of mass shootings or Pocahontas saying the best way to create prosperity is a wealth tax",NotNolan,9us3f,fisr2wh,Corruption at its finest,fisq80p,FrozenIcekok,2mwcepcx
"Normally, an admin-selected moderator would immediately remove any cause for a quarantine, since the admins would then be complicit in any “unhealthy” moderation. 

But they can’t treat the **DOMREDDIT** normally",NotNolan,9us3f,fir5815,"Dear God, we all need to migrate to dot win ASAP. This subreddit will not even be a shade of its former glory within weeks of Reddit is picking the mods.",fir50mc,sketchy_at_best,7txxn
"As bad as I feel for them and all the users here forced to deal with this blatant political censorship and interference, it’s hard not to laugh at the way this site has destroyed itself and everything for which it once stood in a futile effort to rid the Internet of Trump memes.",NotNolan,9us3f,fir503r,Please press F for the good mods who were removed.,fir4huf,SheGuevara2020,36ypmy0u
"They absolutely had a duty to recuse themselves from that vote, in my view.... it’s an even more blatant bias than the Roger Stone forewoman had... her and Bernie should both be ashamed of themselves",NotNolan,9us3f,fia9f9r,"I still don't get how Warren, Sanders, et al didn't recuse themselves from participating in the Senate trial.  They participated in the analogue of a jury, sitting in judgement of their chief political rival.  How was that not a blatant, flagrant conflict of interest?  How was that not using their political power to try to take down an opponent, the very thing DJT was on trial for?",fia94id,Citizen_Seven,j6og6
Grand jury proceedings are secret.,NotNolan,9us3f,fi7mavt,"It’s being reported now that Durham hasn’t even convened any grand jury’s. Which means, no indictments any time soon.

So what gives? Sure, Barr navigated Trump out of the Russia Hoax, but he’s not doing dick to hold anyone accountable.",fi7m78d,shredzorz,5m7ux
"James Comey will serve a day in prison before Roger Stone does. 

Book it.",NotNolan,9us3f,fi7iozl,"Such bullshit. Here’s to hoping Trump commutes, if not fully pardons.",fi7gfdu,REEE_WUZ_KINGz,67zj6hk
"Great point, although Germany had more Communists than Russia did at the time.",NotNolan,9us3f,fi7hjpi,"""Chose"" isn't quite the right word when the entire Red Army is standing there asking about your opinion on the Soviet system.",fi7gss6,Lithuim,a4oty
If you understand that public pressure is the only way to bring justice you should rethink your loss of faith.,NotNolan,9us3f,fi7fgqw,I am with you. I have lost all faith. If there was some big coming you wouldn’t have so many Trump supporters putting public pressure on the crimes being ignored. If Barr does something it won’t be because he hd a plan. It will be because he caved to the public demand for an equal application of justice.,fi78guf,Vegas_off_the_Strip,153n5t
Yeah the difference being Trump went after Sessions and has not gone after Barr at all. This is the key distinction,NotNolan,9us3f,fi7fc3b,">Barr is not going to quit. The entire “feud” is theater. 

With respect, this was said word for word when Trump was going at Jeff Sessions when he was AG, and we all know how that turned out.",fi7cbfj,skankblunt42,136s1m
I’m confident because I watched Trump on the tarmac two days ago explain how his admin has found all the leakers and uses them to spread the narratives they want; and I watched his rally yesterday where he called out the dirty cops and the FISA abuse and seemed pretty clear that consequences were imminent.,NotNolan,9us3f,fi76h4y,"And why does that mean it’s all theater? That isn’t evidence one way or another it’s all theater, and whether Trump bashes him does not mean he will or won’t resign. So I’m not sure why you’re very confident it’s theater. If you have evidence, feel free to share.",fi73b61,BasedMedicalDoctor,1153s17g
Trump hasn’t said one negative word about him,NotNolan,9us3f,fi731tu,"Well, the fact he went to ABC and bitched? That’s evidence.  I won’t count all the sources that claim he also was weighing resigning because I don’t much trust anonymous sources. But still. Where’s the evidence it’s all theater?",fi72zub,BasedMedicalDoctor,1153s17g
You are 40-60% sure of something that there is absolutely no evidence to believe is true,NotNolan,9us3f,fi72uk0,"I don’t know about that. I like Barr overall but I rate his odds of quitting somewhere between 40-60%. We will see though. But if he DOES quit, I’m sure you agree, we need Sekulow or Fitton as acting DOJ.",fi72nvu,BasedMedicalDoctor,1153s17g
Barr is not going to quit. The entire “feud” is theater. Big shit is about to go down.,NotNolan,9us3f,fi72g1g,"If Barr quits, trump needs to appoint acting DOJ Director Tom fitton or jay sekulow.",fi721ew,BasedMedicalDoctor,1153s17g
Not wittingly,NotNolan,9us3f,fi72e44,Brennan and Clapper lied to Congress too.,fi71mz0,mrsattorney,14aenp
"Lee Harvey Oswald tried to kill General Edwin Walker, the exact same way, seven months prior. 

It was Oswald.",NotNolan,9us3f,fi52vyi,"Ive read up on this. All his wounds can be medically explained. For instance the magic bullet is not so magical once you realize JFK was raised higher than Connelly in the Front seat. There’s also neurological things that happen that are different then what common sense would dictate. To me the Oswald theory is not only correct but far more interesting then any other. At this point it’s all history anyway.

Interestingly, the original conspiracy theories about his murder were promoted by the Soviets. They fed Unknowingly Mark Lane, I believe, fake info.",fi508ts,thyroidnos,191pzbro
He also said in January that Durham would be done in the summer... yet here we are in February and the concern trolls are hopping....,NotNolan,9us3f,fi3z8b2,"

I guarantee many at TD have no clue about what was confessed:

https://vimeo.com/382084637

https://vimeo.com/382209842",fi3yl8r,Kek_saved_the_world,17b44o
Memes like this render quarantines impotent,NotNolan,9us3f,fhxl5ta,"Thanks for the sticky, mods! 

#Don’t hesitate to repost any of my memes!",fhxewtq,Sapples23,pse9f
That’s **Lieutenant Colonel** Fuckin’ U. S. of A.,NotNolan,9us3f,fgua77q,That's Fuckin U S of A to you sir.,fgu95wl,thatsjustwong,10ctxpxv
"I think maybe this was done on purpose to dislodge Iowa’s first-in-the-nation status. The push now will be for New Hampshire or an even more liberal state to “set the pace.”  You watch, Iowa is finished (as first)

EDIT: [Well, that was fast](https://www.washingtonexaminer.com/news/we-cant-count-170-000-votes-former-dnc-chair-says-iowa-wont-be-first-in-the-nation-in-2024)",NotNolan,9us3f,fgseset,They got caught cheating and don't know what to do about it.,fgse6z2,bluetincan,115ldy
You’re welcome,NotNolan,9us3f,fgoiaor,"It only reinforces the idea that the POTUS is a troll, and American politics is now run by 4chan's /pol/ forum.",fgnjtz9,the2belo,3nan8
"See the difference is, I believe “high crime” includes “crime,” whereas you’re just “high.”",NotNolan,9us3f,fgkbf8u,"> Length does not equate to truth.

Neither does brevity.

> Trump doesn’t have to tell me what the Constitution says; I can read it myself. So can you. I commend your dedication to your cause but I dont need nearly as much time to respond. My position is easy to defend, all it takes is a dictionary.

This is incorrect though; a literal interpretation (I.e. via a “dictionary”) still condemns Trump, since abuse of office is a high crime. Trump abused his office, therefor Trump committed a high crime, therefor Trump is impeachable (and was thusly impeached). This is the literal interpretation you claim to endorse.

What you’re actually endorsing is Trump’s version, where abuse of office is not a high crime. As I discussed above, this is ludicrous and about as far from a literal interpretation as you can get.

That is my point. There’s no sound argument that concludes Trump is not impeachable. His (and your) argument runs counter to a literal interpretation, to a legal interpretation, even to a “read between the lines” interpretation. The only interpretation where your argument stands is Trump’s interpretation (which, as previously shown, is a bold-faced lie).",fgk029h,Option2401,mn8ud
"Length does not equate to truth. 

Trump doesn’t have to tell me what the Constitution says; I can read it myself. So can you.  I commend your dedication to your cause but I dont need nearly as much time to respond. My position is easy to defend, all it takes is a dictionary.",NotNolan,9us3f,fgjvyr9,"No; the relationship is not hierarchal. A POTUS can do something perfectly legal that degrades the office. For example, POTUS' have the power to pardon crimes. If a POTUS exercised this power far too freely and often, particularly for corrupt personal gain as opposed to the welfare of their citizens, they could be impeached without ever having committed a crime.

The reason why impeachment is distinct from crimes is because of the unique powers and responsibilities of the POTUS extend beyond a normal citizen's.

*A POTUS can commit a crime and not be impeached (e.g. Trump committed charity fraud in the Trump foundation and obstruction of justice in the Mueller investigation, neither of which are amongst the Articles of Impeachment).
*A POTUS can commit a crime and be impeached (e.g. Clinton and perjury).
*A POTUS can be impeached without committing a crime (e.g. Trump's abuse of power and obstruction of congress).

Again, conflating ""crime"" and ""high crimes and misdemeanors"" is a common (and thoroughly debunked) lie used by Trump and the GOP to deceive their base. It's a testament to the lie's efficacy that so many people - including yourself in this conversation - cling to it despite it's falsehood.

That is why I said there's no valid argument here. Think of it this way: Trump essentially told Americans ""The sky is green"". This is despite years of historical evidence, scientific measurements of color spectra, the weight of a unified expert consensus, and the ability to look up at the sky yourself and see that it is, in fact, not green. Yet here you are, still insisting that the sky is green. It's an obvious lie, a ludicrous statement completely inconsistent with reality and logic. It's so easily debunked that the only reason someone would keep promoting the lie is if they knew it works in their favor.

Your only recourse at the moment is to concede that the obvious lie is an obvious lie, but we both know that's not an option for you. So let's just cut to the chase: this whole argument is irrelevant. Even if a POTUS could not be impeached for anything other than a legal crime, we know that such a strict interpretation of the Constitution is foolish and counter-productive. Impeachment wasn't included in our government to convict POTUS' of crimes; it was included to provide a political mechanism for removing corrupt officials who abused their office. So even if you were right about the ""impeachment must be a crime"" thing, you'd still be wrong in the bigger picture because such an interpretation means we would as a nation would be OK with a corrupt POTUS who abused his office and abandoned his duties... as long as he didn't technically break any laws. Such a belief is ridiculous and obviously counter to contemporary American values, meaning your entire argument is moot; even if you were right (you're not), you would still be wrong (you are).",fgjst3w,Option2401,mn8ud
Then why didn’t they call one of the articles “BRIBERY”?  You should have been one of the impeachment managers.,NotNolan,9us3f,fgj5xw6,"It was, by definition, a bribe.

Bribe: persuade (someone) to act in one's favor, typically illegally or dishonestly, by a gift of money or other inducement.",fgj51ey,PM_ME_YOUR_BCUP_TITS,143p1u
"So you do concede your position depends on your reading of “high crimes” to include acts that are LESSER, meaning DO NOT RISE TO THE LEVEL OF, actual crimes.  This is the key difference in our views, would you agree?",NotNolan,9us3f,fgj1hrq,"Well, to be fair, the Constitution doesn't prescribe ""crimes"" as a reason for impeachment; it uses the term ""high crimes"", which does not have the same meaning legally as ""crimes"". This is another common lie of Trump and the GOP: conflating ""high crimes and misdemeanors"" with ""legally prosecutable crimes"".

Abuse of power is, by definition, an abuse of the office.

An abuse of the office is, by definition, a violation of that office's oath and duties.

A violation of an office's oath and duties is, by definition, a high crime in the context of impeachment. 

There is no valid argument here, just lies perpetuated by Trump and the GOP to gaslight, obstruct, and project.",fgisrmk,Option2401,mn8ud
It’s not bribery.  It’s not treason. It’s not a misdemeanor. It’s not a crime. It is not included in the Congressional impeachment power.,NotNolan,9us3f,fgillsd,"Two things:

1. Abuse of power is an impeachable offense
2. Breaking a federal law is not needed to impeach a POTUS.

I understand Trump and the GOP lied to you about this so I can understand why you’re confused. Turns out they lie about pretty much everything, who knew?

I’d reevaluate your information, since your assertions are based on thin lies.",fgilgys,Option2401,mn8ud
"I know what words mean, and the words in the Constitution were all selected for a reason. No professor will convince me “high crimes and misdemeanors” includes acts that are neither crimes nor misdemeanors, I don’t care where he teaches.",NotNolan,9us3f,fgil7p4,"This is such a bad faith argument.

The entire basis for American law is the Constitution and our *interpretation* of the Constitution. Have you ever read the Constitution? It’s surprisingly brief given that it codifies the law of an entire nation. That’s why we have these things called “judges” and “courts”, which *interpret* the Constitution in the context of real world issues.

A legal professor is one of the best sources when it comes to understanding the Constitution. Your dismissal of them and their opinion reveals your profound ignorance of this topic.

Let’s be real though: you know your argument is BS, you just don’t care.",fgil39i,Option2401,mn8ud
Crowdstrike will get to the bottom of this,NotNolan,9us3f,fgicr0i,Starting to think Democrats are corrupt.,fgibfzp,whocaresguy,e29oj
"There is no crime called “abuse of power.”  If there was, the House would have cited the federal statute they allege was broken, as they did with the Nixon and Clinton articles. The Congress that impeached Andrew Johnson actually *passed a new law first* which they then accused Johnson of violating. 2019 is the first time in US history impeachment articles were sent to the Senate without a single accusation of a broken law.

And that’s why they failed miserably.",NotNolan,9us3f,fgicmwf,"Withholding promised foreign aid until a country supports you in your reelection campaign is an abuse of power. The withholding aid part is the abuse, not the asking for support part.",fghx4vj,PM_ME_YOUR_BCUP_TITS,143p1u
You’ve shifted your source of authority from the text of the Constitution of the United States to some fucking Georgetown legal professor. Who taught you how to do that?,NotNolan,9us3f,fghtsuq,"Abuse of power is not specifically referred to as an impeachable offense in the U.S. Constitution, which states that a president can be removed from office for ""Treason, Bribery, or other high Crimes and Misdemeanors.""

But the founders of the United States intended the phrase"" other high Crimes and Misdemeanors"" to broadly encompass abuses of power, legal scholars said.

Alexander Hamilton, a famed American statesman, wrote in1788 that impeachment proceedings were for ""those offenses which proceed from the misconduct of public men, or, in other words, from the abuse or violation of some public trust.""

Louis Michael Seidman, a professor at Georgetown Law, said the core allegation against Trump - that he withheld security aid to Ukraine to pressure it to announce investigations that would benefit him politically - was the sort of conduct the founders considered impeachable.

https://www.google.com/amp/s/mobile.reuters.com/article/amp/idUSKBN1YM1O8",fghteez,RedHusky4096,yt96yv2
"No, it isn’t... “abuse of power” is not a crime and if soliciting foreign interference in an election was a crime, Obama would have been guilty for going on an international tour before the 2008 election... there are foreign outreach programs going on right now in current Democrat campaigns for President....",NotNolan,9us3f,fghssx5,"Yes it is, I don’t know how to argue that like, is murder not a crime too?",fghsm04,RedHusky4096,yt96yv2
"Never any answers, only new unanswerable questions...there’s no crime alleged, so he’s innocent... next?",NotNolan,9us3f,fghsidg,"Holy shit son. You literally have nothing, actually less than nothing. Heres an easy counterpoint. Please tell me where I lost you.
 
Where do you come from where you have to VOTE ON WITNESSES AND EVIDENCE in a trial? I would like some examples of high profile cases where the judge asked the jury to vote on whether or not they needed fucking evidence to continue trial. I'll wait. I mean ill die of old age waiting on a coherent response from you that isn't regurgitated from Fox News, but I'll wait.

Please enlighten me.",fghq1ra,InstantClassic257,lusrb
That is not a crime.,NotNolan,9us3f,fghseze,"Bruh
Donald J. Trump has abused the powers of the Presidency, in that:

Using the powers of his high office, President Trump solicited the interference of a foreign government, Ukraine, in the 2020 United States Presidential election. 

First page",fghqt7a,RedHusky4096,yt96yv2
I don’t have to show you evidence of his innocence because in America he is presumed innocent. That’s how it works here. How does it work where you’re posting from?,NotNolan,9us3f,fghph1u,"Also there can be no impeachment? Trump was impeached and that can never be undone. What are you talking about? 

Also, please show me the evidence that Trump is innocent. I hope you can do better than an alleged pedophile, because they are paying him millions to defend him and doing a very bad job. I'm sure some random guy know the internet has better knowledge than his lawyers. Please enlighten me, because it looks to me like ya boring.",fghpb2f,InstantClassic257,lusrb
"Yes there is, it’s in the text itself, and the Founders very specifically set those limits as you can read for yourself in The Federalist Papers... “treason, bribery, high crimes or misdemeanors,” those are the four categories of impeachable offenses and they all include CRIMES, of which these impeachment articles have ZERO....",NotNolan,9us3f,fghomzc,"You can impeach a president for literally any reason if senate agrees. 

There is no ""limit"" on whats impeachable.",fghml6l,Karthagos97,1fvj0e2i
There was no “high crime or misdemeanor” alleged; there can be no impeachment. Don’t blame the Senate because the House passed constitutionally insufficient articles....,NotNolan,9us3f,fghkcjd,"Here's an example, just a little sample. Republicans voting on no witnesses in the impeachment trial. They know hes guilty but vote otherwise. They did it for Clinton but not Trump, why is that? Obviously dont care about the rule of law or democracy. 

Anything else? I have so many more.",fghk4l7,InstantClassic257,lusrb
How do you propose proving what someone else cares about?,NotNolan,9us3f,fghja75,"They. Don't. Care.

Republicans only care about money and hatred. Prove me fucking wrong.",fgh0gr3,InstantClassic257,lusrb
They could even put together an entire dossier and call it something like “the Steele dossier.”  All types of crazy shit,NotNolan,9us3f,fghj28r,I was thinking the same thing. House Dems control spending. They could barter foreign aid for information and evidence against Trump.,fgh31oc,tehmeat,70l1t
So why weren’t any of these “proven crimes” included in the articles?  Are House Democrats just not as good at the laws as random NPC Redditors?,NotNolan,9us3f,fg98ju5,"18 U.S. Code § 872: “Extortion by officers or employees of the United States.”

2 U.S. Code § 192, “Refusal of witness to testify or produce papers” 

18 U.S. Code § 610, “Coercion of political activity.”

18 U.S. Code § 607, “Place of solicitation.”

52 U.S. Code § 30121, “Contributions and donations by foreign nationals.”

Also *successfully* impeached by the House for abuse of power and obstruction of Congress.",fg95prx,SmokusPocus,dtsbr
"Seriously, enough with the purity tests. A 95% friend is not a 5% enemy.",NotNolan,9us3f,fdp2nxg,Yeah he hates Trump now! NOT!!! Let it go!,fdp2ice,uasduasv,4j1amnap
You just described Captain Marvel. Oh I see,NotNolan,9us3f,fbu151t,"In writer parlance it's called a ""Mary Sue"".  It's a trope often found in amateur fan-fiction - a two dimensional character, representative of the author's own fantasies of themselves having all the best strengths, and getting everything they want, and everyone likes them, and they're the prettiest, and the smartest, and they never have any weaknesses or struggles, and anyone against them is just a big ol' meany.

Mary Sue characters are cautioned against in even the most rudimentary writing lessons.  They're the surest sign of a terrible author.",fbttzk8,aparition42,p6bcmk0
Bob Woodward worked for military intelligence before he became a “journalist.” Watergate fell into his lap after less than a year on the job. What luck!,NotNolan,9us3f,fbdt7w6,I also got interested in the watergate saga in the context of trump. While it was plain as day that Mueller was trying to trap the president in an obstruction of justice case I started researching watergate. In all this time it was hardly considered that watergate was a deep state scam that involved a conspiracy between the intelligence community and the media. There was hardly a peep in the media when deep throat turned out to be a high level fbi associate director. It’s clear today that the plumbers were close to discovering seditious acts by the fbi and IC by working with the dnc and media to coordinate leaks. The dominant narrative all this time was that Nixon’s goons broke into the dnc offices to steal campaign information. The truth is the dnc has plants in the fbi and cia to work against the country. Deep throat was deep state.,fbdt47e,everydayacheesesteak,jsjav
"When your meme is too good to worry about the .png border

Been there my dragon brother. Been there",NotNolan,9us3f,fb9ib06,I love Fonzie Pepe,fb9euz4,Leakmouth,pc4wp0q
"Hey I like breaking rules as much as the next American but Rule 2 is here for a good reason. We are miles ahead of where we started, and we didn’t get there by whining about how far we still had to go.",NotNolan,9us3f,fb9i8kh,"Won? For a second I thought the Deep State ringleaders were in JAIL. You had me going for a second.

Winning does not happen until Trump Doctrine is ratified in the house and a few dozen Billionaire Globalists are living in cages.

We are doing pretty good. Don't fucking get cocky. Nothing that has been done by Trump can presently outlive his Presidency and USA Allies are rapidly being made Communist. Don't get carried away. The threat is as present today as it was the day Trump took office.",fb9f8z7,OrganicAngry,58czdm9d
His OAN interview,NotNolan,9us3f,fb67ujn,I hope this is all true but where does Rudy day this? You have a source please?,fb65eod,jetspeaks,579sg8rh
"Actually I’m just lazy.  Not a journalist by trade, just by necessity. The time stamp is 5:48 (thanks to u/MAGA__bitches), you should read the other comments as well they are packed with valuable info",NotNolan,9us3f,fb4d66f,"That's an hour-long video.  Apologies if this isn't your intent, but it feels like you're avoiding actually giving anyone any valuable info here. A timestamp or written transcript of the video above would be way easier to get through.",fb4brrh,Butt_Expert,130x48
"In fairness, corrupt Republicans only have to go to jail when corrupt Democrats get caught committing crimes.",NotNolan,9us3f,fb4b35k,You are correct. Both Democrats and Republicans have their crooked individuals. However it seems at the federal level Republicans go to jail more often than Democrats.,fb4a9ag,Deplorable_,12i5ic
It’s a few comments up but here it is again [just for you](https://youtu.be/VoLEEnVPbCg),NotNolan,9us3f,fb49tyk,"Neat, got a link?",fb49kwf,Butt_Expert,130x48
I’m trying to say that Rudy Giuliani spoke to OAN and said he has not been to Ukraine since December 2017.,NotNolan,9us3f,fb49hw1,Kyiv Post says he was there two weeks ago.  Please stop being a cryptic weirdo and tell us wtf you're trying to say.,fb499j1,Butt_Expert,130x48
"One would certainly think, from watching the news. I sure did. 

It’s a dream world, Neo...",NotNolan,9us3f,fb48uo8,"wut?  he was there 2 weeks ago, no?",fb47zcb,Green_Christmas_Ball,4crvgh5p
"That’s right... despite Schiff and the media spinning the facts to make it seem like Rudy’s been poking around there since the time of the Zelensky call, Giuliani confirmed in a [long OAN interview](https://youtu.be/VoLEEnVPbCg ) that he has not set foot there since December 2017. 

For impeachment fetishists, this is a bad fact.",NotNolan,9us3f,fb451mw,What?,fb44to1,generalgdubs1,14vwya
He’s an asshole in the exact same way as a doctor who nags you to quit smoking.,NotNolan,9us3f,fb2d108,"He’s not an asshole. He says things bluntly. And he hits back if someone hits him. But the media only outraged on his response, never or minimizes the opening salvo.",fb14xyv,Evan_Evan_Evan,128t4k
"Exactly, ask Weimar Germany how that works out",NotNolan,9us3f,fap23ky,"Yeah, you won't have a choice under socialism, honey.",fap1yc8,RedNewEnglander,1265n9
"Why did you dodge the IG, Glenn?",NotNolan,9us3f,fannow8,"Assuming a different person but ironic it is Glenn Simpson again.

Edit: apparently same jabroni. What a fucking clown world.",fann9ew,citation_invalid,z2e1u
"For all we know, Glenn Simpson’s own Russian oligarch client(s) provided the contents of the dossier to Steele.  The IG report makes clear that the Steele dossier itself could have been a Russian disinformation product. So in order to get the FISA, Simpson & Ohr could have colluded with a Russian oligarch to provide the “foreign agent” connection they needed to “legally” spy on Page and the campaign. 

This is some truly despicable shit.",NotNolan,9us3f,fahl7g4,And they knew early there were problems with the dossier,fahl005,slimline7,15djw9
"I want plain talk, not plane talk",NotNolan,9us3f,fafxi92,better than Loretta?,fafx4y0,brutustyberius,9pd2v
William Barr will go down as America’s greatest Attorney General.,NotNolan,9us3f,fafwcbl,The shills are hitting this post hard - they are fucking terrified of Barr / Durham.,fafvaa5,MAGAtlanta,11ri16
"Feeding uncorroborated Russian (dis)information to the FISA Court.

You’ve been a naughty boy, Chris.",NotNolan,9us3f,faa1v3m,Brilliant move by Barr.  Steele is a foreign agent.,faa1h5u,FourThrones,rrboeto
She is desperate to get ahead of some very bad news.  She’ll probably be entering the presidential race soon to get that sweet sweet media immunity it bestows on Democrats.,NotNolan,9us3f,f9ncp4t,"Ok, but I'd say that's more because of a down trend in her status rather than an up trend of the show's.",f9myl2l,chim_richels,yn440
"🎯 

Hollywood is sick.",NotNolan,9us3f,f9muje8,"Who is the target audience of this movie? Seriously? Furries? It hasn't been on Broadway for over 20 years, and it looks uncanny valley enough to make The Polar Express look lifelike and alive.",f9mpwcv,RobBelmonte,6vzku
I see cat nipple in that pic,NotNolan,9us3f,f9muhnd,Oh dear. I didnt think she had any real talent or likability. Being stiff and plastic was her whole thing. I don't believe this will go well for her,f9mofhp,betterthanspez,139ba0
"Considering him the worst would still make him the best at being the worst, and I cannot imagine him being the best of anything.",NotNolan,9us3f,f8wqbd9,"I wouldn't call him the worst, but he was definitely useless.",f8wep0d,_Oomph_,tjv26
“...about Marxism.”  Gotta finish the quote,NotNolan,9us3f,f8vj2ox,"It's just hitting the news that after meeting Trump in 2016, Obama told a WH visitor, ""Trump knows absolutely nothing.""

*The worst president in the history of the United States of America reportedly said President-elect Donald Trump “knows absolutely nothing.” This is like a college hockey player who never went pro telling Wayne Gretzky he was just 'okay'.*


https://flagandcross.com/obama-reportedly-said-trump-knows-absolutely-nothing-after-2016-victory-over-hillary/",f8vgc7n,thenew23rd,1o34rm5
"“the invisible hand,” as some call it",NotNolan,9us3f,f8veynx,"It isn't more that Trump is directly helping the market, as much as it was that the collective hyper-genius hive-mind of the open market knew that Obama was destroying it.",f8vcdax,somaganjika,8rdon
"I didn’t really know either, until Trump released the transcript of his call with Zelensky.",NotNolan,9us3f,f8sfpgk,WTF???? Crowdstrike is a Ukraine company???? How is this not in every fucking news channel????? FFS!!!,f8sdf7t,findthewarmspot,14ofk6
Nah just liars. Muh Fuzzy Bears,NotNolan,9us3f,f8sfdl4,The metadata doesn't lie. These people are stupid.,f8sf805,beta_the_great,38fl9gip
And the content was nothing but useless public record dirt on Trump. It was as if someone printed out every single link in a sticky post on r/The_Mueller (RIP),NotNolan,9us3f,f8sehjp,"That was my thought too, the whole hacker being named 2.0 sounds like it was contrived by the same people that led Hillary's ""Donald Duck"" campaign.",f8sdq51,TaxAllHairDye,wznjp
Sniffed out by this dom in two hours.  Peperidge Farms remembers.,NotNolan,9us3f,f8sc4du,Guccifer 2.0 was a boomer cover up attempt,f8sbwmh,NADSAQ_Trader,8gmp2
**QUID PRO QUO**,NotNolan,9us3f,f8sa5c2,hE's PrOfItInG oFf HiS oFfIcE!!!!,f8s90jt,flapsmcgee,5ght8
"Only one reality friend, no substitutes. Kind of my point",NotNolan,9us3f,f8qshxc,"God dude, anything to avoid backing away an inch from your original position, lol.

Best of luck to you in whatever reality your living in. This has become ridiculous.",f8qr8th,jamesfinmadison,4l4038w
Obviously the point at which virtual reality is 100% indistinguishable from physical reality has to be considered the point of perfection in terms of CGI capability. What’s better than indistinguishable from reality?  Super reality?,NotNolan,9us3f,f8qj7rj,Who argued it has to be perfect? Why is recognition of advancement suddenly a stupid implication one adopts communism? Recognizing progress is not communist mentality.,f8qdski,jamesfinmadison,4l4038w
"The idea that something rapidly approaching perfection must eventually achieve perfection is one of history’s most dangerous logical fallacies. In fact, it’s at the heart of Communism.",NotNolan,9us3f,f8q8ryf,"You argue ""it will **never**"". The arrogant part is arguing that CGI based representation can never achieve enough realism to fool people. Of course it can. And it eventually will. Not in 100 years time either, but much sooner at the rate it is improving.",f8q3gnj,jamesfinmadison,4l4038w
"It’s not arrogant at all, it is just an acknowledgement of the fact that reality cannot be artificially recreated.",NotNolan,9us3f,f8pjha6,"That is a pretty arrogant thing to say as the progress being made is right in front of us. And it isn't AI, it's just CGI.",f8p95gk,jamesfinmadison,4l4038w
No.  AI can do amazing things but it will never fool the human brain.,NotNolan,9us3f,f8p1qiy,"Impossible to detect? 

Will that ever happen?

Every single one I've seen I could instantly tell was fake. Granted I'm sure they will get better, but impossible to detect?",f8ovq72,Gstreetshit,doip6
They called firing Comey obstruction of justice...,NotNolan,9us3f,f8mwmue,Being the Boss is NOT an impeachable thing.,f8mwf0k,soldio101,30hqxbsd
