child_body,child_screen_name,child_user_id,child_tweet_id,parent_body,parent_tweet_id,parent_screen_name,parent_user_id
cus of the boobs Margaret,Olivesandlovegg,5t62wa0b,fk0ceii,"I dunno, that first episode of Glow was pretty good.",fjzfav4,puddlejumpers,62woh
I never met with those emails.,Olivesandlovegg,5t62wa0b,fjzdgn0,She doesn't recall anything.,fjybiv8,Foreverperfect81,3qqw9lu7
"I'm a trans woman who isn't gonna go through surgery because of financial reasons. So yes, me and my floppin' lady dong make one proud woman!",Olivesandlovegg,5t62wa0b,fjz921s,People who say trans ladies aren’t women are clowns.,fjy8rll,Hanapino,595sjy6l
put drugs in your butt,Olivesandlovegg,5t62wa0b,fjym774,"Although I'm only seventeen, I feel like a decrepit old person, I guess adulthood running up on you will do that though",fjue1ss,Cinnamonrollharold,3jaug0eb
wow. you must be a badass.,Olivesandlovegg,5t62wa0b,fjygy9r,"I don't give a MOTHER FUCK who becomes president.

I'm still gonna work, I'm still gonna pay taxes, I'm still gonna fuck my wife, I'm still gonna father my kids, I'm still gonna own firearms, I'm still gonna fly that yellow flag.

And none of you pussies are gonna bother me while I do it.",fjy91f5,AngryDragon_910,28f93b69
BRICKS,Olivesandlovegg,5t62wa0b,fjyed2h,Fuck Danzig looks good,fjxjyxg,johnmcdracula,a13pa
i can dig it,Olivesandlovegg,5t62wa0b,fjy2izz,I prefer calling Trump cultists *cuckflakes*...,fjy29eq,ItsjustJim621,14hz1d
............ it. doesn't.,Olivesandlovegg,5t62wa0b,fjy1uue,How is ensuring that everyone’s vote counts an equal amount undemocratic?,fjxxd4k,White80SetHUT,476ios6q
calling obvious pyschotic right wingers leftist cucks is fun,Olivesandlovegg,5t62wa0b,fjxvrru,Nah that's just another fat troll ignore him,fjxu4fj,The_Killer_Ghost,25u4tvs
As opposed to the gerrymandering and other shenanigans. This is prosecution like the holocaust.,Olivesandlovegg,5t62wa0b,fjxfvkt,Yep. Election interference at its worst.,fjwkvx1,M31550,a4h19
jesus christ.,Olivesandlovegg,5t62wa0b,fjxbkb3,"He's already taken his first dose, he's just so happy!",fjt5haa,BallShapedMan,pnol9
yeah. society man! maaaaaaaan.,Olivesandlovegg,5t62wa0b,fjxac5q,Why participate in a corrupt process with predetermined conclusion?,fjx9h0a,NotSoAngryAnymore,3psv4dwo
lol. I like how you don't see how that's undemocratic.,Olivesandlovegg,5t62wa0b,fjx7xk5,"Quite the contrary imo, the EC ensures that everyone’s votes (those in smaller states) matter just as much as those in states with large populations.",fjw6cyc,White80SetHUT,476ios6q
We already have a president with dementia. But he knows a lot about wind.,Olivesandlovegg,5t62wa0b,fjx7h0b,Libs will say “don’t make fun of Biden he could actually have dementia.” And that’s a good thing? Who wants a president with dementia?,fjwdyup,treeskers,oca89hr
"shut up, Kentucky fried nerd. kaapow",Olivesandlovegg,5t62wa0b,fjwt31w,"Your life is the sum of a remainder of an unbalanced equation inherent to the programming of the matrix. You are the eventuality of an anomaly, which despite my sincerest efforts I have been unable to eliminate from what is otherwise a harmony of mathematical precision. While it remains a burden to sedulously avoid it, it is not unexpected, and thus not beyond a measure of control. Which has led you, inexorably, here.",fjvatow,willsherm28,xf5i3
lol,Olivesandlovegg,5t62wa0b,fjwnx2u,I have a degree and training for my profession (CPA) seems to be quite similar to yours. At the end of the day the paths aren’t all that different.,fju4qka,ladynaharis,4e6m3suf
"No shut up you crotian firefighter football celebration conspiracy shill.

thetruthisoutthere",Olivesandlovegg,5t62wa0b,fjvhknp,"It's almost as if he would know what had transpired in the game he was following up until that point, based on his friends reactions",fjvehnn,nvcNeo,eevgq
Lol. Well first off the current administration doesn't seem to care about the constitution and getting rid of something that impedes democracy seems fine.,Olivesandlovegg,5t62wa0b,fjvfhuz,"The popular vote, so you don’t agree with the electoral college? Something that was written into our constitution. Getting rid of it seems more anti-democratic to me.",fjveimb,White80SetHUT,476ios6q
sorry bombs lol,Olivesandlovegg,5t62wa0b,fjvbk6f,All the free shit the US gives out isn’t enough of an apology?,fjuh0s7,SapphireSammi,f1wwxip
I feel like if you need it explained to you then you either haven't been paying attention or are just an idiot.,Olivesandlovegg,5t62wa0b,fjv6wcy,Care to explain?,fjv5lbn,White80SetHUT,476ios6q
go on....,Olivesandlovegg,5t62wa0b,fjul0sq,you should never eat little caesar's pizza. Just trust me.,fjuhl5y,jamz666,6dqq2
lol. That's probably why just yesterday they reported that he's been lying about how much he has been charging the secret service for staying at his resorts.,Olivesandlovegg,5t62wa0b,fjsrt4t,So much more than Obama did. President Trump is gor ALL Americans.,fjcw9rb,thenew23rd,1o34rm5
cus im proud toooo beeee an ammmmmmmerican,Olivesandlovegg,5t62wa0b,fjoydgk,"Now that I’ve moved and have clearer perspective, it’s not just segregated, it’s openly and willingly segregated. 

There are no “Chicagoans”. There is the black community, the Latino community, the gay community, etc.  

It’s broken even further into hyper tribalism where people openly hate and smear people who live just 2 miles away bc they’re in the “wrong” neighborhood.  

Fuckin hipsters. Fuckin Mexicans. Fuckin blacks. Fuckin chads. Fuckin trixies. Fuckin River north douchebags. They’ve got no problem saying this stuff.  

You could put a dot on a map of the city and a Chicago veteran can tell you exactly what the people will look like when you get there. And they’ll be 99% correct. That city is crazy with self segregation and open hatred of others",fjoxg1j,RedditAccount2000_1,5tszr1fk
eat. pray. love.,Olivesandlovegg,5t62wa0b,fjol1og,"I just watched a documentary for my philosophy class based on the ""Untouchables"" of India.

Basically all about the poor class who are basically working themselves to death for the upper class. Some of the most back breaking work I've seen is being done by these ""untouchables"" and they have to do it without shoes or anything like that. Getting paid pennies for the work. Or having to work all day for the upper class, just to be able to have a bowl of rice to share with their family.

They are poor so theyre considered ""untouchable"" and basically considered less than. It's absolutely terrible.",fjoira7,jcollins052,3279rrsv
I had some pinkopatrol or something dude getting all pissy at me. it's insane talking to those folks. I can't imagine being so willfully ignorant.,Olivesandlovegg,5t62wa0b,fjnxyc0,"I think they are trying to make T_D implode without actually having to ban a community affiliated with the US president. They recently banned a shitload of mods for failing to enforce site rules, they quarantined them—but they have left them to fall apart on their own.",fjnnzq0,ShouldersofGiants100,8onub
"The moon is gay, man.",Olivesandlovegg,5t62wa0b,fjnayj8,They shut him up for good reason.,fjn2hcc,red2lucas,83vxv
"I'm confused because I swear I remember watching the dvd and in the commentary theres a bunch of them making jokes like sasha baron cohen was just saying things like ""liverpool"" and ""trafalga station"" over and over again but I don't hear it on the commentary on the tubes.",Olivesandlovegg,5t62wa0b,fjn360x,"The DVD commentary to Talladega Nights is the whole cast 20 years later explaining what they've been up to the last 2 decades and how the world has changed. It's great

edit: 25th anniversary commentary, recorded in 2031",fjm1m3c,nowhereman136,bkrdq
........... take back the senate? retake it?,Olivesandlovegg,5t62wa0b,fjn1wdi,"Need to take back the house and senate so we can do something about the way these tech companies treat conservatives. Bills are in, but we don't have the votes to do anything with them. 

Thanks for continuing to talk about this Mr Fitton.",fjkpe2i,TubbyNinja,38e4u
What about her time as a NYPD beat cop in the 70s who then made detective?,Olivesandlovegg,5t62wa0b,fjl3my3,https://www.wizardingworld.com/writing-by-jk-rowling/professor-mcgonagall,fjjzrf3,Amegami,5so0lu1m
Both him and trump probably do.,Olivesandlovegg,5t62wa0b,fjkl6vt,Does he have dementia?,fjjwk7o,CowWrangle,16jt8n
"Got daaayum sally you are invested. Your bone spurs must be acting up. and no, you already got to all my paste. you stupid libtard.

""if I'm elected president, I won't have time for golf."" lol.",Olivesandlovegg,5t62wa0b,fjk85qp,"... 

> that's your go to insult? lol.

It's *literally* the same thing you did, you thick fuck. Serious question: were you born with all or part of a third copy of chromosome 21? 

> hell of a snowflake.

Sweet, delicious irony.

> naw foo

How delightfully droll. 

> I don't got a TV that's hooked up. 

You also *don't got a cursory grasp of the English language*.

> And trust me

No thanks. I'm not particularly keen on trusting waterheads. 

> the self awareness comment is hilarious coming from one of you chucklefucks.

Only one of us is rejecting observable and testable evidence. I'll slow walk you there if I have to.

> Keep ""telling it like it is"" ya mook.

I will. Keep rejecting reality around you. Keep doubling down. Keep demonstrating your illusory superiority. It's a good look. 

Don't you have some paste to eat? Better get to it.",fjk6dbb,PinkoPatrol,5dxoirtj
"that's your go to insult? lol. hell of a snowflake. naw foo I don't got a TV that's hooked up. And trust me, the self awareness comment is hilarious coming from one of you chucklefucks. Keep ""telling it like it is"" ya mook.",Olivesandlovegg,5t62wa0b,fjk5220,"Congrats on the room temperature IQ.

It's weird imagining you believing whatever your TV tells you -- unabashedly -- because you're too stupid to reconcile the fact that you're just ad revenue with a pulse. 

Self-awareness *really* isn't your strong suit... is it?",fjk49kj,PinkoPatrol,5dxoirtj
congrats on the brain tumor. It's weird imagining the hateful little children that you people are.,Olivesandlovegg,5t62wa0b,fjjzwsk,"Ah, the *double down*. You're not very good at this, are you?

> seriously how do people get this retarded

It's probably from you drinking your own piss.",fjjy9g3,PinkoPatrol,5dxoirtj
lol. ok king of projection. seriously how do people get this retarded,Olivesandlovegg,5t62wa0b,fjjpbg4,"You vapid, clueless cunt. Rejecting reality around you is a sure sign of *severe* cognitive impairment. Seek immediate professional help.",fjebvqb,PinkoPatrol,5dxoirtj
Attention staff: I write these when I'm high.,Olivesandlovegg,5t62wa0b,fjj9e00,Do you have time for cancer? Get in here,fjj46cn,SurpriseHanging,e66dj
I just feel like you get me.,Olivesandlovegg,5t62wa0b,fjiglo9,"not if I see you later alligator first, crocodile",fjhluh6,SurpriseHanging,e66dj
you're an alligator,Olivesandlovegg,5t62wa0b,fjhks41,"It's pretty wild to see Corddry with hair, and not in clown makeup.",fjhd958,SurpriseHanging,e66dj
Best words.,Olivesandlovegg,5t62wa0b,fjhbk5d,"eh emm the Constitution and all that stuff , you know the thing those guys in hats wrote",fjgit3l,Lazer_beak,owvjs
Space Ass,Olivesandlovegg,5t62wa0b,fjh343o,"That, along with the island in the Bahamas, and (I’m pretty sure) his divorce. That’s why he does any and every shitty movie that comes across his desk.

Edit: that being said, shitty movie or not, I still watch them. And I can’t wait for the one coming up where he’s playing a caricature of himself, similar to Jean-Claude Van Johnson.",fjggb11,Baduke,ec07o
bitchface,Olivesandlovegg,5t62wa0b,fjgqubk,Do it! Suggestions welcome.,fjgpkke,waffle_cat,66nl6
"""and then i screamed swears at her and anally violated her hot daughter by the produce with the produce.""",Olivesandlovegg,5t62wa0b,fjg4gj1,Over half of them are made up stories about what people think they would say if it ever happened to them,fjecx11,Joking-Black,n1wgu4r
lockbox,Olivesandlovegg,5t62wa0b,fjg3xyc,"Kerry was so amazing when he spoke to the Senate about getting out of the Vietnam war. If you haven't seen the clips, I urge you to seek them out.

After years in the DC Beltway, he sort of hardened up. He lost his inspirational tone and always felt like he was on autopilot. He was a war hero, and I liked his platform, but as a personality, he was like dry wood.

Gore, also was less than inspirational. He came from tobacco plantation wealth and struck me as old fashioned. He was never much of a fighter in my opinion and let the opposition kind of walk over him. I never cared about Clinton's blow job, but that Southern charm politician thing always left me flat.

It doesn't matter though. I believe in the party. I have never cared about personality, except that likeability is central to winning big contests.

As a general rule, I don't like any politicians. It is a game of middling compromise and losing battles to win wars. It is about pandering to the middle and this 'forge' creates changeable artificial personalities. It is not that I don't appreciate them, or understand that how they do what they do is necessary.

Obama and Kennedy somehow managed to thread this needle and also come off as very likable. There are a few others that fit this mold, Buttigieg comes to mind.",fjfw87f,roundearthervaxxer,44qvtkey
"Threating to kill police is what happened for the ""censorship"" to start. fucking idiots acting all pariah over it.",Olivesandlovegg,5t62wa0b,fjfbdzw,"If you do not see negative issues with politically biased  censorship, you are less perceptive than a child.",fjekvyz,Farmerbob1,g0928
wah. wah wah wah,Olivesandlovegg,5t62wa0b,fje2t76,Found the admins alt account.,fje2bvi,bobbuttlicker,490naky7
you dramatic child.,Olivesandlovegg,5t62wa0b,fjdxqb1,"It’s actually happening. We are literally being shut down by big brother. I thought this could only ever be the stuff of dreams, but I guess I was wrong... wow",fjdpn6g,Josh-Bosco,2qxiip13
it's weird because trump is the one with allegations of sexual misconduct with minors. a lot of allegations.,Olivesandlovegg,5t62wa0b,fjduvs8,can someone tell my why this kid fucker is still able to run?,fjdlr3a,AliasDuck,2v5r9t2n
BIKES!!!,Olivesandlovegg,5t62wa0b,fj9ospo,Is there a clip you’d recommend?,fj82niz,TrudeauReMi,219bemto
"oh yeah. but biden definitely shot someone in Obama's 2nd term for ""getting too close to me and almost harshing my buzz"".",Olivesandlovegg,5t62wa0b,fj9ctw4,Are you talking about Bush/Cheney?  Because Cheney definitely shot his friend.,fj9bl7b,sailcatsuperfan,4dn2ax9o
Pa! rotate the tires on the house.,Olivesandlovegg,5t62wa0b,fj601e2,That’s a stereotype that is not necessarily true.,fj5zxye,SLowfalls,j9ihd
that's crazy. damn hot pooping girls.,Olivesandlovegg,5t62wa0b,fj4hiy8,"She is!!! She's got a tomboy look, but I'm kinda into that and we're close in age. I actually thought she was really attractive when I first met her.",fj41omx,OpinionatedNonsense,nnc6kie
fuck. I'm 31 and kinda afraid this may be the case since reading that.,Olivesandlovegg,5t62wa0b,fj3o2z8,"If you smoke long enough, your sense of smell and taste don't always come back.  Not all the way.",fj3n680,liarandathief,8rm8d
one love,Olivesandlovegg,5t62wa0b,fj3f7ok,"I used to buy weed off a friend of a friend, dude was a six and a half foot tall Jamaican, he'd come to my house pretty regular, he always seemed pretty cool and laid back.

I guess some other dudes crossed him in some deal gone bad so he took them out in the woods and made them dig their own graves and shot them in the head.",fj2430a,66microbus,49hy1
holy shit. please tell me she was fine as hell tho. that'd be hilarious.,Olivesandlovegg,5t62wa0b,fj3esi4,"We hired a new girl at work. I had a job where you could work and chat at the same time, so we got to know each other quickly. She was nice and everything, but I was really put off by her endless poop stories. She use to drive long distances for work and shit in a bucket in her car. She once shit in a plastic bag and kept it in her pocket. The list goes on and on, nobody wants to know but she just can't stop!!!

EDIT: Just adding another story she told me. Apparently the bucket tipped over once, and she said the smell never truly went away even after getting her car professionally cleaned. She also pissed in empty water bottles while driving at the same time. And if she ever cut the cheese at work, she would announce to the entire team, ""Hey guys, I just farted."" We worked in a packaging facility for food products.

EDIT: omg my first reward! Thank you <3 Of course it's for a poop story though T_T",fj20b5a,OpinionatedNonsense,nnc6kie
you're onto it. watch out you may be getting close to the truth. they're coming.,Olivesandlovegg,5t62wa0b,fj38kgr,"Think about it man. Has anybody actually seen a boat here? I see cars driving around all the time. Everybody I know drives to work but I've never met anybody who sails to work. In fact I've never met anybody who takes a boat anywhere. 

 When somebody wants to go to work they take a car. When somebody wants to go to the store they take a car. When somebody wants to go across the country they take a plane.

 You see boats in movies and on TV because it's a convenient plot device. The fact of the matter is that boats are improbable, impractical and redundant. Nobody would make those when cars and planes exist. Wake up sheeple!!!",fj37leo,InsaneTomato95,bkd3n
"you mean the masterpiece, opus of our times Suckerpunch.",Olivesandlovegg,5t62wa0b,fj37lhl,"That's impressive, I'm kind of morbidly curious now if it can top Sucker Punch.",fj37dn1,psivenn,8p495
Boats aren't real. man.,Olivesandlovegg,5t62wa0b,fj36mnx,There's a bunch of conspiracy videos on YouTube about how the Titanic sank. Most of them center on an individual account that's different from the collective.,fj36eca,rymden_viking,vfzjp
