child_body,child_screen_name,child_user_id,child_tweet_id,parent_body,parent_tweet_id,parent_screen_name,parent_user_id
They will be finger pointing all the way to the grave.,Redmoons,3fqew,fkgs09o,"The greatest irony will be that the Boomer generation is the largest generation within the government, public and private companies and institutions. 

The lack of preparedness rest mostly within their own hands. You could argue they have committed suicide by not funding scientific research and investing in On-time global supply chain economy and globalization in general. They made this bed and have to lay in it.",fkg3scg,Ismoketomuch,6mpnw
Same. Lots of words looks good.,Redmoons,3fqew,fke9ud3,This guy sounds smart Im in,fkd8snz,Ken_Blast,xovucd4
>redditor for 2 months,Redmoons,3fqew,fkdlptg,"Wow, what a perfectly presented argument! This is so profound!",fkcf6tt,_BOWLOFSALAD_,58gdl5hv
Mentally disabled?,Redmoons,3fqew,fkay17x,Was a bay area CTO making $300k+ before becoming disabled.,fkavlt9,Adderalin,3pd6y9b1
">state regulators

>federal govt

Wot?",Redmoons,3fqew,fk84jy2,"For the paywalled tards

&#x200B;

>By Feb. 25, Dr. Chu and her colleagues could not bear to wait any longer. They began performing coronavirus tests, without government approval.  
>  
>  
>  
>What came back confirmed their worst fear. They quickly had a positive test from a local teenager with no recent travel history. The coronavirus had already established itself on American soil without anybody realizing it.  
>  
>  
>  
>“**It must have been here this entire time**,” Dr. Chu recalled thinking with dread. “**It’s just everywhere already.**”  
>  
>  
>  
>In fact, officials would later discover through testing, the virus had already contributed to the deaths of two people, and it would go on to kill 20 more in the Seattle region over the following days.

&#x200B;

This last part really shows it

&#x200B;

>Federal and state officials said the flu study could not be repurposed because it did not have explicit permission from research subjects; the labs were also not certified for clinical work. While acknowledging the ethical questions, Dr. Chu and others argued there should be more flexibility in an emergency during which so many lives could be lost. **On Monday night, state regulators told them to stop testing altogether.**",fk6u4so,Rollertoaster7,8f71jrf
I'd rather die from Chinese flu than submit to leftoid authoritarians.,Redmoons,3fqew,fk341rt,"It's going to hurt. There's no doubt about it, this is what the last 7 years of denying science and railing against authority have done. We have 1/3 of a population that thinks this is a hoax, on the word of a hucksters who became president. The other 2/3 are tired of fighting against each other and ready to blissfully succumb to the oblivion we are facing.

People either dont trust the government or trust the president who they think is against the government. Its fuckin weird.",fk317lf,TheStumpyOne,6a7vo
Those the ones with the bumps?,Redmoons,3fqew,fk0naa2,"As a gay bear, I haven’t been this aroused since I discovered English cucumbers",fk0n5a7,BiergartenDayTrader,3s04uumh
Agree.,Redmoons,3fqew,fk0n66y,What a bunch of pussies. Trading should be 24/7.,fk0hyx5,1080ti_Kingpin,1judob6j
Goodbye,Redmoons,3fqew,fk0muiv,It was nice knowing you all,fk0mfyo,blazergame,j6r6x
Will you be my second for when I commit honorable sudoku? You must know how to wield a sword.,Redmoons,3fqew,fk0abbu,"Hey buddy... you uh, need some help?",fjyc7r0,EdisonClayton,1egngjzq
"You can learn it in like a day. It's not complex, just relatively labor intensive. You can probably set up a personal potato farm in a 20x20 plot of land in an weekend and a few visits to home depot.

You want to get into the complex shit then hydroponics and aquaculture are where it's at.",Redmoons,3fqew,fk08kde,I’m fucking BOOKING it over to UC Davis to learn 21st century dirt farming,fjzzcjc,SJ_Shark_Byte,d3pgu
"its guaranteed to happen at this point in the game
as soon as US pulls out the puppet government in kabul will evaporate 
no foreign money = no puppet government",Redmoons,3fqew,fjy95ah,I hope it doesn’t end like Vietnam. Nixon got The North Vietnamese to come to the table in The Paris Peace Talks and they stormed over into South Vietnam and took it two years after signing for peace. I really hope it doesn’t happen again when we leave.,fjtwq66,RaymondDavisQuest,1550mq
God I hope so.,Redmoons,3fqew,fjy61n6,And some of them will be you.,fjy1wzg,JayBoo1980,13nk2c
No.,Redmoons,3fqew,fjxvxzl,"Take 2 minutes. Download Natrium on the app store, and then send some Nano to it from the free faucet. If you really want to see it in action, make a second address on Natrium, and send it from address 1 to address 2. It'll be there and fully confirmed before you'll be able to switch the UI to open your other address.",fjt3870,nano_trader,5acwx35q
">Some of them will be close to you

God I hope so",Redmoons,3fqew,fjxvtn6,Many people will die. Some of them will be close to you,fjxvols,igadjeed,vy03v
"Muslim isnt a race, dumbfuck",Redmoons,3fqew,fjql9sr,"Lol you got that stuff on your toothbrush from flushing your toilet already, no racism needed!",fjn9q54,SnowyNW,nw6ei
That's cool bro just spread your ass bacteria all over the bathroom. I'm sure your coworkers don't mind.,Redmoons,3fqew,fjmxea5,I have watering cans in the employee bathrooms at work and make backhanded comments that it seems like I'm the only one who cares about a clean ass.  I do believe I eventually converted quite a few people to the ass washing ways.,fjmnq5k,notyetcomitteds2,nbr5tyf
They keep a bucket of sand next to the toilet and use their finger to clean out the anal cavity. Rub and scrub.,Redmoons,3fqew,fjmxc16,">we’re Muslim, we don’t use tp

???????",fjmij86,hstlmanaging,143ob9
Based,Redmoons,3fqew,fje3yad,"Still, up 26%.. I’m in.",fje3e9b,rfloyd77,pkwu4
It's fucking awful. You should watch it.,Redmoons,3fqew,fje02xi,Wow this movie looks like shit,fjdz86w,Bananas1nPajamas,tpas0
PLEASE PLEASE PLEASE PLEASE PLEASE I HAVE SO MUCH CASH PLEASE OH PLEASE FUCKING CRASH,Redmoons,3fqew,fjdo2s3,"I dont see how we could do anything but fall 10,000 points from here",fjdfiu5,Hussle_Crowe,18zisr0e
"thedonald.win is our new staging point, it may glow in the dark but the core is intact",Redmoons,3fqew,fjdlg06,"I wonder. It must be a strained dynamic. there certainly is an overt conflict between the 2 groups.

Our side will lose here. We must regroup elsewhere. 

I do not want to lose contact with you people; you give me energy!",fjcyd3f,HillarysBeaverMunch,1m0e3xr1
Yes.,Redmoons,3fqew,fjcxchj,"Yeah, open it up so all the mods get booted and this place can die quicker! Great idea!",fjcx3pz,Starman164,rts59
So what? We know it's coming anyways. You going to let TD become a puppet subReddit controlled by communist faggots?,Redmoons,3fqew,fjc4v39,Cause reddit would remove them and remove us.,fjbqqgp,CovfefeBucks,2iyufn
Yes,Redmoons,3fqew,fj9vy2k,"Curious observer who is new to the sub.

Is this verified somehow?",fj9vuh8,ovideos,k18cg
NOOOOOOOOO,Redmoons,3fqew,fj9ubk9,NO. NO NO NO NO NO,fj9tyqr,Redmoons,3fqew
Thanks for everything you do. Keep it up.,Redmoons,3fqew,fj2n04s,"This subreddit was a key source of information about the current crisis -- It was mentioned to me as much as Fox when folks stopped me in public.  Retweeted this again to show our concern: 

 https://twitter.com/davereaboi/status/1233543294266888197?s=20",fj26yz5,TFittonJW,7wo4uqg
"You think you are clever, but you are not.",Redmoons,3fqew,fiztgg6,"Yea guys, when BTC hits $5k, just sell it to buy more.",fiw2oj3,tranceology3,hoznp
Why? Just buy some more.,Redmoons,3fqew,fivwcmx,"So we are headed for 5k before the next ath. 

Not sure my stomach will handle that.",fivr6pv,legbreaker,4va4p
McCarthy was right,Redmoons,3fqew,fivvnpj,"The US has been infiltrated by amoral scum. In every institution. At every level. Mass firings and recalls of these godless commies needs to happen asap. Communism/Socialism/whatever other new name they give it, needs to be outlawed. The sick people that support it need continuous public shaming from patriots for being traitors. Sucks that 90% of the media are commies too, because that makes the job harder, but fuck it. They will call you names, but so what? If the Left hates you, it means you're doing something right. People need to wake the fuck up, turn off the fake news, and take this Country back before it's too late. 

(The preceding has been about legal and lawful political strategies only! Any other inference of intent is wrong.)",fivphxz,FrontHolePetriDish,4suxbryn
its because thedonald.win glows in the dark,Redmoons,3fqew,fivtr75,"Why is javascript required for such a simple site? It won't load without it, and it's pretty much plaintext.",fivsijb,AlpraKream,5ktp0831
"It's the bootleg chinese electronics version of ISIS. Not associated with actual ISIS, just calls itself ISIS and wants to do ISIS stuff, but is pretty bad at it.",Redmoons,3fqew,fih793a,"Badass video, didn’t realise how fucked the situation was for the Philippines when this occurred though. Fuckin’ pussy ass isis fucks man, god damn I hope they all burn and rot in hell",fi2fcz9,RagerUriah,1n814mc
go talk to your counselor you whiny fuck,Redmoons,3fqew,fih734g,Well this was exceptionally unenjoyable and triggered my PTSD. Fuck you OP,fhw6zl4,Random_G,8l5n7
Literally. 🤔,Redmoons,3fqew,ficav15,State enforced homosexuality,fi9z69h,majesticbuttplug,56cem3s1
"The second amendment is a beautiful thing. 

(Yes this is an implicit threat that I will use my firearms in self defense of my life and property and that of my family.)",Redmoons,3fqew,ficarfp,"The second amendment is a beautiful thing.

(THIS NOT A THREAT/ADVOCATION OF VIOLENCE)",fiaqbyb,futvnj,17dmee
"The FAA doesn't think the same thing. Diversity at any cost hiring has resulted in the worst and most dangerous generation of air traffic controllers ever. It is only through the heroic efforts of the old guard that the system continues to function.

Once they check out...good fucking luck.",Redmoons,3fqew,fibr2k1,Meritocracy is the only way. Especially when we're talking about flight.,fia5odq,Duke_Cesare_Borgia,wn0oe
Shitcoins gunna shit,Redmoons,3fqew,fi3xzpp,"This reaction is beyond stupid imo. First of all vulnerability was not in IOTA itself, but in the wallet.

Secondly, there were numerous hacks where Bitcoin private keys were stolen. 

It's a good lesson for all crypto projects that you have to thoroughly audit every third party integration.",fi3nfh7,nstratz,6ypxre
Learn to cook and amazing food is one trip to the supermarket away.,Redmoons,3fqew,fi39794,"I live here and can say the only thing I will miss tremendously once we move out is the amazing food and the variety of it. I've traveled to many states and I always appreciate the food options we have here.

Doesn't make us want to stay, but will definitely be visiting family and our favorite spots to eat.",fi2b2en,Unsilent_SoCalipede,16kv8x
A citizen should be able to travel with any amount of legal tender he pleases.,Redmoons,3fqew,fhoyofa,Why didn't he use a card? Why on earth would you travel with that amount of money? It's just asking for trouble imo,fho8gvk,tingbudong99887766,3nqcouvu
holy fuck this thing looks like a deathtrap,Redmoons,3fqew,fhohvjh,[Jackal/Coyote](https://en.wikipedia.org/wiki/Jackal_\(vehicle\)),fhlatp3,HowObvious,6w2bk
"Fantastic post. Possibly the most legit crazy thing I've ever read on this site, that wasn't pure schizoposting. I can tell that you actually believe your world view is logically consistent and that what you just posted makes sense and is also convincing and understandable. This is prime cut crazy and I'm going to cherish this comment for a long time. Can you do something for me though? This part right here.

>Gays make humanity sustainable. Without us, the Earth would be unable to support any living things at all. 

Can I get a quick rundown on this theory? I'd love for you to unpack this tidbit and share your wisdom. Help this ""breeder"" understand, because I really want to know more.",Redmoons,3fqew,fgq9xht,"Thanks for that psychopathic breeder word salad and psychological projection that proves you didn’t actually fucking read the study, you breeder pedophile fuckhole. Every culture that can really be called civilized accepts the irrefutable fact that homosexuality is normal, natural, healthy, and beautiful. Any culture that rejects it is a savage barbarian shit hole. Gays make humanity sustainable. Without us, the Earth would be unable to support any living things at all. Heterosexuality is a choice and one that is completely unnecessary for human reproduction.

99.99999% of crimes are committed by heterosexuals. Civilized countries lock up breeder perverts like you for hate speech. I, for one, can’t wait until the United States makes crimes against homosexuality, including and especially hate speech, capital crimes. Then and only then will we truly be a free country.",fgq872j,Shoddy-Indication,4vu20cpd
"Your study supports my stance, not yours. You overlooked the glaring and obvious statement that pedophilia is overrepresented by a huge margin in those who identify as homosexual. You also overlooked the per-capita breakdown. Of course it makes sense that pedophilia would be distributed in the general hetero population. What doesn't make sense is how the 3%(at best) of the male population which is homosexual, commits more than 40% of the total sex crimes against children. Do you understand what it means when 3% of a population commits 40% of a certain type of action? Please try to comprehend the statistical implications of those numbers. It means that homosexual men despite being a tiny fraction of the population, rape children at a hugely disproportionate level compared to heterosexuals.

Let me detonate the rest of your nonsense also. Heterosexuality is biology and how our species reproduces. It makes perfect sense for our culture to center around gender roles and heterosexual romance and family making, because this is how we evolved. There is nothing wrong with the continuation of a culture which results in our species propagation. Arguing against it and portraying it as evil makes you look insane. Then again, wanting shit on your dick also makes you look insane.

As for child molesting homosexuals, well, there is simply no evidence that they serve any biological purpose whatsoever. If overnight every man turned into a boyfucker and gave up women entirely, human civilization would more than likely end. Framing heterosexuality as evil and when the alternative is total destruction is pretty funny.",Redmoons,3fqew,fgq801p,"Most heterosexuals molest children. In fact, heterosexuality itself is a form of pedophilia because it infantilizes women and uses children as human shields to justify grown men cockblocking other grown men. The ratio is 11:1. The solution: stop letting heterosexuals near children. Pedophilia is an inherently heterosexual act as is any other form of rape. https://www.ncbi.nlm.nih.gov/pubmed/1556756

Heterosexuals also recruit by flaunting their sexuality in mass media propaganda in addition to molesting children. Infiltrating gay spaces with anti-gay propaganda and rapey tr-nscult rhetoric is also a form of recruitment.

Thanks for proving that there is no such thing as “heterophobia”.",fgoac2f,Shoddy-Indication,4vu20cpd
Is it a difficult question to answer?,Redmoons,3fqew,fgq6cud,I’m sure the user who throws around slurs and espouses the white supremacist great replacement theory is asking this question in good faith 😂😂😂🖕,fgpifi6,Shezarrine,6d7y7
Or maybe he's got a foot long horsecock and his life is a living hell because he will never be able to experience fulfilling small dick humiliation. Rip,Redmoons,3fqew,fglig39,He doesn’t respond to pics. I think he’s a collector.,fglh9na,TobyWanKinobe,59indqby
D,Redmoons,3fqew,fgk1mur,O,fgk1l9i,memelenniumfalcon,2zwvhlu5
"So what? Oh no, a ""hateful"" person! Don't worry princess I'm on my way out of your vegetable patch.",Redmoons,3fqew,fgjz0pz,Wow you have a chip on your shoulder. Yikes. What a hateful person you are.,fgjxy5m,lecentrede,4x2vypgr
"How very vegan of you you assume that I am here because I give a shit about you.

There is a magical Reddit browsing setting called /r/new/all which shows ALL content on Reddit as it is being posted no matter what sub it is going to. I wasn't browsing vegan. I saw ops question and since I know all about you goofs i decided to answer it.

Now get back to preparing some activated almond milk or some other lame and gross shit you have to convince yourself doesn't taste like camel ass. Also be sure to thank me for giving you the high point of your day, since now you can tell all your vegan friends you got bullied for being vegan. Yes it really happened to you!",Redmoons,3fqew,fgjxknj,"You're very childish. But it's even stranger that you are here, if you aren't vegan. What is it about veganism that makes you so angry, what makes you so obessive about veganism? Do you have anything else better going on in your life?",fgjwptb,lecentrede,4x2vypgr
">muh racism 

Shut the fuck up retard",Redmoons,3fqew,fgjwn1m,okay racism aside i know DAMN WELL you aren’t a steve lacy fan lmfao,fgjviu8,petegaveglia,178a2c
"No I don't believe it. I know it. Animals don't give a shit about you and certainly aren't aware of your efforts on their behalf. Therefore it is easy to conclude that your behavior is designed to seek the attention of other humans and engage in a system of virtue signalling, where you have already established credit and are higher on the social totem pole.

Btw plants feel pain also, but you don't give a shit because humans are incapable of empathizing with leaves. More proof it's for attention.

It's just more sekrit club bullshit. You could eat plants only without jerking off about it.
 But you don't.
Because you want attention and the label gets you attention (sometimes)",Redmoons,3fqew,fgjwe48,"Do you really believe that? That we are only vegan for attention? In my case, that's completely untrue and I think that's true for many people on this sub. Why do you feel the need to put people down, and spread lies about a group of people who are against the explotation of animals?",fgjupba,lecentrede,4x2vypgr
Imagine actually having this opinion.,Redmoons,3fqew,fgjr1ht,"The Nazinal Archives has become a tool of totalitarianism, erasing history - this would make Stalin or Hitler proud.",fgjpmiy,overtoosoon,mo4fn5s
I wish your mom or dad had gone back.,Redmoons,3fqew,fgjqzze,"As the son of a child refugee, fuck everything about this.",fgjp1rr,SpinningHead,4aljt
It's really not though. Keep sipping your latte and browsing the internet.,Redmoons,3fqew,fgjqq4z,"There's a reason for that.

This is what tyranny looks like.",fgjmsad,jcooli09,44237
I thought he wasn't your president?,Redmoons,3fqew,fgjqdt5,Every day is more embarrassing than the last. 🤦‍♂️,fgjptgx,dirtyrudy,shpep89
"If /r/politics is anything to go by, we apparently already do and I have to say it's not bad at all out here",Redmoons,3fqew,fgjo9k1,Imagine how pathetic one must be to want to live in a dictatorship ruled by Donald fucking Trump.,fgjn9ch,neglepton,gs91bbm
Ok. What are we(you) going to do?,Redmoons,3fqew,fgjo4c7,We. What are we going to do. Not holding people accountable for crimes is a problem for all of us.,fgjni1a,failing2start,4407q3t8
If it was passed without being a campaign promise it would an entirely different beast.,Redmoons,3fqew,fgjnk9w,I'm curious about this thought. Let me ask a hypothetical: Let's say that today's congress and executive branch passed a version of UBI identical to what Yang is proposing. Would you be upset by this?,fgjmow8,mkeredbeard123,4r8fk83a
This but literally and unironically,Redmoons,3fqew,fgjl8ur,"Long live King Trump, the holy one! He’s more important than one’s own integrity, dignity or honor. Get rid of the liberals and America will be great.",fgjf9lr,beendall,3uolztic
"Irrelevant according to who? Shouldn't the relevancy be determined and judged by individual concerned parties, and not by a third party(you) insisting its nothing to worry about?",Redmoons,3fqew,fgjkvav,"Because the source(s) of their funding doesn't validate or invalidate the complaint being made here, it's irrelevant.",fgjkivg,shenaniganns,3qa47
"That's right black Americans, your votes *belong* to the democrats!

And don't you fucking forget It! 

^*cracks ^whip*^",Redmoons,3fqew,fgjjn8d,"Black. Americans. Don't. Vote. Republican.

*Accept it.*

Go focus on hispanics or something.",fgjjbcc,tweebo12,49o4lzrs
Hello fellow white former Republican!,Redmoons,3fqew,fgjjl2v,"I'm still amazed that any minorities would vote for Trump.  I'm a white, (former) Republican and even I would not vote for Trump and never did.",fgjiu45,mdjak1,g87uw
Do you often think about the genitals of powerful old men?,Redmoons,3fqew,fgjjf8n,Powerful old men with deformed dicks who have been caught sexually abusing/raping dozens. Not really.,fgjj4ad,TrumpImpeachedInJuly,14v738
So what are you going to do about this injustice?,Redmoons,3fqew,fgji8n1,"Proven =/= Convicted

A good example of this is the impeachment trail. Proven guilty, still will be acquitted.",fgjh4qw,DritchJaul,crvsm
Because the information is quite obscured.,Redmoons,3fqew,fgji5sl,Why don't you just go look it up?,fgjhzfr,dr_pepper_35,7eo3i
"I call them women, because I'm not a racist who uses color labels like you.",Redmoons,3fqew,fgjhtda,"If black women are women we should call them women not black women /s

Do you see?",fgjhhms,IsupportLGBT_nohomo,e5u3z
"No, I don't think I implied that at all. Your aggressive reaction is quite startling.",Redmoons,3fqew,fgjhmz0,"You implied that Jared is more creditable than a certified non profit when it is clear that he only has his job because he licks Trump's ass while Trump fucks his wife Ivanka.

&#x200B;

EDIT: [Jeffrey Epstein](https://en.wikipedia.org/wiki/Jeffrey_Epstein) did not commit suicide.  Trump and Barr were part of his crew dating back to high school. Fucking children, even their own, is part of their life.",fgjdo0g,Autoserpant,4zkncnv0
"Why do you believe asking CREW to offer transparency on their funding is an ""attack""?",Redmoons,3fqew,fgjhcqo,Have thoughts on the complaint or you just here to attack the source and what you assume are their motives?,fgjeb71,shenaniganns,3qa47
"I agree with you completely, that is actually what happened in physical reality. Definitely.",Redmoons,3fqew,fgjh89x,"Yup, we all watched them vote to ignore witnesses, testimony, and evidence, in addition to all of the capitulation of power that Senate Republicans had already done like empowering Trump to override congressional budgets via executive fiat.",fgjgpbz,NearSlush,qj36ecn
"No. Not even one, Jack. Your drivel is already wadded up and in the trash can.",Redmoons,3fqew,fgjgyhy,How about one point?,fgjelnj,NumberNumb,wl334
That there are still plenty of rubes to scam a second time around. Gunna be funny watching Sanders disappoint Reddit all over again.,Redmoons,3fqew,fgjgl8n,So strange that he has more supporters than any other candidate. and it isn’t close. What does that say about them?,fgjessx,stevota01,q626064
Yes that's definitely how it happened.,Redmoons,3fqew,fgjg56q,"Yeah, it really is sinister that the Republicans did that.",fgjft4v,NearSlush,qj36ecn
"If trans women are women we would call them women, not trans women.",Redmoons,3fqew,fgjfq1i,"> Trans women are women.

Fuck every person downvoting this comment.",fgjdbjc,ourob,46f01
Disenfranchising women so that men suffering gender dysphoria can dominate in a sport is cruel.,Redmoons,3fqew,fgjfni2,"It really doesn't. Trans women are women period, regardless of their hobbies or skill level.",fgjffb8,Qu1nlan,8937y
Being a career politician with zero accomplishments?,Redmoons,3fqew,fgjdz13,Based on...?,fgjdcz1,stevota01,q626064
"I find it quite interesting how you immediately lash out and then go in hard on the conspiracy front.

Did I offend you by asking for information?",Redmoons,3fqew,fgjdb8z,"Since you are using the internet to post here, I'm sure you have access to wikipedia.

&#x200B;

CREW has been around for a while. Now before you go on a Trump, FOX, Russia, Rush got cancer to be closer to jebus nonsense rant; look into how many republican shadow groups pop up and disappear every year.  One fucking amazing example of Republican fuckery is [Safe Streets Alliance](https://www.lexology.com/library/detail.aspx?g=938f7352-82bf-4e30-8dee-f4c4871ab3d8). A shadow group that funded lawsuits against cannabis companies in states that allowed medical access.  Strange thing is when Kebbler Elf Jeff Sessions got booted from DC, Safe Streets Alliance totally disappeared. Weird.",fgjctgr,Autoserpant,4zkncnv0
Dang. Guess we shouldn't have expanded the powers of the executive branch so carelessly in anticipation of controlling elections indefinitely... this shit really isn't going our way 😥,Redmoons,3fqew,fgjd1nd,"intelligent enough - no

corrupt enough to cheat with the gloves completely off - yes",fgjcc6h,JLBesq1981,2tm4uvwf
Sometimes I wish orange man was half as evil as you think he is.,Redmoons,3fqew,fgjci0v,A complicit Party of loyalists makes Justice hard to enforce.,fgjby8c,Sweet_Roll_Thieves,3wa34co2
Nice California flag.,Redmoons,3fqew,fgjccrc,Bad take. The Iowa caucuses have been indefensibly terrible for ages. This is just the latest evidence.,fgj889s,The-Autarkh,nzjay
Disingenuous propaganda doesn't require a point by point rebuttal.,Redmoons,3fqew,fgjc9xj,Is there a specific point in the article that you take issue with or is your only argument approach to make sweeping generalizations?,fgj98hz,NumberNumb,wl334
Care to answer the question?,Redmoons,3fqew,fgjbxjq,Probably people that are actually qualified to do their job unlike Jared.,fgj9cm3,Autoserpant,4zkncnv0
Do you think current residents should be able to consent to other humans moving into their communities?,Redmoons,3fqew,fgjbucu,"You may be shocked to learn that the United States is almost no one's first choice. The come here because of our relatively liberal immigration laws. If human beings had real freedom of movement in the world they'd choose Australia, Japan, New Zealand, Canada, or Scandinavia over the US. And one of the reasons is because no matter how legally the immigrate they have to deal with xenophobia most places outside of a few big cities.",fgj9miq,LuvNMuny,43nkh2ph
Yikes.,Redmoons,3fqew,fgjas5g,Trans women are women.,fgja08a,Qu1nlan,8937y
2024 is a long ways off.,Redmoons,3fqew,fgj897n,I'm nervously anticipating what Trump does with his last year in office.,fgj605p,le672,3qemcofq
"Still trying to pimp the debunked and forgotten Russia conspiracy? Get with the times bud, your fellow lefties have moved on and accepted Orange Man as a home grown outrage.",Redmoons,3fqew,fgj7wph,"Russian misinformation/propaganda campaign.

Distort the truth, redirect focus, deny facts.",fgj6q7t,Jack_Tripp3r,vlnmd
\>when your reference is so obscure you have to include a link describing what it means,Redmoons,3fqew,fgj6zkx,"Would-be authoritarian?  

Trump is a full-on authoritarian who commits acts of [stochastic terrorism](https://en.wikipedia.org/wiki/Stochastic_terrorism) as a matter of course.  There's nothing would-be about Trump's authoritarian political worldview.   This is one of the reasons the Republicans spent so many years setting the stage for a character like Trump: transforming the republic into a right wing dictatorship has been the party's goal for over eight decades.  Trump is the guy they cast to play the role of dear leader.",fgigxca,AlternativeSuccotash,1ci06t6o
"How does being aware that faggots reproduce by molesting children and warning people about that fact ""enable pedophilia""?

You seem a little bit shook so I'll leave you to your thoughts. I'm going to go smoke and hit on some fat chicks.",Redmoons,3fqew,fgiofe1,"actually i was wrong, lowest age of consent is 11. History lesson still applies as those laws are still there, because straight guys like em young untouched and fertile. Like that rapper who took his daughters to have their hymen checked. nothing weird about that.
Its not history. its still goes on. Its your fucked up attitudes that enable pedophilia.",fgin7yr,Gayosexual,17ky5yva
"Yes, all those progressive western counties with a 12 year old age of consent.

Also, that is not my argument at all. I am merely giving you a history lesson because you are very sadly confused.

Faggot predation on prepubescent boy children is a matter of historical record. The same cannot be said for heterosexuals except for inbred arab warlords and their death cults, and Pacific islanders.

Anyways, as a practicing faggot you are intimately familiar with this little problem in your ""community"". You are only upset because I talk about it openly.",Redmoons,3fqew,fgimhk6,"Age of consent is 12 and above, because straight guys like em young. Thats why they aren't rushing to take down those laws. Only you are arguing that 12 13 14 year old girls is ok because untouched females is important.",fgilz29,Gayosexual,17ky5yva
"Where does ""redmoons"" mean anus? Genuinely curious.",Redmoons,3fqew,fgilso6,...says the bitter short guy whose username means ‘anus.’   ;),fgil78m,alevatoraction,ydmzi
"Thank you, I know.",Redmoons,3fqew,fgilq4g,Your logic is flawless,fgibpoy,echologia,13owncxj
">Cope: the post

Age of marriage historically for the vast amount of the populace was not pre-pubescence.

On the contrary, women retaining their virginity until post pubescence and marriage age was so important that any indication she had been exposed to sexual touching or penetration would make arranged marriage impossible, leading to careful protection of young women from harm.

Sadly, historically speaking, male children did not have such protection and were freely abused sexually all throughout human history by faggots in basically every culture that cared to record it.

This thousands of years long history of faggots having homolust for children is not something that disappears from common remembrance.",Redmoons,3fqew,fgilh9l,">Not an argument. A statistically tiny fraction of the hetero population is attracted to prepubescent children.

uh huh thats why all those hundreds of year old laws were set in stone allowing underage marriage all over the world. Laws that are still there that you can take advantage of even though we live to be 80+

I'd clean up your own bedrooms first.",fgic680,Gayosexual,17ky5yva
Who cares. It's a shitty Pokemon looking fucked up animal anyways. Better for me to eat it as boner fuel than for it to go extinct anyways cause you need a new iphone every year.,Redmoons,3fqew,fgibfha,Then you're a shit bag who purchases critically endangered animals that might extend your erection,fgfbshv,echologia,13owncxj
"Ban me then, virtue signalling loser. You think I give a shit about your gay little sub? Push the button.",Redmoons,3fqew,fgib6o8,"[Get your racist shit out of here, this is your only warning](https://www.reddit.com/r/amiugly/wiki/index)",fgfjlcw,I_can_vouch_for_that,kk4cc
The fact that the city exists on a state line and has a Kansas side and a Missouri side is a pretty good excuse.,Redmoons,3fqew,fgib1bo,He literally held a rally there. No excuse. Zero. None.,fghl83k,TuckerMcG,73u6m
">but whatabout...

Not an argument. A statistically tiny fraction of the hetero population is attracted to prepubescent children. Attraction to and reproduction with a post-pubescent minor is both possible and biologically explainable. Using modern feminist talking points to frame healthy and natural attraction to post pubescent females as ""evil"" will not score you any points. Our species exist because our ancestors started having families in their teens, and there is no escaping that historical fact. A hundred years of social trends to not wipe out millions of years of evolution.

Meanwhile, a statistically troubling and large fraction of faggots desire and seek out sexual contact with prepubescent boys. Sexual contact in the gay community with minor males is common. As you know, being a faggot. This type of contact has no explanation from a biological standpoint whatsoever, unless we consider the possibility that faggots also want to reproduce, and that the only way they know how is by inflicting trauma on children. Children who suffer sexual trauma from adult men are several times more likely to identify as homosexual as adults. Conversely, the limited number of adult men who report being sexually assaulted by other men never indicate a shift in their sexual preference. They can't be ""recruited"".

The adopted or IVF children of homosexual couples also grow up with a chance several times higher to be homosexual, compared to children of hetero couples. I wonder why that is? Because faggots also molest their adopted children at a statistically significant rate that is higher than hetero couples.

The inescapable conclusion is that faggots reproduce by molesting kids. The faggot community knows this and downplays it, but still seeks out contact with prepubescent children whenever possible with inevitable results.

You don't even need statistics to witness the pattern of homosexual predation on children. This is why faggots are commonly vilified as predators by people with no access to statistics at all. It's not a ""meme"" it's not bigotry. It's healthy people protecting their loved ones from a horrific fate that faggots seek to selfishly inflict upon them in their endless pursuit of sexual deviancy.

Something to think about the next time you are washing another man's shit juice off your prick, or squeezing a frothy load of semen and bowel contents out of your sore asshole. ""Hmm, maybe this isn't how it a supposed to go""",Redmoons,3fqew,fgiaftu,"According to a recent [Washington Post article](https://www.washingtonpost.com/posteverything/wp/2017/02/10/why-does-the-united-states-still-let-12-year-old-girls-get-married/?tid=pm_opinions_pop&utm_term=.29967965f0b8), and a charitable organization called Unchained at Last, girls of 12-17 years can be legally married to men in their thirties, in the United States, right now. Not three centuries ago, or in some developing country, but today, in the United States. Christian marriages with girl children, organized through legal loopholes and parental consent, in several US states, in this day and age. Heterosexuals, maybe do something about your institutionalized child abuse problem? Huh?

And while you're at it, do something about the compulsive sexualization of underage girls in your culture, in mainstream movies, novels and other productions, like Pretty Baby, Taxi Driver, Leon, Lolita, and countless others. Stop flirting with paedophilia in your rock music, with lyrics addressing young women as ""little girls."" Stop normalizing relationships between men and extremely underage girls by turning a blind eye to (or worse, romanticizing) the fact that major stars like Charlie Chaplin, Elvis Prestley and Jerry Lee Lewis have knocked up and legally married girls as young as 13-16 years of age.",fggj36h,immensefont,5leogw04
"We're talking statistics, sweetheart. Sit down.",Redmoons,3fqew,fgi9g00,"except that most of the victims of pedophilia are girls and perpetrators are men. But ok, go ahead with your insanity",fgh9wg8,girlnextdoorl,1fkbakn4
Are you fat shaming me? Isn't this a body positive space? Really cannot even right now.,Redmoons,3fqew,fgf724w,"Just wondering when you were going to stop bawling your eyes out after that extremely accurate assessment of you.

Don't forget to clean between the fat folds on your upcoming monthly shower",fgf6xmr,johnvandyke2,nlo6o
">being unable to recognise satire 

>trying to greentext on plebbit",Redmoons,3fqew,fgf6a8j,\>hurr durr im only pretending,fgf6312,xlmi,4wcfx6zb
Yeah I thought so. Typical drumphtard not being accepting of alternative sexuality. You are on the WRONG side of history!,Redmoons,3fqew,fgf5slz,That's weak. no shit i did.,fgf593o,gay_barn3y,5lc7zaau
"That's the idea. You want to see if it's anything you are putting on your scalp that is causing the condition. A month gives you time to heal and recover your natural oils.

If it doesn't get any better or worse you might have some other issues like untreated fungus or a mild food reaction that you aren't aware of.",Redmoons,3fqew,fgf5qrs,I'm fine with filtered water but I just want to ask if I have to use water only. Just water rub rub rub for one month?,fgf5frn,KappaCuppa,593b2x5p
"Neither am I, whats your point?",Redmoons,3fqew,fgf5d3b,im not a nazi so that’s improbable,fgf4wek,xlmi,4wcfx6zb
"PH balanced water. Preferably filtered or distilled since water from the tap may have high mineral or chemical content.

If that helps you can look into all natural shampoos which tend to have much less abrasive and irritating chemicals.",Redmoons,3fqew,fgf5c8o,So I only use water from RO and no other products?,fgf58is,KappaCuppa,593b2x5p
It's 2020 don't be a bigot. You probably voted for Trump.,Redmoons,3fqew,fgf4tl7,We all out here taking solace in the fact that you probably cut yourself and are gonna kill yourself eventually get rekt weirdass fish fucker,fgf4s3p,gay_barn3y,5lc7zaau
