child_body,child_screen_name,child_user_id,child_tweet_id,parent_body,parent_tweet_id,parent_screen_name,parent_user_id
"Milan, Venice and Florence",sloe_jin,byvm1,fkgzdjr,What are those 3 countries who are wearing the bird masks other than USA?,fkgylul,Small_Legendary,4tocdlo7
"Dude what the fuck are you smoking, get off it",sloe_jin,byvm1,fkgoact,"Oh, so it's a cringey edit to thank someone for silver?

Think i preferred you as a creep tbh :/",fkgd6tb,StevenTheScot,2kiik4ia
"Thank you for sharing your anecdote, it resonated with me because I have a similar memories of my own ah ma",sloe_jin,byvm1,fk5imn4,"Will they be hiring a spirit medium or are they sponsoring my trip to heaven/hell?

Either way I’m choosing my ah ma’s nyonya bazhang. She taught us one year but we were too young to remember and too dumb to realize how significant that memory will be in the future. It’s the one happy memory I have of her that still makes me smile whenever I recall it - me struggling to fold the leaves properly and her patiently teaching me to fold and refold again, then over-filling the bazhang and her laughing at me saying I’m so greedy, then I reply that I like big ones will lots of meat! Then her wrapping and tying the string up so magically and me struggling to follow with my obese ba Zhang that I refuse to let her reduce in size cos I’m so stubborn, and then finally squatting outside the house with the charcoal stove and a pot of water to steam our final products. That was the best bazhang I ever had, because I made it myself and because my ahma’s recipe was perfect. 

She passed a few years after this, and we never made bazhang ever again. If I have the chance to learn one recipe, it’s her nyonya bazhang. One for the taste, but two because it’s a labor of love that I’m willing to spend the time to be with her again. 

——

Younglings with your grandparents still around, treasure them. Older folks with annoying elderly parents, remember to love them too because one day they won’t be able to annoy you no more. 

\*wipe tears away\*

——

Edit: I asked my family this question. Mom said she’d want her mom’s (my ah ma) Png kueh recipe. Sis said she’d want the carrot/radish cake cake recipe. I guess when your grandma is a kueh savant, everybody will have their pick...",fk41r2k,veryfascinating,okthg
"Fuck those chodes, clear evidence that they have no human heart",sloe_jin,byvm1,fk5hdmf,Meanwhile politics is praising people trying to infect Trump with corona virus and no quarantine.  Yeah td is the problem right?,fk53y6f,dontdoxmebro2,aqvqgv2
That sub is hot fucking garbage. Keep up the good fight Pede!,sloe_jin,byvm1,fjcci86,Just here to say that the China Flu sub is becoming the Trump bashing sub that is still spreading debunked news.  I've been doing what I can.,fjbqv38,WiseLatina,ymdnf
"Because many people have been kind to me and on each occasion whether larger or small, it always made a positive impact on my life. It could have just been for that instant, or much longer lasting, but it was nice that each person had the heart to extend some kindness to me.

I try to be kind to pay it forward, because don't we all want to be treated with kindness?",sloe_jin,byvm1,fj8hnci,"What motivates you to be kind to others? Is it hoping for the same treatment in return?

Or what stops you from being kind to others",fj8ggwr,prime5119,jm8oqd6
"Head over to thedonald.win, patriot!",sloe_jin,byvm1,fj0bqra,I feel like a crack addict looking for a fix with every new post.,fizupph,RetainedByLucifer,gs49q
"Well, they should be grateful that they're coronavirus free from us 10 months of the year /s",sloe_jin,byvm1,fiwbps6,"I’m gonna bet, they’re gonna start blaming us for the coronavirus spread in their country. It’s a pretty convenient excuse to use. “We didn’t have it, but it got imported by a singaporean.”",fivv1rg,mechie_mech_mechface,3t0dwih0
"They trot out some version of the Uncle Tom pejorative the moment they find out a minority voted for Trump.

It's madness",sloe_jin,byvm1,fivz5bf,"If there is anything the left hates more than a conservative, it's a minority that doesn't toe the line",fivdigm,chriddafer0518,1jtc2w94
"Literally making thoughts a crime.

This is madness and Spez is asshoe",sloe_jin,byvm1,fioxv0y,"My favorite part of that message was the ""upvoted a post"" rider. So even using the website as intended is against reddit's rules now? Lovely.",fioo6i4,AlexanderSpeedwagon,32g9j8bv
