child_body,child_screen_name,child_user_id,child_tweet_id,parent_body,parent_tweet_id,parent_screen_name,parent_user_id
This is a roguelike. Nature of the beast. It's like saying jumping is anti-fun in Mario.,smilodoner,l0cqx,fklzw0c,I was expecting this response. I still think it's the worst most anti-fun thing in the game specifically for the reasons you stated above. Most of the time there is no strategy positioning enemy pulling or prioritization. You're just paralyzed. Donezo,fklyaw4,finkleiseinhorn55,cvrd7
There's always paperwork involved,smilodoner,l0cqx,fklivao,"There's no paperwork involved. Don't worry, though - someone is keeping tabs ;)",fkkrv3v,procgen,d3pr9
We do the soul paperwork right after getting fitted for boots.,smilodoner,l0cqx,fkkr1ye,It's never worth selling your soul.,fkkmvbi,procgen,d3pr9
"It's because of mass immigration. If that were the case, there wouldn't be enlistment bonuses.",smilodoner,l0cqx,fkjpbjk,some people think the standard of living is deliberately kept so low in America so that people are basically forced to join the military in order to afford medical care and education,fkjoa4j,Sweaty_Contribution,3a5mml9n
"Bravo, good research. I would suggest the same to anyone who wants to improve their lot in life.",smilodoner,l0cqx,fkjos83,I checked your history. You literally joined the government thugs. You improved your situation at a terrible cost to humanity.,fkjnvxq,CptBeetle,nz6ie
That was me. I've improved my situation. They can do the same.,smilodoner,l0cqx,fkjno4y,They made a choice to be born poor and have limited opportunity?,fkjnj3h,CptBeetle,nz6ie
"I wouldn't say that, it just doesn't necessarily lead to getting promoted.",smilodoner,l0cqx,fkjnhob,Dang that's kind of depressing honestly. So is it hard to get promoted if you care about people below you?,fkjnevm,the--cuck,47rkb7l8
"What's unfortunate is that pressure gets mitigated by statistics and not actual concern for the soldier. None of my LTs could name my kid, wife, or even be aware I was married. They don't get promoted for being a good shepherd, they get promoted by being a good manager.",smilodoner,l0cqx,fkjnbic,"Absolutely. The enlisted guys are digging ditches (figuratively speaking, maybe literally) and seeing a guy sit a desk all day makes him wonder just how hard his job is. 

It just freaks me out how much pressure is on the officers to make sure they get the mission accomplished. Or even worse; taking responsibility when a Joe gets killed.",fkjn5d7,the--cuck,47rkb7l8
That's 100% a problem of our own creation. And some absurd percentage have no savings and no retirement money either.,smilodoner,l0cqx,fkjn033,"you're making it like living paycheck to paycheck is a problem with the choices people make, instead of a systemic problem.  50% of Americans live paycheck to paycheck btw",fkjmpu1,Sweaty_Contribution,3a5mml9n
Did you read the first two words and ignore everything else I wrote?,smilodoner,l0cqx,fkjmd6d,"unless you own land, grow and can all your own food, with a spring/well on your property, make your own clothes, etc - you are technically not ""self sufficient.""

let's be realistic here.  most people don't have a choice, dude.",fkjmbii,Sweaty_Contribution,3a5mml9n
"Self sufficiency. Try to not be a wage slave, if you are, try to mitigate it as much as possible. That's how we fix things. People who live paycheck to paycheck have made a choice.",smilodoner,l0cqx,fkjkyt1,"but when those institutions have become hegemonic, as good as immovable , or when the organization to remove them / adequately change them doesn't exist , AND people are exhausted/distracted from just trying to pay the bills, **AND** those institutions have ensured that our standard of living is consistently being squashed - i.e., the system is totally rigged by the institutions, that control the money, which is what pays for biological necessities - do you have a better (at least temporary) option than at least guaranteeing people a safety net like other developed countries have, instead of tax dollars only being spent to bail out the super-rich (besides something like ""they should just grow their own food"" - when land costs money, taxes on land cost money, and it's already too late for that)?",fkji8x2,Sweaty_Contribution,3a5mml9n
Do you think that means something to me?,smilodoner,l0cqx,fkhqchs,Back in line grunt!,fkgbqw5,mighthavecoronadude,5vegvt7c
Then why are you posting here?,smilodoner,l0cqx,fkfrtnz,I’m not employed by the National Guard. Lmao. Follow your orders grunt.,fkf42zl,mighthavecoronadude,5vegvt7c
"Peasants had a claim to their land and their lord had an obligation to protect them.

We're serfs.",smilodoner,l0cqx,fkdgzaq,"Do you think the rich people in charge give a shit?  Figure it out, peasants.",fkc6l0z,rodental,12863a
Zimbabwe dollars. Hyper inflated currency.,smilodoner,l0cqx,fkdgbvi,Zim?,fkd82og,GrossAbuse,nc15q3
Ok dude. You're clearly not emotionally invested in this.,smilodoner,l0cqx,fkcxqfc,You made the claim that you had seen photos on the contrary to what everyone else has seen.. I’ve never seen any photos that you describe and I’ve looked into this a lot. The burden of proof was definitely on you and you didn’t deliver. Did you leave that comment hoping that someone would fall for your shit?,fkcxgf5,Epstein-isnt-dead,4zoyyevo
"There were more frequent panics, where money was tight and banks stopped lending.",smilodoner,l0cqx,fkctbj7,"He has no idea what he’s taking about, probably read some bs economists article. 

Under the gold standard big dips like this were less common becuase the market grew more slow & steady.",fkcqaaw,slapstellas,im6ucir
"The worlds investors pumped money into tesla, a company that has posted a profit once and in virgin galactic, which never has. There is no wisdom in the investor class.",smilodoner,l0cqx,fkcs0ud,"You're right the elderly are at the highest risk. But a close second are children.  Do you know how they are treating children with this virus? They have to put them in an induced coma and put them on a ventilator because it is the only way they can breathe effectively until the virus dies off. 

Also saying it is the not as deadly as the flu is exactly what Trump said. But the world's investors knew that was bullshit because they are all pulling out of the markets and running for cover. They know exactly how deadly this disease is. 

[https://www.sciencealert.com/the-new-coronavirus-isn-t-like-the-flu-but-they-have-one-big-thing-in-common](https://www.sciencealert.com/the-new-coronavirus-isn-t-like-the-flu-but-they-have-one-big-thing-in-common)",fkby0xy,gettotallygayaboutit,qsot9
Why are you here?,smilodoner,l0cqx,fkcrtpi,I KNOW!!  These PARASITIC #DONOTHINGDEMS will stop at NOTHING because they HATE FREEDOM!!!  (And babies!).  I don’t even know why we call the HUMAN when they are really just COMMUNIST LIBTARDS pushing a SOCIALIAST AGENDA!!!  I acshully know a guy that knows a LIBTARD DEM and he said that they SACRIFICE BABIES to George SOROS!!   Human SCUM these “people” are!!   I wish they would all just get the #OBAMAvirus and get a bad case of the SNIFFLES for ever!!!!   #DemsareSCUM  #VIRUShoax #TURMPTRAIN2020🇱🇷🇱🇷,fkbps4z,animalfath3r,x1cq3
"Like I said, there are more exhaustive photos out there. They're out there for those so inclined to find them.",smilodoner,l0cqx,fkcqpil,"Not a single face shot, just a random back of the head and a hairy arm.. pff definitely him",fkcmuip,darcvox,pvhvc
"There's a better set of photos out there, I don't have the time or inclination to find them.

https://www.cbsnews.com/news/jeffrey-epstein-autopsy-a-closer-look-60-minutes-2020-01-05/",smilodoner,l0cqx,fkc5xvq,Can you show us these? Thanks in advance!,fkc3axv,crossburner,cbjsv
Pepperidge farm also remembers the autopsy photos. That clearly showed Epstein.,smilodoner,l0cqx,fkbukb2,"Remember the pic of ""epstein"" on the gurney that wasnt epstein? Different nose, different ears. And then when everybody caught it they edited the pic to not show the face?

Pepperidge farm remembers.",fkbeyoh,pointsouturhypocrisy,4jaf8oac
"Now would indeed be a good time, if you think we've hit bottom. A dead cat will bounce, though.",smilodoner,l0cqx,fkbj8br,"I'm a layperson. But what if I moved 100% of my TSP to the G fund 6 months ago. Could I, feasibly, move it back to more risky funds while its low to produce a maximum gain?",fkbbyd8,DeCoder68W,n8hid
It isn't IQ 100 people buying tp.,smilodoner,l0cqx,fkbibyd,They become criminals. People with IQ 100 buy TP in anticipation of stores closing. People with IQ 80 wait until the stores close then loot TP.,fka7f1f,turpin23,wp83p
You responded to me where I responded to a guy who said his girlfriend smoked dope whilst pregnant.,smilodoner,l0cqx,fk9j433,"Okay, what does that have to do with the father smoking it? We aren't talking about children being prescribed pot.",fk8pe56,iunnox,3rlf9
"If you're a skinny nerd, there are many like you. Obese not so much. DoD is going to the cloud, you could get some great experience.",smilodoner,l0cqx,fk9izg8,"I do not.  I have one important certificate and close to a couple additional certifications.  I was hoping for entry level as an IT analyst or as a cloud security engineer.  

But I am not built for serving in a traditional sense, physically or otherwise.",fk8rqi0,samissleman17,68n4o
"Because there haven't been the kind of studies needed on long term outcomes. As well, there's an entire profession of doctors dedicated to pushing those pharmaceuticals. They will tell women to go off of them while pregnant. Just like they tell them to stop drinking, stop smoking and to limit caffeine.

Smoking dope lowers IQ in teenagers. That has been scientifically proven. The younger the developing brain, the worse the reduction.",smilodoner,l0cqx,fk8o81o,"So why would no doctor on Earth suggest smoking herb for nausea, yet plenty would prescribe children amphetamines and ritalin?

Cannabis is quite benign, especially compared to practically any pharmaceutical.",fk8nmyy,iunnox,3rlf9
That isn't very specific. The Republican governor was not popular.,smilodoner,l0cqx,fk8m0po,https://www.youtube.com/watch?v=pCSAHEOY75E,fk8le6b,OrganicELiquids,q9q4q
He listed nations that might have been controlling Epstein on Twitter. He left Israel off the list.,smilodoner,l0cqx,fk8ccbp,"Haha, I was thinking the same thing. He seems too cautious with his theory because, in his own words, he's afraid it might lead back to Israel (which he loves, apparently).

I don't buy his idea that the pedophilia was just a little ""oopsie"" confined to Epstein himself. If you're going to compromise people with blackmail, wouldn't you do it with underage people? Of course it was part of the plan all along.",fk7d3tj,JstnPwll,gb8i0
"What, specifically, did we see in Kentucky?",smilodoner,l0cqx,fk8ap9f,"There's always a way.

I believe that, on top of the pandemic causing the economy to tank, there will be widespread election fraud in key states. I believe we just saw a preview of this in KY, VA and LA this past November.

Every angle has been war-gamed by the globalists. Nothing will be left to chance ever again. Trump will lose in 2020.",fk870fa,OrganicELiquids,q9q4q
"It's a huge biggie. Developing brains, in the womb or into adolescence should be protected. Same with anti-depressants.",smilodoner,l0cqx,fk89hoq,"But giving kids amphetamines is no biggie, right?",fk88g8y,iunnox,3rlf9
"No doctor on earth will suggest ""smoking herb"" to deal with nausea.",smilodoner,l0cqx,fk7h3fd,"Ive dealt with cps, due to my gf smoking pot for nausea during her pregnancy. Our caseworker was really nice, and seemed to genuinely want to make sure the baby was in a good environment, which she was, but the lady from dhr at the hospital was a real cunt, treating us like we were human trash and making us think our kid would be taken away and the mom charged with child abuse. 

So i have a mixed experience.  I dont even know the difference between the agencies. I might have it backwards. I do know that my gf only gained 20 pounds during the pregnancy because she was puking all day every day the whole time. Smoking herb was the only thing that somewhat helped. I would rather our unborn child be exposed to pot than mom not getting enough to eat and have an underweight or premie newborn",fk74vnh,Turpekus,1wbrende
"Could they bring in old mods, with these rules?",smilodoner,l0cqx,fk7gade,"As a person who was here from the beginning, helped post like crazy to this sub to help build it up, eventually modded for it and was shadowbanned by Reddit because my posts were constantly reaching the front page of Reddit, I will say this......

I am so disappointed in this direction. When half the mods were sacked, you guys should of went right away with contacting old temp and perma mods and seeing if they could help.

Myself, I didn't have the time to say mod a thousand posts a day, no way, but we could of helped. There were many former mods who were here at the beginning that would of helped out of respect for what this place did for Trump.

Shutting this place down should have never been an option.

I've had my disagreements in the past with a few of the older mods when I was a mod and thats why I haven't been around, but it should have NEVER come down to shutting this place down since this place is one of the MAIN reasons Trump got elected in the first place.

Where have all of the idea people that this place had a couple years ago gone to?

&#x200B;

Edit: I haven't been questioned, but if you want to question anything I've said about helping build this place, check out my post history.",fk5hcjt,stfuusjw,s56sj
Yeah it's accredited now.,smilodoner,l0cqx,fk5qrrj,Is it accredited now? Liberty wasn't an accredited school from what I remember.,fk5o0gf,umwhatshisname,oy5tx
Don't know anything about their law school.,smilodoner,l0cqx,fk4zple,With an unranked law school.,fk4zlel,Rabid_Mongoose,bx6ic
"Fuck, I was talking about the older versions. I'll delete my posts. Don't want to spread misinformation. My apologies.",smilodoner,l0cqx,fk4y5p0,"> Predictable threats, room to flee.

No longer predictable in new Tomb -- profusion of traps can totally screw you.",fk4wafw,mdw,1vnq
That explains it,smilodoner,l0cqx,fk4ui8p,"My bad grammar officer, I was just excited to get my point across! 😜 I also never got higher than a C in an English class😂",fk4ueq6,KAYLA1199,5byl3nrv
"Late game is hard as trog in general. He has 9 blink scrolls if I recall correctly. Not enough in a ""fuck you tomb, I've got this"" sense though.",smilodoner,l0cqx,fk4kmqu,"You can kite on 1st level of tomb, after that not really.  Lots of blink scrolls just to get to upstairs.  He'd be immune to torment in undead form, but also less health and still susceptible to smite + dispel undead.  Unless you have like 10 blink scrolls, a lot of lig, and very high skill training tomb is awful as a trog worshipper.  Arguably the worst god there, though you could make a case for Xom as usual.",fk4jpbl,TheMelnTeam,of53u
This is true. Everything is political now. People still moan about Bush responding to Katrina; they don't moan about the sheer negligence displayed by those actually responsible.,smilodoner,l0cqx,fk4c4p5,"See this one kills me because I legitimately see it as him doing the right thing. Once the CDC is on the case and has their funding the president SHOULD be trying to reassure people and calm them down. There's literally no other relevant action he could take unless he wants to stoke panic.

But of course any position Trump takes the left/media will immediately assume the polar opposite because there's no penalty for them being wrong and if they're right they get to pretend Trump invented Coronavirus.",fk4b73l,fdagasfd,j7di3i5
"Cool stuff, thank you. I've only seen powerpc in server hardware, been a long time since I've seen it on a PC.",smilodoner,l0cqx,fk46wch,"Basically, there is literally only one open hardware desktop motherboard: The [Talos II](https://www.raptorcs.com/TALOSII/), which is made in the USA. Both that and the IBM POWER9 CPUs are really, really expensive at $3,226.04 for the highest-end motherboard in a duel-CPU bundle. I have been wanting such a system since before the original Talos crowdfunding campaign launched, and plan on getting one someday, perhaps when I make a decent amount of money.",fk45w7d,happysmash27,qp8d2
"I have two fractal design cases. Built very well. My kids managed to damage a usb port and the power button housing, which are plastic. But that's because they're kids, no fault of the case. I have the full metal cases, which cost more. 

Not sure if they have e atx. Fancy glass and all that hasn't been bifl in my experience.

Can you go into more detail about American made components?",smilodoner,l0cqx,fk441x6,"Anything that would be reasonable to save up for, since as I mentioned before, the only case-requiring upgrade I am currently interested in is way over my current budget anyway, at thousands of dollars (since the components are made in the USA and true computer freedom/security is sadly very niche). My current computer, built in 2016 with some high-end used components from 2009, is still amazing and will last for ages, so I am mostly being speculative about what to save up for to upgrade to in the future that could hopefully be a start to an ultimate open source motherboard and CPU computer that is better than my current one.",fk42g5d,happysmash27,qp8d2
Better to make all of your colleagues sick in this hypothetical situation then. Self quarantine isn't a whim.,smilodoner,l0cqx,fk3z9pl,Good for you... doesn't mean good jobs are plentiful enough that you can just give one up on a whim and spend thousands of dollars to relocate....if you get another one. Sorry. I've put many many hours of blood sweat and tears into my career to just flush it for nothing.,fk3z5c1,whatwhatchickenhiney,2uo97gjv
I live in the greatest economy in recent memory.,smilodoner,l0cqx,fk3vhxo,"I dont know what world you live in where jobs with a living wage are so plentiful. I'm highly skilled but work in a very unforgiving environment. Most likely, to find a new job, I would have to move. Seems like a lot to do on the off chance I get sick.",fk3v3ss,whatwhatchickenhiney,2uo97gjv
"If you're unskilled and earned your current position by means other than merit, sure.",smilodoner,l0cqx,fk3uqfh,Thing is....I'm most likely not going to die. I have a good job. Those are pretty hard to come by.,fk246pj,whatwhatchickenhiney,2uo97gjv
"If someone wants to seek therapy for being gay, they should be allowed to.

You sound like a 12 year old.",smilodoner,l0cqx,fk3unoa,"Free people can seek whatever therapy they want. That's not the issue. Being gay isnt a mental disorder. The bible is a nonsensical Harry Potter novel written hundreds of years ago by people who didnt understand simple things like germs and gravity. That's why its filled with giants, people that lived 800 years and magic gardens filled with talking snakes and special apples that make brothers and sisters bang. So yeah..... if you're gay you're just gay. Nothing is wrong with that and you should be able to live a happy life. You should be able to adopt kids, get married, buy a home, etc.",fk25w57,rhyno44,10qo64
You're willing to die for a job?,smilodoner,l0cqx,fk232nz,"I totally agree! Now they're asking anyone who visited that DC church whose priest tested positive to self- quarantine for 2 WEEKS! Um no, I'm not going to loose my job because I MIGHT get sick. Sorry, you'll have to kill me before I'll be doing that.",fk1nqdg,whatwhatchickenhiney,2uo97gjv
EOD.,smilodoner,l0cqx,fk22rr7,"Ok well since everyone is telling me the exact same thing, which is not to do this particular MOS and doing inventoey doesnt sound fun at all, im going to do a bit of research and try to pick something else.
Thank ya'll very much for ya'll's input.",fk1vjse,olzeH-1,4df4ckt1
I believe free people should be allowed to seek therapy.,smilodoner,l0cqx,fk1jb5z,Do you believe that the power of jesus can eliminate the sickness of homosexuality?,fk1j763,rhyno44,10qo64
Your state government.,smilodoner,l0cqx,fk1h0sn,"> marriage license

that always rustles my jimmies.  who the fuck are they to require me to get a damn license to marry my sweetheart?",fk1gwdj,Anonymous18650,2nkhw450
They aren't stealing anything. They're enforcing preferred outcomes. A marriage license is a completely secular affair.,smilodoner,l0cqx,fk1g6mu,Government can't just steal the concept of marriage from religion. It's completely ridiculous.,fk1fyt1,48LawsOfFlour,n4lyq
I don't like the glorification of deviant lifestyles.,smilodoner,l0cqx,fk1e4up,"Trump himself likes gays, I like gays, everyone commenting likes gays. 

First of all don’t generalize a whole group of people. 

Second of all, of the 25 different generalizations you can make about trump supporters, hating gay people (trump is the first presidential candidate to run on his support for gays) is definitely not the right generalization.",fk1aa34,robbieliddell,50yrww4x
"He ""believes"" in conversion therapy for those who want to do it.",smilodoner,l0cqx,fk1e29j,Go look how the Trumplicans treated mayor Pete for being gay and you'll understand real quickly why most LGBTQ people dont support the republican party. I mean the VP himself believes in gay conversion therapy and praying the gay away.,fk1bstm,rhyno44,10qo64
No it isn't.,smilodoner,l0cqx,fk1dtsm,It's a blatant violation of the separation of church and state.,fk153bn,48LawsOfFlour,n4lyq
Any links that discuss him being Jewish?,smilodoner,l0cqx,fk19iac,"[https://en.wikipedia.org/wiki/Barry\_Mills\_(Aryan\_Brotherhood)](https://en.wikipedia.org/wiki/Barry_Mills_(Aryan_Brotherhood))

 [https://en.wikipedia.org/wiki/Tyler\_Bingham](https://en.wikipedia.org/wiki/Tyler_Bingham)",fk1748u,yoyoyoyooyfofofof,4cx531rd
Who would this be?,smilodoner,l0cqx,fk0flhs,I think the aryan brotherhood prison gang was started by them just like the crips and the bloods. the leader was supposedly jewish...and got taken to supermax prison. yeah right...hes in israel right now.,fk094c0,yoyoyoyooyfofofof,4cx531rd
"You're right, it doesn't.",smilodoner,l0cqx,fk096jp,European =/= local,fk090n4,skp_005,x1ltr
The message she's behind is the one that brings her fame and influence. I cannot imagine that any person with a brain wouldn't compare directors. Going from Tarantino to Yan has to have caused some comparisons.,smilodoner,l0cqx,fk07sln,Pretty sure Margot was fully behind the message here,fk068mz,Mister_McDerp,kd4f7
"Plenty of normal, non-AP players will find much to like here.",smilodoner,l0cqx,fjzo94m,"Okay.  It's time for one of my walls of text, because this is a significant development in Dave & Buster's history.  This will be the first time that D&B has ever had a way to play ticket games on a time card (Main Event has done this in the past, with similar restrictions.)

Those of you that are on D&B's email list will have known this was a possibility a few months prior, as they had pitched this as a possible idea in one of the survey emails.  The price point suggested in that survey stuck ($20) but not all the details (it's not only on Thursday apparently, it's only 2 hours, and the survey suggested someone that buys this card would be given 1,000 tickets but I don't believe that's part of the final release of this promotion.)

Now that it's gone live, I can discuss several particulars about how this all works, and we can also gather information on things we're not yet sure of.

As most of you know from other threads, ANY GAME that dispensed a physical prize - claw machines and/or card collecting games - has now been reclassified to purple swipe.  Purple swipe games mean no unlimited cards will work in them, real chips must be used.  This eliminates the ability for a new unlimited card to generate tickets in this manner.

As others have seen with cost changes, ANY game that gave more than one attempt to play per swipe has been changed to be 1 attempt.  Monster Drop will now only give one ball per swipe, Frogger now only gives one frog per swipe (though the values on the consolation prizes seem to have gone up), Galactix now gives 1 missile instead of 5.  However, the reduction in cost does not scale downward to be equal to the reduction in play.  (for example, Monster Drop should have gone from 6.8 to 2.3 or so in going from 3 balls per play to 1.)  It didn't drop anywhere near that much.  I'm hoping that gets tweaked in the future, or at the very least the jackpot/general payout values increase to make the new cost proportionate to the old one all other things considered.

This change, albeit probably a short-term fix on the cost adjustment, was absolutely necessary given the adjustment made to EMBED.  It works EXACTLY like Intercard's ""unlimited but no payout"" function works.  If you swipe your card on a game, that game will not allow ANY swipe - whether yours or anyone else's - until it sees a ticket payout (and zeroes out that payout.)  So if you were to swipe a game of 2-Minute Drill, you cannot swipe again until you complete the game regardless of what you score.

We DO NOT yet know if there's a 60 second delay, as almightytora said.  That's a safe guess however.  I will confirm when I test this out this week.  (Intercard's delay was much shorter, actually, but timed you out if you did 3 consecutive swipes on the same game, making you put a swipe in something else.)

I know I'm going to get the same questions over and over and over on a couple of particular issues, and there's no point in trying to beat around the bush on this one, so let's just tackle this now.

Yes, the games will react just as they would on a win, or loss, on an unlimited card as they would on a real card.  So if you play Down the Clown when the score to win is 500, and lose, the score to win will now be 499.  If you play Down the Clown with a score to win of 500 on an unlimited card and win, even though you get nothing for that win, the score will go to 550.  So...obviously you would never, ever, ever want to win a jackpot on an unlimited card swipe.

On the same topic, I'm going to tackle the first thing most of us thought upon hearing this card was a thing.  Yes, the idea of using an unlimited card to force a game with a fixed payout structure to approach payout closer works.  More important, NO, it is NOT cost effective use of your time.  I'm going to give some real world examples here to show why if you think you're buying one of these $20 cards and trying to grind real tickets with it, it's not going to be a smart thing to do.

""Can't I just use this card on Zombie Snatcher to make it so I only sink the 500 pucks and the jackpot?""

Well yes, but it'd take forever.  In order to do one full round of Zombie, you'd be sinking six 500s and one letter, which would be a minimum of around 900 tickets (the 300 for the letter itself and the value of the bonus which starts at 500 and goes up by 2 per swipe.)  This also means you would need to sink 29 pucks on the unlimited card to avoid playing at a loss.  It's not a guarantee that you sink a puck every swipe, even if you're aiming at stuff on the edge, and the 500 you play with the real puck is also going to take a setup swipe at the bare minimum.  But let's say everything goes ABSOLUTELY perfectly.  You sink a low value puck with every swipe on the unlimited, with a 1 minute delay on each swipe.  You use one swipe to ready the 500s each time, and get the letter close to the edge to finish out ZOMBIE - this adds an additional 7 swipes.  So you spent 36 minutes with the unlimited card and 47.6 chips to get 3,900 tickets.  Adding in the time for the real swipes you're looking at something closer to 40 real minutes.  You made an effective $11.70 spending $4.76 and you burned through a third of the time you have the unlimited card, and a third of $20 is $6.66.  You spent $11.42 to make $11.70.  A whopping 28 cents. And that's if everything went perfect.

""Can't I use this card and intentionally lose on Kung-Fu Panda to force it to be ready to pay out again?  That's a 1,000 jackpot and that's pretty good!""

It's a solid jackpot, yes, but we're still in the same time/cost problem, although not nearly as dire.  The average number of games between wins for that game SEEMS like it's around 10.  Let's say 10 wins triggers one rolldown, although I'm not entirely sure that's accurate.  It's going to take a minimum of 10 minutes because of the swipe delay, plus the time of the real game, which probably takes closer to 2 minutes.  12 minutes to generate a 1,000 ticket payout, so you'd get five of those in an hour.  So you spent 49.5 real chips ($4.95) to get 5,000 tickets ($15 effective) but also spent half of the time on your unlimited card, which sets you back $10.  You made virtually nothing here.

Even a game with a theoretical much faster rolldown, if one existed, runs into the issue of having to go through the intro, minimal play, waiting for the ticket payout, and going back to the real card when ready.  Without getting into game specifics, there's absolutely nothing I could think of that would work using the unlimited card, at $20/2 hours, that makes sense compared to other available AP.

On top of that, there are also some known issues:

*Tailgate Toss - if a player playing an unlimited card tilts the game.  A tilt issues no payout whatsoever, but the swiper will still be expecting one.  It will lock the game out of anything until that payout comes but it never does.  This can be fixed by a tech/manager but it's probably going to happen often.

*The bigger issue, I think, is going to come from someone having this card and winning when they shouldn't to the detriment of people playing with real cards.  I don't know how often someone would pay $20 just to be a dick to someone else, but it'd be a side effect of someone who actually wants a $20 card and doesn't realize the impact that might have.

Now if there's some kind of promotion where there's unlimited card time tacked on for free along with some other load you'd be making anyway, there might be a way to get some nominal value out of it, but as it is you're really just looking at this as a way to practice games for someone who needs that practice, or running a competition among your friends or co-workers on a competitive game that also wouldn't have been possible before because it was a ticket game.

Do with this information what you will, but those who were expecting this to be a way to open up a huge door to something, it's not going to be.  I had hopes of this too but I don't see it.",fjz11em,MewtwoStruckBack,3k9wm
"He's a globalist, chamber of commerce shill.",smilodoner,l0cqx,fjznxwt,I like this guy. I am rooting for our future Pirate Presidential candidate.,fjz5ob2,LurkerNan,ctuhn
Do you think we like social security? You say it like it's a positive.,smilodoner,l0cqx,fjznvot,"Not really. What people want is help. They need help. They’re not dumb, they just need help. Socialism isn’t bad, it’s usually a part of government in forms such as Social Security.",fjz9gnj,tangerinedog,5mh6ieuz
Conservatives? Or business friendly politicians?,smilodoner,l0cqx,fjznfkr,Okay but like conservatives are known for tearing down protected buildings for businesses and personal interests but that’s none of my business....,fjzbjif,Icancountmath,dene1du
Do you think that makes you special?,smilodoner,l0cqx,fjzndwg,I revere myself and reject everything that gets in my way.,fjy4n6x,Shademaster21,m4v8k
"Those generic European buildings are just that, generic European buildings. The emphasis here being European.",smilodoner,l0cqx,fjznb1g,Thanks for explaining why the glass buildings in the lower row are not global then either.,fjywd23,skp_005,x1ltr
"You can't have a job in a traditional building? Also, wage slavery might be needed for many, but that doesn't mean we worship at its sanitized edifice.",smilodoner,l0cqx,fjzn70p,Ok so I should hate corporate businesses then? Places that provide jobs? This is stupid to me.,fjyqhv2,ducksauce88,iu67l
"Agreed, the photos are essentially basic bitch European architecture.",smilodoner,l0cqx,fjzmrel,"You could have picked better representations for the local photos. While I agree the traditional styles look better, in this post, you could make a better point with true local architecture instead of generic traditional architecture.",fjy6usl,tommytheguns,zamfc39
"Evidence. Integrity. If what you say is true, then they're fucking up elsewhere.",smilodoner,l0cqx,fjzmhe7,How do you sharp complaint without witnesses? I will seem insane calling 4 people who can all agree with each other and say something ludicrous.,fjzmbhk,monkeykiller14,do5yk
Very true. The gamer magazines would constantly make fun of Nintendo.,smilodoner,l0cqx,fjwt33o,"The thing is, that censorship was defeated by having the press in the corner of the consumers. These same publications that mocked and insulted gamers had their backs when it came to ensuring that games could be published uncensored. That’s a key difference.

> Gamers themselves rarely had their lives ruined because they had the wrong opinion on video games

Sadly not unique to video games, or even entertainment in general.",fjw9r8m,lyra833,7r4ok
Nintendo having stuff they wouldn't publish is not the industry being censored writ large.,smilodoner,l0cqx,fjwt18n,">Your stuff wasn’t attacked and censored.  It was solely controlled by people who contributed to it, or at least liked the community.

From Nintendo of America's own guidelines, published in 1994:

    Although exceptions may be made to preserve the content of a game, Nintendo will not approve games for the NES, Game Boy or Super NES systems (i.e., audio-visual work, packaging, and instruction manuals) which:
    
    • include sexually suggestive or explicit content including rape and/or nudity;
    • contain language or depiction which specifically denigrates members of either sex;
    • depict random, gratuitous, and/or excessive violence;
    • depict graphic illustration of death;
    • depict domestic violence and/or abuse;
    • depict excessive force in a sports game beyond what is inherent in actual contact sports;
    • reflect ethnic, religious, nationalistic, or sexual stereotypes of language; this includes symbols that are related to any type of racial, religious, nationalistic, or ethnic group, such as crosses, pentagrams, God, Gods (Roman mythological gods are acceptable), Satan, hell, Buddha;
    • use profanity or obscenity in any form or incorporate language or gestures that could be offensive by prevailing public standards and tastes;
    • incorporate or encourage the use of illegal drugs, smoking materials, and/or alcohol (Nintendo does not allow a beer or cigarette ad to be placed on an arena, stadium or playing field wall, or fence in a sports game);
    • include subliminal political messages or overt political statements

Why would anyone try to censor video games?  They came pre-censored for them.  Oh, except for Genesis games, which prompted a goddamn countrywide panic with people pearl clutching before congress because little Timmy played Mortal Kombat and now he wants to tear out his sister's spine.  If you'd like to learn more, look up the name Jack Thompson.  He was at it for *years*.

I'll give you the shunning thing, though.  Gamers themselves rarely had their lives ruined because they had the wrong opinion on video games, whereas today if you want to keep your livelihood you'd better not say anything except ""those billion dollar corporations are so brave for putting a strong woman in their game"".

edit: wow, a code block was not the right format to quote that guideline in a readable format.  Oh well.",fjw82xh,Damderia,4fdue7s4
It was a member of the group making fun of the group. That's different.,smilodoner,l0cqx,fjwsmrg,"Gaming magazines used to make ""gamer stereotypes"" jokes for years that would have been interpreted now as ""anti-gamer"". One time EGM had a pretty funny illustrated layout about the various types of gamers (NEET neckbeard, stoner wigger, scrawny spaz, etc) that probably would have driven most of you into a blinding fury if you saw today. Seanbaby built his entire brand out of targeting gamers... gamers.",fjvk1ay,DannyAckbar,5nkga3ej
It uses so much electricity!,smilodoner,l0cqx,fjwrbar,Looks like you got some good value out of it!  Waiting for the first comment saying that a microwave this old is unsafe...,fjvq0wz,Str8UpHonkey,1pewas8s
He went to the soviet union. For his honeymoon. That is not akin to traveling to Florida.,smilodoner,l0cqx,fjwpjxh,"And Trump goes down to Florida every other weekend and we pay for it. So Bernie took a vacation in Russia one time, deal with it. Maybe the place has some nice sights to see, you ever think of that?

Trump said that he trusts Putin more than the CIA and FBI, so there’s that.",fjwpe2r,MemeLordGustav,3uf7xiy9
"Totally not a communist, just decides to vacation there. Went to a communist kibbutz. Totally normal.",smilodoner,l0cqx,fjwozhy,"[I think you’re going to be late for the circus, better hurry up! ](https://nymag.com/intelligencer/2020/03/bernie-sanders-is-not-a-communist-socialist.html?utm_source=share&utm_medium=ios_app&utm_name=iossmf)",fjt9e8e,MemeLordGustav,3uf7xiy9
Unpaid amateurs should be on par with a professional staff that has had years of development backed by corporate money!,smilodoner,l0cqx,fjvzr3a,"It's not the content that makes that site suck so much, it is its amateurish design and lack of features. It lacks even basic features that make it feel rather plain.

Features like:

* Total/active user count  
* Ability to set number of posts per page  
* Additional Reddit like preferences  

I am also still using a really old version of Firefox and the comment section does not render comments correctly unless I block the CSS which makes the site ugly as hell.

Site problems include:

* [Comments not rendering correctly](https://i.imgur.com/klnrQrn.png)  
* Hot/New/Rising/Top not showing up at all in this old version of Firefox  
* Top feature not working/displaying any post other than ""Top/Last Hour"" in any browser.

When I did try using the .win site for the first time. I spent a lot of time typing out a long reply to someones comment and when I tried to submit it, I was taken to an error page that said something about having to complete a captcha.

WHAT FUCKING CAPTCHA!?!?!?

So apparently, new users have to verify they are Human to post and must have javascript enabled to see this captcha.

This issue could have been better dealt with if:  

* They told you about the captchas and that you need to have JS enabled to see them and verify your account when you created it.  
* Allowed you to verify your email as a way of verifying you are human like Reddit does.  
* They could have displayed error codes under the text input box like Reddit does rather than using a popup element or taking you to a different page if you had JS disabled.

So my comment was gone and I felt defeated and unwilling to try to retype my comment from memory.

It is because of all this bullshit that I will never use the .win site. They had months or even years to work this shit out. Fuck them.",fjvm5kt,TurdCrapily,p45yn
We already are corralled. And they're pushing our herd over a cliff.,smilodoner,l0cqx,fjvzf8k,"Everything you said EXCEPT running away like little caravan cucks. 

Remember that time when President Trump was met with resistance and tucked his tail between his legs and ran away like a little bitch?

NO! You don't! Because it never happened! 

Emulate the man you claim to support!!!

I won't be corralled into your dead end ravine!",fjt9qsy,diecastjohnson,6yudb
You say nobody cares but you share you're a fellow meat head.,smilodoner,l0cqx,fjvs1fc,"As a bodybuilder myself, I so wish he'd quit trying to flex with every post. Muscles don't make you special, nobody cares. Just post the headline/article that everyone is actually here for.",fjumfsb,IronWide,18m64em
"Who, New Yorkers?",smilodoner,l0cqx,fjpdztu,"Yes, Hillaire Belloc had a lot of interesting things to say about Schumer's people.",fjommio,ImYourWenis,km51k
"Why, thank you for the illuminating answer.",smilodoner,l0cqx,fjnvo5j,Then leave.,fjmlo04,Derectous,g08glt3
I have. Stuff way more complicated than .win . If I told my customers nothing about cause I'd get fired.,smilodoner,l0cqx,fjmgg4g,You ever manage a server or complex tech ecosystem that goes sideways?,fjkyjl7,subnu,vcfv8
"Based on his income, like everyone else.",smilodoner,l0cqx,fjm9prn,How is he getting 3000 a month from social security?,fjm84y0,123jrj123,5pj2m235
Trump has a weakness for sweet talking businessmen.,smilodoner,l0cqx,fjm8r5r,GEOTUS says otherwise about Paul Singer FYI. He came around and visited him at the White House. Are you guys unaware of this?,fjm5p85,6-_-j,cbprc
He's still cancer. He's a vulture capitalist.,smilodoner,l0cqx,fjm8p2v,Paul Singer was opposed to Trump at first but has since come around because of his policies and the fact that socialism is making a comeback,fjm8biw,RhombusMaximus,xdji9
"Guard isn't a safe haven from deployments/rotations. Plenty of people freezing their dick off in Poland right now who thought they'd be doing one weekend a month.

Just like on active, your unit and their mission will determine what the tempo is. Active duty, in garrison, can see you having a lot of free time. I had more time with first kid, active duty, than I did with my second when I got out.",smilodoner,l0cqx,fjj2p5y,10 month old daughter and another little one on the way due in October! Really not wanting to miss out on anything with them if I’m being honest.,fjj2a3g,caseydrums25,14yl1t
They can be the change they want at home.,smilodoner,l0cqx,fjj20u3,Look like people desperate to find a better life to me but k,fjigaow,Usurpist,13ala9
So you want new stuff. Plenty of posts about new things.,smilodoner,l0cqx,fjaa41p,"The products that aren’t part of the planned obsolescence rat race are what I’m here for, I don’t particularly care about brands that were good a few decades ago.",fj8zi35,CarolineTurpentine,5w97v
"Well, basically the entire senate, but yeah.",smilodoner,l0cqx,fj8xxw3,Should’ve added a Ted Cruz holding an Israel flag,fj8o6bd,69LebronLover69,4n782ml
Nothing wrong with that.,smilodoner,l0cqx,fj8xwla,Meanwhile Trump and the GOP are holding a confederate flag,fj8cn8c,-HappyToHelp,1353uk
What you describe is exactly how Paul Singer operates.,smilodoner,l0cqx,fj8xel6,"I'm suspicious of rich people who throw around money to get what they want done. I don't really know the guy. What if he's fine with censorship, so long as it's against people he disagrees with?

More importantly, I don't think changing CEOs is going to fix anything. The problem in my opinion is that Twitter (and social media companies in general) have gotten too big. I see two solutions:

1. Treat Twitter, Facebook, ect., as public utilities and legislate they can't ban people for arbitrary reasons.
2. Break them up and allow competitors to rise. Social Media companies will be less likely to ban someone if they think they'll go to a competitor.",fj8v6vh,IronPhil,l0doa
Paul Singer is a man whose motives deserve to be questioned at every turn.,smilodoner,l0cqx,fj8xavd,He does that to stores; he’s pouring money into Twitter to control it.,fj8s91s,lyra833,7r4ok
Unavailable if you get in the planned obsolescence rat race. There are as many opinions of what BIFL means as there are people.,smilodoner,l0cqx,fj8x0qa,"It’s buy it for life, not bought it for life. Way too many items featured are inferior in their current state or unavailable these days.",fj8wqnn,CarolineTurpentine,5w97v
"Sure it does. Someone bought it for life, didn't they?",smilodoner,l0cqx,fj8svgy,Yeah but if you can’t buy an item it doesn’t really belong on a subreddit about buying stuff.,fj6cyp2,CarolineTurpentine,5w97v
You can like aspects old cars and still appreciate new cars. I like bench seats. I like a full sized sedan that can fit 6. Impossible today.,smilodoner,l0cqx,fj8ssmj,"I am 63, and have friends my age who go about how they don't make cars they way they used to.  Well thank goodness.  If a 1960s car lasted 100K, you would celebrate.  Modern cars, even relatively inexpensive ones, go 250K or more with proper maintenance.  Cars today are safer, more efficient (and sometimes more powerful), and include all the electronics that once stayed home.  Yes, the added complexity brings more opportunities for things to go wrong, but we like having this stuff in the car.  As for the longevity, any product that spends most of its life outdoors and a good part of that time being deluged in salt solutions while bouncing off of curbs and potholes is going to wear out.  So modern cars may not qualify as Buy It For Life - but they last much longer than those of a generation ago.",fj6ltil,zinsser,a0adwl1
"You bought a front loader, that's your problem there. Physics are a hell of a thing.",smilodoner,l0cqx,fj8sjes,"How would we know?

This past month, I replaced a 10yo washing machine (Whirlpool) that decided to start leaking massive amounts of water from the front-loading door. Now my 3yo Kenmore microwave only turns on when you bang on it. Probably a thermal fuse or door sensor, but who knows? I'll probably give up repairing it within the next week and replace it too. Regardless, neither of these (or their replacements) are gonna be in my Will and Testament.

The only way to know if something will stand the test of time... is time.",fj5onr6,richardtallent,a35bn
Benefit of things from grandparents closet is that they can often be had for a song.,smilodoner,l0cqx,fj8sfo3,"That is great, and I do the same BUT along with consuming less, and buying things second hand we should make sure that when we *do* buy have to buy new, those things are manufactured without planned obsolescence to the highest possible standard. 

Also that the things we buy are *repairable* if necessary. A cast iron pan is a hunk of metal that will likely never break down, but a bicycle or a washing machine, or even a pair of shoes is going to need to be repaired eventually.   

Ideally, I'd like to see less dusty old stuff from Grandparents Closet, and about how to maintain things so they'll last a lifetime.",fj77t02,Moonlit_Mushroom,216yk4hi
"I don't know how this has so few up votes. It's all truth. Pick an item from a home 50 years ago at random and odds are it was more durable than its equivalent today and it's chances of being made domestically or in a first world nation with quality control are magnitudes higher.

Are tractor attachments universal? What do you think of subcompact tractors? I'm looking at one of the new bobcats; chiefly due to their skid steer reputation. Is New Holland well regarded? That's my nearest tractor dealer.",smilodoner,l0cqx,fj8sbt3,"I am reading this and thinking about my 1970 Massey Ferguson tractor that is a simple diesel engine, still running and used on our farm for everything. I work on it when things break because it is so simple. My neighbor bought a brand new tractor (John D.) and it is all plastics and software and it broke down in the middle of the harvest last summer. They had to tow it to the shop (thank God she had an older tractor sitting in the barn - most farmers do) and 3 days later they called her to tell her it is ready, they had to re-program the computer.

Oh, did I mention my ""wedge of steel"" Massey weighs 4,500 lbs while today's equivalents weight around 3,000 lbs? The most basic thing on the tractor is its weight as it can pull more and do more the heavier it is. But plastics...

Someone mentioned a cast iron pan that is basically a ""wedge of steel"" and it is supposed to last forever, no biggie. OK, so show me a teflon pan from 30 years ago that is still around, used and un-stripped/non-toxic/not full of cuts.

I have a horse saddle that is 40 years old. Still ride in it. There are plenty of synthetic ones today that fall apart mid-ride, two years later. Why? They are held together with thread and a prayer.

Most locals around here drive 1980-2000 trucks and cars,mostly well maintained. They can work on them, parts are abundant and they run. Most importantly, they are easy to understand and fix. My 2016 F-250 Diesel (brand new from lot) broke down at 4,000 miles - a known Ford issue, required 3 days in the shop and extensive motor work (covered by warranty). At 15,000 miles the water pump broke (super duty, huh) and needed to be replaced, at 18,000 miles the rear seat lock rusted away and at 30,000 miles the engine light came on and the PCM needed reprogramming. Now I carry and extended Ford bumper-to-bumper warranty that I PAID FOR even though I paid for the new truck as well, thinking it will not break for a while 'cause you know, brand new. Even if I wanted to, I can't work on it, it is a single piece box. Now we have soot re-burning requirements on the by-products of the diesel combustion so the truck requires urea to run and its mpg drops to 11-12 when it is re-burning the soot in a cycle every X miles, making the engine even more complicated. Did I mention that in order to get the Ford I traded in my 2006 GMC diesel that was flawless and on which for 200,000 miles all I did was oil changes, one alternator and breaks/pads/whatever mechanicals. It did not have the fancy diesel reburning features, it was louder and a bit rougher but boy, reliable... What a difference just 10 years make...

The reason why older things are better is because there was no abundance of cheap parts and components that were easily available and things were simply more mechanical. The workforce was not disposable as well so factories were places where quality products were made with pride. A lot of stuff took actual labor by people who were your neighbors or your co-citizens. Now that things have been exported to some place for slaves to put them together for $.02/hour from plastics that are easily mass produced, you get what you paid for.

Are there quality products today? Sure (maybe?). But when they are produced, they are usually high priced because the process and quality controls and pride taken in making it are still the same as they were 40 or 50 years ago.

Oh yes, my Microsoft Band died 9 months after purchase - it would randomly shut down. It was under warranty so I got a replacement from Microsoft. The replacement died with the same exact defect and so did its replacement and its replacement. On the 5th one Microsoft simply told me to f\* off and did not honor the warranty anymore. In all 5 the defect was the same, it would randomly start shutting down as if the battery was dead but if you plugged it in, the battery would show full. It was apparently a know ""bug"".

My iPhone 5s stopped charging maybe 12 months into its existence. I have had 2 Nokia n9s that stopped charging as well after about a year each.

I can go on and on but suffice it to say, this stuff is a constant drain on your finances.

When I had a physical land line, it NEVER dropped calls, NEVER. When I had the cell phone, sometimes I could not even dial out of my house, even if the iPhone was showing 4G and 3 bars. It would just ""sit"" there doing nothing.

So, when we moved to the farm a few years back, I ditched the cell phone altogether. Now I have a cheap Ooma for $6/month in case of 911 although it is a piece of s\*it as well, I try to call with it and 3 times out of 4 it just sits doing nothing. But, I can't get a land line anymore... I don't give a damn that today's cell phones are made for so much more, little computers blah blah. They still need to be able to DIAL OUT and they still need the infrastructure to be 100% reliable to be able to DIAL OUT. It is a BASIC FUNCTION OF A PHONE. Oh yes, I tried to downgrade to a simple flip phone and there was only one offered on Verizon's network (they don't offer any anymore on the prepaid plans) and after a month, you could only talk on it after you turned the speaker on, for some reason people could not hear me if that was not the case.

I remember my parents - they would buy one thing and keep it for 20-30-40 years. My Mom's electrolux vacuum is still in use, I have been through 3 or 4 of the today's varieties.

So on and so on.",fj6daer,oddodaoddo,cb69uh2
It's nothing like that.,smilodoner,l0cqx,fj8rg34,"Yeah, it's a bit frustrating. Like looking at a sports almanac and thinking about how much money you could have made from betting on the games 30 years ago, if only you knew exactly who to bet on back then...",fj5ogsl,calfan5,7cho3
Clearance and security+. If you get another cert that will fulfill the computing environment standard you will be golden.,smilodoner,l0cqx,fj7jbi6,"I’ve been thinking about IT, what would you say the best path is to get into federal IT?",fj6ypaz,LordBroldamort,wxm3r
"Where is this 1.7 trillion coming from? If the left was truly concerned about climate change, they would advocate for a massive increase in nuclear energy.",smilodoner,l0cqx,fj5r8tu,"full disclosure: I'm a bernie supporter.


Question: why do you think spending 1.7 trillions to stop the effect of climate change is a bad thing? 

Context: Climate change will not destroy the earth, but it will make the living condition become harsher for human to live, potentially killing millions (or billions) of people. Shouldn't we spend money to stop that?",fj5ovuw,cbvv1992,4jhki1
"Well put. Black and decker, when it was still made in America, was bulletproof. Their original electric drills were nearly art in appearance and if you're lucky enough to find one now, there's a good chance it'll work. Might need a new cord.

Maytag is another brand like that.",smilodoner,l0cqx,fj5ql36,"WAHHHH I WANT INSTANT GRATIFICATION

Because, shit-for-brains; every turd with a marketing degree makes the same claims that THEIR shitty commodity-Chinese-factory product is high-quality, and long-lasting, and more amazing than the next shitty-Chinese-factory product.  Until it falls apart 3 days after the warranty expires.

&#x200B;

Product today ***ARE NOT*** 'made like they used to'.  The only ones that are, are those rare manufacturers who have an established history of support and service, and haven't outsourced it to the lowest-priced Chinese turd farmer they can find.  The vast majority of brand-names with long and storied histories of quality products have done exactly that; sold-out their good name for short-term gain, throwing away decades of consumer goodwill for a few years of extra returns.  The irony is that this means many well-known, respected products - especially in electronics and household appliances are actually no better than Chinese 'no-name' brands, in some cases those brands have actually made significant efforts to usurp the reputation of western brands; Haier is one that comes to mind.

I think what would be an equally entertaining thread would be the exact opposite of BIFL:

r/BuyItToFail .

Products that used to be bulletproof, amazing and world-class but have simply become hollow shells.

ie: John Deere is a perfect example from what I've heard.",fj5p5ki,ryusoma,7fiul
"It's a warlock of firetop mountain-like. Nothing wrong with the game, but it isn't a roguelike.",smilodoner,l0cqx,fj1i8ve,No explanation?,fis7crk,Yistien,mx9bg
Pretty easy to find online,smilodoner,l0cqx,fj0lhwv,I didn’t hear about that. Do you have a link?,fj0iekf,Flashwastaken,zoalr
TIL the good ol boy network is only in the south.,smilodoner,l0cqx,fiw8bef,Because its the good ole boy network. I know an over weight Spc about to make Sgt thats been a  officers driver his whole enlistment. I also know a couple AGR guys who have been less than stellar. The common thread is they are all legacy.,fivhzoy,carverboy,1eikak78
