child_body,child_screen_name,child_user_id,child_tweet_id,parent_body,parent_tweet_id,parent_screen_name,parent_user_id
Mod GEOTUS if things get any worse!,Tardypop08,1vp4c1fz,fiuupbg,"This canary is meant to show when the current mod team of /r/The_Donald is no longer in control of /r/The_Donald. As you can see, the Admins are working to take over the subreddit by posting mod applications that disqualify 99% of the community. When this canary is gone, /r/The_Donald is gone. Trust only the canary.",fiuq2m9,lalicat,5p1fu
Thank you for your efforts!,Tardypop08,1vp4c1fz,fiutigi,4 more mods got removed today. Because we refuse to put up with the admins’ bullshit. FUCK YOU REDDIT!,fiurvae,SheGuevara2020,36ypmy0u
Thank you for your efforts! T_D was truly the best place on reddit. If it disappears at least I can rejoice in the memories I made with this community.,Tardypop08,1vp4c1fz,fiusrgp,There is a canary in the sidebar.  If that is ever changed or removed or if the page it points to changes then admins have taken control of r/The_Donald and it should no longer be trusted.,fiuqye2,zettapede,xx0yr
Reddit policy change,Tardypop08,1vp4c1fz,fiq2dk2,Seriously...what happened that pissed everyone off?,fiptd6b,Queef_Smellington,1xueio5x
Rly knows how to pick a dress.,Tardypop08,1vp4c1fz,fipbx5f,Beto looks great,fipblhj,TrumptraintoDC,vtt3p
I’m ready to get banned I just want the warning first...,Tardypop08,1vp4c1fz,fipaj0y,"It's okay to be white.

I fully expect to be banned for this hateful notion.",fipad1m,Expedition_Engineer,13on1s
Honestly I feel bad for her. Having parents control you and lead into politics at that young just sets you up for being a sheep for the rest of your life. She’s never been able to embrace different opinions that are not her parents.,Tardypop08,1vp4c1fz,fipagi4,apparently she was raised by wolves anyway . . .,fip9x8o,ENVYNITAZ,aff1lbw
Maybe I just don’t think it’s a great idea to give people drugs that change there body. It’s already been proven if you start hormone treatment to young you can’t go back without consequences. It’s one the reasons transgenders people kill themselves in higher rates than others. I was typing fast and could have worded it better.,Tardypop08,1vp4c1fz,fipa8ma,"> MENTALLY ILL PEOPLE SHOULD NOT BE GIVEN DRUGS  
  
Is this a Scientology take on psychology?",fip99gg,LacosTacos,erh3h
Lol just a voice being suppressed....,Tardypop08,1vp4c1fz,fip89gx,Did I miss something?,fip806y,Queef_Smellington,1xueio5x
Lol true “reddit has free speech” my ass...,Tardypop08,1vp4c1fz,fip86so,I'm dead. Got 8 upvotes in the second it took my to edit and delete the most vile aspects lol.,fip82y0,Notathroway12345,2aakd29w
NAKED COMMIE SANDERS,Tardypop08,1vp4c1fz,fip6g6b,Bernie Sanders is a commie.,fioyqu8,MagnusTBorovitz,zubo1
ELECTORAL COLLEGE IS RACIST REEEEEEEEEEEE!!!!,Tardypop08,1vp4c1fz,fi5oqb1,Muh popular vote,fi5l2am,Tropical_Centipede,xql4m
"Trump tmr, it’s comedy night!",Tardypop08,1vp4c1fz,fi5mcub,I feel like a traitor watching the debates instead of GEOTUS but it's comedy gold!,fi5maeo,NewButNotReally,12jmed
Worked the first time...,Tardypop08,1vp4c1fz,fi5kkew,END SEXISM: VOTE FOR ME BECAUSE I'M A WOMAN,fi5ki95,pray_for_kekistan,lea1s1i
Yep..,Tardypop08,1vp4c1fz,fi5jkzv,He just take credit for what Rudy did?!? Smdh,fi5ji9q,brockleeham,2ephqzk3
Had me giggling. Thanks!,Tardypop08,1vp4c1fz,fgn8w76,https://mobile.twitter.com/TeamTrump/status/1225170355322531840,fgn8riu,MsBeasley11,uc50w
Link if possible?,Tardypop08,1vp4c1fz,fgn8km2,Did you see the video they tweeted if cocaine Mitch 😂,fgn8i47,MsBeasley11,uc50w
Free L’s too.,Tardypop08,1vp4c1fz,fgn7gsd,Free tissues.,fgn76ea,dogkindrepresent,2bjffjk9
"Needs something to say, cus he can’t say he won...",Tardypop08,1vp4c1fz,fgn6snx,Is it really that hard to walk up and down with cards?,fgn6py6,tonyh750,c2kw3
Free stuff seems popular right now.,Tardypop08,1vp4c1fz,fgn6mp8,So what's the obstructions party's next move?,fgn6kf2,Pyre2001,70qxq
Doesn’t matter still voted guilty on Article 1.,Tardypop08,1vp4c1fz,fgn5x7p,Romney not guilty on Article #2?,fgn5uqr,James1DPP,i6hnl
:( dam. What if I just give you 80% of paycheck? Will that make me less deplorable?,Tardypop08,1vp4c1fz,fgn5m4r,SPLC has already made this a hate symbol sorry... CNN also hasn't given anyone permission to use these numbers yet.,fgn596k,UrtlulTheTortle,56q8r5bc
Um sir this is a Wendy’s?,Tardypop08,1vp4c1fz,fgn5d6z,I just got done watching my wife fuck 2 landscapers...... is Drumph impeached yet?  Does he have to give back his White House garage door opener?,fgn58yc,MAGA___bitches,2e5nun49
Never had one to start with. took a gamble at impeachment and lost.,Tardypop08,1vp4c1fz,fgn4zcu,What exactly is the charge? Is it hidden somewhere in the 20-page long advert for the democratic election attempt 2020?,fgn4vmz,thatsjustwong,10ctxpxv
We should make these numbers a slogan of ours,Tardypop08,1vp4c1fz,fgn4sm0,#52-48,fgn4qd7,tarallelegram,by2rvu1
👌🏻,Tardypop08,1vp4c1fz,fgn4ksa,"Nope

52-48

Sinema is guilty on both and fuck Mittens",fgn3dfc,protoplast,5vev6
Just so people know how the others voted,Tardypop08,1vp4c1fz,fgn4biv,There's not enough for 2/3 now. Why even continue?,fgn49pq,TheReaIRVD,45w6wbm6
Logic- wish dems had some,Tardypop08,1vp4c1fz,fgn3ak7,It's 53Rs 45D and 2Is isn't it? With Romney being a cuck it will probably be 52-48 if I'm not mistaken.,fgn37un,CitrusFanatic,16qvbc
Lol I got banned...,Tardypop08,1vp4c1fz,fglo650,.... and let me guess .... no bans.,fgl74vh,daflyboys,1rt4dc
"Jobs, safety, and dead terrorist?",Tardypop08,1vp4c1fz,fgksuwx,"If you don’t like what you are hearing tonight, VOTE.",fgksoxv,chrisakagatas,g93bv
Who knows... they really are sad. Can’t even clap for greatness.,Tardypop08,1vp4c1fz,fgkmhk9,"How can anyone, in good conscience, be a Democrat?",fgkme7r,Jakester5112,wz5g6
Jin-roh to,Tardypop08,1vp4c1fz,fghfsjo,Looking extremely similar to the riots from Akira,fghfbu1,0ne0n1,3thvz0i2
Doesn’t really matter when the senate will most likely no charge him.,Tardypop08,1vp4c1fz,fbcs14p,No he cant be pardoned by Pence now or anyone else.,fbcrg4z,Codeboy3423,7bzli
Nothing... in fact trump is now 1 of 3 men in history to be impeached. The fact nothing  will happen will only give trump a good story to tell and a place in the history books.,Tardypop08,1vp4c1fz,fbcr4a0,if only impeachment meant anything... what actually changed for Trump today? What power was taken away from him exactly?,fbcqy5w,realister,3dpts
"What crime, what violation of the constitution? Abuse of power not a crime and even so there was no abuse of power. Obstruction of congress also not crime.",Tardypop08,1vp4c1fz,fbcjm33,How’s it a sham? Asking for real,fbchmns,insayid,9dixa
"It really is, when Senku made his first light bulb and the episode ended with the world being illuminated was my favorite moment of the season.",Tardypop08,1vp4c1fz,fammj4l,"Sosoruze kore wa.
Its such a feel-good show.",faj76jn,hellboy786,3bgsj1r3
"Yes, simply putting it eu regulations that work other places in the eu didn’t work for brits. Fishing is the big example.",Tardypop08,1vp4c1fz,famk6hr,"Not being snarky, really trying to understand. Was that something that people felt was lost in being a part of the EU?",famj810,fancypants-macghee,2vxcfsxw
Why not deal or no deal if conservatives win brexit is done,Tardypop08,1vp4c1fz,fame88e,You can just say 'yes' lol,famdj9e,RollSkers,11nsyq
If conservatives win yes,Tardypop08,1vp4c1fz,famd4ac,"So is that it?

Does this mean Brexit's happening on Jan 31st?",famd1yb,WhisperOfAWord,4clyhjsh
People care about being an independent country.,Tardypop08,1vp4c1fz,famcxny,Why? I just don’t get it,famcnzf,fancypants-macghee,2vxcfsxw
If you voted for labour you’re retarded change my mind.,Tardypop08,1vp4c1fz,famcsz8,"If you voted Tory you're actually a fucking retard, change my mind.",famcpoa,Taevus,jb6b7
Thanks for the response,Tardypop08,1vp4c1fz,f7d5cj5,"Yes, it is possible. My first trip to Japan was May 8-22 in 2016 and I found it hot and extremely humid. There was only one torrential downpour that I remember though.",f7d50c0,JulieJulep,cr0ix
Impoverished people along the Mississippi River? Idk but probably related to history and the allocation of people. Poorer people would move closer to the river in search of work and than that voting pattern just continued to this day?,Tardypop08,1vp4c1fz,f6od0jo,From Indiana here. Why is the left side of Mississippi so blue? Don’t really know what’s over there. Colleges cities or something else.,f6oct0t,MegaXboxGeeks,hsmy6
Rather a bleak future in the gutter than sell my soul to the government.,Tardypop08,1vp4c1fz,f6oc7lb,Dont bite the hand that feeds you. The future is bleak.,f6oc4ig,christianknight,4u0n6gm
"Young Florida here, yeah I hate social security and other government programs that exist to lure voters to the dem side. But it’s a fact of life down here that a lot of retired old conservatives move in and like to have some spending money. It pisses me off that they are literally just robbing young workers for a retarded broken system that should have never existed.",Tardypop08,1vp4c1fz,f6obq7d,"> (not that I blame them, get robbed for 50 years I would expect something in return too)

I see your point, although... I DO blame them

first of all, the state governor has nothing to do with social security.

secondly, unless you are so poor that you need the SS check to live, then to vote democrat (which will literally destroy America) just to get a few extra government bucks, it total loser think, and a terrible and greedy way to be.

Anyway, you clearly are not someone like that, so heres to hoping that wherever you live, you can have a Republican state government (something that i, as a Californian, will probably never know)",f6obb3g,NeilNewsNetwork,4q3nv461
"It is a sad fact republicans didn’t go out and vote, also libertarians just gave themselves a dem governor. To many old conservatives who want social security payout(not that I blame them, get robbed for 50 years I would expect something in return too) who vote dem based on the fact alone.",Tardypop08,1vp4c1fz,f6oaz5p,"Looking at all the election results for the *other* elections in Kentucky, the results seem to be all approx 60% Republican and 40% Democrat.

It seems like this is less of a blue wave, and more simply a case of Republicans not liking Bevin.

This is disappointing, but I don't think its as dire for the GOP as MSM is reporting.

Having said that, let me say this about the voters of Kentucky, MANY of you all are whiny, greedy, bitches.  Bevin was pretty base, and Bevin did exactly what a Republican SHOULD do (he cut spending).

**Too many voters (republicans included) will not vote for the politician who cuts spending.**

**C'mon... we're not a bunch of greedy Bernie losers who just want the government to play Santa Claus and give us endless free shit.**

Until enough voters man up and stop demanding/expecting free shit, this sort of unfortunate result will happen over and over.

Its sad that so many able-bodied and totally capable Americans will literally vote for a disgusting democrat, just because the democrat want to give lazy fuckers free shit.",f6oaot5,NeilNewsNetwork,4q3nv461
Red super majority or local and other govt levels. The governor is basically going to be paid to sit around and get vetoed by republicans.,Tardypop08,1vp4c1fz,f6oaggu,Poor Virginia. They are going to fuck gun owners hard.,f6oac4w,aloha_snackbar22,31xxusnr
"Results come out later, Kentucky is just current news.",Tardypop08,1vp4c1fz,f6o9zkv,Why is everyone ignoring Mississippi?,f6o9v0d,verum-teller,106gls
While I’m not ruling out fraud I think this election was closer than people thought. Bevin was disliked by republicans and needed to being people out which he did just not enough. Also a lot of people voted for the libt candidate enough to flip the election. What we need is for people to realize republicans aren’t as safe as they once were  in red states and go vote in 2020.,Tardypop08,1vp4c1fz,f6o9shp,"Lots of weird stuff happening in KY. Smells like voter fraud. Bevin won his first term getting 500,000 votes. He ""lost"" today after getting 700,000. Beshear got 300,000 more votes than the Dem who lost to Bevin. #Shady",f6o9gvt,pdotuts,mr9ze
Preach,Tardypop08,1vp4c1fz,f5ihjfs,I always have subs on Netflix and Hulu cause sometimes I eat chips while watching and chips be crunching loud as hell in my mouth and I can’t hear a damn word from my TV,f5ba4ze,Jaxn56,2bj3l0y7
Joe really out here sniffing kids and not a single dem thinks it’s even a bit weird,Tardypop08,1vp4c1fz,f3dqg5q,# Joe Biden is like: When is he gonna sniff them?,f3dqdox,EDDIT_IS_CUCKED,138ti4
I get your point but it’s just impractical to spend billions on renewables only to spend billions more on nuclear. Speaking only for the US but many southern states are already implementing nuclear into there power systems. A gradual shift will benefit everyone in the long run as no one group will be negatively effected.,Tardypop08,1vp4c1fz,f0xnyzp,"Yea but we need to shift NOW, the shift should be done using renewables, and then when nuclear is sorted out, then implement it. Oil and Coal need to be gone as soon as we can",f0xnjtm,PyneAppl,328vwxh
There really is no risk with modern nuclear power. Meltdowns only happen when a series of serious mistakes are made. Fallout and radiation are non issues as well. Modern reactors just don’t make enough enough radiation to have any lasting consequences.,Tardypop08,1vp4c1fz,f0xnnyw,">what more can people want

No risk of meltdown, fallout, radiation, etc. 
But otherwise it is pretty nifty.",f0xn9d9,Slangin_paint,12d4c4
It’s really more practical to wait 10 years in a gradual transition away form oil that a sudden shift away. The market will remain stable and job losses will be made up for with job gains.,Tardypop08,1vp4c1fz,f0xnfk1,"We shouldn't be making nukes anymore, you know the whole nuclear non proliferation, gen 4 are not widely available and aren't expected to be until about 2030, (accoriding to ANSTO), that is not helpful to use NOW, which is when we need the solution",f0xn636,PyneAppl,328vwxh
I’m more so talking about the larger picture. It’s expensive to set up solar farms in the desert. It’s also expensive to set up nuclear. But once nuclear is set up its potential is unlimited. Just look at France or even South Carolina which is now almost 50% on nuclear. Nuclear at least gen 4 reactors are they cleanest source of power on earth once operational.,Tardypop08,1vp4c1fz,f0xnccv,"Nuclear is EXPENSIVE and renewables are much less expensive. Nuclear also takes. Few years to set up a new facility and renewables are much quicker to get set up, when they are done on an individual level.",f0xmq2i,McClanky,2ns2q4ku
Nuclear weapons is the big one(gen 3 reactors) but gen 4 reactors like the ones in France produce virtually no waste,Tardypop08,1vp4c1fz,f0xmpi3,"Storing underground is not a permanent solution as it can leech into water supplies, and I shouldn't have to explain how fucked that would be. How would you recycle it, what would you use it for",f0xm7o4,PyneAppl,328vwxh
Store in underground or even better recycle it,Tardypop08,1vp4c1fz,f0xlrzj,You need to mine uranium which produces a shit ton of carbon. If nuclear is increased what is the solution to the nuclear waste that is made,f0xlgbx,PyneAppl,328vwxh
I’m a staunch conservative and love oil and gas. I also love nuclear and really believe it’s the future. Not out of some climate change fear but just out of my own experiences. Living is FL and SC nuclear has always been where I’ve gotten my power from. The bill is cheaper becuase if it. It’s when people come out against out of some fear where I get mad. It’s clean and cheap what more can people want. I just don’t get this clown world anymore :(,Tardypop08,1vp4c1fz,f0xka6d,"Easy, republicans generally support nuclear.",f0xj730,qwertymcgerdy,117sda
I’ve in SC and FL all my life and have always lived on nuclear. The waste produced from the local plants(less the 30 miles from my houses) have always been minimal. I would rather have clean air and clean energy with containable fuel rods as a bi-product than other alternatives.,Tardypop08,1vp4c1fz,f0xjofp,"Until you find a nuclear power that runs on spent fuel Rods , you are very wrong. We got them stored everywhere trying to keep them cool there even put them in ammunition",f0xiab2,45bigdave,2r873rtl
Yeah the governments gotten involved in just the worst ways possible.,Tardypop08,1vp4c1fz,f0fsf44,"We’re on the same team. I’m talking about generational welfare dependent people. Live in section 8 collect food stamps have free health care pay no taxes-live off the tit. The epidemic of having children out of wedlock. 
I had a talk with my kids therapist. She has issues and needs medication. I would not go back to my children’s hospital because they charged about 2k$ an hour. Most people don’t give a shit because they have the copay. Her therapist filled me in that they charge that kind of money from insured people to make up and pay for all the people there for free. The whole system is so fucked up.   Absolutely smaller government!  No Obama phones. I had a friend whose parents were richy rich. She had 2 kids without a husband. She never wanted parents took care of that but was all about the free stuff. When her daughter was 8 she wanted to get her a phone because it WAS FREE. needless to say I can’t be around her anymore. 
So sorry to go on and be so long winded. 
Can not for the life of me find anything good about socialized medicine 
Phew!",f0fif6r,GOAT12NE,2bavp20
He probably already has....,Tardypop08,1vp4c1fz,f0ai70d,"The first time I worked my own 1040 income tax, I read through the instructions step by step.  One step was a few paragraphs long and at the bottom it said “except for life insurance salesmen” ...  WTF?

So... I’m very confident that Bernie would figure out a loophole for himself.",f0ai0v6,pedzsanReddit,14nbkb
👍🏻the more weebs the better,Tardypop08,1vp4c1fz,f0ad99f,"Anime community is the most friendly community I have ever seen. They reply all your questions, always ready to help and never troll you unlike other community in which I would have to wait more or less for a whole single day for a damn single reply.

Thank you very much anime community",f07y3q5,subh2527244373,36jptnuk
I mean yes but if they had more money from not paying high taxes private insurance could become feasible. That being said I don’t have the highest faith in a majority of people to spend money responsibly. It’s just Bernie plan is in all senses impossible and my personal beliefs want to make the government smaller,Tardypop08,1vp4c1fz,f0acrdw,"No, I get that. I have private health care But to the people on Medicaid there are no copays. No emergency room charges. They take an ambulance instead of a cab because they pay nothing. Drugs are at no charge. Medicare , for people who have paid in for a lifetime doesn’t come close to what Medicaid covers.",f0a5ryo,GOAT12NE,2bavp20
Ha this made me laugh. Sorry but Greenland comes first.,Tardypop08,1vp4c1fz,f0a0d5a,Please buy Alberta.,f09lbcr,gerned,5xmgq
Get gas in ur car as soon as possible and fill a few cans if available. Better be safe than sorry,Tardypop08,1vp4c1fz,f09zyuh,"Well, shit.  Thanks for the reply, I appreciate that.  But my budget is not in good enough shape for more expensive... everything.  

Oh, well, I guess we don't need to eat *every* day...",f09y1g2,CrankyMama_LC9,78u98z0
"Free? Nothing is free it’s paid for with taxes also it’s just not good, far better private options.",Tardypop08,1vp4c1fz,f09s4c9,Yes. But if you have Medicaid everything is free.,f09of01,GOAT12NE,2bavp20
Ha 3 mansions on a senators salary. He makes his money with donations and speeches just like Obama.,Tardypop08,1vp4c1fz,f09rvdz,Didnt he get that money from being a senator though?,f09q9iq,tabu_amore,4dz2f6qe
Commies...,Tardypop08,1vp4c1fz,f09rjdt,"Hello Tardypop08. Your comment is being removed because the intent is not to generate productive discussion but to disrupt normal operation of the community. All submissions and comments submitted to this subreddit must be made in good faith.

Please refresh yourself on our [rules](https://www.reddit.com/r/sandersforpresident/wiki/rules) before continuing to participate, and show other posters the respect that all other people are owed.",f09lrk0,formerteenager,47rl3
Because Medicare for all is garbage and anybody with any wits knows it.,Tardypop08,1vp4c1fz,f09kgj4,If he is so into Medicare for all why doesn’t he drop his government plan and file for it himself?,f09ka05,GOAT12NE,2bavp20
I never said they would benefit himself just Bernie now as 3 houses and millions in the bank all while preaching about the unfairness of America,Tardypop08,1vp4c1fz,f09ap61,Are you fucking stupid? His tax policies would hurt himself financially.,f092j50,OmarTheDooley,pt3t09s
Honestly he’s the only person on stage i can stand to listen to at this point,Tardypop08,1vp4c1fz,f02od97,"Gotta hand it to Biden, at least he's honest about costs.",f02o8xx,The-Plauge-Dragon,1nroj7ug
Even if it’s spoiled it’s still a great show,Tardypop08,1vp4c1fz,exg6mpn,I did watch the first 20 or so episodes before I accidentally got massively spoiled. I am still pissed about it. I was hoping I would eventually forget it by putting it on hold but it's been stuck with me the entire time since.,exfrz7q,JSlickJ,ne9k5
Rip I went to the MA at my local Cinemark and it was great-Movie started at 7 like it said on the ticket. The theatre was mostly empty but a few people made some noise right after the start getting into there seats.,Tardypop08,1vp4c1fz,ewzf2ym,"Funny, when I saw MA last night it was also one of my ""worst"" theater experiences ever. The theater had technical issues: first no sound, then they had sound but no picture. They fixed it and restarted the film, about 30 minutes late.

But there were only \~11 people in the auditorium, so... thankfully the audience was actually really good with so few people. I hope you have a better experience with MA! I say give it a shot. The room-filling sound was worth it.",ewx0jgo,mwholt,djhts
Already have Serial Experiment Lain in my queue I’ll put it at the top!,Tardypop08,1vp4c1fz,ew63flx,"Serial Experiment Lain

Dennou Coil

Texhnolyze",ew633up,Arch_Angel666,9jdu7
This one got me ... a dam pole,Tardypop08,1vp4c1fz,estek5q,"Of course there's an anime about [an utility pole falling in love with a man](https://myanimelist.net/anime/7718/Denshinbashira_Elemi_no_Koi)  


Of course there's an anime about [a cockroach girl](https://myanimelist.net/anime/10258/Gokicha)",esque80,Jebhuz,16eo83
:( yeah Reddit’s just like that I guess it’s just I rarely use reddit for anything besides my two “hobbies” so it’s like half the app just disappeared but it’s not your fault so have a good one!,Tardypop08,1vp4c1fz,esa8xhr,"You can access it on the computer. I also have my quarantine subs I’d like on mobile, but we won’t be able to get them here. Sorry fam:(",esa8o3w,SpartanSPI,idw3eg4
What about the War of Lolis?,Tardypop08,1vp4c1fz,eq0jb71,"Finally Austria does something that doesn’t lead to another World War, I‘m so proud of my country",eq0itg9,Luke911666,4nhzay4
"This show looks like something I’d like I’ll give it try 

Thanks",Tardypop08,1vp4c1fz,epop3bl,"SDF Macross, Macross Plus, Macross 7 or Macross Frontier... take your pick. :)",epooq3r,firesolstice,e2me1
😏I just might,Tardypop08,1vp4c1fz,epop0gz,"Highschool dxd, I mean any anime is safe if your brave enough",epooss7,Delta_25,y7llb
Yes,Tardypop08,1vp4c1fz,eni25ee,Do i need to watch clannad? i still haven’t given it a shot.,enhmukz,iDreims,11omy5
"On the list!
Thanks",Tardypop08,1vp4c1fz,em0rocs,"Maquia: when the promised flower blooms
But be prepared to cry",em0r0rv,KillerWales33,1zgprntt
Definitely thinking about Wolf Children as the next film!,Tardypop08,1vp4c1fz,em0ri2f,"Wolf Children

The Night is Short, Walk on Girl

Penguin Highway",em0r8jg,Stack42,ddag1
Same situation lol,Tardypop08,1vp4c1fz,ek4d99j,Pokemon was my first anime as a kid but Attack on Titan got me into it.,ek3clon,Zylda,xbww7
