child_body,child_screen_name,child_user_id,child_tweet_id,parent_body,parent_tweet_id,parent_screen_name,parent_user_id
"no. you need young fearless people to be cannon fodder in the infantry.

in classical times, you weren't a full citizen until you'd been in the phalanx for around 14 summers.

started at 16, could attend the assembly and vote at 30",teh_dahnald,16fjw7,fkls183,Do you think an arguement could be made that we should raise the age to serve to 21 as younger soldiers may be more susceptible to PTSD as their brains are developing,fkkdtaz,PersonShark,80q7x
i don't think biden can stay on script. he may not even stay on camera,teh_dahnald,16fjw7,fkl8q00,"No way.  Biden has a script for this CNN hosted debate, and Bernie will be taking hits below the belt throughout the the thing",fkl8lbi,_howling_wolf_,7f3b5
taiwan would really piss them off,teh_dahnald,16fjw7,fkl8m1n,"I wish the facts eventually come out and there is an international trial and a total bill is given to the CCP..  and the bonds they hold of European, Asian and US debt is cancelled as a starter. 

The ICJ (International Court of Justice) will probably have to find a new home.. when this is over there probably won’t be a Netherlands or The Hague.",fkl7t6f,C3R3B3,523k1hjn
did it not get delayed?,teh_dahnald,16fjw7,fkl7kf2,"That debate is tonight, isn't it?",fkl6jqz,battistajo,1qlp4unp
when is it an accident and when is it criminal negligence,teh_dahnald,16fjw7,fkl7igr,"I doubt it that it was a response to tariffs but they have definitely lied and suppressed the Chinese population in order to maintain total control and as a result allowed a local epidemic to get totally out of control and become a global humanitarian and economic and generational catastrophe.

Also ultimate liability may also lie in an accidental leakage of the virus from the Wuhan bio-lab that was just 200meters from the Wet Market.",fkl7bfz,C3R3B3,523k1hjn
a lot of population is spread out. maybe this will just be a city cancer,teh_dahnald,16fjw7,fkl4vqd,"the US is way richer than either, I’m not sure thats a good proxy here",fkl453i,unfriendlyhamburger,52z23tw4
i've been concerned that they looked at the china data and decided were already fucked and there was nothing they could do about it.,teh_dahnald,16fjw7,fkl4s48,"I've thought of this too. 


Maybe the delay in testing is intentional. If people found out how many were infected there'd be massive panic.

Hospitals would be flooded, store shelves barren, critical jobs abandoned. 

My conspiracy-brain has been working overtime. I probably need more tinfoil.",fkkwfbh,5030000000,40h8z4rf
i don't see Trump being on board with this,teh_dahnald,16fjw7,fkl4dmi,This is the end goal,fkl45ci,aboardthegravyboat,7fq05
we should definitely make ethanol a necessary ingredient,teh_dahnald,16fjw7,fkl3nip,We should not lead Muslims in temptation by offering them dirty infidel drugs if they are too feeble-minded to reject them on their own.,fkk84gm,ProudAmerican_MO,1zbcmlbv
"what is sad is that bernie is going to destroy him at the debate because he's lost his mental acuity, and the dems are still going to forge the votes to get him the nomination.",teh_dahnald,16fjw7,fkl3c0k,"Nonono guys, its Trump that *really* mentally incapable of serving as president! Biden is of perfectly sound mind!

/s",fkkwkgd,Z88_DysonSphere,35un9ar9
he went bethesda and asked where they were doing the ASVAB,teh_dahnald,16fjw7,fkl37er,tbf he did try and get tested but got confused and ended up at the dentist,fkkb4pm,Lazer_beak,owvjs
"its so out of control the only fix is a big haircut. the promises should have never been made, but it isn't fair to claw back promised benefits. sadly life isn't fair",teh_dahnald,16fjw7,fkkzkhy,When California legislators get the pension bomb(s) under control I'll consider them responsible enough to be trusted with more money.,fkkyiiy,Overlord1317,4qa9y
8 people voted?,teh_dahnald,16fjw7,fkkp6m1,"Talking of island caucuses, anyone got any theories as to why Bloomberg won American Samoa? That's a question that's interested me for a bit.",fkj19mi,Illogical_Blox,kmsex
"lets not lose sight of the fact that the test kits don't in any way help the infected people.

and yes, i believe the administration wants to limit the impact of the epidemic, and accurate testing is essential in that effort. this is all about saving the people who aren't sick. the early adopters of a novel devastating disease are generally fucked. they are the science experiments that lead to saving the people who haven't been infected yet.

i think there is real distrust of anything coming from Chiner inside the american government. i bet the FBI and NRO are investigating whether or not the Chinese government purposely sent infected people throughout the world to cause this havoc.
i think its 50:50. Trump puts a bunch of pressure on china, all indications were that he was going to be reelected, and maybe china felt pressured to do something, and their sudden wuhan crisis gave them their stealth weapon to fight back in the economic battle.",teh_dahnald,16fjw7,fkkokzs,Do people still believe that the American administration actually *wants* test kits...?,fki5bei,ExaltedDLo,2l7w7z9p
i wish we had kept more of that in the divorce,teh_dahnald,16fjw7,fkknsn8,Yes totally us British polite until the very end 🙈,fkknn54,whitewalkerbfd,5caecj4a
that sounds like classic british consideration. accepting the inevitable and digging ones own grave to minimize inconveniencing someone else.,teh_dahnald,16fjw7,fkknbr0,I’ll get the shovel,fkkhyz8,whitewalkerbfd,5caecj4a
i'm being serious when i ask how does he continue to act counter productively?,teh_dahnald,16fjw7,fkkn66n,"Clearly Trump has made some boneheaded mistakes and cruel criminal acts in the past.  I agree with you that we should focus on the present and future.  Given that there is a problem, how do we fix it - rather than fixate on who fucked things up.

However, he is continuing to act counter productively.  Trump shat on the bed and he is continuing to shit on the bed - and he is telling everyone how great it smells.",fkkim2h,aberrantmoose,3yzr7krs
"80,000 of which would be asymptomatic virus shedders",teh_dahnald,16fjw7,fkkhzdd,20.000 CONFIRMED cases. I bet the real number of cases is over 100.000 already.,fkjrp84,kaggelpiep,chb0yog
die quickly. its the merciful way,teh_dahnald,16fjw7,fkkhxtw,On the uk news this morning it says they expect over 70s may have to self isolate for SEVEN MONTHS. How is that ever going to work,fkjy27v,whitewalkerbfd,5caecj4a
you don't not get treated because your poor. you get a big bill you can't pay because you are poor. that's why i was asking if he was actually assessed by a doctor or just flat out turned away because he didn't report severe enough symptoms.,teh_dahnald,16fjw7,fkkhvul,Lol what planet do you live on,fkk1u96,MrShickadance9,5azeb
what is so hard to understand about the concept that the presidents role is to say 'solve the pandemic problem before my people die' and then all the worker ants with that specific skill run around trying to make it happen,teh_dahnald,16fjw7,fkkhqzu,Facts and common sense are not allowed here.,fkk2scr,mgw24,103265
did the clippers move?,teh_dahnald,16fjw7,fkjok0i,Are you sure because the Clippers used half their state's tests?,fkjoeag,Espressopatronumjoe,1wqrs7pr
but did they assess you? or did you ask for a test and they said no,teh_dahnald,16fjw7,fkjojdm,"He was a wealthy, notable business man. His wife presented with symptoms. They got tested. 

I tried to get testing. Told to go home and self quarentine unless my symptoms get severe 🤷‍♀️ 

Don't know what to tell you. This is happening all over. We don't have enough tests? Though there are no reports on how many tests are being done... It feels like suppression. 

I have friends who are EMTs and they said they had multiple cases of ""pneumonia-like"" symptoms they're handling and some of those cases are getting tested but none of the responders can. 

They're about to set up a drive through clinic in the nearest city for first responders and health care workers...",fkjocvb,Espressopatronumjoe,1wqrs7pr
how does that change what i said? do i not understand the definition of a lot?,teh_dahnald,16fjw7,fkjn2ba,$4k is actually the median income in the US.,fkjl2fh,codeninja,390kv
thats not how our medical system works,teh_dahnald,16fjw7,fkjkv82,"Yeah, he was diagnosed with being poor.",fkjk6dm,PoopyMcDickles,z4i2c
why weren't you tested when someone else was? were you diagnosed with something else?,teh_dahnald,16fjw7,fkjh6rl,"That makes me feel better. I'm symptomatic and can't get testing even though someone wealthy in my city traveled to the same place I did and got him and his wife tested (they were positive). 

It's hard not to get a little conspiracy theorist when things like this happen.",fkjh0t4,Espressopatronumjoe,1wqrs7pr
doesn't unemployment already cover reduced employment for multiple 'periods',teh_dahnald,16fjw7,fkjgpew,"It does not seem to cover people who are seeing reduced employment. This puts businesses and individuals in a pickle because if a business forsees the need to reduce hours or staff for to COVID-19 (elective surgeries being postponed as an example) this would bail people out for a bit if they have kids. However, until this is passed there's that uncertainty.

This bill effectively encourages people to work, knowing that there's less economic damage if they get sick, but doesn't address underemployment caused by people not leaving the house or employment changes at hospitals that don't have the beds for other services.",fkiqvxn,jimbofbx,p6g0m
$4k is a lot less than 2/3 pay for a lot of the country,teh_dahnald,16fjw7,fkjgn7e,"2/3rds pay not to exceed $4000 for anyone diagnosed with covid-19 or taking care of a dependent due to covid-19 related closures.

Extends for a period of 30 days from diagnosis up to a maximum of 3 periods.

This applies to full, part time, and self employment provided that you have documented proof of income.",fkhz16r,codeninja,390kv
"i believe clinical diagnosis should count. but maybe i'm optimistic. they must understand the testing constraint, and people are being told to quarantine without being tested.",teh_dahnald,16fjw7,fkjgl2d,"So the real problem I see here is they require a *diagnosis.*

Look at the overwhelming number of reports both globally and especially in the US saying, ""I have all the symptoms of this but doctors refuse to test me.""",fkibrxo,i_am_not_mike_fiore,74870
the federal reserve operates outside the scope of congress and does not use treasury funds.,teh_dahnald,16fjw7,fkjgfmq,"1.5 trillion for the banks yesterday, what more do you want? /s",fkigm82,zXenophon,52shkgug
if the senate passes an edited bill it has to go back to the house for reconciliation. i don't think they'll waste the time unless they find something critically wrong with the current version. they have back channels between the leadership. they aren't going to send something time sensitive to the house floor if the senate leadership is indicating it won't pass,teh_dahnald,16fjw7,fkjgb9e,"It will pass Senate, just don't be surprised it becomes something completely different after that.",fkibrp2,photofluid,h9cri
sounds like short term disability. i wonder if it is taxed as income.,teh_dahnald,16fjw7,fkjg7lp,Someone needs to summarize this,fkhu6hb,yvng_savage,ztjyp
i doubt it. samples are probably being preserved for testing at a later date (no rush to test already dead people). the CDC likes accurate numbers...even if they are only eventually accurate. that's how you do the statistical analysis of treatments and outcomes to determine the most successful standard of care. they'll want full charts on every confirmed SARS2 death.,teh_dahnald,16fjw7,fkjftx1,Fuck. That's terrifying. But likely true.,fkjdmuw,Espressopatronumjoe,1wqrs7pr
"he called the alarmism a hoax, not the corona virus. The alarmism triggered panic, now the country is unnecessarily shutting down in most regions, which is going to cause a lot people unnecessary problems financially.

at the end of 2019 the US was deemed overall most prepared for a pandemic (1 out of 195), even acknowledging the response would be slow (ranking 54 out of 195): https://www.ghsindex.org/country/united-states/

yeah, discretionary spending priorities were changed based on the knowledge at hand. we don't know what the result of that choice will be yet. and the country has the unrivaled ability to throw resources at an identified problem. but somehow people think they should spin up overnight, which isn't how it works.

in january china was still lying and saying the disease didn't spread from person to person, hiding the fact that healthcare workers treating the 'mysterious viral pneumonia' were catching it from patients.",teh_dahnald,16fjw7,fkjfhkc,"Likely he takes a prominent role because he made the decision to reduce the US pandemic response budget by 80% a year ago (good call Trumpy) and because instead of putting together a nuanced sensible plan in January, he thought it was better to go on TV and call this a hoax, and tell people to get on with their lives.

What is wrong with that man? 

Just what the US citizens needed. A global pandemic with Captain Simple Jack in the oval office.",fkjcycd,muncherofhay,3zhs1yg
things change,teh_dahnald,16fjw7,fkjc2w5,This is the same stooge who said it was low risk last week,fkiv2cb,fluboy1257,5lq4we3r
"as testing capacity increases, they'll back trace infections in new hot spots, but its virtually impossible where the disease is endemic...and they won't have the ability to test everyone in a meaningful time period. that's why they are recommending social distancing.",teh_dahnald,16fjw7,fkjbpcc,"How would we know? People with no symptoms probably aren't getting tested. But, If the asymptomatic percentage is high, they're not counted in the infected number, which lowers the mortality rate.",fkiw19c,WinnebagoPeople,3du6ee6n
"why the trump focus? he's essentially already filled his role in all this. the national emergency is declared, resources are freed up...FEMA can deploy resources where they will have the largest impact and the departments who handle these kinds of things are empowered to do their jobs.

the executive, regardless of who it is specifically, issues vague orders to the appropriate staff members, who turn the general desire of the president into tangible orders that can be passes on to relevant subordinates..and so on down the chain.",teh_dahnald,16fjw7,fkjbktd,Trump told me otherwise.,fkj2c12,aberrantmoose,3yzr7krs
"is that like when people breath without even realize it and keep staying alive, even though they are focused on other things?",teh_dahnald,16fjw7,fkjbatr,"Breaking news: 

Sick people that dont feel sick dont know they are sick and therefor spread Corona even further",fkimac6,LongJohnGeissla,3dd7ad7l
"dude, the president goes to the front of the line regardless of who is in office.",teh_dahnald,16fjw7,fkjb2vg,Test takes 2-5 days for everyone else,fkiyaqt,sistahmaryelefante,la48q
"i think the Jazz got the ELISA test, which has reduced sensitivity and can return false negatives.",teh_dahnald,16fjw7,fkjb097,"The time length actually makes it look more odd.

At 2AM 58 members of the Utah Jazz team including players, coaches, and staff were taken samples. 8 hours later all results were returned negative with 1 positive.

The President of the United States gets tested and it takes 18 hours to reveal results?",fkiwk2b,Timpa87,5lv8ytsu
"there is no false negative on a pcr assay (assuming no sample handling mistakes). it can detect one RNA or DNA strand and amplify it 18 orders of magnitude (an inconceivable amount). so a valid test will not give a false negative or false positive. that's why they confirm HIV this way. In theory, every lab that can do a rapid HIV PCR assay should be able to do the same for the corona virus. they just need to know what specific gene to look for.

you could get a negative on the exposure day before the virus has really started to multiply because the oral swab wouldn't have any virus in it, but that wouldn't be a false negative, because he wouldn't technically have the disease yet.

because he's the president, they are probably going to start testing him daily. early intervention is the best intervention",teh_dahnald,16fjw7,fkjal7x,Shit that's what I meant. It's been a day.,fkj6ziu,Evil__Toaster,g4zj8
i never heard that.,teh_dahnald,16fjw7,fkjaegv,"As staffers on The Apprentice said he used/snorted crushed Adderall as an upper. Especially when he reads speeches, and isn't supposed to go off message, he sniffs and snorts, like the staffer said he did when he used Adderall on set.",fkj9nc3,kokoyumyum,1tj3qkm9
"i don't think the PCR assay is the 'test kits' that keep getting talked about. the test kits are probably ELISA assays with inconsistent sensitivity

false negatives are devastating to controlling an epidemic. maybe the existing test didn't meet CDC muster...and their initial efforts were not much better",teh_dahnald,16fjw7,fkj7abr,">it is not yet clear why

Welcome to the wonderful world of government regulations. Especially this from the FDA: 

**RNA Preanalytical Systems (RNA Collection, Stabilization and Purification Systems for RT-PCR used in Molecular Diagnostic Testing) - Class II Special Controls Guidance for Industry and FDA Staff**

https://www.fda.gov/medical-devices/guidance-documents-medical-devices-and-radiation-emitting-products/rna-preanalytical-systems-rna-collection-stabilization-and-purification-systems-rt-pcr-used

**1. Introduction**

This guidance document was developed as a special controls guidance to support the classification of RNA preanalytical systems (RNA collection, stabilization and purification systems) into class II (special controls). RNA preanalytical systems are devices intended to collect, store, and transport patient specimens, and stabilize intracellular RNA from the specimens, for subsequent isolation and purification of the intracellular RNA for RT-PCR (real-time polymerase chain reaction) used in in vitro molecular diagnostic testing. The device may consist of sample collection devices, nucleic acid isolation and purification reagents, and processing reagents/equipment (tubes, columns, etc.). It also may contain instruments for automation of the nucleic acid isolation and purification steps.

This guidance is issued in conjunction with a Federal Register notice announcing the classification of RNA preanalytical systems. Any firm submitting a premarket notification (510(k)) for a RNA preanalytical system will need to address the issues covered in this special controls guidance document. However, the firm need only show that its device meets the recommendations of the guidance or in some other way provides equivalent assurances of safety and effectiveness.

The firm must show that its device addresses the issues of safety and effectiveness identified in this guidance, either by meeting the recommendations of this guidance or by some other means that provides equivalent assurances of safety and effectiveness.

**The Least Burdensome Approach**

The issues identified in this guidance document represent those that we believe need to be addressed before your device can be marketed. In developing the guidance, we carefully considered the relevant statutory criteria for Agency decision-making. We also considered the burden that may be incurred in your attempt to follow the statutory and regulatory criteria in the manner suggested by the guidance and in your attempt to address the issues we have identified. We believe that we have considered the least burdensome approach to resolving the issues presented in the guidance document. If, however, you believe that there is a less burdensome way to address the issues, you should follow the procedures outlined in the document, “A Suggested Approach to Resolving Least Burdensome Issues.”.

------

Since the HHS Secretary announced this to be a Public Health Emergency, all unapproved diagnostic and/or detection test kits requires an EUA (Emergency Use Authorization) approval from the FDA: 

https://www.fda.gov/emergency-preparedness-and-response/mcm-legal-regulatory-and-policy-framework/emergency-use-authorization",fkiviqp,bigchinamike,yawt4
yeah...but he is suffering from hair loss...and wants to have hair,teh_dahnald,16fjw7,fkj6vns,"He does have a few disclosed prescriptions, including a drug for hair loss that is linked to some pretty devastating side effects: https://www.newsweek.com/trump-health-exam-president-hair-loss-drug-research-erectile-dysfunction-783580",fkj6bjn,seenorimagined,j2ml4
i think false negatives are the concern with the antibody test. i'm sure they ran a pcr assay on an oral swab.,teh_dahnald,16fjw7,fkj5z9v,"Is there no longer a chance of a false positive? I thought that's why the initial tests took so long, that they tested each twice or something",fkj0yvv,Evil__Toaster,g4zj8
lets be real...the president goes to front of the line regardless of who it is because there is a lot more at stake.,teh_dahnald,16fjw7,fkj5wkt,"Tested at 3am EDTish and at near 8pm EDT cleared, and we get this speed in testing the US public?",fkiw6uy,feartheswans,wvt1r
"i doubt it. you don't risk side effects in a geriatric patient for no reason. 

i don't know if there is an effective immune globulin",teh_dahnald,16fjw7,fkj5tat,"They could be pumping him full of antivirals, too.",fkiwxbv,Duude_Hella,4uehoqsl
yeah,teh_dahnald,16fjw7,fkj5pg9,Is he really germaphobe?,fkj1qvp,PixelNotPolygon,lbfnp
"he only recently started shaking hands. i'm convinced its a display of power and confidence in light of the viral scare (and learning to be a better politician, which he wasn't in 2015-2016). he might have purell dispensers the forearms of his dress shirts where Spidey keeps his web juice.",teh_dahnald,16fjw7,fkj5mf6,"Trump himself is apparently such a germaphobe that I wouldn't be surprised if he actually doesn't have it. You never see him touch his face, seriously.",fkizobr,AcerRubrum,51fz1
"rhinorrhea is not a indicating symptom of COVID19 infection, and hayfever season came early to the US thanks to the early spring",teh_dahnald,16fjw7,fkj5h9q,During his speech yesterday I took a shot each time he sniffed. I was shitfaced.,fkj2t38,bunkerbetty2020,5uol1dv0
where does this adderall thing keep coming from? he is rumored to be very anti-substance abuse because he saw alcoholism ruin his brother.,teh_dahnald,16fjw7,fkj5aen,His nasal passages are so caked with crushed adderall the virus couldnt get in if it wanted to.,fkiy55c,MrBurnz99,lcfni
culling the pensioners would be more accurate,teh_dahnald,16fjw7,fkj4wrp,"I believe the scientific term is ""culling the poor""",fkiw71c,MurrayMan92,r84je
how is just bitching about things working out for you? you can strive for change and play the system that exists smartly at the same time,teh_dahnald,16fjw7,fkj18pu,"yummy yummy, more boot for me mommy!",fkikdw6,uss1701jb,ez7ha
"i know nobody likes to take any responsibility for their situation. i'm not saying the system is awesome, but the way it works isn't a secret and we are all responsible for our own lot.",teh_dahnald,16fjw7,fkijrpa,">it was not a secret that this is how your industry operates. if benefits were a priority you should have chosen a career path that provided these benefits.

please kindly shut the fuck up",fkijg5p,uss1701jb,ez7ha
"it was not a secret that this is how your industry operates. if benefits were a priority you should have chosen a career path that provided these benefits.

i imaging that traffic has probably been down, and receipts down as well. they can't just pay you with imaginary money they didn't make.

how does unemployment work for work furlough? i assume you've been getting taxes witheld from your paycheck.",teh_dahnald,16fjw7,fkij2td,"Pfft, I wish

I work in a *restaurant* and serve people *food* and we’ve run out of sanitizing wipes and shit and there’s none left to buy because of the shortage

I still get no paid time off and need to show up UwU",fkhwtt3,HispanicTaco,11xfr0ys
i doubt they've stayed put since january. they've probably been all over SE Asia via private jet during down time,teh_dahnald,16fjw7,fki8ntm,"Did you finish the article? 
Literally one paragraph down 

“But, technically, Hanks and Wilson wouldn't have qualified for an expedited test in Australia, either. The official Australian criteria for testing was ""if you develop a fever, a cough, sore throat or shortness of breath within 14 days of overseas travel, seek medical attention."" Since Hanks and Wilson had been in Australia since January, they wouldn't have qualified.”

Then they go on to give more examples: 
“A significant proportion of tests in the US have been done on NBA players, while other Americans wait” 

And give reasoning:

“The only other people who were tested nearly as quickly appeared to be political officials, like Ted Cruz, Paul Gosar, and Matt Gaetz, who were exposed at conservative conference CPAC.

According to Diana Zuckerman, the president of the National Center for Health Research in Washington, DC, it makes sense that high-profile celebrities and athletes have more access to COVID-19 testing than the general public.

""I think there's a lot of benefit for a physician to have celebrity patients, and that means that those physicians are going to do their very best to please their patients in ways that they might not work quite so hard for in a non-celebrity patient,"" Zuckerman told Insider. ""When something is available but limited, and there's limited access but it exists, people with more fame are and more money are more likely to get it.""”

With an emphasis on PEOPLE WITH MORE FAME AND MONEY ARE MORE LIKELY TO GET IT. 

Literally what the commenter was saying.

Quit being an asshole and learn some reading comprehension, that one line didn’t disprove shit, it’s an entire article about how the rich have more access.",fkht6qq,Timekiller-94,3oxtk7k6
just like coronavirus.,teh_dahnald,16fjw7,fki8k0d,In other news the Sun rises from the East,fkhxtzk,pp0787,1v7oquz
if you believe the numbers,teh_dahnald,16fjw7,fki7oki,He's not getting robbed he's just losing the primary.,fki6ulp,TNine227,6xdh4
early reports were that it was racist against han chinese because they have a higher expression of the protein needed to enter the cells of the respiratory tract...but Italy came through with the spoiler.,teh_dahnald,16fjw7,fki7axg,"Natives: \*seeing coronavirus spread\*  It's bigger. It's badder. Ladies and gentlemen, it's too much for the Europeans!",fkh1vsh,johnlen1n,b6ci7v8
but it is so much lower. they are saying the average age of the dead is over 80,teh_dahnald,16fjw7,fki74ew,"/u/burntends97 didn’t say it only infects the young. 

> Saying ""it only affects old people"" is just plain wrong.

What they said was:

> covid kills boomers and the weak

I think we can assume everybody still knows there’s a risk of dying from this even a young person.",fkhlbs8,ReverserMover,r0264uv
and it is action taken outside of the US treasury,teh_dahnald,16fjw7,fki6vsu,"People (on reddit at least) are saying that the 1.5 trillion ""being used to stimulate the markets"" should be going to pay for M4A and paying for school lunches.",fkheqh7,sergeybok,dt4ii
"is apple still paying everyone's salaries? that's the question. it says they are still paying hourly workers...but are they matching the average hours worked...or is everyone getting the standard hours for part or full (which is usually less than 40 hours) even though they typically work more?

and is it illegal for CoronaVirus to infect new people in china?",teh_dahnald,16fjw7,fki68ih,Wow. Big news. Apple is one of the first to take this action. It’ll be interesting to see which companies follow suit.,fkguyjk,bugsy-ef,8l3dy
"sanders is going to be robbed by the DNC so Dementia Joe can run against Trump.

he's getting fucked so hard twice in a row.",teh_dahnald,16fjw7,fki2pe2,Hopefully in a years time we will be dealing with President Sanders (hell even biden will at least be a liberal about this shit),fkhfcsc,sarpnasty,7271l
"unemployment insurance covers small business employees who don't get sick time (or short term disability). that is the government safety net. it isn't the same as the salary, but i don't think disability insurance payouts are taxed as income (while unemployment is).",teh_dahnald,16fjw7,fki2luf,"The two that jump out to me:

Allowing ""small businesses"" to be exempt from the paid sick leave provision. There should have been a more aggressive approach to include small businesses and to help reimburse their costs as appropriate. Just because a business has 20 people doesn't mean their employees should be put in such a predicament. 

Having the sick leave requirements expire a year after the bill is signed. Who knows how long COVID-19 will linger. A year might be too short and we'll just be back here next March if there's still ongoing issues.",fkhe67l,feignapathy,racj0
"no...seniors have medicare by law. cross that 65 year threshold and you get government insurance, with a deductible...but you aren't paying premiums",teh_dahnald,16fjw7,fki1r4y,"Lots of places gonna start firing. 

And they won’t have it anymore",fkg3094,snailngfdhn,4puq8yhp
"medicare for all would leave everyone with a lower level of service...that is just how government works (in the us at least). seniors need the most healthcare and this scares them the most. the hyperbole thrown around was 'death panels', but the reality is rationed care, which means the necessary care may not be available when a senior needs it, or triage results in a younger person competing for the limited resource the more likely good outcome. 

Triage is a cruel mistress.",teh_dahnald,16fjw7,fki1n23,Yeah my grandma said that on the phone the other day. It stunned me a little to hear her talk so selfishly. So many think about what they get out of the deal rather than improving everyone else's lives.,fkg71vv,Upbeat-Nectarine,5fnw9twy
government spending is going to prop up the bottom.,teh_dahnald,16fjw7,fkg1jvy,"I would be shocked if it only hits 4%. Sure there is some base spending, and economic activity is shifting from some areas to others, but on my block alone, I can tick off $15,000 in Spring Break travel and spending that has been completely eliminated. In addition to that, live shows and plays are being delayed/cancelled, sports are shut down, schools are closed.  The only reason it would be only 4% is due to the majority of the impact not hitting until the last 3 weeks of the quarter.  Next quarter will be far higher than 10% unless there is a HUGE uptick.",fkfirao,betitallon13,byaro
bidets are nice. japan knows what's up,teh_dahnald,16fjw7,fkfnn69,"Agreed, but there are other methods than TP, I’m not personally going to go and rush to change to bidets.  But necessity is the mother of invention.",fkfetr4,yankee77wi,2hj59xxi
the debate with bernie is going to be absurd...and the fake DNC votes are still going to confirm Joe for the ticket.,teh_dahnald,16fjw7,fkfem9e,"Joe's gaffes are hilarious, but as time goes on and his mental state deteriorates before our eyes it is becoming sad. I wouldn't wish whatever is happening to him on anyone.",fkf63vu,DoorGunnerYoda,5a3uq4h1
the equivalent comparison would be less affected regions of italy helping those more severely hit.,teh_dahnald,16fjw7,fkfehj6,"To put into context, when Hubei was locked down (same size and population as Italy), every Chinese province was assigned to help a single city in Hubei, i.e. the entire medical resources and personnel of Guangdong province (113 million people) was dedicated to support just the city of Wuhan, Zhejiang -> Huanggang, etc.

And Hubei still racked up 3000 death in the end.",fkebi46,magic27ball,5mmniidf
hong kong cut the railroad to mainland china,teh_dahnald,16fjw7,fkfeegj,"Looks at Hong Kong, Taiwan and South Korea. 

Proactive vs. Reactive approach 

Not every situation is the same, this was preventable...",fkefhj2,steve_n_doug_boutabi,8j5vw
rationed resources is the death panel,teh_dahnald,16fjw7,fkfe4s8,Universal healthcare doesnt have death panels? At least not in the 4 countries I've lived in with socialised healthcare.,fkds1gd,newaccount42020,5l4c8uv2
"careful, they mute people who sound like trump",teh_dahnald,16fjw7,fkfdqnf,Should have worried before offshoring everything for profit.,fkf57h6,Melodic-End,535daskj
its probably possible to have both...which probably sucks a lot.,teh_dahnald,16fjw7,fkfcw01,Right!  This helps the theory that the spike in bad flu cases could be attributed to COVID-19.  I’m tired of people rolling their eyes at me over this.  I think that many of us have already had it.,fkdvw7n,fmail_delivery_man,2uv3jobp
"dude...you didn't email the picture to HR in a timely fashion. in this day and age not immediately notifying a superior, let alone not notifying law enforcement was a serious lapse in judgement. Your supervisory role was not empowered to make risk assessment decisions of the scale you are describing.",teh_dahnald,16fjw7,fkfc0i2,"> ever get to the situation

Here's where you're a little off. It didn't *become* this bad. It's always been this bad. This is our normal. Our status quo.

I was fired from my job back in October. I've been unemployed since, barely able to even get an interview. I have no health insurance, and I live alone. I honestly have no idea what to do if I get sick. I just have to hope its not serious and hope I can take care of myself. I've started meal prepping some so If I do get sick I can just microwave some hearty meals, and I've stocked up on OTC drugs that fight the 3 major symptoms. If its any worse than that, i'm kinda screwed. Luckily I'm 30, healthy with no chronic conditions, nonsmoker, and I had an annual physical right before I got fired and lost my insurance.

 It's weird but I feel lucky, a LOT of people are going to be in much, MUCH worse situations.

**Because it’s bizarre: Here’s how I got fired. I don’t know how I could verify this, but I promise it’s all true:**


I was a swing shift supervisor at an aerospace investment casting foundry with like 75 direct reports. For 8 hours every night I was the highest level in the plant. One night one of my employees told me there was graffiti in the bathroom that mentioned a bomb. I looked at it, and it was ridiculous. Clearly not real. So I took a pic to email to HR and erased it so nobody would panic. I've erased other graffiti in there that was sexually derogatory to my female employees so this wasn't weird to me. I was really busy that night, like every night, and totally forgot about the ridiculous fake bomb threat picture on my phone. Never sent it to HR. 

The next day they found more graffiti in a different bathroom, but this bomb threat was much more explicit. They evacuated the plant, all 800 people. Police and fire came. They walked through the plant with dogs but they said with all the chemicals and machinery they would NEVER be able to give us an all clear, so it was pointless. As soon as I realized why we evacuated I showed my boss the picture and told him everything. I never withheld any information. 

Long story short, there’s a series of investigations and interviews, and they end up terming me for violating a literally unwritten safety protocol. Essentially it was “poor judgement”, nevermind the fact that I was correct. I was a 5 year employee at this point with ZERO reprimands, write-ups, warnings, nothing before this. I never lied or withheld the truth. They absolutely fucked me simply because I let a picture sit on my phone for 14 hours.

Oh, and they never found who was writing the threats. 5 months later I’m still the only one that received ANY kind of punishment. And that pointless evacuation cost around $3M in throughput. Unreal.

And because I don't give AF, this was Precision Castparts Corporation, Small Structurals Business Operation, in Clackamas, Oregon. PCC is a wholly owned subsidiary of Berkshire Hathaway. John Barnes is the piece of shit GM who I know made the decision to term me. He only worked at that plant a month before this happened. He didn't even fucking know me.",fke19td,MisterStiggy,16dthu
"fema assets are freed for region reponse...portable hospitals, medicine, managed quarantine zones, etc.",teh_dahnald,16fjw7,fkfa5er,What’s the actual impact of this?? I’ve read so many comments not happy but I have no concept of the impact,fkfa271,druidpush,ijt04
"state of emergency frees up money without requiring congressional approval for appropriation (pre-appropriated money)

regional FEMA assets will be spun up and resources will be sent where they are most likely to be effective (not necessarily in most need) in each region. there are warehouses and container trucks full of portable hospitals, equipment, medicine etc in each of the FEMA districts in the country. these resources are now live.",teh_dahnald,16fjw7,fkf76l0,What does this actually mean going forward?,fkf6s26,YOUSIF_2,wxvyw
midnight shopping is the best - a lot of stores have already restocked by then,teh_dahnald,16fjw7,fkf2ave,"I went to a 24hr supermarket at 3am and grabbed the last things I need. Only a few people were shopping, much better than during the day.",fkeot23,LilNuglet,3pyv2nj9
"yes, but how much skin is left on the old balloon knot?",teh_dahnald,16fjw7,fkeketd,I can guarantee you’d never accidentally poke a finger through the blue towels.,fkcnd1i,Baltimorons,1b38wx7u
that's the problem with all bond measures. we shouldn't be borrowing money these types of expenses.,teh_dahnald,16fjw7,fkeh0pj,The main problem with the recent bond measure is that it would cost $35 billion over the life of the bond.,fkbhg5y,LoRi34600_3,57lsviis
"1,000,000 concurrent cases?",teh_dahnald,16fjw7,fkegxji,H1N1 hit a million cases in the US....,fkbnem1,electricmink,a874g
1000000 concurrent cases is unlikely...1000000 cases isn't unlikely,teh_dahnald,16fjw7,fkb25fc,"I'm hijacking a top comment to point out that **this math is inaccurate.**  

**Epidemics follow bell curves.**  They do not extrapolate linearly into the future.  See: SARS, MERS, Ebola, Wuhan CORVID-19.  

I must add a disclaimer to say that it is not impossible to see 1 million cases, but it is extremely unlikely, as mitigation actions tamp down on the growth curve and eventually reverse.  Unfortunately the bungling of testing by the current federal executive branch is a complicating factor, and may lead to the US being in much worse shape than other countries in the near term.  This does not mean the bell curve does not apply.  Already schools are shutting down, events are being cancelled or moved back like SXSW and Coachella, NBA suspended games indefinitely, etc.  

I am searching for the article I read detailing the fact of the bell curve that has all the pretty graphs of the different epidemics, but I am struggling to find it in the pile of data that I've taken in in the past few weeks.

*edit* I can't find the article with all the pretty graphs of past epidemics.  I don't have time now.  If someone does, please share it.  To give you something, here's a graph showing Wuhan and China are on the downward side of their bell curve. https://www.economist.com/graphic-detail/2020/02/12/a-ray-of-hope-in-the-coronavirus-curve",fk9y8gd,cleverlyoriginal,4b6zo
"the land is too expensive for affordable housing. In california, the house isn't the expensive part of the property. you are never going to have affordable housing under those conditions. one of the key contributors to this is the mortgage interest deduction, which incentivize people to buy more expensive properties (one's they may not have been able to afford otherwise), and helped fuel the price inflation. there are other issues as well, such as foreign investment money (which could have easily been reduced by requiring a green card as a minimum to purchase real property).",teh_dahnald,16fjw7,fkb1rzl,"It's not the taxes, it's the lack of affordable homes. That's what I've had enough of. California doesn't need any more luxury condominiums. They need affordable housing.",fk93kao,IAmAtWorkRightNow22,4h7609qr
"it highlights a fallacy of the EU. The French are still french, who have paid taxes for the french healthcare system. how you tell your own people they are SOL because you sent their resources to another country last week?",teh_dahnald,16fjw7,fk8nfzl,What point is the EU if they don't cooperate? It is beneficial for all EU nations to help contain Italy's coronavirus outbreak so Italy doesn't infect them.,fk8f3zj,Dan888888,747we0v
"and nobody is ready. i think the big quarantine in Wuhan was to build a fireline around the overwhelmed location, and allow resources to be more effectively marshalled against flareups in other parts of the country, when the still had a chance of controlling it.

Quarantines are a cruel but necessary step to control a hot zone.",teh_dahnald,16fjw7,fk8nan2,"There will be subsequent outbreaks. But If I remember correctly, initial outbreaks are almost always the most severe because it affects all of the most vulnerable people all at once. At least that's one reason, anyone able to verify that?",fk884nx,FreeMasonXV,5n2wtqr3
"i don't believe they are gone. there are reserves that can't be touched until national emergencies are declared. Fema has warehouses all over the country that haven't been touched. A major one is in Texas. they have to be sent to respond for those resources to be tapped. and they are basics like IVs, masks, etc.",teh_dahnald,16fjw7,fk8n13f,Every country has that; it’s gone; no one expected a pandemic of this scale,fk8l822,twotimesthreeequals,6gynx2t
now you know how we feel about our southern border,teh_dahnald,16fjw7,fk7zncb,"As a Canadian, I'm tired of living next to a literal shithole country that is constantly overflowing onto my shoes.",fk7y966,message_from_big_gay,5tw4sfwy
"we are all going to suffer because of this, not just the chinese people (who are ultimately responsible for their government).",teh_dahnald,16fjw7,fk7qzhf,"Nothing wrong with hating the Chinese government though for lying about it, arresting the people who spoke out and inhumanely treating those who were sick. The Chinese people suffered for all these things.",fk7n3q7,Light151,13wzkc
"https://www.ghsindex.org/country/united-states/

it even points out that our lowest score is in response because we don't exercise response plans, but overall we are #1

probably because our mixed market health system has excess capacity built in because people don't like to wait for services, and we don't have a single payer government rationing access to care",teh_dahnald,16fjw7,fk7l3rz,Was that before or after the cuts to the CDC pandemic response teams?,fk7760v,aretasdaemon,dq74j
"the whole country is going to be sick.

it does suck to work when you are sick...that's probably a critical job where they will still have to report.",teh_dahnald,16fjw7,fk6dkvp,3 different power plants are at risk for having an outbreak,fk67xev,hightiedye,49ylk
a continuation is a new cast in new character rolls in the same universe,teh_dahnald,16fjw7,fk5hjcc,"Unfortunately a lot of the cast members are getting on in age now. There's not a chance we'd ever see R.D.A ever reprise his role as O'Neill.

It is possible we could see Ben Browder, Michael Shanks, Claudia Black and Amanda Tapping come back to reprise their roles, although going by what Michael said at last year's London ComicCon, it seems like he's busy doing some stuff for Netflix or something at the moment.",fk4t9z3,Els236,e6kkd
if you've seen his tweets you would know that steward did go off the deep end,teh_dahnald,16fjw7,fk5hhe3,"Just like Avery Brooks? 

J/k

But what gets me is Stewert said in an interview he had been approached and said no that he would only do it of the script was perfect and felt right.",fk5fhli,Fishy1701,zuuth
that makes me think you've never had the violent shits that come with some illnesses.,teh_dahnald,16fjw7,fk5h5ic,People are going to starve to death in their homes surrounded by toilet paper.  At least they will have clean bums.,fk4ohv1,TomSurman,mf7ii
like they didn't dissect them to see how they could survive...scientists are big brain thinkers,teh_dahnald,16fjw7,fk5fofq,You should ask the worm.,fk5avi0,PacoCrazyfoot,iv0cv
"we don't know what the real numbers are because tests haven't been done. it could be 50,000. you are just pulling the 5k from your ass",teh_dahnald,16fjw7,fk50hm6,"The chart outside of China shows a logistic curve pattern in the exponential growth phase with a logarithmic progression every 16 days. That means the disease is propagating at a rate that increases on an order of magnitude each 16 days. That means:

1 to 10 cases in 16 days.

10 to 100 cases in 16 days.

100 to 1,000 cases in 16 days.

1,000 to 10,000 in 16 days.

10,000 to 100,0000 in 16 days.

100,000 to 1,000,000 in 16 days. 

The reported cases in the US is at 605, though the true numbers may be closer to 5,000 since only a handful of tests have been performed.

Assuming 605, at this growth rate there will be 6,000 by end of March, 60,000 by mid April, 600,000 by late April, and 6,000,000 by mid May. 

This is the same growth we've seen in other virus events, such as aids. We know how these progress. The evidence shows we're still growing exponentially and have not yet reached the inflection point when growth decays. 

So, yeah. Keep telling yourself it's fear-mongering.",fk45b5d,BeaversAndButtholes,5odhqixl
 i didn't catch that.,teh_dahnald,16fjw7,fk4zp3o,It is exponential. It is a logarithmic scale on the y axis. So a straight line means exponential growth. Though the exponent is less than for the other countries.,fk4zkgi,Scraaty84,ir054
you forgot about progressive tax brackets,teh_dahnald,16fjw7,fk4srjn,"Let's put this into perspective. $1 million = $100\*10,000. Which means you need to masturbate 10,000 times to equal it, which, if you do it once a day, means 27 years. Now, if this was active from puberty, I think it's probably safe to say you'd far surpass 1 million. But if you're 25? You're probably past your peak masturbation age, and you're probably having sex too. So let's say you masturbate 2 times every 3 days. That already puts you past 40 years to hit 10,000, which, if you're 25, means over 65. Already looking like 1mil is smarter.   


**BUT** we haven't even factored in investments! With 1 million dollars? Hire a good investor and invest. I'm certainly not the most financially informed, but it's clear that you'll far surpass whatever amount you'll get from $100 dollars per jerk-off.",fk44lec,The78thDoctor,f5qmu
that is how all mass media works,teh_dahnald,16fjw7,fk4s6tz,"Please never use Bild Zeitung as a source for anything, their businessplan is basically making fucktons of money by spreading panic about literally anything, by all so slightly changing headlines or missquoting. Also huuge right-wing influences.

Edit: Thanks for everyone who clarified that other sources also now mentioned it, my point was more that in general, the Bild Zeitung can not be trusted as a good source for actual news. The clickbaiting in this article alone is insane.",fk4j9kt,Jarrow_On,ovjqcsb
"do you have any insight as to why the compact Tacoma went away around the same time?

everything on a full size truck is so much more expensive. especially the tires, and i live somewhere where you really need summer/rain and winter/ice tire sets.",teh_dahnald,16fjw7,fk4rx0e,"Now that they're mid-size models, the Colorado and Ranger have better engines that are both powerful and fuel-efficient, but they still don't make as much sense for most American buyers because full-size pickups have so many rebates, gas is still fairly inexpensive, and in most of the country, space is not an issue. So it ends up being the only reason to get a mid-size pickup is if you expressly want that size of vehicle.",fk4r0zp,Drzhivago138,lcrgx
how are they managing the non-exponential curve. did they quarantine everyone who looked at the cruise ship?,teh_dahnald,16fjw7,fk4rtvv,Japan,fk4r0ok,Dylan0734,166t3tv0
how does that impact people with high deductible insurance plans. they have to pay the full cost of the visit...not just a copay.,teh_dahnald,16fjw7,fk4rjc0,https://www.google.com/amp/s/thehill.com/policy/healthcare/486816-pence-major-health-insurers-have-agreed-to-waive-copays-for-coronavirus%3famp,fk4rcat,sdenni,16m5i0
