child_body,child_screen_name,child_user_id,child_tweet_id,parent_body,parent_tweet_id,parent_screen_name,parent_user_id
"Same. We played at an abandoned stockyards owned by a friends parents right between a tractor selling place about 30ft off the road. Cars would drive by all day with us standing out there next to an open business and never any problems. Almost too much so as people going to the tractor dealership would park in our lot and we're all just like ""Uhmm...you're car's going to get shot up."" lol.   


I still airsoft today but I treat all my guns the same as I treat my real ones. They stay in the cases until I'm on the field to go play. (which is a bitch with my PKM lol. Not an easy gun to find a hard case for)",TheRedFlagFox,tqllw,fje4bds,When we where kids we played airsoft in full tactical gear and camouflage. Took the orange tips off our guns and had silencers and everything. Little operators basically. We all talked about starting it up again in our mid-twenties and decided we’d all wind up dead or in jail.,fjdi0vh,Buckerdoog,uhfp3
Fair enough. I don't know if we still are but I do know we were the highest per capita at least a few years ago.,TheRedFlagFox,tqllw,fje3nbc,Should've clarified per capita. My mistake.,fje3atr,Belckan,7an0u
"Awww, did you lose the debate so you have to resort to really shitty insults? Poor baby. Do you need a safe space? Maybe a nap? Lmfao cry harder commie.",TheRedFlagFox,tqllw,fje2u2h,If you bootlick hard enough Jeff Bezos might give you a free month of Amazon prime,fje2l8l,Kehalu,4cv8y8e1
"You can't prescribe blame to a system when we see those same traits in other systems. You can't say killing people for land is a capitalist thing to do when it happens in literally every other system. 

Your refutation is disingenuous to the context at best.",TheRedFlagFox,tqllw,fje21ij,"Right, any criticism leveled against capitalism has to be met with criticism against communism. It's not possible to have a system that doesn't kill for capitalism or killing for communism.",fje1umm,TheCaspica,rci6k
"% of global CO2 emissions by country. China: 29.34%, USA: 13.77%. We aren't even close to being the largest contributor. Stop lying.",TheRedFlagFox,tqllw,fje1ui8,"Reducing emmissions is possible while still being the largest contributor, which is what the US is. The country isnt even on the Paris Accords and has the biggest most car and truck based economy.",fje0k0o,Belckan,7an0u
"That is an outright lie, with the US leading the world in reducing our carbon emissions while not even coming anywhere close to the carbon output of China and India, but god forbid you tell the truth when you can bash the US instead.",TheRedFlagFox,tqllw,fje01my,"Brasil is not even close in contribution towards global warming. The first offender is still the US but ""we must protect the amazon"" in foreign sovreign land because you didn't want to pay for it to stay protected.",fjdyyg7,Belckan,7an0u
"Yeah, because Stalin never killed people to take over their land. But if he did they'd probably give it a cool name, like the Holodomor or something.

And could you imagine if Mao killed 64 million people trying to take their land....oh wait.",TheRedFlagFox,tqllw,fjdzthy,"> The aim, they said, was to terrify locals, take over land they lived on and extract valuable natural resources. 

Capitalism 101",fjdv5jx,TotalyNotANeoMarxist,vkya7jv
No. Fight to the very bitter end. If we leave they win. If we make them remove us they're publishers and we can use this as the most blatant example to get their protections removed. HOLD. THE. LINE,TheRedFlagFox,tqllw,fiv8j4v,Yeah let it go out with its dignity,fiv0ghl,Redditthedog,1ykfuumh
What is the canary? I checked the side and didn't see anything obvious to keep my eye on.,TheRedFlagFox,tqllw,fiv7kd0,"It is tied to thedonald.win, so OUR mods have access to post the notice this sub is subverted, when it happens.",fiv2zsc,XCorneliusX,72ybo
"No. If we make them remove us, it'll be a massive red flag to the world that this is a publisher not a platform. And then we can use this as evidence that they need their protection removed. Then just make sock accounts to post copyrighted material and report yourself to the owner so reddit gets sued out of existence. It may not work, but being a massive thorn in their side and making them lash out more and more obviously will turn the independents against them. If we shut it down they win. If we make them shut us down we win.",TheRedFlagFox,tqllw,fiv7180,Set it permanently  private with a redirect message to thedonald. like was done before. Just rip the band-aid off.,fiv1xuq,mugatucrazypills,p4ue2
"No. Make them shut us down. Then take all of our energy and make a HUGE push to have them labeled a publisher. Watch them get their protection removed, then make tons of fake accounts to post copyrighted material, using your other fake accounts to report that copyrighted material to the owners to get Reddit sued out of existence. It is the way",TheRedFlagFox,tqllw,fiv6o7w,What if we just shut it down ourselves?,fiv0mcs,isthisreallife2016,xk9t2
"It's not an ideology, it's a cult.",TheRedFlagFox,tqllw,fiv6he2,"It gets eviscerated because it has no ideas. It shouldn't even be considered an idealogy, its devoid of thought, animalistic.",fiv2wqj,BFG9THOUSAND,6rkxmhf
"You can't get single day temperature readings from an ice core. You get broad at best seasonal or yearly averages. You aren't going to be able to tell what the temp was on a single day. 

Did you do any research into how ice cores work before spewing that ignorance? Don't bother answering. I already know you didn't.",TheRedFlagFox,tqllw,fiv4fql,"wait..you claim to be, or work with, 'climate scientists' but you think the only data we have is from things we've observed in person?  Ever hear of ice cores for starters?

Do you not believe in dinosaurs because no one actually saw them?",fiu3ugm,pericles123,i75s3
Well that and just squeezing off a few rounds in a neighborhood like he suggested is a felony. Even if someone is at your front door you can't just fire indiscriminately into the air lol.,TheRedFlagFox,tqllw,fiv470b,Not to mention it's generally a bad idea to completely empty your firearm before even seeing a threat. After you blast your two rounds in the air you're holding a club.,fiu8vpn,texag93,hebnl
It's literally a reference to horse mounted cavalry. He combined several quotes from several different movies and slightly modified it.,TheRedFlagFox,tqllw,fiv3tr0,"No one seems to know.

My best guess would be a pretender, or a poor substitute for a real soldier; as a real soldier would have a war-horse...

...maybe?

Dunno, I’m not the senile octogenarian running for president.",fiuyefs,LifeWin,rkhlv
There's like 1.5% of the delegates counted right now. Not exactly a valid way to measure it. Though the polls have been so horridly wrong there really isn't a good way to tell atm.,TheRedFlagFox,tqllw,fiv2lcd,"What? 

Biden is currently in a pretty distant 3rd behind Bernie and Pete. Meanwhile Bloomberg is tied for, lemme check my notes here... dead fucking last. 

Bloomberg current has a delegate count equal to you and me. That is, none. At all.",fiulgcl,Lemesplain,15o9k1
I literally fucking said I believe humans are causing climate change and that the climate is changing. I'm just saying this moronic fear mongering from people who clearly don't know what they're talking about is moronic. This temperature reading means nothing in climate change terms. Holy shit how stupid are you people.,TheRedFlagFox,tqllw,fity1r8,"You clearly didn't look at the links above, which show that not only is climate changing, but humans are causing it.",fir7872,ILikeNeurons,9cki6
"Oh yes. Please tell me how we have temperature data from Antarctica going back more than 100 years when the first scientific outpost that started to record temperature data wasn't established until 1956. Please, I'd love to know how we have data from before the date we started to collect data. We didn't even go there until 1909. So humans had barely set foot on the place 100 years ago. 

So you're just an absolute liar and I have no reason to believe anything else you say.",TheRedFlagFox,tqllw,fitxx57,Apparently not - are you just going to ignore all the trends and data we can see- in records going back further than just your '100 years'?,firkhsa,pericles123,i75s3
"Where did I say the climate wasn't changing? The climate is always and has always been changing. And there is reason to believe humans are involved. But this isn't related to climate change. It isn't something to be worried about. And it doesn't justify the alarmism being presented here. 

It's an outlier that we know has occurred in the past (1982) and our record (Aka sample size) is pitiful in a climate aspect. You're talking about the warmest day in around 100 years or so, which means nothing to the climate that acts in cycles of millions of years or more. But keep sending a bunch of links that have nothing to do with the topic at hand and pretend like you know what you're talking about (you don't)",TheRedFlagFox,tqllw,fir5fp5,"Some of us understand it better than others. 

http://howglobalwarmingworks.org/

https://climate.nasa.gov/evidence/

https://earthobservatory.nasa.gov/blogs/climateqa/wp-content/uploads/sites/3/2010/05/natural_anthropogenic_models_narrow.png

http://dels.nas.edu/resources/static-assets/exec-office-other/climate-change-full.pdf

https://climate.nasa.gov/scientific-consensus/",fioghq5,ILikeNeurons,9cki6
"I'm literally a scientist who works with satellites that monitor the climate and other such things such as the Ozone (I was on the project that produced the data showing the ozone is healing). So I'm going to hazard I understand it a lot better than you do. 

This is alarmism, plain and simple. It's the ""Warmest day on record"" on a record that is less than 100 years old, on a planet that experiences changes on a scale of millions of years. That is like saying ""it's the hottest minute since noon today"". That means literally nothing in the grand scheme of things. Especially when it's an outlier result not an obvious trend, which we can see by the last warmest being followed immediately by an extremely cold winter. 

But yeah. I don't know what I'm talking about right?",TheRedFlagFox,tqllw,fir534o,"I don't think you understand science very well, but nothing is going to change your mind, so it doesn't matter",fiodi5o,pericles123,i75s3
"The police when they show up because the nosy old person across the street called the cops on you. 

What you carry while Urbex'ing is WILDLY important because if you do it for any amount of time you WILL have the police show up. And if you're smart you'll just comply, explain what you were doing, and they'll let you off with a warning. If you're an idiot and have thieves tools like lock picks or pry bars, spray paint, or a gun, you are def going to jail.",TheRedFlagFox,tqllw,fiocx8d,"Still better then being eaten by a monster or attacked by a crazy person.

If the building is abandoned, who's going to find out?",fioa316,hohenheim-of-light,1704if
"Their only source is ""A senior whitehouse official"" or something of the nature. Always an unnamed anonymous source with no backing at all.   


That right there tells you this story is complete fabricated bullshit.",TheRedFlagFox,tqllw,fio93zn,"\> not like anyone is going to investigate or check up 

This is why I now assume any headline with ""Trump"" in it as false by default.  Only if I have time to investigate a story do I consider it possibly true.",fio4tzg,spaceman_spiffy,783gu
"Gotta agree, if anyone it's probably going to be Jr. They're already asking him if he's planning to run on Fox News. He's already getting pressure to run and we have 5 years yet. A lot can change, but I do hope we get him next. He'll be awesome for guns.",TheRedFlagFox,tqllw,fio5r0i,Trump Junior? im Thinking Ivanka.,finwyad,HotSouper,b6mkh
I'll be excessive. You be dead. See which one of us gets the last laugh.,TheRedFlagFox,tqllw,fio2u8g,That doesn't mean normal people should walk around in gasmask all day long though. It's very excessive,fio24ws,CarrotCowboy13,4xmju5eh
"Basically it triggers your nervous system into believing you are in a high stress situation. Keep in mind your nervous system and brain basically operate on low voltage electrical currents. If the air has a low voltage electrical current that is significantly more powerful than that of your internal circuitry it can cause you to have a feeling of unease or even mild fear and panic. 

[This](https://www.defendershield.com/emf-exposure-depression-anxiety-mental-health-issues) and [this](https://www.sciencedirect.com/science/article/pii/S0891061815000599) are pretty detailed readings of the possible effects of EMF exposure. Which if powerful enough and prolonged enough (such as living next to a high voltage line) can cause severe depression.",TheRedFlagFox,tqllw,fio1ggg,Whats the correlation between electromagnetic fields and feeling like you're being watched?,fio08n0,Dildo_Gagginss,kmhwh
"Im aware. But being a medical professional doesn't suddenly make you less immune to a disease no one has any immunity to. 

A medical worker will never face a contagion that you walking down the street wont be exposed to first.",TheRedFlagFox,tqllw,fio0tiw,We aren't talking about medical personnel we're talking about normal people walking the streets.,finuako,CarrotCowboy13,4xmju5eh
"Cant legally carry a gun or use it while breaking and entering. I'm a big CCW fan and card holder, but all you'll do carrying in a place like that is get into more trouble. And if god forbid you use it, you pretty much have 0 chance of being found innocent for it.

Carry a decent folding knife as a deterent and all purpose tool. You wont get charged with it and they're more useful and less burdensome in those environments, especially since you often crawl through tight spaces.",TheRedFlagFox,tqllw,finyl5q,Do it in the United States where it's lawful to carry guns with you.  Problem solved?,finlmrk,hohenheim-of-light,1704if
"Cant legally carry a gun or use it while breaking and entering. I'm a big CCW fan and card holder, but all you'll do carrying in a place like that is get into more trouble. And if god forbid you use it, you pretty much have 0 chance of being found innocent for it.   


Carry a decent folding knife as a deterent and all purpose tool. You wont get charged with it and they're more useful and less burdensome in those environments, especially since you often crawl through tight spaces.",TheRedFlagFox,tqllw,finyjeu,"Carry a firearm, 9mm or .45 pistol. Never know when you’ll need it until you don’t have it",finppm9,Brotherofsteel666,10zget
"Honestly this might help. I do Urbex and ghost hunting, if you can get a cheap EMF detector and take it to some of those more scary areas. A lot of early hospitals and buildings like that needed high voltage electricity, but it was VERY poorly insulated. So if the place has any live wires at all they are probably emitting extremely high electromagnetic fields which will cause paranoia and that feeling of being watched.   


May help put your mind at ease.",TheRedFlagFox,tqllw,finy9rq,"I'm a security officer in a hospital that was built in 1908 and had just built addition after addition over the years, but the original hospital is over 100 years old.

I'm 6 foot tall, 200 lbs of power lifting, former machine gunner in the marines, guy, and I dont like walking through some of the areas I need to to check things on the night shift. I always have a ""what's behind me""/""what's in that doorway I just flashed this light down down"" feeling.

Hospitals are creepy af. And the morgue is one of the least creepy because it's always well lit and easy to get away with clear exits lol",finjyp3,Shorzey,35m1pnr3
"Hmm. Idk. My current advice I read from Karen on facebook is to light a match so it burns up all the harmful gas, then use essential oils to fix the leak.",TheRedFlagFox,tqllw,finwffv,"Fantastic job! And thankfully you all got out fine!

Just some advice, please check with your gas company or your local firestation on what their suggested actions are if you suspect a gas leak.

I'm only sharing my old fire company's advice and your local station may have differing advice.

We advised to NOT open doors or windows. To immediately vacate the building and call emergency services ones safely outside.  The reasoning for this is gases have an upper and lower explosive limit in which they may combust.  Meaning if the air to gas ratio falls above or below those limits, they will not combust.  Opening the windows and doors may introduce oxygen needed to fall inside those limits.  Plus spending extra time running around opening windows and doors keeps you in a VERY dangerous situation for much longer than you need to be.  With out a meter, you do not know what the gas to air ratio is and if some automated electrical system like the compressor on the fridge or a light switch will provide the spark to detonate the mixture. 

Again this was only my department's SOP but we prefered everyone to vacate immediately and let us make entry.  In fact the circumstances are so volatile and unknown during those calls, our procedure was to kit fully up with our breathing systems on outside.  stand outside the closed front door, and take a reading, depening on the reading, we'd open the door and take another reading, depending on that reading then wed make entry, (depending on the reading leave the door open or closed behind us.) take another reading in the first room and then determine if conditions favored a room by room search for the leak, or if they were too dangerous WE'D evacuate and attempt to vent the house from the outside.

Again though, thank goodness you recognized the situation and saved your grandmother!",fin63vy,Iquitsmokingtoday,rcp01
"A: They don't want it kept from us. It's been reported on extensively (And the story has already been walked back because what as leaked was wildly misleading and over exaggerated (even CNN has said that). So at this point he didn't want people spreading misinformation. And why would anyone want to prevent their political opponents from getting a wildly exaggerated statement you know they'll immediately leak and use to smear you right before an election? 

B: That's never been proven. It's not even been alleged. The worst case scenario from 2016 and this election is that Russia bought some facebook ads (for both candidates) and organized a Trump rally and Clinton rally across the street from eachother on the same day. I'm a cyber security focused software engineer and NOTHING anywhere suggests a single vote was changed, or even that a single voting system was in danger of being compromised. Voting machines aren't network capable, you'd have to physically go to the machine and plug into it to compromise it. And you'd have to do that to every single machine you wanted compromised. 

C: This is common practice for pretty much every large nation. Do I like us messing with Russian elections? No. Does it have a major impact? No, not really. Even though Obama put the US government behind defeating Netanyahu (https://thehill.com/policy/international/236565-netanyahu-pollster-obama-role-in-election-larger-than-reported) he still won. So even with the biggest nation in the world openly working against you in tiny little allie Israel it didn't work. 

So you're basically advocating for an idealist position where competing nations don't participate in espionage and such against eachother. From 2016 we know all Russia wants to do is sew chaos and divide in the US to destabilize us. So the better question is why are we using this as a political point against Trump when we openly know that's exactly what the Russians want us to do. 

Also, lets not ignore that the Clinton campaign actively worked with Ukraine in the 2016 election. So we can't pretend like Democrats are opposed to foreign involvement in elections. They just care when it's foreign intervention against them. (Or gives them a way to claim deligitimization of their political opponent.)",TheRedFlagFox,tqllw,finvskw,"I'm not going to attack you, but I have a few questions about your statements.

A: If another country was going to ""meddle"" in our elections, WHY (double WHY) would our leaders want that kept from us?

B: If our election advertising and tallying methods were proven beyond a reasonable doubt to be vulnerable, why would ANYONE vote against securing those things?

C: I know some nations work like this, but I have not heard this about Obama. I don't like the implications, and will definitely look into it. BUT, even if true, does this statement seriously give Russia, Trump, or whoever else a free pass to help shape our elections?",fibmn4n,whitenobody,9fdcg
"Uhm. Go read what the CDC is advising for medical personnel when dealing with this. It's an N95 resperator and face shield. A gas mask will be more than effective enough and a gas mask in combination with a Hazmat suit properly sealed and gloves is the only way to really protect yourself. 

The virus is airborne and can spread through your eyes. Washing your hands will do absolutely nothing.",TheRedFlagFox,tqllw,fint2dt,Even a full gasmask won't really be that great anyway. There's just no need to wear a mask at all just wash your hands and don't touch your face.,fibodge,CarrotCowboy13,4xmju5eh
This. I think he's kind of mixing up the TSA you'll encounter on a Domestic flight with Customs and Border Protection that you'll encounter coming in internationally.,TheRedFlagFox,tqllw,fib8q30,"TSA is not a law enforcement agency.  They shouldn't be concerned with what you're carrying as long as it's not risk factor for a flight.  In practice, they may alert some other agency (DEA, FBI, Customs, etc) if they think they see something suspicious.",fib7391,warlocktx,7d7xa
"Most police dogs in the US aren't being trained to hit on weed anymore because of the growing legalization. It's wasted training that will soon result in a ton of false positives (and really would already since that dog would certainly smell it on your bag still if you smoked in your house a week ago, and frankly they don't care about it enough to deal with that level of false positives.",TheRedFlagFox,tqllw,fib8lxb,"Dogs are looking for explosives and guns as well. Airport security care very little about drugs. If they find it theyll turn it over to local authorities unless its huge amounts that's obviously for distribution but they are looking dangerous substances. 

I just walked through a very major airport in the us with a bag full of edibles and the dogs were sniffing every one in line 2 x 2 and I didnt get a single wayward sniff.",fib6vjg,EvilExFight,1j47kyb6
"I'm not going to push Jr because I like his dad. I'm going to push Jr because I think he's honestly significantly better than his dad. He's EXTREMELY Pro-gun and actually has a good touch on the culture war and the real world. Go and watch some of his interviews. If we were just voting for him because of his dad you'd have a good point. But I honestly really like a lot of his positions. 

And honestly, lets just play devils advocate here since I doubt any sudden stars are going to shoot up in the Republican party soon. Who from the 2016 Republican primary would be less swampy than Jr and has a real chance? I want to say Rand Paul, but I don't think he has Republican support. Maybe Ted Cruz? But he was really garbage until Trump put a boot up his ass. And frankly I don't trust any of them to not regress to swamp monsters once Trump is gone.",TheRedFlagFox,tqllw,fib70yp,"Trying to elect his whole family is very swamplike. I'd rather find new people to elect that have character and are fit for office, not just elect Jr because we like his father. 

Maybe if Jr runs for a lower office and impresses there is change my mind, but right now he is just like any private citizen to me. I'm not gonna try to push him as president just because I like his dad, and his accomplishments are nowhere close to his father.",fiaz8bk,DraconianDebate,6d1it
Wrong. It won't stop you from getting the virus at all. Not even a tiny bit. Even an n95 respirator wont help because you can get infected just as easily through the eyes. You need a full gas mask to keep you from catching Coronavirus.,TheRedFlagFox,tqllw,fib68ys,"nah, it's so that they don't contract the virus in the first place, cause you get it if you breathe it or something",fianv35,Echo64342,4dt4kl7b
"Wrong. It's more like ballards to a virus. It's wide open. It looks like a door to us, but viruses are absolutely tiny. So tiny even the emergency water filters you can buy don't work on viruses, and those are way way tighter than those little masks are.   


With coronavirus you literally need a full blown gas mask to be protected. That mask only keeps you from spreading your spit everywhere. Your breath will still carry the virus, and it will still escape that mask.",TheRedFlagFox,tqllw,fib64ei,"It actually works both ways. It's a physical barrier so it works like a door, it prevents people from coming but it also prevents you from going outside. It's not hard to understand.",fib3uft,mel0nwarrior,4286x4cs
Actually not from corona. Coronavirus can get in through the eyes as well just as easily as nose and mouth. So you need a full fledged gas mask to really protect you from that.,TheRedFlagFox,tqllw,fib5wmn,"Not if it's a respirator (N95 or better recommended).  That protects the wearer only (if it has a valve) and only if it seals against the face well.

I assume most/all of the people I see wearing masks at the airport either have allergies, don't want to get sick and/or are immuno-compromised.

I very much doubt that the people we see out and about wearing masks are sick.",fiao38n,fractalbrains,yaqbe
"It really only works one way. It keeps spit from leaving the infected mouth but that is about it. They offer absolutely 0 protection to catching the virus. Those masks are WAY too porous. Even most emergency water filters aren't fine enough to filter out a virus, those little masks certainly aren't going to.",TheRedFlagFox,tqllw,fib5rfi,"They work both ways, but at least in Japan people really do wear them if they themselves are sick and don't want to infect others. It's quite considerate.

It's also more effective if the sick person wears it, instead of the healthy person, seeing how viruses can also stick to your hair and clothes if a sick person coughed at you, and infect you later.",fiak5al,DerManiacC,q1611
Can they do second opinions there? I was diagnosed with IBS but before they did the colonoscopy they weren't sure if it was colitus or IBS and were leaning towards colitus and not once did anyone ever mention needing to remove my intestines. From what my doctor was telling me it can be fairly well treated with medication and diet.,TheRedFlagFox,tqllw,fiawtox,"That sounds so ideal compared to what we have. A sibling of mine was diagnosed with Colitus last year, took them 6 hours to get her in a room (even then it took my mum having a shout to make it happen). Then they stuck her with needles and random meds for months just to see what happened, then after half a year did 1 test and concluded, ‘yeah, her large intestine needs to come out’.

So instead of doing that 1 test firsthand and getting things sorted, they essentially tortured her for nearly a year, needing a psychologist for her after due to the mental trauma, then straight up said that she needs a whole organ removed, still pending an operation day.

Not to mention as well the barely-speaking-english doctors and nurses whom of which 90% of them seem to read off a script and don’t actuallly seem to give a damn.

It’s a joke here.",fiala76,DopaLean,8iu5u
One America News Network (OANN) is a pretty great one.,TheRedFlagFox,tqllw,fiaub7p,"my fav show is 'the five' and that fucking bitch is in there now, whyyy?? is there a substitute for fox news?",fianqf1,keehu,7ojpb5h
"Not a fancy breed, some kind of mutt for sure. But a very beautiful dog. You'd be surprised what you can find at rescue shelters or the pound.",TheRedFlagFox,tqllw,fiau4ig,How can this dog be a rescue? Isn't it a fancy breed and also has the two different eyes?,fiaqbtl,IncendiaryIdea,ve7tww1
"I'd say its more of a culture and upbringing thing than how you look at the car. My car to me is a tool, it just moves me from point A to point B. I don't really care how it looks, I don't care if its older or what color it is. Ect. But I take GOOD care of my car mechanically and never touch my phone while driving. But that comes from growing up in a farming community where tractors and things are just tools. 

I think people who have lived a more disposable items type of lifestyle is more likely to do that. Oh you broke your phone, just buy a new one. Tv broke, buy a new one. We never had that when I was growing up. I remember replacing sound cards and PSUs on 300 dollar desktop computers back in the day because we weren't going to buy a new one so I just had to learn to fix it or we wouldn't have one anymore.",TheRedFlagFox,tqllw,fiarlyl,"I sadly have to agree with this. I noticed that prople who view cars as nothing more than transportation are really bad at both not caring for their vehicle, and using their phones.   

So if someone views cars as: A. Necessary for life, and B. Just a form of transportation, then they are more likely to use a phone while driving. 

I see a huge difference at car meets. There are significantly fewer people on their phones at a car meet or a bike night. Of course there are still morons, but I'd argue in the real world it's 85% useage vs 35% at a car meet.",fiaq9d3,Sara_Matthiasdottir,164pflyf
"I've also noticed women are way more likely to be on their phones while driving. Men absolutely do it to, but I see so many women who are driving and not even bothering to look up at the road. Its terrifying.",TheRedFlagFox,tqllw,fiapsua,"I'm noticed that guys are more likely to be stupid while girls are more likely to be ignorant.  

A guy will will make a U-turn knowing it's wrong but doesn't care.   

A girl will make a U-turn because it's the easiest solution and she doesn't know it's wrong.",fiagutl,Sara_Matthiasdottir,164pflyf
"I live right down the road from an airforce base with a good curve in the road there. I kid you not I keep a record because it's an inside joke between me and my dad, people will go off the road and take out that fence 2-3 times a month. It's not a super busy road. It's not an aggressive curve, and it's sloped to make it easier to stay on. People just can't drive. If we get any rain or snow someone will go through that fence.",TheRedFlagFox,tqllw,fiapm62,"The drivers in my city are absolutely terrible.  They run through red lights while cops sit at the front of the other direction of traffic and do nothing. They crash into random shit even in perfect weather conditions. 

When it rains or snows I avoid driving, not because I'm afraid I'll be unable to handle it, but because I know that other drivers won't.",fiadjru,barnesandnobles,556d4
"Not a drive through, a drive-in theater. Basically a movie theater except its just a massive screen outside with a parking lot in front of it, so you drive your car in and park facing the screen, then watch the movies from your car. So if your headlights are on it'd be like shining a flashlight at the backs of the people in front of you in a movie theater. Doesn't make you real popular.",TheRedFlagFox,tqllw,fiapfri,"Why do you have to turn off your headlights in a drive through? I'm from Europe, please explain...",fiamb6b,vlindervlieg,12oc9n
Should be pretty easy since Pontiac doesn't exist anymore lol,TheRedFlagFox,tqllw,fiap6o6,Not that I was calling you out in the age of the internet.  Just wanted to know which company to avoid buying from in the future.  That is insane.,fiam0y6,itsthreeamyo,16vuy0
So you'd rather turn control back over to the swamp? Why would you intentionally ignore someone who would be a fantastic president that actually represents us for another Repug who will sell out and buckle to the woke left the second they get an ounce of pressure?,TheRedFlagFox,tqllw,fiaogmw,"NO MORE DYNASTIES. We don't need a new royal family in America, we already have the Kennedys, Bushes and Clintons.",fia7xvt,DraconianDebate,6d1it
"Oh yeah, she didn't make any bias posts at all right. Not a single bias thing was said. And you realize you have to disclose political bias and case bias during jury selection right? So she not only broke the rules of impartiality and 100% caused a mistrial (it's still in review, so this sentence is going to be overturned anyways, and this is the first case of a judge sentencing someone while the verdict is in review as far as I know), but she also perjured herself by claiming to have no political or other biases on the case. 

https://twitter.com/Shem_Infinite/status/1227819651687690240",TheRedFlagFox,tqllw,fiabmvz,">This is going to get tossed out in 2 seconds of appeal. The Jury foreman was a RABID anti-Trump leftist who was posting anti-Roger Stone stuff to their twitter before and during the trial. That is a HUGE breach of Justice and this should have been ruled a mistrial that instant. In fact they're already reviewing this to be a re-trial before it even gets to appeals.

Keep begging.  You do know that if that is true the Defense would have brought that up before now right?

>Add to that the Judge made blatantly political and anti-Trump statements in sentencing and this whole thing is proven to be a complete farce. The fact anyone would cheer this on as anything but a complete disgrace to justice just shows how rabidly tribal the Anti-Trump people are.


Trump Supporters.... pathetic human beings who still can’t handle the truth.

The Judge said Stone was being prosecuted for covering up for the President, not standing up for him.  That isn’t anti-Trump.  No matter how much you wish it was


>Also, why are McCabe, Comey, Clinton, and the rest not going to jail? They literally commit the exact same crime.

>Anyone cheering this on should be absolutely ashamed of themselves.

This isn’t TD, sir. Go whine somewhere else


Edit: https://mobile.twitter.com/peterbakernyt/status/1230586671491698699


Edit: Also, Stone was pushing “memes” in an attempt to intimidate the judge. You got to love how Trump Supporters do not care about human lives",fi86fpk,LordZeroRoze,510z49vh
"Lmfao, he didn't try to intimidate anyone and the person who they claimed he was trying to intimidate came out and said he wasn't. That's how much of a fucking liar you are. 

And it's 5000% true, we have the pictures you dumb lying sack of shit. Just because everyone else here believes your lies, doesn't mean I have to. 

https://www.cnbc.com/2020/02/13/roger-stone-lawyers-evaluating-trump-posts-by-jury-forewoman.html",TheRedFlagFox,tqllw,fiab6kt,">This is going to get tossed out in 2 seconds of appeal. The Jury foreman was a RABID anti-Trump leftist who was posting anti-Roger Stone stuff to their twitter before and during the trial. That is a HUGE breach of Justice and this should have been ruled a mistrial that instant. In fact they're already reviewing this to be a re-trial before it even gets to appeals.

Keep begging.  You do know that if that is true the Defense would have brought that up before now right?

>Add to that the Judge made blatantly political and anti-Trump statements in sentencing and this whole thing is proven to be a complete farce. The fact anyone would cheer this on as anything but a complete disgrace to justice just shows how rabidly tribal the Anti-Trump people are.


Trump Supporters.... pathetic human beings who still can’t handle the truth.

The Judge said Stone was being prosecuted for covering up for the President, not standing up for him.  That isn’t anti-Trump.  No matter how much you wish it was


>Also, why are McCabe, Comey, Clinton, and the rest not going to jail? They literally commit the exact same crime.

>Anyone cheering this on should be absolutely ashamed of themselves.

This isn’t TD, sir. Go whine somewhere else


Edit: https://mobile.twitter.com/peterbakernyt/status/1230586671491698699


Edit: Also, Stone was pushing “memes” in an attempt to intimidate the judge. You got to love how Trump Supporters do not care about human lives",fi86fpk,LordZeroRoze,510z49vh
Not to be mean but a baseball bat is a terrible home defense weapon. Anything you have to swing isn't good in a fight in confined spaces (hence why daggers are thrust weapons). You wont have the room to actually swing it in your house and if you do the attacker just needs to get inside of the swing radius and the bat becomes 100% useless.,TheRedFlagFox,tqllw,fi84rax,Thats why i keep a frickin baseball bat. If it seems fishy i am ready to smash.,fi6l8t0,piszkavas,brs0biy
We had someone break into a house here when I was in highschool and was mauled to death by two rotties. Yeah they don't like dealing with dogs. Especially big dogs because they are a real threat.,TheRedFlagFox,tqllw,fi84lz3,"What about hearing a dog bark? I spend a lot of time at home alone and this is a bit of a worry of mine, does a dog, especially one that sounds big and scary turn them off?",fi6j9hv,hapylittlepupppy,1536ly
As the 14 year Chief of the Cyber Police you are spot on. Lying on the internet is a Internet Felony and can result in 8-12 years of Rick Rolling if convicted.,TheRedFlagFox,tqllw,fi84if3,As the King of Siam I agree. No one ever lies on the internet.,fi6ajg9,Doom_Eagles,15o3ig
fair enough. I accept that I was wrong. Thanks for the proper citation.,TheRedFlagFox,tqllw,fi7obae,"> Crockett didn't specifically go there to fight for anything. He was a traveler who happened to be in Bejar at the time 

Yes he did, he'd set off to Texas specifically to join the rebellion. He was literally there as a volunteer with the Texian forces. From Wikipedia (with my emphasis):

>**The next year, he discussed with his friend Benjamin McCulloch raising a company of volunteers to take to Texas in the expectation that a revolution was imminent.**

> [...] Crockett traveled with 30 well-armed men to Jackson, Tennessee, where he gave a speech from the steps of the Madison County courthouse, and they arrived in Little Rock, Arkansas on November 12, 1835. The local newspapers reported that hundreds of people swarmed into town to get a look at Crockett, and a group of leading citizens put on a dinner in his honor that night at the Jeffries Hotel. **Crockett spoke ""mainly to the subject of Texan independence,""** as well as Washington politics.

>Crockett arrived in Nacogdoches, Texas in early January 1836. **On January 14, he and 65 other men signed an oath before Judge John Forbes to the Provisional Government of Texas for six months: ""I have taken the oath of government and have enrolled my name as a volunteer and will set out for the Rio Grande in a few days with the volunteers from the United States.""** 

As to:

>He was fighting to save women and children from a massacre.

The Mexicans didn't massacre the non-combatants in the fort, they let them go.",fi7kegf,KeyboardChap,paxq4
"As far as I know the elephants foot (the magma you are talking about) is still extremely radioactive though. So I imagine being anywhere near that is very very dangerous. I cant recall when the video was recorded by I recall two workers who had snuck into the sarcophagus to record what was inside and the radiation levels were still very very high. Though this may have been before the new sarcophagus was built, which from what I've read the collapse of the original allowed a lot of radiation to be relatively safely released.",TheRedFlagFox,tqllw,fi7dg1d,"Varying levels of dangerous. See the official site I linked above. There is a heat map. I took a [screenshot](https://i.imgur.com/wIiYEEU.jpg) on mobile for convince. 

The things that are most dangerous are of course closest to where the core was. There's also the 'magma' that melted down in the basement. Otherwise dust would be very deadly to humans as it can be inhaled. 

Just standing in the structure though is safe, you don't receive a very high dosage. The dangerous stuff is all handled by robots.",fi73zji,Spooknik,14p8fv
"Wrong. Crockett didn't specifically go there to fight for anything. He was a traveler who happened to be in Bejar at the time and was forced with everyone else to take refuge in the Alamo. He was basically fighting because if he didn't the Mexican army was going to kill him and everyone else in town and he didn't think his status as a foreign national would offer him any protection.  


He wasn't fighting for anything political. He was fighting to save women and children from a massacre.",TheRedFlagFox,tqllw,fi7a6dx,">  he went and defended the freedom of another group of people without any gain for himself

Given the fact the Texans were rebelling because Mexico had tried to ban slavery, Crockett was doing the exact opposite of what you suggest.",fi66jd6,KeyboardChap,paxq4
Unless you have a time machine and some HD video you don't know that.,TheRedFlagFox,tqllw,fi79gdi,Except we do know. He died after surrendering.,fi6tm67,foodnpuppies,3c6h9o9i
"Exactly. The art of war actually tells us that if you absolutely MUST win a battle (for example, win the battle or lose the war), put your back to a river or other natural barrier so you have no escape because it forces you to fight with everything you've got. So surrounding the fort and offering no ability to escape almost certainly cost Santa Anna a ton of extra casualties and hardships as the defenders had no choice but to fight until the very end. Where it would have been far more preferable for Santa Anna strategically to allow them to escape the fort and engage them on open ground later.",TheRedFlagFox,tqllw,fi79co0,A group tried to break through and were easy pickings for the mexican cavalry.,fi6tos8,waiv,3t0f1
"But desperate people, especially desperate people on drugs do crazy things. And I'm not talking home invasions. There are tons of videos of gas station robberies where the clerk does nothing wrong and gets shot. There's a really famous one from last year where everyone in the store is complying, right up until the robber murders the employee for no reason, just shot him in the back of the head. Then the rest of the hostages decide obeying isn't working and beat the gunman's ass and disarmed him. 

Many others of the robber just shooting the guy after they've got what they want too. People just suck.",TheRedFlagFox,tqllw,fi77kqp,A lot of people robbing a fast food restaurant or something are probably only there because they are desperate for money and know the workers probably wont fight back. Home invasion is a different story though,fi4pj74,chikendagr8,29eiakf
"Honestly, I made the username before I was politically active, so I was thinking of the diver down flag, which is red with a single white stripe going diagonally because I'm a Rescue Scuba diver.... I quickly realized there are a lot of red flags and red flag also means like, a clear warning...don't know why I keep the username... lol",TheRedFlagFox,tqllw,fi4hyi8,Username most definitely checks out.,fi47ik1,whereyouatdesmondo,w0f7m
That is a valid point lol,TheRedFlagFox,tqllw,fi4htii,Only if the bomb is a direct hit.  Plenty of people die slowly and painfully from bombings.,fi41m3i,Gabrosin,mnp5j
"Well the big one is gas. If it hits a mortar and that explodes (and no one is hit by shrapnel, which can travel up to a mile while dangerous on its own), then it's whatever. If you hit and rupture a gas shell (which are everywhere still), all you did was unleash a massive cloud of poisonous gas that will go whereever the wind takes it. And a lot of stuff like chlorine gas is heavier than air so it could travel for an extremely long way and still be dangerous. Maybe not fatal, but def dangerous.",TheRedFlagFox,tqllw,fi4hfcc,"So my question then is, why are they not used more? What is stopping them from clearing out France?",fi4b4mt,StephentheGinger,emkc7
"No on hurt me. You idiots are just wrong and it's a fun way to pass time at work mocking you. I have no dillusions, I cite actual sources, you morons just lie and then get mad when people don't buy your absolute bullshit. 

And you don't need to feel bad for me. My life is awesome. Literally amazing. I have my dream job, I'm a Master/Rescue scuba diver, and I'm working on becoming a pilot. 

Just because I don't belong to your cult of morons doesn't mean I don't know whats going on. It means I'm smarter than you idiots who just believe total lies and bullshit without any independent thought. 

You can live in your dillusions and lies. But when Trump steam rolls you all in 2020 and we spend another 4 years laughing our asses off as you morons have a total meltdown (again) wondering what went wrong (again). And the best part is, you people are so stupid you wont get it then either. You'll just go deeper into your denial wondering why things never work out for you while we laugh all the way.",TheRedFlagFox,tqllw,fi4grrj,"Who hurt you? You seem to have a lot of pent up anger that you're taking out on your keyboard without fear of repercussions.

You might also want to talk to a therapist about your delusions because it's not healthy believing things that are factually untrue.

I hope you seek the help that you need. I'm refraining from stooping down to your level of name calling because I legitimately feel sorry for you.

Good luck in life.",fi3wwch,likemyhashtag,851rn
"I'd rather be blown up by a 100,000 dollar bomb to be honest. You ever seen someone die of a gunshot wound? Shit is slow and painful, even a hit to the head with a 9mm will leave you alive for 10-15 minutes that you'll feel pain. The bomb you're just going about life and BOOM, you find out the secrets of the afterlife. Lol",TheRedFlagFox,tqllw,fi3zpsw,"Why is the price of the bomb important? What’s the argument he’s making here? “I’d rather be shot by a crackhead than killed by a fancy tank”?
What a bizzaro line of reasoning.",fi3y7bw,whereyouatdesmondo,w0f7m
"I promise if you're getting robbed again the next employee isn't going to care at all about that bonus. They probably wont even remember it until after. In that moment the adrenaline will rush so hard they'll do what comes instinctively. Fight, Flight, or freeze, they'll do something along those lines. So generally when they fight back its not over the money, it's just that's what they're response is when threatened.   


Also note compliance isn't a get out of jail free card. It can be safer, but people get murdered all the time complying 100% with a robber.",TheRedFlagFox,tqllw,fi3qxzw,"Give them a bonus and you incentivize the rest to do something similar though. Punishing them would be extreme, but it may not be best to reward the behavior, no matter how well intentioned",fi33dao,Dhiox,19qvof88
"1: That's an outright lie. Veritas post the full length video clips without edit. Those are available for this to. Watch the video, there's no context missing, no cuts. You just don't like what they post so you try to discredit them without ever watching their content (obviously) since they never cut out context ever. Anyone who watches their actual releases knows that. 

2: Prove it. You can't just make a baseless claim and assert that discredits a source. Especially a source verified by a 3rd party news checking source (News Guard) 

3: That's the news story, but of course the MSM isn't going to bring up he's a Bernie supporter, just look up his name and social media, he was a massive Bernie bro who posted tons and tons of Pro-Bernie stuff. But the incident happened which is all I was proving with both of those links.",TheRedFlagFox,tqllw,fi3q4zf,"For #4: Project Veritas frequently makes use of jump cuts and edits to promote propaganda. They aren't trustworthy. On their official YouTube channel, there is a cut at 1:22. That was just from me skimming it

For #2: Gateway Pundit is a heavily biased source that publishes a ton of fake news. Source: https://mediabiasfactcheck.com/the-gateway-pundit/

And your 3rd and last link don't even mention Bernie Sanders. Edit: Even iif they did, it can make the same argument with different Trump supporters that committed violence and Trump never denounced their actions, especially the one that sent fake bombs to news outlets.

You put like 2 truthful articles in there, only to put misinterpreted articles and fake news as your other sources.

Edit: added some proof and other statements.",fi1z1x0,LMGMaster,13jax2v2
"Lmfao, how pathetic are you that I literally predicted your response before I even posted the sources. The hill isn't Alt right. It's a center left news source, and literally every single one of those sources is certified by News Guard. 

You people are so pathetic and predictable I literally called exactly the bullshit you would try, and low and behold I was right. Again. Because you people can't deal with facts. Absolutely pathetic lmfao. Try harder.

And don't worry chap. I'm voting Trump again. I'm a centrist liberal and I'm voting straight ticket Republican for the first time in my life because of morons like you. Enjoy getting rolled this year.",TheRedFlagFox,tqllw,fi3pp9y,"My turn for what? I wasn't the one making absurd claims. You were.

While I appreciate the fact that you actually tried to post sources, reaching into your grab-bag of (alt)right-ring news articles doesn't really back up your claim. All it does is feed your absurd opinions about a man who has been on the right side of equality and freedom for this entire career.

The Hill: [Right-Center Bias](https://mediabiasfactcheck.com/the-hill/)

Washington Examiner: [Right Bias](https://mediabiasfactcheck.com/washington-examiner/)

Breitbart: [Questionable Source](https://mediabiasfactcheck.com/breitbart/) (lol)

Daily Caller: [Right Bias](https://mediabiasfactcheck.com/daily-caller/)

NYT: [Left-Center Bias](https://mediabiasfactcheck.com/new-york-times/) (Congrats, you posted the first article in a Google search!)

And yet here you are resorting to name calling over the internet because I asked you to back up your claims. Maybe you should start reading some non-partisan news sources instead of jerking off inside your own little echo chamber of misinformation.

The fact that you tried to pass Breitbart as a credible source tells me that nothing I post will change your simple little mind. Cheers, friend and please don't vote.",fi24srp,likemyhashtag,851rn
"Sorry, but a guy who by every account from his own friends was a lazy slob who had trash all over his apartment and rarely had electricity just deciding to go out and pick up trash, something he didn't even do in his own house, and literally never did once before he was a politician just going out to pick up trash in front of a photographer just because doesn't exactly pass the stink test. 

I pick up trash all the time. Most of the time scuba diving the lakes to pick up trash. I've never seen someone there just running around taking pictures, and I'm in Scuba gear. Let alone doing that when cameras weren't in everyone's pocket and you had to actually bring a large camera and develop the film. Yeah, not buying sorry.",TheRedFlagFox,tqllw,fi1wdcm,"Dude. Not everything is a photo op setup. You have no idea what a small town Burlington actually is. I can understand being cynical about most things but to doubt that a small town mayor wouldn’t be out picking up trash when the city regularly has “clean up our city days,” just takes the cake. This counted as being newsworthy at that place and time. 

You don’t have to think he will be a good president but I think it’s wild to doubt that he is a good person who wouldn’t be willing to pick up trash. I used to see him in town pretty regularly at the co-op shopping for groceries with his wife. He is a very normal and genuinely nice guy.",fi1tjao,strengthof10interns,5hcv5
"And just to prove you're an ignorant lying piece of shit. Lets do this shall we (not that it'll matter, you'll just cry about every source I find being fake despite them all being credible and centrist so I'm wasting my time but embarrassing you publicly will be worth it.   


1: He praised the Soviet Union and Castro:   
[https://thehill.com/blogs/ballot-box/presidential-races/272485-sanders-defends-past-praise-of-fidel-castro](https://thehill.com/blogs/ballot-box/presidential-races/272485-sanders-defends-past-praise-of-fidel-castro)  
[https://www.washingtonexaminer.com/news/bernie-sanders-praised-communist-cuba-and-the-soviet-union-in-the-1980s](https://www.washingtonexaminer.com/news/bernie-sanders-praised-communist-cuba-and-the-soviet-union-in-the-1980s)  


2: His supports want to put you in Gulags  
[https://www.breitbart.com/politics/2020/01/21/project-veritas-another-bernie-organizer-praises-soviet-gulags-dreams-of-gop-in-re-education-camps/](https://www.breitbart.com/politics/2020/01/21/project-veritas-another-bernie-organizer-praises-soviet-gulags-dreams-of-gop-in-re-education-camps/)  


3: This is in his own words from an interview in the 80s and his employment history. He never had a 9-5 job and never made a paycheck until he was elected Mayor.   


4: He gives almost nothing to charity. It's higher than I gave him credit for originally, but that's just because I was mixing up his measely less than 1% with Beto who was 0.3%. That's per their own tax releases.   
[https://dailycaller.com/2019/04/16/bernie-sanders-donations/](https://dailycaller.com/2019/04/16/bernie-sanders-donations/)  


5: His wife did some illegal shit with a college, destroyed it, and got paid a ton of money to do it [https://www.nytimes.com/2019/06/21/us/politics/jane-omeara-sanders-burlington-college.html](https://www.nytimes.com/2019/06/21/us/politics/jane-omeara-sanders-burlington-college.html)  


There you go. All my claims backed up with Newsguard verified sources. Your turn.",TheRedFlagFox,tqllw,fi1vqmu,"You provided 0 sources.

Try again.",fi1t2hg,likemyhashtag,851rn
"This is all well cited well reported on information you absolute fucking moron. A basic google search on any of those will back up my claims with even MSM sources lmao. 

jesus you're fucking stupid.",TheRedFlagFox,tqllw,fi1ti1j,"You provided 0 sources.

Try again.",fi1t2hg,likemyhashtag,851rn
"Oh, and look at the New Yorker article wikipedia cites as it's source 

""Sanders’s campaign Web site lists his educational history, says that he is married to Jane Sanders and that they have four children and seven grandchildren, and mentions that he worked as “a carpenter and a documentary filmmaker” before entering politics. That’s it for personal stuff."" 

You are literally taking Bernie's campaign website as your primary source on info about Bernie and acting like that's the unbias truth lmfao.",TheRedFlagFox,tqllw,fi1tdyo,"Sure bud.  A quote from a garbage article with absolutely no sourcing whatsoever, not even from the location you stole your garbage quote from.

[https://en.wikipedia.org/wiki/Bernie\_Sanders#Professional\_history\_and\_early\_years\_in\_Vermont](https://en.wikipedia.org/wiki/Bernie_Sanders#Professional_history_and_early_years_in_Vermont)

Even the most basic googling proves you wrong about his employment history. You're just retarded and spiteful and spreading disinformation.",fi1q9db,Hotdogsack,4ht1jtn9
"Lmao, no I just check my reddit only when I'm at work so I checked my replies after the weekend. 

You haven't hurt me. You haven't upset me. Youre just an idiot and I'm going to continue pointing that out.",TheRedFlagFox,tqllw,fi1t7gx,"It’s been 4 days, this has really been bothering you, hasn’t it?

Listen, honey, I was trying to use ridiculous examples to make you see my point, but you may need to look up “empathy”. 

I’m sorry that women have hurt you, some people fucking suck. But you need to understand that just being a different gender doesn’t mean we can’t empathize mr “I just don’t think women would understand”

I’ll keep the rest of my “foolishness” to myself.",fi1rhpt,wehrwolf512,eqjavc2
"Lmfao, I'm so wrong that you use wikipedia as a source. Wikipedia who can be edited by anyone, actually supports my claim, and who's citation for the variety of ""jobs"" he worked is an Op Ed in the New Yorker. 

You can't say you were a carpenter when you never made a dime as a carpenter. You can't claim you're a writer when you make 50 dollars once every few months selling articles. Did you even bother to check the citation for the source you linked? Or do you just swallow that thick salty communist propaganda without fact checking?",TheRedFlagFox,tqllw,fi1t4vg,"Sure bud.  A quote from a garbage article with absolutely no sourcing whatsoever, not even from the location you stole your garbage quote from.

[https://en.wikipedia.org/wiki/Bernie\_Sanders#Professional\_history\_and\_early\_years\_in\_Vermont](https://en.wikipedia.org/wiki/Bernie_Sanders#Professional_history_and_early_years_in_Vermont)

Even the most basic googling proves you wrong about his employment history. You're just retarded and spiteful and spreading disinformation.",fi1q9db,Hotdogsack,4ht1jtn9
"Imagine being a triggered leftist who just asserts an entire paragraphs long statement is false without actually doing anything to debunk the claims, just proving you don't actually have any facts or knowledge but instead just regurgitate talking points.",TheRedFlagFox,tqllw,fi1sr2k,Imagine living your life being this delusional.,fi1s2cx,likemyhashtag,851rn
"So he was just a politician strategically doing very little with a camera right in front of him. But there's no way that could have been political because he was just a politician.....  


You wanna go back and rethink that logic for a few seconds?",TheRedFlagFox,tqllw,fi1rgor,"Except this picture was taken almost almost 40 years ago when he was just the mayor. The mayor joining in an effort to pick up trash is a pretty standard story for a local newspaper like the Burlington Free Press. I feel like everyone is putting too much importance on this photo. 

The only thing it implies is that Bernie once spent some time picking up trash at a park in Burlington after he was recently elected mayor. For that reason, it's kind of a cool picture. It's fun to see him as a younger guy.",fi18pfd,strengthof10interns,5hcv5
"Those bullet points are EXTREMELY anti-gun and to claim they aren't is wildly disingenuous. I'm also outright calling you out, you aren't a gun owner. How do I know. M14s have been illegal for the entire time they have been invented. No American without a very special license owns an M14. An M1A maybe, but not a single M14.

Don't act like you speak for gun owners while pushing to steal our liberties from us and don't act like radical gun control isn't extremely anti-gun. Now to the points.

1: Unconstitutional and already blocked by the Supreme court. You can't ban a gun ""in common use"" according to the SCOTUS and the AR-15 is the most popular gun in the US. Therefore protected.2: Fuck the NRA. That we agree on.3: We already have an interstate national background check system. So you want to make something we already have?3A: There is no gun show loophole. If I buy a gun from an FFL dealer at a gunshow, I go through a background check. Everyone knows that. What you're advocating is a ban on the private sale of my property to another private citizen.3B: Universal background checks are a backdoor to a gun registration, which is highly unconstitutional and WILL NEVER be allowed as long as people like me breath. Registration leads to confiscation 100% of the time it's implemented.4: I support this up to where Bernie and then Dems are pushing it of needing a mental evaluation to buy a gun. The Nazi's did something exactly like this, then they'd go ""You don't agree with us politically? Well only a crazy person would doubt the Nazi Party! No gun!"" and that's exactly what they'll do. ""Well you think you need a gun? Only a crazy person thinks they need a gun!"".  


Finally. The 2A isn't about hunting. That M14 is exactly what you should have in your safe because giving it up is saying that for the rest of time you will never object to what the Government is doing. You will no longer have the power to tell the Government ""No!"". Do you trust the Government until the end of time not to become tyrannical?",TheRedFlagFox,tqllw,fi1r219,"“Super anti-gun” isn’t a fair portrayal.  I’m a gun owner who supports Bernie.

Here are his proposed policies:
 https://feelthebern.org/bernie-sanders-on-gun-policy/

- Ban assault weapons
- Take on the NRA (who do not give a fuck about gun owners btw, rather the bottom line of major gun manufacturers)
- Eliminate gun show loophole, instate national instant background check system
- Increase accessibility of mental health care

Don’t take this the wrong way, but is the M14 in your gun safe worth passing up the candidate with the most focus on improving the lives of working people in recent history?  Keep your shotgun, handgun, hunting rifle.

These policies make a lot of sense to me, something needs to be done about the mass shooting epidemic here.",fi1nfmd,janoseye,52a9g
"1: [https://www.msn.com/en-us/news/elections-2020/bernie-bros-go-to-war-brawl-breaks-out-at-sanders-rally-in-colorado-after-a-white-man-attacked-a-black-man-for-booing-the-vermont-senator-and-wearing-a-black-guns-matter-t-shirt/ar-BB106dhr](https://www.msn.com/en-us/news/elections-2020/bernie-bros-go-to-war-brawl-breaks-out-at-sanders-rally-in-colorado-after-a-white-man-attacked-a-black-man-for-booing-the-vermont-senator-and-wearing-a-black-guns-matter-t-shirt/ar-BB106dhr)  


2: [https://www.thegatewaypundit.com/2020/02/bernie-bro-arrested-on-burglary-vandalism-attempted-arson-charges-after-attacking-gop-office-in-northern-california/](https://www.thegatewaypundit.com/2020/02/bernie-bro-arrested-on-burglary-vandalism-attempted-arson-charges-after-attacking-gop-office-in-northern-california/)  


3: [https://www.news4jax.com/news/local/2020/02/11/man-driven-by-dislike-of-president-trump-in-gop-tent-attack-report-shows/](https://www.news4jax.com/news/local/2020/02/11/man-driven-by-dislike-of-president-trump-in-gop-tent-attack-report-shows/)  


4:[https://www.washingtontimes.com/news/2020/jan/28/project-veritas-unearths-more-radical-bernie-sande/](https://www.washingtontimes.com/news/2020/jan/28/project-veritas-unearths-more-radical-bernie-sande/)  


and just to add to his point, here's another of a Bernie supporter slapping a 15 year old for wearing a Trump hat last week. This is literally a almost daily thing that Bernie supporters attack or call for attacks on people they disagree with. Keep in mind it was a Bernie supporter that shot members of congress a few years ago.   


[https://www.washingtonpost.com/politics/2020/02/14/trump-teen-slapped-new-hampshire/](https://www.washingtonpost.com/politics/2020/02/14/trump-teen-slapped-new-hampshire/)",TheRedFlagFox,tqllw,fi1q1g1,"Oh wow, got a source?",fi1lugn,Gekokapowco,956er
"Lmfao, No he wasn't. This is a story from Politico years and years ago interviewing his old friends lmao   


""*Despite a prestigious degree, however, Sanders failed to earn a living, even as an adult. It took him 40 years to collect his first steady paycheck — and it was a government check.*

*“I never had any money my entire life,” Sanders told Vermont public TV in 1985, after settling into his first real job as mayor of Burlington.*

*Sanders spent most of his life as an angry radical and agitator who never accomplished much of anything. And yet now he thinks he deserves the power to run your life and your finances — “We will raise taxes;” he confirmed Monday, “yes, we will.”*

*One of his first jobs was registering people for food stamps, and it was all downhill from there.*

*Sanders took his first bride to live in a maple sugar shack with a dirt floor, and she soon left him. Penniless, he went on unemployment. Then he had a child out of wedlock. Desperate, he tried carpentry but could barely sink a nail. “He was a shi\*\*y carpenter,” a friend told Politico Magazine. “His carpentry was not going to support him, and didn’t.”*

*Then he tried his hand freelancing for leftist rags, writing about “masturbation and rape” and other crudities for $50 a story. He drove around in a rusted-out, Bondo-covered VW bug with no working windshield wipers. Friends said he was “always poor” and his “electricity was turned off a lot.” They described him as a slob who kept a messy apartment — and this is what his friends had to say about him.*

*The only thing he was good at was talking … non-stop … about socialism and how the rich were ripping everybody off. ""*",TheRedFlagFox,tqllw,fi1p7qg,He was a carpenter and a writer after college.,fi1l90j,Entropy_5,gtfcw
I'm not even going to pretend Toledo for the UP was a good trade. So I embrace college football lol.,TheRedFlagFox,tqllw,fi1oc6f,"It's okay, we got the UP so in the long run we still won :D",fi1nqnu,evilplantosaveworld,c49tq
wrong Mary my dude lol,TheRedFlagFox,tqllw,fi1lkuk,"Yea, did the mother of Jesus say, I hath schooled my son, and You standeth no chance.",fi1iqzt,krashlia,pwypg
"Not even close but way to again make the exact point I was making for me about you jumping so fast to being offended. 

I literally know guys who had the police show up while they were out getting lunch with their own children because people called the cops that they were a pedophile. One of my buddies had 4 cops pull him over because he pulled up in front of his daughters school and rolled down the window to call out to his daughter to let her know he was there to pick her up, and someone reported it as a kidnapping and gave the police his plate and heading. 

I've never had a friend out getting lunch with their girl friend or sister be accused by a stranger of being a rapist. 

But again, make a completely fictional straw man to mock to make yourself the victim here. You clearly can't empathize because twice you've tried to mock me and twice you've completely fabricated claims no one is making. 

You're a fool.",TheRedFlagFox,tqllw,fi1f5ay,Just like I don’t understand why men have to walk on eggshells around women so they aren’t accused of being rapists. Just total lack of empathy. Totally incapable of putting myself in another person’s shoes if they have different genitalia. Can’t understand context at all without testosterone. 🤣,fhllfx6,wehrwolf512,eqjavc2
"Ohioian here, just to remind you that Michigan sucks. We won the war and you can't have Toledo. Hahaha 

(lol, Jk but I have to. I'm sure you understand)",TheRedFlagFox,tqllw,fi1eef0,"Michigander here, you're goddamn right.  
A dry 15 degrees feels warmer than a humid 40, water in the air sucks the heat right out of you.",fi0ybm8,evilplantosaveworld,c49tq
"Literally never said that, just said women probably don't understand how men have to walk on egg shells with kids to avoid being accused of being a pedo. But way to literally make the point you were trying to debunk because you had to jump so fast to being offended you couldn't bother to try to understand the context of what I was saying.",TheRedFlagFox,tqllw,fhl8g4y,"Hahaha, I’m incapable of understanding other people because of my damn vagina!",fhjc850,wehrwolf512,eqjavc2
I had a kid who's parents forgot to pick them up at the park as me for help. I literally froze up for a few seconds of panic before realizing I should just call the police because I didn't know any way I could safely talk to a kid I didn't know without the risk of being accused of being a predator or something. It's insane how prevalent that is and i don't think women understand that at all.,TheRedFlagFox,tqllw,fhis0ru,"I flew once with my son when he was about 6 months old without my wife.  When we got there my wife was waiting for me and as I walked up to her this old woman ran up in between us.  She started explaining to my wife how she was so worried when she saw me alone with the baby, but was surprised and I did a great job.  So I can't even hug my wife after getting off a plane so this woman can give a backhanded complement that I am incompetent with children, but I somehow made it through this time.

Between this and getting treated like all men a pedophiles unless proven otherwise, feels bad.",fhi7z9p,dalittle,4ahob
"Russia was entirely a lie. That isn't at all what the Meuller report said. You're literally just lying lmfao. And literally no one is behind bars for anything involving Russia. In fact most of them aren't going to be behind bars because we proved the FBI was literally making up evidence against people like Carter Page. But again, keep buying the talking points. Keep believing the lies. Keep drinking the kool-aid. 

And Bernie isn't going to get the nomination. If you think the DNC isn't going to give it to Pete you're out of your damn mind. But again, we'll see in November. I'm quite excited for it. I'm sure you lying idiots aren't. Lmfao. Enjoy watching you all freak out again, it was hilarious last time and Trump has 3x the support this time.",TheRedFlagFox,tqllw,fhf7s7k,"You mean the year the DNC fucked Bernie, shoves Clinton down our throats then lost to fuckin trump. That 2016. Russia wasn’t a lie the DOJ just doesn’t touch sitting presidents and pretty much everyone else named in that report is behind bars. And “individual 1” will be too once he’s out of the White House. Oh and Ukraine wasn’t a lie either. There’s the phone call “do us a favor though” the witnesses that are now being fired or refused to comply with subpoenas. And even the jury on the trial are on camera saying he did it but “learned his lesson” and just nullified the law over partisan loyalty instead of true justice as the oaths they took demanded. And now we’ve got the DOJ and trump fucking with sentencing and sticking their fingers where they don’t belong immediately after. None of that was a lie you’re just choosing to ignore reality.",fhf4u2z,Zexks,8adnl
Happy cake day!,TheRedFlagFox,tqllw,fhf6lkj,Just doing my duty.,fhda2gs,Douglasqqq,15bofy
Uhm....they are all gay my dude.,TheRedFlagFox,tqllw,fhf5pzx,The only thing that would make it better is if they all came out as gay too,fhcyelv,fuzzeenavel,tsgx5
"They did go to his apartment. The best part was he ""Kept the noose on as evidence"" but also claimed he didn't want to report it to police until his friend talked him into it. So he kept something on for evidence of a crime he had no intention of reporting lmao",TheRedFlagFox,tqllw,fhf5hl9,"I thought the police went to his house? I'm sure I can remember seeing a video of him standing in his apartment with the noose around his neck and the police being like, errr do you want to take that off?",fhdj52w,DrRobotniksMachine,hv9rt
"The police caught him showing the brothers the area to stage the attack on camera several days earlier. So this wasn't even an impromptu thing. They had at least a few days of planning involved. And with a few days to think this over they STILL couldn't think of anything better than white dudes walking around with bleach and a noose at 2am on the coldest night in a decade screaming ""This is MAGA country"" in a deep blue area where wearing a MAGA hat would probably get you jumped.",TheRedFlagFox,tqllw,fhf5cb3,I doubt there was a whole lot of thought that went into this plan.,fhd05wc,ProbablythelastMimsy,okga9
"Guess we'll see in November. But if I was as wildly wrong as you morons were in 2016 I don't think I'd be writing off what the Trump supporters said. We told you we were going to win in 2016. We told you Russia was a total lie. We told you Ukraine was a total lie. And now we're telling you this. And you'll ignore us. And you'll nominate him. And Trump will get 400 electoral college votes. And I'll laugh my ass off as you all cry again. 

So go ahead. Doubt us. It'll just make November all the more funny for me. 

https://thehill.com/hilltv/what-americas-thinking/398580-poll-majority-of-americans-say-the-would-not-vote-for-a",TheRedFlagFox,tqllw,fhf484t,Sure thing trumpet.,fhefip2,Zexks,8adnl
"According to you. A team of American specialists who said they could potentially treat him disagreed. And brain dead isn't dead. You're also taking just one sides diagnosis, they never got a second opinion, never allowed them to go anywhere else, and the family disagrees. So just because 1 doctor determines you're brain dead, even if there are clear signs your not, they can kill you. 

Hm. Sounds exactly like a death panel to me.",TheRedFlagFox,tqllw,fhefi0w,You can't give life-saving treatment to someone who's brain dead.,fhd8sgy,thefezhat,4phsi
"Bernie will get absolutely STOMPED. Studies show even a large portion of Democrats wont support a socialist. Especially a radical socialist with supporters who shoot up congress members, plow through Secret Service checkpoints, and promise to put all the Liberals and Trump supporters in Gulags and re-education camps, and literally talk about killing land owners and confiscating their property. Once Bernie gets the nomination and Trump's team goes on the attack spreading that info any hope Bernie might have had will implode.",TheRedFlagFox,tqllw,fhefdk7,Anyone but Bernie will lose to trump. People vote for Bernie because they like him. He will draw out voters. People vote for the others because they hate them less than the alternatives. That will make people stay away and you’ll get 2016 all over again.,fhcp623,Zexks,8adnl
"Mythbusters actually did a study on this with a real 30 cal (btw, 7.62x39 uses a 30 cal projectile. So at Terminal velocity they are extremely close (usually within 40gr of eachother). The instances of rounds coming down and killing people are bullets fired at an angle and coming down with some of their own power. If you pop rounds off at 50-70 degrees rather than straight 90 that round will come down with some of its own power yet.",TheRedFlagFox,tqllw,fhef708,"Not really accurate.   [https://en.wikipedia.org/wiki/Celebratory\_gunfire](https://en.wikipedia.org/wiki/Celebratory_gunfire) 

TLDR; 30 cal has a terminal velocity of 300ft/s.  200ft/s can penetrate skin.  People are killed by smaller rounds, such as 7.62x39 every year.  Terminal velocity is not a safety net here.",fhchi1x,girhen,kikeg
I think you forget how little money matters to Trump lol,TheRedFlagFox,tqllw,fhees4n,"Ditto. Also, hoping that I'll get a boost chance, being within a 30 mins drive of Mar a Lago therefore a cheap prize award for them.",fhe8z7b,Warren_Puffitt,3lqknstz
"Hmmm. What is the definition of a death panel again? ""A government committee which is responsible for choosing which of various patients will receive healthcare, and which withholds life-saving treatment"". 

Hmm. This Government committee deciding to withhold healthcare and life-saving treatment sounds like the literal definition of a death panel you absolute liar. 

https://www.medicaldaily.com/canada-establishes-death-panel-specific-end-life-decisions-269000",TheRedFlagFox,tqllw,fhca8e2,"Alfie Evans was brain dead before any court or panel got involved. Anyone with half a brain can see that these situations are nothing like the right-wing hysteria over ""death panels"". Just because you live in a fantasy world where someone with a puddle for a brain can magically come back to life doesn't mean everyone else does.",fhc8n3e,thefezhat,4phsi
"So a panel of people deciding who can live and die against a families wishes isn't anything like the panel of people deciding who can live and die against a families wishes? So you already went from ""Death panels don't exist"" to ""Well they aren't that bad"". And somehow I'm the idiot. You're lying and downplaying literal death panels. But I'm the idiot. 

Yeah, get bent you lying sack of shit. Lmfao.",TheRedFlagFox,tqllw,fhc99dk,"Alfie Evans was brain dead before any court or panel got involved. Anyone with half a brain can see that these situations are nothing like the right-wing hysteria over ""death panels"". Just because you live in a fantasy world where someone with a puddle for a brain can magically come back to life doesn't mean everyone else does.",fhc8n3e,thefezhat,4phsi
Ours were the better part of 20 years old before we started to see some water vapor.,TheRedFlagFox,tqllw,fhc8emo,"I have read the leakage rate is closer to 1%, not 10%.
We have all triple-paned windows for 10+ years and there is no sign of water vapor (that would indicate a leak) on any of them.
I'm not saying there is no leakage, just that I don't think it's anywhere near 10% unless damaged.",fhb3wfe,intrafinesse,mb2c4
"Yeah, but look at the gun cam video and look at how low these planes were flying on these straffing runs. Those rounds are coming out at somewhere between cruising and full speed (upwards of 200mph to over 400mph) with less than a few hundred feet to slow down. Also remember the round is going to take the path of least resistance, so it's not going to act like a parachute, but tumble into it's most aerodynamic position for the fall (so probably rim down since they tend to be rim heavy). With a 50 cal case doing 400mph from a low altitude strafe, that'd be pretty dangerous. 

https://youtu.be/uqN_Pd58MFw
https://youtu.be/AXofWKmBf58
https://youtu.be/GE3PceU-UqA",TheRedFlagFox,tqllw,fhc898p,"Yah, SKS's have a mean ejection system.  There are steel 7.62 casings stuck in the ceiling of our outdoor range's wooden slat roof.  That said, coming straight out of the chamber care of the extractor and the cartridge's exploding internals is likely to be quite a bit faster than a hollow and light brass object tumbling out of a plane, catching wind, and slowing from accelerated to base terminal velocity due to air resistance.

I still wouldn't want to be hit with it, but i seriously doubt you'd be in lethal danger.",fhc6pcn,ItinerantBanana,gy1gl
"Uhmm... have you not looked at the UK lately? Anyone with half a brain can see death panels are a real thing. Just because you live in a fantasy world where money comes from nothing and is infinite doesn't mean everyone else does. After Alfie Evans and other such cases the far left can't even deny them anymore, now they have to try to spin it like death panels are a good thing. So you're talking points aren't even up to date they're so out of touch with reality.   


 [https://slate.com/news-and-politics/2013/10/canada-has-death-panels-and-thats-a-good-thing.html](https://slate.com/news-and-politics/2013/10/canada-has-death-panels-and-thats-a-good-thing.html)",TheRedFlagFox,tqllw,fhc6xzj,"> death panels

That's a blast from the past. I thought Republicans had decided that talking point was too stupid even for them, but perhaps I was wrong...",fhbx890,thefezhat,4phsi
"Nah, I've been saying for months they're going to put up Mayor Pete because he's the only one semi-sane enough to get some people from the middle. They let Bernie win, everyone on the right makes sure it's clear he's a socialist, he loses a TON of support and doesn't have a chance. Biden I'm pretty sure is only running so he has protection from the corrupt stuff his son was doing in Ukraine (He literally told someone to go vote for someone else. There's no way he's running for real). Pete is the only one that hasn't done anything to chase off the independents.",TheRedFlagFox,tqllw,fhc6esh,This is who the DNC is going to rig to run against Trump. Get used to him.,fhbl7iy,ScroobieBupples,4stjmwyc
"If I'm recalling right it wasn't so much turned spies, since the British really only had 1 double agent (Garbo) who was impersonating a bunch of German spies in the UK that were all actually just one guy lol.",TheRedFlagFox,tqllw,fhc5j3s,"Yes they used turned spys it wasn't as effective as you might think, it guided missiles away from high population dense areas to low population debse areas, that was kinda a big controversy because it basically meant the British government changed the target from one area of London to another so the people in the target area were kinda sacrificed for the greater good. 

The Germans actually had decent accuracy in they telemetry data, just they trusted human inteligence more than their own equipment. Had they just gone by their equipment it would have been deadlier.",fhbzgag,Cetun,sgin9
