child_body,child_screen_name,child_user_id,child_tweet_id,parent_body,parent_tweet_id,parent_screen_name,parent_user_id
Same. Work needs to give me a week or two of quarantine already,Tony_Danza_the_boss,11mz2t,fknsvvj,I wish. I still gotta get on the train and get to work every morning during all this mess. Bitch needs a *break*.,fkn07r5,TheDollarstoreDoctor,o4y1eyz
K bye Bernout,Tony_Danza_the_boss,11mz2t,fkgl02u,Except exit polls clearly show vote tampering in literally every state so far. And besides have fun trying to win without us.,fkgg5rt,El_Jugo_Grande,s0bae
Why? For stating the truth?,Tony_Danza_the_boss,11mz2t,fkgfqw8,You’re going to be banned very shortly,fkgfin1,EpsteinJeffrey,4ctfh8qr
Ok tranny,Tony_Danza_the_boss,11mz2t,fkfr85d,"please be respectful, some people aren't very far into transitioning",fkeqoju,memedanarcha,4fmaekqq
Bruh I’m on that Obama scholarship,Tony_Danza_the_boss,11mz2t,fkdjiy4,If you’re not a kang like us and didn’t receive the Harriet Tubman/Michael Brown bravery scholarship 🤣,fkcaw8d,jakefromstatefarm10,82ta1
Kids are being raised wrong then. Skin color/representation should not matter in the grand scheme of things,Tony_Danza_the_boss,11mz2t,fkcy1uy,It does to those who don't see enough representation of people who look like them. Especially to kids.,fkcnryz,puckit,4egh2
Skin color really shouldn’t matter to you,Tony_Danza_the_boss,11mz2t,fkbgswm,"I don't see it mentioned in thread, but I'm really happy to see Pixar have a black main character, which they've never done before.

It's even better that the movie has nothing to do with him being black, he just happens to be. It's not a plot device, it's just reality.",fkavev1,GoddammitCricket,doo6f
Edgy youtuber idubbz recently bought his gf a boob job and now she has an onlyfans account,Tony_Danza_the_boss,11mz2t,fkbfxn4,What's the backstory of this?,fkbboy4,TxhimVwjW1,2dzskleb
Cuck.,Tony_Danza_the_boss,11mz2t,fkadzik,Projecting their insecurities on to his relarionship too,fkaaos4,MCRusher,w211p
You sound like a cuck,Tony_Danza_the_boss,11mz2t,fkadx0u,"Maybe they just moved on with their lives, changed their perspectives and changed overall. I swear you people just can't let go of old things. Things change. Joji makes real good music and inspires Asians, Max has his strange podcast with Chad and Ian makes videos HE wants to make and is profiting of the simps buying his girlfriends LEWDS not NUDES. So instead of hating on someone elses luck and happy lives, just accept that things and people change you incel.",fka7zvn,Rachast0307,2ah2fj0q
Just giraffemax bro,Tony_Danza_the_boss,11mz2t,fk8828g,Nvm just found out they don't really stretch the neck FUCK,fk79ocm,bigdaddyfan,3o1ewn3v
Because Onward looks like trash. Pixar hasn’t put anything great out since Inside Out,Tony_Danza_the_boss,11mz2t,fk60txe,Onward and many other flops or misfires will be blamed on COVID-19 fears for the next few months. I do wonder how Onward would do otherwise. Granted the response was definitely muted to the trailer so could be but opening $20M under Sonic the Hedgehog for Pixar is wild.,fk0j73n,mi-16evil,4vrqm
Same,Tony_Danza_the_boss,11mz2t,fk1z7wr,why didnt i get invited to shortcels after it went private??,fk1wjjl,wiggerman88,3uby48ef
At least you’re honest about it.,Tony_Danza_the_boss,11mz2t,fjp8bq3,"It's okay, they disagree with me politically.",fjo23bd,grieze,6m1ge
No retard.,Tony_Danza_the_boss,11mz2t,fjm5kzq,"Dicks aren’t magic, you use a dick long enough it’ll get whittled down",fjk57cc,leo_99,albr0
Fuck off normie,Tony_Danza_the_boss,11mz2t,fjlnz3i,I can’t tell if this subreddit is satire or are you all actually this sad and insecure that no one wants to sleep with you,fjlnf5d,StalinTheHedgehog,68wwlvu
Dicks don’t. Vaginas do. That’s what happens when you keep stretching something elastic. Drink less soy cuck,Tony_Danza_the_boss,11mz2t,fjkvynv,Women's labia (lips of the vagina) are all different shapes/sizes and do not change due to the amount of sex they have. Having sex with 50 different men and f\*cking your boyfriend 50 times does NOT make a difference to how 'tight' your vagina is. Do men's dick change shape from lots of sex? No.,fjg9sly,mayomiT,4lkz1l52
Cuck.,Tony_Danza_the_boss,11mz2t,fjk280b,"For comparisons sake, [a man at 35.](https://barrycreative.files.wordpress.com/2012/06/limppalmtree-9219.jpg?w=1024&h=819)",fjgny9c,jackalooz,cr19y
It does and you’re a simp if you believe that bullshit they feed to you,Tony_Danza_the_boss,11mz2t,fjk1rt1,Women's labia (lips of the vagina) are all different shapes/sizes and do not change due to the amount of sex they have. Having sex with 50 different men and f\*cking your boyfriend 50 times does NOT make a difference to how 'tight' your vagina is. Do men's dick change shape from lots of sex? No.,fjg9sly,mayomiT,4lkz1l52
“You can’t do this to me...DO YOU KNOW HOW MUCH IVE SACRIFICED!”,Tony_Danza_the_boss,11mz2t,fjhn3l3,"He does have a couple of lines
“ YOU’RE A FRAUD SPIDERMANNN”",fjg7sb2,DocOfAllTrades,m7thyz1
Just get alts,Tony_Danza_the_boss,11mz2t,fjc5eii,Cause reddit would remove them and remove us.,fjbqqgp,CovfefeBucks,2iyufn
Cope. She was a giant whore who fucked a long line of Chads before even meeting him,Tony_Danza_the_boss,11mz2t,fiyvxhr,But RaMannA FloweRS girls like no other liked him,fiy57vt,69problemCel,4csu6sa9
Suck it Eurotrash,Tony_Danza_the_boss,11mz2t,fiyvhko,Why do Americans eat like they have free healthcare?,fiy7sic,mcleodpirate,16vhns
Cringe,Tony_Danza_the_boss,11mz2t,fiyvbal," hah, ok mostly. it is truly a nation of fat asses.",fixg8ko,Davescash,p9wb2h3
What in the fuck are you doing on this sub,Tony_Danza_the_boss,11mz2t,fi5wixy,"Female here. I had a phone sales man at Verizon explain to me very condescendingly and, *incorrectly* I might add, about how a battery works. 

Also had someone explain to me with condesention how my inverter for my hybrid works. I have a degree in physics",fi5e35q,simplecontentment,5hujxggz
r/iamverybadass,Tony_Danza_the_boss,11mz2t,fi4z6zs,I am going to find out who popped Smoke,fi3z1re,DCC503,25077ue7
I do not like this painting Charlie. Its smug aura mocks me,Tony_Danza_the_boss,11mz2t,fhqyjkb,"Thank you very much, it means the world to me! My favourite one is The Nightman Cometh! My girlfriend actually suggested I added a Green Man painting but I couldn’t get it quite right and scraped it. May add it later :)",fhq5tvg,GreenBPartsUnknown,13ed78b0
Shake and bake!,Tony_Danza_the_boss,11mz2t,fho1gfw,If you ain't first you last.,fhn2krh,HexezWork,db7zi
No Tom Holland sucked. Tobey is the best,Tony_Danza_the_boss,11mz2t,fho0gsi,"Downvote me if you will, but I REALLY liked Tom Holland",fhmw4w4,TheBillsMan4703,1bhhbs24
They still are. They’re crazed for anyone who can take down their hated orange man,Tony_Danza_the_boss,11mz2t,fhn72os,Remember when r/politics was all in on an Avenatti presidency?,fhmf195,CapitalistVenezuelan,4dcidzkp
"Ty. Idk what is was when it came out but this entire sub downvoted me for saying Shazam was bad. It was the most cookie cutter, average boring super hero flick WB had released to date",Tony_Danza_the_boss,11mz2t,fhaij7t,There is no way I'm going to see this movie in theaters.  It's getting to the point where I don't believe ANYONE when they say a DCEU movie is good.  People said the same things about Shazam and Aquaman and both of those movies were terrible IMHO.  I firmly believe that the people making these movies just fundamentally don't understand what a good movie looks like.,fh936ng,karnoculars,3bn14
Venezuela.,Tony_Danza_the_boss,11mz2t,fhai9ct,OP doesn’t know what socialism is.,fhac0dd,TinyTornado7,qs2copj
"No. People aren’t violently assaulted over this shit moron. If they were, there would be nonstop news coverage of this 24/7 shoved in our faces. But as usual, liberals have to make up phony hate crimes to push their agenda. Sad.",Tony_Danza_the_boss,11mz2t,fhai8h5,"Lmfao people are violently assulted for wanting to piss in public like everyone else and you’re acting like it’s just a bunch of people being butthurt over nothing. Imagine being afraid to use a public restroom because you might get assulted and then having someone tell you that we all have the same rights.

You’re a fucking bigot",fhahhs2,cubistCuttlefish,3at5bww6
"Lmfao. If the most pressing issue for trans people in American society is the lack of a proper gender bent restroom exclusively for them, then I’d say they’re doing pretty ok compared to the rest of the world",Tony_Danza_the_boss,11mz2t,fhabikb,"Trans people can't even use a restroom without sparking heated debates over whether they should be allowed to exist in public. I'm not going to bother going into more depth than that for a ""person"" who doesn't seem to actually care about the content of my response.",fhab5qn,Poisson_oisseau,br1ff
Why do you keep avoiding the question? What rights do trans people not have exactly that others do?,Tony_Danza_the_boss,11mz2t,fhaabas,May I ask why you keep putting trans in quotes like that? What are you trying to imply?,fh9y4gn,Poisson_oisseau,br1ff
Kind of cringe tbh,Tony_Danza_the_boss,11mz2t,fha6rmm,"Would we pretend to care then, the same way people to pretend to care now?

Don't downvote me for stating the truth. 

None of us really give a shit about this. 

We barely give a shit about our own lives, let alone the lives of people thousands of miles away.

Want to know how I know that most of us barely give a shit about our own lives?

We make nothing of them. We do the same thing, day in, day out, complaining on internet forums and engaging in slacktivism.

Big deal.

Go on, get mad at me for speaking the truth, it happens all the time.

---

EDIT: Surprised by the response. Perhaps I underestimated this sub, I'm happy to admit I was wrong.

The thing is, on r/conspiracyNOPOL we don't need to worry about slacktivism and social justice nonsense.

This new sub is all about *actual* **conspiracy theories**, not thinly-veiled attempts to reap karma by saying 'boo hoo something bad'.",fh7htwq,JohnleBon,p47lkuc
Nah that film was awful,Tony_Danza_the_boss,11mz2t,fh6xazt,I think Harriet was robbed of best song and actress,fh6x8qj,agoddamnjoke,1755cz
Ok doomer,Tony_Danza_the_boss,11mz2t,fh63pe9,"The USA is done.  Maybe not today, maybe not tomorrow but that ANY of it's citizens will allow this kind of thing to happen is all the proof I need.  


I am so happy to be in my mid 50's.  With any luck I will be dead when it all falls down.",fh59b8c,SkyDrifters,keu1h
Low tier normie=Chad in noodle countries,Tony_Danza_the_boss,11mz2t,fh420qv,"The white dude doesn't even look good, doesn't look bad, but not good either, kinda a punchable face. He's just tall. A lot of ricecels actually look decent too, feel bad for them.",fh3n6mc,Rakkuuuu,zc2cb
"I’m not your guy, buddy",Tony_Danza_the_boss,11mz2t,fg88jur,I'm not your friend guy,fg85odr,rocklobster228,5edt2xrr
Gonna cry?,Tony_Danza_the_boss,11mz2t,fg827di,OP participates in both The_Dumpster and an incel subreddit. I'll just let that speak for itself,fg7z7yz,Mugufta,4jow9gu
"“Just heard about incels, bro. Damn that shit sucks”",Tony_Danza_the_boss,11mz2t,ffpf5yo,"""Sooo Chad did you like J*ker?""

""Bro, I don get it bro. Like why was he so angry bro? And why did the rich guys go into the alley bro? It was just too complicated man...""",ffode8y,fuckrule9,4asifne4
Lol get rekt slut,Tony_Danza_the_boss,11mz2t,ff1bvne,Stop this garbage. Stay the F away from our bodies. Try legislating a mans body first.,fey8upw,eyelinerandrose,nc5orwt
I thought In Time was fantastic tbh,Tony_Danza_the_boss,11mz2t,fet4g93,It wasn't close to Gattaca though. Which sucks since Justin's a decent actor and Cillian Murphy is fantastic.,fepnttx,Fire2box,d341n
Justin Trudeau is still racist for doing that.,Tony_Danza_the_boss,11mz2t,fejab09,"Racism isn't funny- making fun of racism is funny. 

Tropic Thunder's jokes aren't at the expense of black or asian people. They're at the expense of those acting like idiots in the movie (especially Ben Stiller!) which is why it works...

Joe Rogan says we ""can't do it anymore"" giving the example of Justin Trudeau's blackface nearly costing him the election, which is just asinine. Tropic Thunder is a comedy film for entertainment, Justin Trudeau is running a country and projects himself to be very progressive on issues of race and equality. He should know better. Tropic Thunder knows what it's making fun of, and it's presented very clearly to the audience.

EDIT: Wow my most upvoted comment is defending Tropic Thunder... fun

People defending Trudeau on blackface issue; yea he apologized and acknowledged the fact that it was bad and did not aspire confidence from his allies... please stop trying to defend him already. He's done enough other stuff that is unacceptable that goes beyond this issue.",feieo6d,Dclone2,4s8sx
I can afford it just fine. I have a job and don’t sit around expecting handouts like every socialist asstard expecting a free handout,Tony_Danza_the_boss,11mz2t,fec2ckc,Instead you'd rather go bankrupt so you die from not being able to afford basic life saving medication. Genius,fec01fm,MakeYourOwnLuck,b81am
Pussy.,Tony_Danza_the_boss,11mz2t,fe4zjl7,Mayyyybe not a Blacksploitation movie...,fe2yiai,JackOlanternSpooks,h4abzui
Orange man bad. Orange man reason plane shot down. You are retarded af,Tony_Danza_the_boss,11mz2t,fe079yh,"This guy’s life is over too, add him to the list of casualties. The guy who pushed the button thought he was saving lives and he’ll never forgive himself.

He was working in what was essentially a war zone thanks to Trump’s insane brinkmanship. 

There doesn’t seem to be any credible reason for the Iranian assassination. Donnie Don’t wanted a distraction and these innocent people paid the price.",fdvhpoc,ScroogeMcDrumf,wcc3y
Because it’s cringe af,Tony_Danza_the_boss,11mz2t,fdjk3f4,"Why would this get you banned? I'm asking seriously, just in case.",fdhuvnu,bimmerphile_ec,xldyb
I can’t go to the gym for my face bro.,Tony_Danza_the_boss,11mz2t,fdh55li,"you don't have to look like a greek god. just need to have the shape and outline that you lift. people forget that a peak natty looks huge to out of shape normies. Most people have never seen a peak natty lean guy in the flesh. add roids in that and you will look like a freakshow. it's not hard to look better than 95% of the population since most are fat, out of shape and hate exercise. Just saying you go to the gym will make normies respect you, they always talk about how they want to start as well. Being seen as a fit guy or a guy who does sports adds to your reputation and increases your smv. For example those 40 year old balding guys who do bike rides, marathons and other sports, they instantly have higher smv than their counterparts. 

Exercise is one of those things where it's easy to do but difficult to master. Everyone does it at some point, but most never do it properly. If you can stick with it and do it properly it is one area where you can instantly visibly mog 90% of person out the gate. Especially in the modern day as the obesity epidemic is getting worse and worse. But at the same time it's also one of those things where you have to be blessed with liking exercise otherwise it's damn near impossible to continue for years at full dedication.",fdgdhx8,throwawahhas,gt2tqr0
Last I checked the popular vote doesn’t mean shit. Get fucked.,Tony_Danza_the_boss,11mz2t,fdcdt8r,"Nope, not mine. Real presidents win the popular vote. Conservative presidents achieve office through a rigged electoral system and then start dumb wars that end up with 5000 us soldiers dead, 50k wounded, and 100k+ Iraqi civilians dead. 

Nope, not my president.",fdccylf,spitterofspit,35p2b
Lol...he’s not. Enjoy 4 more years of losing 👍,Tony_Danza_the_boss,11mz2t,fdbseim,woh. you blew my mind. for the longest time i thought he wasn’t. but i looked it up. you’re right! i also looked up how many people went to jail that worked for him. eeesh. matter of time before he gets caught.,fdatgev,unpopularopinion0,10vwnk
Honk honk,Tony_Danza_the_boss,11mz2t,fd6s4b5,fuck off,fd2odf8,Breeze_from_Siberia,ar5kdfq
BPT is cucked beyond belief.,Tony_Danza_the_boss,11mz2t,fd6k5yx,BPT is one of the most blackpilled subs out there after FDS,fd3qa87,I_CAPE_RUNTS,5jopw
Good one actually,Tony_Danza_the_boss,11mz2t,fcwzupk,I guess if you live in a single wide like Cletus McTrumpvoter a house with a foundation is pretty fancy.,fcwvnhb,Cargobiker530,2xmc1j9q
Lol.,Tony_Danza_the_boss,11mz2t,fctst9l,"Clinton inherited a crisis and gave us the 90s boom. He even left a SURPLUS.

Obama inherited the GR and gave us the 2010s boom, longest recovery on record. Shrunk the deficit by 3 too.

Trump inherited 400M, got bankrupt countless times, cannot borrow at US banks anymore due to his high risk, had to launder money for Russians, inherited a booming economy with low deficit and is working hard on bankrupting America by digging us deeper into debt and giving trillions to his billionaire buddies.",fctsfz2,_TRE450N_,55rybjdh
Jesus was based. Sex before marriage damns foids to eternal hellfire,Tony_Danza_the_boss,11mz2t,fc1b2z2,"Imagine your entire religion being based on Mary making some shit up about ""God made me pregnant!"" and Joesph being such  a huge simp he believes it.

I don't have anything against Jesus tho, he had some good lessons...",fc0aky7,A_BIG_GUY_4_U,mrsxy
Cringe.,Tony_Danza_the_boss,11mz2t,fbszrg8,Pyrite!,fbszfpj,CpnLag,lk08y
You probably think Nelson Mandela was an absolute saint who didn’t kill tons of people.,Tony_Danza_the_boss,11mz2t,fbj1g5y,At least it makes sense there considering the history of white minority rule originating by forced colonization until the late 90’s. In countries like the US though things have shifted from acknowledging differences and history while moving forward to having all “cisgender whites” be evil. Feminism and LGBTQ equality is important but fourth wave feminism is neither of those things. 4th wave feminism is essentially misandry and focusing on attacking people who have done nothing instead of fixing real issues.,fbiqsux,lordvader256,11ts9u
It was HER TURN REEEEE,Tony_Danza_the_boss,11mz2t,fbiodk2,But Hillary was SURE to win.  She could pick her replacement!,fbinfv6,panic308,34t2b0l
“Fine. Meesa do it MEESA SELF”,Tony_Danza_the_boss,11mz2t,fbhgaiq,"Best part: When Darth Jar Jar stepped out of the shadows, eyes narrowing and his breathless whisper to Ray and Kylo: ""Is the People gonna die?'",fbhfepl,sungoddaily,ef9c7
And I don’t see any horns!,Tony_Danza_the_boss,11mz2t,fbh2xr9,"TEXAS? Only steers and queers come out of Texas, Private Cowboy!",fbgjtjm,TX50BMG,pxnfn
O SHIT,Tony_Danza_the_boss,11mz2t,fb9x4b0,Wallup,fb9idyj,5D_Chessmaster,12a9x5
I’ll never understand how anyone can equate this economy to Obama’s policies. All of the liberals saying “but muh Obama’s economy”,Tony_Danza_the_boss,11mz2t,fb5juqn,The liberals are REEEEEEEEEEE'ing in the comments. Get in there and THANK your president!,fb500pv,Darkeagle215,dppfo
If if if if if if if if,Tony_Danza_the_boss,11mz2t,fb5jkx1,"But but but but if if if This is the long game Obama economic plan coming to fruition. 

okie doke.",fb5060u,Sodors_Finest_Poster,143znh
You’re in for a rough 4 more years then lol.,Tony_Danza_the_boss,11mz2t,faw3ehr,Imagine loving trolls so much you elect one president. Cringe doesn't begin to describe it.,faw295p,specialspartan_,1722jk
The dude is a legend. He’s going on 95 and is still making great films,Tony_Danza_the_boss,11mz2t,farhmdy,Clint is one of the few in Hollywood worth supporting,faq5asb,StormysRectalSeepage,2heqp02f
You didn’t build that!,Tony_Danza_the_boss,11mz2t,fao8k9w,If if if if if if if if if if if.,fao5sfn,ClockTowered,805bp
Philly D is a shill. Don’t get why anyone watches this greedy fuck anymore,Tony_Danza_the_boss,11mz2t,falnanu,[From Philly D himself](https://youtu.be/u4DKKDS4k20) if y’all can stomach him. Scarce made a video on it too and I’m sure many others have by now as well.,fakn077,Doses_of_Happiness,16te8mg0
"The fact that Hillary is not behind bars is disgraceful. I love GEOTUS and everything he’s done, but the lack of Deep State scumbags not in handcuffs is saddening",Tony_Danza_the_boss,11mz2t,fad2edh,"> Time to finally go on offense.

Waiting any longer to walk perps will bleed into primary season and give the dimocrats the ""it's all a political attack"" narrative. Whether or not it's justified, that is how the dims and their msm propagandists will play it.

Barr needs to finish that big turd he's pushing and get off the pot ... within 6 weeks, max.

I'm not optimistic.",fachk3r,Toughsky_Shitsky,13mnkb
Imagine actually advocating for banning free speech,Tony_Danza_the_boss,11mz2t,f9vl3ry,Now just imagine what banning them would do.,f9rm7v8,Schiffy94,f1pe5
Orange man bad.,Tony_Danza_the_boss,11mz2t,f9th8pg,Damn he orange,f9sl4yf,357d,sx5wt
She sounds hideous,Tony_Danza_the_boss,11mz2t,f9ta157,She?,f9siec3,ithappenedaweekago,ck1wp
YAAAAAAA,Tony_Danza_the_boss,11mz2t,f9s2q22,There is a great disturbance in the Cringe. It must be Rewind time,f9reqhk,DrunkWino,cm9z9
She was trying to contain her excitement over impeaching Trump lol. She’s a freak,Tony_Danza_the_boss,11mz2t,f9r7isr,"Where is the video context of this photo? I’ve seen the photo so many times... was she talking, sneezing, or farting?",f9qpwbd,underwaterpyrimids,a6wgw
When your opinion is “you have stolen my childhood” then it’s pretty hypocritical,Tony_Danza_the_boss,11mz2t,f9m15qg,"As we all know, to have opinions you must be destitute",f9m0kqc,T-homas-paine,oco98
Boobs.,Tony_Danza_the_boss,11mz2t,f9kxktu,why?,f9julwa,I_DONT_REPLY,1xgoetsi
That’s what the last generation said in the 80s as well. We’ll be fine,Tony_Danza_the_boss,11mz2t,f9hx7uw,"Congratulations!! You've posted the first of the annual, idiotic, ""*There cant' be global warming because there's still three months of winter instead of six months*"" memes.

Enjoy knowing your grandchildren will starve in a unending hellscape of wildfires and megastorms.",f9hwlh5,Cargobiker530,2xmc1j9q
Heard the same. Amazon pulls this woke shit in every one of their shows,Tony_Danza_the_boss,11mz2t,f94y3ag,Serious question.  A few friends have recommended that show but some People said it went Woke the last season. Should I watch it? Friends are PEDES so just checking 😚,f94pjk7,carswelk,bumrp
Well he’s a guy so...,Tony_Danza_the_boss,11mz2t,f8uyvaf,She sounds hideous.,f8uyrd4,motherofmalinois,dcmd56q
And her hair just happened to be in a braid,Tony_Danza_the_boss,11mz2t,f8urk5x,"Something tells me you wore the outfit on purpose and set out to find the exact spot in order to take the picture.

Still a good picture.",f8ukasa,BigThunder3000,ng5mc2l
No he’s awful,Tony_Danza_the_boss,11mz2t,f8ufzsu,So you dont respect my man Obama?,f8t4zw0,JigglyTits19,bbr8plo
Good.,Tony_Danza_the_boss,11mz2t,f8hbtup,"Reminder that if Trump gets another Supreme Court appointment, the entire progressive agenda is dead.",f8g35lk,anon902503,fpm9u
YAAAAAAAAAA,Tony_Danza_the_boss,11mz2t,f88jtl9,Brownie*,f884pji,Goldskull1998,16jhnn
Nah,Tony_Danza_the_boss,11mz2t,f71uljx,Why dont you crawl back to the shithole r/the_donald you came out of and do the rest of reddit a favor and stay there.,f71hj00,citizen-nappa,2czfnpls
Greatest investigative journalist of our time,Tony_Danza_the_boss,11mz2t,f6y7geb,I love James O'Keefe. He's the fucking man! Think of everything he's exposed since acorn,f6xz97b,SaltMiner76,3kfpnbdk
Actually this is pretty damn good lol,Tony_Danza_the_boss,11mz2t,f6y0qyi,/r/therightcantmeme strikes again,f6v2k15,Salah__Akbar,4opf3g9w
Cope.,Tony_Danza_the_boss,11mz2t,f6xmxrn,"Joker is not making close to Endgame, though? And it's definitely not making close to Endgame+Infinity War, which is what your budget figure seems to come from.

Joker is having one of the greatest box office runs of all time, even for a comic book movie, and by far the greatest for an R rated movie. You can enjoy that the thing you like is successful without pretending it made hundreds of millions more than it has so that it can be even more successful than something else.",f6x9s3t,100Gold,2fwg5cu
Yea they just ree and screech DEEP FAKE. Lol,Tony_Danza_the_boss,11mz2t,f6pzrgz,"But they can, and do, refuse to watch a PV video; they will say it’s been deceptively edited. I’m like how do you edit a video so that a guy goes on a 7 minute uninterrupted rant on how to get away with voter fraud?!?",f6pfi0q,Jackpotsevens,smcgp7x
Him and John Oliver goaded him into running lmao,Tony_Danza_the_boss,11mz2t,f6g2p3a,Lol - imagine being THAT GUY 😂😂,f6d6r69,Melancholaliatrix,4odm01je
Forget it Jake,Tony_Danza_the_boss,11mz2t,f68ea7x,Chinatown?,f64t1fs,NinjaDiscoJesus,5qlsa
"Imagine looking through someone’s post history.

Cringe",Tony_Danza_the_boss,11mz2t,f5yyqjt,"Your last comment:

""Lol get triggered libtard""

Doesn't get cringier than that.",f5yvns7,nastyminded,imseo
Cringe,Tony_Danza_the_boss,11mz2t,f5yjw7p,Snoop is a national treasure and he will be respected as such.,f5vt3ol,nastyminded,imseo
Lol get triggered libtard,Tony_Danza_the_boss,11mz2t,f5ygws0,"Ah yes, the classic ""No u!"" Defense. 

Do you admit your meme is wrong and that you and your dotard friends are flooding this sub with it?",f5yge57,inhabbalabba,457mi
Stop projecting boomer,Tony_Danza_the_boss,11mz2t,f5y9xas,"Just because this just now showed up on your facebook feed, doesn't mean it is new or accurate.

Stop spreading propaganda boomer.",f5x3hgz,inhabbalabba,457mi
Enemy Spotted,Tony_Danza_the_boss,11mz2t,f5xv0t2,And thats how you get on a list.,f5xit58,alttabbins,e4jyf
F,Tony_Danza_the_boss,11mz2t,f5vx0z6,F,f5vqvh1,DOOM_charon12,3evmnicc
You’re the party that was reeeing for Donald Trump to be impeached the day after his election and it’s still ongoing. Lmao it really must suck to be a lib. You guys just seem so miserable all the time,Tony_Danza_the_boss,11mz2t,f5odqy5,"You're the party that cried over Dick's Sporting Goods, Starbucks, saying Happy Holidays, a black football player kneeling, Keurigs and Nike. But please, do tell.",f5odn3w,BlueOrange,rcmh
“Austere religious scholars family suffering! Plz help!!1!”,Tony_Danza_the_boss,11mz2t,f5n1meg,Liberals have already set up a GoFundMe for his family.,f5mes6l,dmxusedtobegood,xbkjb
Tf is wrong with you creep,Tony_Danza_the_boss,11mz2t,f5jxbwp,"i would’ve sent her dad risqué pics using her phone, claiming to be her causing her parents to divorce and the father be thrown in jail for having CP. after which the mother would kill herself due to the shame the incestuous behavior brought to her family. or just text her crush, that’d be funny too",f5fne4c,gnarly-skid,2swflehn
Dual Security System included,Tony_Danza_the_boss,11mz2t,f5ip84i,Cooled by polar ice?,f5g7872,clln86,erqnh
