child_body,child_screen_name,child_user_id,child_tweet_id,parent_body,parent_tweet_id,parent_screen_name,parent_user_id
Hi Dr. Nick!,W3asl3y,b657b,fkiu0q1,*Inflammable means flammable? What a country!*,fkinnwu,Charlie-Conway,10nx9z6h
"Mmmm good, or you can stick your tongue out for me",W3asl3y,b657b,fkggsnb,I wouldn't stop you 😋,fkggms7,ChubbyFemSub,5xc8785q
You sure know how to tease with your tongue,W3asl3y,b657b,fkea5ks,😉,fkea2ny,LeniaLen,1iwps84q
Good girl,W3asl3y,b657b,fkea3z0,Yes daddy,fkea0xj,Sandrat21,33mfx1uz
But I love you still,W3asl3y,b657b,fke78dd,say you will,fke6f3p,Nomoremrpeanut,13amrk25
"Good enough for me then *opens mouth, and sticks tongue out*",W3asl3y,b657b,fkdw0ha,I’m mostly vegetarian,fkdvzqw,Slave_Trans_NonOP,3yrbpwfw
"I'm not supposed to eat meat on Fridays, but I could easily make an exception if I don't swallow",W3asl3y,b657b,fkdv9to,😋😇,fkdv74e,Slave_Trans_NonOP,3yrbpwfw
"Tiger Bridge is a completely separate piece of software, not related to Veeam.",W3asl3y,b657b,fkdtcyv,"oh, okay, I am a newbie in such things at the moment and it seemed like a functionality to me..",fkdtbfo,Azarias2083,j1j4ojg
"I'm sure I could find something to put my lips and tongue on, while I finger your tight hole.",W3asl3y,b657b,fkdtaai,There isn’t much I’m there ;),fkdt57a,_SoftTwink,5luq0bsl
Rawr ;),W3asl3y,b657b,fkdszv0,Ooooh!,fkdsyyo,KrystinaSalvere,5v3ym7hg
"Hehe :3 Why don't you have a seat on my face, there will be something sticking up you can play with while my tongue is deep inside you",W3asl3y,b657b,fkdrrfe,I'm down for that!,fkdrnxw,KrystinaSalvere,5v3ym7hg
I think I should self-quarantine in your bed for at least 14 days. Wonder if a 144 pack of condoms would be enough for that long,W3asl3y,b657b,fkdrlxq,Well come here and get on me!,fkdritp,KrystinaSalvere,5v3ym7hg
Looking forward to it :3,W3asl3y,b657b,fkdrgp6,Thank you! I’ll be post more 🍑,fkdretg,_SoftTwink,5luq0bsl
"Ah, the classic ""bUt It WaSnT rEaL CoMmUnIsM""",W3asl3y,b657b,fkcls8a,"Soviet-style communism is not the only form of communism. Just like US-style capitalism is not the only form of capitalism (see: the entirely of Europe, Canada, Japan, etc)

In actual comuniam, the end-goal is a stateless society, which obviates the existence of gulags and authoritarian blowhards. But real communism has been tried about as often as real capitalism.",fkcl3yn,Moist_When_It_Counts,6qgjh
We resigned Tanney,W3asl3y,b657b,fkbemky,We don’t have a backup right now.,fkb8jxo,aaron7275,x4ssn
"/r/NFL and /r/BojackHorseman in the same comment thread? What is this, a crossover episode?",W3asl3y,b657b,fk91i3r,You mean Untitled Princess Carolyn Project,fk8satl,Z3r0mir,bgc07
Sir Legs Thawing,W3asl3y,b657b,fk4yk41,Sir Lousy Teammate,fk4mowh,kind-of-there,2gnh5ye7
"There has been a murder, and you sir, are our number one suspect",W3asl3y,b657b,fk3kepz,Just pretend like we’re talking until the cops leave.,fk301w6,bloody_duck,ipzg1
"He never entered the chat room, he just held the join button.",W3asl3y,b657b,fk2rvs3,*Marshall Newhouse has entered the chat room.*,fk2q7gf,Anderson74,10wj4i
Just remember to keep ASR up to date!,W3asl3y,b657b,fjyu8jr,"I feel like as an addition is should add, it’s pretty easy to set up MABS, Just need to have some onprem storage know how, as well as some DPM know how. 

ASR is super easy as well and basically holds your hand through setup",fjypria,codemagedon,4vr4u7hr
Yep,W3asl3y,b657b,fjv75eo,"The only way to truly know is for us engineers to know what you searched for, just tell us and we’ll tell you if you’re safe or not",fjv40jz,cpostier,35c2i
I'm 27,W3asl3y,b657b,fjuvv4y,How much younger?,fjuvhlm,ashleyxoxocheer,2vmoyyil
This,W3asl3y,b657b,fjexbjn,Provolone wit,fjeub7f,carpy22,40qpt
"You're right, had to edit that so its more specific",W3asl3y,b657b,fjc2ham,Hot Dogs were Baracks thing.,fjc2edi,Darkheartisland,10ym91
"Must eat a kosher* hot dog (no walnut sauce), and a Chick-Fil-A sandwich",W3asl3y,b657b,fjc2bq4,Must have every authentic MAGA hat in custody.,fjc1iud,Darkheartisland,10ym91
Winnie the Pooh doesn't want US to KAG,W3asl3y,b657b,fjburfz,Looks like foreign election interference to me.,fjbqc8x,TruthyBrat,itkmzb
***EXTREME VETTING***,W3asl3y,b657b,fjbu3m2, New mods have to come **legally**.,fjbq5cb,zroxx2,zmynr
Full of lead actress auditions past....,W3asl3y,b657b,fjbpffa,Was an acting school ... so yeah,fjan0a3,NiNaNo95,3zq8ibay
Not Young?,W3asl3y,b657b,fjb70t9,"Okudah

Simmons

Wirfs

Thomas

Wills

Any of those five please, Getty.",fjabnn8,LB54,q9e9b
"All the ones who used it will just buy individual subscriptions on the corp card, costing their company more than bulk licensing for everyone

Edit: for everyone who upvoted this, I hope you don't feel the same pain I do",W3asl3y,b657b,fjb555q,just wait until you see how this effects their sales next quarter when the 90 days runs out and the world has moved on to being terrified of something new but some of the people who tried it are now hooked and cant work without it.,fjb4txb,TheTechJones,7m5p6
You miss 100% of the girls you don't sniff - Joe Biden,W3asl3y,b657b,fiyl9x3,"You’ll never be chosen, reddit is selecting the mods personally. No trump supporters allowed",fiyjar1,Fordheartskav,2asp1eas
"I've got a friend who makes killer homemade sourdough, can make some bread bowls with it",W3asl3y,b657b,fixdiqb,"Yes, bring some good sourdough and we'll feast. My address is: Kansas",fix91h1,theDomicron,20feln
"Its me, your best friend. You should invite me over to help you eat it",W3asl3y,b657b,fix8mxt,"That reminds me, last year i made Kenji's clam chowder and even though it was a lot of work (at least for me) it was sooo good. 

Ive been meaning to make it again but like triple the recipe so i have enough for leftovers.",fix7lbe,theDomicron,20feln
This is most likely it,W3asl3y,b657b,fivk4xs,"Is modern authentication enabled for your tenant?
Ran into this problem a few months back. You need to turn this on, disable app passwords if your clients are Office 2013+ and there you go, no more prompting for passwords",fiviixs,az-johubb,4nmpu4fm
Fired after saying Gatorade is better than H2O,W3asl3y,b657b,fitq89s,* Executive Hydration & Electrolyte Specialist,fiqi8mo,MeetTheMets31,147e7g8
John Oliver should hire you,W3asl3y,b657b,fithcb8,"Or, hear me out here, something about Trump having like an orange skin or something. I think that would be hilarious and it hasn't been done before. And, haha, what about this, we spell his name DRUMPF not Trump!",fisz23a,dmbout,epphp
Air more Bloomberg ads,W3asl3y,b657b,fisk8f7,What was the point in the last break lol,fisk5e4,BDSF94,gt54h
You mean who does Winnie the Pooh support,W3asl3y,b657b,fis9wcb,Who does Spez support?  That's how America should choose its leader!,fis9u5x,extrapudding,tt5aedk
"I'll also remind her that CNN is ISIS, and that Jeffrey Epstein didn't kill himself, but did let Bill Clinton ride on his jet",W3asl3y,b657b,fip33qf,"Yes, but you have to lightly spank her cat butt and say “Bill Clinton is a rapist” to get her to like you.",fip2mya,dodgedthatbulletboi,3tidzwh9
"""fAiR aNd SqUaRe"" - Cheatin' Carlos Correa",W3asl3y,b657b,fi75gp7,*trash can banging*,fi5wgpp,sketchy1poker,ffuqp
"Can you elaborate on ""collecting too much data""? I've looked into Huntress before, never heard this",W3asl3y,b657b,fi30i1a,"My issue with them is they collect too much data, and when challenged on it Kyle responded ""well at least it's going to america""...the arrogance is astounding.",fi30gcu,iotic,1t2mdg8w
"Dwight, you ignorant slut",W3asl3y,b657b,fi1kgvx,"Ben retires on top after winning Super Bowl MVP, his 3rd ring, and the Steelers’ 7th Super Bowl. The Eagles fall to their worst record in seasons after the corpse of Alshon Jeffrey and Nelson Agholor are finally carted off the field in week 6. The Eagles trade for Nick Foles so they could have someone who is actually able to catch the football on their roster. The Eagles fall to a dismal 2-14 as Miles Sanders rushes 450 times since no one who wears a receiver jersey for the Eagles uses crutches or walkers to run their routes. The Eagles, desperate for wide receivers, and good ones at that, trade the number one overall pick to the Steelers for James Washington and Juju Smith-Schuster. The Steelers use the pick to take highly touted Trevor Lawrence first in the 2021 draft.

**Sunday, February 20th, 2022**
With the echoes of Lil Nas X and the new pop group Billie Rae Cyrus still ringing in the air, the second half of Super Bowl LVI kicks off. The Famed Battle of the Keystone State has become a reality as 2 of the 3 teams from Pennsylvania(the new Hershey Bars joined the league along with the San Antonio Saddlebacks, the Mexico City Matadors, and the Jacksonville Jackals, who replaced the London Jaguars). Former Heisman Winner and now regular season MVP Trevor Lawrence leads the game with 232 passing yards, but Carson Wentz is not close behind at 216. The Steelers lead 17-14 after the break, and receiving the second half kickoff gives them a good chance to extend that lead. The Eagles new passing attack set the NFC ablaze, with Juju and Washington both catching double digit touchdowns, and leading them to a 15-3 record. The Steelers, reaping the benefits of a top 3 defense for the second time in two years(the defense sucked in 2020 because of major injuries and it was all Ben that won the Super Bowl after passing for 7000 yards in the regular season), sat atop the star studded AFC North with a 16-2 record. They had to beat the Browns and the Bengals a third time each to reach their record 10th Super Bowl, but destiny always has a funny way of making things work out. 

At the outset of the half, the Eagles offense take the field, 3rd and 30 to go from their own 25. The league’s new kickoff rules have been accepted with arms wide open. The 3rd and 30 gives the offense the chance to make a chunk play, and if nothing works they can punt it on 4th and long. A win-win-win for everyone involved. Wentz hits James Washington on a quick slant route, he’s dragged down in the middle of the field by comeback player of the year Ryan Shazier after a gain of 12 yards. The eagles trot out their punt team. The ball is snapped, the punter goes into his motion... but wait! The gunner was Nick Foles all along! Cameron Johnston winds up and drops a dime to Foles on an out route. Only one man recognized the fake - TJ Watt. He dropped followed Foles along the route, and as Foles comes down with the ball, Watt hammers Foles out of the air. Foles holds on tight as every bone in his ribcage snaps and/or dislocates. But as the dust settles from where Foles lands, it’s clear he’s laying on the line to gain. Where will the ball be placed? Could this turn momentum around for the Eagles? A woman referee catches the ball. She tells Watt to stop as he trots toward the sideline. She’s Tiffany. Watt says no. 

Suddenly, the power goes out. The Super Bowl is put on hold until the power can be turned back on. Watt and Tiffany make love all night. Watt tells Tiffany to meet him in Mexico. Watt escapes in an NFL suit and tie disguise with an odd looking bulge in his chest. Watt goes to Canada because he doesn’t trust her. 30 years later, he gets a postcard. He has a son, and he’s the head of NFL officiating. Watt tells Tiffany to meet her by the Trocadero in Paris. She’s waited all these years. She never officiated another game or took another lover. Watt doesn’t care. He doesn’t show up. He goes to Berlin. That where he stored Super Bowl LVI’s Lombardi Trophy.

*Fin*",fi1ejsq,TheDinerIsOpen,8ylh0
"Agreed, the Lord made a way that everyone who saw the crash couldn't believe would be possible",W3asl3y,b657b,fhzeg9u,"Exactly. As soon as we heard the good news that his injuries were non-life-threatening, I turned to my wife and said “I think God just answered a whole lot of prayers.”",fhzdc6f,TDSisReal,19c41gx2
Dalton Rivers sounds better,W3asl3y,b657b,fhzdk87,"Rivers or Dalton. 

Or a guy named Rivers Dalton",fhz7zu7,LordPizzaEater,4zfpqtd5
On Presidents Day?,W3asl3y,b657b,fhvcd63,A lot of people have work and college,fhvc8dz,Michaelangelo48,15v7em
"Then he mysteriously fails post race inspection, and Bloomberg gets the nomination",W3asl3y,b657b,fhucgpg,And Bernie Sanders blows a tire on the last lap and Pete Buttigieg steals the win,fhubg1u,jackhanchett,jj2re9y
"What is this, a crossover post?",W3asl3y,b657b,fht3kpl,What are YOOOOOUUUUUUUUU doing here?,fhsw19j,WhiskeyPancakes,wbhe2
Same,W3asl3y,b657b,fhrlclh,I thought it was Nate,fhrhgfa,Safe_T_Bitch,trh5m
They meant to say Bendy Cumberbund,W3asl3y,b657b,fhqyyc2,"Oi, lad, who's this Bandy Cumbucket?",fhq7q1l,el_bhm,7vyrd
I was expecting Eddie Lacy or Kelvin Benjamin but this works,W3asl3y,b657b,fhg3vzv,[You tell me.](https://i.pinimg.com/originals/3a/08/8a/3a088a770e2266ec59a6202cf4aacc00.png),fhg00iv,llandar,3umb2
What about thigh gap?,W3asl3y,b657b,fhfz48r,"""Stopgap"" is better than ""gap.""",fhflkic,llandar,3umb2
"I miss Tempe so much for this reason. Nothing like being able to get a honey butter chicken biscuit, cheese curds, and a neapolitan shake",W3asl3y,b657b,fh1xt2n,"Unpopular Opinion:

Here at ASU there’s a Culver’s, Whataburger, and In N Out nearby so I can try them all relatively close in time to each other 

Culver’s is the best",fh1qnss,king_zacarias,1ul2p754
PM'd you,W3asl3y,b657b,fgmafg5,Well since you’re here... what company you with?,fgm83g7,ALargeRhubarb,5gshhkh9
"\^ This  
Used to be a great deal, not anymore",W3asl3y,b657b,fgfer23,$4+ in some areas,fgew499,SkiddyPipPopPop,hpp1787
I take busy poops,W3asl3y,b657b,fgb4u0w,I'm a busy man,fg8xpvk,Mitchell_French,59hee3vg
Maybe he needed to get the nuclear launch codes,W3asl3y,b657b,fgb4sob,What could be so urgent?,fg986kf,sourcefour26,73nt1
"Already do that, as well as fermented cabbage.",W3asl3y,b657b,fg83ghc,"No, just eat a bunch of cabbage and you'll know more about natural gas than Hunter Biden.",fg8392i,Not_Reddit,3vh9c
Do I have to learn about natural gas?,W3asl3y,b657b,fg7cyzr,Have you considered becoming the crack-addicted child of a powerful politician?,fg6y8ml,Mcspoogy,e8mid
Carry Mookie home,W3asl3y,b657b,fg2ad06,Turn the lights off,fg1z0p1,werealldeadramones,ieffq
Call me Donkey Dad!,W3asl3y,b657b,ffx35zy,Oh dip! It's Donkey Doug!,ffx333m,Z3r0mir,bgc07
"Yep, that's the one. Never seen it before, kinda curious...lol ;P",W3asl3y,b657b,ffrwe04,"Think yer referring to the small Thigg, it's a tealish top with a coppery brown bottom https://imgur.com/TRpbT7S it's also uv and gitd at the top :P",ffrw069,Drigin,1x86vz3
How much would you want for all 48?,W3asl3y,b657b,ffjsn1j,"I don't have Dell brand drive so I don't think I can help you there unfortunately, they're all HP brand. 

As for tapes, I have 23x open LTO4 tapes and 5x sealed tapes, and i have an MSL2024 tape robot which I think is loaded with tapes - so 24 more. If that's the case I'll have all 48 you need.",ffjm2wf,thomas_tha_train,13uqjf
"What kind of drives? If you have a pair of LTO-5 drives that fit in a Dell TL4000, let me know....maybe I'll upgrade it",W3asl3y,b657b,ffipdgr,"I have a whole bunch of used tapes I'd sell for $8 each and I have some new as well - but have to check if they're LTO4 or 5. Send me a PM. 

Do you need tape drives? I have lots.",ffikn9b,thomas_tha_train,13uqjf
"I'd much prefer an Embraer, although I'd also be okay with a CSeries",W3asl3y,b657b,ffhhehf,"Embraer would be my guess. I much prefer those to Bombardiers

Source: fly way too much for work",ffhhawx,bearcat27,ceaas
"Afraid not, just LTO4.",W3asl3y,b657b,ffgajnm,Any interest or need for LTO5 tapes?,ffg7x3v,ABCS-IT,13lsqc
"Have you seen this? [http://www.ruckusridge.com/Recipes/Polish%20style%20Coleslaw.html](http://www.ruckusridge.com/Recipes/Polish%20style%20Coleslaw.html)

&#x200B;

Also, bigos is probably the best meal on cold days I could ever ask for",W3asl3y,b657b,ffc2f20,"Brr, cold then though.  

Hey, maybe you can answer this:  Foodie here.  You know that trio of salads they typically serve?  One's carrot, one's beet, one's a kind of coleslaw, with a horseradishy taste?  I have looked *everywhere* for a recipe for the horseradish coleslaw thing without success.  I've tried to make it from memory: nope.  My family gastronomy doesn't include it (family version of bigos is unrecognizable, FWIW).  Do you have any idea what's in it and how it's made, or what it's called?",ffc1h6z,refugefirstmate,kyijw
"First trip, I flew into Krakow, went down to Zakopane (which is the main Polish ski town), and then up to Warsaw.  


Krakow: Took a bus to Auschwitz and toured, highly highly recommend it. I've been to the Holocaust museum in Washington, D.C. and they don't compare. It really opens your eyes to the cruelness of WWII, and just how bad everything was, helped me appreciate my life even more.   
Krakow also has some amazing food (specifically, go to The Black Duck).  


Zakopane: I didn't get to do much here, but the views were spectacular. Because I went in the late winter, there was plenty of snow on the mountains.  


Warsaw: Check out the Palace of Culture and Science: It's a building that the Soviets built, and its somewhat frowned upon as it serves as a reminder of that Communist past. However, there's some amazing views of the city from the top.   


I stayed in AirBnBs at each city, and the prices were very reasonable. The Polish people are all very friendly and welcoming.  


This next trip, I'm headed back to Krakow, and also visiting Gdansk (which is near the northwestern tip of Poland, along the water).",W3asl3y,b657b,ffbxsyp,Where did you go and what would you recommend?,ffbq8p9,DoYouBelieveInMAGA,2dg0lmxj
"I had an amazing time last spring, going back again in March",W3asl3y,b657b,ffboqcp,"Proud of my ancestral nation.  Poland's an awesome place generally. Talk about resilience.

When I was there this past spring I found it disconcerting, in a good way, how openly Christian the people and environment are.",ffaub2v,refugefirstmate,kyijw
Back at it again with those white cleats,W3asl3y,b657b,ffasjoo,Damn Daniel!,ffaam3e,dragon8_2much,3lik1hu7
root / calvin,W3asl3y,b657b,ff3qhlg,don't forget pi/raspberry,ff3blzz,miamistu,33plj
"Mine as well, with Jimmy G winning the SB MVP",W3asl3y,b657b,feyqyhz,Titans-Niners,fey9sho,00xjOCMD,161pup
"Hopefully you get a pocket turtle too, to remind you that slow and steady wins championships",W3asl3y,b657b,fep616e,Commemorative super bowl guacamole bowls.... I'm in!,fep55na,purplepandaeater,ctzy8
Super Bowl LIV MVP: Jeb!,W3asl3y,b657b,fep49rk,I’m not Jeb Bush and I approve this message,fep3iiu,slopezski,16uosw
Sounds like me with every Microsoft exam the first time,W3asl3y,b657b,fenvadw,"Yeah, I'm glad I didn't have to take it on paper. I failed it the first time by 4 points...got a 696 and 700 is passing.",felyy5x,Sideonecincy,edrzn
"I have not done much digging into the zero trust remote access. 

The original thought was moving to a Sonicwall SMA (as we have all Sonicwall nSAs we're currently using), but I was leaning towards a more advanced solution. 

 I considered OPSWAT SafeConnect, but other than that, Pulse and Cisco were the two main ones I was looking at. Open to other suggestions",W3asl3y,b657b,fenncma,"Yeah, there's a few really good new NAC concepts out there that are making it much better to have a NAC.

Have you thought of zero trust remote access to replace VPNs?

What about other NAC providers?",fenmnxs,bad0seed,lc789
"Right now we're using VPN within our FWs, looking to separate it out. We also don't have a NAC, and this seems to fit our needs a bit more than Cisco ISE.",W3asl3y,b657b,fenmeie,"Very happy to help, what other options are you looking at?

What security vendor are you potentially leaving?",fenmamr,bad0seed,lc789
"Thank you, this helps a lot! I was a bit concerned I would get excited about the suite, and then have the pricing shut it all down.",W3asl3y,b657b,fenm7zg,"u/W3asl3y there will certainly be more to thin about, but here's my best guess on what we've talked about:

* PS-VA-VLS-SVR - $1500
* STE-ENT-50CU - $10000
* POLSEC-ADD-250U - $8500
* PAR-PLN-VA-VLS-SVR-3YR - $6200",fenm3o4,bad0seed,lc789
"This is all brand new, never used anything Pulse before. I was slightly confused in what I've read. I'm supposed to have a demo with them and they should be providing me the part numbers they say I need. I'm just trying to get a ballpark figure to plan for, as management wants this deployed in Q1 (lofty goal, but hoping to hit it)",W3asl3y,b657b,fenm272,"The question on whether this is right still stands, but if this is all brand new I think we need to make changes:

There is likely support needed for the Access Suite - PAR-STE-ENT-PLN-50CU-3Y (mirrored the support for the virt appliance).

Pulse secure may need 2 virtual appliances, one for each product, they did something like that to me before.",fenloq7,bad0seed,lc789
"Looking for the virtual appliance, 50 concurrent users, as well as their NAC for approx 250 endpoints. These are the part numbers I came up with, but I don't know if they are accurate

&#x200B;

PS-VA-VLS-SVR

STE-ENT-50CU

POLSEC-ADD-250U

PAR-PLN-VA-VLS-SVR-3YR",W3asl3y,b657b,fenjzgj,"Absolutely, what are you looking for?",fenjkrm,bad0seed,lc789
Please tell me the last name was deliberate,W3asl3y,b657b,fekpaav,What ever happened to Jim Fossil?,fekkypu,JustAteAPizza,e9fwy
"Most likely they would be able to see the ticket, I'd wait for law enforcement to reach out to GCP",W3asl3y,b657b,fea7mcx,"I did contact GCP, but I couldn't do it from the company account. They did point me in the right direction though.

If I raise a ticket on the MD's account, would the IT manager see the ticket or would it be private?

They are both billing administrators on Google Cloud Platform.",fea4g78,throwaway10012020x,5ewvpo5v
That snot a good idea,W3asl3y,b657b,fe823x6,Bro what if it’s Romo and Booger together?,fe6qior,mark_cee,i2djz
"If you retired from Veeam, that would scare me way more than this acquisition",W3asl3y,b657b,fe4839z,"On a bright side, all of you guys will benefit from this greatly... you wouldn't want me to retire from Veeam, right?  :)",fdnsbxl,Gostev,jsnfd
Please tell me you're joking about liking Kaseya,W3asl3y,b657b,fe47yph,"My company uses Kaseya, and I like it a lot. So I'm hoping this will lead to some integration maybe?

Oh who am I kidding, the free version is going away and the product is going to go to shit.",fdo3q7h,Nik_Tesla,fp8my
Hows your sex life?,W3asl3y,b657b,fdp0523,Oh hi Mark,fdovk8t,Amish_guy_with_WiFi,nhxbq
"No egg for me, but everything else is perfect. Make sure it's on a pumpernickel bagel tho",W3asl3y,b657b,fdobzeb,On my taylorhameggandcheese?,fdo82l6,AvailableName9999,2ibcn88c
Really should have been pinned to our gameday threads this season,W3asl3y,b657b,fdhtgvn,yo mods pin this to every new thread,fdh0x81,xenocide0909,8avue
"Thats specifically why they had him go to NY instead of doing it in Waco, to avoid any standoffs",W3asl3y,b657b,fdgub7p,Naw they’re probably gonna hold rhule hostage to sign something I bet,fdgkiat,Not_A__Weenie,2qx3fdl4
I would watch Andy Reid reviewing barbecue,W3asl3y,b657b,fddl4jl,"Andy Reid looks like he goes on food shows with Guy Fieri and shows him around the best BBQ in Kansas City 

Oh wait",fdcczzq,andrew2018022,13fee6
Do you know the way?,W3asl3y,b657b,fcou7y4,This is the way,fcnbtvu,ICTknight,10xfu5
"I can help you there...my Solarwinds rep keeps wanting to schedule an ""account review"" to sell me more stuff, I'll give them your number :)",W3asl3y,b657b,fcosg6c,"Hah, I must be on the wrong list, I can't even get Solarwinds to call me after leaving messages and sending emails.",fco7an3,jcdillin,qvida
"If Tom won another SB more recently, I feel like he'd still carry more respect. Seeing as the last one was 2011, its hard to still use that. If Belichick goes 4-5 years without one, I could see him falling a bit as well for the same reasons.

> We've had some awesome fucking teams to only fall flat on our faces. We're just sick of being mediocre.

I remember Eagles saying the same about Andy Reid.

> Can't fire Jerry so the next thing everyone wants is JG.

Just like nobody can fire Dan Snyder from the Redskins (but I'm grateful for that)",W3asl3y,b657b,fcos0t9,"There was shade thrown at him when he left the Jags. If I was a player and there was a 2x Super Bowl winning coach I think I would stfu and listen. I don't understand players anymore. Most just want to get paid and think meetings don't matter. It's a different time for sure. I hope he doesn't hang it up and coaches somewhere. 

Fans are really sore about JG so you won't find much love here. And rightfully so. We've had some awesome fucking teams to only fall flat on our faces. We're just sick of being mediocre. Can't fire Jerry so the next thing everyone wants is JG.",fcortkx,Vapeguy2,fb1v5
"Giants fans were pretty split about Coughlin. My first Giants coach was Fassel, and I was happy to see him go. That being said, I was part of the group that wanted to keep Coughlin and fire Jerry Reese. Coughlin brought much needed discipline, and aside from a few players, everyone respected him. 

My view was that between injuries and bad GM, Coughlin just wasn't given what he was needed to continue success.",W3asl3y,b657b,fcoqpp6,I think it would help him and the team if he were to go somewhere else. Fresh start for both. Most of us cowboy fans are ready to move on from him. Did most Giants fans feel the same about Tom Coughlin?,fcoqg8d,Vapeguy2,fb1v5
"Garrett is going to fall victim to one of the classic blunders, never go in against Jerry Jones when ~~death~~ your job is on the line.",W3asl3y,b657b,fco8ps3,"[Glazer] Source says that Garrett is holed up in Jerry's office, leveraging Park Place and Boardwalk to keep the head coaching job. Jerry controls all 4 railroads so the sides are at an impass.",fco2bk0,2016Winner,137m2e
"Nah, that'd be Witten up in the booth watching with Jerry",W3asl3y,b657b,fcm2kuz,Jason adds color commentary.,fcm26sr,somebody_odd,4hj45kug
"Clearly this is the bad place

Edit: Actually, this must be the medium place. We have the best president, but everyone attacks him.",W3asl3y,b657b,fclszzx,Tahani is being a fat dink,fclnd9t,XmarkstheNOLA,3laxs
I was assuming it was highest paid for each position in each of them.,W3asl3y,b657b,fclqy78,Are the contracts all for the same amount of money or is each one different ?,fcli4t1,rmoss20,efip4
"Dak cuts it out of Amari, and Jason claps",W3asl3y,b657b,fclaf1v,"*Dak, Amari and Jason wake up dazed in a small room with a single knife on the ground between them*

*Jerry gets on the loudspeaker*

""there's a 5 year contract buried in each of your abdomens, the first one to retrieve it will be retained""",fcl9saa,DelcoScum,ibpc5r7
"Pretty sure I'm one of the only Giants fans who would be okay with it. As an outsider, I blame Jerreh for a lot of the Dallas problems, especially after watching the Cowboys All or Nothing. Garrett has so much care for his players and football passion, where McADooDoo and Shurmur never really showed it

Edit: Also, the idea of us winning a Super Bowl with him after all the years with the Cowboys would be great to watch",W3asl3y,b657b,fckosr9,Garrett to the Giants where he will clap his way to two victories a year over the Cowboys,fck7ntt,rangoon03,fu26w
He's very progressive about that,W3asl3y,b657b,fck9lua,"Don’t worry, Baker has Nest cameras in his house so chances are the entire exchange got recorded.",fcijoo7,-MichaelScarnFBI,2j38utzp
No way that happens,W3asl3y,b657b,fcjyc7s,Looks like we might be keeping Shurmur and Gettleman. See y’all next when we’re 6-10 👋🏼,fcjy5eb,Comrade_Dyatlov_,43zo4s5y
