child_body,child_screen_name,child_user_id,child_tweet_id,parent_body,parent_tweet_id,parent_screen_name,parent_user_id
This is exactly what I thought of before entering the comments,22Wideout,2guy3oo1,fkj8o6h,This reminds me of Squidward trying to dance.,fkirxqc,Ritehandwingman,turon
It would so awesome if he threatened to run 3rd party,22Wideout,2guy3oo1,fkiqs11,"Sanders should go scorched earth and make his case to run third party.

Biden is a fragile, demented empty vessel for health insurance industries to insert their policies. Even if he somehow manages to survive Trump's insults and get the Presidency, he'll leave 10 million uninsured and sell the wellbeing of the pandemic population to his biggest donors.

No time to fuck around in the apocalypse. Biden is a national health emergency.",fkioczx,FreezieKO,n8j8y
"Not only believes it, but in his mind it actually happened",22Wideout,2guy3oo1,fkhy73x,"Sadly, I'm sure he believes what he said.",fkhw1op,outwrangle,4855d
No,22Wideout,2guy3oo1,fkgoq0d,"Wrong sub

r/codwarzone",fkgokh8,CalebImSoMetal,rnjyf
The only acceptable outcome,22Wideout,2guy3oo1,fkgn8ii,"Why not just invite her to your place saying that she was right about the cats, and when she falls for the bait and enters your home, knock her out, then when she wakes up, she sees that she is tied up to the chair and cannot move from her arms and legs being severed from her body, when she has finally realized what has happened to her, give her a cat kennel with meat inside, and not just any meat but, the flesh from her arms and legs and then forcefully feed it to her, she begins to realize that her body is weak as you poisoned the meat with nightshade, just as her vision begins to fade and her life begins to end, she sees 6 people surround her with catmasks on, they begin to all say in unison “meow” 12 times, and for each meow they say, footsteps can be heard behind her, and as the final meow is said, your neighbors head has been cleanly severed from her body and all the masked people walk back into the shadows and taking your neighbors body with them, as you turn on the lights, you shake your cats kennel and give her a special treat, your neighbors horrified face.

So who’s hungry :)",fkg5io5,Its_Slinky,50qvaplk
"By any chance, did your mother smoke crack when she was pregnant with you?",22Wideout,2guy3oo1,fkgk7w1,Hopfully one day America gets what it deserves for killing so many civilians during the last two decades.,fke4uck,NickKnocks,vwsef
Fellow Kansan I see....I know the pain,22Wideout,2guy3oo1,fkgjq22,How about the people who live in states that don't hold primaries until May?,fkfvjqr,nanaclifford,u5uiw
I’ve developed some pretty bad anxiety and chest pain issues. Tremors/twitches in the neck face. So I thought I might try cutting out the sugar and caffeine to see if it helps at all,22Wideout,2guy3oo1,fkgerap,Why is caffeine bad for you?... Assuming your not having biblical amounts of caffeine?,fkfprlg,MadCapMMM,mztj3vw
"Thanks, I appreciate your in depth response.

 Yeah my anxiety has been a little more throttled lately, as I’m sure everybody else has too.",22Wideout,2guy3oo1,fkge414,"You should not be worried.

Caffeine withdrawal isn't physically dangerous in the same way as alcohol or barbiturate withdrawal is. Alcohol and barbiturates are sedatives, so when you withdraw from those drugs (after taking absurdly high doses for prolonged periods like in the case of severe alcoholism) the body and brain are effectively overwhelmed and hyper-stimulated to the point where it can causes deadly seizures and cardiac arythmia.

But caffeine is a stimulant, not a sedative, and a relatively mild one at that, so withdrawal from it would basically be the opposite of what you would expect from sedative withdrawal, and no where near as intense.

Its more complicated than that, but thats the basic gist of it. The neurotransmitter systems that caffeine effects, aren't affected to the same degree or in the same way as other more ""hard"" drugs do. And so consequently, the withdrawal and rebound effects aren't as harsh or dangerous either. Caffeine is actually much more dangerous from its actual effects (that can kill you), not from its withdrawal.

If anything there should be less ""strain"" on your heart than usual, and your blood pressure should be lower, because caffeine directly causes an increase in exactly those measures (blood pressure, adrenaline, cortisol, etc.).

So I wouldn't worry about the chest tightness and the blood pressure, at least not being caused due to the caffeine withdrawal. I think these things are likely being caused by something else in your life, most likely just exacerbated by the psychological stress of not being able to consume a drug like you normally do.

To be honest, it sounds like youre just experiencing anxiety and psyching yourself out about this more than the effects of caffeine withdrawal by itself. For example if you're expecting the withdrawal to be hell, and then you get stressed and panicky about it, then you can create the exact symptoms you're feeling now, purely psychologically. This is called the ""nocebo effect"", its basically the same phenomenon as the placebo effect in the other direction.

As a funny anecdote, a while back I stopped caffeine cold turkey like you. I was in the hospital at the time for an unrelated issue, and I casually asked one of the doctors who was seeing me if some negative symptoms I was experiencing could be caused by me giving up caffeine.

He asked me how many cups I would normally drink per day. When I told him it was usually 2-4 per day, he literally smiled at me like I was an idiot for even being worried enough to ask the question and reassured me it was highly unlikely I would notice anything more than sleepiness and the psychological effects of giving up a drug I liked. So unless you're some soviet era scientific human experiment that has been force fed caffeine since birth to reach inhuman levels currently (like 20+ cups per day equivalent), then you have nothing to worry about. Even if you were drinking anything close to the amount of caffeine you would need to in order to have any worry about withdrawal, you're in much more danger from taking that amount of caffeine in the first place.

Try green tea! I found it a much better substitute for coffee, and it still has a little caffeine in it so that should help with the withdrawal and cravings.",fkg8ouq,Reincarnate26,j29in
tf is it about toilet paper man,22Wideout,2guy3oo1,fkg6659,"If I can't go into any supermarket near me and buy a pack of toilet paper, we're already in a recession.",fkg4hkr,DragonTHC,dnp7c
We still have half the country left,22Wideout,2guy3oo1,fkg1d1k,He shouldn’t. He lost.,fkfxieo,murrjh13,26v5e3co
This list is ass,22Wideout,2guy3oo1,fkfljot,BO3 > MWR > BO2 > WW2 > MW3 > MW2019 > BO1 = WaW > BO4 > MW2 > Ghosts > dogshit > IW > AW,fkfi3c3,BeheadardStark,5wgq95au
"Time off work? lol, I’ll get fired for one callin",22Wideout,2guy3oo1,fkec1de,"You’re def gonna catch it, it’s almost inevitable at this point

You prepped to take time off work and have to deal with docs?",fkdponb,SpaChad1337,5un2a3jf
"I don’t know why but I’ve been experiencing tight chest and shortness of breathe...

 I’m really hoping it’s just my health anxiety",22Wideout,2guy3oo1,fkdlraf,"I know it feels like that on /r/coronavirus but legitimately, it’s business as usual in my town. 

They aren’t even closing schools despite all schools being closed 10 miles away.

They expect us to go to work, and not even stress about it.

Anyone else having difficulty breathing? I can’t tell if that’s my anxiety ramping up or if I legitimately am struggling for air right now.",fkd39y9,reasonandmadness,qys27
"Sure

 Credit to u/Owanjila",22Wideout,2guy3oo1,fkdi06k,Really just gunna steal a meme without giving credit to u/Owanjila like that?,fkdhub4,Zmoney1014,z8fh7
"Hasn’t reached my area yet. All the schools still opened. They cancelled state Basketball for our highschool and tournament for my college.

 Haven’t heard anything about canceling my college classes yet. Wouldn’t do shit for me anyway as I have to fucking work retail and see 100’s of people a day",22Wideout,2guy3oo1,fkdcdai,Damn that’s wild.. they shut all schools down where I’m at. Elementary.. high school.. college all closed lol smh,fkdc5iq,pgh77,2q2pp5jn
Boi you thought the same before he tweeted...don’t cap,22Wideout,2guy3oo1,fkdbuny,shutup nigga the album dropping soon,fkdbpi3,JOZYEBEROLIE,3k6lbp45
He did me dirty,22Wideout,2guy3oo1,fkdaq5e,he did that dude he told to stay up so dirty 💀,fkdagvw,greenrai,q2nc7
What about YouTube?,22Wideout,2guy3oo1,fkdagju,Might be issues. Like apple music,fkdab0o,hoesmad16,4b1fna5c
What a bitch,22Wideout,2guy3oo1,fkdaehk,I’m not risking my life in poor electrical work for a fucking kitten you psychotic keyboard warriors. Downvote me.,fkdabrl,Lostcory,5sh28
"No, because I’m neither a democrat nor am I republican",22Wideout,2guy3oo1,fkd7gz9,"So that’s a vote for trump by default. You understand that, right?",fkd6r6y,phillytimd,14679g
"I’m not voting for any presidential nominee...

 I refuse to support either of them",22Wideout,2guy3oo1,fkd6oz1,So you are voting for trump if Biden is the candidate?,fkd6btl,phillytimd,14679g
[oh my](https://imgur.com/gallery/fjWbR5j),22Wideout,2guy3oo1,fkd5oi1,"Lol this link, he gets it a few more times! https://youtu.be/OG7QOiStj-w",fkclaw2,Perm-suspended,16e6y0e6
"Yup

 I’m only loyal to Bernie",22Wideout,2guy3oo1,fkd56k3,"I say Bernie or bust. If he doesn’t get the nod, it’s time to start a new party - The Democratic Socialism Party. Who is with me?",fkcoavf,Neuro_psych100,5qcqy8eh
That’ll get me (a Bernie supporter) to vote for Joe in November.....otherwise I won’t,22Wideout,2guy3oo1,fkd558l,Just do a Biden/Bernie ticket already,fkbz0n6,phillytimd,14679g
"Nah fuck Joe

 Obviously not the right guy",22Wideout,2guy3oo1,fkcmnd6,Change your mind Joe.,fkc6iv1,SpySeeTuna1,dir5e
"*Diamond Princess*

 Never heard of that country",22Wideout,2guy3oo1,fkcm779,https://studylib.net/coronavirus,fkcgypq,akoogle,6hz5n
"Im asking how are they conveniently there? I’m not saying they shouldn’t be....

 Sit down",22Wideout,2guy3oo1,fkckuiv,"Why are you just commenting? 

Two people being in an altercation is better than three people being in an altercation. 
Any quiet recorded incident is better than any hero wannabe. 

It actually helps more to record than to rush down and think you know the whole scenario just because you watched it online.",fkckkq7,Skellephant,enz66
I visited my grandmother about a couple of weeks ago and that’s what she was telling me. That the virus was a democratic hoax....I was so disappointed,22Wideout,2guy3oo1,fkbk9l7,"Trump has made the pandemic worse by calling the virus a [""Democratic hoax""](https://www.msnbc.com/11th-hour/watch/trump-changes-tone-after-dismissing-coronavirus-as-a-democratic-hoax-80525893963) and then saying the coronavirus is [not much worse than the flu](https://abcnews.go.com/Politics/stocks-dive-coronavirus-spreads-trump-repeats-risk-covid/story?id=69482971).  He also said that people with [coronavirus can ""go to work""](https://www.cbsnews.com/news/donald-trump-coronavirus-comments-suggesting-people-go-to-work/).

He is the president and CinC with a team of medical experts behind him. People listen to him because he is the leader of the country.  And the public statements Trump has made has only allowed the coronavirus to spread further and faster in the US.",fkb76dc,teslacoil1,3ka5wm6m
Precum,22Wideout,2guy3oo1,fkbghy5,President,fkbd2tn,kasper_pandaYT,20lj0l3j
"Pretty shitty

  I had to drop out the first semester....this ones going a little better though",22Wideout,2guy3oo1,fkbd7pn,How's 14th grade?,fkb13y6,raheemthegreat,wid7jzg
Wow...if I had gold I’d give it to you,22Wideout,2guy3oo1,fka3irw,"Best case scenario: simply feeling her breath on your face might have caused the boner, since it was technically an impromptu moment of brief intimacy.

Worst case scenario: It's a paraphilia and you're sexually attracted to illness. Faulty brain wiring- cross-wiring between adjacent zones in the brain- likely between a sex-pleasure insula and the part of the brain where the notion of illness is stored and represented. Illness means vulnerable, which might have triggered some sort of predatory, sexual sadism reflex. Either way you slice it, here's my [definitive stance](https://i.imgur.com/kBlbhA9.mp4) on the matter.",fka32dr,IncelRex,4c2ftfq3
Good luck,22Wideout,2guy3oo1,fka17f4,"I just got back from about 12 hours in the ER. Turns out I have the flu (fucking H1N1 has risen from the dead) but being severely immune compromised and very pregnant gets me pushed up to high priority. It still took 12 hours. 

I had the unfortunate timing of coming in the day after the first cases were announced in my state. To say the ER was packed would be an understatement. I've been to this ER several times and never have I seen it like this. Multiple nurses told me this is the most patients they've ever crammed in there. 

Gurneys were all over the hallways, patients were left in wheelchairs when beds couldn't be found. Because I was getting screened as a potential COVID case, I got a lovely private room but it's so I didn't infect the entire ER. 

It took a public health team and a CDC consult to decide not to test me. I literally could've been tested, had it sent to the lab, and gotten the results in the time it took to confer with each other. I'm not being hyperbolic. We have an in-state lab that can run the test in 4 hours. 

**This** is what is going to kill us. I'm not even in a hard-hit state yet. I think we have 3 confirmed cases. 

I knew we were fucked but after going through all that with the ER today and coming home to watch his announcement, it's all starting to hit me just how bad this is going to be.",fk9sqn5,littlelupie,y6eao
"*shooting t shirts into crowd*

  Yeah, it’s Big Brain time",22Wideout,2guy3oo1,fk9zjwb,They didn't tell us a damn thing! The game was literally about to start. All the players were doing their warm up shots then all the sudden the entire Jazz team walked off the court. We sat there for 30 minutes waiting for something to happen while they shot T-shirts into the crowds to try and entertain us. Finally the announcer said game was canceled with no reason. Had to Google it to see what was even going on!,fk9z57u,Sombradeti,f2w15
"I was finally starting to get my shit together this semester....

Hopefully my college makes it atleast another month. Then maybe do the rest online",22Wideout,2guy3oo1,fk9z4a2,"> *go to lunch today*

""Well Italy seems to be stepping up measures a bit, but hey it's not looking too great over there, and it hasn't really affected the US yet so that's something to be positive about!""

> *check news before going to bed*

**HUNDREDS DEAD IN ITALY IN THE LAST 24 HOURS**

**TOM HANKS CONFIRMED TO HAVE CORONAVIRUS**

**ENTIRE NBA SUSPENDED**

**STATES BANNING LARGE GATHERINGS**

**COLLEGES CLOSING CAMPUSES AND EVICTING STUDENTS**

**STOCK MARKET FALLS OVER 1000 POINTS**

**UNITED STATES BANNING TRAVEL FROM EUROPE FOR 30 DAYS**

""brrUH WHaT the *FU-*""",fk9oi3j,loony123,d4ou4
Man y’all always gotta rub legalization in kansan’s face,22Wideout,2guy3oo1,fk9y2gl,the royals and chiefs win a championship in the lsat 5 years and Medical Marijuana is legal in MO i knew something was fishy,fk9uw1m,AhDerkaDerkaDerka,klb6l
I haven’t seen this shit since the 7th grade like 7 years ago,22Wideout,2guy3oo1,fk9xofx,When the teacher put this on it hit different,fk97k3s,Zachbuzz,k3mbz
Do you have to show proof?,22Wideout,2guy3oo1,fk9tejb,"A family member of mine is in the hospital with a dry cough, pneumonia and high fever. According to his nurse and doctor, the CDC won’t test him for Covid 19 since he hasn’t traveled recently. CDC will only bring tests for those that have left the country or been around others who have been diagnosed. (This is from a Kaiser in southern California.) 

He’s 72. He’s also a doctor and around patients. This is gonna get bad.",fk9j14g,fiorekat1,7cukx4v
Man wtf,22Wideout,2guy3oo1,fk9pzag,"[The dude who had the virus. No, seriously](https://streamable.com/o2eju)",fk9ka2i,KxngDay,4y3gtmlf
Make sure to have dicks out,22Wideout,2guy3oo1,fk9bq4s,Biden’s going to be on Chatroulette all week,fk9bgt6,cogit4se,98b2p
We’re not even halfway through the delegates....sit down,22Wideout,2guy3oo1,fk8d0np,"Cancel the debate, have Warren and Obama endorse Biden tomorrow and move on.  Let Bernie twist in the wind if he doesn't want to unite with the rest of the party and help defeat Trump.  Either get on board or get out of the way.",fk8bcd2,brasswirebrush,hnqw0
"Yup....

 I hate how we have to wait in the shadows while everyone else is getting their voice heard. By the time May comes its already to late.",22Wideout,2guy3oo1,fk8cp2m,"Can't wait for Biden to absolutely self destruct on stage, and still win the primaries. I'll be waiting until my turn in May to vote for Bernie, but when Biden loses the general don't blame the Bernie supporters.",fk8ashd,acey901234,k9ikt
If he supports legalization I’ll vote in November,22Wideout,2guy3oo1,fk8cik4,This is going to be the last debate. Biden should spend the entire time prasining the movement bernie built,fk8ao43,geodynamics,11exbq
"Same...

 It’s either Bernie or I’m not showing up in November...sorry, I’m not just going to vote for someone because they hold the same party",22Wideout,2guy3oo1,fk8cclt,I will only vote Sanders over Trump.,fk8axv4,Mazzic518,7sd6l
But they somehow have weed though,22Wideout,2guy3oo1,fk7kuh4,"Oklahoma is a highly conservative state. The exploitation of children for marriage is a very traditional and accepted practice. Progressive policy, such as banning child marriage, is dangerous to conservative ideology.",fk7isj0,David-E,22l4oj8g
Bro you been on here 7 days,22Wideout,2guy3oo1,fk6rqoz,Dang fr that's crazy bro that's why a lot of Reddits don't fw us. We be tripping sometimes,fk67wkm,sosabryant24,5t1hphjq
"No Bernie, no Blue vote",22Wideout,2guy3oo1,fk6h0w2,"Vote Blue, No Matter Who.",fk6e9ge,KangarooCornchips,fggx0
He can do whatever tf he wants. His campaign tainted,22Wideout,2guy3oo1,fk6gymj,"Bernie right now will decide his entire legacy. Will he do what he did in 2016 and possibly be remembered as the person who helped Trump win 4 more years? Or will he decide that he wants to be remembered as a unifier who rallied supporters around the nominee. I feel like legends of the hidden temple right now ""The choice is yours and yours alone""",fk6gmux,DietSeltzerWater,5v3p24wr
Yes,22Wideout,2guy3oo1,fk6gtyj,Election math or dollar sign math,fk6gp4a,nphased,w5uxw
I’m just gonna write in Deez Nutz,22Wideout,2guy3oo1,fk6gnkh,"I'm getting some nostalgia. I remember this exact feeling 4 years ago...

Unfortunately, this blow was decisive. Sanders' policy was far from radical. We can expect his economic policy to ingrain themselves inside of the progressive party moving forward. Best not stew in it. 

I do find myself kind of puzzled, though. This race has been very irregular. I wish there was a place for us in this two party state. Instead of watching the pendulum oscillate periodically, and feeling helpless. I just don't feel like my vote matters. 

Statistically, we compose a significant minority of the American population. Clearly evidenced by our relatively enormous support. Yet, when the DNC chooses Biden, none of those votes mattered. It's not proportional. It doesn't feel fair. I won't be voting for BIden. He doesn't represent my interests. Biden is a great man... But not someone that can represent me. Neither can Trump. So, where is my place in this election?",fk62g0p,Openworldgamer47,gt81o
No...please don’t waste your money,22Wideout,2guy3oo1,fk6ggd5,Never give up. Fight to the bitter end. Donate all you can give.,fk6auto,therealStevenMoffat,5kd71oh2
Do you want reduced health care or drain your bank account and more health care? Which is it?,22Wideout,2guy3oo1,fk63kk6,Don’t get me wrong I’m all for the medicinal and recreational use of almost all drugs. But I disagree with federal free health care and majority of his points on his platform.,fk639uh,pickle_rick95,5l9nau2n
If only it was that fucking easy,22Wideout,2guy3oo1,fk62jig,Move to a legal state. No one person forces you to break the law in your state.,fk61zuq,pickle_rick95,5l9nau2n
"*how much I pay for health insurance*

 Bernie Supported Medicare for all",22Wideout,2guy3oo1,fk623zv,"Simple for caring about actual political platforms that actually will affect how much money I bring home, how much I pay for health insurance and how much taxes I have to pay. Being self employed taxes are a bitch. And will be worse with your left over hippy of a candidate",fk61uk1,pickle_rick95,5l9nau2n
"In 2016 yes...

 He was new and shiny. 

 I just don’t give af now. I try taking an interest in politics and it just slaps me across the fucking face. Tons of hours spent following shit for no gain....

So the only satisfaction I’ll get out of this is fucking the Democratic Party over because they chose Biden",22Wideout,2guy3oo1,fk6183v,"Ok. If you were able to vote in 2016, would you have voted Trump?",fk60v28,Fickle_Broccoli,16487w5b
"I was 16....

And I was a supporter of Bernie before he dropped out",22Wideout,2guy3oo1,fk60gl3,Do you mind if I ask who you voted for in the 2016 general election?,fk5z5im,Fickle_Broccoli,16487w5b
Kinda doesn’t matter anymore,22Wideout,2guy3oo1,fk60ejk,Fox or TYT will be the only ones not cheerleading Sloppy Joe,fk5zfu5,BenjRSmith,2g4hki9u
"I use cannabis for my severe anxiety and the alternative to that is benzo’s that absolutely fuck my head....

 So to me, that is the most important issue of whether I have to worry about getting put in prison over it",22Wideout,2guy3oo1,fk5yw90,"There’s more important issues to a a president you should be concerned with, federal legalization of a drug shouldn’t be your main pull. If so your priorities are severely skewed and need to be re-evaluated",fk5yjau,pickle_rick95,5l9nau2n
It’d be nice if all states votes the same day,22Wideout,2guy3oo1,fk5y3c3,"If Biden won Michigan then Bernie's done - he's not going to get the lead back and the DNC will not even consider him as the primary candidate winning the Convention.

Face it - Younger generations completely screwed themselves by sitting home during Super Tuesday. They had a chance to reshape the Democratic Party and they punted. I get being bogged down and feeling disheartened, however not showing up showed basically told Bernie ""You're on your own; we won't show up no matter what.""

Democratic Party is celebrating tonight, all thanks to the younger generations once again not caring about the future.

FYI - I'm a Bernie supporter in my mid-30's who hoped to God he could win.",fk5xxhs,VheloGrace,s83hb
They’re both pieces of shit that you’d find in a park,22Wideout,2guy3oo1,fk5wm45,Cant have chocolate ice cream like you wanted?  Better eat this piece of shit you found in the park.  Big brain time for sure.,fk5vxzx,zhaoz,3fc6d
"My primaries aren’t until May

 I was voting Bernie but that’s gone. 

!remind me in 7 months",22Wideout,2guy3oo1,fk5wf1e,Sure. I totally believe that in November you'll vote for Trump because Biden won the Michigan primary,fk5w0tc,Fickle_Broccoli,16487w5b
"I could give af less about blue. None of Bernie’s plans are with Biden, so might as well fuck shit up",22Wideout,2guy3oo1,fk5w1e6,"Absolutely not! Lord knows we were all excited to blue no matter who everyone else when it seemed good for Bernie, were not about to go back on that",fk5vq9c,homo_bulla,100t76
"I did yes, along with the majority of people before Super Tuesday",22Wideout,2guy3oo1,fk5vv71,Did you believe in him at all to begin with?,fk5vnkx,Dchella,nf07y
"Damn...I’m dumb

 Thanks",22Wideout,2guy3oo1,fk5d75g,Some links on the post above,fk5b86q,seamslegit,89ae6
What if it’s a QB,22Wideout,2guy3oo1,fk54pjb,"First round, best available player. Every year, no matter what.",fk4mcfv,smoboaty,62qz8
I’ll believe it when I see it start eating it’s own shit,22Wideout,2guy3oo1,fk54j1q,"If you look closely, it's actually a dog in a cat suit",fk4stro,warpus,3p26z
"Cool, I live about an hour away in Parsons.....

Sucks that we can’t vote until May",22Wideout,2guy3oo1,fk4hzm4,Yep!,fk4fx52,kris_the_fish,333kyu7
I’m 5’6” 130lbs and a man....but am I grown ass man?,22Wideout,2guy3oo1,fk460zi,Pretty normal some nights I’m the only guy at my job and I’ve definitely heard some grown ass man farts come out of some 5’6” 130lb women,fk1v5u3,gphjr14,9n75czq
No tf it wouldn’t,22Wideout,2guy3oo1,fk3yezz,Man the banger him and pop smoke could've made would've been the next hot nigga,fk1yzqt,PIayboiCarti_,3z6rk6ax
Finna dick me uh,22Wideout,2guy3oo1,fk3yd4y,cum real sticky uh,fk1wb2v,TJ_Nitrous,5n8lx0y0
I hope,22Wideout,2guy3oo1,fk3y9bq,Shmurda will prob just ignore him tbh and link up with NY drill rappers(like Sheff) .,fk20s5z,LuxuryLifeAllWeek,9eb3sfo
"Fuck 69

 Don’t taint Bobby",22Wideout,2guy3oo1,fk3y7o4,"Imagine this music video. both shmurda and 6ix9ine are at the courthouse waiting for their release. Doors open towards the street, both of them walk out, look at each other, camera starts to rumble, both of them panic... A hat from outer space comes jetting down towards 6ix9ine but is immediately caught by shmurda, in that same moment the beat drops...",fk1ukb6,EugeneMJC,5bsq8
"ASAP Cardi

 *am I a joke to you?*",22Wideout,2guy3oo1,fk3y11p,"With one ASAP member, lol",fk3qzl7,RamboNaqvi,13016n
"Guess I know where I’m playing my next trip 

 *cough*",22Wideout,2guy3oo1,fk3rekm,"egypt hasnt closed yet

i love this country",fk38w7y,botshaabeet,4xquc21m
Kansas,22Wideout,2guy3oo1,fk3od9g,a citizen of where tho,fk3ju7o,itsinohmygoditsin,4mhob5j5
You know the thing,22Wideout,2guy3oo1,fk31v24,Promises are like...you know.,fk274pj,fowlraul,d3hi5
"Nah, Tina",22Wideout,2guy3oo1,fk31o5z,Carl is that you?,fk2rbmn,Alphapig32,et84i
"One problem....

 No friends",22Wideout,2guy3oo1,fk2orlo,"Vote, then get your friends to vote, and their friends and their friends and then, their other friends.",fk2og6y,swellco,11s7kn
I certainly will,22Wideout,2guy3oo1,fk2o4dg,Vote for Bernie,fk2nr30,grizzlythebignizzly,2hz2xozf
You think he’s just bringing this up for shits and giggles?,22Wideout,2guy3oo1,fk2o1gy,Maybe focus on winning the nom first?,fk2eyq2,mylefthandkilledme,aepd7
Why not 420k?,22Wideout,2guy3oo1,fk2nz5n,15k is too many. Keep it more exclusive and only have a few hundred there. Like maybe 400...and 20. That seems to be a good number,fk2kn2f,Devinlee425,7npz9
I can definitely see tons more attending,22Wideout,2guy3oo1,fk2ny7i,15k we can get 15 mil I will hope to be one 😁,fk2ey49,papichulodos,jofkgdm
I might try staring at my feets next time,22Wideout,2guy3oo1,fk1bm8l,I just stare at my foots or my phone,fk03eon,Ani____,21dyx150
His will,22Wideout,2guy3oo1,fjyq67s,I just want to know what my mans was writing down in the passenger seat.,fjym5ya,xLevictus,14zv5i
I just don’t like gore,22Wideout,2guy3oo1,fjyab4t,Wouldn’t that be the entire sub about horror films?,fjy8wje,acf6b,hyf3q
Am I missing something?,22Wideout,2guy3oo1,fjwsya2,"Literally when he’s our nominee.  
It’ll be our racist grandfather versus our senile oldest uncle.",fjtzdsx,CowboyTrout,5dr42j6n
"lol...

 Bud you have no idea what you’re spewing",22Wideout,2guy3oo1,fjwrghu,Remember this moment when you develop severe depression due to years of self medicating. I tried to warn you.,fjwrbvk,Reeb99,zgcfl
Appreciate the tip....but you’re wrong,22Wideout,2guy3oo1,fjwqu7m,"If you have anxiety issues, stay off social media. Weed is only a band-aid, much like alcohol. It isn't some miracle cure.",fjwqjqi,Reeb99,zgcfl
"Still didn’t answer my question. wtf am I supposed to do about it? We’ve only had this issue for about a month and I simply asked a question about the status of legalization. It’s not like I asked, “why is the fucking state senate worrying too much about the Coronavirus and not weed?”

 And maybe you cannot be a dick and think I just smoke to get fucking high. Cannabis helps my anxiety tremendously and it allows me to be off medication. So maybe YOU can think less about your beliefs and maybe think about how other people live their lives.",22Wideout,2guy3oo1,fjwpozj,Maybe think less about yourself for one moment of your life? You will live of you don't get high.,fjwkm3h,Reeb99,zgcfl
I’m jealous,22Wideout,2guy3oo1,fjwp0xm,"Perfect genetics! My scalp produces extra oil, which acts as disgusting natural pomade.",fjwmk67,Pinophytologist,5oq8arqp
Glad I don’t work at Walmart anymore,22Wideout,2guy3oo1,fjwgs3t,Gonna go to Walmart and see the panic buyers,fjvf1w6,herple_derpskin,6bril
Ordering online is the best way to go,22Wideout,2guy3oo1,fjwfk6i,What stores in Manhattan are selling. As it would be nice to not have to drive to KC to get anything. Shit gets expensive after a while.,fjv7f1x,Nvr_Smile,ms9omv5
"There’s no need for me to worry right now. The mortality rate isn’t high for people younger than 55 years old. tf am I supposed to do about it anyway? 

 Can I not talk about other issues besides some virus? I gotta drop everything else and preach about it?",22Wideout,2guy3oo1,fjwf3an,"COVID-19 coming and you are worried about weed? Holy shit balls, you need some priority adjustments.",fjwcg4d,Reeb99,zgcfl
I would be packing my shit up and leaving if I lived there,22Wideout,2guy3oo1,fjw41nl,"It's a weird situation because, according to the article, Bethlehem sits on the border of two counties, one of which is allowing the city more leniency than the other. It really sounds like the city council is trying to enact change and getting bunged up in state-level policy discrepancies in the process. They also mention at the end that the policy shift did very little for arrest rates, so they don't have the data with which to lobby for real change.",fjv9p30,awildtrowawayappears,n98d8
My indecisiveness is what kills me,22Wideout,2guy3oo1,fjw3uuw,"I get shit done. I dont waste time being indecisive over which is the best choice to make, I find I have the energy to go to the gym on a near daily basis, and still play video games or get some house work done.

My life isn't sunshine and bunnies all day everyday, but when the bad shit comes, I can push past it and not let it impact the rest of my day. I'm upset over something, I don't rant and rave, and I don't mull over it all day. I acknowledge it, accept it, and set those feelings aside to crush them at the gym like the insignificant specks they are.",fjulepo,Sorcatarius,muu8f
"150 for 5’8”-5’9” male is healthy and that’s the average height.....

 And the *REAL men* your talking about are 5’10” people and above..and or someone that is into strength training.",22Wideout,2guy3oo1,fjvu2dh,Lmao 150 at the height of a **real** man isn’t very healthy.,fjvjzvy,fat_fist_fister,10imjb
"It needs to be decreased, but not totally banned",22Wideout,2guy3oo1,fjuorim,It’s good for the workers being exposed to radioactive wastewater daily. It’s good for the people who can light their tap water on fire due to fracking. It’s good for the people who experienced earthquakes due to fracking.,fjuo644,Toe-Succer,157p33a1
"Sorry for my ignorance, but what would an executive order from Sanders day 1 do? Wouldn’t it force states to accept? And since we have Kelly wouldn’t that make it much easier?",22Wideout,2guy3oo1,fjunqm1,"I don't think voting for Bernie is going to matter at all.  If you want legal weed in Kansas, you need to work on getting Dems elected in areas with Republicans are vulnerable. For instance, GOP Senate leader Jim Denning is becoming more vulnerable in his increasingly moderate district in southern JoCo - flipping switches like that are going to bring you a lot closer to *medical* marijuana (no way there's full legalization) sooner.",fjul8ed,cyberphlash,5otyw
The fucking Margaret Thatcher one killed me,22Wideout,2guy3oo1,fju85rz,"Here's a comparison of then and now. 

[https://www.youtube.com/watch?v=gXvwumYE7\_s](https://www.youtube.com/watch?v=gXvwumYE7_s)",fju0tf4,fullmeasures,cw8o3
Every delegate matters,22Wideout,2guy3oo1,fjtzjhl,Waste of dollars. A dem isn't winning KS.,fir5atd,chatsucks123,45vglsiw
May 2.....primaries are May 2,22Wideout,2guy3oo1,fjtz5ve,"Kansas 2020 Election 

[Register to Vote](https://www.kdor.ks.gov/Apps/VoterReg/secure/default.aspx) 

[Primary Election](https://myvoteinfo.voteks.org/VoterView/PollingPlaceSearch.do): August 4, 2020 

[General Election](https://myvoteinfo.voteks.org/VoterView/PollingPlaceSearch.do): November 3, 2020",fjadotr,election_info_bot,jpimgrm
