child_body,child_screen_name,child_user_id,child_tweet_id,parent_body,parent_tweet_id,parent_screen_name,parent_user_id
"Oh shit, I was reading a comment up above about the guy who went around buying small stashes of hand sanitizer and then reselling them on amazon and his account got suspended. Sorry, I meant to reply to that thread",blonderaider21,130hjt,fkiaajj,I think multiple pallets of a single product is more than a ‘small stash’,fkia22x,shallowandpedantik,1t0myi2f
"Ya but ppl sneeze and cough, it would be very easy for microscopic infected droplets to shoot into the air to land in your food. It sucks that so many businesses are hurting from this. I hope it is all over with fairly soon",blonderaider21,130hjt,fkia3gi,"I mean it's a valid concern. However, at least the restaurants I know of around me, are taking this very seriously and have implemented new policies to make sure people aren't touching food in a way that would pass on germs. 

So I don't think you should be eating out every night or anything, but I don't think occasionally ordering food should stop. And/or if you are going to be lazy and order food, at least try to order from some place locally. They are already hurting.",fki85mj,robotevil,32eoc
"What these ppl don’t realize is that by hoarding stuff for yourself and thereby leaving others without, you’re only fucking yourself over. I, for one, WANT everyone around me to have access to disinfectants.",blonderaider21,130hjt,fki7irn,"Yep and because of trash bags like him, every store I’ve been to in TN is out of stock on everything!  Now the infection is spreading here.  Hospitals are showing shortages of PPE equipment, especially masks.  However, their PR mouthpieces are claiming the opposite.  This guy is directly jeopardizing lives with panic and supply shortages.",fki3r08,WSB-King,50otq0it
Nastyyyy,blonderaider21,130hjt,fki6utb,I can say from personal experience that it's like this. Worked at a pizza hut years ago making them. Boss wouldnt let people even puking and with the flu stay home.,fki5tsw,Wilwheatonfan87,3q9l5
"The lines at the grocery stores around me are wrapped around the building and the average wait time to check out is around an hour. Entire sections of food are wiped out. Ppl are legitimately worried about being able to feed their families, and a lot of businesses and restaurants are closing down, so for them to send out a message to say, hey, we’re still open if anyone is needing food, I don’t think that’s callous. Sure they’ll be making money right now, but that’s bc they’re providing something ppl actually need. Just like the toilet paper and hand sanitizer companies are making bank rn.",blonderaider21,130hjt,fki6nch,"Pizza hut sent me a notification today along the lines of ""stuck at home? Order pizza hut!""

Companies don't care about any crisis beyond their ability to make money off of it.",fkhxnry,IdLikeToGetOffNow,1tu9g06g
"I saw a post on fb from a doctor that‘s circulating around, and he was trying to discourage ppl from even ordering food delivery. He said it passes a lot of hands in that process, so making food at home yourself is still the safest bet right now.",blonderaider21,130hjt,fki67l7,"Side note, please support local restaurants. Ordering food delivery is still safe, and if your extra paranoid you can always reheat it in the microwave or oven to kill anything. 

Places like Pizza Hut will be able to weather the storm, your local (some number of generations) owned pizza place won’t if everyone stops ordering for several months.",fki3fe6,robotevil,32eoc
Some of these ppl may be buying for businesses. The guy with two carts of milk may be buying for a small restaurant or coffee shop or even a daycare. Normal delivery trucks are super backed up right now so they’re turning to places like Sams or Costco to buy in bulk. Just another perspective.,blonderaider21,130hjt,fki5sla,"For real though, why am I not seeing videos on /r/PublicFreakout of people loudly shaming these selfish idiots carrying way more supplies than they could ever use outside of grocery stores?",fkhyrhq,Try_Another_NO,fmchv
Probably bc all they can eat is fast food and gas station snacks while they’re driving,blonderaider21,130hjt,fkg0z84,Have you ever been to a truck stop restroom? All black belt shitters.,fkf831u,Soreal45,2a2wme8d
It might be bc you bought an attachment seat for your existing toilet? They have the full Toto bidet toilets. I think they conserve water and energy as well.,blonderaider21,130hjt,fkg0ulm,Hm. My bidet does 90% of those things and it cost about $200. Diminishing returns in action.,fkfxi8a,5inthepink5inthepink,dd2ai
"Ya I don’t think ppl are rushing to the stores to buy plungers. In our grocery stores, the entire meat, bread and canned food sections are out. Pasta and rice is gone. Kids just got out of school today for spring break and they’ve added a second week. Ppl aren’t traveling so they’re getting food since their kids will be home the next couple of weeks. And if we end up having to be quarantined ppl don’t want to be stuck home without food.",blonderaider21,130hjt,fkg0q38,"Its been over 3 months that this virus has been around. It started in china, and given their history it was bound to get out of hand. You dont buy a plunger when you need it, you buy it before hand.",fkfvdtp,KronosGTO,22e8f7e3
I looked it up the other day and America rejected them bc of our Puritanical roots. Apparently our soldiers saw them overseas in bordellos during the war and were too skeezed out to put them in their homes here bc they were associated with sex workers.,blonderaider21,130hjt,fkfuzs8,"They're built in to almost every toilet seat, along with seat warmers and other features. Coming back to North American toilets feels like going back 100 years. Like we might as well just use chamber pots and empty them out our windows while we're at it.",fkfhkqy,ascccsa,8fahpd1
If you’re around that many ppl every day your immune system is probably pretty badass by now,blonderaider21,130hjt,fkfuqcu,"I commute through grand central twice a day, I'm probably a walking petri dish at this point. But if you just came back from Japan that's a legitimate reason that your employer will tell you to stay home, and I fuckin wish I could stay home.

(But seriously it's not some homeopathy thing where a few instances of the virus can fully infect you, there's some critical mass where infection becomes likely and most people aren't exposed to that degree even if they cross paths with contagious people.)",fkfjvg2,DoubleAnalCreampie,5p9cwxuj
Damnit I just now commented this same thing up above lol,blonderaider21,130hjt,fkfunoc,"Just came back from Japan?

Boi you better be quarantining yourself",fkfcnod,DoubleAnalCreampie,5p9cwxuj
"I have a friend whose parents are loaded and they have the fanciest Toto toilets in their bathrooms. They’re like $5000 a piece. I’m almost sad that I even know those exist now bc they. Are. Amazing. Like, that’s my life goal. To work hard enough so that I can afford one of those toilets in my home. 

The seat is heated, it automatically flushes, there are all different directions the (warm) water can hit you (like front or rear), you can adjust the pressure of the stream and make it oscillate or pulse, and there’s a dryer afterwards. The seat is also motion activated so it opens and closes for you. It’s got a nightlight to help you see in the dark. I mean this thing is magical.",blonderaider21,130hjt,fkfukzt,Those Toto washlets are the fucking best. Laser guided B-hole cleaners.,fkfd49q,kaluce,a0mzr
Japan? Hope you didn’t bring the ‘VID back with you,blonderaider21,130hjt,fkftzbf,I just came back from Japan and I am 100% never going to shut up about bidets.,fkf87o1,ascccsa,8fahpd1
Bidets are selling out too,blonderaider21,130hjt,fkfttre,"I'm surprised no one just gets a bidet. Actually, I have seen my favorite brand sold out on amazon so they probably are starting too. They're fucking amazing. [Cause before I changed my diet to a healthier one like this to fix some health issues(lactose intolerant))](https://www.youtube.com/watch?v=KIxIaHy3n8A&list=UUBAyDAs2M6klx0Q09DKmsHQ) I was having to wipe thousands of times just to clear the mud. But now, never again will I have to endure [the risk of the thousand wipe mud butt cleans](https://www.youtube.com/watch?v=vGCIGEUB32M). Cause seriously, it gets so frustrating, [as if the aliens these guys seen are teleporting crap back there when I wipe](https://youtu.be/Ocv1ivfAT1c), that sometimes that I almost want to quit 50 wipes in and just leave the shit on my ass.",fkf1t7a,BuyBitcoinForFutureU,45vdfjcj
"The canned goods section in our Kroger is wiped out. So is all the rice, pasta, meat, and bread. The wait to check out is over an hour long. It’s been like this the last 3 days. They restock at night and then pandemonium ensues as soon as it opens back up. Toilet paper sells out in 30 minutes. Ppl rush the doors like it’s Black Friday.",blonderaider21,130hjt,fkftri5,"And no one is touching canned goods, medicine, tissues, vitamins",fkf0rmu,shaidycakes,dzxl4
"I watched a lady walk out of a public bathroom stall today, skip the sink, and pull out her hand sanitizer.",blonderaider21,130hjt,fkftl02,"My absolute favorite thing about this is that while every store in a 10 mile radius around me is sold out of TP, they all still have plenty of hand soap.

Priorities.",fkewk1b,Monster-Zero,isdu7
I wonder if they realize that’s the image they’re projecting with that much tp in their carts,blonderaider21,130hjt,fkftc7e,These dudes look like heavy shitters though,fkesdz4,OldWitchOfCuba,wmjew
Where else do you propose ppl get their supplies? Things are sold out online too,blonderaider21,130hjt,fkft9xp,"PRO TIP: IF YOU GO TO PLACE WITH HIGH AMOUNT OF PEOPLE AT ONCE TO STOCK UP ON SUPPLIES, ODDS ARE YOU MIGHT PICK UP COVID. MORANS",fkfkfc0,KronosGTO,22e8f7e3
Very big assholes,blonderaider21,130hjt,fkft63c,Who shits this much?,fkfbaqv,wecansing,fpwzr
They’re literally shitting themselves over this virus,blonderaider21,130hjt,fkft4so,They need that much toilet paper because they're assholes,fkfber0,beaker88,fajtyi4
Must be the same teens eating Tide Pods,blonderaider21,130hjt,fkft3dp,Honestly i was googling everything about drinking hand sanitizer yesterday. Most teenagers mix it with listerine and salt apparently.,fkfhkof,AtbBerare,yxj8gkt
This was all a ploy to finally get America switched over to bidets,blonderaider21,130hjt,fkft0qo,Pro Tip.  Buy a bidet instead.,fkfklnm,oquechingados,5e6lk1qo
The orders for bidets are backed up,blonderaider21,130hjt,fkfsqc4,Pro tip: buy a bidet. You'll save so much on toilet paper and never have to suffer the thousand wipe cleaning some of us occasionally have to go through. Cause fuck that shit. Sometimes I get so tired I just want to leave the shit  there.,fkfgip7,BuyBitcoinForFutureU,45vdfjcj
Got it. I don’t need the service but was interested to see how that even works,blonderaider21,130hjt,fkfsimn,Either way its fraud and not allowed here.,fkf7p3w,cannibalisticmidgets,1651kq
Wow he’s good!,blonderaider21,130hjt,fkegygu,"A more serious song he did for me: https://soundcloud.com/djacrylick/promises/s-OXAvP

i had to upload it to a server so its easier to play on my phone. i probably listen and belt to it 5 times a day",fk0c90q,ObviouslyYTA,5m99ddco
*DEA has entered the chat*,blonderaider21,130hjt,fkeg4yg,Any good with weed plants,fhd4076,Natas326,4f8wodw3
If op lives in the states don’t you dare send those here lol,blonderaider21,130hjt,fkedlm7,If you where in nsw I would send you a few cases of red back spider eggs ;),fkdpjdk,vidwaan888,154ljy
Is there any chance you could have been watching a murder mystery show on Netflix or something like dateline?,blonderaider21,130hjt,fkcvxde,"also i'm pretty sure it's set in the modern day or something close to it

before he went to see the judge he's been transfered from another holding cell but doesn't have a sentence yet

(i think)",fkct2oa,Verquinn,1es7xzjb
That’s true in some cases. Insurance companies don’t want to pay for therapy if it’s simply a “delay.” They’re much more likely to give it the green light if there is an official diagnosis,blonderaider21,130hjt,fkcr1de,"I've heard CAS gets misdiagnosed so that insurance will pay for therapy. Not saying that's what's happening here, but maybe.",fjz6s8g,jimmycrackcorn123,7pofz
Do you always get this easily triggered when a celeb you’ve never met is criticized?,blonderaider21,130hjt,fkcdsaj,"You're right lmao, the people who got lucky with their voices definetly contributed more to music then those who wrote, produced, and mastered their own music. Because Obviously. What kind of logic...?",fkbuweg,mckaystites,g2ysv
For someone who claims to not listen to or like her you sure are expending a lot of energy defending her all over this thread,blonderaider21,130hjt,fkcdbns,"As someone who doesn't listen to Billie Eilish of my own volition ever. Imagine thinking not listening to an artist means you have good taste in music.

News Flash. Most the people in the world are dumb as shit and they have music tastes to reflect this. It's all subjective and you're all clueless anyway.

Acting like you're cool and edgy and aware for throwing logic out the window in favor of saying sporatic stupid shit about subjects you don't even know the first thing about is lame. And so are you",fkbx3bi,mckaystites,g2ysv
"TLDR but I took vocal lessons and her style of melodic talking in a monotone voice isn’t singing. 

> laugh at you idiots for being clearly jealous

That’s pretty funny, thanks for the laugh. Commenting on an artist’s style doesn’t make one jealous. She always looks high as a kite and I don’t aspire to look or be anything like her.",blonderaider21,130hjt,fkcckxw,"Jesus this sub is so lame. I commented twice about this on two comments that were basically in the same thread. I don't listen to Billie's music, it's not what I personally enjoy. But acting like singing ability is entirely subjective is just dumb. You can dislike how she sings, you can dislike the method in which she uses to stress her voice, you can dislike the breathiness and emphasis she has with this style.

Just like anything else this is all subjective and you can argue for almost anything. But this is like me arguing with someone about the Coronavirus. You can argue about severity, or effect. But this is the equivalent of me claiming that the Covid-19 Virus is just a hoax and not a virus at all.

He can have an opinion, but contrary to popular belief, his opinion can be stupid, and rooted in dumb thoughts that he should have kept to himself.

Its like me saying that someone isn't rapping because he doesn't has the some phonetics as Tupac. It's disingenuous horse manure that people always perpetuate because they're mad some 19 year old kid has success when they perceive them as having no real talent.

There's a big difference between saying you don't think she can sing, and then shutting down anyone with the opposing opinion. Hundreds and hundreds of vocal coaches would come into this thread and laugh at you idiots for being clearly jealous, and massively uneducated on the topic that you're telling people to ""get better taste in""",fkbuavc,mckaystites,g2ysv
It’s pathetic and irresponsible for her to publicly spout ridiculous comments given the platform she has and the amount of impressionable young minds she has listening to and following her. Ppl like this need to be checked.,blonderaider21,130hjt,fkbu3jg,"Okay, but Jesus Christ is she not 14? What is wrong with you people? Do you have no real problems? Ngl. This whole post is deeply pathetic",fkbgqio,BlorpZorpMcGorp,4ikjhq1p
Thank God we have ppl like you who are willing to teach other ppl’s kids bc could you imagine if we left education solely up to the parents?,blonderaider21,130hjt,fkbtwpj,As a teacher I can confirm there is a high percentage of lazy parents who conceptualize school as a daycare rather than a learning/development place.,fkbraz9,thefunnyfunnies,2ip0hj0p
...but they’re “not really a Billie Eilish fan” lol,blonderaider21,130hjt,fkbtbgy,my god you're going to do this to everyone that says she's a bad singer aren't you /s,fkbqrta,everything_but_not,5rccbs60
"We get it, Stan. You like her, calm down with all the comments freaking out on ppl for voicing their opinions. It’s okay if others don’t think what she does is exactly “singing.”",blonderaider21,130hjt,fkbt783,"Im not a Billie Eilish fan but you have to be in deep on the circle jerk to actually go around and act like the girl can't sing. Listen to any of her Genius Verified videos.

Listen to whatever music you prefer, stop going around and acting like you're not just someone who acts superior cause you listen to music you personally like",fkblng8,mckaystites,g2ysv
"Agree ^ I like listening to her songs bc they’re catchy and have a good beat, but what she does is def just mostly talking in a low hushed voice. Not sure why her stans are getting so offended, it’s ridiculous to put her in the same category as artists out there who actually have gifted singing voices",blonderaider21,130hjt,fkbszas,"No but seriously, it's not singing. It's melodic talking",fkbkdo0,PoIIux,6gy7r
But those artists don’t usually make the beat. They lay the vocals down on a beat that’s already produced by someone and they listened to a bunch of different ones and picked that one out,blonderaider21,130hjt,fkbsdca,"Yeah, making a good beat is no joke, it takes time.",fkbrr6x,auto_orchestra,drleudu
"Your last comment about the personality types is such a great idea haha. I took one about a year ago and it is so eye-opening and explains so much. I now know why certain types of ppl grate on my nerves and why I gravitate towards others. I think my biggest problem finding friends here tho is that everyone seems so selfish and flakey and stuck in their own worlds. I ask other moms to hang out and they’ve always got other stuff going on—which is understandable with kids—but after the 4th or 5th time asking I just stop bc I feel like I’m bugging them. Or if they come over for a play date it’s just a superficial conversation (that usually revolves around your kids) and you don’t ever really get to know anyone on a deeper level. So it’s like bye, see you next week! But they aren’t exactly someone you can call or text to talk about real life issues with",blonderaider21,130hjt,fkbes9g,"This is our dilemma. Military, hubs just retired. Stay at home mom, homeschooled kids, and family 6 hours away.  Trying to make friends is difficult because where we live, everyone has known each other since they were in utero, and it is like they speak a different language. So, since November, either we, or my family, make the trip.  My kids are so happy to hang out with cousins and their gram.  I love it too, but it doesn't make the weekdays easier, or the holidays when hubs can't travel because of work.  And now, we have the virus locking everyone down, so travel is on hold for now.  😷😐  We seriously need an app that sorts you by Meyers Briggs or Enneagram type.  Would make it simple to find people you don't clash with and understand you better.  Good luck on finding friends.",fkaircz,mctk07,5nluphxa
"I’ve done some reading up on it since I made that comment, and it seems to have a lot of controversy surrounding it. Was yours in disrepair? I’m reading that the landlords will purposely stop maintaining them in an effort to drive tenants out bc once they’re gone, they can hike it up to market rate. Did you ever feel like they were pressuring you to move out? Or entice you with another apt?",blonderaider21,130hjt,fka5o08,Live there since the mid to late 80's,fka3akq,Marvin2021,5j0g5bet
"Meh, not necessarily. Landlords purposely won’t maintain them in an effort to drive them out, so a lot of them are run-down and in disrepair. 

A unit that falls out of rent control can be leased at market rate. Some of these rent controlled apartments are like $500 a month. So you can imagine how much more the landlord will get when they finally move out. They probably count down the days and throw a party.",blonderaider21,130hjt,fka5cw7,"Wow..i would imagine all kinds of family beef and ""bidding wars"" if thats how it is..thanks for the reply",fk9nl3y,mosluggo,127x3q
I scrolled down looking for an RV comment lol. So true in the south. Those things can be expensive af tho!,blonderaider21,130hjt,fka4o0p,I think the Louisiana equivalent to retiring on a cruise ship is retiring to an RV at Cajun Palms (so you can invite ya grandbabies to come swim).,fk9u61k,quezz38,7w3a5
"I wish my parents would come to me. They’re both retired but are content staying in our old podunk town. They love my kids but don’t like “the traffic.” So annoying bc it’s not even that bad lol. It’s just not a single four-way stop kinda town so anything bigger than that freaks them out. I should also add that I’m an only child so they really have no excuse, sigh.",blonderaider21,130hjt,fka4l0r,"A lot of people move out of their home town as young adults. They grow roots elsewhere, and raise families there. When their parents retire, they go to where their children are.",fk8lmiu,opensourcearchitect,3psoz
"To be fair, there is no other city on earth quite like NYC. That place is magical. Especially at Christmas, oh my. I get warm fuzzies just thinking about it.",blonderaider21,130hjt,fka4eu5,“But you're still the one pool where I'd happily drown” Some people who grow up in NYC or have lived there can travel the world yet still not find the same feeling as in NYC. I’m sure this is the case with many other cities,fk8ikmr,Yooooo12345,oddq3
"You realize all those years those “old ppl” you refer to were working, their tax dollars were paying for the schools you attended so that you could get an education and eventually be able to get a job yourself. They also helped pay for the roads and infrastructure that you now utilize. That bridge you drive over every day to go to work? They paid for that. And now you don’t think we owe it to them to ensure they live comfortably since they helped take care of you?

And in turn, when you are 80 years old and are unable to work, the children today will be grown, and their tax money will help support you.

You act like old ppl are a leech on the system, when the reality is, they’ve paid their dues and have contributed to society, so I think it’s only fair that they be rewarded for their hard work. 

The measure of a good society lies in how it treats its weakest members.",blonderaider21,130hjt,fka485b,"Rent control benefits the old, at the expense of the young.  We don't need more taxes, we just need less rent control.  Old people SHOULD feel the squeeze when they retire.  They stopped working after all, we shouldn't have to subsidize them taking up space young people who work and want to raise families need.",fk90n68,forcedaspiration,9syw5
"That blows my mind. I rented a 2 bedroom apt in Houston, TX a couple of years ago for $1340. I never dreamed you could rent a place in NYC for that cheap! How do you get a rent controlled apt? This concept is foreign to me",blonderaider21,130hjt,fka2pyo,When we left our apartment in brooklyn many years ago I think they had a party! They couldn't wait for us to leave. Two bedroom 1st floor apartment I think we had locked in for $550 a month. They are allowed to slightly increase here and there but no where near what they got after we left. We were not allowed to sublet or we would have.   Hell we should have just kept it for a vacation spot!,fk90hev,Marvin2021,5j0g5bet
"Downsizing is definitely a thing with retirees. No one wants to have to maintain a home with a bunch of bedrooms that only get utilized once or twice a year when family comes to visit. But then again, what a nice problem to have. Most ppl in my generation will be lucky to ever even get to own a home to begin with.",blonderaider21,130hjt,fka1okl,"Yep. Why the fuck would you move to somewhere more expensive, away from all of your friends, and away from a place that has everything you need within a 10-minute walk?

My mother sold her rural property and moved into a 2-bedroom city apartment with reasonable rent (well within her pension), literally across from a huge mall with everything she needs, and she doesn't have to worry about fixing a leaky roof (for $40K)... she just calls the landlord if something breaks and it gets fixed.",fk9dgeq,FreudJesusGod,7xmrj
"Come to think of it, my parents are the same way. Their asses aren’t going anywhere. I’m stuck having to go back to visit them in their shit hole town out in the middle of nowhere for the next 20 years or so. They’ve never even had a conversation about retiring *somewhere.* I think they’ve just always understood they weren’t going anywhere, it’s too much trouble in their minds.",blonderaider21,130hjt,fka1g2i,"Also - lots of people don't really choose to retire *somewhere*.  They just ... retire and continue to live wherever they already lived.

Ask the average retiree in NYC why they chose to live in NYC as a retiree and I think the answer wouldn't be the subway or the healthcare, it would be ""I've lived here for decades, my whole life is here, why should I move now to a strange place?""",fk8841g,NUMBERS2357,4e4ku
"I laughed way too hard at this. As much as I love the city...ya. You’re right lol. I’m just imagining old ppl trying to shuffle along slowly on the sidewalks with their walkers, getting aggressively checked left and right and cursed out",blonderaider21,130hjt,fka1421,Let's be honest no one is choosing to retire in NYC.,fk85htz,ilouiei,5qjhm
"The other thing I noticed, and I didn’t realize it until I had kids recently, was how isolating it is to be a stay at home mom nowadays. Which you wouldn’t think bc everyone on my street, for example, and pretty much everyone in my neighborhood, has kids. The problem is that we’re all transplants who have moved here from somewhere else. We are from over the US. None of us grew up here or were raised here (it’s a fairly new/developing suburb of a major city). 

But when my mom was a young adult, families used to pretty much stay in the same place. So when ppl had kids back then, they had numerous aunts and uncles and cousins and grandparents right down the road who could help out. Now tho, ppl graduate high school and move across the country to go to college and then move to another state for a job and then move back across the country for a transfer. The internet has made our world much more connected and smaller so ppl aren’t afraid to venture out bc essentially you’re always just a plane ride away. But that gets expensive and it doesn’t help when I’m having a rough day and need some help but all my family members live several hours away. I’ve talked to a lot of other moms and we all feel the same way. Young families aren’t getting any help from extended family anymore on a day to day basis and secretly were all struggling and are feeling isolated. It sucks being so dispersed but at the same time it’s hard to not take such wonderful opportunities out there. Pros and cons to everything I guess. Sorry for the long, rambling, off-topic commentary...it’s past my bedtime lol.",blonderaider21,130hjt,fka0ps7,Totally. It’s like we have so many digital outlets to connect with people that we lose the drive to make an effort in the real world. I wonder if it was easier to make friends like 50 years ago.,fk9zquw,rawrt,8yrw7
"I agree. Life isn’t meant to be lived in a solitary existence. Even for someone like me who’s an introvert, I still crave and enjoy my friends’ company. As hard as it may be to drag me out of the house initially, it really does lift my spirits once I’m out and about. 

It seems that the internet has made it easier for us to distance ourselves tho. We can literally skip the grocery store or restaurants and get food—and literally everything else under the sun—delivered right to our doorstep. Lots of ppl nowadays can even work completely from home. You can go to college online. We can “socialize” on forums and message boards without ever speaking a single word out loud or physically meeting an actual human. They’re even predicting we’ll all be having sex with robot dolls eventually lol",blonderaider21,130hjt,fk9z69y,It’s true. I guess I just don’t understand why people aren’t interested in friendship. Seems like it would be a less lonely existence for everyone if we were all more friendly to each other.,fk9xrp4,rawrt,8yrw7
Go to the ER. Call 911. Get off Reddit. You’re dyyinnggggg. Jk probably (hopefully) not but seriously. This doesn’t sound normal or okay.,blonderaider21,130hjt,fk9xbzm,The hospital in my town doesn't open till 8 am tomorrow. Will I be fine till then or should I take further measures,fk9vz6t,Tilt_2Live,10u1j7
"Thank you friend! I went back and reread my comment to see if maybe I could have worded it differently, but I really didn’t have any ill intentions when I wrote it. 

I hadn’t seen that clip before, and my heart honestly broke when they showed Zeke’s face after that man said that to him...I wanted to give him a hug. He looked so sad. I’m glad the others stuck up for him tho and called him out bc he didn’t deserve that. I loved his response—it was so classy and respectful and confident. I felt so moved afterwards and my comment was in total support of him. I was smiling and cheering him on in my head as I was writing it. 

I’m also not against ppl who talk openly about being trans either. Everyone has a different journey and we should allow ppl to be who they want to be and express their experience the way they choose to. But I appreciate you taking the time to respond, means a lot.",blonderaider21,130hjt,fk9wnii,"Ignore them. Looking at their post history, they're the type of person who goes out of their way to be offended. I'm trans as well, and I completely understood the intent of your comment. They took it and twisted it into something they could be offended over.",fk9sm77,SkyeWolfofDusk,o5d18
"Yes, I have seen actual tweets from boomers saying exactly that. And you have no clue who I’m even supporting, you’re making so many assumptions and are putting words into my mouth...you’re honestly just annoying.",blonderaider21,130hjt,fk9vm0d,"Starbucks is like $5.50 now.  x 365 is $2k.  x 240 is $1320.  So I averaged since people buy coffee on some weekends too.

And no one made some stupid point about Starbucks money being enough to fund a down payment.

Does that mean you should also get the most expensive cable package because $3k a year won't cover a down payment so you might as well live it up and ask Bernie for a check?",fk9s4su,7h4tguy,dskpg
I actually switched to t-mobile just so I could have that phone and then switched back a couple of years later when I was ready to get a diff one haha,blonderaider21,130hjt,fk9rxdh,That phone looks sick!,fk9pt94,Tomstroyer,obbgz
Seriously?! I still have it in a drawer somewhere with all my old cell phones. Not kidding. I had no idea it was still worth anything lol. But it was pretty expensive when it first came out,blonderaider21,130hjt,fk9rryg,That phone is still valued at over 150$. Currrazy!,fk9rdvf,Ill-uminotme,m4r1j
"I had the limited edition white D-Wade one. That was back before electronics were white so it was super cool

[pic](https://www.electronicsforce.com/index.php?main_page=product_info&products_id=55849) for reference",blonderaider21,130hjt,fk9o2h3,I miss my sidekick iD. That thing was so cool,fk9l4lq,dismissyourdoubt,zk496
"First off, I don’t drink nasty ass, overpriced Starbucks. Secondly, hypothetically speaking, if someone were to buy a $5 cup of coffee 5 days a week for 1 whole year, that adds up to a whopping $1200. Sorry mate, but you aren’t going to be able to find a house to buy that you can put $1200 down payment on. You’re going to need at least $20k down for a small house in an affordable, decent sized area...at that rate, it would take you almost 17 years to have enough for a down payment on a house “if only you applied the money you were sPeNdiNg On StARbUcKs eVeRyDaY.”

And I was mocking boomers who actually think that we can’t afford to buy homes bc we drink StARbUcKs. That’s not my actual statement you fuckwit. And I don’t drink Starbucks anyway, stfu with your faux outrage bc I’m far from entitled. I’m def on the struggle bus my dude.",blonderaider21,130hjt,fk9nitb,"Uh, $1500 a year on coffee *does* add up.  Or did I cut into your entitlement budget?",fk9k9qq,7h4tguy,dskpg
I googled it and found nothing. Which is why I asked,blonderaider21,130hjt,fk9myzj,Keanu Bustamante,fk9d3q5,DevastatedSociety,3dbizhvw
We learned contractions in the 4th grade at my school,blonderaider21,130hjt,fk96juy,Frick sorry I skipped 2nd grade so I never learned the theirs. They’re you have it.,fk92afg,Aleximo27,3e3hp826
"And of course, you only have a certain timeframe when you can make serious money doing that. After a certain age I’m sure the jobs will decline",blonderaider21,130hjt,fk95c8f,NTA. Your finances are your business. It's actually a very good idea in your profession to save and/or invest all that money as it may not be as lucrative in the next 15-20 years.,fk8yu04,MelkorHimself,ps11i
This was my reaction. It shouldn’t matter when she’s gonna get paid. It sounds like they’re using her,blonderaider21,130hjt,fk9594w,"NTA

and frankly they sound like they want to be your pimp. I'd stop offering things and stop sharing things. I'd probably not move in with Riley and find someone you can maintain a distant but cordial relationship with.",fk8yoyo,CakeisaDie,hocmz
It’s really good. Like Breaking Bad/House of Cards (pre-Frank leaving) level good.,blonderaider21,130hjt,fk94aaf,No tbh I don't use Showtime very often. I don't like watching new series by myself lol so I typically just watch whatever my gf finds. I'll tell her about it though.,fk9078y,rhsibmod,ggi3j
That’s not my mindset at all. Kudos to him tho for realizing he’s more than just his gender. Not sure how you gleaned all that from my initial comment. I’m extremely respectful and accepting of all ppl,blonderaider21,130hjt,fk93nad,"Nah, a lot of people are definitely of the mindset that they’ll only tolerate LGBT people if they don’t talk about it. ‘Don’t rub it in our faces’ etc.",fk8nbx0,iwouldbegagged,3x8ksywh
Or when their kids see that every minute detail of their lives have been splayed out for the entire world to see,blonderaider21,130hjt,fk91yvq,"Samee, but I think insta will be here for a good while. I'm just wondering what they will do when their looks fade /kids grow up and start refusing to deal with it",fk89won,coolkat812,515nuzxp
It’s no wonder his gf doesn’t wanna sleep with his nasty self lol. And thank you for coming through with the receipts,blonderaider21,130hjt,fk8yj1x,"""I only wash it every several weeks. I figured it didn't have any fungi growing on it so it should be fine"" something like that.",fk85bl3,StillAzure,gug0i
You have no clue who I am or what I know so kindly shut the fuck up before you make anymore idiot assumptions about me thx,blonderaider21,130hjt,fk8ycnz,"I don't think you understand how the real world operates or that your mentality is simplistic thinking at its finest. 

People like you are a contributing factor in why more victims pile up. 

Also, it's ultimately the law's job to stop an abuser who can only potentially stop their crimes if they are reported. No one's absolving the perpetrator. That's you twisting things to fit your narrative. We are saying that criminals obviously don't give a fuck so someone has to or their deeds will continue.",fk84f52,Kinoct89,zypls
"That would have been horrifying if it was a brown recluse. They don’t actually bite you, their venom gets injected into your skin when they’re crushed (like if you sit or lay on it or shove your foot in your shoe where it’s hiding out)...exactly like this spider. Yikes. That could’ve been very bad. Your dick could’ve had a big, black, thick scab on it for like, 3 months.",blonderaider21,130hjt,fk8512v,"It didn't bite you?

You know the brown recluse has a neurotic venom, it rots the skin it bites but you usually don't notice you've been bitten because it doesn't hurt.

I got a tiny indentation on my left leg from what we think was a brown recluse bite.

https://www.emedicinehealth.com/spider_bite_brown_recluse_spider_bite/article_em.htm#brown_recluse_bite_causes",fk1hlem,akuma_river,8uurp
"It was deleted, what did it say?",blonderaider21,130hjt,fk84lur,"According to op, no.
https://www.reddit.com/r/tifu/comments/fftkk3/tifu_by_raping_a_spider_to_death/fk0k2e6",fk1ajsq,StillAzure,gug0i
"I have this same question. Cum gets super crusty and hard when it dries, I don’t see how it can still be soft every time if you’re not washing it",blonderaider21,130hjt,fk84j0y,Do...Do you not wash the blanket after use? :|,fk0ymso,MaxusBE,sj9v6
I do wonder what all these ppl are going to do when Instagram goes away,blonderaider21,130hjt,fk83arf,"That sucks, hopefully they will realise soon that they don't need validation from anyone but themselves. Especially not randos on the Internet",fk7vspc,coolkat812,515nuzxp
Imagine thinking it’s a victim’s job to stop an abuser from doing terrible things,blonderaider21,130hjt,fk837nb,Imagine thinking you shouldn't have to report a crime and criminals should just stop criming and turn themselves in.,fk7thch,Kinoct89,zypls
Man I have so much respect for him not wanting to make it a big deal and turn that into his entire identity. He’s just living his life as normal as possible. I love it.,blonderaider21,130hjt,fk7td49,"For those interested in seeing the clip, [here it is. ](https://youtu.be/Gm2WC2A2__M) 

Truly a fascinating moment. 

I’m glad to hear that Zeke had a say in if it aired or not.",fk7fh2u,LivingLosDream,8vmf5
Well dang. I thought it was going to be some sad story about someone falling into the fire and dying or getting maimed but it got so much worse than that as I kept reading.,blonderaider21,130hjt,fk7slvy,"On the show Survivor, there was a guy named Michael Skupin who notoriously fell in the fire in the early seasons of the show. Well a few years ago he was charged for the possession of child pornography. The guy was on 2 seasons and was a major character in both seasons so now r/survivor will often say [redacted] instead of saying his name when he comes up in discussion",fk6mrid,Lluukkee411,3es92ra5
"Ya we have those same signs at all our stores. The stuff they’re limiting here are the Clorox disinfecting wipes and Lysol spray, liquid bleach, gallon jugs of water, cases of bottled water, hand soap, hand sanitizer, paper towels, and toilet paper.",blonderaider21,130hjt,fk7sdox,"Not yet. I was thinking of waiting it out, but I was grocery shopping yesterday already so I thought that I might as well check to see if they had it. All the rubbing alcohol was like gone too with signs like “5 per person please” like who could possibly go through that much rubbing alcohol?",fk7q1zy,willfullyspooning,4eg0f99
"What’s scary is I don’t think this is all that uncommon with influencers. Their entire lives revolve around likes and comments. I would like to think her case is extreme but she gets together with other influencers in the area to exchange ideas, and they are all the same. They justify it by saying it’s “work,” but honestly none of these women even need to work bc their husbands do quite well. So I feel like it’s to fill some void bc they either need attention or are just bored housewives",blonderaider21,130hjt,fk7pa6w,"Wow I feel for her family :( 

But this is a great example of how easily it is to be deceived , and that you really only see what people want you to see.",fk7okg1,coolkat812,515nuzxp
"And just off the top of my head...I can think of a mom friend who has the most perfectly curated Instagram feed—the kind of account you stumble on and it just feels so dreamy. Perfect house, perfect husband, gorgeous kids, and of course she is pretty flawless looking herself. Her kids have perfectly matching outfits and are always smiling and looking at the camera. But behind the scenes, she and her husband fight constantly bc for one, he hates that she exposes their children to millions of potential creeps. He says she’s “feeding them to the wolves.” And he also gets mad at the sheer amount of money she spends on their outfits just so they can look cute for a picture on social media. She’s always shopping at boutiques and dressing them in these elaborate outfits from head to toe. 

And in order for her to get that one pic, she spends literal hours getting them ready and the house perfectly set up and then takes 50 or so pics and she yells at the kids the whole time to pose a certain way/smile/look at the camera. Afterwards, she ignores them for the next 2-3 hours while she sits on her phone and goes through them all and edits them. Then after she posts it, she spends the rest of the day checking her phone to monitor how many likes she gets. I’ve been there before during all this and it’s honestly just sad to me that ppl get so sucked into this vapid world.  

From the outside, she looks like she has the perfect family, but the reality is she’s not present at all around them bc she’s so obsessed with social media. And so her kids are probably going to grow up resenting her for being more concerned with this fake image than actually wanting to connect with them, and if it keeps up, her husband is going to get tired of her shit and leave. 

And don’t even get me started on the constant procedures she does to maintain her looks. It sounds like a miserable life honestly. And for what? Complete strangers? Just doesn’t make sense to me.",blonderaider21,130hjt,fk7np1z,"Yes exactly this. I normally ask myself that if right at this given moment, I was given the opportunity to switch lives with them, would I do it? Answer is always a no.",fk7kb8n,coolkat812,515nuzxp
"Honestly I wish America would jump on the bidet train. I researched it a couple of nights ago, and apparently American soldiers were first introduced to them overseas during the war where they saw them in bordellos, so they were squeamish about wanting to come back and install them in their homes. They also were associated with douching to (falsely) prevent pregnancy and helping women stay clean during menstruation, which was a taboo topic back then. It’s mostly tied to our Puritanical roots which is beyond annoying at this point. Same reason why Americans *gasp* at the thought of a woman wanting to look sexy even though no one here is really a prude anymore. It’s this fake facade of wanting to appear innocent.",blonderaider21,130hjt,fk7kv7n,"This is so stupid.  The real mastermind behind this is Big-Bidet.  They engineered the virus specifically to cause a run on the toilet paper industry.  Over the past few years Big-Bidet has been silently getting ready, there are millions of bidets sitting in warehouses strategically placed throughout the globe.  The are ready to release, install, and have the population free from the tyranny of TP in times of crisis.

Remember:  ""Those who have the most to gain, conspired to get there.""",fjjrnhz,AnonnyM0use,4fkkj23v
They’re trying to have a couple of weeks’ supply of necessities in case of a quarantine,blonderaider21,130hjt,fk7k4lx,I'm ootl why toilet paper is in demand?,fjtkfn8,StreamFamily,34fqy5ke
They’re literally *shitting* themselves over it,blonderaider21,130hjt,fk7k01t,Coronavirus seems to have people pretty worried about it,fk5r16n,owofortnite,55eca08q
No but ppl (clearly) freak out during stuff like this and stock up on toilet paper so they clear the shelves bc they’re worried the world will shut down for a few weeks and they won’t be able to get any,blonderaider21,130hjt,fk7jyqt,"Soap maybe, toilet paper no. People dont start shitting more.",fk5qj1m,brudzool,1ozqsdr8
Better than shits,blonderaider21,130hjt,fk7jr38,"Those are sheets.

A curling rink is (weirdly) a curling team. Curling has weird terminology.",fj2nggu,happyscrappy,3dg76
What’s good for the goose is good for the gander,blonderaider21,130hjt,fk75hzj,Michiganders*,fjmbr3t,Marialagos,1e44skb9
Wtf does the government know about running much of anything? I shudder to think ppl want them even more involved and running even more stuff.,blonderaider21,130hjt,fk75fiz,Wtf does the government know about running a car company?,fjlog6j,Marialagos,1e44skb9
Scoot my butt on the grass. Wash it in a stream. Use rags or towels around the house. Use a leaf. Idk. But filling up carts full of toilet paper right now just seems absurd to me,blonderaider21,130hjt,fk74adb,what do you do if they turn the water off?,fk6q1dl,klavin1,41vrt
I’m working on a remodeling project in my house and seriously need to get a dust mask but the idea of trying to find one rn does not sound like fun. I realize a dust mask is diff but the idiots out there don’t care and just buy whatever and think it’ll work the same. I saw a video on fb of a lady talking to the news wearing trash bags and grocery bags covering her feet and head smh,blonderaider21,130hjt,fk6p195,Same thing when I wanted to buy a face mask for woodworking.,fk6c66a,Videoboysayscube,5n88q
Have you tried amazon?,blonderaider21,130hjt,fk6oubz,"I have a bad canker sore in my mouth and needed some hydrogen peroxide but the stores are all out, I’m in agony because it’s so large and the placement is in a spot that moves a lot. People who stockpile this stuff are the WORST.",fk6fguk,willfullyspooning,4eg0f99
I buy my tp on Amazon bc it takes up too much space in my cart and in my car with all my other groceries,blonderaider21,130hjt,fk6oqe5,"Goodness, how do you even transport that? I am shook :o so why would you guys need to bulk buy unless you build yourselves tp hamster nests to quarantine in? With 48 rolls you are prepared for ANYTHING!",fk6jkex,rat_with_a_hat,1z6ln2mw
Have you not seen the carts full of toilet paper that ppl are buying? They’ve had to put signs up everywhere limiting how many ppl can buy,blonderaider21,130hjt,fk6onf0,"I still maintain its less likely panic buying and more likely people heard the government say ""have necessities for up to a 2 week quarantine"" just in case and then went and bought just that. If everyone buys 2 weeks worth of TP, it's going to empty shelves. It's not panic buying, that's just the story stirred up by the clickwhore, fearmongering, drama-sells newsmedia.",fk68jpf,Arrow_Maestro,ij7nu
Commercial toilet paper is literal *tissue* paper,blonderaider21,130hjt,fk6ol04,A colleague copped a few work rolls today.  Scratchy stuff though. There's a reason theft of toilet paper from commercial businesses isn't really a problem.  Haha.,fk5snk6,scottNYC800,4eerebwn
"I’m wondering the same. Like I’d rather stock up on Doritos or some shit. Worse comes to worse, you can always wash your ass in the shower or with the water hose outside if you run out of TP",blonderaider21,130hjt,fk6oe5a,I still don’t understand why toilet paper is the big targeted item. Like... coronavirus doesn’t give you diarrhea. You’d think if anything tissues would be in higher demand.,fk6nlzy,ginzykinz,fcu0q
"I wonder why ppl gravitate towards toilet paper. Like, of all the things I’m worried about running out of, that’s not even my top 50",blonderaider21,130hjt,fk6oacm,The coronavirus hasn't even reached my area but most of the stores are already sold out of toilet paper,fk5wt41,ibrokemytoeskibroski,5fcmnwmp
I’m beginning to think this whole mass hysteria was brought on by the toilet paper companies and the hand sanitizer companies. They’re raking in the dough rn,blonderaider21,130hjt,fk6o8zs,We went to Costco yesterday and we were running low on TP so we figured we'd just buy some. Too bad that they were out of all tp and all paper towels.,fk6eifh,Simple_City,8r8vl
Scratch scratch scratch *flick*,blonderaider21,130hjt,fk6o4l1,I’ve been pooping in a litter box at work,fk6h7e2,bloweyjoeyz,42gnl8mq
There’s a lot of pollen in the air rn where I live,blonderaider21,130hjt,fk6o3km,"I’ve been sneezing a lot lately. Not a known covid symptom but I’ve been staying home (kid’s school district makes that choice easier as well) mostly just because I don’t trust everyone else to know it’s not a symptom.

That said, if everyone would jus sneeze and cough into their shirt or sleeve, oh, and wash their fuggin hands, we’d probably not even have an issue.",fk6eaww,Popetown,don76
*a fountain of coronavirus*,blonderaider21,130hjt,fk6o18j,Yes look up and just blast a fountain of coronavirus in the air every time you sneeze,fk69jev,Extreme-Arm,5s2fnjyp
I remember when I was learning to drive they were telling us how important it was to slow down in school zones bc even going as slow as 20-30 mph could kill someone. So I don’t even want to think about what it would do going much much faster,blonderaider21,130hjt,fk6nnz8,"That was one little fact that really caught my attention when learning to drive. Even in a crumple car with all appropriate airbags and seatbelts, after a certain point, just going from 60-0 that fast causes organs to ""liquify"" - and they tell me organs are pretty important, and liquid (or even jelly) is hard to sew",fk5vrtx,Basic-Owl,5npw2sgw
"It’s not quite the same, but I get super emotional at the idea of an animal dying bc it got hit by a car or ran over, so if I’m driving along and I see something furry up ahead, I immediately divert my gaze and just tell myself it was a piece of carpet that fell out of a truck. Otherwise if I dwell on it for what it actually is, I’ll start crying. I know, I’m dumb. But that method actually works, for me anyway.",blonderaider21,130hjt,fk6njq3,"I was offered some work by a guy that has a cleaning franchise and specialises in crime scene clear up.

I won't spell out exactly what he said, but in terms of dealing with parts of people who've been involved he said he would imagine that what he was cleaning was something else with a comparable colour or texture.

I didn't take the job in the end as I didn't want to be on call.

&#x200B;

Edit: since I've read some similar stuff below I guess it's ok. 

.

.

He said that when he had to clean brains off the wall after a shooting he just pretended it was blancmange.",fk6ehmg,nospam70,1poeqlgv
Right? I’ve definitely subscribed to watch one show and when it was over I canceled it,blonderaider21,130hjt,fk6lh4l,"Maybe. There's a ton of competitors though. HBO dropped their price from what home box office on cable used to cost.

Edit: I want to add that it's damn easy to unsub too. If there are no shows, I cancel a sub for a bit an resub later.",fk6k98t,Tryin2dogood,4gwb0
