child_body,child_screen_name,child_user_id,child_tweet_id,parent_body,parent_tweet_id,parent_screen_name,parent_user_id
I did but I voted for Warren in Florida weeks ago.,franker,4ptd0,fkibn9g,We need vote by mail everywhere.,fkhf0l8,meta_irl,15xq4vqv
"Man, straight out of Office Space...

Bob Slydell: Well just a second there, professor. We uh, we fixed the *glitch*. So he won't be receiving a paycheck anymore, so it will just work itself out naturally. 

Bob Porter: We always like to avoid confrontation, whenever possible.",franker,4ptd0,fki76oo,"That’s strictly a technicality.  The reason they quit was because he cut all their funding.  Can’t expect them to do anything else but quit when they’re no longer being paid.  So to correct your correction -  the effect of his actions was no different from firing them outright, and the only difference is that he can “technically” say he “didn’t fire them.”",fki0v9r,lscolem,131et9gv
"there's still a wide range of credibility between ""water cooler talk"" and your apparent standard of ""I need to see an affidavit to believe anything.""",franker,4ptd0,fkhpyhm,">""Hearsay is not always inadmissible."" 

Please let me rephrase.... ""unconfirmed rumor"" ,  as in non-factual until proven beyond a reasonable doubt.

This is just ""water cooler"" talk that  was overheard by a third party IMHO.",fkbo7xr,_Blood_Fart_,ypgsa
record growth in the econo-oh scratch that.,franker,4ptd0,fkfrvqw,Has the Trump Republican government done anything right?,fkf86wz,49orth,fxbwm
"when we're not dragging them up in nets, sure",franker,4ptd0,fkc5k4z,"Well I mean are we not cool with them, also?",fkc38i5,therealityofthings,92uvm
aren't there a couple countries where the leader wears a MAGA-type hat around like Trump?  He could swoop in one of those countries like the ultimate God figure.  Bow before the real MAGA hat!,franker,4ptd0,fkbvqxd,"This is the part where Trump takes a bunch of money, everything falls apart, he declares bankruptcy, and becomes president of some new country to do it all again.",fkax7lh,MC_Fap_Commander,8xcwn
"you're not supposed to defy subpoenas either, but ""this is something that will have to go through the courts to decide"" somehow became an explanation.",franker,4ptd0,fkbodo7,He can't suspend the presidential elections and if he did it would start riots.,fkbl38z,TheFishSeattle,9e4f5
"> Electrical fire is a great description, or something like a pile of tires or plastic burning, or maybe what the aftermath of a meth lab explosion might smell like

I can't say I've smelled any of that stuff before.  Can you compare it to any of the horrible food in a Golden Corral grill instead?",franker,4ptd0,fkbeg2n,"Dude this is a great example of how absolutely vile it smells! An actual skunk spray up close smells nothing like bad marijuana, and not anything like what it smells like when u happen to catch a whiff of a skunk off in the distance -- it's exponentially more potent and on a total other level of putrid smells. My dog also got sprayed once and came back inside, and I couldn't believe the smell!! Electrical fire is a great description, or something like a pile of tires or plastic burning, or maybe what the aftermath of a meth lab explosion might smell like -- it's fucking intense! When u catch a little whiff of a skunk outside, that's probably like 1 part per billion, but when u smell the actual liquid up close, it's fucking devastating!",fk9h248,rjstim,11ehtc
"well they're actually dolphins, and there aren't many cases of other types of dolphins attacking humans either, right?  The dolphin family just seems to be cool with the human family {shrug}",franker,4ptd0,fkbd4hc,"Orcas are terrifying ***because*** there has never been a confirmed case of an orca killing a human in the wild.  Just let that sink in.  Sharks attack humans by mistake because they think we are seals.  I've been attacked by little fish while diving because of their territorial nature.  Tons of people get stung by jellyfish every year.

But Orcas?  Nope.  They are so smart they know that they shouldn't fuck with us, which is oddly terrifying.",fkb7687,drmcsinister,zjb9q
"Stern just took it to another level.  Even Carson wouldn't tell women on the air stuff like ""I want to put my face in your breasts and have sex with you all night.""",franker,4ptd0,fkazpb2,You mean the kind of jokes that Howard Stern still does today?,fk96vk4,AdvocateSaint,ctonx
"People seemed to just laugh at Charo for the most part, she just made a big joke of out being a latin sex symbol stereotype.   Did she even actually sing or perform anything, I don't remember.  I just remember her appearing on shows and doing the over-the-top cuchi-cuchi.  But I'm 51 and I was just a kid when she was on TV, so maybe I'm wrong. I think JLo and Shakira are much more respected for their talents, people don't laugh at them when they make appearances.",franker,4ptd0,fkazjp8,"Cuchi Cuchi, baby. Her husband Cugat , the band leader, was quite elderly.

Did you ever see Ike and Tina Turner Revue on Johnny Carson? That was groundbreaking.

But, how does this stuff differ from the 2020 Super Bowl halftime kind of thing? I'm still puzzling that one out.",fk87m1v,laffnlemming,6w878
"yeah, I worked in a courthouse library part-time for a year, then realized that even being a lawyer, I still needed the MLS to be a full-time librarian.",franker,4ptd0,fkaysg7,Pretty standard. Either get the MLS or a lot of experience from before you needed it,fk9h58t,SaddestClown,445w3
"man, that's tough.  I like Bernie's progressive policies and Biden's folksy charm.  That's why I voted for Warren, she seemed to combine smarts and warmth.  I was a foreclosure defense lawyer during the real estate bust 10 years ago, and I admired Warren's consumer focus on exposing the banks and wanting to protect the little guy.",franker,4ptd0,fkaylpz,Who would you have voted for between Bernie and Biden?,fk9nno1,uprislng,5pbu2
I would have to start out with a tiny shed or something I could totally fuck up and it wouldn't matter.,franker,4ptd0,fkay9x4,r/homeimprovement gave me the courage to try out doing some smaller repairs myself and it’s been great!,fk9u55a,ScienceTeacher904,1729bs
"the killer for me is that I'm not any kind of a handyman, horrible at fixing anything, and repair people all charge like lawyers now.",franker,4ptd0,fk93mtw,"Boomers are downsizing by the day.  There are huge swaths of the country with McMansions that will be coming available as they need to cash out.  I expect suburbs to get much cheaper as exurbs become less attractive to live in.  

Home ownership isn't all that it's cracked up to be.  While great for raising families, it can create an anchor if you buy in the wrong spot or into a bad market.",fk8eucb,mishap1,8uayx
"I'm a lawyer and when I changed careers to be a librarian, I had to get a masters degree in library science to be a public librarian.",franker,4ptd0,fk93cen,"There's also the fields where you eventually will need a masters to truly progress in your career. So many people try to lump those into ""useless degree!"" Propaganda, but that occurs in plenty of what they'd call ""good degrees."" Engineering seems to be more and more in that category, I have multiple engineer friends that are getting a *second* masters before turning 30 despite already having the ""good one""",fk8d9pr,juanzy,6epbf
"Florida man here - I mailed in my vote for Warren several weeks ago, and she's out of the race now.",franker,4ptd0,fk90b0j,I sent my mail in ballot weeks ago,fk8mkgw,extremelight,dbvxk
"""it's about the art not the artist""",franker,4ptd0,fk8zd7g,He sing and dance good,fk8r9e3,WrinklyScroteSack,157ezw
"Maybe, but I did like that Jim Acosta guy holding on to the mic while someone tried to take it from him during a press conference.",franker,4ptd0,fk8clk2,"And there's a reason you need to go back 30+ years to find a relevant example.  Real journalists don't exist in DC anymore, they're all just glorified gossip mongers now.",fk8a1nj,thrillerjesus,3zcm1
"oh sure.  Even if Trump gives Twitter answers to every question, let him get asked the questions at least, where he can't just run into a helicopter after 2 questions.",franker,4ptd0,fk8c9yc,So you agree that the white House should be having press briefings so they can be questioned by journalists?,fk89zpr,I_Looove_Pizza,168hxw
Just need to watch some footage of Helen Thomas or Sam Donaldson grilling Reagan to know the difference a tough journalist makes.,franker,4ptd0,fk83c6b,"The difference is that there's no filter for these lies now. The administration can now present these lies however they wish with no questions being asked. Previously there were a bunch of journalists asking questions and people from the administration had to answer those questions, they didn't like that very much. This way the lies are straight to the people",fk7yf49,I_Looove_Pizza,168hxw
"pretty much.  Imagine if every time Sofia Vergara made an appearance today, she literally would have to shake her breasts and gyrate around.  That was basically Charo in the seventies.",franker,4ptd0,fk8107w,"I remember this.  Do you think her breasts treated essentially as a prop, then?",fk80ez7,laffnlemming,6w878
"Dolly Parton is now mostly the sweet lady who mails out children's books.  In the eighties every one of her appearances was like 10 minutes of breast jokes.  She took it all in stride, but geez...",franker,4ptd0,fk7x6rs,"Every time someone passable looking comes on WML, all the guys in the audience whistle. The host always asks women their title--Miss or Mrs., and if it's Mrs., he's like, well, that'll shut the audience up then. It's so weird.",fk7vgbc,macphile,cpzxs
"There's a channel on satellite radio right now running Johnny Carson shows from the eighties.  It's creepy how often when he has a female guest on that's known for her looks, the guys will make all kinds of blatant sexual jokes about her.",franker,4ptd0,fk7snzo,"I watch a lot of What's Your Line? from the 1950s and 1960s, and there's an unspoken dark undercurrent to the show now. They brought on people like Sammy Davis Jr. or Jesse Owen, who were treated terribly for being black, despite being so famous they were brought on America's favorite game show. Or Rock Hudson, who was closeted because being gay was an absolute no-no, even more so in an era of McCarthyism...or frankly just about any attractive female they ever had on, which is every episode, who was undoubtedly being assaulted or raped or coerced or molested or whatever...and who was ""owned"" by the studio or put on a forced diet or told who she could associate with.

But they're all dressed up to the nines and having such a good time when you're watching it. It's a huge facade.",fk7rh87,macphile,cpzxs
it looks like you just linked to the tax act itself.   Where in there does it state your conclusion about the effects of the act?,franker,4ptd0,fk5gjok,"When ranking tax brackets and the size of their tax cuts, the top bracket ranked 4th of 7.  The rich benefitted somewhere near the middle.  

https://docs.house.gov/billsthisweek/20171218/CRPT-115HRPT-%20466.pdf",fk58v8v,ElbowDeepInIt,l59lb
well that's twice as much as I need for the whole week.  I'm sold!,franker,4ptd0,fk52i9j,Drink a 6 hour energy,fk523hy,BigDog1920,3ytuspfy
"I've been seeing ""we need to just understand them"" for 4 years.  Hasn't seemed to have much influence on Trump's base overall.",franker,4ptd0,fk50rbr,"Dude... you gotta lower the hyperbole and intensity just a bit. These are our fellow Americans who, in most aspects of life, are good people with families and loved ones, who work, try to do good things, struggle to be happy and healthy and take care of their families and friends and communities, etc. Many have just been taken advantage of and misled (via fear-mongering, disinformation and other forms of manipulation) into adopting evermore extreme points of view by political actors and groups that seek to gain/maintain power in ways that degrade our civic and democratic institutions. 

To say that they are ""mindless zealots"" is to do the same thing that the Trumps and Sean Hannitys of the world do-- dehumanize and ostracize fellow Americans when we should be seeking common ground and shared values. As Americans, we are more alike than not, and even extreme conservatives deserve empathy and understanding and the benefit of the doubt that they believe (rightly or falsely) they are acting in a way that is good and in the best interest of the country.",fk4z2vp,Biggseb,datnb
they do all that just for the chance to win a $2500 work contract?,franker,4ptd0,fk4x1r5,"Hey There, The best strategy I've come up with is using Micro Influencers. They are cheaper to work with, do a lot more social sharing and you can literally build an army of them. If you do it right, you can utilize 5,000 Micro Influencers who will promote your clothing line in social media for up to three months at a time. And, you can do it without paying every single one of them. Here are a few steps to use Micro Influencers:

**Acquire Niche Specific Influencers**

The first thing I do is find niche specific Influencers using Facebook/Instagram ads. I target Influencers by targeting Models (Job) with an interest in whatever my niche keywords are like ""Yoga"" if I am marketing Yoga Apparel. On the actual ad image, I use a picture of someone doing something my target customer would do, put a gradient filter over the image then add text that says ""Spokesperson Casting"" ""$2,500 Contract"". I then target my customers age range, income level, Gender and use Lead Forms to capture their contact info.

I am usually able to acquire new Influencers for about .28 cents each.

**Engage Influencers using Gamification**

The next thing I do is set up some contest software that manages a ""Spokesperson Campaign"". The software allows Influencers to create a video and upload it to the landing page then earn points when someone shares, likes or comments on it. The Influencer with the most points at the end of three months wins the contract. In addition to submitting the video, I also have Influencers take the following actions:

\- Follow all my social media accounts

\- Like and Comment on all my social media posts (Increases Engagement and account authority)

\- Purchase my product for use in the review video (If under $20)

\- Purchase the product on Amazon and search for it, click on the product and then purchase it to help my products rank better in Amazon search results

\- Share my blog posts in social media to increase sites SEO and blog post authority

\- Create niche specific video content, upload it to a dedicated YouTube channel and build subscribers, views and back links to my sites and social media accounts

\- Do shoutouts on Instagram, Facebook, TikTok and Snapchat to increase brand awareness and generate new followers

\- Like and Comment on my Instagram Shoppable posts to get them to rank at the top of the Hashtag search results

These are just a few of the things Influencers can do to help grow your clothing brand. I typically use between 1,000 and 10,000 Micro Influencers to grow new companies. There is a little more to it than all this but it's a general idea of how you can use Micro Influencers. The best thing is that you don't have to pay each individual influencer to do all these things as they are competing to win a big prize of $2,500.",fk4i7c7,tomarv99,5i6v9inl
So what do you do when the guy with the 3 hour work week comes along?,franker,4ptd0,fk4vwhe,I think he means the 5 hour energy,fk46vyv,BigDog1920,3ytuspfy
I want you to very slowly step away from the Fox News.,franker,4ptd0,fk4lfy0,"Not really. He's been blowing expectations with how much he's getting done. Compare that to the Democrats running and their stances, it shouldn't be shocking at all.",fk4b5dm,blade55555,53ir2
You're one of the good upgraded buttholes.,franker,4ptd0,fk4l7si,I also choose the guy a few posts up's dead wife,fk4ggh2,UPGRADED_BUTTHOLE,47kuhllb
I'll take any icon for my trolling ;),franker,4ptd0,fk43n9p,Lmfao. Take a poor man's silver🥈,fk42v7t,iraautemtempus,164hnk0c
that cs61.org just leads to a domain parking page,franker,4ptd0,fk4326m,"Berkeley Resources


1. [Introductory CS Course](http://cs61a.org)

2. [Data Structures and Algorithms](https://inst.eecs.berkeley.edu/~cs61b/sp20/)",fk2e4ld,Conflicted_Batman,36jy6fzg
I'm sorry Mrs. C,franker,4ptd0,fk2ke2o,Now Arthur! Mind your language!,fk2cnew,ClownfishSoup,2o01vxt8
sit on it!,franker,4ptd0,fk27cng,Perfectamundo!,fk1gbt4,deepsea333,ak8c3
"Wow I never saw the first season.  I always wondered why any of the characters were intimidated by Fonz.  He just seemed like a goofy parody of a tough guy, snapping his fingers to make the jukebox play, telling people his office was the bathroom, the whole ""AAYYYYY"" thing, etc...",franker,4ptd0,fk0vssf,"This is bullshit.  The first time the Fonz was on air, he was wearing a leather jacket that squeaked every time he moved.  Richie and the gang was sitting at his table, and when he told them to move, they asked if his name was written on the table.  He then puts his fist right where his name was carved into the table.  They decide to move.

The first episode was about Richie standing up to the Fonz and the Fonz likes his courage.  So they become friends instead of beating him up.",fk0h2ei,jdlech,3ptrck7
YOU PUSSY I WATCH IT ALL DAY EVERY DAY WHILE I GRIND AND CRUSH AND JAB AND FLIP MY DROPSHIPPED DICK ON DEMAND T-SHIRT CONVERTING MY CUSTOMERS INTO BRAND FANATIC CONTENT REVENUE PRODUCTIVITY SOCIAL HACKS THAT- ow my brain.,franker,4ptd0,fjw5nob,"So good, I literally watched it twice",fjuh4hs,Rouuaaz,5pgn71ls
"YOU WILL KEEP ARGUING WITH ME AND LIKE IT!  I ALSO DEMAND SOURCES FOR EVERYTHING BECAUSE THAT'S HOW I KEEP ARGUMENTS GOING ON THE INTERNET ALL DAY!  NOW YOU'RE MAKING MY HEMORRHOIDS FLARE, AUUGHHGHGGHHH!",franker,4ptd0,fjtql5o,"You are trying to make a cute witty argument including a quote and then when you get called out on why the quote is invalid and you claim it's not an argument, just a quote.  The online equivalent of ""Its just a prank bro!""",fjtpojs,AlgoTrade,duonr
"You're debating a quote from a comedy movie and you're calling me insane.  Here's something from Oliver, you can debate this too:

In this life, one thing counts
In the bank, large amounts
I'm afraid these don't grow on trees,
You've got to pick-a-pocket or two.
You've got to pick-a-pocket or two, boys,
You've got to pick-a-pocket or two.

OH MY GOD ARE YOU SAYING THAT UBER IS JUST LIKE THE OLIVER MUSICAL???!!!   GAAHHHHHH!!!!",franker,4ptd0,fjtos3u,"There is a distinct difference between forcing someone that cannot chose for themselves to work and a grown functioning adult making their own decisions. 

 You are seriously equating someone choosing on their own free will to work a job they don't like to forcing a 5 year old child to work in a textile mill?  You are insane.",fjtn32i,AlgoTrade,duonr
"Trump:  ""people are saying that the black plague was bad, well Obama was black and black people started Ebola and now we have another black plague.  People from Norway and Gone With the Wind don't have that black problem.""  

Trump's base:  ""He tells it like it is! That's someone I could have a beer with!""",franker,4ptd0,fjtmep1,It will just be Obama's fault.,fjsnxsg,Sonny_Crockett_1984,vyppr4r
"I'm hearing the voice of Mugatu now:   My name's Little Cletus and I'm here to tell you a few things about child labor laws, ok? They're silly and outdated. Why back in the 30s, children as young as five could work in textile mills and iron sheds. Yippee! Hurray!",franker,4ptd0,fjtifqq,"Ah, yes. I can simply choose not to work a shitty job and my bills will magically sort themselves. It's so simple, why didn't anyone think of that yet?",fjta0fe,SpongeyandBruised,ltgi5
"wow, I didn't know that.  I stand corrected.",franker,4ptd0,fjozkfw,"> Especially if you're a democrat. that just really showed a lack of savviness on bernie's part

Except it was a comment from years ago when he was saying basically the same thing as Obama. He didn't say it ""heading towards a general vote in Florida"", CNN dredged it up ""heading towards a general vote in Florida"" and refused to hear any explanation about it or the context it was said in.",fjoz937,Tasgall,4qhg2
"public librarian here - I have to chime in with this great post - 

https://www.reddit.com/r/FreeEBOOKS/comments/a9hsti/here_are_100_free_history_ebooks_from_project/",franker,4ptd0,fjov6do,"If you're in the US, your local public library probably also has ebooks and audio books to borrow!",fjnsjah,SSSS_car_go,dpl2c
Later dude!,franker,4ptd0,fjky342,I find trolls offensive. I should have read your profile earlier. My bad.,fjkxvhp,polyscifail,8fz6o
"Everyone can pick up a newspaper or a library app and start reading. If you find that offensive, so be it.",franker,4ptd0,fjkwz0b,"You're totally coming across as an elitist. 

Why do you treat uneducated rural Americans differently than you would treat uneducated immigrants to the US? 

Would you ever tell a minority immigrant it's THEIR responsibility to educate themselves? That they should start reading the NY times instead of listening to their community elders?  

Hell no you wouldn't. You'd ask, how can we help them. Not, ""They better do it themselves"". 

Do you really hate Trump supporters that much, that you'll throw away your core moral values when dealing with them?",fjkwdmk,polyscifail,8fz6o
"If his voters want to educate themselves, they can read newspapers with credible journalists, or even get an app through their library that gives them free access to news magazines.  Make good information choices and use critical thinking skills.   Be a responsible informed citizen, that's what they need to do.  If they do that it doesn't matter whether I understand them or not.",franker,4ptd0,fjkscdf,"The point isn't to understand Trump in and of itself. It's to understand the voters who support Trump. 

Do you care about the Trump voters, or do you just write them off too?",fjkomji,polyscifail,8fz6o
"If someone does enough bad things, I don't look for silver linings to excuse what they are and what they do.  After a certain point I'm done with them.  I was done with Trump a while back.",franker,4ptd0,fjkm8ai,"Dude. You reading WAY TOO much into what I said.   

All I said is that I think Trump truly likes middle Americans. That doesn't make him a good person. That doesn't make him an ok person. Certainly doesn't mean it's ok for him to act the way he does as a President. He's an asshole. Are you happy I said that? 

Man, I feel like on Reddit if you don't say Trump's the most evil guy in history, then you're accused of supporting him as president. 

If you're being objective, and not letting your own emotions get in the way. There are good sides to almost all bad people in history. That doesn't make them good people. But, acting like Trump, or Hitler, or Kahn, or Vlad were 100% evil doesn't make you morally superior either. You're just ignoring the facts.",fjkh5s6,polyscifail,8fz6o
I already mailed in my vote in Florida for her.  Guess I go to voter purgatory.,franker,4ptd0,fjkgpyq,"Now we find out where her supporters will really go. It won't be 100% to either Biden or Bernie. 

It's a head to head race now, which is a positive thing.

And as always, remember Reddit opinions on politics are in no way a direct representation of the actual voting population.",fjka9l1,ThatsBushLeague,uectw
"Trump doesn't insult the people in that region because they're giving him something he wants - votes, power, and flattery.   Compare that to what he's said about Baltimore, whose citizens on the whole aren't politically aligned with him and are providing no benefit to his career or wealth, with him saying it's a digusting rodent-infested mess and so on.  That what I mean by transactional.

If your next argument is that because trolls and sociopaths write horrible things on the internet, so it's perfectly acceptable to Trump to act the same way as President, again I disagree. 





Ultimately, you seem to think Trump isn't that bad, and no one's going to change your mind on that.",franker,4ptd0,fjk5wbc,"First, when have you heard Trump insult mid westerns or rural Americans? I've heard Clinton do it, but not Trump. 

Second, if calling someone a name meant they don't care about anyone, the reddit is full of sociopaths. All you have to do is spend half a day here to see behavior far worse than what Trump exhibits.",fjj6il8,polyscifail,8fz6o
"By saying relationships are all on a transactional basis, it's more like saying that you only like salesmen who give you a steep discount at your request, or flatter you at every turn, and you demean or attack the salesmen who won't give you a big discount.  Your personal judgment of them depends on the transactional advantage you get or don't get from the person, and that's abhorrent to most people.   If a cashier at the store won't accept your coupon, do you look at her name tag and start calling her Crazy Jane?  That's different from your example of incidentally liking someone who happens to be your salesman or cashier.",franker,4ptd0,fjj2e8s,"Just because someone has transactional relationship with you, doesn't mean they don't like you. I've liked a lot of salesmen, but our relationship is purely transactional. I think there are many people Trump likes, and many he dislikes. 

However, if you're right, and Trump doesn't like anyone, and everything is transactional. Then, you're pretty much say he's a sociopath. And, if that's true, he's probably a much, much smarter man than people give him credit for. The type of act he puts on would be incredibly difficult to pull off if he didn't believe it.",fjiwp8h,polyscifail,8fz6o
Well he sure likes himself a lot.  I don't think he cares about any of the rural people other than that they collectively are loyal and supply him with power right now.  It's a transaction-based relationship just like his entire life seems to have been filled with.,franker,4ptd0,fjigzmj,"That's fair. But, I would ask, who do you think Trump likes?",fji21p4,polyscifail,8fz6o
"> I 100% believe he truly cares about them

we'll have to agree to disagree on that.",franker,4ptd0,fji1g6q,"Yes, I 100% agree. The coal mines are going away, and Trump isn't stopping that. But, at least he cares ... and not just in rhetoric, I 100% believe he truly cares about them (just like I believe he doesn't care about many other people). And, he's also trying in policy to give rural Americans what they want. So, even if it doesn't work, people at least say, he tried. They at least appreciate the effort. Rural Americans have felt invisible for the last 50 years. Trumps noticed them. He's made them feel special. They'll vote for him for that reason. 

And that is a lot of the point. Even if Trump doesn't have a solution, people see him trying, where they see Clinton (Hillary not Bill) and Sanders as indifferent to minorities. Young white people see Sanders trying to help them. So, even if he doesn't get elected. They still like him, and they still back him. 

But, minorities don't see that from Sanders. Sanders has said, racial issues are symptom of the economic problem. He believes if you fix the economic issues, if you bring economic equality, you bring racial equality. He might even be right. But, that's academic. That doesn't matter to how people feel. Most minorities don't feel like he cares for them. They think they are invisible to Sanders, where they think Biden sees and understands them. 

99% of people aren't experts on the economic theory of race relations. Most people aren't experts on ANYTHING. They don't vote out of a deep understanding of the issues. They vote out of a personal connection, who they like, who they think will help them.

And, the Dems since Bill Clinton have done a shitty job of connecting to rural and working class America. They opened the window for someone like Trump, and he took it. 

> my bad if uranium mining doesn't have those issues 

I'm not 100% sure. I don't know much about the industry. But, I think the mine is temporally closed because the price of Uranium went too low actually. So the argument, at the moment, is academic.",fji0ojn,polyscifail,8fz6o
"They tried to get them into computer coding too in some mining towns and that didn't work.  Ultimately, though, those people are going to have to get beyond ""the liberals didn't offer me a good enough solution, so back to Trump"" because the coal mining companies are slowing scaling down the industry on their own and Trump sure as hell isn't going to get in the way of that.   And coal's getting harder to get at in the mines, making it more dangerous. (my bad if uranium mining doesn't have those issues).  

So we're left with government services to help them, and if their response is ""socialism is bad, so back to Trump"" on that, is that still liberals' fault because we don't understand them enough?  Or maybe Trump will just offer them subsidies like with the farmers, and somehow still claim free government assistance is socialism.",franker,4ptd0,fjhwxf5,"Understand the root concern and address it in a better way than Trump. Don't just dismiss these people. 

I was reading about something interesting on a trip to Southern Colorado. There was a uranium mine in Colorado near Telluride. The rich liberal people in Telluride (lots of celebrities) wanted it shut down. The miners obviously didn't. At a gov't meeting, the minders asked ""what should they do instead"". The response, get into organic farming.

This was a horrible response for a number of reasons.

1. It's showed how dismissive they were of the working class, that you can just switch jobs from mining to farming.
2. There area around Telluride is not exactly good farm land. Farming there is pretty tough and takes a lot of diverted water where it is done.
3. The minders were averaging $80K a year, where the farmers in the area $40K.

The gov't in Telluride clearly didn't understand the farmers, or their needs. Hillary repeated this miss step on a national scale, when she said she was going to put coal out of business.

Now, I'm not saying I have a good answer to either of these. But, clearly no thought was put into the answer given by the liberals in these cases. These positions were clearly targeted at an urban elite, and dismissed the concerns of rural Americans.

While the best solution maybe to put these mines out of business, there needs to be a better plan B in place for the people effected. Otherwise, Trump's going to keep getting elected, because he is at least acting like he cares about these people. And not just city slickers.",fjhrqkr,polyscifail,8fz6o
" I've heard the ""oh, but you just need to understand them, and then they'll change"" for 4 years.   Like I said in another comment, these people are completely absorbed in watching Fox News, listening to Limbaugh, and looking at Facebook memes.  You tell me what anybody's going to tell them that's going to override all that in their heads, or even get them to pick up an actual newspaper without going ""fake news!  mainstream media!  must stay away!""",franker,4ptd0,fjhpx92,"The vast majority of Trump supporters aren’t “bullies”.

They are people who feel disenfranchised for one or more reasons and Trump’s policies and promises appeal to that feeling.

Putting aside all that is despicable about Trump, people need to understand the why.

No one else in politics has energised these people like Trump was able to.  They KNOW he is a pretty crap person, but, to them, no one else in politics is any better because they don’t seem to care about the issues affecting these people.

Trump built a cult of personality amongst these people and campaigned hard and went to speak to them at rallies and appealed to their sense of being forgotten/ignored.  

So when he does do something that is bullying or despicable, they just shrug and put it down to “Trump being Trump” and rationalise that it’s not so bad because he cares about them and fights for them.  (Does he?  Probably not, most people at that level of politics don’t seem to care about the actual people, BUT, he makes them feel that he does).

But this is reddit, which is by far a mostly extreme left demographic, which, from my point of view, and more importantly form Trump’s supporters point of view, is as rabid and toxic as the far right in the way it talks and acts.",fjholqm,AusPower85,1xguqluq
"Okay, so the candidates ""understand"" that Trump plays to his supporters' worst tendencies.  How do they flip that?  The bully is watching Fox News, listening to Limbaugh, and looking at Facebook memes.  What is the Democrat going to say to counter that barrage of info the bully is absorbing?",franker,4ptd0,fjhnuwp,"Nothing says you need to understand him. It's the candidates that need to understand him to get ""the bully"" to vote for him. 

Because whether you like it not, bullies get to vote too.",fjhm1ql,polyscifail,8fz6o
"right, I just need to ""understand"" the Trump supporters.  Like a bully that punches me in the face and then tells me how I need to apologize for making him want to punch me.",franker,4ptd0,fjhhkzk,">People know, they don't care.

Something Reddit and the media don't get. Yes, everyone knows who and what Trump is, they always have. Saying the same thing 100 times won't change things. 

Trump supporters wanted someone who would give Europe the middle finger because they tired of hearing how great Europe is. They wanted some to kick China in the balls, even if its a dumb idea, because they blame China for taking the good jobs. They wanted someone who would say, ""it's ok to be a little bit racist"" because most of them are, and they don't want to think of themselves as bad people. They want someone who will shit on California, because they see the state as embodying everything that they don't like. 

Trump has given them EVERYTHING they wanted. I can't tell you how many people I know who will ask, ""Which other president has kept his promises"". 

No one is going to beat Trump, until they understand why people like Trump. Which the Reddit and the Media certainly don't understand.",fjhbciq,polyscifail,8fz6o
"yeah, I'm a librarian that works in a library co-working space with entrepreneurs, so I'm always trying to learn about it.  I will accept your assessment Kingbuttmunch :)",franker,4ptd0,fjhgq7v,"Because then they have to admit they don't know anything more.
I have been doing this in house for a company for years and most of the agencies that call me up to try and sell their services and tell me I'm doing it wrong for SEO and PPC, we have used countless agencies and heard the sales pitch for so many of them.

None of them deliver and can ever explain anything more than the sales script in front of them.

I had one today tell me they created some software that automates all PPC work and increases by double, couldn't explain what it did or where that ""double revenue"" figure came from.

Industry is full of con people who have no idea and are looking for easy money.",fjhfdwu,Kingbuttmunch,dfzdy
"Step one: make $150k-200k annually

Step two: save most of that, do other shit on the side

Step three:  retire


this is the kind of inside information I come here for.",franker,4ptd0,fjgyxq6,"Yes, maximize your income at your job as quickly as possible. This means rather aggressively requesting raises and promotions, and hopping to a new job with higher pay when the time is right. This also means being damn good at your job. So focus on doing that well. 

Your money from work can only scale linearly until it will plateau around $150k-200k (depending on where you live as a software engineer). 

While you’re in plateau phases of your career, focus on building passive income streams, i.e, software or writing. Plateau phases are times right after getting a promotion or raise or when you think you’ve maximized you’re income in your career.

All the while, **save aggressively**. Save as much money as you can. Max your 401k and throw the rest into Roth and index funds. 

If you do this well you can be out of the rat race in 10 years. And live off of your retirement income and passive income streams.",fjghmme,Aofwa,d7rph
"that's the problem.  With SEO, the most basic information is available in a million different places, after that everything is a secret they can't reveal.  It's like the art tutorial where they tell you to draw 2 circles, then tell you to just make a detailed picture of an eagle next.",franker,4ptd0,fjgxj1w,"How did she learn SEO? Did she do classes, or self taught?",fjguxsk,Iamnotacutekitten,4z30nkvg
"2021: (after Taliban terrorists attack another American building) ""We're going back in to flush out the Taliban!  We really mean it this time! USA! USA! USA! USA!""",franker,4ptd0,fjgmvo3,"2001: ""We're going in to flush out the Taliban!""

2020: ""We had a good talk with the Taliban. We're ready to leave.""

Impressive. Only cost thousands of lives and trillions of dollars.",fjfxlya,LenyAK,sqkom
"I didn't vote for Hillary (I threw away my vote on Jill Stein), but now that I understand how awful Trump is, I'll vote for any democrat over Trump.  Maybe that's an answer to your question?",franker,4ptd0,fjewdam,But who? I don't know anyone who didn't vote for Hilary who is planning to vote for Joe. People care about likability but enough for a politically active person to skip voting or an unpolitical person to vote?,fjew29q,Gregor__Mortis,37wnxp17
He's just more likable.  People had a visceral hatred of Hillary.  Joe's the crazy lovable uncle.  Doesn't have a damn thing to do with policy but there it is.,franker,4ptd0,fjeuuec,I just keep asking myself what voters does Joe attract that Hillary didnt? I cant think of anyone.,fjeujbg,Gregor__Mortis,37wnxp17
"If you're heading towards a general vote in Florida, including the south Florida Cuban population, you have to know to not say anything positive about Castro, regardless of whether the point has ultimate merit.  Especially if you're a democrat.  that just really showed a lack of savviness on bernie's part.",franker,4ptd0,fjdlbyr,Bernie isn't doing himself any favors by saying Castro had some really good points.,fjd8adc,pawnman99,mxyxs
It's my goal in life to be 91 and running a Commodore 64 bulletin board in a nursing home.  And I will totally have an NPD warez file area :),franker,4ptd0,fjabqwc,Maybe you should wait till you're a little older and have more life experience.,fja9mhf,Exzargon,12bgem
"I'm 51, is that close enough?",franker,4ptd0,fja83h1,First start developing games when you're 11.,fj9ql5t,Exzargon,12bgem
"Well everyone wants to make a saint out of Kobe Bryant now, so why not.",franker,4ptd0,fja7u5o,"Yeah, let's sweep it all under the rug, since the guy is dead and it can't affect him anymore! /s",fja6dcj,fas_nefas,r3z3u
I think that's entirely what United Way is.,franker,4ptd0,fja7o2s,"A lot of the big funds like this will just be administrative. Like, they shell out smaller amounts to other charities who then does the groundwork. I have no idea if this is true, im just talking out my ass",fja6r7x,rcklmbr,3qt08
"yeah, they showed it on MSNBC.   Just his usual forgettable word salad.",franker,4ptd0,fj5fc0m,Did Pete even give a speech?,fj5ek1e,cameratoo,5y1p4
there was just a story in the Miami Herald about local [peacock problems](https://www.miamiherald.com/news/local/community/miami-dade/coconut-grove/article240284516.html),franker,4ptd0,fivhnj9,"South Florida, but I'd imagine LA peacocks are even more bold.",fivdrpz,MeteorKing,42lek
"so what's stopping him from getting a second term, and just continuing to spend more adding to the deficit?  It doesn't seem like there's a point where the deficit is so high that the government is just unable to spend more.",franker,4ptd0,fiv3vbf,"He's been burning through cash, getting the top companies buying back their stock, loosening the restrictions on where and how much they can take from the environment.  These short-term gains boosted the economy for a bit, but the fallout is that these steps cannot be taken to boost a falling economy, as they've already been played; more specifically, the money that would have been used to do just about anything else was instead used in endeavors which will end up hurting the economy more.  My guess of 18 months about a year ago are about right, and it is really annoying.  We have about 6 months before the economy just about tanks, and Trump will be crying ""fake news"" all the way to the unemployment line, except he won't be in the unemployment line, he'll be in Saudi Arabia or Moscow, toadying up to his ""friends.""

Whoever takes over this economy will be handed the most repugnant pile of shit, ever.  This will make Obama's takeover of the economy back in 2008-2009 look positively easy.  The difficulty here is that there's nothing left to cut back on, and Trump cut the taxes on the ultra rich, and is spending us into oblivion.  Putting out a massive federal works or infrastructure bill is about the only thing that will be able to turn it around, but with the deficits being run at the moment, where will the money be coming from?  

I will be voting Sanders or Warren in November, but I find it odd that the medicare for all prospect will likely not happen in a first term, purely because dear leader has spent us into the ground: They've made the ability to roll out any plan impossible purely by spending everything and leaving the larder empty.",fiuwltl,Trance354,o52nk
I've got binders of bayonets.  They all have a certificate of authenticity from Mitt Romney.,franker,4ptd0,fiu36ol,I've got cabinets of bayonets.,fiu1wxh,LetterSwapper,9ztp0
"In comparison, Martha Washington burned all the letters written between her and George after he died.  Must have been some freaky stuff in there.",franker,4ptd0,firc2z4,"**Edit** Lot's of interest. Looks like someone went ahead and birthed a subreddit that's dedicated to TR stories! Join us over at /r/TeddyStories for more!

&nbsp;


There are a few pretty common stories about Theodore Roosevelt that get circulated on Reddit fairly regularly. Over the past few years, I've become, in some ways, addicted with the 26th President and his more-than-fascinating life. To the chagrin of *all my family and friends* I've taken it upon myself to read as much as I possibly can about the man and share some of the lesser-known stories with them. So here are some of my favorite.

Also, currently at work, so these are mostly from memory also sorry for posting the same story twice, writing in a google doc then copying it over so work doesn't think I'm diddling on reddit all day. Other TR enthusiasts, please let me know if anything's wrong and I'll update! 


Here's One:


During the 1901 Republican nominations, TR was unanimously voted to be the Vice President except for one vote...his own. He was adamant about not becoming the VP because he claimed: ""It is a stepping stop to nothing but oblivion"". The big republican bosses figured he could actually do the least amount of damage as the VP because every other role TR ended up in he would make it powerful and gain more popularity. Senator Hannah said to McKinley when TR became the VP that ""your only duty to the country is to live for four years."" McKinley was, of course, shot and killed, making TR the youngest president ever to serve the nation. 

One more:

Not many people knew about his relationship with the ""Emperor of the Badlands"" (Antonie-Amedee-Marie-Vincent Manca de Vallombrosa, The Marquis de Mores) a Frenchman who wanted to gain the throne in France and was raising money by doing all sorts of schemes in the Dakotas. He nearly challenged TR to a duel and TR confined to his friend that he would have chosen long rifles at 7 paces because the Marquis was a better duelist. The Marquis quickly backed off because the long rifle as 7 paces would put the barrel against each of their chests.

While also in the Badlands, his boat was stolen and he famously tracked the robbers down after a harrowing three days on the nearly-frozen Little Missouri River. Once he found these men, he disarmed them and captured them. They were a known group and wanted all around the country. Now TR could have hung them on the spot, but he insisted they get proper justice and instead carted them 150 miles to the nearest town. During this trek, he became ""friends: with the bandit leader and exchanged books and thoughts on the books the men had. TR stayed awake, watching the men for nearly four days straight, and returned them to the proper authorities. He received $50 and was technically a bounty hunter. I can't remember exactly, but I don't think any of them were hung.

He would also read a *book a day* while president, and could memorize entire passages and pages. This was amazingly helpful because he would plan a meeting, read about the subject, and become an expert on the matter almost overnight.

&nbsp;


**Edit:** people are asking for more! So here's one more:

While exploring the River of Doubt—a completely ludicrous adventure in itself, TR contracted malaria and had a high fever for a few days. Prior in the expedition, TR made everyone promise that if anyone was sick or injured that they wouldn't jeopardize the safety of the rest of the group and leave them behind. Well, no one could justify leaving TR behind, so they carried him along.

At one point, he became so sick that he began deliriously repeating this line over and over again for days: ""In Xanadu, did Kubla Khan, A stately pleasure dome decree."" It was the opening line to a poem, where the next line read ""where Alph the sacred river ran, through caverns measureless to man, down to a sunless sea"" (this is from memory, I'm on mobile so it might not be perfect).

I have a bunch more if people are interested—

The Library of Congress recently release his presidential trove of letters, TR wrote over 250,000 letters, and none of these are transposed. I've been going through, finding the coolest ones, transcribing them, and recording them. I've discovered some awesome stories after reading nearly 7,000 of them!

[Here's a funny one](https://www.loc.gov/resource/mss38299.mss38299-410_0001_0132/?sp=16&r=0.199,0.21,0.817,0.413,0) where Roosevelt is criticizing President Wilson for not fighting in WWI

&nbsp;


**Edit** One last one! You guys are making my day! It's literally my favorite hobby to drink a beer and tell these stories.


TR had a really great relationship with Booker Washington - a southern black professor, who TR invited to the White House and became the first Black man to ever dine there. TR, as you can imagine, got a lot of backlash for this, and Washington sent a clipping from the *the Baltimore Herald* that recounted a true story of his (Washington's) encounter with a elderly southern colonel. It went as follows:

""Suh, I am glad to meet you"" The colonel said. ""Always wanted to shake your hand suh. I think, suh, you're the greatest man in America."" 

Washington modestly replied that he thought President Roosevelt was the greatest man in America

""No Suh!"" Roared the old man, ""Not by a jugful, I used to think so, but since he invited you to dinner, I think he's a --- scoundrel"" 

Roosevelt was vastly amused by this story and stated ""I think that is one of the most delightful things I have ever read, it is almost too good to be true.""",fiqv5qg,Ace_of_Clubs,75wkj
"I'm pretty sure I remember in the series Shelby quoting from General Grant that the civil war was ""one of the worst causes for which a people ever fought"" in describing the south.   So his coverage wasn't completely one-sided by any means.",franker,4ptd0,fiqb65q,"Yeah, I have a measure for whether someone has the right take on the Civil War in broad strokes. They must be able to say *without qualifications*: ""Robert E. Lee supported the wrong side."" Shelby Foote would fail that test.

Nevertheless I'm happy to give him more credit for his understanding of military history (and his endless well of anecdotes) than for his takes on sociopolitical history.",fipafqu,EKrake,65cdh
"it's not like Trump is structuring his arguments properly at his rallies, or that they're structured properly in Facebook memes, or by Fox News commentators, but 40 percent of the population still cheers for them.  Appeals to emotion are very powerful.",franker,4ptd0,fin1vqg,"Right or wrong, you're not going to convince anyone of anything if you don't structure your argument properly.  Saying the same thing again in all caps isn't helping either.",fimxmnd,automated_bot,6sexk
according to the wikipedia article the old one is at http://dmoztools.net/,franker,4ptd0,figy34q,"Apparently might be the old one under a new domain? Some people claim it's the same, some claim the community restarted it from scratch.",figwsvb,kare_kano,jfiam
I'm a librarian and my library computers block all .xyz sites.  I guess they think it's a porn tld or something.,franker,4ptd0,figuipq,I buy random .xyz sites all the time. One of them just points to an imgur post of a can of Campbell soup,ficdxnf,pomjuice,5b54d
pretty cool that they're trying to start a [whole new one](http://curlie.org/),franker,4ptd0,figq433,"Both Yahoo and Google used the directory made by [DMOZ](https://en.wikipedia.org/wiki/DMOZ). It was basically a huge database of websites, manually curated by humans into categories. It was an entire volunteer organization with a huge hierarchy. You would start low, managing a very small ""leaf"" category, like ""sites for obscure tennis player"" and if you did well you could apply for additional or larger categories. There was a lot of drama and pressure on the volunteers from website owners to make their descriptions ""better"", or why some websites weren't included, or were included in the ""wrong"" category.",fif2n25,kare_kano,jfiam
"I'll take your mother for 100, gangstas.  AHAHAHAHAHA!",franker,4ptd0,figjh7s,Suck it Trebek!,fifqwte,spellred,7ih4v
"""They seem like birds I could have a beer with!!!""",franker,4ptd0,fi6zdrt,"So safe to say, whoever did this, was probably also actually a Trump support then, given their total disregard for living things dignity, in fact, they are probably total sociopaths.",fi6ya8c,Vaperius,m3d68
and Florida went and made him a Senator as a reward for being the worst governor.,franker,4ptd0,fi4sks1,Great to hear. Fuck Rick Scott for being the worst governor Florida had ever seen. The man seemed obsessed with keeping minorities locked up and unable to vote.,fi41m5i,SummerShank,11duoo
"I don't know who MSNBC is for anymore.   They've given up on Biden, they think Sanders and Warren would be disastrous, they complain about Bloomberg's money, and they lump everyone else into the ""moderate lane.""",franker,4ptd0,fi3kjgd,"MSNBC reaction: _So the executions will happen at the Tacoma Dome, not in Central Park._",fi379d8,monsantobreath,zjhot
"> held him accountable

Camacho was cheering on having the guy blowtorched to death after being made the scapegoat of an economic collapse.  It was a funny movie but let's not make a saint out of this character.",franker,4ptd0,fhr2yza,"Camacho also made the guy responsible for his deliverables, held him accountable when he didn't pull through, and then immediately absolved him during Rehabilitation when it turned out his initial verdict was wrong.",fhqon7x,nomoneypenny,60snt
"> Jerome K Jerome

that would be an awesome name for a soul singer",franker,4ptd0,fhmjxqt,"In fact Jerome K Jerome mentions in his three men in a boat (1889) what it was like to get photos taken.

""It was a glorious day, and the lock was crowded; and, as is a common practice up the river, a speculative photographer was taking a picture of us all as we lay upon the rising waters.

I did not catch what was going on at first, and was, therefore, extremely surprised at noticing George hurriedly smooth out his trousers, ruffle up his hair, and stick his cap on in a rakish manner at the back of his head, and then, assuming an expression of mingled affability and sadness, sit down in a graceful attitude, and try to hide his feet.

My first idea was that he had suddenly caught sight of some girl he knew, and I looked about to see who it was.  Everybody in the lock seemed to have been suddenly struck wooden.  They were all standing or sitting about in the most quaint and curious attitudes I have ever seen off a Japanese fan.  All the girls were smiling.  Oh, they did look so sweet!  And all the fellows were frowning, and looking stern and noble.

And then, at last, the truth flashed across me, and I wondered if I should be in time.  Ours was the first boat, and it would be unkind of me to spoil the man’s picture, I thought.

So I faced round quickly, and took up a position in the prow, where I leant with careless grace upon the hitcher, in an attitude suggestive of agility and strength.  I arranged my hair with a curl over the forehead, and threw an air of tender wistfulness into my expression, mingled with a touch of cynicism, which I am told suits me.""",fhlttoo,TheHoneySacrifice,1lmlgu8
yeah it was several years ago I read that.  Could be different now.,franker,4ptd0,fhhme1l,"I know that was true at one point, but I sort of question it now.  With the internet, social media...no matter where those shirts went, they would end up on ebay today.",fhgvltb,imjustkillingtime,abgmo
Just as often I see the advice: outsource what you're not good at.  Focus on doing what you do best.,franker,4ptd0,fheyfhn,"Just wait until you dive into development, it gets 10x worse. 

I'm building a travel app in iOS and the work isn't too difficult, right up until the point it is. And while I know you're talking about paying to develop it and still not finding enough interest, the reality is that if you don't learn to code it you're always at the mercy of developers. 

And I'm here to tell you that coding, while not as complex as people might think, suffers from a variance of issues, not the least of which is...

1.) There's 12 ways to do the same thing. 

2.) There isn't always a good solution. 

\--- 

An example of this is working with iOS and Core Data with SwiftUI. SwiftUI is fairly easy to get started with. You only need a Mac, Xcode and the ability to follow a $10 Udemy course to start building apps. 

Where the problems start is when you need to save data and reuse it in separate views, much like a database. Because, well, there's no actual database on an iPhone, it's just data allocated to memory. 

It's not like the web, yet you could use a 3rd party service (like Firebase or Realm) and have this ability. 

Unfortunately, it's just not possible with Native iOS so you're left with trying to design the best way to CRUD (create, read, update, delete) data from an API. 

Complicated? Not really, but it's also tricky and frustrating. 

It may seem like I'm meandering all of the original topic, and I kind of am, I just want to make the point that you losing interest is telling because even when you have interest it's a tough road to go down. 

And if I can give you any advice, from a guy that's owned various web-related businesses for 20 years now is this: learn how to do everything yourself. Don't ever do something you can't do yourself. Whether you elect to do it yourself is one thing, but you need the ability to do it or you're always going to be at the mercy of a 3rd party.",fhes3go,7FigureMarketer,2zvusiim
"that's good, you're right.",franker,4ptd0,fhbl1pc,"You're right about it breaking your body. I don't agree with the last bit, though. The core philosophy has always been about trying to bring on help as soon as possible so you can focus on running the business instead of doing the work. Because at the end of the day, that's where you'll be able to add the most value. 

So things like tightening up on marketing, growing service offerings, building and refining systems, making high level finance decisions. All of these will do more for you than the actual sweating part. Otherwise, you just own a job at the end of the day.",fhbjek1,passa117,67dbw
"to be fair, though, I had on ""morning joe"" early this morning, and they seemed to be showing quite often the poll charts showing Sanders leading, and Biden sliding, and saying positive things about the crowd showing up last night to cheer on Bernie, on how he has a really enthusiastic following, while going pretty negative on Biden's chances from here on out.   They seemed really impressed by Sanders ability to motivate his supporters.  From this thread you would think they're just bashing Sanders 24/7 on MSNBC.",franker,4ptd0,fhb8s05,"I can understand that too.  Look, I literally have MSNBC on in the background while I'm Redditing right now.  They just did a segment on ""Morning Joe"" about the connotations of the ""Socialist"" label.  They said they worried about the electibility of a candidate with that label, that people in the suburbs would never vote for a candidate with that label, that Florida would never vote for a candidate with that label.

While certainly, as a progressive, I disagree with those viewpoints, it's not an unfair conversation to have.  I'm not ranting about Morning Joe saying that Bernie would have a hard time winning the suburbs.  That's the type of thing me and my fellow progressives need to do work on in order to convince and reassure people of.  A discussion on whether or not Bernie would be cheering executions in Central Park is not a fair conversation.",fhau1od,Quexana,bwy1y
"> some savvy could quickly scale up to having a crew do the actual heavy lifting.

it's never emphasized enough, however, that you HAVE to do this within a few years if you get into this.   I'm 51 and every guy my age I've met that's been in the physical trades for most of their life has a body that has broken down in several significant ways, particularly the joints and back.  You have to become a manager and have other people do the physical labor or you're in for a world of hurt when you're older.   For some reason the ""sweaty startup"" people tend to completely discount this.",franker,4ptd0,fhb5es7,"B2B is tough without deep industry knowledge. Worst thing is trying to sell a company on stuff they know far more about than you do.

I think in the back of your mind, you have something more ""fun"" or ""high profile"" in mind. Sadly, there's no shortage of people who want to go that route, so the competition is always tough, and the profit potential often slim. Yet guys who paint houses, install decking, remove trees are always working and, with some savvy could quickly scale up to having a crew do the actual heavy lifting.

Here's an anecdote. A family friend who's maybe 5-6 years older than me, moved to Fl when the family emigrated back in the 90s. Barely a 9th grade education, he started working on a landscape crew. Saw him in '99, he was living with his mom, catching rides to work.

Fast forward to about 2003/04 I was in FL to visit family and we stopped by his place. He'd started his own company, had about 6 guys in his crew, with a Ford truck in the driveway with a trailer with all sorts of equipment. He was taking home about $120k at that point, and having to turn down work because he couldn't get enough good help.

Lesson being, sweaty startups are the way. What's needed is technology to make them more efficient and scalable, as well as to connect good providers with the customers that need them. Somewhere in there lies some great opportunities.

For my part, I'm looking into an Airbnb property management business in the next 12-18 months back in my home country. Condo developments are taking off, and most buyers are living in the US, and placing them for rental on Airbnb. They will need competent managers/caretakers.",fh646kv,passa117,67dbw
"He was the body until he became governor, then he said he was ""the mind"" I think",franker,4ptd0,fgu1d0i,"Wait, wasn't Jesse Ventura, the body?

And that wasn't me earlier arguing. That was someone else.",fgu0kas,silenc3x,705ed
"I have absolutely no desire to argue over this.  You win, okay?",franker,4ptd0,fgu0fww,Yeah but they never had their licenses amended so the federal gov't doesn't recognize them by those names.,fgu0blp,silenc3x,705ed
"""The Body"" was also Elle McPherson, Heidi Klum, etc., depending on what magazine you were reading",franker,4ptd0,fgu06n9,"Her license said Jamie ""The Body"" Lee Curtis",fgtzrgn,silenc3x,705ed
"her actual nickname?  Like she went around telling people, ""It's Jamie but you can just call me 'The Body'""?",franker,4ptd0,fgtvscp,"Ya, except that was her actual nickname",fgtv8ls,philpalmer2,sz2in
"Yeah but lots of models get called that.  It's like ""America's Sweetheart"" - every year there's a new actress with that title.",franker,4ptd0,fgtv5hg,Her nickname back then was “The Body”,fgt6ctg,philpalmer2,sz2in
"or ""all-american.""   Basically anything that means ""really attractive but not slutty.""",franker,4ptd0,fgjv3lj,"I'm a GenXer as well.  Not sure cute hot replaces ""girl next door"", to me it denotes something different. And certainly cute hot transcends international borders.",fgjsrou,RupertxPupkin,iog4n
ACME MOLLY,franker,4ptd0,fgjm4qx,"This is some Looney Tunes kind of thinking. ""What else would we put in our 'Bag Full of Drugs' bag?""",fgixok8,Medinlor,9o7qums
"I guess ""girl next door"" or ""America's Sweetheart"" is no longer the precise term.  Source - GenXer.",franker,4ptd0,fgjlqge,She was cute hot.,fgj7mlb,RupertxPupkin,iog4n
"If you really want to add value, show people how to do this or even link to some great tutorials.  Instead, you're just saying ""here's a way a business could use airtable.  Hire me and then I'll do it for you.""   All you're doing is starting a marketing funnel here.",franker,4ptd0,fg4bl1i,"Correct, if you'd give use cases as well. For example, ""Woocommerce is great and integrates really nicely with ""this"" dropshipping service we use, it has made a lot of efficiencies in our revenue cycle. We also were able to automate it so that it posts sales directly to X software and records discounts as well. See what I mean?",fg40t4a,EnderTheXenophobe,ud7om
"I could make a post saying ""woocommerce is great, you  can make a store selling watches, phone cases or t-shirts"" and it would pretty much be the same thing.",franker,4ptd0,fg3vw8e,"> 1. Provided a resource people may have not heard of (I certainly haven't)

> 2. Gave examples of possible uses of that resource

If you can't extrapolate the uses, read more information on the link provided, or understand how it could benefit you, then either it doesn't benefit you, which is fine, or you need to think more critically.",fg3v4tg,EnderTheXenophobe,ud7om
"he's basically just saying, ""airtable's great, here's 3 ways you can use it!""  There's no tutorial or guide or anything.",franker,4ptd0,fg3u02g,"A lot of people that post in r/entrepreneur confuse me. Obviously it's a post promoting their business, but it's the information they are offering you that is valuable (provided free) and yet you complain because the OP is providing some legitimacy to their claims and also showing his company for those interested in it. I think this post is exactly what the sub was designed for and honestly, idk why people would post here if they weren't trying to gain something (sales, karma, leads, knowledge, etc.) It wouldn't make sense.

I've never heard of AirTable, so thank you for the info OP!",fg3n2ln,EnderTheXenophobe,ud7om
"they all talk like they need to make a ""sacrifice"" for Trump, like he's made so many sacrifices for everyone else in his life.",franker,4ptd0,fg3k7ip,"Yep, I listened to a mind-blowing interview with a farmer who was pro-Trump, and also struggling, just barely, to stay afloat because of trade disputes with China and tariffs.  He was still pro-Trump, and then said: I don't know if I can last much longer, but I hope he wins the dispute for future generations of farmers.

Dude, there's not going to be a future generation of farmers if you're all going bankrupt and leaving the field.",fg3fvqk,MagicJasoni,hmtza
"""How cute, you're accusing me of being a potential rapist!  Tell your boyfriend I said hi!!!""",franker,4ptd0,fg0xwxc,"Yeah, I don't drive for a living but if I did and someone did this I would immediately ask them to exit the vehicle.",fg0xa3a,MakeWay4Doodles,3yvuxpwg
