child_body,child_screen_name,child_user_id,child_tweet_id,parent_body,parent_tweet_id,parent_screen_name,parent_user_id
And there's nothing to stop the Patriot act from being abused. Nothing. There's a reason it's considered a threat to the Constitution.,hashcrypt,r7ri5,fkh8zks,The Patriot Act is to prevent against terrorism. Like if you were to post on Facebook that you wanted to kill a group of people. This guy is complaining about the police confiscating motorcycles. Not the same thing at all.,fkh8toi,chazmichaels15,znlrl
Thr US can do the same thing thanks to the Patriot act. All theh have to do is say you're a threat to national security and all your rights are thrown in the trash. You can literally be abducted by the US government on a whim and there's no legal recourse.,hashcrypt,r7ri5,fkh87qq,Imagine living in a country where they can arrest and torture you for talking shit about the police.,fkh56ft,Dead_Cells_5BC,5ix0avjw
"Yea im ""only"" 36 so retirement is a long ways down the road.",hashcrypt,r7ri5,fkdzawt,depends entirely on your length from retirement and what you're using your 401k money to invest in,fkdytdt,TCFNationalBank,2yloiblv
Ryzen 2600,hashcrypt,r7ri5,fkdv2yt,No way to tell without knowing your CPU.,fkdq1w7,Avscum,vk6ev
It's hdr though. There's no option for it but hdr is there.,hashcrypt,r7ri5,fkdv1ji,It doesn't support HDR for PC.,fkdc41d,t1kiman,ecw2c
No...no he should stay above ground. In fact he should be around as many people as possible. Please.,hashcrypt,r7ri5,fkd7whl,"Trump, being 73 and overweight, should certainly go underground. We've seen during the past days, with Mar-A-Lago and other situations, how easy it is for him to get into close contact with infected people.",fkd2fjm,ViciousNakedMoleRat,dq9l3
I think the internet is the worst invention of all time. It's killing our planet and society one day at a time.,hashcrypt,r7ri5,fkd01c8," Internet used to be a luxury and now it's a necessity, the internet is one of humanity's greatest inventions and it had a massive impact in how the world works.",fkcmbds,WTCake,1b2xpsrp
"Just liked it up... Yea he has the mustache covered, lol.",hashcrypt,r7ri5,fkcyny0,Have you seen him in the film [Bronson.](https://imgur.com/a/5Ltje0S),fkcykgg,MovieMike007,hf140
Hardy could work. He has the grit and would be believable. What's his mustache game though?,hashcrypt,r7ri5,fkcy46r,"Tom Hardy as Wyatt

Tom Hiddleston as Doc Holiday.",fkcxvbg,MovieMike007,hf140
"Dang, Murphy could work. Though he may be less playful and lighthearted than Kilmers, not sure.",hashcrypt,r7ri5,fkcxz6a,"Wyatt, mark buffalo

Doc, cillian murphy",fkcxpa6,FERRISBUELLER2000,8rcjg
Sucks that Kilmer has been fucked over by cancer so I'm not sure he could muster it. Though Russell may be able to make a cool cameo as another minor character.,hashcrypt,r7ri5,fkcxsk8,"I'd just leave it with the original personally. You'll never beat Kurt Russell and Val Kilmer, so why bother!",fkcxcr8,Sigtric,h0ogi
"What about Brad Pitt? He probably couldn't match Kilmer, but Pitt has always been a great character actor so he may be able to create a unique take on Doc.",hashcrypt,r7ri5,fkcxnvv,I doubt anybody could do Doc Holiday better then Val Kilmer... he caught lightning in a bottle with that role,fkcxfth,Stonewalled89,32c3xkdq
Trump is going to win again as well so the awful year isn't even close to being done yet,hashcrypt,r7ri5,fkcro5v,What an awful year,fkc3qjg,Acooluniqueusername,x6gzu
"Yes those horribly oppressed women that had their whole lives paid for because they have a vagina.

Sorry, the family unit works best when the man works and the woman stays home. Both are equal jobs.

But unfortunately due to the labor forcr being diluted over the years along with stagnant wages, outsourcing, etc, both men and women are almost forced to work.

That's a failure of our economy and society, not a feature.",hashcrypt,r7ri5,fka3ust,"No uterus no opinion. I know you get hard thinking about the 50s when women were opressed and reduced to sandwhich makers but that doesnt fly around here anymore, moid. Do you also tell men an office job isnt more fulfilling than life raising their kids?",fka3cow,LadyDary,57qm6vqz
Tom Brady was better than both.,hashcrypt,r7ri5,fk8dfli,"Passes of 21+ air yards in 2019

Winston: 84 attempts (most in league), 8 TDs 3 INTs

Rivers: 62 attempts, 5 TDs 7 INTs (most in league)

[source](https://twitter.com/Brickwallblitz/status/1230898972333662208)

Expecting a QB to get better at age 39 is not a good look especially in a heavy air yard system.",fk832xv,skipatomskip,dc2bo
"Of course. We shouldn't shame people for them, and if anyone is doing that they can fuck right off. But at the end of the day periods are no better or worse than any of the other myraid of gross bodily functions that people have to deal with.",hashcrypt,r7ri5,fk7tbi0,I agree. I’m a woman and I think they’re gross as fuck. I hate my period. There’s blood and usually a lot of super weird and disgusting stomach issues. There’s a difference between admitting they’re gross and shaming people for having them.,fk7po8o,Muchado_aboutnothing,31w9cgxt
"US. It's a dwight thing, can't remember which episode though.",hashcrypt,r7ri5,fjxh023,"Ah O.K. Didn’t see it, US or UK version?",fjxgpuz,Studio_OOOMS,5b03acen
It's a joke from The Office,hashcrypt,r7ri5,fjxgis2,Wrong. I’m fine thanks.,fjx2cx1,Studio_OOOMS,5b03acen
"Well....of course he is, it's 2020 afterall.",hashcrypt,r7ri5,fjwnwbw,Wolverine is now bi with cyclops and jean grey in the comics,fjwnml1,darkfatesboxoffice,4yh5izyo
"Why isn't it enough? A characters romantic life is irrelevant unless it factors into their arc and development.

We never heard diddly squat about the sexuality of Black Widow, Hulk, Nick Fury, Captain Marvel, or really most of the cast in the MCU. Why? Because it's irrelevant.

Cap had a romantic interest but that played into his character. Same with Tony Stark.

Of course a single line in a movie is enough representation because that's all most straight characters get to begin with. The way Endgame and apparently Outward handles the LGBT crowd is far more effective than making a big production out of their sexual orientation. It normalizes their homosexuality. They made their sexuality not a big deal...because it's not.",hashcrypt,r7ri5,fjwntkn,"Endgame handled it the same way Onward did it. I like that they’re *finally* including LGBT characters in these movies, but just mentioning it in one line of dialogue isn’t enough. It’s just one line from a bit character that can easily get cut for foreign releases. Inclusivity is when LGBT characters are treated no differently than their straight counterparts, which is by being three dimensional people who actually serve a purpose in the story. Not some extra.",fjwmi0y,RedXerzk,ond87
Fair enough. I'm glad I got to experience the greatest era of QB play because I don't think we'll see that type of display again for a very long time.,hashcrypt,r7ri5,fjwmna5,"I think smart coaches just realized the big armed, intelligent, pocket passers that can read and orchestrate an offense are far and few between but there’s plenty of athletes playing QB in college and making it work. 

Why not cater to what they do well? Rather than hope we luck out and find generational talent.",fjwh1ce,ThrowRA-Overwhelmed,5vdfws2n
"The way Endgame handled gay relationships is prefect. Dude mentions he went in a date with a guy, nobody gives a fuck. You know, sort of how people react to hearing  a hetero person mention a date they went on?

But the SJW journalists decided to shit on Endgame because apparently treating gays like normal people isn't inclusive enough.

They won't be happy until they get a mainstream movie where Captain America is power slamming Wolverine reverse cowboy style.",hashcrypt,r7ri5,fjwgxx7,"It was such a bait. She just mentions having a girlfriend in a thoraway line that will be easily edited out, but disney had to have a press release to score their woke points. Disney can either commit to an LGBTQ character, or not make an announcement every time like it's revolutionizing the industry. Netflix has been very inclusive, and you don't see them making press statements for every minority character.",fjukyq0,intodaysagendabegay,4m7il5tm
Brown had an awful combine. His 3 cone was abysmal and which is very concerning since 3 cone has historically translated into nfl effectiveness.,hashcrypt,r7ri5,fjup6ig,"Not only is Brown far far better, but he also has no chance of dropping to 14 anyway",fjt3f8t,Soccerisntwrong,1lq38mpl
"Oh...you mean how Dr's prescribe expensive medicine that only provides temporary relief, that offer no real fix, with many of which being highly addictive?

We have an opioid crisis because of Dr's peddling their narcotics.

I haven't been to a chiro in about a year. My body belt awful. I saw one about two weeks ago and my body feels brand new. What would a Dr offer me? Drugs? Some ridiculous surgery?

Oh and I've been to a PT after needing to get a referral from a Dr. After about 4 sessions I already racked up nearly $1000 in PT services plus the $150 office visit I needed in order to be seen in the first place. Nice little racket they got going there.

I'll take my real relief from a chiro for $40 instead.

The medical industry has done a great job brainwashing people into demonizing chiros. It's in their best interest to turn the public against them...just look at the in costs cost of surgeries and PT vs chiro and it's easy to see why there has been an effort to snuff them out of existence.",hashcrypt,r7ri5,fjs47g3,"Isn't that one of the main problems with them though? They provide immediate, *temporary* relief without treating the root cause of the issue which forces people to keep going back to them.",fjo6ht4,airbanana4,jo3tf
Nothing really wrong with him writing that in.,hashcrypt,r7ri5,fjpwt88,"I didn't know he had one, but my first thought when seeing that part of the scene was ""Holy, hell. He probably has a foot fetish and specifically wrote this in. This is wrong."" 

That being said, I'm disappointed that the video linked didn't make it to the vital plot twist. It's been a long time and I was looking forward to seeing how they make that jump again lol

**Edit:** I keep getting the same replies asking how this is wrong or accusing me of kink shaming. Cutting and pasting at this point because I've had to explain this so many times: 

Nope, nothing wrong with having a kink. Do whatever makes you happy, and doesn't hurt others, in private! 

However, intentionally introducing your kink into a movie you're writing or directing, when you'll be acting in the role engaging in that kink, *is* wrong, especially if the other participants aren't on board. Unless that's the purpose of the film (porn). If he put this in here for his own sexual fulfilment, and not because it was important for the movie, and the actress wasn't made aware, he turned her into something else. There are other professionals who are willing to fullfil your sexual fantasies, so there's no need to trick others into doing so.",fjpga4r,EverydayEnthusiast,135dbkbu
"So which hurt worse, the bullet or the cheating?",hashcrypt,r7ri5,fjm8yr9,"Power move: Pull up your shirt showing a scar from where you were shot while in Iraq, only to come back home to find your wife had been cheating on you.",fjl18fw,funnyman4000,2st8ztzw
She's literally a Democrat. Looks like you got brainwashed into right-thinking.,hashcrypt,r7ri5,fjlt333,Gabbard is a republican.,fjlq6f4,mikebrownto,2rjnfszu
"Even if only half of the families spent their money wisely, it would still be a better investment than shady ""charities"".",hashcrypt,r7ri5,fj9yh1e,Some do but they aren't representative of all. Giving to groups you've properly vetted will be far better than giving to individuals.,fj9y929,monty_kurns,17d760
It's a good thing companies and charities don't spend money recklessly...,hashcrypt,r7ri5,fj9y30i,"Because if you give windfalls to individuals there's a good chance they will pay off their debts but then spend the rest recklessly and go right back into debt because they don't know what to do with that much money. Just look at all the lottery winners and athletes who end up penniless because they don't know how to manage money.

Giving it to charities and organizations allows for endowments to be created which can help more people over a longer period of time if it's invested wisely.",fj9xo6e,monty_kurns,17d760
"That would be a better idea than handing it to shady ""charities"".",hashcrypt,r7ri5,fj9xdc2,Give it to that org that buys medical debt and squashes it. Could have stretched it to 5x the value.,fj9x3p4,Runswithchickens,3wx3sfkw
Eh same difference.,hashcrypt,r7ri5,fj6o3gb,"I think winning medals is the accomplishment, trust me she's in it for that not to give you something pretty to look at",fj6kmdr,Asha42,2sbm7fmq
Not really. I love watching football but I wouldn't want my son to do it. I liked watching Jackass but if my son decided to have toy cars shoved up his ass on TV I wouldn't beam with pride.,hashcrypt,r7ri5,fizm6xa,"Doesn’t that make you a hypocrite? To enjoy it and be glad that people do it, but still ostracize those people?",fixz7y7,MichaeljBerry,arcjh
Those gamew were made a thousand years ago. Times change.,hashcrypt,r7ri5,fixqid3,"Everyone calling it garbage forget that BG 1 and 2 are the most popular DnD pc games out there lol.

Don't you wonder why less people talk about the Temple of Elemental Evil than they do about BG2? Even though the former is a pretty close rendition of the tabletop game?",fixq9he,SpotNL,ersau
"Real time is garbage. Larian is doing you a favor by making an actual good game.

Nostalgia is poison.",hashcrypt,r7ri5,fixqd8h,Not paying a single dinero for the game if there's no real time with pause option. Fuck you for ruining this Larian.,fixfkf8,JediMasterZao,at12k
Real time is garbage. Turn bared is better in every way and will play like actual d&d.,hashcrypt,r7ri5,fixpzlx,"Ugh, looks like it's turn based.",fix0gfn,SpotNL,ersau
"Guess it's just a weird coincidence that tall men are desired more by women and also get higher paying jobs and hold more positions of power in business.

Weird.",hashcrypt,r7ri5,fis5fbk,"Yes, it is bullshit. All of it. Just because YOU choose to believe that certain physical characteristics decide that a person cannot have a good quality of life does not mean that the this objectively wrong idea is right.",fis59uq,TheAlmightyV0x,rtvad
It's not though. Men are heavily regulated by their genetics. Just the way it is.,hashcrypt,r7ri5,fis53te,"They aren't realities of life, it's typical sad sack incel moping about how physical characteristics are the only decider about quality of life. It's all bullshit.

There's also all the misogynistic things you post.",fis4z2s,TheAlmightyV0x,rtvad
"Yes, pointing out the realities of life = ""shitty ideas"".",hashcrypt,r7ri5,fis4pw5,Then you certainly carry all the shitty ideas incels do.,fis4jhf,TheAlmightyV0x,rtvad
Happily married with a child. Literally the exact opposite of an Incel btw.,hashcrypt,r7ri5,fis3oio,"This guy is an actual incel btw.

Hoes mad.",fis3iat,TheAlmightyV0x,rtvad
You may be surprised to find that your wife DOES have a sense of humor and will laugh.,hashcrypt,r7ri5,fiq9vw0,"I've been married for ten years, but sure, you're absolutely right.

I'll go home tonight and Dutch oven my wife. I'm sure she'll be delighted and think it's super fun - after all, I married a woman with the sense of humor of a thirteen year old boy.",fiq9ky3,VasyaFace,br95t
"Yea some people have fun in life. You should try it. 

Chances are you're young and single though so with a bit more experience under your belt, and MUCH LESS TWITTER, you can join the rest of us normal human beings. 

Good luck!",hashcrypt,r7ri5,fiq8yxt,"TIL farting in bed and then covering your partner's face beneath the blankets so they have to smell your rank ass is... normal human interaction.

Here I though not being a disgusting piece of shit was normal. At least I've learned better.",fiq8qtd,VasyaFace,br95t
"Yea, we dutch oven each other all the time. It's fun. You know, like normal human interaction? 

God damn get off of Twitter and starting living life like a regular person.",hashcrypt,r7ri5,fiq7ove,Do you fart in her face?,fiq7dxd,VasyaFace,br95t
Okay zoomer.,hashcrypt,r7ri5,fiq6p9h,"Blatant unprofessionalism that makes a gender or racial group uncomfortable is not OK regardless of where you work. 

Beyond the ethical concerns, you should care if you like their games. Healthy working conditions ensure the company has a long life, attracts talented leaders and employees, and continues to provide you with games and innovate. It’s good business. 

Unhealthy conditions push talented people away, harms the lives of normal well-intentioned people, and dismantles long term progress. 

I don’t understand how Riot could be getting screwed over?",fiq60tr,yuhone,2uj332qk
"Yes, farting, one of mankind's most vile acts of violence.",hashcrypt,r7ri5,fiq6n1f,Well you’re a bad leftist Democrat if you believe that true equality means to treat everyone equally awfully,fiq6aij,mvanvrancken,ivdhe
"I actually am a leftist Democrat, which makes your comment really funny.",hashcrypt,r7ri5,fiq5yrq,"You were supposed to respond with “I fart in all my friends faces you lefty cuck”

I’m truly disappointed in you",fiq45ar,mvanvrancken,ivdhe
"My wife plays real games. Not mobile trash.

Again....when you remove mobile from the equation, gaming is a predominantly male hobby.

Deal with it.",hashcrypt,r7ri5,fiq5pm7,">realities of the demographics.

[Oh, you mean these?](https://www.statista.com/statistics/232383/gender-split-of-us-computer-and-video-gamers/)

[Or these?](https://www.thegamingeconomy.com/2019/05/15/one-billion-female-gamers-how-the-demographics-of-play-are-shifting/)

[And surely THESE must offend!](https://mediakix.com/blog/female-gamer-statistics-demographics/)",fiq5fwz,2Scribble,gxokf
"Look, you can live in fairy tale land where real gaming is a 50/50 split if you want. That's your choice

But in the real world that's simply not the case.

Gaming is a male dominated hobby. Always has been, always will be. Men and women have different interests and tastes. Just the way things are.

There are female gamers...my wife is a huge gamer btw...but that doesn't change the realities of the demographics.",hashcrypt,r7ri5,fiq5628,">What I said is that gaming is a predominantly male hobbiy, which it is.

Except I posted numbers to show that ISN'T true - it's only true if you throw in some gerrymandering qualifications you pulled out of your hat. 

What about the predominately female playerbase of the Sims? I know a LOT of Minecraft players that are women - not to mention streamers - what games CAN'T we count to validate that 'largely' male playerbase?

I'm gonna need to know EXACTLY what games I'm not allowed to add to this tally in order to quantity your statement -nod- 

>Mobile gaming never counts for any form of real gaming.

Right.

Real gaming.

That would be the manly dudebro gaming that regularly does squat thrusts with their controllers? 

There are whole communities devoted to casual gaming - our fanbase is SO LARGE there are whole sections of and sub-sections.

And **every. single. one.** of those sections and sub-sections? **They** consider themselves **gamers**... what do you consider yourself? Every gaming company IN THE WORLD wants to target EVERY gamer - all gamers - all the time - every section and sub-section. 

Why don't these people count for you?",fiq4wtk,2Scribble,gxokf
"I never said women aren't gamers...those are your words, not mine. Perhaps you have your own sexist issues to deal with?

What I said is that gaming is a predominantly male hobbiy, which it is.

Mobile gaming never counts for any form of real gaming. Mobile ""gaming"" is nothing but a mtx delivery system, nothing more. So no, anyone who plays nothing but mobile games is not a real gamer. Sorry, just the way it is.",hashcrypt,r7ri5,fiq4o3n,"So, to recap, women not only AREN'T gamers - even when they are - they aren't the right SORT of gamers!

Nice",fiq4flm,2Scribble,gxokf
Cool story bro.,hashcrypt,r7ri5,fiq43he,I wouldn’t fart in a dude’s face either,fiq3zuz,mvanvrancken,ivdhe
"Yea, imagine treating a woman just like I'd treat a male friend.

Wouldn't want true equality, would we.",hashcrypt,r7ri5,fiq3wwh,I can totally believe you’d let one rip in a girl’s face.  What a neckbeard,fiq3t0f,mvanvrancken,ivdhe
"When you stop counting phone games like candy crush, then the numbers heavily skew male once again.",hashcrypt,r7ri5,fiq3omi,">Gaming is almost entirely a male hobby 

Wow... it's like a glance into the toxic scum-covered box that our fandom used to be about twenty years ago...

Tell me, what rock have you been living under since the turn of the millennium? 

According to recent polls forty five to almost 50 PERCENT of gamers are women...

[Educate your ass, troglodyte...](https://www.statista.com/statistics/232383/gender-split-of-us-computer-and-video-gamers/)

EDIT: Fine, downvote me, let's go ahead and show folks just WHY our fanbase is so toxic...",fiq3m5w,2Scribble,gxokf
"Of my God I can barely read this without almost having a nervous breakdown. I mean am email????? Wow what a crime against humanity.

And a fart? I mean this is some truly dark and horrific stuff.

And what's worse is that all Riot employees were forced to continue working for them because they had a gun against their head.

Such a shame.",hashcrypt,r7ri5,fiq3ik6,"Ah yes, being ""bro"" friendly like grabbing people by the dick, farting in their faces and having an e-mail thread about penetrating your co-worker. Just normal bro things.",fipzjcm,HammeredWharf,thwgt
"""sexual harassment""",hashcrypt,r7ri5,fipyqs9,"Yeah, sexually harassing women is fine as long as you make good games, great point buddy! ^^^^/s",fipyoyv,Monkubus,ligne
"You're missing out on a great game for absolutely no reason. And you've been able to play the Windows store version of it since launch I believe.

Life is too short to miss out on good video games just because of misguided ""principles"".",hashcrypt,r7ri5,fimcvpi,"A year ago, they could have gotten $60 from me, instead of $0. Guess I'm the only one to stick to my guns. Oh, well.",fi5js2e,Nightchade,13g8ya
"For the same reason a man hitting a woman is worse than a woman hitting a man.

They're abusing the power dynamics between the two genders and it's pure evil.",hashcrypt,r7ri5,fi1zgbz,How is women cheating any worse than men cheating?,fi1z8l9,Winnimae,1zytn1y6
Being black and female makes her untouchable in 2020.,hashcrypt,r7ri5,fhznobe,It amazes me that she’s managed to survive cancel culture for this long.,fhzahx1,Dukakis2020,57r0y65a
What about it? Nothing wrong with the dialogue or her delivery.,hashcrypt,r7ri5,fhzijs5,I was actually talking about the love monologue Anne Hathaway performs in the spaceship.,fhzhphd,AnirudhMenon94,z84f0
Yes I know what you mean...why would anyone talk strangely when they're in a 4th dimension using gravity to send codes back to their daughter in the past.,hashcrypt,r7ri5,fhzhjbf,"It was incredibly cheesy and felt contrived as hell. Not to mention, unnatural. I mean, who talks like that?",fhwiglb,AnirudhMenon94,z84f0
You may be right about Hamm. There's an SNL skit whee they do auditions for maybe Back to the Future? He does an awesome Robin Williams impression and it caught me off guard because I never saw him as a comedic actor.,hashcrypt,r7ri5,fhzdlis,"in terms of which actor can pull a Leslie Nielsen(go from serious actor to straight comedy), i can see Jon Hamm being a spoof/slapstick king if he wanted to go that route. Channing Tatum too, though his serious work was never that well regarded",fhy785l,MrBoliNica,10j9t0
"Because if Sonic is redesigned they have a new merchandising opportunity. With him now resembling the classic Sonic look, it's harder to sell new toys and other merch.

The original design was 100% motivated by greed.",hashcrypt,r7ri5,fhzd6q3,"There was an interview with the cast about the redesign, all three of the main actors said they hated the original and were glad it was changed.  I have no idea how Paramount got as far as a trailer before they realised it was fucked.",fhxwogp,ArchDucky,9vt29
"Have you seen porno dicks? The left one is tiny in comparison.

We really need to quit lying to ourselves about dick size. The left one is a small dick, plain and simple. Self sadly most men are cursed with tiny dicks.

Sucks, but that's life.",hashcrypt,r7ri5,fhzc1m8,I was wondering why they called it small. Seems perfectly good to me.,fhyzmth,SaturnaliaSacrifice,3ec4vnoj
They have to in order to stay in business because gamers sold them out in order to save a few bucks.,hashcrypt,r7ri5,fhywrmq,"I have a realy love/hate relationship with Local Game Stores. I love being able to actually see the items I am thinking of purchasing(especially a used item), and when you can find a Local Game Store that has good workers it can be one of the best stores to visit. 

I hate that so few Local Games Stores actually fit this bill. In my personal experiance you have an 80% chance of walking into a Local Game Store that wildly over charges for everything and whose employees actively show you that they disdain every single customer they are not on a first name basis with.",fhy7wgm,Hell0-7here,5750bi31
"Nope I'm just another slave, no different than you. Sad you're so brainwashed though.",hashcrypt,r7ri5,fhqk9fz,Ngl you kinda just sound like a lazy prick who blames other people for their problems 🤷‍♂️,fhqk19w,0v0s,51dynzx8
Still waiting for you to be free and escape our modern slave masters.,hashcrypt,r7ri5,fhqijpo,The level of entitlement it takes to actually believe that the average person with a job is in the same state as a slave is mind boggling,fhqi4md,0v0s,51dynzx8
"Don't think you're a slave? Cool, try to escape employment and see how that works for you.",hashcrypt,r7ri5,fhqhl60,Bruh you did not just compare modern employment to slavery,fhqh6l0,0v0s,51dynzx8
"We're just willing slaves now. They tricked us into thinking we're free but in reality we're more trapped than ever.

Clearly the brainwashing has worked on you.",hashcrypt,r7ri5,fhqg6ia,"That's how life has always been and always shall be my friend. Money is simply a medium for storing value. The barter system had an issue of Grug wanting a piece of meat, but not being a hunter, he could not get his own. He could trade his carpentry skills for meat but the hunter Gruk did not need a new chair. Gunk needed a chair but did not have meat as he was a wood cutter. The solution is to make a medium to store the value that one creates (note: not the effort used, labor theory is for morons)

""They"" are not one entity. You work for a business who pays you (or if you want you can run said business and pay yourself) and you use that money to exchange for goods and services. The people you buy those goods and services from are typically unrelated to the business that pays you. In the 1800s there were company stores where, yes you were basically a slave, but those are illegal now because of things like minimum wage laws. Your grocery money doesn't go back into the pockets of the IT firm that you work for unless the grocery store you work for pays them for a service.

This is of course a massive oversimplification of how economics works but FFS the idea that getting a paycheck and having to use that money to pay for your needs is something that an edgy high schooler would think up.",fhqbkpu,Pinejay1527,2lxcm9y2
When tribalism is no longer hardcoded into us.,hashcrypt,r7ri5,fhphlbx,When is mutual respect and solving world problems ever going to be the focus of society such that racism will not even be in the brain?,fhomi9w,IDressUpAsBroccoli,39auvusj
Great doesn't mean perfect.,hashcrypt,r7ri5,fhnphjr,Try running directly down if you think the animations are great (might be male only).,fhnohep,The_Matchless,137ixi
Good change honestly.,hashcrypt,r7ri5,fhibeuj,Yes thats whats keeping women from joining the military...the uniforms arent sexy enough,fhhj53x,PoweRaider,18vdji1
That sucks. The game does look amazing though. I guess since it's free there's no harm in trying.,hashcrypt,r7ri5,fhi1cy8,"I'm going to say it's not good. It's hard to fight multiple enemies, the combos are basic at best, and sometimes very clunky. There's a lock on and it's gets frustrating.

Perry is also not well executed in term of gameplay. The combat system definitely needs improvement if they plan to do a sequel.",fhi16nc,Turbostrider27,t27vp
Right...I mentioned that in my question. But thanks for the input.,hashcrypt,r7ri5,fhi10df,"Bruh...

I am sorry that you need this explained to you, but letting your kid gamble his allowance money for pixels in a shooting game is insane. Don't let game developers hi-jack your kid's dopamine/reward system and turn him into an addict.",fhi0rc3,gpacx,fsmwa
I heard the combat is beyond abysmal. Any truth to that?,hashcrypt,r7ri5,fhi0tdm,"I highly recommend this game as it's one of the most immersive, realistic, and creative historical games I've played. Easily 100h+ even without the DLC. The only complaint I have is the combat system as it can be clunky at times and not favorable when fighting multiple enemies. Luckily, you don't always have to fight and can take stealth approach or even avoid enemies altogether when given the chance.

The story is fairly long and I'd estimate at least 60h+ assuming you just do the main quest without doing other content like side activities, quests, etc. There's a lot to do such as hunting, combat, finding treasure, exploring, minigames, etc. Decision making is also important and keep in mind that your main character can die by real life elements such as hunger.

There's also an honor system that's somewhat similar to Red Dead Redemption 2.

Recommending to pick up the DLC if you enjoy the game too.

Edit: something to point out is that if you get a specific DLC, it forces the extension of the main story before you reach the final ending. (as far as I know, you can't reach the very final ending until a specific quest is completed). I'm not sure about base game though as I bought all the DLC at the time.",fhhsg51,Turbostrider27,t27vp
"No, just a proud libertarian.",hashcrypt,r7ri5,fhg1es1,Troll?,fhg1bvd,wehosh,2uc2p3pq
"Nope. My money is mine. You can pay for your own highway subscription service. I don't want to pay for your commute to work.

And if you can't afford to pay for fire fighting services, them you deserve for your house to burn down. Having MY money stolen to pay for YOUR house fire is tyranny.",hashcrypt,r7ri5,fhg13kp,Troll?,fhg0ukc,wehosh,2uc2p3pq
PoE skins are obnoxiously priced. I'm okay with the stash tabs but their pricing on skins are just over the top. I'll never pay $40-80 for a single transmog set which means I'm left using in game dogshit gear.,hashcrypt,r7ri5,fhe1m9e,you must be the first person i hear complaining about poe and their policy of micro transactions.,fhdrq36,sharx123,k0nim
Yea those were the days. Too bad they're gone now.,hashcrypt,r7ri5,fhd391n,Telling a co-worker she has a nice rack while hanging up Playboy bunny calendars.,fhbddxx,penny_can,kzpp3
This needs to come back honestly.,hashcrypt,r7ri5,fhd31bw,Slapping your secretary on her ass to thank her after she brings you a Manhattan during your business meeting.,fhbd3v1,openletter8,5npvk
Winston isn't a franchise QB,hashcrypt,r7ri5,fhciovj,"LMAO you think he's going to be cheap LMAO,,,,


Only our idiot fans would want to move on from a franchise QB.... 

Looks like I'll only be back here when the draft hits so I can get those sweet draft class bios on the players.",fhcg9a5,NikesOnMyFeet23,1685em
"Edge of Tomorrow is a good movie though. And it didn't have an SJW agenda to push.

Im glad this movie is bombing hard. We need as many cases of Get Woke Go Broke to occur as possible so entrainment can get back to being...entertaining.",hashcrypt,r7ri5,fhau5fm,"What a fucking shit show 

They tried this with Edge of Tomorrow too",fh99i0p,MoonMan997,16zm4t
"Maybe it's time to reconsider your tendencies?

Depp had his reputation and career dragged through the gutter just because people blindly believed in the accuser.",hashcrypt,r7ri5,fhatt40,"I have to admit, at the time I believed her too, because I have a tendencies to immediately believe someone when they claim to be abused. Amber is a fucking disgrace to all ACTUAL victims, Johnny Depp included.",fh9hg3f,FlamiaTheDemon,lwn17e6
"Well I was waiting for this. Every time Lovecraft gets mentioned, someone has to chime in and with him being a racist.

Nobody cares. He wrote good stuff, that's all that matters. Nobody gives a fuck about what kind of human being he was.",hashcrypt,r7ri5,fhas5t5,"huh that's interesting, I'd love to read lovecraft's reaction, considering he was notoriously racist",fh9nabo,liquifacient,3bj45que
"Robbie looked the part in SS. But in this movie, she looks like she's trying to do Billie Eilish cosplay...which is just bad on multiple fronts.",hashcrypt,r7ri5,fh9xrkq,"They don’t even have to be sexy, but at least “appealing”. None of the characters looks appealing in their costumes, it’s made worse when none of them look like their comic counterparts.",fh9xhn9,ivnwng,14ra88
"Eason is actually a great option to take over for Rivers. I really like what I see from Eason but he needs to to sit for at least a year and continue developing.

My ideal scenario is to sign Rivera, and trade back into thr 1st so we can get Eason.",hashcrypt,r7ri5,fh9xepk,"::In Thor's Voice::

&#x200B;

Bring. Me. Eason!",fh9wrnh,Bubsterz,mcize
"I guess when Trump says something racist or sexist, and the people he offended are predictably offended...you should ask them the same thing.",hashcrypt,r7ri5,fh882yd,hit a lil close to home there for ya?,fh85vjh,ultimatt777,fg6cf
"When that humor goes both ways, then sure, I'm all for it!!",hashcrypt,r7ri5,fh7utxv,"you’re right, us white men are so oppressed. a little bit of humor directed towards us is too far! “quit being a snowflake, its just a joke”",fh7sgtn,CreamFilledMiniMan,2dx4r2u2
"If that worked both ways, and we could all laugh at each other, then I would agree.

But that's not the case. It's open season for straight white men while everyone else gets to live in a protected bubble and safe space whole being protected by the cancel culture mob.",hashcrypt,r7ri5,fh7tx2p,"""Comedy should be allowed to be racist/misogynistic but not against us white men >:((((""",fh7sbpv,Fibution,i8uyo
"Half white actually.

Racism is racism. Shouldn't get brushed aside just because it's directed towards whites.

But I can see you're a racist so I'm sure you found it amusing.",hashcrypt,r7ri5,fh7q6ni,So you're angry and a white guy? Hmmm I wonder what that can be summed up as ?,fh7ps4u,Heinous____Anus,ktjmr5f
"Trump almost started WW3. We have a worldwide flu epidemic on our hands. Australia all but burned to thr ground. And Kobe died.

That all happened in January.

So yea, 2020 is off to an awful start.",hashcrypt,r7ri5,fh7o4cg,"This question is so irrelevant. 2020 isn't even 25% done, and you think nothing great is going on, or can happen?  The news really got you didn't they.",fh7dt0l,Reach_Greatness,5f5fnc27
Bungie could send all its players a million dollars in cash and they would complain about the denomination used.,hashcrypt,r7ri5,fh7n9s7,Maybe that's because Bungie always gives us something to complain about.,fh7ma2x,nicocappa,g48lt
"Nope, deserved to win best picture as well.

It's the most important movie out of all the nominees.",hashcrypt,r7ri5,fh7218z,"No it didn't. It got exactly the Oscar it deserved, best actor.",fh71yme,FlukyS,5nlxe
Scientists used to know beyond a shadow of doubt that the universe revolved around earth.,hashcrypt,r7ri5,fh69ypp,"Lmfao

“Where’s the *proof*?”

“I have the proof, it’s right here just read it”

“Psshh yeah okay whatever buddy, keep believing in your fancy science, I’ll be over here reading books written by guys who thought the Earth was flat.”",fh67lph,ToxicPolarBear,gcxjp
That's all we should be signing him for so whether he's worth 15 or 20 mil is moot.,hashcrypt,r7ri5,fh5aqea,"Look at the people they're comparing Shaq to. Zadarius, Preston, Shaq Thompson. None of those guys except Chandler Jones had a season with more than 10 sacks before they got paid.
 
And Chandler Jones was signed a couple years ago the market has changed for elite edge players.",fh533kk,QuarterOztoFreedom,bmmy4
https://www.spotrac.com/nfl/tampa-bay-buccaneers/shaquil-barrett-14689/market-value/,hashcrypt,r7ri5,fh4zjcw,"Why would he get anything less than 20m?

15m like you're proposing is long out dated for a good edge player let alone the sack leader",fh4wuv3,QuarterOztoFreedom,bmmy4
"Okay buddy, whatever you gotta tell yourself.",hashcrypt,r7ri5,fh4p9hk,"That's, not how it works at all. Like I'm religious, but also heavily involved with paleontology. Nobody blindly follows anybody in specific fields. 

There's no just, ""scientist in a lab coat"", theres papers that are published using evidence, its debated meticulously, and if it can be replicated maybe over the course of years it will be accepted. The only people blindly following are people that just know the ""common sense"" stuff that occurs decades after.

The average person isnt going to read through the papers themselves, but if they want to, the papers are there. And more specifically with paleontology, the fossils",fh4ovkk,OhioanCross,xkcxv8r
"Go tell a woman that she looks like a man and I'm confident she'll be insulted by that.

Having traits of the other gender is often seen as an insult, this goes for both men and women.",hashcrypt,r7ri5,fh20jbf,Because being like a woman is seen as an insult. It’s sad.,fh1qeuw,johnny-cobra-kai,55xwj4y4
Him being his dad increases the chances of a powerbomb by around 387.999% if I did my math correctly.,hashcrypt,r7ri5,fh1r4mg,Big fella is his dad. They're just fuckin' around. He's not gonna hurt him,fh0sj76,Ainsley-Sorsby,zznou
"We were nearly a playoff team with a QB that threw 30 interceptions. 

If Winston just throws say....""only"" 10 less picks, we're in the playoffs.",hashcrypt,r7ri5,fh0thap,The trade ammo it would require to move from 14 to 1 is simply not worth it. Joe Burrow isn’t going to make us a playoff team. I hope this rumor is bullshit.,fh0b5z8,TheFencingCoach,a8ssy
Same. Same....,hashcrypt,r7ri5,fgxydft,"Shit. I went to college for many years while getting copious amounts of student loan debt just so I can make $48k a year. 

How do I become a porn actress because obviously I did life wrong.",fgxwfxj,JustNobody80,49e62evd
"Yea, that's what I was getting at.",hashcrypt,r7ri5,fgxrqwj,">Most people get fucked in the ass 40+ hours per week

That's called full time employment in retail",fgxqqju,RowdoRadge,3g92ey9f
"Based on the porn categories, I don't think women really run out of work in the porn industry due to age.",hashcrypt,r7ri5,fgxrpdh,They can’t to the job forever though. If you consider that an adult actress may do her job for 10 years (and I assume that’s a long time in that industry) then 5k a month for 10 years only isn’t really that much.,fgxqq4v,Kette031,2qoqntr8
"People go to college for many years while getting copious amounts of student loan debt just so they can make $72k a year. 

Porn actresses get that for getting fucked in the ass 4 times a month. 

Yea, i'd say that's pretty well off.",hashcrypt,r7ri5,fgxrkmp,$1500 x 4 is only $6000 a month or $72k before taxes. It's not poor but it's certainly not well off.,fgxqsq5,cloudsofgrey,5l08w
