child_body,child_screen_name,child_user_id,child_tweet_id,parent_body,parent_tweet_id,parent_screen_name,parent_user_id
"""Curing cancer is revolting. How can you not realise that killing cancer cells is as evil as them killing us?""",Macklinmore,jwrvj,fkhxulr,"Calling for nuclear attacks (or war of any kind) is revolting.

How can you not realize that your statement is as evil as what you are pretending to criticize?",fkhxant,Cultivat_ed,14bzp6
"Don't like it, don't buy it",Macklinmore,jwrvj,fkhuo02,Good. People who exploit situations like this are the lowest of the low. Too bad all that sanitizer won’t clean his conscience.,fkhfftk,Majestic-Street,5jx0qzej
"""I have more upvotes therefore I'm right""

That's not how logic works

Also I never said you should buy an entire continent worth of toilet paper, but don't be surprised that people are doing that anyway",Macklinmore,jwrvj,fkhr4gc,"You’re point was that I didn’t stock up like a bomb was going off, that’s it? Explain how your argument has any substance? Look at the upvotes on my comment compared to yours cunt, pretty obvious who people agree with, now I’m done wasting my time with brainlet",fkhoeqf,Nevouti,1qua3are
">Y'all

Soyboy detected",Macklinmore,jwrvj,fkholob,"What I've learned reading these comments:

1. Outta sight, outta mind is very much in working order when it comes to the homeless population

2. People would rather other people freeze to death than pay a little bit more in taxes

3. Y'all are fucking monsters.",fkgpfn2,Connor_Kenway198,4ctowar
"The amount of ad hominems you're throwing at me is hilarious

Learn how to argue",Macklinmore,jwrvj,fkho4rj,"Oh I bought supplies, just cause I didn’t stock up like a nuke was going off like stupid fucking cunts like you doesn’t mean I think the world revolves around me, get a life you whinny cuck",fkhnwyi,Nevouti,1qua3are
"How am I the one whining in this scenario

If you didn't buy supplies on time, tough shit. The world doesn't revolve around you. Act faster next time",Macklinmore,jwrvj,fkhmpxd,"I’m sorry cunt is two carts full of toilet paper and other things like it so others can’t have it, a bit of a cunt move? Go whine somewhere else",fkhewsj,Nevouti,1qua3are
Nice ableist slur,Macklinmore,jwrvj,fkhbysx,You’re an r tard if you’re one of those people buying all the tp,fkftfcl,lesslighter,4v7iknk5
NOOOOOOO YOU CAN'T STOCKPILE BASIC ESSENTIALS TO PREPARE FOR MONTHS OF QUARANTINE FROM A POTENTIALLY FATAL DISEASE!!!!,Macklinmore,jwrvj,fkh9c2v,Oh so you’re the assshole clearing out my grocery store,fkfeo0q,Nevouti,1qua3are
They are,Macklinmore,jwrvj,fkh86oj,Depends on if ALL amounts are together.,fkfinsm,nou_x1000,20asc9m8
Perhaps,Macklinmore,jwrvj,fkh82n0,"So I take it you might just slightly dislike TikTok, a little bit.",fkh81r1,xi_GoinHam,r0s2n
"Nazi Germany, medieval Mongolia, ancient Rome, Huns?",Macklinmore,jwrvj,fkeu6pm,"There is no case where racism is ever ""justified""",fkeqwjh,Smiles360,10sqrx
Can i get some cheese,Macklinmore,jwrvj,fke7yq1,Sir this is a Dairy Queen,fke7o9o,delicreeps,5y64z
Dare I ask why,Macklinmore,jwrvj,fke7xgj,Fuck. Off.,fke72lv,--cheese--,kt2vv
"Except China deserves to be ridiculed. Their horrible hygiene is why the world's going to shit

I think the racism is justified in this case",Macklinmore,jwrvj,fke5r1d,This is racist as fuck. Where is this from?,fkce6v7,theblake1980,14sf4l
What does Trump have to do with this,Macklinmore,jwrvj,fke4auu,"Because he’s a narcissist and/or a sociopath. 

If this Trump administration has taught me anything, it’s that there is a lot of people out their willing to exploit others for their benefit.",fkdpbt4,supersquirrel007,5bmt1
So the world becomes India,Macklinmore,jwrvj,fkcq842,"Granted, You failed to define what constitutes a hoarder and as such the paw decides anyone with more than a single roll per toilet is a hoarder. Toilets across the globe fail. In order to cope with the mass of waste, we return to the ways of Medieval Europe and start using buckets and tossing excrement into roads, rivers, and lakes. Unfortunately, Coronavirus spreads via excrement. This causes more cases, thereby extending the outbreak. The outbreak lasts for a decade. 

Upon the end of the outbreak, humanity has lost all trust in toilets, what with them just up and failing to work for a decade. The entire toilet manufacturing industry dies out as we continue tossing our shit into the streets. Being that the world's population is about 1500x larger than it was in Medieval times, city infrastructure simply can't handle the amount of human waste that floods the streets. Many roads become unusable and large cities become unlivable as the smell permeates every surface. Diseases long thought eradicated become epidemics in their own right due to how many viruses and bacteria spread via fecal matter. 

Humanity marches on, as it always does, but things simply will never be the same. You continue to live your new crappy life up until the day you venture into the city to find something in the childhood home you had to abandon. You never make it to the home though. You slip on a stray turd and fall face first into a stream of sewage. The impact knocks you out and you drown, carried down stream by a river of refuse, never to be heard from again.",fkb2c44,Trithis2077,124r1z
NOOOOOO I CAN'T STOP THE SPREAD OF DEADLY DISEASE MUH WAGES ARE MORE IMPORTANT!!!!!,Macklinmore,jwrvj,fkbjzyp,"While all correct, most people can’t afford to miss a two week paycheque. What we’re seeing in the states is parents begging to allow schools to remain open because without it their child may not eat due to missing the free lunch and they can’t afford childcare but also can’t afford to miss work. Definitely still take the advice of the op, but understand not everyone can afford to. This is where herd immunity fails, not the ones who are carefree and still vacationing.",fkahx13,Thissomebshere,7bg53s3
If they don't like being ridden then why did they let us selectively breed them into being rideable?,Macklinmore,jwrvj,fkbjiky,Cute form of resistance. How about we listen to this guy and just don’t ride horses? They generally don’t like it so why put them through that?,fk9rk7f,mostlyenlightened,4c5zl0qi
See I know I'm right because right now I'm being downvoted by angry simps,Macklinmore,jwrvj,fkamimz,"You've got then mixed up, incel is a simp word",fkafrqu,Macklinmore,jwrvj
Anyone who doesn't jump head-on into at least the second hardest difficulty is the weakest race and will be bullied,Macklinmore,jwrvj,fkaja2l,"... Let people enjoy the game, would ya? The way you enjoy the game =/= for everyone else. People pick the difficulty they're most comfortable with. Everyone didn't start at Ultra Violence for the original Doom either when they first started out.",fkaggqk,Icongnu,6ekzk
"096 I guess, I'm sure you'd rather pop one off in your noggin than get ripped apart",Macklinmore,jwrvj,fkag1us,"Which SCP would that even fit with, I can’t think of any off the top of my head

Ok yeah I can see where you’d want to be killed, only ones I hadn’t actually ever read were 493 and 1104",fk9zxmw,SCSdino,4qasm6oo
"Because things should only ever be said once, that'll make the government listen

/s",Macklinmore,jwrvj,fkafxtt,"guys, its my turn to say this tomorrow.",fka9an4,Confident_Resolution,48mouec
"You've got then mixed up, incel is a simp word",Macklinmore,jwrvj,fkafrqu,Oh please don't make that incel word happen...,fka3s7p,RodLawyer,12e151
r/thesimppolice,Macklinmore,jwrvj,fkaf6cw,We need a S.I.M.P. Patrol to combat,fk9r4dc,danteleerobotfighter,10k4r0
">looks better

>easier on eyes

>saves phone battery

>not downvoted when posting screenshots with it

Sounds superior to me",Macklinmore,jwrvj,fkaeedm,It isnt superior its just a preference,fkae0s1,TMGGuy123,tu9l4
"Post physique, manchild",Macklinmore,jwrvj,fk88ij4,"waaah I'm getting downvoted waaah

wow you sound bitchy. You sure you don't have low t?",fk88fp0,Redtyger,9aa9u
Anytime friend,Macklinmore,jwrvj,fk84ohj,Amen. Thanks for sharing.,fk84nmf,skunkman62,3uhkl
Shut up,Macklinmore,jwrvj,fk7vpdj,"FFS, why don't you appropriate deaf culture by stealing sign language from them, too?",fk69dx7,kd5nrh,3m7yi
"Am I really being downvoted just for saying ""kek""",Macklinmore,jwrvj,fk7uv10,Kek,fk703ck,Macklinmore,jwrvj
No it doesn't,Macklinmore,jwrvj,fk7urhk,This website needs more commenters like you,fk6y7ht,Servant_ofthe_Empire,1h4ojwo7
"You and all the angry downvoting simps are just proving us right

Also what's wrong with us being life partners? And why do you think it's okay to pressure us into sex?",Macklinmore,jwrvj,fk7dwo4,I wonder where I implied that I give a single itchy fuck about a teenagers opinion,fk7anjk,Redtyger,9aa9u
"Why are you being downvoted, it's 100% true",Macklinmore,jwrvj,fk71nrf,"This website is literally filled with people like that tho. Fake positivity is the cultural norm nowadays. If you dislike even the most obnoxious and stupid behaviors of other people, you are automatically a bigot conservative boomer alt right winger fascist, so everyone just goes to the other extreme where they approve and encourage anything ""as long as it doesn't affect me directly"".",fk6ypk7,VladiusInfigens,3hyv6cfc
Based,Macklinmore,jwrvj,fk4zxpa,"> TikTok Admits It Suppressed Videos by Disabled, Queer, and Fat Creators https://slate.com/technology/2019/12/tiktok-disabled-users-videos-suppressed.html
> 
> 


Based. Seriously, good. These degenerates need disappeared.",fk4ztkk,TroomersAreGroomers,5u7aoemc
A lesser evil,Macklinmore,jwrvj,fk3gj2v,Yeah I’ll use American spyware like a true patriot!!,fk36k7l,orangesrnice,cypfk
Why do people willingly use Chinese spyware,Macklinmore,jwrvj,fk2avgm,Shame you made it a tiktok advert,fk29nrq,willothewhispers,1acty7xz
"Dude that sub is 90% political, look through it",Macklinmore,jwrvj,fk0m01y,It’s an ok joke but I kinda agree with the mods for removing it cause I don’t think fun subs like that should get political,fk0l8gv,bigmong112,3nran4a1
Thanks you too,Macklinmore,jwrvj,fk0lylp,Ew,fk0lrn0,Spranktonizer,wbytq
"The burn is at the bottom, is you blind",Macklinmore,jwrvj,fk0k238,"/u/Macklinmore, thank you for your submission. Unfortunately, it has been removed for violating the following rule(s):

* **[Rule I](https://www.reddit.com/r/MurderedByWords/wiki/what-is-a-murder) - Posts must include a murder or a burn.**  




---
*For information regarding this and similar issues please see the [sidebar](/r/MurderedByWords/about/sidebar) and the [rules](https://www.reddit.com/r/MurderedByWords/about/rules/). If you have any questions, please feel free to [message the moderators.](https://www.reddit.com/message/compose?to=/r/MurderedByWords&subject=Question regarding the removal of this submission by /u/Macklinmore&message=I have a question regarding the removal of this [submission.](https://www.reddit.com/r/MurderedByWords/comments/ffslze/-/?context=10\))*",fk0jyfa,beerbellybegone,w96cj
"Godspeed, King",Macklinmore,jwrvj,fk0jcdj,"It is possible, however I havnt gotten my bot to work yet, so I'm not sure exactly how still learning python and the Reddit api",fk0j9ns,firebyrd99,1y2k1olw
"Never, you young burp",Macklinmore,jwrvj,fk0jbms,Calm down you old fart,fk0j78e,jakewz2424,3x8n0ebf
"If that's possible, please do it",Macklinmore,jwrvj,fk0j750,This comment should be a bot that posts this on all tiktok posted videos,fk0j4ev,firebyrd99,1y2k1olw
I'll keep my eyes open for some bruh,Macklinmore,jwrvj,fk0he0d,That’s so sick. But someone please put full helmets on them before accidents start happening.,fk08ik1,DeuxExMachina714,50wkaski
Kek,Macklinmore,jwrvj,fk0hd6l,You're right. Someone could put an eye out.,fk0ebfy,No-Coast-Punk,4ekh7
Both tbh,Macklinmore,jwrvj,fk0h7ly,Wait are you talking about Islam or Christianity?,fk0gwsj,GroktheFnords,3fia7pxx
"So is your ideology, commie",Macklinmore,jwrvj,fk08g12,alright you're a lost cause,fk08dqy,CzechMyMixtape,12fyfk
Yes,Macklinmore,jwrvj,fk08cy3,jUsT wOrK hArDeR,fk08cik,CzechMyMixtape,12fyfk
"If your will to live is that strong, why not use it to  create a million dollar idea and sell it

Wealth isn't just given out of thin air, it's earned by making good decisions, only exceptions to that is birth. Whether that good decision is buying a lottery ticket at the right time, or investing in bitcoin, or getting a law degree, is irrelevant. God forbid people get rewarded for trying harder",Macklinmore,jwrvj,fk08bou,people deserve to not die preventable deaths while others have more money than anyone could ever spend,fk088nd,CzechMyMixtape,12fyfk
"Haha yes I MUST be getting paid to say people deserve their own money, that's the only explanation!!!",Macklinmore,jwrvj,fk087e7,are you getting paid to defend them? what stake do you have in this? are you rich yourself?,fk085da,CzechMyMixtape,12fyfk
Almost like they're bosses with more important roles who get paid more or something,Macklinmore,jwrvj,fk08458,"your boss is the one taking money from you, not poor people",fk07zly,CzechMyMixtape,12fyfk
I think it's petty that poor people think they're entitled to other people's money,Macklinmore,jwrvj,fk07ihq,I think its petty that rich people hoard more wealth than they could ever need instead of help people,fk05kc4,CzechMyMixtape,12fyfk
Based,Macklinmore,jwrvj,fjzcfae,Nice.  Any pictures of her feet?,fjz1zpm,Billy_T_Wierd,3r4w5k6v
Ouch,Macklinmore,jwrvj,fjz7oxr,“It’ll pass.”,fjz7jfq,bebe_inferno,15ibrp
"Why am I being downvoted, it's literally just cause and effect",Macklinmore,jwrvj,fjz6qv4,"If you're stupid enough to click on them, you deserve the virus tbh",fjxx6fc,Macklinmore,jwrvj
Post physique,Macklinmore,jwrvj,fjygxtj,"If they say they're women, they're women. It doesn't hurt me what they identity as. If you're getting so worked up hating a group of people changing their identity which doesn't affect you at all, you need to reevaluate your life choices, gamer. 

>redditised cringe version of the GRU meme like a worrying portion of this comments section

this is the most virgin gamer ass thing I've ever read and I pity you",fjygo80,EggBenedict2,1q8vdz2h
"Says the guy simping for w*men that aren't even w*men

You ain't no gamer pal, you're just a normie who caught onto the redditised cringe version of the GRU meme like a worrying portion of this comments section",Macklinmore,jwrvj,fjyfgp4,Because you're pathetic.,fjydvb7,EggBenedict2,1q8vdz2h
Why would I be scared of a mentally ill man in a dress,Macklinmore,jwrvj,fjydpia,"it's ok gamer, whatever it takes to fight off these pathetic non slonking transphobes and racists",fjydbab,EggBenedict2,1q8vdz2h
That is one hell of a flex,Macklinmore,jwrvj,fjyah6q,"Yeah, I'd be pissed if someone shut down my Twitter and it would be unfair to my 83k followers, too. In fact, it would probably be *harder* on my followers not being able to connect with me. It's sad how the old generation doesnt know these things 😔",fjy9m58,Max_KarmaDude,5k4dclpd
"I dunno about you, but I'm a lot warmer and a lot happier with a belly full of mead",Macklinmore,jwrvj,fjy25oz,Ah I see this spirit is of a medieval drunkard. Tally ho,fjxxij9,cherriesandghostmeat,46eof85v
"Nobody outside of the US cares

You have a sub just for American politics, go complain there",Macklinmore,jwrvj,fjxw8eo,"It should, because Trump - venal, amoral, moron that he is, has a big effect on world markets. For many people, Trump's actions and inactions mean at best volatility in prices and the values of their savings and pensions, at worst they can lose real money because of him.",fjxvdpp,Christopherfromtheuk,cxc3j
"Not a fan, not sad, just sick of hearing about US politics

The rest of the world doesn't care",Macklinmore,jwrvj,fjxpat7,Orange fan sad.,fjxoppt,pooponagoose,7ub3b
"Thanks random third grader, you have achieved comedy",Macklinmore,jwrvj,fjxi4o4,Yes. Yes you are.,fjxht8m,KaiserArrowfield,28itioj2
C,Macklinmore,jwrvj,fjxhxlr,A,fjxhw8b,xhmlx,2cjsdh99
E,Macklinmore,jwrvj,fjxhrf5,N,fjxh6v9,zamitman,25znbefv
Goodbye,Macklinmore,jwrvj,fjxhqc5,D,fjxfczh,CreeMcCreeCreeinton,qfn86d3
T,Macklinmore,jwrvj,fjxhpha,U,fjxgcz8,Tefi658,49ciup1i
F,Macklinmore,jwrvj,fjxhp6s,U,fjxglrj,xhmlx,2cjsdh99
C,Macklinmore,jwrvj,fjxhoxq,I,fjxhm60,J0KERMAIN,3jwmie4u
L,Macklinmore,jwrvj,fjxhom6,P,fjxhlvb,crabraver,38lf6bir
"How is not enabling mental illness a phobia

Quit with your ""everyone I don't like is a nazi"" mentality",Macklinmore,jwrvj,fjxh3sd,"The original GRU, before all the nazis and transphobes infested it. This is a warding off phase so GW doesn't fall to shit-tier ""ironic"" racism.",fjx8fat,Vampyrix25,1hn3ix41
Ok boomer,Macklinmore,jwrvj,fjxa0es,"Young, stupid, arrogant, hot-headed... and maybe the old man tried to chastise him for being rude about something else just moments ago.  His response: “u wot m8?!”",fjx0zul,eaglebtc,4ozng
Based,Macklinmore,jwrvj,fjx7yxx,Some guy suggested beating trans people to death because ammo prices would make shooting them not worth it,fjp6fg2,the_noobface,1lbsl66t
"This but unironically

China is a hellhole and the world needs to boycott them",Macklinmore,jwrvj,fjx66l3,"Better just to keep China on lockdown forever eh? Screw 1/5 of the world population, I’m sure they’d all rather remain jobless and starve so people on the other side of the world would feel better about climate change being slowed down by 0.1%",fjws3h3,MyPrivateCollection,13uew7
"So advertisers can refuse to fund it and it ends up being removed? Right 

Totally not an agenda or anything",Macklinmore,jwrvj,fjx622q,If you don't like reddit go make your own social media where people can threaten murder all they want. Just don't expect it to gain traction anywhere.,fjvoa3t,the_noobface,1lbsl66t
"I just don't like censorship bruh, does that really make me such a bad person",Macklinmore,jwrvj,fjtz69j,"So what you're saying is you want a strong government to tell the corporations what they can and cannot do, because that doesn't sound very ""Open Market Capitalist"" or ""Conservative small government"" to me.",fjtnvmv,ThatOneComrade,zhwa4
It's an opinion. Unless they act on it it's safe free speech,Macklinmore,jwrvj,fjtvrvo,“Trans people should be murdered” is not just a “different opinion”,fjtez0k,Ducklord1023,1mwbnywf
"""Uhhhhhhh it's a private company, so there's nothing wrong with a handful of megacorporations controlling what you say online""",Macklinmore,jwrvj,fjtnm2g,"They got banned for breaking Reddits TOS bud.
  
Don't like the TOS then don't use the product, it's that simple.",fjtbzbp,ThatOneComrade,zhwa4
"So they got censored for having different opinions

Got it",Macklinmore,jwrvj,fjr1nij,"At one point yes. It slowly became less and less ironic over the last year before it fully turned into a cesspool using irony as a scapegoat for their unabashed racism, sexism, transphobia and homophobia, and just all around shitty behavior.",fjpap95,ThatOneComrade,zhwa4
"I think because middle aged women are the biggest users of Facebook, and they're also the most entitled complainers in existence

Ask anyone who's worked in customer service before",Macklinmore,jwrvj,fjqntxp,"Why is that? There is no mention of gender but you’re right, like all comments assumed woman.",fjpqiv0,TCUfroggy,13te5c
He was already dying by that point unfortunately,Macklinmore,jwrvj,fjqncyu,You forgot the part where he kicks Strauss out.,fjpjhot,mr-grnt,2rfur75t
It was a horrible typo that got edited,Macklinmore,jwrvj,fjp3ueo,Just ignore the fact that he said Tahiti is Tahiti plus other places,fjp0n5s,InsaneGermanCoder,411woje4
I'm aware,Macklinmore,jwrvj,fjp0jhj,Tahiti is an actual place...,fjp0a7b,bueno_bravo,y09u4
"Then why reply to me, goofy ass",Macklinmore,jwrvj,fjowoo2,I’m talking about op,fjowmvl,unpopularkarmaminer,56467p03
How is tagging a sub a repost?,Macklinmore,jwrvj,fjowllg,r/repost,fjoihxm,unpopularkarmaminer,56467p03
r/watchredditdie,Macklinmore,jwrvj,fjogolf,"Thank you for submitting to /r/UnpopularOpinion, /u/mychalkendricks53.  Your post, *The California law fining companies who don't have a woman on the board of directors is ridiculous*, has been removed because it violates our rules:

Rule 10: Politics. Please be aware that we do not allow posts about politics on the subreddit any longer. The internet is full of places to discuss politics, as is reddit, and it makes the subreddit incredibly stale. You may comment in the politics mega-thread (see rule 9) if you would like to discuss politics on the subreddit.

If there is an issue, please message the mod team at https://www.reddit.com/message/compose?to=%2Fr%2Funpopularopinion&subject=&message= Thanks!",fjogeki,UnpopularOpinionMods,3myo4c5f
Is that even possible,Macklinmore,jwrvj,fjoekz7,"Granted. However, to battle the Cornoavenom, all around the world people start playing bells. You get sleep deprived from the bells and then die from a major headache.",fjoeh1o,Garg_and_Moonslicer,mpxf2
Hey bud where'd your reply go? Thought you wanted to punch my ugly nazi face?,Macklinmore,jwrvj,fjo31q0,"Oh look someone passive-aggressively called me a nazi for saying anything that paints Israel in even a remotely bad light

Ain't that a shocker",fjo1nhi,Macklinmore,jwrvj
"It's been SEVENTEEN months. Unless you're some poor coal miner working 16 hour shifts daily in the armpit of Uzbekistan, you probably have time to finish a video game in that time",Macklinmore,jwrvj,fjo2r4z,Hurry up play the game at my speed you slow pokes. I have the free time why don't you?!,fjo1cd0,chubbycanine,rvt66
"Oh look someone passive-aggressively called me a nazi for saying anything that paints Israel in even a remotely bad light

Ain't that a shocker",Macklinmore,jwrvj,fjo1nhi,"It’s actually only Holocaust survivors who ask for reparations. It’s not Israel. So instead of saying Israel just say “Jews who lived through the Holocaust”, which doesn’t sound like you’re a Nazi at all. Except, it does...",fjo1ied,Johnny_Ruble,408kxmi1
"Yes God forbid we talk freely about an 18 month old game in a sub dedicated to its existence

Not our problem if people are slow",Macklinmore,jwrvj,fjnn3v2,You talk about letting people enjoy stuff yet push people to do exactly what you want. You're insane.,fjnlqm3,chubbycanine,rvt66
"You must have some high maintenance kids if you can't set aside a few hours to finish a story between *a year and a half*

Also with the amount of ad hominems you just hurled at me, I'd think *you* are the 13 year old here",Macklinmore,jwrvj,fjnlzmp,Some of us have kids and jobs and other responsibilities. Clearly you don't seem to possess any sort of empathy or insight so it figures you'd feel this way. You're also showing you're age with this level of maturity which I'd guess is somewhere around pre teen to 13 max,fjnlna2,chubbycanine,rvt66
I'm amazed at how deep I'm getting with a stranger over nerdy gorillas ripping us apart,Macklinmore,jwrvj,fjn837y,"My theory, is if the gorillas manage to take over a large portion of Africa, they'd have the entire human populations, and by extension armies, of said African nations under their control. In a best case scenario, could also create a United nation where humans and gorillas can co-exist

In this case I think the gorillas could either peacefully co exist with humans across the world since establishing themselves, or could pursue a brutal war with humans under their control fighting for them",fjn6l05,ask_not_the_sparrow,39tqibsu
"I reckon they could probably take over at least a fair amount of sub-saharan Africa, but I don't think they'd stand a chance against any major superpowers",Macklinmore,jwrvj,fjn65is,"That's true, but if I were waging war against humans as a gorilla, I'd want to enslave humanity rather than destroy it",fjn5xs8,ask_not_the_sparrow,39tqibsu
"Bear in mind each gorilla would have to kill over 77,000 humans on average if they wanted to wipe out humanity

That's an insanely high amount of people to rip and tear, or even shoot through",Macklinmore,jwrvj,fjn5upu,"Dont forget though, we're talking gorillas with human intellect. There's nothing to say the gorillas couldn't modify existing weapons to better suit them",fjn5mnu,ask_not_the_sparrow,39tqibsu
"Not even peak human condition could stand a chance against gorillas in hand-to-hand, but i doubt their giant hands could handle most guns",Macklinmore,jwrvj,fjn5fcl,"I don't know, my money's still on the gorillas. I think the majority of people, myself included, would have absolutely no idea what to do if they were thrown into a hypothetical human level intellect gorilla/human war. And realistically, how many people out there could actually square up with a gorilla?",fjn594o,ask_not_the_sparrow,39tqibsu
"Mind you, numbers IS a pretty significant advantage",Macklinmore,jwrvj,fjn4zxo,"I mean gorillas are far stronger than any human will ever be, and with human level intelligence they could theoretically figure out how to to use human tools/weapons/vehicles 

The only advantage we'd have is numbers",fjn4t3y,ask_not_the_sparrow,39tqibsu
"Take your own advice pal, let people talk about things",Macklinmore,jwrvj,fjn4sbi,"I know it's tough to consider others small pleasures in life, but you should try it some time.",fjn4qe1,FrenchKnights,3c95x8s7
I somehow don't think that would end very well for them,Macklinmore,jwrvj,fjn4ne7,"Granted, the gorillas see the unfair treatment to them by human society and start an uprising.",fjn4mog,SaltyPirate58,3vu7pkhw
"Is that like Thailand, Tahiti and Haiti all combined",Macklinmore,jwrvj,fjn4m2q,wakes up in Tahiti,fjn41qt,ReDNecKn,57w0b0hx
"It's been a year and a half, if you take that long to finish it you clearly don't care about the game",Macklinmore,jwrvj,fjn4kw1,It’s a long game and some people don’t have the same spare time as others do.,fjn3xzc,RFC-1995,4p556pjh
Get a console or quit complaining and dictating what we can talk about,Macklinmore,jwrvj,fjn4j78,"PC release was in November 2019, that's a huge player base.",fjn3gf0,FrenchKnights,3c95x8s7
"I never understood the problem these hyper-religious boomers have with bisexuality. You're still attracted to the opposite sex, what's the problem?",Macklinmore,jwrvj,fjn4asf,"Thanks, we’re graduating this year and after I have my degree and more financially removed from them I’m coming out. I want to be safe in case it’s a full on excommunication from the family.",fjldop7,DutchPizzaOven,16t7i0
