child_body,child_screen_name,child_user_id,child_tweet_id,parent_body,parent_tweet_id,parent_screen_name,parent_user_id
And a lot of supposition.,Mark7A,hryvo,fkg6vgx,">So the possible answer is because there were companies who wanted to make the tests for-profit? What?! That's insane

This is America.",fkfeh3a,StalinsPerfectHair,zgfmaw1
I don't know about the three sea shells,Mark7A,hryvo,fkcrw1h,All you need are 3 metal seashells.,fkcrmjk,seluryar,eb2h7
If I can't have titanium white... Someone is getting hurt,Mark7A,hryvo,fkcrsyl,And art supplies,fkcrnl2,saraphilipp,4f7nsxw2
Great now everybody is going to be buying up tube socks,Mark7A,hryvo,fkcp4gx,Use a fuckin towel or buy tube socks in bulk.,fkcokoj,DavidG993,88n14
Do you have a recipe for homemade toilet paper?,Mark7A,hryvo,fkcj9o1,"Flour, eggs and a splash of oil, enough to make a stiff dough. Knead til well mixed and smooth. Roll out on a floury board and cut into thins strips. Or make the dough and get the kitchen aid attachment and skip the arm workout.",fkchh43,Stinkerma,4djyhjw5
If I have to send a paper check I usually put a couple staples through it and the statement.,Mark7A,hryvo,fkc76om,"It's uttered as a joke, but this is exactly it.

They charge it becuase they think they can get away with it.

They get away with it when we don't do anything about it.

It's up to us to fight against things like this.

--- 

edit - people are asking how to fight. 

You avoid the accounts with fees when you can. If it's an account you're stuck with, you avoid the fees however you can (if it means paper check, it means paper check).

You can't easily switch mortgages, I realize, but people mentioned elsewhere that he can use his banks billpay or paper checks to avoid this fee.

Leave banks for credit unions, which often don't have fees like this. If you find a CU that also has silly fees, keep looking. You can have more than one bank account (this doesn't dawn on people). I use 4 banks - one is a CU with a low amount in it just so I have an old account there should I need it. You should shop for banks, you should use the accounts and banks that are best for you.

I got a mortgage through a CU within the last year, no extra fees for paying online. Free checking. Overdraft fees aren't out of control (and they will pull it from savings if I were to overdraft).

You do what you can and then you vote for people who are for people and against bank gouging so they can do what they can.",fkbj8me,OutOfStamina,ct390
So... Greater 3.50?,Mark7A,hryvo,fkbtz9r,"You've described exactly what we refer to as the ""Hubble constant"", H\_0.  Typically instead of your ""one meter reference separation"", we are talking about the distance to a (distant) galaxy.  And instead of saying ""how much further per hour"" we ask ""how fast does it appear to move away from us"".  That's just like putting your eyeball at one end of your ""meter"" and asking how fast the other end appears to be moving away.

The current value of the Hubble constant is about 70km/s/MPc.  That is, if a galaxy is 1 Megaparsec away, it appears to be moving about 70km/sec away from us.  What's really happening is that space is expanding so that 70 km is added to the distance between us every second.

I have to say, the Hubble constant in those units is useful for astronomers (because galaxies are MPc to GPc away, and you can measure their apparent velocities in km/s), but it's a horrible unit otherwise.

To answer your ""1 meter"" question, we just need to convert""(km/s)/MPc"" to ""(meters/s)/meter"".  1 Megaparsec is 3 x 10^(22) meters, so we find

H\_0 = 70 (km/s)/MPc= 70 x 10^(3) m/s / (3 x 10^(22) m) = 2.3 x 10^(-18) (m/s)/m

You asked how much it expands in an hour, which is 3600 seconds, so we have

delta\_L = L \* time \* H\_0 = 1meter \* 3600 s \* 2.3 x 10^(-18) = 8 x 10^(-15) m

For reference, a proton has a diameter of about 10^(-15) meters.

Space is vast, the universe is old, and those little bits add up.

&#x200B;

\*\*\*\* Note:  objects, such as meter-sticks, bound by atomic forces, do not expand as the universe does so.  Neither do gravitationally bound objects such as the Sun, the Earth, the Solar System, or the Milky Way.  Only in the vast empty reaches of space can we think about this ""one meter reference separation"" posited by OP.

Edit:  Wow, many thanks to those of you who gave so much positive feedback, and so much bling!  I'm happy so many of you found this interesting and helpful.  This is a great community, and thanks to the mods for making work.",fk9krvw,pfisico,n8h6z
"I am fairly confident they have people watching him. I would be very surprised if he hasn't been tested already. You know him, he's trying to project strength. I'm sure we probably gets tested daily LOL",Mark7A,hryvo,fkbsm2k,"> It is unclear if either of the U.S. leaders plans to be tested.

Is it naive of me to assume that political leaders are being regularly tested? It seems like a rare instance where self-protection and prudence are aligned.",fkb6ycg,kimya_d,37jvgtml
I'm thinking a little pun was intended you dirty rat,Mark7A,hryvo,fk9codj,"The owl was the wingman, no pun intended ;)",fk9bnnz,orean612,yg0zk
Even his little drinking buddy at his feet.,Mark7A,hryvo,fk9bl5c,His Sunday morning looks pretty hungover,fk99j1l,orean612,yg0zk
Almost as much as idiots posting coronavirus stuff in the wrong sub.,Mark7A,hryvo,fk8frpl,I hate bag fees! 😡,fk8b88h,XanderSt3v3,5vvu92vt
"We should just assume all ""influencers"" have punchable faces.",Mark7A,hryvo,fk8dy70,Yup. Just for existing,fk8cz1d,Gunnercel,5jun5dgb
"CNN keeps saying the National Guard is there to ""Enforce the Containment Zone"" around New Rochelle.  

* The Containment Zone is strictly a 1 mile diameter area where large groups can not congregate.   
* The National Guard is there to help disinfect and deliver food to quarantined people.  
* People can come and go at will

One ""news person"" actually called it an Exclusion Zone, and kept getting corrected.  
  
[Sauce](https://www.newrochelleny.com/coronavirus) regarding New Rochelle",Mark7A,hryvo,fk7e1d9,The press? Cuomo just brought in the national guard and de blasio said don't go to work,fk5rtug,Hammerr0id,5vc0kl1l
"Exhibit B - CNN.  
 
  
I am in Brazil this week, and the only TV channel in English is CNN. OMG, the ""reporting"" is horrid.",Mark7A,hryvo,fk7bcgu,Exhibit A. Fox News.,fk66oao,Inishmore12,15xo2o
https://i.redd.it/kcesewgk1kr01.png,Mark7A,hryvo,fk79voq,And his asshole,fk77468,FreeRadicalAttack,1lgbm20q
"He walked in one day and...fuck it, I'm out of here.",Mark7A,hryvo,fjq3r0m,Imagine being the last guy with that wheelbarrow thinking no one will ever see this again..,fjpgqpp,andrewfenn,4vj4s
Two men enter...one man leaves...,Mark7A,hryvo,fjq3p35,"Eastern California. Hit me up if you’re ever in the area, I’ll go back and show you where to find it.",fjpemwn,Ohdear889,3edaxok6
"Oh I know. I have lots of friends from the motherland. A few wish this colonist a happy 4th of July.  
  
In a world where there is a lot of strife between nations, it's good we are such good friends given our past.",Mark7A,hryvo,fjo28yo,"Fr though, it's pointless us being salty about our colonial history since nowadays we have so many political, cultural and economic commonalities. We love Americans really.",fjnzidn,xBiggles,398hzhrj
Aussie! Aussie! Aussie!,Mark7A,hryvo,fjnyv6v,"Australia, without a doubt.

Shoutout to the Aussies. They are at the steps of China and refuse to bend to Communist Party influence, which is not easy. Probably the country we are closest to, as well.",fjnf99h,Ulforicks,zduos
Texas!,Mark7A,hryvo,fjnyrll,Ourselves,fjmp29h,ight_here_we_go,12vf79bg
Is it because that whole tea party thing...isn't it.,Mark7A,hryvo,fjnyolc,We (UK) hate Americans sometimes but we couldn't ask for a better ally.,fjnrr5u,xBiggles,398hzhrj
/r/mildlyinfuriating,Mark7A,hryvo,fjnqhe0,That one leaf though,fjnag5k,fakesnow_05,1gsuqr
"Scarsdale - I looked too lol.  
  
Maybe the back side, not visible from the street. Other houses near by have three garage doors like that.",Mark7A,hryvo,fjnl7dm,Scarsdale NY has a 23 Cooper Rd but doesn’t look anything like it and the house was built in 1952,fjnghyx,sjbeachguy,jpahu
Rich people aren't the only ones that benefit from Wall Street,Mark7A,hryvo,fjnktqz,"Umm this package is to comfort wall Street.

This package 100% helps Rich people",fjn6m6v,SirGlass,710fi
Unless you are fishing on/in Jupiter!,Mark7A,hryvo,fjnkhk5,"OP says it’s extremely heavy, so I would rule out flotation device.",fjnftej,windows2000pro,epvx4
Worked for Michael Jackson,Mark7A,hryvo,fjniy4m,Maybe he had vitiligo,fjnarp5,pinkguyfriedrice,31qzihit
"I never said that. I just stated before taxes, look to see if spending can be cut elsewhere.  If you want to remodel the kitchen, re-roof, add a casita in the back yard. Do you immediately get a loan? I think it is too easy  to simply raise taxes or issue bonds. It's not sustainable.",Mark7A,hryvo,fjhrx7j,"No man, you can not makeup an arbitrary number and say you need no taxes beyond this point.  The needs of the projects and citizens determine the size of the taxes not vice versa.",fjhr1v3,darkescaflowne,3smfj
The tea flowed in the harbors that day.,Mark7A,hryvo,fjhqq3k,We stopped caring what you British people think right around 1776.,fjgpbtl,Quik2505,70one
Cowboys and Indians,Mark7A,hryvo,fjhqdyj,"what is a ""western country""?",fjf0jxu,rp2865,1jpo1vjs
More importantly reevaluate where we are spending.,Mark7A,hryvo,fjhpkps,"They need more taxes, the tax base shrinks every year which is why they need more funding.",fjhol2h,darkescaflowne,3smfj
Hopefully this sub will be less idiotic than the other coronavirus subs. Those are toxic.,Mark7A,hryvo,fjho8y1,PSA: Check [r/CoronavirusCA](https://www.reddit.com/r/CoronavirusCA) for a sub dedicated to tracking the local outbreaks in California.,fjc6wzj,cryptodude1,emy0w
"Bonds WILL lead to increases in taxes. They are a loan that needs to get paid back. Then, when we do have to pay them back, we'll take of new loans to pay for stuff.",Mark7A,hryvo,fjhn8v6,This is the truth. My uninformed parents thought the same thing,fjgw8gf,SpaceyCoffee,9w6t6
"School funding comes out of taxes. If they need more money, it needs to be shifted around. Basic budgeting.",Mark7A,hryvo,fjhms28,Cite source of where the state misspent money.,fje89sd,darkescaflowne,3smfj
"It turns the ""up next"" numbers.",Mark7A,hryvo,fjdh9hw,I think they saw it and used it as a model for their workflow.,fjd8qhj,MrJeef,7x0on
Little Finger?,Mark7A,hryvo,fjdgf0q,Its been long since i heard the name,fjcw03r,Semipie,1qecbfo7
I saw that on Brazzers,Mark7A,hryvo,fjddqy3,"Are you saying john connor is going to send a random dude back in time to impregnate his mother?  With himself?  If so, then i see you're point.",fjcwuci,vanchizzy,11nll6
"Yea...that's just wrong.  
  
You turn me 'round",Mark7A,hryvo,fjdd73x,Redirect to the meatspin video soon as people try to connect.,fjd6rnc,Mackem101,a1g3t
The cake is a lie.,Mark7A,hryvo,fjdcgje,The title is a lie,fjdbja5,BiffBanter,n8b7n
Ahhhh...well that's different.  ;-),Mark7A,hryvo,fjdbpf9,"...Crucial, last minute information...such as dropping out of the race!

Lol",fjd9ph4,Lobenz,k85ss
"The idiots running the show can't figure how create a decent ballot, ranked choice would cause a melt down.  
  
Then you have the idiots that have a hard time voting with current ballots...",Mark7A,hryvo,fjd7jy0,Ranked Choice Voting.,fjck8yo,EvilStig,e0d48
">...crucial, last minute information...

In a campaign? LOL",Mark7A,hryvo,fjd7by7,"The problem with mail in voting is that you miss out on a bit of crucial, last minute information every once in a while.",fjbmyc2,OK_TO_BE_WACK,4spuhlzo
"Fuck...if only we could have it deliver to our homes. That would be sweet...  
 
Better yet use some kind of tube or PIPES to deliver it!",Mark7A,hryvo,fjd69bn,"At Vons today, people were buying water by the cart full.  People are mildly panicking.",fjcd2nn,winkers,4d367
"I'm not sure, but perhaps if I pee'd on it ...  
  
Yeah, that works.",Mark7A,hryvo,fjbk2cp,"That's why I said I'm not sure, come on",fj9obyq,Fatso666,zmyw2
I'd pay to see their supporters face off.,Mark7A,hryvo,fjbj77w,Debates would be comedy gold tho.,fj9essd,yasmin1334,5k0ncwsk
"Then you read comments ITT and realize people complain about how or how much he donated.  
  
I hate people some times.",Mark7A,hryvo,fjb1bxr,"I usually hate multi millionaires and extremely rich people. They’re selfish, greedy and claim all the non rich people are stupid and lazy while 10 million people starve yearly.

This however put a smile on my face, Thank you and may your charitable deed not go in vain.",fjae0dh,CheatSSe,374i8oga
does it have to?,Mark7A,hryvo,fjb176q,"> donating the majority of his $61 million fortune to charity.

the majority doesn't mean ""entire""",fjacq0p,GrabEmbytheMAGA,j7o37vq
Do you know for a fact he never contributed money while he was alive?,Mark7A,hryvo,fjb0sai,I mean yeah good feels and all but why did he have to wait so long to give it away? How many people died while he hoarded wealth for decades?,fja7z29,TheTooz,5fxm5
and die.,Mark7A,hryvo,fjb0pnm,Go away,fjawm6v,ChubbyBunny2020,5cruqt42
Some people are ungrateful,Mark7A,hryvo,fjb0lmj,He could have left it to his already rich family 🤷‍♂️,fja7mh5,andyroid92,s6fojke
Do you know that is really what the Douglas Charities do?,Mark7A,hryvo,fjb0e3r,Yep.  Where the administration fees consume 90% of the charitable amount.  Guess who get to be the administers - friends and family.,fja6ed2,MAN1FSTDESTINY,j738c
It looks like a pop-tart,Mark7A,hryvo,fjahmbb,It's actually cake.,fj9s9x2,Cleffer,4qbmp
"Came to say something similar. The real question is ""Get home from where?""",Mark7A,hryvo,fjagd8g,"What do you envision using a big ass knife for?  If you're focused on getting home somewhere, you won't be doing bushcraft and making shelters.  Neither will you likely be fishing or hunting, and have the need for a knife to prepare food.  I see a multi tool and that should be a sufficient enough knife for most purposes.

While were at it, here's the rest of what I find unnecessary.  I'm not sure what some of the stuff is in your pic.

* Playing cards.  Not really necessary, you won't have time to play cards if you're moving.
* Rope is great.  No need to carry 3 different kinds plus a strap.
* Pencil sharpener?!?  Knife sharpens pencils too.
* For what looks like flashlights, get one or two better flashlights.
* No real need for binoculars.
* That heavy chain has no real purpose.
* The blue carabiner isn't too useful and won't hold any sort of a load at all.
* A small prybar isn't useful for much.  If you're in an urban area you can improvise, and if not what do you need a prybar for?
* Tools.  Your two screwdrivers and pliers are contained on most multi tools.  Get one that has them.
* No idea why you'd bring micro fiber cloths.",fj97pxn,justanotherreddituse,4iw6w
I'm still calling in sick that day.,Mark7A,hryvo,fj8towl,"From what I’ve read, the stars mostly miss each other",fj6u217,SnarkAtTheMoon,z63sj
I think the net is underutilized in suppression. I might add one to my arsenal.,Mark7A,hryvo,fj0jmb7,The net is a nice touch,fixycqr,srabear,1wosf02v
"> get my micrometer out for you all

A ruler or banana would suffice",Mark7A,hryvo,fixng5o,All right Dick’s. I called the butcher and requested a 3 inch ribeye. Forgive me if I didn’t measure it. Next time I will be sure to get my micrometer out for you all,fiwvou7,muffinator3,7je0s
"How long do you cook the spoon for?  
  
Also, can I use a spork?",Mark7A,hryvo,fixnam8,Yes,fiwtoaz,muffinator3,7je0s
"But we have environmentally friendly gas. Think of the environment.  
  
Oh, gas prices will fall a bit. Then they will be raised for the ""Summer Blend""",Mark7A,hryvo,fixmwrc,"It’s crazy that our gas is more expensive than Hawaii, which has to bring in all (edit: I was wrong, my bad, only some) their fuel on tankers. We are paying over $3 a gallon still while some states are $1.75. What a racket.",fixma9s,Rex805,crxj05t
"Like those ""temporary taxes"" after some disaster.",Mark7A,hryvo,fixmkp4,"Only temporarily, which they will forget to ever roll back. Oops.",fiw9nsk,baconandbobabegger,f0c37
"That is a better way to state it. I am in a largely Hispanic neighborhood, and when I hear it playing at someones party, it isn't bad at all.",Mark7A,hryvo,fivhuye,"I don't hate Mariachi, but I hate having my meal disrupted and feeling pressured to tip. And those horns are loud!",fivg9gu,idislikebroccoli,1676f0
"The Mexican restaurants around here have Mariachi on Sundays. I only eat at these restaurants on Saturdays...I hate Mariachi.  
  
(edit: while eating)",Mark7A,hryvo,fivbyxn,"Live mariachi is awesome.

Biggest thing I miss about los angeles",fiu796d,Hanapalada,1kfw4jiu
[You lack flair!](http://www.quickmeme.com/img/9d/9da1bd259a5e0c7b44dd32ba744b67402aaf995504694332391fb9c73619d433.jpg),Mark7A,hryvo,fivbos4,re-posted because the last post was removed due to lack of flair.,fiu65vy,raulness,5bcch
"He does it between his marketing and janitorial duties.    
It's all good fam.",Mark7A,hryvo,fiumohs,You as a project manager are merging in code. What kind of fucked up company do you work at?,fiuedwd,foreverwantrepreneur,1biwh03
Brazil is winning!,Mark7A,hryvo,fiuiuqz,"Ye, lets not make cutting down trees a sport",fitpsut,walsallscott,hfm20
"And there was an ""influencer"" there with shorts on showing off that tat.",Mark7A,hryvo,fiuimwk,The coldest temp on Earth ever recorded at surface level was -89.2 C haha,fiudnx5,ihopethisisvalid,d11u0
"Yea. If I did this, it would just be the picture on the right ...not as compelling",Mark7A,hryvo,fiu1rce,"I would say it was more up to your, parents.",fiu0f3e,CommaHorror,p9kij
"Do you know why they call small Mexicans ""Paragraphs""?",Mark7A,hryvo,fiu1jlg,I am a Mexican dude and I didn’t know they made some of us big/tall :(,firxp6p,billcosbyslube,3geddzb4
I usually rack a shotgun to let them know.,Mark7A,hryvo,fiu1er7,I try to make as much noise as possible when walking behind someone when it's dark or a garage just so they know I'm not trying to sneak up on them,firsrc4,VadersVariousCapes,ayj7b
"Shit, the government is scrubbing images of these!",Mark7A,hryvo,fiu0e49,"are you sure about those coordinates? I can't see anything but ice.

But that looks like a space-telescope cluster",firfjxm,gogetgamer,mj10d
Identity theft is not a joke!,Mark7A,hryvo,fitub7u,How would I describe myself?  Beets. Bears.  Battlestar Galactica.,fit25vm,EBDBBNBBLT,3jdii8z
Last person on the plane gets to check his carry-on,Mark7A,hryvo,fitu15u,LOL @ last person to board can take any seat including first class.,fitjvhf,chrisjs,9w4mm
What about 2002 RPM,Mark7A,hryvo,firtwf0,6 RPM,firsfs9,VercingetorixSucks,3ojn9ffg
fucking a!,Mark7A,hryvo,fir3uiy,"Honestly as a frequent traveler, I would rather have people have to pass a test to have access to TSA-Pre.  I can't tell you how many people simply don't know how the Pre line works.",fiqvy4b,stcwhirled,ebx1m
agreed,Mark7A,hryvo,fir3szs,No. Full stop,fir2kod,Sardonic_Samurai,99t9vir
It's on Tesla development plan,Mark7A,hryvo,fir2y66,Damn that would be great for road trips (although deadly).,fiqcx1y,gij3n,16g6h4
She is probably into the other guy.,Mark7A,hryvo,fir28ti,Why doesn't she just block him?,fiq5zga,nuniabidness,2xhza9ac
"Yes, but it's fine when Obama and other democrats enforce the boarders.",Mark7A,hryvo,fir1ll3,Hasn't this been going on before Trump took office?,fiqramz,JScrambler,122p73
and 16% of your carbs...all of which are simple.,Mark7A,hryvo,fir0tv1,A [Starbucks Chai Latte](https://www.starbucks.com/menu/product/466/hot?parent=%2Fdrinks%2Fhot-teas%2Fchai-teas) supplies 16% of your daily protein and calorie needs.,fipx42g,ralphonsob,16tnjc
Awesome - Well seasoned chili cheese fries coming up!,Mark7A,hryvo,fir0m2b,A lot of well seasoned dishes.,fipugw4,ChilliKitten,4gvj236p
"True...but they are the ones creating the issue. Even if the other side doesn't know it is legal.  
  
15 minutes before, was there an issue?",Mark7A,hryvo,fiou46r,"The thing is, they do discover people who try to violate their civil rights to publicly record.  As another commenter stated, there is no privacy on a public street.",fima1ev,davidverner,61xk3
"To create video to get post karma.   
  
Assholes really - ""I'm not touching you"" types.",Mark7A,hryvo,fiotvb3,"Im confused, why were they recording in the first place?",fim6ckk,TheTankEngine72,ic7otqh
27 years was how long Jimi Hendrix lived on the Earth,Mark7A,hryvo,fioqf4k,Yeah for 27 years I was crushing them without the cap lol chill out,finpa1d,DiggyKalborn,bvber
Just leave them on the street to make it even more easier. Why  do you need to make it so hard?,Mark7A,hryvo,fioq7h3,"Americans in some states pay a ‘sin’ tax, like 5 or 10 pence for each can or bottle. You can get it back if you return them to an authorized center, but I for one am too lazy to bother.

Homeless people in the cities gather them though to recycle so I feel like I’m doing a good deed by putting them in the dumpster for them.",fiogu0x,infinitum3d,u3224
I say that to my son daily.,Mark7A,hryvo,fiopv8s,Why are you the way that you are??,finkrrq,420AZgolf,23oawddo
"Plot Twist: The baby is on acid, and a soccer ball is kicking him.",Mark7A,hryvo,finfc4i,Plot twist: He’s not on acid and he’s actually kicking the Ice Age Baby.,fin5d87,theironlegend248,3rc11v4c
Just more acid,Mark7A,hryvo,finf82c,"Oh yeah, my bad. Better get some proper sleep. :)",fimu8em,ANormalSlav,42zzduob
So are hands.,Mark7A,hryvo,finczgp,They are easy to get rid of,fin9d9x,Alfombro,i3hx5
Not with that attitude.,Mark7A,hryvo,finblj2,"""It can't fall off the floor"", as my old man used to say.",fil8xq1,YoureInGoodHands,10szoh
My kid has fallen all the time...he's fine      /s,Mark7A,hryvo,finb3cu,"Yeah but if he jiggles or leans he’ll fall
Right off.",fiktmq1,anonomyssy,tfd7m
I suppose if the email to the restaurant gets cc'ed to the health department and child welfare there might be different outcomes.,Mark7A,hryvo,finauea,"I'd be willing to bet their not going to get fired.

#1 paying unemployment for two workers is enough for any restaurant owner to evaluate whether they should be fired or not.

#2 Some kitchens I've worked in allowed their employees to take drugs while working. Having a wee tot in the kitchen only puts employees in a good mood. What were they supposed to do? Daycare is expensive.",fil6dkc,93NiQ93,3bfinfwq
Cam would suffice,Mark7A,hryvo,fina6ey,You named your cambro Elliot?,filgo1p,Edward_Nygma,cdbz3
You and me both brother,Mark7A,hryvo,filzimr,Speak for yourself. My dream is that my kids get rich and let me retire early.,filpngb,JackAceHole,5reuy
"Boy, I wish I could've caught him doing it. I'd have given anything to catch that asshole doing it. It'd been worth him doing it just so I could've caught him doing it.",Mark7A,hryvo,fil74wx,What’s more chicken shit than fuckin’ with a man’s automobile? Don’t fuck with another man’s vehicle.,fikd6x9,Drackenstein,eciqnqp
[Enjoy](https://www.seymourduncan.com/blog/the-tone-garage/top-10-rock-guitarists-that-use-multi-neck-guitars),Mark7A,hryvo,fikykw0,Now that is something Ive gotta see.,fik5ei6,Beas7ie,11g9l1
"I think I'd love to be on an island like that for a vacation - couple weeks or so. Like Midway, one of the atols in the pacific, cook island.",Mark7A,hryvo,fikt28o,"I'm sure a lot of military members could help you on Guam. Honestly I think I would hate to be stuck on an island that small and so remote, but soooooo many people stationed there say they love it",fikdr4j,readthisifyouloveme,5dn4yboq
You rat bastard,Mark7A,hryvo,figvktu,I understand your frustration. I once did as well until I switched to the dark side,figlct2,gianflavio,9u033d9
I hate xbows,Mark7A,hryvo,fig3kcj,Not when you run xbow yes with everything else,fiffqqs,gianflavio,9u033d9
"Wait..I know Maher is totally left-wing, but he actually said that this is a possibility?",Mark7A,hryvo,fibm2uf,Tell that to maher,fiaj5bn,Agastopia,cytik
"At least now a days, we have [washable toilet paper](https://www.etsy.com/market/cloth_toilet_paper)!  
  
Ahhh..to be civilized...",Mark7A,hryvo,fialatq,Don't you just hate it when people don't return their ass wiper to the trough?,fi8omds,NormP,9ajxt
"I am not sure what you mean as unskilled.  
  
There TONS of opportunities for trade labor.  As Mike Rowe keeps saying, not everyone needs to be a college graduate.",Mark7A,hryvo,fi86on7,So what happens to the unskilled people? They’re not going to just stop existing...,fi6hfyb,bootherizer5942,4zjly
"Well, she is the [successor to Jesus](https://www.washingtonexaminer.com/news/church-of-sweden-proclaims-greta-thunberg-successor-to-jesus-christ-in-resurfaced-tweet)...",Mark7A,hryvo,fi7t7b5,It's also pretty cringe how people fawn over her like she's a child messiah,fi67zw8,blind_retriever,43w3gqpy
That bastard!,Mark7A,hryvo,fi7pibm,"Be careful man, Adam Duritz smashes a lot. If he could get Courtney Cox and that girl from weeds he might steal your girl too",fi7esan,Ask_me_4_a_story,127rj7
