child_body,child_screen_name,child_user_id,child_tweet_id,parent_body,parent_tweet_id,parent_screen_name,parent_user_id
"I always say keto food in these subs is cheating.

Yes, you can use a cucumber as a sandwich vessel. Yes its stupid. Yes its shitty. But you did it on purpose so get out.",Mucl,j7eh8,fki8zei,Is your friend on the keto diet?,fkhzfg6,Laurasaur28,81g71
I haven't watched much of the office but love when I get a reference. Wonder how many I miss.,Mucl,j7eh8,fkhh93m,"That's Northern Lights, Cannabis Indica.",fkh5r3t,AnUglyDumpling,7ug8p0l
"Watch out op, never know who's on the internet.  I'll have him send them to me and you dm me your address.",Mucl,j7eh8,fkhf8re,"DM me your address, that humidor looks hangry.",fkgtcwd,codeyf,8lra0
Look at this fat cat with pepperoni and non-government cheese while we're at it.,Mucl,j7eh8,fkeyapm,"> pizza sauce

Look at you with all your luxuries, we used ketchup.",fkevwfj,roybos,ct8sm
2-3 shots? You gotta pump those numbers up. Those are rookie numbers!,Mucl,j7eh8,fkc48o9,"For anyone wondering, that’s shoulder tender that  I jaccard and cut.  

It’s 10lb in each tub.  I use all that salt, garlic and (chopped) rosemary. About 20 twists on the big pepper setting. 1/2lb brown sugar in each tub.  And about 5oz of the glaze in each.

And only 2-3 shots of jim beam in each.",fkc2tuy,someguywith5phones,170yuc
"Ok, for breakfast we're eating light so just a dozen eggs and half a pound of bacon.  We're cutting right now so half stack of flap jacks, three bananas in the protein smoothie.",Mucl,j7eh8,fkawbv1,"He’s the presidents chef, he came in at Obama’s last term. He’s also a really fucking strong body builder so he knows his nutrition and food",fkauk7r,dennis45233,326mgpnj
"All you gotta do is find words for stuff that sounds less bad.  I automatically assume anything that says ""no added sugar"" will give me diabetes.",Mucl,j7eh8,fk8r04b,"Also, it's hard to find a more processed product than whatever that thing is, regardless of all the buzzwords on the package.",fk8kepo,mixterrific,69bwu
"This is the correct answer.  My contention is always that if you're friends with all your exes (or want to be like OP) something is wrong with you.  If you hate all of your exes, something is wrong with you.  If you are over all of your exes, everything is just right.",Mucl,j7eh8,fk8bjga,"I have no contact with any ex. I don't want there to be any chance of sending a mixed signal to my wife, to them, or to myself. It's much simpler and happier for me to have my wife alone.",fk81sot,FoodIsProblematic,8aws0
"Anyone into it whether they read it or write it would argue there is nothing cliche about what they're into.  The guy that made D&D bent over backwards trying to pretend he didn't directly rip off tolkein when he obviously did.

Here's the thing about a lot of these nerds, they aren't some super creative type.  They like to escape, so they have to create.  Like someone really into guitar that plays it really well but not be able to write for shit.  They'll change a note and act like it's a brand new song.",Mucl,j7eh8,fk8ay51,"Lol for real. It's a genre where you can do literally whatever you want, ""fantasy cliche"" should barely be a thing!",fk842s7,PartyPorpoise,ojzrq
Yeah but people shit and piss all over it.,Mucl,j7eh8,fk76pfz,"Dude, if you wanna see a 4,5 billion year old space rock just look down.

You're hurling though space on one of those right now.",fk76cri,zirfeld,4u6iz
I dont hate it but he sounds like someone who cant sing took voice lessons for a reality tv show and that song was a challenge for one of the episodes.,Mucl,j7eh8,fk70o5u,"For anyone that hasn’t, listen to The sound of Silence by him. Truly incredible. I get goosebumps everytime I hear it.",fk6nswe,PiggyMcjiggy,15ued3
*Thanks for the link*,Mucl,j7eh8,fk4nc0o,"Glad to help!

E: here’s a longer video with more detail https://youtu.be/7NL3wws6GLs

Very glad this has been so well received",fk4jm9i,perldawg,16omdl
"Hey guys, he doesn't know about the button.",Mucl,j7eh8,fk4mx45,"I suspect the dark spot between my ballsack is a birthmark but I'm going to let the doctors tell me what it really is.

~~Edit: I'm confused, this guy says the number is suspected to be way higher, but then cites an article that states it's even lower than the current world average?~~ thanks for the explanation",fk4l0b3,Razlyk,ci3fi
Wish Greek yogurt was more popular.  95% of the yogurt section is fat free garbage loaded up with sugar.,Mucl,j7eh8,fk438yx,"150 grams of yogurt is not a “small amount”. It’s a normal single serving cup. 60 grams is a pretty normal size for a banana (bananas have a huge range though). A banana and a cup of yogurt (especially Greek) is a pretty normal breakfast that would keep me full until lunch.

It’s so sad how out of skew these people are.",fk3zv5e,urkittenmeow,1pxh1sfz
They could get that other person from Logan to play Ellie.  Think it was Patrick Stewart.,Mucl,j7eh8,fk42ga1,hugh jackman actually does look pretty good as joel,fk3xnm3,WarvyHeinstein,1sxur0rc
"Ehm, try it pal.  When my nunchucks are spinning you wont see it coming 😏",Mucl,j7eh8,fk4011u,Can we bring back bullying?,fk3t9ms,slickback69,7g784b2
"Bring a pizza instead, you're welcome. Think about me when you're getting your dick sucked.",Mucl,j7eh8,fk1tun5,"Cool, I’ll just start taking my groceries into the bars smoke pit to find a girl to fuck",fk1mwmx,BrockAndaHardPlace,zznf2
Such an under-rated movie.  I can count on one hand how many movies made me laugh so hard my face hurt and this is one of them.,Mucl,j7eh8,fk1dizh,Definitely Almost Heroes Farley,fk1cipm,thurstoner,ch5ye
"You can't paint a picture pretty well from the text.  Poly automatically increases likely hood of obesity by 500%.  These are typically the people that couldn't get laid in high school or lock down the person they really wanted.  Probably has pet lizards named after doctor who characters and unnatural colored hair.

5' 4"", about 210 pounds but no tits, green or pink hair (short), wears chucks and too much makeup.  Smells like musty french fries and cigarettes.",Mucl,j7eh8,fk13ezr,I really wonder what she looks like,fk10s9w,helpdickstuckincat,1s7wdsj7
\*Mike's hard lemonade,Mucl,j7eh8,fk12had,How do I know you're the real Chris Hansen? Did you bring the 6 pack of wine coolers we talked about?,fk11cmi,mrz3ro,4hht8
I wonder if he will give any details on what it's about.,Mucl,j7eh8,fk12e5e,How worried are you about your upcoming harassment trial?,fk10t6q,expresidentmasks,116uqf
"I went to Jeffersons distillery about a year ago.  IIRC it ages way faster on a ship since there are greater / more frequent temperature variations.  Interesting concept, I enjoyed it quite a bit, I don't think it's a gimmick.",Mucl,j7eh8,fk0pji6,"No need to be sorry, but thank you. As for the Jeffersons... a lot of people say it’s a gimmick, but I think it’s smooth as hell and worth every penny. I definitely recommend trying it at least once.",fjzmhz3,BigDavesRant,1orhdph
"I don't know why every other comic artist didn't get fired once Far Side came along.  ""See this? it's actually funny.  You're not funny Jim Davis. Suck a dick Charles Schulz, everyone hates your stupid comics.""",Mucl,j7eh8,fk0o85g,"The Far Side is some gold. almost all of them are 1 panel comics, but they are just so great",fk0kdmo,theonetruekiing,12qq5t
The mars volta went through like 3 different drummers and they're each monsters in their own right.  It's pretty wild.,Mucl,j7eh8,fjxfy6h,"Fun fact:
Thomas Pridgen of The Mars Volta was endorsed by Zildjian at the age of 10, and is the youngest recipient of their endorsement in the 400 year history of the company.",fjwz7re,teonanacatyl,7ttpj
"Just watch your back kid, nothing personal.",Mucl,j7eh8,fjt96pg,The nature of this story combined with the title of the show makes this headline very disconcerting...,fjsdfk2,rugger88,4q463
"Maybe he just needs to babysit for her a few more times while she's out on dates and maybe he will get to take her out for coffee.  She just needs to so how all those other guys are assholes is all.

Ever hear of the long con my friend?",Mucl,j7eh8,fjosw3x,Dude needs a hug and a real conversation with someone who cares.,fjog51a,itsOkHoldOn,un8ftun
Listen here u little shit,Mucl,j7eh8,fjo5p40,nuh-unh,fjo5dce,The-Sound_of-Silence,towlx
Reddit takes it 10 steps further.  You can completely agree with someone and people are so defensive around here they'll argue with you out of reflex.,Mucl,j7eh8,fjo559h,Reddit is the perfect example of exactly this,fjnyl72,SuperSacred,30nic7m5
"Not sure why you're getting downvoted.  I see this same exact post pop up from here once a month with 500 awards on it.

You get next month my man.",Mucl,j7eh8,fjnm26a,Cat fishing for awards be like,fjnifeg,ThanosBBBean,54pr83qz
"Fentanyl is probably the largest contributing factor starting at 2014.  I'm in heroin central and that's when shit started to really hit the fan.

I'm going to guess most people going down that path weren't in a position or mind set to go for a college education.",Mucl,j7eh8,fjnjg53,"The two trends that stand out here :

1. There is a significant increase in deaths in those under 40 around 2014. 
EDIT: Taking another look, it looks like the trend began around 2008 but intensified around 2014. 2008 was the start of a recession, so I am curious if this segment of the economy had it's own downturn in 2014 that got hidden under the overall economic trends. 

2. Death rates increase in people born after 1955 (approx) and after they hit 40 years old.   
 It will be interesting to see if the death rates drop off once they hit 65 and get social security and medicare benefits, as it may indicate that this is related to health and economic insecurity.",fjneo2t,roe_boat,fczcg
Some people need to brush up on their 2012 memes FFS.,Mucl,j7eh8,fjnapd4,\* /r/itwasagraveyardgraph,fjn6vrc,Disgruntled__Goat,4ucug
"Iran COVOF-19: ""Hold my halal beer""",Mucl,j7eh8,fjl2w7a,"China COVID-19: ""Extra life!""

Italy COVID-19: ""Extra power!""",fjkxn4t,victheone,5fvy7
Let's get this out onto a tray,Mucl,j7eh8,fjk2j1r,Hiss,fjk0g3o,jayrmcm,4vx4d
"That's the case a lot of the time.  If Taylor Swift had to go to work / go to school we wouldn't know who she is.

I'm going to guess 99% of the people that decide to live in a van full time couldn't afford rent if they had to though and mostly are perfectly happy with the arrangement.

I've known people that go in full time trying to make it in things like body building / twitch streaming and don't make shit.  Most of these people don't make any money considering they're putting in 60-80 hours a week.

 One guy I know has like 600k followers on Twitch.  I don't game and don't know shit about Twitch but I said ""dang you must just get a nice check every month"".  He leaned and said ""Nah, followers don't mean shit"".",Mucl,j7eh8,fjk0029,"Those partners have gotta find him in the first place and it doesn't hurt if his daddy happens to have some friends looking for cool hip marketing.

He might be self-made but chances are he got some help in one form or another.",fjjva0f,superexpress_local,4e9zobt6
"That's the side note to this everyone will ignore.  I think the truth is most guys that try to remain friends are talking about a girl they weren't really in much of a relationship with but hope for another crack at it.  Then there are the girls that keep popping up, but they just want that last crack for final closure.  Be wary of a girl that talks to an ex, then again you probably won't know about it.

Heres the trick, if you're friends with all of your exs something is wrong with you.  If you hate all of you're exs something is wrong with you.  All of those relationships should fit on a bell curve. Some you hate, some you love but that chick or dude wasnt right.  Then the middle is going to be a gradient of who's getting the most out of fucking where the measurement goes from FWB to ""my boyfriend upset me so I need some attention right now then peace out homie"".",Mucl,j7eh8,fjjnd1p,Yes. Probably a bit of a risk that you’ll have sex again at some point.,fjjjk4r,Hotnerdhusband,4ytxt32i
"Springfield Ohio.

It's like if Dayton Ohio took a nasty shit that didn't get flushed and it started growing a colony.",Mucl,j7eh8,fjhsy13,Is this The Simpson's Springfield?,fjhoxwd,stinkyfatman2016,xo31g
"As if she knew the dude was going to publicly give her the thumbs up so she's like ""ya'll got my digits, I hope"".",Mucl,j7eh8,fjhlu1n,She's trying to make eye contact with an ex boyfriend through the camera lens,fjhji76,Mypopsecrets,44b0e
"It's the bald effect.  If you lose all of your hair by age 17 you're going to look like you're 30 until you're 35 and you're going to look like you're 35 until you're 50 and you're going to look like you're 50 until you're 75.

Then everything kinda catches up to one another.",Mucl,j7eh8,fjdcnzj,"Funny how Pat used to be one of those guys that looks like he never aged, then suddenly he's an old looking frail man. I somewhat wish the Picard series was made 10 years ago.",fjd953v,Twat_The_Douche,j1n4q
I recognized it immediately. Talk about nostalgia  I haven't thought about that video in like a decade.,Mucl,j7eh8,fjb704r,"Is that the sex offenders shuffle?

Edit: for context [the sex offender shuffle](https://youtu.be/VfCYZ3pks48) and also it is a great song",fjb1moo,CustardHands,x98sp
"Yeah you're right, no one has.",Mucl,j7eh8,fjavrrh,You’ve clearly never had good fondant before,fjatehy,SparkyDogPants,8630u
"""Love the taste of fondant""

You're literally the only person ever to exist to type those words in that sequence.",Mucl,j7eh8,fjang2u,The inside of this is actually completely made of cake with as little fondant as possible. Love the taste of fondant but definitely prefer a good cake,fjajwig,smillard99,24n1tmd7
"That figure is higher then I would have thought. I wonder if it factors in ""regret because I was caught"" accusations as well.

Should I accuse you of robbing a bank and you get locked up with no evidence because we accept an 8% margin of error?",Mucl,j7eh8,fja7te4,"False rape allegations are shown to be between 2-8%, consistent with other felonies. Just because you see a couple in the news, doesn’t mean it’s rampant. 1 in 6 women are raped in the United States and 75% of rapes are not even reported.",fja73gx,offbrandz,d0dg4
"It started and ended with the double down. They really shouldn't have taken it further. 

2010: What kind of disgusting levels of self hate are required to consume this?

2020: hold my insulin

My favorite things are the meals for two / family meals.  I bet 10 bucks most of the people that purchase those are buying for one.  Die young while maintaining your self respect.",Mucl,j7eh8,fj7f41c,"Kfc is having a midlife crisis, I swear every week there’s some new chicken product that nobody asked for or wanted. Just make fried chicken and calm down Kfc, we don’t need a chicken/biscuit/burger/doughnut/waffle/cinabun store",fj6ntif,Marco_Memes,32qt4e2s
That was me.  The bitch also forgot chocolate milk and got store brand tendies instead of Tyson so why dont you get your facts straight before you start talking shit.,Mucl,j7eh8,fj6d8a1,My sister is a 911 dispatcher.  She took a call from a guy in his late 30s who was upset that his mom wouldn’t let him masturbate in the kitchen. At least that guy figured out to only call once.,fj5tlcf,lesionofdoom,lb5by
"African american woman - late 40s - seemingly purchasing lottery tickets for the entire social services office. 25 minutes

White woman - late 50s - looks like a school bus driver - has a ""system"" - "" are there any new rolls? Any close to being empty? Any on numbers 9 - 17?"" - unknown amount of time as she will be nice enough to let you go ahead of her.

Male 25-45 - any race - works landscape - its payday - spends 5 minutes trying to get the clerk to round up the correct cigarillos/ dip / papers / smokes.  Lottery tickets are an after thought that ends up adding 10 to the ordeal.

White male - 50ish - scratches the barcodes at the counter without even playing - trades in winners for more - after losing 80 dollars goes home and gets drunk. He may spend 45 minutes there but line hold up is typically minimal.",Mucl,j7eh8,fj6983r,"Worst is when those people buying lottery tickets are holding up the 711 line while you're just trying to get to work. Like, dude, maybe if you spent less on lottery tickets and more on cigarettes you'd die and get outta my way faster",fj5avtl,thedipsmack,3ig4plc6
"The topic came up awhile back with some friends when we were celebrating one of them getting his teaching license (or maybe it was his master's degree?). Anyway, someone joked ""be careful around all of those teenage girls!"" and he replied ""have you ever actually talked to a teenage girl? (Finger gun to head).

Most predators arent going to go through all that effort unless it's a slam dunk like priesthood. When it comes to crimes of opportunity it's another story.  From personal experience the most eager chaperones are the ones you dont want around kids.",Mucl,j7eh8,fj3q29z,">When the time comes for volunteers to chaperone the boy scout camping trip, you better not fucking pick the guy that raises his hand, you want the dude who's trying to lean out of sight.

I was with you until this point. You're saying men can't be enthusiastic about being, for example, primary school teachers? This is the kind of attitude that results in the ""every man's a predator"" horror stories that always pop up on reddit.",fj3pab4,Vahir,xh9s4
"Probably the latter.  I've never met a youth pastor that didnt meet his wife in his youth group, and I've known at least a dozen (they wait til shes 18 to go public but everyone knows).  A  loser or a deviant will frequently try to put themselves into a position where they think their odds are the best.  

There is no such thing as a dude in a zumba class that is killin it with the ladies.  He thinks it will get him laid.  When the time comes for volunteers to chaperone the boy scout camping trip, you better not fucking pick the guy that raises his hand, you want the dude who's trying to lean out of sight.",Mucl,j7eh8,fj3ng58,"Some of the predators probably gravitated towards the church because they thought being a priest would “cure” their deviant fantasies (clearly it didn’t), or they thought clerical celibacy would give them access to victims.",fj3jso7,Mountains_beyond,1wpcylmn
"Its better then their tv ad ""we get it, this stuff tastes like shit so put whatever you want on it to make it palatable.  Chocolate chips? Fuck it.""",Mucl,j7eh8,fj3mona,this is an ad,fj2pg28,mkmkj,2961qag9
"Last season was a step down, we're only a few into this one and so far it's pretty pretty good.",Mucl,j7eh8,fj3jsn5,"I feel like the current and previous seasons are a significant step down, if still enjoyable.",fj3beqs,Pomguo,68ze1
Within reddit you even have sub groups of idiots validating one another.  I've gone down some weird rabbit holes here.,Mucl,j7eh8,fj3iinb,"Twitter, Facebook, Reddit.",fj3d4ic,WorkingPraline,5sth82ai
"It started with yoga pants, women found out you could pull them up well above the belly button and turn your muffin top into hips.

Now it's become the female equivalent of when a fat guy creates the fake neck line by trimming a thin beard around where their chin *should* be.  It's an illusion, btw we all know what your doing.  If you have visible midriff half an inch below where your tits start you aren't fooling anyone you chunky monkey.",Mucl,j7eh8,fj0k9yl,yeah why do girls dress like boomers nowadays?,fj0ijg5,naufalap,oh48y
"Yeah a lot of emo girls rocked that hair cut when I was in highschool in the early 2000s.  I think younger moms started doing it a couple years later.  I'd say it peaked in 2005 but hung out for another 6-8 years.

It's kind of like how the hitler youth haircut was really popular 5 years ago but there are still a few people hanging onto it.",Mucl,j7eh8,fj0juf8,isn´t it older than that  ?,fj0dcgk,viewering,cfdtca
Oh mommy,Mucl,j7eh8,fiyoyl9,I watched her eat at the gym I was the bag,fiy8euk,mhwest98,18pexfgs
I needed the explanation please have compassion for us dummies.  Maybe a big red circle next time OP.,Mucl,j7eh8,fiynw7y,No shit,fixj21n,SadCucumberSalad,5h0hritg
Black don't crack,Mucl,j7eh8,fixt10e,Is that really her??? She's barely aged wtf,fixpwpr,Playboi_Icardi,173tre
Maybe it's an old ass skelton,Mucl,j7eh8,fixdc7l,"Not around any more. Correct term should be ""Thai Twins"".",fixb60y,cryptenigma,hauvq
Already getting the chemo though.,Mucl,j7eh8,fiuw3rn,aint black henna causing cancer?,fiuscj6,BelleGueuIe,ou94x
"The only argument I have against that is it takes low effort to get out of minimum wage.  I worked at a sub place and pizza place in high school that both started a little above minimum and gave you raises not long after you proved yourself to be a good employee.

It took very little experience to get into a kitchen job that paid a couple bucks more an hour.  It took a 2 week certification course paid for by the employer to go up another couple bucks an hour.

Who is endlessly making minimum wage with no raise? Who is unable to get paid more? unable to find any other job?

Are these people completely incompetent? Lazy? unreliable addicts? I don't think anyone's forcing them into this situation, I think they put themselves in it.",Mucl,j7eh8,fiun3xq,"It's people framing this as ""Hey, don't shame them for their low paying job. It's a start!"" whereas everyone else (including me) is like

nah bruh, I wasn't. I was shaming the company that makes a starter job pay low enough to not support yourself the way it did decades ago when minimum wage kept reasonable pace with inflation.",fiu6il7,Darkbro,50tbg
All that's missing is a lone candle that collapsed into the potatoes just as the picture was taken.,Mucl,j7eh8,fium4aw,‘Birthday dinner’ really solidified the depression of this meal,fiu6xaz,jonw1995,524d1r1o
I can't wait to bring this up at a Q&A at the next comic con.,Mucl,j7eh8,fiua45f,Literally unwatchable at this point,fiu6j4k,Enderox,a8w13
"Xena definitely gives me that 90s vibe.  I remember back in the 90s dealing with ancient gods and demi-gods with my trusty throwing disk.  Or that time I went ""yayayayayayaya"" while bicycle kicking 20 henchmen without touching the ground.",Mucl,j7eh8,fitdcnp,"Don't forget to get some Xena in there, too.",fit18d3,beaucephus,6lg3m
"I was out of college by 2007 but I can relate to some of this even.  I swear they opened Facebook up to the riff raff by then and myspace was dead and buried though.

Those fuckin crazy bands, ex wife was a middle school teacher and obsessed over those stupid things.",Mucl,j7eh8,fisjc49,This makes me oddly nostalgic,firv5n5,r6s-is-bad,3q1h3m1g
"Alcoholics are really good at spinning a story.

I bet getting to the point where being late gets you fired has a lot more to do with vodka then a dear.",Mucl,j7eh8,firhnm6,Yaddy yadda’d the shit that was his fault,fiqnl1k,Jwoey,31i16
"You two are the only famous couple that got better looking over the years, you're both equally special in that regard.",Mucl,j7eh8,fir51y9,"I've not been the best husband in the world, I have my moments. But there's only ever been one woman I've really loved. To put up with me and my fuckin ass, she's gotta be special.",fir1mku,ThisIsOzzyOsbourne,5nj7yje6
Let's just conveniently forget about that sequel staring Larry the cable guy though.,Mucl,j7eh8,fiqp1c3,"Everyone talking shit, but the **Jingle All the Way** fan base has never been tested by a prequel",fiqnte3,Hafslo,jg7pq
"That's fine, there is nothing wrong with it.  It's just that a lot of people think fruit juice is some magical healthy sugar.  Sugar is sugar and juicing makes fruit less healthy and more likely to over do it.",Mucl,j7eh8,fiqn4w4,"I actually eat/drink it for the sugar, since I don't really do sugar in tea/coffee, no sugary food either, and I cook everything I eat myself",fiqdmdt,nopejake101,1daccfrv
"I think most people would be more positively effected by the nay-sayers, like ""I'm going to prove them wrong!"".

What OP is getting at is the people that constantly talk about or post about weight loss (to use your example) and never lose weight.  A normal response to constant failure would be to re-evaluate but if you're getting 100 hearts and 50 ""you go girl!"" there is no necessity to make real changes.",Mucl,j7eh8,fiqmmps,"This is very true, of course we don’t want to enable behavior that can negatively impact their life. 

Here’s the context/thought I had when posting this. I struggle with eating right and exercising, so I will fail and falter once and a while. Most people are generally supportive when I hop back on, but there are others that will point out that I’ve failed before so why continue trying? As much as I try to move past those with negative comments, it is sometimes hard to do so. 

So in response, I would say with any LPT use discretion for every use-case.",fiq99mw,redicrob2155,97t2x
there's at least 30 grams of sugar in that concoction so I suppose it's healthy compared to a milk shake.,Mucl,j7eh8,fiqd8o4,"Mine includes half a granny smith apple, half a mango, a whole banana, handful of baby leaf spinach, 2-3 tbsp of Greek yoghurt, milk/pure orange juice to taste, and a fiver supplement (that bit is optional, but I find a smoothie like that filling for at least an hour and a half). I highly recommend a nutri ninja or bullet

Edit: why are so many people getting butthurt about my eating habits? Yes, there is sugar in the fruit smoothie I drink. Natural fruit sugar, not refined white sugar. Second, I did consult this with a professional, they're quite happy with my diet",fipwxbv,nopejake101,1daccfrv
"This is reddit, no one reads the article.  The headline either confirms our bias or conflicts with it and now we got somethin to say about it.",Mucl,j7eh8,fiq9rb8,"> In Ohio, church officials say, they have abolished $42.8 million in debts across 41,233 households in 103 ZIP codes.

I know it was a joke, but your joke prompted me to actually read the article, so I guess most people here haven't read it.",fipljkx,Kemal_Norton,qzhmh
 Pamn,Mucl,j7eh8,fiq9llu,What's your dog's name?,fiouknl,PibRm,a2ilp
Estoy celoso,Mucl,j7eh8,fikqo5p,Los mejores puros del mundo,fiko15q,juanpuros23,5r8xiohx
"That really is all to say about it.  People want a silver bullet, there isnt one. Anytime I hear someone say they have one nothing comes of it.  You cant say ""well I'm good, something is missing."" becuase you're not taking personal responsibility.  

People dont like that.  They dont want to put in the work or put down the big mac because its uncomfortable.  And they really dont like it when they see someone else doing it.",Mucl,j7eh8,fif6ivl,"There’s people all over this thread saying that they don’t want to go to the gym because they’re too tired or they want to sit in front of a screen instead.  At that point, what more is there to say?  We have enough time to spend at the gym because we don’t spend it on sitting around.  I really don’t see a way around that.",fiethgr,FlyingSagittarius,7832h
"I go to the gym 5 days a week in the morning and dont eat any takeout and minimal processed food so I pretty much prepare everything I eat.  Still time to play drums an hour or two in the evening, fuck off in front of the tv for an hour if one of my shows is out and take my dog on a long walk. Take the lady to pound town.

I think the people having issues finding the time just dont prioritize correctly.  I HAVE to go to the gym in the morning because I fucking hate cardio and need it off my plate asap. Plus on days I dont make it and have to go in the evening I'm reminded about the traffic and how every piece of equipment I want to use is going to be tied up.

Idol hands are the devils play things. If someone cant manager their time becuase they're vegging out for 5 hours every evening dont complain about it, get moving. The clock doesnt stop for any of us til we are dead.",Mucl,j7eh8,fielrwu,"I do all that and still manage at least 4 hours of gaming a day.
Because no kids.",ficrrqt,MittChicken,56h9aeg8
Stonks,Mucl,j7eh8,fiea38e,I'll give you $55 for the wineadors so you get this free 😁,fidtjcx,RockyPatella,31w59dkx
"He figured out the christian angle and made 10s of millions of dollars with utter bullshit.  Not that everything hes done has been a box office smash but fireproof made 30 some million dollars on like a 500k budget, and it's a terrible movie. It somehow survived mainstream (bring out the passion of the christ crowd from time to time $$$) but he wouldnt.  Left behind might not have broke even at the box office, but box office is mainstream, bet the DVD sales bought him a yacht and a jet. I bet every church and christian family owns two copies and those fuckers dont pirate.",Mucl,j7eh8,fi925da,I like your thoughts. Why do you think Kirk Cameron is a genius?,fi90we6,youngpolishdevotee,49vq7vju
"It must have worked like that when I was younger because I went to several funerals growing up and don't recall anyone asking for handouts from everyone.

Now every time someone dies their family needs to raise money to bury them.  I'd feel bad if my last act of this world on the people that knew me was needing them to fork over a few bucks to put me in the ground.",Mucl,j7eh8,fi828x2,That's why life insurance exists. Pay a fee throughout your lifetime so you can afford to die. /s,fi7lfsg,Szpartan,bh5od
"What did he say in the video ""Give me a knife right now, I want to stab myself in the eye""?  Maybe I didn't hear it right but either way holy crap.",Mucl,j7eh8,fi7j5pm,"No child, let alone a 9 year old should ever have to utter the words ""i want to kill myself"". The torment on this childs face is too much. Those bullies should be suspended or expelled.",fi7erzg,20toesdown,9gmzyvv
We need your legs to work so you can be OURS,Mucl,j7eh8,fi3xrg9,And enter into indentured servitude.,fi3w0m9,ooru,10se26
"We're upvoting ironically like ""ok gramps"".",Mucl,j7eh8,fi3jlef,I must be an idiot cause I don't see how this is a corporate facepalm,fi3all1,Nibriddan,helr7
Nintendo did an O O P S I E,Mucl,j7eh8,fi3jbkb,"(https://i.imgur.com/0YLGOmG.jpg)

Here’s some",fi3j3px,confoundinglystupid,51fmqusu
"Seems to be common in this thread.  I find it interesting no one makes the connection either, as if letting yourself go isn't going to cause an obvious issue in almost any romantic relationship...",Mucl,j7eh8,fi0svge,30s I didn’t care. 40s I went back to caring. Divorce may have something to do with it.,fi0lr2p,ddado2,11knbvrm
You got Frank too? Love how he had amazon send me an extra echo auto so both of my cars could be tapped.,Mucl,j7eh8,fi0k3gf,"I for one am grateful for my FBI agent, say hi to everyone, Frank!",fi0g4dq,StagehandApollo,m0g8m56
"I can't do any sweet drinks.  Even straight tequila or rum are too sweet for me.  Nothing to do with masculinity, I have zero sweet tooth.  Dentists hate me.",Mucl,j7eh8,fi003sc,"My fave is the drinks, love me some girl drinks 

edit: i say girl drinks cause thats what my friends call em. They pick on me for getting em. They follow this list to a T",fhzpyzn,Bradley_Of_Thorofare,n2at3
US prisons arent known to put a emphasis on rehabilitation.,Mucl,j7eh8,fhyzccq,"in Brazil, they encourage prisoners to read. they even have the option to get time off their sentence by reading. that is what countries who want people to better themselves do.",fhyv25i,QueenElsaArrendelle,1tqyvm2y
"Yeah my girlfriend is actually going to swing back in and check on some of the stuff I missed, didnt even think to walk down the soap and deodorant isle.  Most of the food stuff on sale was the fancier things, like the dollar pasta was still a dollar but the 5 dollar pasta was 2.50.  But all of the nuts and jerky were at least half off. The gormet blue diamond almonds were marked down from 5.00 to 1.50.",Mucl,j7eh8,fhu5vvd,Don’t forget the bulk section for shelf stable things like rice and beans.,fhu3tzm,libraryberry,6fjw9
It was about 165.  The only things I bought not marked down was some creamer.,Mucl,j7eh8,fhu40e9,What was your total?,fhu3p4z,SilverNeurotic,z45dc
"My bad.  This is the kroger in Dayton where they are building a new one: 2917 W Alex Bell Rd, Dayton, OH 45459.",Mucl,j7eh8,fhu2rf5,Where are you located?,fhu23j8,the1ceo,2tcvzb2j
"That's on you for getting back with them essentially giving them permission to walk all over you.  I dont get guys so desperate to be in a relationship they give up their balls so easily.  My natural state is to be single, it should be everyone's.

It should be rare for a relationship to be better than being single.  Why would I lock myself down when I could just casually see multiple people and not have to go to ikea?  It took my current girlfriend 9 months to lock me down and it is a wonderful relationship, it's better than being single. That being said, if she wanted to end it I would wish her the best and move on.",Mucl,j7eh8,fhp860r,"Or you're like I was and in an abusive relationship where your partner breaks up with you in situations where they know they hurt you the most (birthdays, valentine's, etc.) so that you're more desperate for them back and they have even more sway over you",fhp1qil,manicpixiefearfood,5gtht95m
"They confiscate it because it's free money.

Cops love cash deals.  I've known two who had goals of saving up enough by working OT to buy a hummer or Corvette with a bag of cash.",Mucl,j7eh8,fhornqf,"Do you think they're confiscating large amounts of cash because they want to force us to conduct our transactions electronically? That way they can track and control our purchases.

I've seen people pushing hard for a cashless society and I always wonder what their angle is.",fhoff88,SeaborneMecha,1tfhpmsj
"For real no one gets dumped on valentine's day. Unless you're the side dude and the girl is like ""I will not be able to fred flintstone this shit today"".

Enjoy the single life op, but eat for one unless you want it to be your entire life.

Edit: dang, how many of you got dumped yesterday?!  Btw if you propose on valentine's day, christmas, sweetest day, her birthday or heaven forbid someone else's wedding just cut out the middle man and spend the money on a motorcycle instead of a ring and get some personality.",Mucl,j7eh8,fhoq234,Cmon no need to invent lies. Noone blames you for eating a two peoples dinner on your own.,fhohvrk,PaddyXXYY,z3ypx
"Sugar is highly addictive and non-satiating.  Fat and salt are palatable but a salted hardboiled egg will satiate me 100x more than equal caloric level of sugar.

Sugar offers absolutely no nutritional value, you do not need sugar.  You do need fat, you do need salt, you do need protein.  You do not need sugar.

No one has gotten type 2 diabetes from eating a piece of chicken or a salad, you can get it if you consume a lot of sugar.",Mucl,j7eh8,fhltuuh,"Sugar is unfairly demonized. It's not amazing for you, it's pretty bad to over-consume long term, but it isn't nearly so terrible as many have claimed. The [palatability of food is much more to blame for obesity](https://link.springer.com/chapter/10.1007/978-1-4471-1429-1_12) and all the problems that go with it than just *sugar*. Sugar can increase palatability, but fat and salt can too and actually more effectively than sugar can. Also note that sugar doesn't cause diabetes, but genetic factors as well as being overweight and inactive contribute heavily. So please be specific, in what way *specifically* is sugar ""very bad"" for your health?",fhlo79b,KnuteViking,78754
When ya girl wanna go for round three but you're out of OJ.,Mucl,j7eh8,fhls8aj,"b a b y

#NUT",fhlkb0q,NotYetInsane,6xdj9
"Why do people say that as if deep fryers aren't the main reason people eat stuff like that?

I don't eat the garbage myself but even I know breaded food that is microwaved is not even close to actual deep fried.",Mucl,j7eh8,fhloga8,"For real, you're much better off just going to a grocery store and buying literally any frozen entree. Boom, same thing, costs $3.99.",fhl6nc1,uncleleo101,p7sfa
That's like saying the water treatment plant has nothing to do with me pouring a glass of water from my kitchen faucet.  Are you really that dense?,Mucl,j7eh8,fhl0lhf,"Police don't have anything to do with convictions. They investigate and arrest people, but everything after that is handled by prosecutors.",fhkzlfe,Anathos117,bu8pa
"Lets make the payout come out of the police officers pension fund, and while we're at it make them reimburse the state for what it cost to imprison an innocent person and I bet a lot less of this shit would happen.

I don't think cops who are only focused on getting a conviction give a shit what stuff like this costs the tax payers, hit them where it hurts couple times and they will all start to think twice.",Mucl,j7eh8,fhkxcqh,"Add inflation, investments, potential advancements in career.   
So it likely hits 2m.  


But no one will ever give that. Not even 1% of that.  
It has to come out of taxpayer pockets who already paid 14 years for prisoner upkeep.  


So the only option is to turn to crime to make money back/get revenge or just to get put back in prison - at least you have food and shelter.",fhkrv17,dustofdeath,p6vfz
"I got quail eggs at a farmers market once for giggles.  You can literally take the shell off a raw one without breaking the membrane, I would not want to try to peel a boiled one.",Mucl,j7eh8,fhj62un,"I worked in a place that used quail eggs for scotch eggs to make em bite sizes lil morsels. So good. Pain to peel, though.",fhiyxvj,granndymadge2,34co22cj
"I've only ever made pretzels with baking soda, perfectly delicious. I'll have to get some lye next time and do the pepsi challenge.

Glad you put the measurements by weight.  I hardly bake but always weigh everything when I do.  I did the alton brown recipe that also had the volume measurements and they were pretty off.  The comments on that recipe were a shit show from all the people that didnt weigh anything.",Mucl,j7eh8,fhj22sk,"You're welcome! Most home bakers use a baking soda bath to dip the pretzels before baking, but lye is where the pretzel flavor comes from. It's not as scary as the movies make out. Wear gloves and eye protection and don't splash it around.",fhj0odv,Beerbrewing,e8r9t
"I'd carry two folding tables at once, one under each arm.  All of the old ladies said I was handsome.",Mucl,j7eh8,fhixfmk,I knew that this comment would be in here somewhere.,fhi73q2,empressofasgard,4ps8abqf
I like it so far but it ran a little too cool at first for some reason.  Wiped it out with vinegar and let it air out and kept a dish of baking soda in while I was seasoning it to get the plasticky smell out.,Mucl,j7eh8,fhhng4w,"I just bought that one, how is it ? 

&#x200B;

Did u need to season it ?",fhhfzp4,Sacmo77,rqcz2
"Looks like the same wineador I have. Which comes with a drawer and 3 shelves.  Guessing he got the same thing and had the drawers made for it.  Heres the link: https://www.amazon.com/gp/aw/d/B07VVN4VJ7/ref=ppx_yo_mob_b_track_package_o0_img?ie=UTF8&psc=1

If OP confirms I might look into getting a drawer to replace one of the shelves.",Mucl,j7eh8,fhhck26,So did you buy a wine fridge and get custom cedar shelves?,fhhao60,Commissar_Bolbi,2v59rmik
"That was a new thing for me last time I was single a couple years ago.  I understand a conversation just stopping if one person isnt interested, but it was weird to hook up with someone a few times and they kinda fall off the earth.

Dating changes everytime I'm single.  I found out at least a few of the women I was with were not single and hiding it.  Which isnt anything new but it is with the online dating stuff at least.  It use to only exist in bars, now it's gone digital.  It's always better to meet people in mutual social circles but with online dating before people were at least like ""ok I'm kind of a loser for using this"", now it's just an easy way for a lot people to get some strange with minimal effort.",Mucl,j7eh8,fhgdqcg,"Ghosting, ghosting, ghosting",fhg7xrt,Jokerang,kfm1q
