child_body,child_screen_name,child_user_id,child_tweet_id,parent_body,parent_tweet_id,parent_screen_name,parent_user_id
"Vipers were tribalistic raiders, they had no military or mercenary background.",Natema17,16mstj,fjhgsbu,And the vipers in NV,fjh8gs0,squiggles596,40rbbt58
"Nothing against Virginia, I honestly just didn’t know much about it. I live in NC, and there are parts that seems really redneck and parts that are super urban, so for me it feels like it could be considered North or South- so when I heard a state north of us was considered Southern I was like wtf? West Virginia seems pretty Southern in places though.",Natema17,16mstj,fjgcl55,Northerners consider us Southern and Southerners are appalled by that idea. Lol.,fjgcf51,tnew12,kbtfr
18,Natema17,16mstj,fjcqpns,She looks 15 tho,fjcpw2w,kataklysm0s,2ypvoscg
I don’t follow. Please don’t call me a dumbass.,Natema17,16mstj,fj2e3qv,Knock knock dumbass I'm sick of telling people to read more than the fucking title,fj2e19a,Moto_Boato,35j9io6i
r/subsithoughtwerereal,Natema17,16mstj,fiyso7t,r/waybiggerthanherhead,fiyjacn,greenisthecolor777,4d1ggb4m
That’s really none of your business,Natema17,16mstj,fit90ty,"yeah I just checked, either way you are literally twice her age",fi59doh,My-Alternate-Acc,3g4w9wd6
Right!? Fuckers see some skinny white chick sticking her ass out a little on Instagram and comment “thicc”,Natema17,16mstj,fi92f3z,"I don't think anyone knows what ""thicc"" is anymore. It's always used incorrectly",fi8yzf8,Linkeey,28g6lzbj
"Uh, okay. Not saying it isn’t, all I’m pointing out is that Tobey Maguire’s Spider-man was in movies in 2002, 2004 and 2007, so just posting a Peter in the Raimi suit and being like “2002” is accurate, but so would saying ""Welcome back to 2004” and “Welcome back to 2007”.",Natema17,16mstj,fi3lo8z,Best one,fi3l83p,insertjpeghere,3kr0js88
"Of course I have, and IT IS NOT impossible, that’s all I’m saying. It is ignorant to say it is. It is inprobable, not impossible, that the Chosen One got his ass all the way DC to make James in time, considering James’ age in 3. I posted a headcanon above that shows it is absolutely possible that the Courier is descended from the Chosen One, and I’ve already said that it IS IMPOSSIBLE for 4. Also 76, and I’m only talking about the canon games.",Natema17,16mstj,fi3khrn,Do you actually play ANY of the games?,fi3fqsd,ChompitiyChompChomp,4gqbrbp3
"Wouldn’t work for 4, of course. They could still be related to Albert in some other way? Same with 76.",Natema17,16mstj,fi30erj,Does every character being descended from the vault dweller mean the series is basically Albert Cole's Bizarre Adventure?,fi2qbja,The-Toxic-Korgi,xdy8g
Death by snu snu,Natema17,16mstj,fhrwzzd,"[Gammorin's Army](https://fallout.fandom.com/wiki/Gammorin%27s_Army)

Reason : Female Super Mutants",fhrsr0e,RADIATEDERVISH,5f2obe
"I’ll show you a real tunnel snake, Amata.",Natema17,16mstj,fhrjymn,T U N N E L S N A K E S R U L E,fhqzcf1,Hesstig,92exx7h
"Okay- who is “they”? The Minutemen aren’t just Sanctuary, in fact, the only actual members of the Minutemen in Sanctuary are Preston and the player (provided you’ve done the required quest to join). The Minutemen need your help to build their faction back up, and for it they made you the leader. What you do, as the player, is up to you, but you know what I think is brave? Protecting the honest people of the Commonwealth from Raider scum who seek to leech off of settlements.",Natema17,16mstj,fhr8ses,My point stands though. They aren’t exactly brave because you assign them to protect their base or perform tasks around it. Literally every faction does that.,fhr7ous,YaharGulTheUnseenMan,3eljzd9
"Have you tried assigning your settlers to tasks? You can assign them to do all sorts of things. Minutemen is THE settlement faction- if you don’t like building/managing settlements, you probably won’t like the Minutemen.",Natema17,16mstj,fhr6zqz,Right and what do the rest of them do then? Iirc they also all just wander around Sanctuary Hills... how brave. Was there some sort of update to them or?,fhr69pu,YaharGulTheUnseenMan,3eljzd9
"Yep, the FEV Mole Rat with ghoul followers with plans to take over the world. That one.
Barely a faction, barely a cult to be honest, but I’ve always liked the smaller groups. It’d be like saying the Enclave Remnants in NV are a faction, which doesn’t FEEL untrue.",Natema17,16mstj,fhr2va3,You mean the intelligent rat cult?,fhr2jzn,Trych0till0mania,4r0s08ur
What?,Natema17,16mstj,fhr2je0,A one Sheason Fischer new vegas,fhqy1jf,PipNigga3000,316m3v2q
"Agreed, they’re very different- almost opposite ideologically. Would make more sense if it was a toss up between the Brotherhood and Minutemen, but op’s allowed their own view on things.",Natema17,16mstj,fhr2gpu,"Interesting, how do you become conflicted choosing the Brotherhood or Railroad as most favorite? Ideological stuff? Faction aesthetics like how cool either they both look?",fhr1ai6,IkennaSmash,tidl9
"Ave, True to Caesar.",Natema17,16mstj,fhr15wy,"No offense, but ewwww.",fhqzr8h,Trych0till0mania,4r0s08ur
"Not satire. The Minutemen are what the player makes them, what op described is what the Minutemen are supposed to be. Clearly you haven’t helped them live up to their full potential.",Natema17,16mstj,fhqz8x8,I can’t tell if this is satire or not,fhqsmlz,ChrisAninoiu,v0yt7aw
"You’re talking about Preston. 
Preston =/= Minutemen",Natema17,16mstj,fhqz26o,What bravery? All they do is sit around Sanctuary Hills and boss you around.,fhqsjud,YaharGulTheUnseenMan,3eljzd9
You got me there.,Natema17,16mstj,fgfbnii,"If you’re cishet and have gay friends, you can’t be a good friend without being a good ally, tbph.",fgepne8,SandyDelights,z5d6w
"Sure, but it sounds like she’s also a good friend.",Natema17,16mstj,fgc8xuo,NTA. You're a good ally. Thank you.,fgc88rc,becauseoftheoffice,4ug51l5j
They did listen to your demo. A bad first impression could be enough to put them off from listening to your other tracks.,Natema17,16mstj,fg7eq8z,How do they know it's bad if they haven't listened?,fg7dn0v,TheBlueoats,216in1vt
"Because parents usually know about their kids IGs, so they can’t post anything too crazy on there. Now Snapchat... Snap is where people misbehave.",Natema17,16mstj,ff8hpk9,Why is it that so many of these tiktok babes have disappointingly small and boring IGs?,ff6fq7b,Chelseathehopper,4rcqvamd
"Kind of. They are very story based and are quite linear, and the gameplay is very good. The Bethesda games are somewhat less story based but with huge open-worlds, and the gameplay is decent, but not amazing or anything.",Natema17,16mstj,fbhzqxk,Are the bioshock games short?,fbhzh7q,Mark-Luis,266101dx
Looks like a bed with trap doors around it.,Natema17,16mstj,fbhvsd4,That’s pretty cool how did they do it,fbhtan2,RAWZAUCE420B,16mj4rno
"It’s not, didn’t say it was. Onision has always been really messed up in the head.",Natema17,16mstj,fb7lczj,"A 34 year old man is ""pretending"" to have a tantrum and that's.... better?",fb76lw5,Thatsrealmollyesther,3gu7tqb9
"That won’t work, but it’d be nice if she apologized.",Natema17,16mstj,fb7355f,"NTA - dude, you were injured! Tell her to prepare for a huge apology.",fb72bd3,c-s-n-l,49xd6do7
What is your budget? How often do you play games?,Natema17,16mstj,f9ercsg,"1080p ive never really noticed a difference in quality so i just stick with 1080p.  this will be the monitor im getting unless price's on 1440p drop 100$ lol Sceptre 24"" Curved 144Hz Gaming LED Monitor Edge-Less AMD FreeSync DisplayPort HDMI, Metal Black 2019 (C248B-144RN) https://www.amazon.ca/dp/B07MTMCNLX/ref=cm_sw_r_cp_apa_i_Osg5DbGV7AEF7 or the samsung one as it has better reviews for 40$ more",f9er2y6,Cadeece1,4khkkmzn
"Did you want to play your games in 1080p, 1440p, or 4k?",Natema17,16mstj,f9eovx1,its only 60 but i want to get a 144hz in the semi near future maybe like 6 months,f9eorvl,Cadeece1,4khkkmzn
I’m not saying that I think white people are lame- I’m just saying that most young people think they are uncool when compared to people of color.,Natema17,16mstj,f6h0v43,Wrong.,f6h0k3o,bball84958294,1hkeasp8
"Everyone is special, but the mainstream opinion is that being white isn’t as special as being of color. White people are lame these days- have been since the ‘80s.",Natema17,16mstj,f6gwiq2,Whites are special.,ew55rnf,bball84958294,1hkeasp8
Yes. That statement is correct.,Natema17,16mstj,eyjgq7m,"a couple of days ago, someone made a post about which order was better, and release order was the most popular, its the one that makes sense",eyjglox,andy24olivera,ybsk1
"Nah mate, playing from newest to oldest release is the worst order.",Natema17,16mstj,eyjgcxd,"playing in timeline order is the worst order, I though we all knew that, that's why I said the first even though is not an option LOL",eyjg9k3,andy24olivera,ybsk1
As much time as you need. I genuinely don’t know much about furries.,Natema17,16mstj,eyjfol7,How much time do you have?,eyjfiml,buuumblebee,hi0agr5
"[PCPartPicker Part List](https://pcpartpicker.com/list/qpkd4q)

Type|Item|Price
:----|:----|:----
**CPU** | [Intel Core i5-9600K 3.7 GHz 6-Core Processor](https://pcpartpicker.com/product/28qhP6/intel-core-i5-9600k-37ghz-6-core-processor-bx80684i59600k) | $237.99 @ SuperBiiz 
**CPU Cooler** | [Cooler Master Hyper 212 Black Edition 42 CFM CPU Cooler](https://pcpartpicker.com/product/HyTPxr/cooler-master-hyper-212-black-edition-420-cfm-cpu-cooler-rr-212s-20pk-r1) | $33.99 @ B&H 
**Motherboard** | [Gigabyte Z390 UD ATX LGA1151 Motherboard](https://pcpartpicker.com/product/cHZFf7/gigabyte-z390-ud-atx-lga1151-motherboard-z390-ud) | $109.99 @ Amazon 
**Memory** | [Team Vulcan 16 GB (2 x 8 GB) DDR4-3000 Memory](https://pcpartpicker.com/product/DHPzK8/team-vulcan-16gb-2-x-8gb-ddr4-3000-memory-tlgd416g3000hc16cdc01) | $67.99 @ Newegg 
**Storage** | [Western Digital Caviar Blue 1 TB 3.5"" 7200RPM Internal Hard Drive](https://pcpartpicker.com/product/MwW9TW/western-digital-internal-hard-drive-wd10ezex) | $43.99 @ OutletPC 
**Video Card** | [Gigabyte GeForce GTX 1660 Ti 6 GB OC Video Card](https://pcpartpicker.com/product/YrZFf7/gigabyte-geforce-gtx-1660-ti-6-gb-oc-video-card-gv-n166toc-6gd) | $269.99 @ Newegg 
**Case** | [Phanteks P300 ATX Mid Tower Case](https://pcpartpicker.com/product/FCs8TW/phanteks-eclipse-p300-tempered-glass-atx-mid-tower-case-ph-ec300ptgbk) | $59.99 @ Amazon 
**Power Supply** | [EVGA SuperNOVA G3 550 W 80+ Gold Certified Fully Modular ATX Power Supply](https://pcpartpicker.com/product/sMM323/evga-supernova-g3-550w-80-gold-certified-fully-modular-atx-power-supply-220-g3-0550) | $89.99 @ Monoprice 
 | *Prices include shipping, taxes, rebates, and discounts* |
 | **Total** | **$913.92**
 | Generated by [PCPartPicker](https://pcpartpicker.com) 2019-07-31 17:15 EDT-0400 |",Natema17,16mstj,evmgofg,"My budgets about 900 dollars. I want to play games like Skyrim, GTA V, VR games, and Minecraft mod packs. I would like to play them in 1080 60FPS and fairly high quality.",evm9hcr,paintcan724,48pciz31
"No, a i9-9900k and a RTX 2080 Ti pair together well, with the only stronger parts in their respective series being the i9-9980XE and the RTX TITAN. Honestly, I’d say what you’ve already bought is overkill, but if you’re adamant in not wanting to upgrade for a considerable amount of time, the 2080 Ti pairs better with the 9900k which means you’ll get better performance and a longer lifespan... I’m assuming you don’t really have a budget because you haven’t mentioned one, but a 2080 Ti is worth about twice as much as the 2070 Super, so choose wisely.",Natema17,16mstj,evmfam4,"   Just to clarify, I'm not super tech savvy. I just want to sit down and play. I'm not doing any crazy overclocking, that was in part why I chose that motherboard. 
   I don't edit videos and when I do/did stream, it was Old School Runescape so my needs there are pretty light. 
    All in all, you don't think the 2080ti would be a terrible decision?
   Sorry about all the questions, I'm just new to all this and just want to get the right thing. I appreciate your help.",evmea2f,PoeBoyJoe,49xeiycr
"That mobo is fine, but it’s a little on the budget side. Also, if you stream and/or edit videos I’d upgrade to 32GB of RAM. Other than that you should be fine. Also, it may just be personal preference, but I try to get the same brand GPU as the Motherboard.",Natema17,16mstj,evmduyw,"Current build is:
I9-9900k
2070 Super, may get 2080 ti
Asus z390- plus gaming TUF?
16GB 3000mhz g.skill trident z Ram
240mm aio liquid cooler
3tb mass storage drive
500gb WD blue ssd boot drive
1tb Intel 660P m.2 for games",evmcr33,PoeBoyJoe,49xeiycr
"For a smoother experience and to future proof. I wouldn’t upgrade for like, four or five years after getting those. Just make sure you get a good motherboard, GPU cooler, and RAM so when your components do inevitably get old, you’ll be able to overclock and be able to put off upgrading.",Natema17,16mstj,evmc927,"So to go with my i9-9900k the 2080 ti would be a better choice and to have a smoother experience?
   Main thing I'm looking for is future proofing.",evm9wdp,PoeBoyJoe,49xeiycr
"I wouldn’t worry about the card itself, it’s designed to handle games in 4K. As for your case, I’d get one that has more fans, but if you’re set on that particular one you can always order the fans on the side and install them yourself.",Natema17,16mstj,evl2c4e,Do you think I’ll need to add any cooling options to that card? Or will the fans be enough?,evki69n,voltron71,zjdns
"Whichever you can get the best deal on, they’re basically all the same. But if you’re most comfortable with MSI, get that one.",Natema17,16mstj,evkgrh1,Any particular one you recommend?,evkghdk,voltron71,zjdns
"Never use a dual core if you intend to play games. I understand you want to upgrade your ram in the future, but try to start off with at least 8GB of, say, 2666 MHz DDR4. Make sure all of your ram is the same type/brand. I’d recommend at least an i5 processor, but I’m not sure about the graphics card.",Natema17,16mstj,evkda9x,"As much gaming as a budget gaming PC can be. To play Magic Arena and World of Warcraft mostly, but aiming for the stars for PUBG or etc. I tried to future proof this thing as much as possible/budget allows",evi6uko,DarkJester89,vkakd
Rule of thumb for most of their products.,Natema17,16mstj,evh36ox,"Noctua

E: it’s ugly, it’s quiet, it’s a beast.",evh2r59,asunderco,74h2c
All posts on this subreddit are automatically marked as NSFW.,Natema17,16mstj,esg45sc,How is that in anyway not suitable for work?,es8lneo,Sportsinghard,144r37
...Kinda want to see that. Insta?,Natema17,16mstj,ertzvc1,"used to follow her on ig, she gained a lot of weight and shaved her head.",eqs6c7k,Interesting_iidea,11b3dn
Not that. Your English/Grammar is not very good.,Natema17,16mstj,eoyp1su,It's everything i remember XD,eoykr3q,JasperReikevik,15b9i096
"I hope we at least get the jacket in game. I can live without the Hercule outfit, but at least most players would get this item for Shallot, although over time the item would get rarer.",Natema17,16mstj,eoh8wm4,"From what I understood when they first revealed the prizes, this was for everyone who participated, even in the PvP event. I thought the actual tournaments participants were getting real jackets.",eoh6tja,-Pretium-,sf6ou1i
Texas Pete all the way.,Natema17,16mstj,elvx7ff,Crystal is better though.,elveg4j,Hwoods723,ssezl
The reason he looks like that is because of his injuries that he showed Deku in Episode 1. He sustained major injuries to some of his organs in a previous battle with All For One. This is also why he sometimes coughs/spits/shoots blood from his mouth.,Natema17,16mstj,ekdkcse,"According to anime laws he already should be super skinny and have dead eyes because I also happen to like this version a lot more, I think it's ironic that without the quirk he would look completely different.",ekde0cb,il_the_dinosaur,8utcdhh
Muffin button,Natema17,16mstj,ekb5qy7,Cake button,ekaoyxf,Brenski123,16otvo08
It’s their life. They can do what they want.,Natema17,16mstj,ej15f5m,Your 2 weeks worth of time that you could spend doing ANYTHING costs 11.99 to you? All the memories you could make? All the old friends you could’ve connected with? All for 11.99 lmao,ej139ha,Saved_By_Yogg,y94wh
"Yeah, power-scaling doesn’t really work in KH.",Natema17,16mstj,eiv91z8,"Where are you getting that Roxas is the strongest...? He lost to Sora, that already makes him not the *strongest*.
  
I wanna see more in-fighting between the Keyblade wielders, come to think of it. I want to see who's the strongest. All we have so far is:

* Sora beat Roxas

* Sora beat Axel

* Roxas beat Riku (before Riku ""cheated"")

* Roxas beat Axel

* Roxas beat Xion

* Ventus beat Vanitas (might count this as a draw, since Ventus got rekt as a result)

* Vanitas beat Sora

* Ergo Ventus should beat Sora
  
So I'm guessing the rankings would be like...

Plot-empowered Sora >>>>> Riku / Aqua > Terra / Ventus > regular Sora > Roxas >>>>> Axel > Kairi
  
Edit to add a disclaimer: I fully recognize that trying to rate character's strengths in a highly-plot-based game is a pretty futile endeavor. This is mostly a ""joke"", because obviously any given character would beat any other if the plot demanded it. That said I still would like to see who *is* stronger... but I doubt we'll get any sort of concrete facts on that any time soon. The ones I've listed here are all incredibly dubious to begin with.",eiupvtt,Sarusta,7zktl
Race is irrelevant.,Natema17,16mstj,efywqop,"In most white American families, anon's description of conflict would be feasible.",efywoqu,_Silly_Wizard_,bbrvv
"It’s gonna be okay, bud. There’s always hope.",Natema17,16mstj,efyv619,I’m gonna kill my self ,efy6g87,obomagone,28mj8stm
"If you mean that most people have dysfunctional families, then sure.",Natema17,16mstj,efyu5kt,Most people have awful families.,efynrrr,_Silly_Wizard_,bbrvv
"Probably the last one, at least with Sakurai at the helm. He’s wanted to move on to new projects for a while.",Natema17,16mstj,eb9iij2,Kachow,eb99nrs,Bwgmon,cc4lw
Bus driver sung that to us when my family visited Jamaica. Funny song,Natema17,16mstj,e7vbdge,"Woe, is me. Shame and scandal in the family

In Trinidad there was a family, with much confusion as you will see.

There was a momma and a poppa and a boy who was grown, who wanted a wife of his own.

He found a young girl, who suited him nice. He went to his father to ask his advice.

I'm sorry son, I must say no! That girl is your sister but your momma don't know

Woooee is me, shame and scandal in the family",e7v8szl,Shrimpbeedoo,scwiz
"I was falsely accused, it almost destroyed my life. Was vilified by the whole town and the liar’s parents were preparing to take legal action against me before she finally admitted she lied. Despite my name being “cleared”, everyone in the town still hated me and me and my family were forced to move... never got an apology either.",Natema17,16mstj,e7b852r,">As a result, T.F. was fired from his job at the pool and  “...forced to endure multiple court appearances, detention in a juvenile facility, detention at home, loss of his liberty, and other damages **until several of the girls reluctantly admitted that their accusations were false**.”

FYI this sort of shit not only destroys the lives of the accused, but also makes it far more difficult for actual victims to seek assistance. The more fake claims made, the more scrutiny is applied to real claims. ",e7a4yva,bitfriend2,k2qjx1j
