child_body,child_screen_name,child_user_id,child_tweet_id,parent_body,parent_tweet_id,parent_screen_name,parent_user_id
That would require a society that would shame her for saying things like this. We have the opposite.,OnlyGoodRedditorHere,1izl6zql,fkbdku7,"She's obviously extremely immature. Hopefully, she'll mature, grow up, be ashamed of what she said, realize she was wrong and change her attitude.",fkagbov,loveiswhatmatters,138776
">im banned from chapo for my views, but im a chapo! im banned from politics for my views, but i'm a leftist! i just can't help but mindlessly follow the media. it's not possible that i could have formed my own opinions through international culture exposure. it must have been from watching too much ninja turtles as a child.

Oh being banned from chapo means you are no longer a leftist? Give me a break lol, looking through your profile its abundantly clear you hold the exact same views as pretty much all of them 

>Like, it's literally just not true. lmfao

I'd love to hear some examples then of beliefs you have that are not accepted in society 

>hahahaha i can't get over this. im dead. you voted for trump didn't you lmao

Can't get over it because you know I'm right ;)",OnlyGoodRedditorHere,1izl6zql,fk2b599,"projection is a hell of a drug lmao

im banned from chapo for my views, but im a chapo! im banned from politics for my views, but i'm a leftist!  i just can't help but mindlessly follow the media.  it's not possible that i could have formed my own opinions through international culture exposure.  it must have been from watching too much ninja turtles as a child.

why would i care about your opinion of me, though? lmao  like, obviously we both think the other is a joke.  that's why it is funny in the first place.  

>Every single one of your social beliefs is in line with what is allowed and desired by corporations and the media.

Like, it's literally just not true. lmfao

>My views that two men cannot ""love"" eachother and that homosexuality is a mental illness. Marriage should primarily be about creating families and two people of the same sex cannot do that

hahahaha i can't get over this. im dead.  you voted for trump didn't you lmao",fk2as38,sensuallyprimitive,i30uw
">lmfao ok then where do they come from

My views that two men cannot ""love"" eachother and that homosexuality is a mental illness. Marriage should primarily be about creating families and two people of the same sex cannot do that 

>corporations definitely do not have my view on it, because they want to censor and language police

Yeah they want to censor and language police people with right wing views. Why do you think right wing meme subreddits are constantly getting banned on reddit? Chapotraphouse breaks the rules multiple times and they just have a slap on the wrist with a quarantine lmao 

>some people, unlike yourself, have independent views based on empirical reality and don't regurgitate whatever their dad told them was right.

Lol, what is it with leftists and thinking having views different from your parents means you came to your beliefs via independent thought 

Independent thought is not solely views separate from your Dad lol

>you can't even explain your own claims. my views are not in line with corporations just because i think any 2 people should be able to form a union regardless of chromosomes. there's simply no good argument against it. science wins, for me. not traditionalist fantasy narratives.

Every single one of your social beliefs is in line with what is allowed and desired by corporations and the media. You came to your conclusions probably by watching media produced by hollywood and major media conglomerates like Netflix and Amazon. 

Essentially you're a joke",OnlyGoodRedditorHere,1izl6zql,fk2a8mp,">My views of marriage dont come from the bible and yes I do believe marriage is between a man and a woman.

lmfao ok then where do they come from.  corporations definitely do not have my view on it, because they want to censor and language police, but ok keep pretending i'm following something that i don't have contact with. 

im also banned from chapo, and posting there before doesn't infer that im somehow part of them or in full agreement.  some people, unlike yourself, have independent views based on empirical reality and don't regurgitate whatever their dad told them was right.  

you can't even explain your own claims.  my views are not in line with corporations just because i think any 2 people should be able to form a union regardless of chromosomes.  there's simply no good argument against it.  science wins, for me.  not traditionalist fantasy narratives.",fk271ng,sensuallyprimitive,i30uw
">lmfao, but you like chocolate icecream, therefore you share the same beliefs as any corporate/media outlet.

Who gives a shit about ice cream flavor. No ice cream flavor is controversial to have but having a controversial issue on lgbt issues or race will get you fired, doxxed, cast out of civil society. 

>half this sub says im chapo/neet, the other says im mainstream. lmao y'all are full blown retards lacking the capacity for critical thought :(

Chapos are mainstream in just about all the views they have. They are radical liberals larping as leftists 

>You care about degeneracy and homosexuality and marriage and limiting social freedom but you don't believe the Bible? If not, what is your empirical standard for what marriage should look like?

My views of marriage dont come from the bible and yes I do believe marriage is between a man and a woman. 

>People call me a transphobe on reddit a lot, because I have no problem speaking bluntly about it all. However, I am not shaking in my boots about their destruction of society like your dumb ass is. You are an actual transphobe. lmfao. You're scared that they're gonna break down the retarded rules of judeochristian values. I sure hope you're right. But seriously, you may as well just start blaming the jews while you're at it.

There is no such thing as ""Judeo-Christian"" values. That was a recently created phrase to try and get American Christians to emphasize with Zionist Jews. 

But again you'll be happy to know that the capitalists and corporations you pretend to hate 100% have the same view on you as this. They wish to tear down old traditional values in American society",OnlyGoodRedditorHere,1izl6zql,fk26fpi,"lmfao, but you like chocolate icecream, therefore you share the same beliefs as any corporate/media outlet.  

half this sub says im chapo/neet, the other says im mainstream. lmao y'all are full blown retards lacking the capacity for critical thought :(  

You care about degeneracy and homosexuality and marriage and limiting social freedom but you don't believe the Bible?  If not, what is your empirical standard for what marriage should look like?

People call me a transphobe on reddit a lot, because I have no problem speaking bluntly about it all.  However, I am not shaking in my boots about their destruction of society like your dumb ass is.  You are an actual transphobe. lmfao.  You're scared that they're gonna break down the retarded rules of judeochristian values.  I sure hope you're right.  But seriously, you may as well just start blaming the jews while you're at it.",fk25lyc,sensuallyprimitive,i30uw
"Ahh so exactly the same beliefs as any corporation/media outlet 

I don't believe in the first two stories personally and slavery was the worst thing America ever done because it brought blacks to America",OnlyGoodRedditorHere,1izl6zql,fk24nvv,"Marriage is retarded in 2020 no matter what is in your pants and people should be able to do whatever they want, but not dictate what people say about it.  Now go cry about it, traditionalist.  

Now tell me your stance on Noah's ark, Adam and Eve, and slavery.

Partially agreeing with some people on certain braindead issues is not equivalent following mainstream media. lmao

The mainstream media also thinks chocolate icecream is good. Why the fuck do you like chocolate ice cream unless you're just another NPC??? lmao retards",fk24hdi,sensuallyprimitive,i30uw
Stance on gay marriage and lgbt issues then?,OnlyGoodRedditorHere,1izl6zql,fk24anh,Lmao I don't at all. Not even close.,fk14x05,sensuallyprimitive,i30uw
What's it like having the exact same political beliefs as all major media outlets and corporations in America yet still pretending you're the dissident?,OnlyGoodRedditorHere,1izl6zql,fk09i46,how did all the nazis end up in this sub. what sub got banned?,fjzxnjk,sensuallyprimitive,i30uw
"Even 20 years ago people would have been appalled at this exchange lol

My god how much things have changed",OnlyGoodRedditorHere,1izl6zql,fjt20ln,this increasing normalization of pornography and humanization of pornographers is making me want to glow,fjrxmy2,New_Scotman,df2lp3v
Use to laugh at that but seeing the state of coomers I think they have the right idea. At least make it be like the Israel situation where you have to prove to your internet provider you are 18 and desire to watch porn,OnlyGoodRedditorHere,1izl6zql,fjoqpy8,Didn't the UK try and block porn or something?,fjo5wdi,montani,6kyb5
Reddit cant have that,OnlyGoodRedditorHere,1izl6zql,fjnrd7b,"Fuck, I miss coomer already. It was full of content like this that opened some light on the darkness of porn and porn addiction.",fjnne19,Esoteric_Retina,15o5wc
Not really. Women have just been sold into thinking they need to spend 100's of dollars a year in order to look beautiful,OnlyGoodRedditorHere,1izl6zql,fjld66e,"90% of guys like women with make up on, they just don't know they have it on. It's called the ""no makeup"" make up look.

Edit: [Funny example. ](https://imgur.com/A0WyuJ3) credit to r/Lockenheada

And to all the people who are telling me they can tell when women wear makeup, you probably can, when there is alot there. However, I doubt you could tell if a women filled in her bows alittle or used a tinted moisturize or added alittle mascara or used a lip tint or filled in her hairline alittle or any number of other subtle tricks. Using makeup does not just mean distinct lipstick, lined eyes and rosey cheeks.",fjl7lz1,PugRexia,4inwmmsi
"Why does it not work, how is sexuality something that is unchangeable? If sexuality is unchangeable then why are there places that try and give similar therapy to pedophiles?

Edit: therapy",OnlyGoodRedditorHere,1izl6zql,fjhd7mw,"It is not possible to change a person's sexuality.
Read up about the Elan school or read the comic about it in this thread, you'll see these are camps that try to force a person to change something unchangeable by using psychological trauma to change their behavior.
Making children mentally ill in order to ""heal"" them? Nonsense.",fjgf30m,throwaway_qwertzui,15gh11
How does it not work,OnlyGoodRedditorHere,1izl6zql,fjg9zan,"Do you think this is about feelings? It does not work, it's torture, period.",fjg9gzb,throwaway_qwertzui,15gh11
Do you feel the same for therapy for pedophiles?,OnlyGoodRedditorHere,1izl6zql,fjg77jp,"Then conversion therapy will do absolutely nothing to help, just like every time.",fjg72eo,FartingBob,4ammc
What if said person doesn't want to be a homosexual,OnlyGoodRedditorHere,1izl6zql,fjfyiaa,"Conversion therapy... that is awful. Welcome to the 21st century, Virgina, where people can be themselves.",fjer0av,Desner_,cxoqz9j
Is the cat smart enough to notice that though and know to avoid the rat?,OnlyGoodRedditorHere,1izl6zql,fjene99,"The rat possibly has toxoplasmosis. It’s a parasite that makes rats unafraid of cats and actually sexually attracted to them. The goal of the parasite is to be eaten by the cat so it can reproduce in its gut and make baby parasites to infect more rats. It’s damn terrifying.

Edit: Thanks for the silver!",fjecv4t,tacklebox18,2wl4lrd6
When did I ever say it was making a loss? I simply said American consumers will consume anything companies like Netflix and Marvel promote.,OnlyGoodRedditorHere,1izl6zql,fjen8vc,"Why do *you* think so?

Edit: Also where's your evidence that it's making a loss?",fjej40p,wonkey_monkey,whgrg
"Enough supporters and fans to warrant continuing on the series like big mouth past the 1st season? Not really, more popular shows have been cancelled yet they keep making this one, why do you think so?",OnlyGoodRedditorHere,1izl6zql,fjeihc3,Why can't you just accept that people actually really do like these things that you don't like? It's your prerogative to think they're idiots for doing so but it doesn't mean they're wrong about their own opinions.,fjehkk4,wonkey_monkey,whgrg
"The American consumer will consume any media marvel/netflix shits out whether it's good or bad. These major media conglomerates know this and push out low quality work or shoe horn in some agenda they desire to push

Edit: will",OnlyGoodRedditorHere,1izl6zql,fje7uh5,"No, consumers ultimately do decide because if the consumers don't watch, the show doesn't make money and gets cancelled.",fje3vt7,FatalTragedy,dy8a3
Giving him credit for cancelling MDE is a bit much,OnlyGoodRedditorHere,1izl6zql,fje1gkt,"He cancelled MDE and he doesn't think women can be comedy writers/funny.

He's a bit of a piece of shit.",fjdooyd,KidneyKeystones,11xhtq
They keep making Big Mouth and alot of bad shows. Consumers do not decide what media will be made and sold,OnlyGoodRedditorHere,1izl6zql,fje1ear,"Weird that they keep making more of it, then.",fjdsb6g,wonkey_monkey,whgrg
Ask an African-American what color the Egyptians were,OnlyGoodRedditorHere,1izl6zql,fjdp5go,Most people of African countries north of the Sahara are light skinned.,fjcm7wd,ttclub3333,135svwwd
Black people don't count Whites living in Africa as true Africans,OnlyGoodRedditorHere,1izl6zql,fjbldfq,Is she aware that there are white Africans?,fjammum,oldmanhiggons,164oxi
"Seems like a cop out to try and excuse the negative aspects of black culture by just blaming it on white people 

Black guy robbed someone? Systemic racism is at fault",OnlyGoodRedditorHere,1izl6zql,fj1ga9y,"Like, do you even understand the concept of systemic racism? You're looking at the effects and thinking they're causes.",fj03gt1,alexyeahdude,3iq6t
Pretty easy to when you look at FBI crime statistics and census data,OnlyGoodRedditorHere,1izl6zql,fizycbd,imagine thinking that systemic racism against black people doesn't exist and that white genocide is real lmao,fizy9qb,donkid33,ezuea
Typically it's the security guards job to break up fights and they won't do it just by standing by and asking nicely,OnlyGoodRedditorHere,1izl6zql,fizxukm,Security guard charges and attacks black kid and gets his ass handed to him. I bet you anything that black kid gets charged for assault even tho he was the one being attacked.,fizstf7,TrippinPac,5o9rt4d4
"> instead of blaming their economic background which puts them in situations like this. 

God I can't believe I believed shit like this at one time",OnlyGoodRedditorHere,1izl6zql,fizxrgz,Yes and most of them don’t say all this irl. This is always the case with an out of control high school. They always blame the color of their skin for them being how they are instead of blaming their economic background which puts them in situations like this. They think violence is caused by minorities or by these savage high schoolers when in reality poverty causes these issues. Any place that’s poor will most likely have violence and crime.,fizlm7u,Jose19402,2plo10el
"Worked in the person you're replying to example though 

tbh women should not be security guards though",OnlyGoodRedditorHere,1izl6zql,fizxlaw,"Lmao. Highschoolers acting tough is one of the funniest shit to see on this planet. They look ridiculous when they do it, which is all the time.",fiztf40,Cinefil_Original,2m9zimt1
So essentially she was one of many human calculators NASA had,OnlyGoodRedditorHere,1izl6zql,fivma0n,"She was responsible for the math, but before conpurers were around, so all of the magic like when to start engine when to stop when to turn she calculated herself, in the meantime they tried to switch her for a computer but she proved that the computer made mistakes and most likely saved the lives of astronauts.

Or something more or less like this, I'm not an expert",fivi4kr,ninoski404,13xd6f
">Bro she was pivotal in the moon landing and getting the first orbital flights to work as intended

How",OnlyGoodRedditorHere,1izl6zql,fivahqm,"Wait she died??? Bro she was pivotal in the moon landing and getting the first orbital flights to work as intended. She is, in my opinion, one of the most famous people in NASA.

Rest easy, Katherine. You were a true legend.",fiv2xyb,AJB_10383,42e085g5
Flairs are gay and a waste of time,OnlyGoodRedditorHere,1izl6zql,fiva1k1,"Flair up, bad redditor",fiv6ak4,dubiousandbi,33itxa29
Unironically yes,OnlyGoodRedditorHere,1izl6zql,fiur95l,"I agree, universal healthcare and free education only for white folk",fitg5o0,SKM1234025,9utlkhh
The most important thing for a workers revolution is making sure men can shove penises up their ass and eventually fuck kids,OnlyGoodRedditorHere,1izl6zql,fiur4j0,Auth left pretending they like gays but putting them in camps every time they come to power,fity7l3,Sottisier,49vm9czy
Misspelled antisemitic,OnlyGoodRedditorHere,1izl6zql,fiiqosm,Criticising the ruling class is the real racism,figx7zf,Dr_Identity,977t7
"Illegal immigration is a net negative on the economy, someone not paying taxes and putting only a little bit into social security is not helping the overall nation. 

But the most interesting article you posted in my opinion is this: https://www.cbsnews.com/news/illegal-immigrants-us-jobs-economy-farm-workers-taxes/

The title alone infuriates me lmao ""Can't work without illegal immigration"" 

If your industry can't be supported when you have to pay workers a proper wage then it shouldn't exist to begin with, why are you arguing for people to be working literal slave wages?",OnlyGoodRedditorHere,1izl6zql,ficiwx0,"https://www.marketplace.org/2019/01/28/undocumented-immigrants-quietly-pay-billions-social-security-and-receive-no/

https://publicintegrity.org/inequality-poverty-opportunity/immigration/how-trump-and-sessions-cherry-picked-data-to-blame-immigrants-for-lower-wages/

https://www.businessinsider.com/trumps-depiction-of-illegal-immigrants-contradicted-by-statistics-2018-11

https://blogs.scientificamerican.com/anthropology-in-practice/what-are-the-jobs-that-immigrants-do/

https://www.nytimes.com/2018/12/11/us/undocumented-immigrant-workers.html?0p19G=3248

https://www.cbsnews.com/news/illegal-immigrants-us-jobs-economy-farm-workers-taxes/

https://www.rasmussenreports.com/public_content/politics/current_events/immigration/january_2018/are_illegal_immigrants_taking_american_jobs

https://www.jstor.org/stable/27503312

https://www.google.com/url?sa=t&source=web&rct=j&url=https://m.afscme.org/issues/immigration/resources/document/ToughQuestionsonImmigration-OneAmerica.pdf&ved=2ahUKEwiS5ty1sOTnAhVBbKwKHbokAjI4FBAWMAB6BAgEEAE&usg=AOvVaw30ozjYvMdf2rmu8Z71QAG5

https://www.sfchronicle.com/opinion/article/Why-we-think-immigrants-steal-jobs-increase-crime-13071416.php

I assume this is a game with few who has the most links to different resources actually wins?

Define illegal...
because I'm pretty sure the people who come and spend their entire life savings paying for medical treatment only for us to keep them out halfway through by lions then doesn't qualify as a scab.
and I'm pretty sure the college kid who cited his college from an approved list of colleges only to find out that one college was placed there to attract people and to deported fraudulently isn't really a scab.

I can' go on...
But it's always the same b******* arguments and when pressed only talks about how someone should gets a skill and become a actual labor or something and then we turn around and we talked about how this s*** job the persons working anyways is going to be stolen by some Foreigner.
(I actually totally agree on the living wage for Farmers though but fuck are american farms an issue for different day)

https://www.npr.org/2019/01/10/683662691/where-does-illegal-immigration-mostly-occur-heres-what-the-data-tell-us
we do stuff like focus on the border and stop the refugees but that's not where most of our illegal immigrants come from.
Stuff like allowed over a million backlogs of refugees to review them. And then when we finally see them their country has returned to some small sense of stability and we told him to get out. 
only to find out if I'm currently after 20 years of sitting in our country and putting down roots and having kids that they're going to refuse (I'm not shocked I would do the same thing)

we have a surprising huge number the jobs they get included with the immigration statistics that are actually not in migrant workers they don't count as immigrants or illegals or legals they're just workers that cross the border to work... Nothing's going to change those people but we like the lump in when we were doing stats.

what's the time nobody even knows what group of people were talking about whenever we say illegals or overstays or...
And the ultimate question comes who are we working to prevent because none of the policies we've implemented actually stop the ones were working to prevent. we're hurting people in creating isolationism in the name of the things you want to support which are valid things but we're not doing that.

a line was drawn in the sand everybody took sides and no one bothered to notice the lines not even in the right place",ficif7a,Cultusfit,pjscqta
"> Illegals typically don't compete for the same jobs. (we actually originally basically begged Mexicans to come here to save our farms because we had nobody that would work on them)

Sounds like the farms should had offered higher wages to the workers rather than rely on Mexicans working for slave wages 

>They can't take positions that require a dominance in the native language.

Thank God the CEO is safe! 

>They actually tend to drive natives into higher-paying jobs.

Yeah the out of work American construction worker will immediately be hired as the superintendent once illegals take his job. The reason companies hire illegals is so they can pay native workers even more! 

>Ho studies are great it's amazing what you learn if you actually read instead of just believing things are fed.

And yet you gave none, which would be easy to find some bogus study on google since corporations are the biggest supporters of immigration

>like how much money even legals make us by paying taxes compared to what they take out in social services? But even the White House is ignored that 55 page draft insisting that they were provided something else which turned into a three-page draft that only talked about the cost without including anything that we benefit from. Confirmation bias

Illegals do not put more into the system lol

https://www.thecentersquare.com/national/report-illegal-immigration-costs-taxpayers-billion-annually-californians-texans-floridians/article_f942e522-c5b0-11e9-93e6-0ff213e44ae5.html

Remember kids all illegals are scabs to the workers",OnlyGoodRedditorHere,1izl6zql,fichah1,"Illegals typically don't compete for the same jobs.
(we actually originally basically begged Mexicans to come here to save our farms because we had nobody that would work on them)

They can't take positions that require a dominance in the native language.

but then they also create a middle management position for someone who happens to speak both languages.

They actually tend to drive natives into higher-paying jobs.

Ho studies are great it's amazing what you learn if you actually read instead of just believing things are fed.

like how much money even legals make us by paying taxes compared to what they take out in social services? But even the White House is ignored that 55 page draft insisting that they were provided something else which turned into a three-page draft that only talked about the cost without including anything that we benefit from.
Confirmation bias",fic110y,Cultusfit,pjscqta
Yep illegals work for the same wages as the native working class and supply and demand don't exist lol,OnlyGoodRedditorHere,1izl6zql,fic0iu8,Even though the studies don't show that.,fic00hl,Cultusfit,pjscqta
"I don't hate people for coming here, it's reasonable to want to improve your conditions 

But at 330 million we have enough people. Adding more will hurt the environment even more",OnlyGoodRedditorHere,1izl6zql,fibltmt,Most people don't hate immigrants. They just hate illegal immigrants.,fiaurah,fleebojenkins,51vscek8
Unhealthy lifestyle/mindset,OnlyGoodRedditorHere,1izl6zql,fi67epn,"Doesn't work for everyone. I used to exercise regularly, and if I happened to be depressed, then after my workout I was just sweaty, sore, and depressed.",fi59ego,mr_plopsy,2e5tor2w
How did it not work out? Worked perfectly as designed,OnlyGoodRedditorHere,1izl6zql,fi5bctv,Bring back segregation! It worked so well back then.,fi51z9v,AnswersWithSarcasm,eakfx
"Joys of multiculturalism, putting people who hate eachother next together",OnlyGoodRedditorHere,1izl6zql,fi4vxa2,"Thank you. It's scary seeing this much hate, my hometown mosque was recently vandalised and it's uncomfortable to think that it will happen again if this ignorant hate isn't checked.",ezxcuoy,sulaymanf,4eu7s
Le epic reddit joke,OnlyGoodRedditorHere,1izl6zql,fhy6yn8,Username doesn’t check out,fhxfa8j,epicfunnyusername,4tybu4co
Kind of lol,OnlyGoodRedditorHere,1izl6zql,fhwo632,"Haha yeah.

It's even funnier if a husband beats his wife lmao",fhwm757,pickledchocolate,rvqzf
"Kind of, imagine getting your ass kicked by your wife lmao",OnlyGoodRedditorHere,1izl6zql,fhwlt2b,"See, it’s funny because the woman is doing the domestic violence! /s",fhwagi5,cerisereprise,3jwhaix0
Yes,OnlyGoodRedditorHere,1izl6zql,fhwlcw3,Rosalind Franklin: Am I a joke to you?,fhwgwpu,CuTup4040,1gga6tvs
No one is saying skin color but there are many who make the argument that different peoples evolved differently and thus have different cognitive abilities,OnlyGoodRedditorHere,1izl6zql,fhwlae4,"> He basically said black people have less IQ, which is based on several studies.

There's also several studies pointing out that we aren't at a point where we're able to differentiate between heritable and environmental factors, but you conveniently chose to ignore those in order to make your point.

It is *not* scientific consensus that IQ is heritable or that there is a relation between skin color and IQ.",fhwiv7o,snorting_dandelions,d5wsd
"Native American (indigenous) no of course they are not
 
But America was founded as a white country and these guys are white people in America so yes they're American",OnlyGoodRedditorHere,1izl6zql,fhudm74,"Because they're descended from unambiguously non American people.

By your logic, someone is only American if they're genetically so.",fhrvfsd,paenusbreth,jbwbc
Why would they not be American?,OnlyGoodRedditorHere,1izl6zql,fhr0u87,So you don't think Donald Trump is American? Or Steve Jobs?,fhqnd9g,paenusbreth,jbwbc
"> Linked, sure, but it's not literally everything. Like how some people describe themselves as Japanese-Americans or African-Americans. But you wouldn't call someone in America Nigerian just because that's where their ancestors came from 300 years ago (which is long before Nigeria even existed). Or would you?

African-American is unironically a great example. They have been here for 300 years but we don't call them Americans alone because for the majority of U.S history what was seen as an American was a native born white person. So even though Black people have been here for so long they are still their own separate unique people different from Whites  

>Again, I'm not saying they're genetically Swedish (whatever that means, given how much humans tend to mix across national borders). I'm saying that you would conversationally describe them as a Swedish person.

I would not, I would describe them as a Kenyan living in Sweden 

>Personally, my ethnicity is a mix of German, Anglo-Saxon and Celtic, but I would only ever describe myself as English or British

Yeah that's essentially what an English person is, Anglo-Saxon mixed with the native celtic people to make English people. 

>To get even more specific, my family is from the North of England, but I wouldn't perceive myself as Northern at all, as I have a very strong Southern accent (and everyone else in this country would agree). Are you saying that I'm actually a northerner?

If you're an English person who's family is from the North and you grew up in the south and identify with South England more then sure you can define yourself as Southern English or whatever that is 

If you're a Pakistani person who's family is from Pakistan and you live in England you're just Pakistani 

>I completely disagree. A nation is a political organisation

You're thinking of a government. If the English Government was completely destroyed that doesn't mean English people would cease to exist 

>and many ethnic groups may exist within one

Yes it's possible for many ethnic groups to live in one nation, doesn't mean it's a good idea",OnlyGoodRedditorHere,1izl6zql,fhn7wmg,">Ethnicity and nationality is linked in sane societies.

Linked, sure, but it's not literally everything. Like how some people describe themselves as Japanese-Americans or African-Americans. But you wouldn't call someone in America Nigerian just because that's where their ancestors came from 300 years ago (which is long before Nigeria even existed). Or would you?

By that logic, there's no such thing as a white Australian or South African; would you say that's the case?

>Well even in this fantasy scenario that almost never happens that person would still not be a Swede and would be a Kenyan. Being born in Sweden doesn't automatically change your genetics. Americans born in Okinawa do not come out as Japanese

Again, I'm not saying they're genetically Swedish (whatever that means, given how much humans tend to mix across national borders). I'm saying that you would conversationally describe them as a Swedish person. Personally, my ethnicity is a mix of German, Anglo-Saxon and Celtic, but I would only ever describe myself as English or British, because I don't perceive myself as having a link to either Ireland, Scotland or Germany. To get even more specific, my family is from the North of England, but I wouldn't perceive myself as Northern at all, as I have a very strong Southern accent (and everyone else in this country would agree). Are you saying that I'm actually a northerner?

>You say nationality matters more than ethnicity but what do you even think a nation is? It's its people, a nation is not a language or the laws it follows.

I completely disagree. A nation is a political organisation, and many ethnic groups may exist within one. People can identify both with a nationality and an ethnicity; for example, someone could be both nationally Swedish and of Sámi ethnicity. Or someone might describe themselves as both Canadian and Quebecois; or American and Chinese; or South African and Afrikaner.

Basically, I fundamentally disagree with your assertion that Swedish is an ethnicity.",fhmjdou,paenusbreth,jbwbc
"> I wouldn't define people exclusively by their ethnicity though. I'd say a lot of what matters when defining a person's nationality is not only where they've lived and how they speak, but how they identify. A lot of people whose parents (or even grandparents) are immigrants will identify strongly with their home country, and not at all with the country of their ancestors.

Ethnicity and nationality is linked in sane societies. 

>For example: imagine four Kenyan people move to Sweden, two couples. They each have a child and then their children get married, giving us a child of 100% Kenyan ancestry. This child was born in Sweden, grew up in Sweden, has Swedish friends, was educated in Sweden, has been fully immersed in Swedish culture from birth, speaks Swedish as their only language and identifies themself as Swedish. They've never visited Kenya, don't have citizenship there and don't speak a word of any Kenyan language.

Well even in this fantasy scenario that almost never happens that person would still not be a Swede and would be a Kenyan. Being born in Sweden doesn't automatically change your genetics. Americans born in Okinawa do not come out as Japanese 

>To my mind, it would be completely incorrect to refer to that person as anything other than Swedish, and doubly incorrect to refer to them as Kenyan. I'd say ethnicity matters far less than other factors.

You say nationality matters more than ethnicity but what do you even think a nation is? It's its people, a nation is not a language or the laws it follows.",OnlyGoodRedditorHere,1izl6zql,fhmaahy,"I wouldn't define people exclusively by their ethnicity though. I'd say a lot of what matters when defining a person's nationality is not only where they've lived and how they speak, but how they identify. A lot of people whose parents (or even grandparents) are immigrants will identify strongly with their home country, and not at all with the country of their ancestors.

For example: imagine four Kenyan people move to Sweden, two couples. They each have a child and then their children get married, giving us a child of 100% Kenyan ancestry. This child was born in Sweden, grew up in Sweden, has Swedish friends, was educated in Sweden, has been fully immersed in Swedish culture from birth, speaks Swedish as their only language and identifies themself as Swedish. They've never visited Kenya, don't have citizenship there and don't speak a word of any Kenyan language.

To my mind, it would be completely incorrect to refer to that person as anything other than Swedish, and doubly incorrect to refer to them as Kenyan. I'd say ethnicity matters far less than other factors.",fhk5025,paenusbreth,jbwbc
">Well he was born in Sweden

That means nothing in telling the race/ethnicity of someone. 

>and is a Swedish citizen

Again that is just a piece of paper saying he is a citizen of a nation. If I got citizenship in China my race would not automatically change

>does that not make him Swedish?

Again according to your link. He is half swedish",OnlyGoodRedditorHere,1izl6zql,fhih17z,Well he was born in Sweden and is a Swedish citizen; does that not make him Swedish?,fhigeao,paenusbreth,jbwbc
">Olsson was born in Gävle, Sweden,[42] to a Swedish father and Kenyan mother

Half swedish",OnlyGoodRedditorHere,1izl6zql,fhie1gi,"Well, not all Scandinavians are white. [This guy](https://en.wikipedia.org/wiki/Martin_Olsson), for example, is Swedish and has fairly dark skin.",fhicnm5,paenusbreth,jbwbc
Because they are brown and Scandinavians are white,OnlyGoodRedditorHere,1izl6zql,fhibwef,How do you know that the brown people aren't Scandinavian?,fhhbl79,paenusbreth,jbwbc
They're already trying in Taiwan and Japan,OnlyGoodRedditorHere,1izl6zql,fhf5aya,They're coming for you next.,fhdk5l4,VaalOrbThatShit,x6yal
"It was showing a bunch of brown people flying in lol, what scandinavians?",OnlyGoodRedditorHere,1izl6zql,fhev0wo,How the hell are you this thick lmao? The ad literally ends with Scandinavians joyously returning home from abroad.,fhe8adb,kermit_was_wrong,40i6li0c
"Inspiring them to travel abroad with not even having any solid shots on nations outside from Scandinavia? What are you even defending at this point? They shat all over Scandinavian culture by saying it is nothing unique and they are a people who never did anything, might piss off people",OnlyGoodRedditorHere,1izl6zql,fhdrf82,"Holy shit.

The ad about the history of Scandinavians going out and bringing cool shit home, that ends with Scandinavians coming home to welcoming families, is *obviously* aimed to inspire *Scandinavians* to travel to foreign places. 

This is not a “visit Scandinavia” ad, though those also exist.",fhdqchq,kermit_was_wrong,40i6li0c
Another amazing input from reddit nihilists,OnlyGoodRedditorHere,1izl6zql,fhdqoa8,Can you imagine being so fragile that you're offended by this commercial?,fhd5ry7,OrbFromOnline,52azd4wh
"Inspire you to travel to a place that is described by the own airline company as ""nothing special""",OnlyGoodRedditorHere,1izl6zql,fhdqhah,"It's pretty obvious that what they were trying to inspire you to do is to want to travel (on planes) and partake in the long history of bringing cool shit from foreign lands back to Sweden to adopt and make uniquely their own. They hammer you with it pretty hard, if you can get past the opener without getting too bussyblasted.",fhda6sj,kermit_was_wrong,40i6li0c
"They quite literally describes Scandinavia as nothing special, who would spend money to visit someplace described as nothing",OnlyGoodRedditorHere,1izl6zql,fhdq650,"Watches a video promoting travel to foreign countries as a transformative experience and a way to enrich yourself and your home culture with new things and knowledge from faraway lands - ending with an image of blonde swedes returning home in an airport hugging their families and telling them about their adventures.

""What does this have to do with airline tickets? ""

Lmao get there faster.",fhd8i7j,kermit_was_wrong,40i6li0c
You have to make generalizations when talking about groups of people,OnlyGoodRedditorHere,1izl6zql,fhd6pdw,"Lol, this is also a massive generalization.",fhbl5pq,FreemanRuinedSeasons,4rjkk4wn
Ahh youre right. Everyone loves white people,OnlyGoodRedditorHere,1izl6zql,fhbfjka,That’s quite the generalization.,fha7y7s,FreemanRuinedSeasons,4rjkk4wn
"Lol yeah like the average Californian has anything to do with the reason its state has the highest GDP and is not living on the brink of poverty with rapidly increasing real estate, stagnating wages, and 3rd world levels of homelessness. But hey you guys have silicon valley! Must be a totally nicer place for a middle class person to live than a state like Alabama or Tennessee lmao",OnlyGoodRedditorHere,1izl6zql,fhb40wp,"Ahh ok, how convenient for someone to say ""I'm sick of hearing how powerful your people and state are, how powerful and meaningful your contributions are, it triggers the ceap out of me to hesr the truth"".

There, I fixed it.",fha7dya,PorscheBoxsterS,1tao0e2d
I guess you can choose to just stare at a wall all day,OnlyGoodRedditorHere,1izl6zql,fhb2iy6,"LMAO what? You can choose to not watch movies, you can't choose to not buy food.",fha6vsl,Fatherbrain1,ob8xv4m
"There is nothing to ""take an L"" on lmao. Per capita blacks take up more welfare. This is a fact",OnlyGoodRedditorHere,1izl6zql,fha446f,"Take the L racist, just take the L.

This conversation's been over for a while since you just arguing for the sake of arguing and just were blatantly racist.",fha0n3f,iateaps4,3vg2vq2g
">White people still take more per capita dumbass.

No actually the links you posted earlier quite literally proved they did not",OnlyGoodRedditorHere,1izl6zql,fha0jf0,"Yes obviously.

And for each person; in relation to people taken individually 

And also yikes blatant racism.

Fuck off brick for brains. 

White people still take more per capita dumbass.",fh9ztvc,iateaps4,3vg2vq2g
">Doesn't change that whites make up most of welfare though does it

You realize whites make up the majority of the US right? 

>Per capita I'm still correct

I'm convinced now you have no idea what that word means, are you black by any chance?",OnlyGoodRedditorHere,1izl6zql,fh9znrh,Doesn't change that whites make up most of welfare though does it. By this point you're just arguing for the point of arguing. Per capita I'm still correct.,fh9yx0a,iateaps4,3vg2vq2g
In total? Yes because Whites are the majority of the nation. Per capita blacks overwealmingly take up more welfare than whites and hence in places like the South that has the highest portion of blacks in the US we see more welfare going to the south,OnlyGoodRedditorHere,1izl6zql,fh9ysmg,Okay and I already said one of your statistics was correct That doesn't mean overall you were correct You just proved my point that out most welfare goes to poor white people. Just take the L.,fh9vvde,iateaps4,3vg2vq2g
">Typically people avoid the things they hate.

You cannot avoid American Media, it seeps into every aspect of one's life in America. You'd have to go Ted Kaczynski levels to escape.

>And your point is kind of moot - socialists in America have no choice

Neither do Americans in what Hollywood and other major media conglomerates produce",OnlyGoodRedditorHere,1izl6zql,fh9vuf7,"My point was why is it a ""great reason people want California gone"" if they regularly indulge in California's major products. Typically people avoid the things they hate.

And your point is kind of moot - socialists in America have no choice (unless they move to a socialist country), and they're advocating change to a federal system.",fh9v1xp,DearLeader420,is8uh
"> https://www-newsweek-com.cdn.ampproject.org/v/s/www.newsweek.com/donald-trump-welfare-black-white-780252?

""Just over 40 percent of SNAP recipients are white. Another 25.7 percent are black, 10.3 percent are Hispanic, 2.1 percent are Asian and 1.2 percent are Native American"" 

using the data that American Whites are 60% of the nation, if they use 40% of the SNAP benefits then they are UNDERREPRESENTED per capita 

American blacks make up about 13% of the nation and use up 25.7% of SNAP benefits, ergo they are OVER-REPRESENTED in Snap benefits

>https://www.clasp.org/press-room/news-clips/americans-are-mistaken-about-who-gets-welfare

This just says Whites receive the most in total, no one is doubting that since whites make up a majority of the USA. 

>https://checkyourfact.com/2018/10/18/fact-check-whites-medicaid-food-stamps/

Let's go down the list of examples given and compare them to the amount each group takes up in America 

SNAP (already did this) 

Whites - 60% of the nation and only take up 36.2%. UNDERREPRESENTED 

Blacks - 13% of the nation and only take up 25.6%. OVER-REPRESENTED 

Medicaid

Whites - 60% of the nation and only take up 43%. UNDERREPRESENTED 

Blacks - 13% of the nation and only take up 18%. OVER-REPRESENTED 

TANF

Whites - 60% of the nation and only take up 27.6%. UNDERREPRESENTED 

Blacks- 13% of the nation and only take up 29.1%. OVER-REPRESENTED 


Thank you for providing links that quite literally prove my point lol",OnlyGoodRedditorHere,1izl6zql,fh9vn2d,"https://www-newsweek-com.cdn.ampproject.org/v/s/www.newsweek.com/donald-trump-welfare-black-white-780252?amp_js_v=a3&amp_gsa=1&amp=1&usqp=mq331AQCKAE%3D#aoh=15813891339707&referrer=https%3A%2F%2Fwww.google.com&amp_tf=From%20%251%24s&ampshare=https%3A%2F%2Fwww.newsweek.com%2Fdonald-trump-welfare-black-white-780252

 https://www.clasp.org/press-room/news-clips/americans-are-mistaken-about-who-gets-welfare 

https://checkyourfact.com/2018/10/18/fact-check-whites-medicaid-food-stamps/",fh9tk78,iateaps4,3vg2vq2g
"And most socialists in America participate in a capitalist society, your point?",OnlyGoodRedditorHere,1izl6zql,fh9uv7c,"> And that is a great reason people want California gone

Really? Cause I'm pretty sure most conservative folks who hate California, you know, *watch movies and listen to music*",fh9ubr7,DearLeader420,is8uh
So food stamps are the only program blacks overwhelmingly use but not other programs. I'd love to see your proof,OnlyGoodRedditorHere,1izl6zql,fh9tly1,And? Welfare isn't only food stamps.,fh9tbhy,iateaps4,3vg2vq2g
https://www.pewresearch.org/fact-tank/2013/07/12/the-politics-and-demographics-of-food-stamp-recipients/,OnlyGoodRedditorHere,1izl6zql,fh9s9sl,"Yes, still poor whites in the south.",fh9qreq,iateaps4,3vg2vq2g
"Classic Reddit Coomer, sees a picture of sisters and immediately thinks of sex",OnlyGoodRedditorHere,1izl6zql,fh9qqkg,This validates a ton of content on Pornhub,fh9b35x,MDStevo,sy6tc
Most non-whites hate white people. This is not a mystery,OnlyGoodRedditorHere,1izl6zql,fh9qfhs,155K people agree with that?,fh9cbo7,Dennster101,g4rtha2
">as though the state alone doesn't provide over 10% of the entire country's GDP

I'm sick of the success of a nation being determined by GDP. How much corporations make doesn't mean shit for your average Joe 

>various agricultural goods

There's a good reason 

>and serve as the center of most movies/music

And that is a great reason people want California gone",OnlyGoodRedditorHere,1izl6zql,fh9px5u,"It's like when my Southern Republican family/friends gripe about how California should break off and float away or something, as though the state alone doesn't provide over 10% of the entire country's GDP, various agricultural goods, and serve as the center of most movies/music.",fh9b19d,DearLeader420,is8uh
"Whites are a majority of the nation though, you have to look at it with per capita and we see even using a huffingtonpost source: https://www.huffpost.com/entry/food-stamp-demographics_n_6771938

Whites are 60% of the nation and take up 40% of SNAP benefits 

African-Americans are 13% of the nation and take up 25% of SNAP benefits",OnlyGoodRedditorHere,1izl6zql,fh9prek,"Actually white people are the largest recipients of welfare by a huge margin, and that’s even with a big portion of poor whites who are too proud to sign up for it - lest they be judged by people like you - so their kids suffer needlessly.",fh9iw8w,quattroCrazy,itais
Black people,OnlyGoodRedditorHere,1izl6zql,fh9p6ye,Former slaves? Who the fuck is a former slave in today’s US? There are no living “former slaves”,fh9btks,QuinterBoopson,uo5or0u
per captia tho,OnlyGoodRedditorHere,1izl6zql,fh9oy69,"Actually no, most of it goes to poor whites in the deep South. Lol.",fh9cgck,iateaps4,3vg2vq2g
Thank you,OnlyGoodRedditorHere,1izl6zql,fh6cr4a,How brave of you to say that! Your statement is unique and special!,fh68d5m,polo5004,u3b4p
Yes,OnlyGoodRedditorHere,1izl6zql,fh61s1m,>sadly more diverse,fh5ei7g,polo5004,u3b4p
*foundingfatherpilled,OnlyGoodRedditorHere,1izl6zql,fh4e9mw,Cringe and edgepilled,fh46hqw,A_Shady_Zebra,fss2x
Guns won't overthrow any government but seeing as america is sadly becoming more diverse you will probably need guns for protecting your home,OnlyGoodRedditorHere,1izl6zql,fh44h8n,"I used to stand with gun restrictions, but with Trump being in office 2020, I think people need guns....",fh37ey7,JaceVen,14oqug
Based,OnlyGoodRedditorHere,1izl6zql,fh444lc,Go make me a sandwich nigger or i’ll kill you!,fh3tpw5,danielvandam,6b0ol
Correct,OnlyGoodRedditorHere,1izl6zql,fgz3p3a,If you flip the roles everything is okay again....,fgxoi5g,forsenL,16oj64
Science bro,OnlyGoodRedditorHere,1izl6zql,fgua60l,FUCKIN EINSTEIN? LMAO,fgs1v3s,hidanone,8pxqj
Guess I gotta kick my bang habit,OnlyGoodRedditorHere,1izl6zql,fgu9us1,"Reminder as well, just because a food says no sugar doesn't mean it's any better.

Food companies know that if they remove sugar from their products it tastes like cardboard so they pump up a ton of other stuff that is just as unhealthy.",fgr2fk7,Ricecakes-,49145cw1
Don't forget Super Drags,OnlyGoodRedditorHere,1izl6zql,fgu5ron,"im about to dump netflix. every single original they have has 10 homosexual characters in some stunning and brave epic struggle about accepting being gay and coming out, and then after they come out, no one gives a shit, much like in real life (completely unrelated to the premise of the shows, totally useless story arc). good example is October faction, a series about a shadow agency hunting and killing monsters, and for some reason theres like 5 gay characters.",fgsor2r,ERECTION_MASTER8000,3r71rzz5
Yes,OnlyGoodRedditorHere,1izl6zql,fgl5xar,"OK then, a few follow up questions:

First, I am going to assume you live in the US, or some other country where you intend to illegalize pornography at the national level.

1. I'm assuming you would flat-out ban production of pornography. What about current stashes of porn, both public and private? Would those stashes have to be confiscated and/or destroyed?

2. What about consensual couples who create private videos of themselves and never share with anyone else? Would you also ban nude pic exchanges?

3. Would you only ban hardcore (penetration) pornography, or would you also ban soft (solo) pornography as well?

4. Would you hope this ban is international and enforced by all countries? If not, how would you enforce banning foreign porn websites? Would VPNs have to be banned, since people would download VPNs by the droves to watch porn confiscated by their government?",fgl2107,YunataSavior,cwpjd
Make it illegal,OnlyGoodRedditorHere,1izl6zql,fgknybk,"Alright then, how would you suggest ""banning porn"", if it were up to you? In other words, how would you enforce something like this?",fgjcuml,YunataSavior,cwpjd
I'm serious,OnlyGoodRedditorHere,1izl6zql,fghrwg3,Not sure if ironic comment or not,fgh3gme,YunataSavior,cwpjd
Monstrously dumb take,OnlyGoodRedditorHere,1izl6zql,ff4ix03,"Its not twitch, its the US in general. This is what happens when a big part of your country is proud of their ancestors who fought for Confederates and protecting slavery. Because *surely people related to me can't be bad...*",ff4gah6,MorRochben,gs66f
I find it so interesting that so many of these sex workers loathe the ideas of being labeled a prostitute lol,OnlyGoodRedditorHere,1izl6zql,ff22lst,"Plenty of sugar baby/daddy relationships have nothing to do with sex and instead revolve around attention. Prostitution is strictly buying the consent of a person which isn't really consent at all.

Made a huge mistake posting this in lsf.",ff1efob,FrozenMeatStick,1s478fed
"> The idea that Jewish people are behind government policy or media is a hoax. It’s done by taking people who are majority ethnically white, and pretending they’re Jewish because somewhere up in their family tree they’re connected to a single ethnic Jew.

So Jews are not overrepresented in American Media or Government is what you are claiming? So if I look up some names of key people and ceos of major media companies like Disney, Comcast, NYTimes, CBS, NBC, CNN, etc I won't find Jews are overrepresented? 

>People moving in and having more kids than you isn’t genocide.

Tell that to the Native Americans 

>You aren’t being killed.

Tell that to Mollie Tibbetts lmao 

>You aren’t being forced out of your land.

Yet true, the prospects of people able to own land in general for most Americans is fleeting anyways. 

>Not to mention that the immigration rate isn’t a fixed number and can lower at any time, and also not mentioning that the best way to make sure everyone has the same amount of kids is by solving wealth inequality. It’s a fact that poorer people have more kids, and richer people don’t.

And that fixed number needs to be zero but it won't happen because big business needs its cheap labor even at the expense of destroying the cultural hegemony of the nation. 

>Also not to mention, me being Jewish, I’ve somehow not received my invitation into this conspiracy. Is my nose not big enough? Do I have to be degenerate first? Or are you the kind of Nazi that thinks I evolved to dislike white people and I’m subconsciously working towards your destruction?

You being Jewish allows you citizenship to Israel, the nation that pretty much controls America

>Don’t believe everything you read on 4chan and Stonetoss, you might just start to want the death of an ethnic group

If your people are kicked out of 109 nations before 4chan was a thing maybe the problem is you guys lmao",OnlyGoodRedditorHere,1izl6zql,ff21z2h,"Woah, an actual Nazi! Cool, I’m just gonna speak past this fear mongering bullshit to anyone actually concerned about these issues 

1: The idea that Jewish people are behind government policy or media is a hoax. It’s done by taking people who are majority ethnically white, and pretending they’re Jewish because somewhere up in their family tree they’re connected to a single ethnic Jew. 

2: People moving in and having more kids than you isn’t genocide. You aren’t being killed. You aren’t being forced out of your land. Not to mention that the immigration rate isn’t a fixed number and can lower at any time, and also not mentioning that the best way to make sure everyone has the same amount of kids is by solving wealth inequality. It’s a fact that poorer people have more kids, and richer people don’t.

3: Also not to mention, me being Jewish, I’ve somehow not received my invitation into this conspiracy. Is my nose not big enough? Do I have to be degenerate first? Or are you the kind of Nazi that thinks I evolved to dislike white people and I’m subconsciously working towards your destruction? 

Don’t believe everything you read on 4chan and Stonetoss, you might just start to want the death of an ethnic group",ff1wxgl,Karakiin,4yern5zk
"Promoting non-white immigration in low birth rate white nations is promoting genocide, asking questions on what major people are supporting open border policies and questioning the holocaust is not promoting genocide 

How fragile can these people be lmao",OnlyGoodRedditorHere,1izl6zql,ff1wjj8,"Saying Jewish people are in an international conspiracy to replace whites and that the holocaust was a hoax designed to maintain their power isn’t “making fun” of them. It’s promoting genocide. But you knew that, you just want them dead.",ff1hbxc,Karakiin,4yern5zk
What's so special about Jews to where they can't be made fun of?,OnlyGoodRedditorHere,1izl6zql,ff1es4f,"Stonetoss, the person who drew the original comic you’ve turned into a format, is a nazi who denies the holocaust and draws anti-Semitic comics",ff07fbe,hotflames849,tphgj
So you see one post showing unattractive amish people and now assume all amish are inbred? Wow,OnlyGoodRedditorHere,1izl6zql,fehdesh,"While I'd heard of the abuse and incest in the Amish communities, I thought it might be a relatively low percentage (similar numbers to any given community) wildly amplified by xenophobia. Then I saw these guys...holy shit!  I dunno about you, but to me these 4 mug shots scream generations of incest breeding (4 different last name btw): https://www.dailymail.co.uk/news/article-7840569/Four-heavily-intoxicated-underage-Amish-men-riding-horse-buggy-Michigan-busted-DUI.html",feh0amb,StFirebringer,f8es1
"> Most of the personal grooming women do (fashion, makeup, hair, etc.) isn't for men

No",OnlyGoodRedditorHere,1izl6zql,fdjml3r,"Most of the personal grooming women do (fashion, makeup, hair, etc.) isn't for men. For one thing, most men are pretty clueless when it comes to stuff like makeup--hell, a sizeable portion don't even realize that natural makeup is a thing and so they think it represents what women are supposed to look like bare-faced (i.e. without blemishes). It's mostly other women who will notice the effort, and for heterosexual women, that has nothing to do with getting checked out. It's more about what makes them feel confident, attractive, comfortable, and so on. Take yoga pants, for instance: sure, men do find them attractive, but they're also suuuuper fucking comfortable (if you don't believe me, try them yourself!).

Of course, that's not *only* true of women, but men seem less likely to believe it about women. Personally, when I'm deciding what I'm going to wear or how to style myself, I'm not really worrying about what women will think of it. Rather, I'm thinking about what suits me and my tastes, and how I feel wearing it.",fdhpidu,pqlamznxjsiw,k6zg0
"In Mainland China kind of, all depends though on the person but generally",OnlyGoodRedditorHere,1izl6zql,fczceka,Don't the Chinese hate the Japanese?,fcydt4t,eggboy30384,2dp5qamh
Teach English abroad. Some languages like Spanish or French you can pick up in a few months of being immersed in it,OnlyGoodRedditorHere,1izl6zql,fczc5xe,Wish i could speak different languages,fcy06gu,ArianaVegas,1azew6gy
This might be true for people 30+ and up but not for late millenials/gen z. They are consuming social media all the time and many of these posts are not outliers but very common thoughts among people,OnlyGoodRedditorHere,1izl6zql,fcwyag6,Social media amplifies outliers to make them look typical.  In the real world almost no one even knows what Reddit is.  But in this echo chamber - radicalized outliers have disproportionate power and the ability to push their ideology to an audience who don't understand that this is a tiny sliver of the actual population.,fcuv4c9,Xenomoly,15jafw
"The conspiracy part is whether some group or someone is behind it all 

However what is fact is that it is happening",OnlyGoodRedditorHere,1izl6zql,fcwy3zw,It is tho,fcwhv2s,Bismark202,21ggdglu
