child_body,child_screen_name,child_user_id,child_tweet_id,parent_body,parent_tweet_id,parent_screen_name,parent_user_id
"Or just write over the dried ink again with the dry erase markers, then wipe it off with ease. Dry erase markers contain a solvent. Reapplying that solvent on old dried on dry erase, or even permanent marker, will let you wipe it right off.",tepkel,39gl9,fkipzd9,Hand sanitizer used to work well on removal from rough surfaces... back when that stuff existed.,fkijt5r,Gtapex,qd4uw
I think that's makes it legal... It's like making it to the safe zone in tag.,tepkel,39gl9,fkf3gyu,"Well it's not exactly legal, but by the time you get arrested you'll probably have licked all of them.",fkf2eux,jonathanpaulin,5w6ur
I mean... Nothin' stopping you from licking all the hers in the liquor store...,tepkel,39gl9,fkf1uy5,"No, that comes from the lick-her store.",fkf1njm,ROBot_404,16lrkz
Oh shit! I need to stock up on emergency meth!,tepkel,39gl9,fkf1bvw,Good excuse to buy meth supplies in bulk,fkexpir,Jajajapanese,3cjc628x
Just like Covid-19!,tepkel,39gl9,fkf15kk,I bet they have corona boxes because they are free from the liquor store.,fkf0f9e,bdoubleD,9lp8e
"Don't worry, even if it didn't cough in its elbow, the guy would be breathing the same volume of air in and out repeatedly. Getting only a miniscule quantity of new air from the very top. So the real danger wouldn't be bird flu, it would be hypoxia. As a greater and greater quantity of that volume of gas is completely composed of carbon dioxide.",tepkel,39gl9,fkf0uya,That frickin bird didn't cough in its elbow!,fke5lc9,Payhell,g337a
I parked my splodomobile in the car hole!,tepkel,39gl9,fkdp5ob,Favour?,fkdnz95,sourcecode13,vg9pm
Up-poop.,tepkel,39gl9,fkbmygm,"Den var godt, tag en updut.",fkaj8ar,OfficialGrexz,2hoaswpm
And they talked all funny.,tepkel,39gl9,fk5l7yu,He shook the coke.,fk5kl74,Cachuchotas,3sbqvnbx
It's just too bad you painted it entirely in poop brown...,tepkel,39gl9,fk4u3kw,"Well thank you, so much :)

Edit: If you'd like to see more of my colorblind nonsense please drop me a follow at @my_new_addiction_studio on instagram :)",fk467mi,SevenTinyPickles,ulqw6
Pipe and a pancake?,tepkel,39gl9,fk4jckn,More like a lot of cocaine. And mushrooms,fk4bmtc,psychologicaldepth5,3sdylox1
That boy ain't right.,tepkel,39gl9,fk4ezfh,"Propane?

Don’t be disgusting.",fk4dx6g,Privateer2368,3gqypj5u
"That, or a little cocaine.",tepkel,39gl9,fk49ugl,every one can dance with a little edit,fk44c6z,GameofCHAT,wf6nj
"The change, in this case, being a move to a barter based economy in light of the impending collapse. I, for one, plan to corner the market for quills. Shit's gonna come in handy once all your fancy computers and pens are gone and we're all writing our taxes in blood-based ink.",tepkel,39gl9,fk1xggu,Well he said keep the change.,fk1lmfe,evr-,14wsox
We all know. No one cares. It's a joke.,tepkel,39gl9,fk1kf4d,Except the guy replying about molestation isn’t the OP with the story,fk1kbz1,kcg5,3zvn1
IT'S GOT A SQUEEKER! QUICK! DISEMBOWEL IT!!,tepkel,39gl9,fk1h0hs,My dog would have given that elephant about .0005 seconds to live.,fk0eevw,krattalak,gcc16
"I ain't no storkologist, but I'm pretty sure there's no cone throwing involved I. Loosing your virginity... ""The birds and the cones"" doesn't sound quite right...",tepkel,39gl9,fk1gugu,"This is how a guy loses his virginity in high school.


Edit: I mean by impressing women...what were you thinking?",fk0cnff,UserN-me,108hkc
Period sex.,tepkel,39gl9,fk1fxvp,They put their dick in the blender,fk13oip,Icmedia,2wc1uekh
"Man, you guys have some fuckin' weird innuendos...",tepkel,39gl9,fk1fthy,Aka puts her shoes back on.,fk0t8y1,I3umblePumpkin,3add7y4f
"Go in skinny, then eat so much you can never leave.",tepkel,39gl9,fk1175a,"By IKEA furniture in a box, assemble it in a room and never move it.",fk0znuw,TheContrarian2,3jakx
Well that was unhelpful...,tepkel,39gl9,fk0y2cr,https://www.snopes.com/fact-check/burned-tree-spaghetti-pattern/,fk0m8sx,MorallyDeplorable,eaemb
The human brain has an amazing ability to rebuild and reroute molestation pathways.,tepkel,39gl9,fk0vyoe,Its crazy what the human body can recover from.,fk0udi9,stupidfatamerican,173btr3r
I think I should have a movie too. One time I sprained my neck because I was eating mac and cheese too vigorously.,tepkel,39gl9,fk076uc,Boy if you don’t get yo ass off Reddit and into the nearest movie studio! You’re the next Christopher Nolan! FOH!!!!,fk03w1c,thewillmckoy,3kn78h1n
"Probably makes Sandler wish it was his production company's movie so he could shoehorn in some product placement for pool resurfacers.

Edit: Downvote all you want. Every movie the man has made has gratuitous product placement. A few of them have product placement as a central plot point... Dunkin' Donuts in Jack and Jill, Claritin in Murder Mystery, Popeyes Chicken saves the damn world in Little Nicky. 

In Happy Gilmore, his character gets a sponsorship deal with subway to save his grandma's house. It's product placement under the guise of product placement... It would almost be poetic if it wasn't so soulless.",tepkel,39gl9,fjyqqbg,HOW DO YOU THINK THAT MAKES ME FEEL?,fjyhj11,Officer_McLovin,ekw5u
I always figured that show was about a group of overweight rock collectors passionate about the geology of the Cleveland area. It's a way more believable premise honestly...,tepkel,39gl9,fjydug9,CLEVELAND ROCKS! CLEVELAND ROCKS!,fjy44bf,combustion_assaulter,7smyu
And he's started seeing slightly more age appropriate women.,tepkel,39gl9,fjxwiiv,His tie is sightly different too,fjxslky,Omnibitent,g8yzx
">Nevertheless, don't go touching strange antennas, or even electronics or machinery near very large ones, unless you know what you're doing.

Oh what. You think you can just tell me what to do?",tepkel,39gl9,fjxu4rp,"[https://hamradioschool.com/t0c07-rf-burn/](https://hamradioschool.com/t0c07-rf-burn/)  


RF Burn does happen, but you are correct that it requires a confluence of special circumstances. Nevertheless, don't go touching strange antennas, or even electronics or machinery near very large ones, unless you know what you're doing.",fjxtgov,Protahgonist,dbkdm
Carbonara Curling,tepkel,39gl9,fjrm7q8,Carbonara bending?,fjqd1rs,Quicksilve5,n28ic
What kind of alcohol are you?,tepkel,39gl9,fjrkyei,"My mom and dad smoked marijuana, but I’ve only used it once. Not for me. I am an alcoholic* though, so I’m not entirely unfucked up.",fjrhw43,Cha-Le-Gai,ed0g1
Amongst other... Things...,tepkel,39gl9,fjrkm12,You're going to vigorously rub your eyes?,fjq9jib,DalekPredator,9gppg
"**IT WAS WROTE. ALL THINGS GUIDED US, NAY, PUSHED US KICKING AND SCREAMING TO THIS MOMENT.**

**FROM OUR FIRST STEPS OUT OF THE PRIMORDIAL OOZE, TO THE COUNTLESS SHIFTS IN OUR SENTIENCE, AS WE DISCOVERED FIRE, KILLED WITH TOOLS, FARMED, HARNESSED THE ATOM, AND PRODUCED THE VERY FIRST REALITY TV SHOWS.**

**ALL THAT WE WERE, AND ALL THAT WE ARE AS A SPECIES, LED US TO THIS CONTRIVED MISUNDERSTANDING.**",tepkel,39gl9,fjr7vy4,You mean scripted,fjqw95l,feint2021,tpbew
"No, they repeatedly wet themselves out of pleasure and contentment.",tepkel,39gl9,fjntzp3,Are you trying to tell me those pizza delivery people people might hold a grudge for being locked in a basement slowly starving and dying in their own filth while my main Sim gets rich off painting their misery?,fjnbydy,Poopy_Dildo,12w7sl
 Dillon---you son of a bitch!,tepkel,39gl9,fjlmxeu,Your one ugly mother fucker,fjlmkyf,frostymugson,132tz6
"Fart means speed on Danish. There are signs on the highways that say things like ""Fartkontrol 1-10km"". It's ok...",tepkel,39gl9,fjlmhfh,Not really.,fjjpyk8,memernic,3meffbwx
It's where I put the crackers when I'm adding the ham and cheese.,tepkel,39gl9,fjllloi,Can confirm. Belly ledge is super useful.,fjksaa9,jafhrdz,1k3uvtz
"Well, I mean, they coulda got jetpacks too. There's always something more wonderful. And it's always jetpacks.",tepkel,39gl9,fjljzo4,"This is the most wonderful addition anyone could have made, thank you do much!",fjl9ct3,thetwistynoodle,1eg5jqq1
"Eh, I figure this'll come in handy sooner or later.",tepkel,39gl9,fjljr1t,26 seconds of your life you’ll never get back.,fjkgbgy,davispw,14fba8
And one holding the dick too if you're into that kind of thing.,tepkel,39gl9,fjjibvz,That's why you have people holding your arms in taser trainings...,fjiuxbc,DClub33,1npafoxb
"Next, to porn hub!",tepkel,39gl9,fjj98p8,Snapchat to tiktok to instagram to reddit in this case lol,fjiufcy,k5w_,3em6util
"Well, it's a good thing that's an air tank then. Not an oxygen tank.",tepkel,39gl9,fji7p3r,"Yeah, laying down in bed must be uncomfortable when you have a big ass oxygen tank strapped to your back.",fjh4db4,Silent_Andromeda,di43gvp
Nah. I bet it's already out there somewhere.,tepkel,39gl9,fjghepz,r/brandnewsentence,fjg408y,insestiina,156t2i
Let us tell you why a nice boy like you should be talkin' to my son instead.,tepkel,39gl9,fjg4ypm,"Now.. Tell me and my friends here why you were talking to my daughter, eh?",fjffm1y,kujotx,6ua4w
[I'M A COMPUTER!](https://youtu.be/RH1ekuvSYzE),tepkel,39gl9,fjfwo72,"I AM AN ADULT

Edit: for the [uninitiated](https://youtu.be/kscG_gs2BOc)",fjfq07f,mastermomo16,tayogdz
"I tried making a lasagna, but it just absorbed all the blue water I poured on it.",tepkel,39gl9,fjfvs3d,"Nah, but I hear it pairs well with a nice placenta pesto sauce.",fjftxkf,Total-Khaos,bdyje
RegularAIDS,tepkel,39gl9,fjeu0d1,Marinades,fjeecfu,leomonster,7la98
Now I shall go out to the garage to construct my birch strip funeral canoe.,tepkel,39gl9,fje55kp,"My work is done.

My legacy is secure.",fje1snb,Orphan_Babies,cypb3
Shaggin' shanty,tepkel,39gl9,fjdbchq,More of a head shed.,fjd0hna,perv_griffin_69,34eyw8to
ɹǝǝq,tepkel,39gl9,fjdapq6,What's Australian for beer?,fjdabot,hidiousbeaest,xv1pa
[Kamelåså!](https://youtu.be/ykj3Kpm3O0g),tepkel,39gl9,fjcfb5h,"""We also speak Norwegian, Dutch, German, French, Russian and Finnish. But not Danish. That is a garbage language for garbage people.""",fjbm2e4,ChibiSailorMercury,4h0n4hka
What is your favorite texture?,tepkel,39gl9,fjce8an,How many slices of bread have you eaten in life?,fjcdlmt,Zhymantas,17jg6b
"Pretty sure a lot of kiosks run on Ubuntu core, server, or other headless Linux. You don't need a full desktop environment to display graphical items.",tepkel,39gl9,fj929eg,"I mean, they need graphics for this application. Of course they would pick GUI?",fj6k91l,ABotelho23,8eaop
Very nice of people to downvote you for admitting to a mistake... Quite a supportive community.,tepkel,39gl9,fj915hj,GUI over no GUI. LTS is long term support. I didn’t mean to put that I meant to put I guess they prefer desktop over the non desktop version fml,fj6jym6,Samwozencroft,2omjcmhp
Pretty sure this guy isn't actually a leet slobcat guys. Don't listen to this phony!,tepkel,39gl9,fj8112j,"I I don’t get this about Reddit. There is always someone calling a post fake on practically every thread I see. It seems like such a weird mentality to have. 

Be skeptical fine, but things actually do happen sometimes...",fj79hk4,slobcat1337,zb77d
"Yeah, They didn't even think to plan out a clone contingency for the worst cases!",tepkel,39gl9,fj7zgoc,It seems like you have given this a lot of thought and not enough thought at the same time which is kind of scary.,fj7yqpo,getapuss,1415v3
Can you ask them to sculpt the dog on the right??,tepkel,39gl9,fj4t11q,I work with someone who carves stuff like that now. It has a more angular modern aesthetic but they're very good.,fj4ggn3,ihitrockswithammers,qrnmts3
"Those ribbons look kinda like the letter Å... I thought this was in some Scandinavian language, and was trying to figure out what the heck ""Yearling ahead"" meant in the context of a bell...",tepkel,39gl9,fj4pjvg,"Reposted, because it was removed for me posting a link to buy one. If you want one, just search for “boobie bell” a bunch of different ones come up.",fj3ytbz,dos-stinko-uno-pinko,3naz9zj0
"Yes, yes I did.",tepkel,39gl9,fj4lmxa,"“Cover and concealment?!”

You know you read that in his voice.",fj4lf7b,Throwaway1303033042,wr5gm
It comes with mandatory YouTube red videos.,tepkel,39gl9,fj4jy00,"YT preparing for ""Premium Ultra"" subscription /s",fj45ai3,Jazz_Gazz,85qqhk2
"Just make sure to put him up on one of the parking garages, not down on the damn road with good ""cover and concealment""...",tepkel,39gl9,fj4esjt,Someone send Mark Hamill to Yonkers so he can be in place to narrate.,fj4drgx,Throwaway1303033042,wr5gm
"There are some similarities, but in the book, the Chinese reaction in silencing the outbreak is quite a bit more extreme. If I remember correctly, they create a crisis with Taiwan as cover and make heavy use of secret police to cover up the fact that the disease even existed. Not just downplaying the scope.

Edit: And the party leadership gets decapitated with a tactical nuclear strike to end their civil war. Kinda doubt we'll see that kind of accountability in real life...",tepkel,39gl9,fj4ekp5,"I hear Max speak at a convention years ago about WWZ and how it was all inspired and influenced by real world events and situations.

As soon as this situation started unfolding, the comparisons to the book are staggering. 

Chinese government mishandling and hiding an outbreak.  Ineptitude and political wrangling in the US. Not looking good.",fj3wdz1,ArcherChase,9x2hkh9
He's working the camera.,tepkel,39gl9,fj4azpn,Lol,fj4389c,kamshaft11975,ckgr7
"Yes, we should definitely include buffalos as well. They need adoption too. After all, [Buffalo buffalo Buffalo buffalo buffalo buffalo Buffalo buffalo.](https://en.m.wikipedia.org/wiki/Buffalo_buffalo_Buffalo_buffalo_buffalo_buffalo_Buffalo_buffalo)",tepkel,39gl9,fj4aom8,Let's go Buffalo!,fj43mbc,lurker3691,2vl19527
That's the sound they keep making running into the maze walls.,tepkel,39gl9,fj4ahmy,Oof...,fj3q4uv,Jkoechling,mvjt49b
Girl,tepkel,39gl9,fj3i7wq,Clever.,fj3hak3,KSPFanatic,1ri6h8y
"I dono, I think their looks are a big part of the humor. You miss out on that online.",tepkel,39gl9,fj3ahn8,So he's only funny on Reddit.,fj39yro,t3hnhoj,ddwn8
You think a simple thing like that will stop me? You underestimate my lack of OC!,tepkel,39gl9,fj18ujb,Yeah but he won't get all that sweet repost karma because somebody else posted it there yesterday!,fj0j4jb,PMMEYOURKITTIESPLZ,5eiattsp
All I smell is burnt toast... Is that good??,tepkel,39gl9,fj0xa2m,*sniff* I don’t smell anything,fj0w7ja,MySockHurts,6xezo
"Thanks for subscribing to I Scream Ship Facts!

###***IN WWII, THE US ARMY HAD MORE SHIPS THAN THE US NAVY.***",tepkel,39gl9,fizouol,Tell me about these ice cream ships please?,fiznu0i,wrking4theclampdown,hflfu
Pretty hard to see a metaphor from *anyone's* house.,tepkel,39gl9,fiya0sq,Can't see it from my house.,fixlphw,yermomsboyfriend,1m7g2ley
"Dono what the dude you're replying to said, but I'll get on board.",tepkel,39gl9,fixz64c,Seconded,fixw4p8,th3f00l,7j951
They sold about 7 times as many windshields though...,tepkel,39gl9,fixyvez,-3 survived.,fixwhfi,ObnoxiousLittleCunt,bgl1g
"Can there really be a world comprised of nothing but up town? Doesn't there need to be a downtown and midtown as a point of reference making it uptown??

Edit: Ah, I forgot. [We live on the inner surface of a concave earth.](https://www.youtube.com/watch?v=tL2KYucE9_o) Totally possible.

Also, [Time cube.](https://timecube.2enp.com/)",tepkel,39gl9,fixi2ek,She's just living in an Uptown World.,fix6nwk,Gqsmooth1969,118fir
I think they could have took a right. The wall probably would have gotten out of their way.,tepkel,39gl9,fixfe9n,"If it only dove underneath the oncoming boat, everything would've been sunshine and lollipops",fixefxx,der_titan,ei9ex
Are they any good now?,tepkel,39gl9,fiwfrvb,"If that’s poorly drawn, then my drawing skills are horrible then.",fiv1g9m,LearnToStrafe,eh0lq
"Ok, now take the garbage that I haven't emptied in 2 months.",tepkel,39gl9,fiv7cws,I accept. Thank you,fiv3a4u,iansdeadbody,1hpihqc4
"I mean, I'm assuming they're just preparing themselves for the inevitable...",tepkel,39gl9,fiv4cgh,"more importantly, why the fuck",fiuvmi3,SaltyBoi365,3mzn6fhr
"""whoopsie! I pancaked that Grandma with my dad's beamer. Not my fault, all that money broke my brain so I can't possibly be responsible!""",tepkel,39gl9,fiv3njj,"""oops i did that in heat the heat of the moment, so i can't really be blamed for it, innit?""",fiv22xs,Calitrek,2ycqojrv
"Yeah, but he's just going to binge on protecting paedophiles once lent is over...",tepkel,39gl9,fius7ig,Maybe (for Lent) he should give up all the paedophiles he's helping to protect,fitzmqp,eonimmurphy,j7xnr
"No, I'm pretty sure it was in lower case...",tepkel,39gl9,firlhre,UPS in this case = [Uninterruptible Power Supply](https://en.wikipedia.org/wiki/Uninterruptible_power_supply).,firlcmq,Azure_Kytia,m6osm
"The technical term is ""ribbed for her pleasure""",tepkel,39gl9,firjwtf,"I like it, but it looks a little rough on the way down.",firelzl,New2thegame,4swi1
Why does it feel like you're talking about sex toys??,tepkel,39gl9,firjhoo,"I used to work for a demolition company, and the boss said that they used to have a ball years ago, but it didn't offer a huge amount of control, and wasn't really worth the effort when a jackhammer on an excavator works just as well.",firhsb6,FalconTurbo,10kb3k
I dono what good it would do me to ship my cameras somewhere else...,tepkel,39gl9,firjank,Put your router and cameras on ups devices if you are that worried.,fir9rrz,Piblo,nac5q
What are they? And why do they have so many of them? Do they have a closet somewhere full of loose bottles of colored water when they aren't a dog obstacle course?,tepkel,39gl9,firj3v4,I would tilt all of them,fiq3k0i,Kaktusreaper,5ckixeln
Did you know 100% of my ex-girlfriends thought the idea of me Marco Poloing on them was gross??,tepkel,39gl9,firirq6,"Did you know that your body’s is composed of like 60% Marco Polo?

You are 60% Marco Polo.",fir15v8,Oscar_Ramirez,12742s
r/yourjokebutmorebadder,tepkel,39gl9,firik2b,r/yourjokebutworse,firgn9i,woooo4,3nwp6cbc
Thanks bud! I appreciate your support!,tepkel,39gl9,firicbp,Very original.,firgtih,brookeylove1017,1pyakois
"Base on the many shop camera recordings I've seen, I'm assuming you're both cops, or people about to get in a shootout with cops.",tepkel,39gl9,firgphl,Howdy meus consagrado!,firg8n1,afGoul,3id5px0b
She's about to paddle out and hang 11.,tepkel,39gl9,fir8bmy,Shes gonna get soaking wet riding that thing all day,fiqz27d,Keighlon,6gqua
Sounds kinda like my detachable penis.,tepkel,39gl9,fir7330,you genuinely laughed your ass off?  oh my.,fiqwjr6,Y1bollus,h9uhx
"I dono... I think his dad might be a bear... Those two aren't very much alike. 

His mom must be zena or some shit. Takes some serious lady balls to fuck a bear.",tepkel,39gl9,fir6lef,Like father like son.,fiqdbo0,imahik3r,xt46b
and Roe Jogan.,tepkel,39gl9,fir6cgd,Like Joe Rogan.,fiqxsa6,Permtacular,8w9j9
"Man, it really does take a unique combination of stupid and confident to misswoosh.",tepkel,39gl9,fiqyh9n,r/woooosh,fiqujzq,frightfulpath,n8q2z
"They are, but it's also about the composition and art style.

[Here](https://i.imgur.com/KLdMyd1.jpg)   
[are](https://i.imgur.com/1btsde1.jpg)    
[a](https://i.imgur.com/UtPMcDj.jpg)   
[few](https://i.imgur.com/DVC70GT.jpg)  
[examples](https://i.imgur.com/KsE3cMq.jpg)",tepkel,39gl9,fiqxtan,Red and yellow are communist colors?,fiqhbsd,Christroyilator,a3pa3f3
But... I am gonna need to see some cake ID.,tepkel,39gl9,fiquu6c,Thank you!! :),fiqo5md,the_pulse_r6s,n6gb295
It's easy to be stupid when you're in a cult!,tepkel,39gl9,fiohq94,"How stupid do you have to be in order to become a ""super spreader"" for a very dangerous outbreak? Anyone refusing to be tested should be held legally accountable as this can potentially kill people.",fio52x7,daveyjones86,357hygra
"A russian friend of mine says that children use ""blint"" (sounds kinda like the russian word for pancake) as a non-offensive replacement word for blyat (fuck). So next time you're playing counterstrike with a russian, try yelling blint, instead of blyat. You'll essentially be yelling, ""Oh pancakes!!"" 

Of course, if you do the traditional ""cyka blint"", you'll be calling the pancakes a bitch.",tepkel,39gl9,fio1of3,"We called them silver dollar pancakes growing up. I always liked my pancakes small, the rest of my family likes giant pancakes. Boourns for me",finfolt,sticktotheknee,1k2ojjmh
"Whatever man, [it's clearly not that far up, as we live on the inside of a hollow sphere. If you go too far you'll run into the glass ceiling that holds the rain up.](https://www.youtube.com/watch?v=tL2KYucE9_o)

  
  
Also, [Time cube.](https://timecube.2enp.com/)",tepkel,39gl9,fio070o,For real. 1900 ft isn't a small number in terms of lift. No way near the 5000 ft he wanted or the 69 miles that is required to leave the atmosphere but impressive nonetheless.,finfmmu,th30be,7okii
Maybe it's full of dicks.,tepkel,39gl9,fimv85x,Maybe beef stock?,fikapxh,ewoco,79d47
You done aged up E-E ryn!,tepkel,39gl9,fime6ui,Happy Birthday E RyNN!,filf550,OtterApocalypse,cpgms
New Jersey is an amazing place too. Just a... Different... Kind of amazing.,tepkel,39gl9,fimdbtj,Yosemite is an amazing place,fim8sdf,Tointomycar,8mrlc
"So it's a composite of those shots? The longer shutter to get the light effect, the shorter to get some of the sharpness in places? Or you took three shots, and the 17"" was the pick of the bunch?

I really like the finished look. I've been teaching myself editing, but have a long way to go.",tepkel,39gl9,fimd6kb,"Sure thing: 17.0 sec at f/8.0, ISO160 @ 55mm w. Fuji X-T3 + 16-55mm f2.8

I did a 1 sec, 5 sec, and 17 sec exposure because I wasn't sure how it'd turn out with the water. I wanted to retain some details, and not blur it all the way out.",filifgn,dennisskyum,z3zb8
