child_body,child_screen_name,child_user_id,child_tweet_id,parent_body,parent_tweet_id,parent_screen_name,parent_user_id
I'll ensure I leave a bad review 😉,The-large-snek,4nidsc76,fk6j5sd,"Restaurant/butcher at north vancouver Quay market, they never tip, no free parking. They order these no name items  several times a week, sell them for $15 per plate, they have this healthy local meat shop image, make a hell of money and still don’t bother tipping??? Rot in hell! This order will stay there for hours until insta gives a peak boost and someone will get it :(",fk4cxkp,thevortexqueen,5k1skkzl
You're deranged. Obama did the same shit. Guess what? It prevents and stops child trafficking. Moron.,The-large-snek,4nidsc76,fjg508x,"I mean real talk the people that are still happy with Trump KNOW they are the bad guys. They LIKE that we have concentration camps for Mexicans. We need to stop acting confused about that, because current Trump supporters are not confused or tricked.",fjg2ls3,gojirra,4krwo
"Season 2 sucks, even though I enioy the new actor. The first season was incredible, but it's been an absolute bore this entire second season.",The-large-snek,4nidsc76,fjg3p7r,Haven’t watched whole of season 2 yet but the first episodes are very disappointing.,fjg2pyg,Dragon_yum,6cbpg
"The bigger the bird, the bigger the baby. A cockatiel would be a good start, or maybe a quaker parrot.

You just need to make sure someone is home everyday. Birds are as needy as high-energy dogs.",The-large-snek,4nidsc76,fjfwud5,"Wanna get a parrot. Fell in love with my friends parrotlet. Any suggestion for a similar bird? 

Are bigger birds high maintenance ?",fjfwg4c,mileg925,7expq
Anyone who willingly detriments their health so cute little animals don't die is deranged.,The-large-snek,4nidsc76,fje0yoh,Anyone with an ethical stance even slightly outside of the norm must just be virtue signaling.,fjdz6lu,LeonBotski,9brkxnf
"Vegans want to claim useless data, so I can too. Thanks.",The-large-snek,4nidsc76,fjdx39a,"You haven't read ""every vegan study"", or any at all, I'm guessing. But even if that were the case, it doesn't excuse piling on more bullshit. ""I get to lie, because someone else somewhere lied"" doesn't really hold up.",fjdvohf,TaPragmata,5m5buhmy
"Every vegan study has no controls, because good luck finding enough people to eat nothing but vegetables from birth to death by choice.",The-large-snek,4nidsc76,fjdv2sz,"So, someone else somewhere mis-used statistics, which means it's cool that you mis-use statistics. Got it. 

You do sound super, 100% impartial and scientific though. Budding statistician. Just need to learn to spot multicollinearity, and you'll be all set.",fjdtzas,TaPragmata,5m5buhmy
"The same type of studies are used by vegans to claim veganism as ""healthier"". Nothing is controlled for. Veganism is a cult full of virtue signallers, nothing more. The only vegans I've ever met who weren't deranged are vegan because they can't eat meat because they dont like it.",The-large-snek,4nidsc76,fjdtq62,"Or, rich people have better health care. You'd need to control for income and other things and compare within a single country, to make the argument. I don't care either way, but it's dishonest to say that meat = health because [country rich enough to afford meat] happens to have a higher average life expectancy. 

Other sources disagree with your premise completely, but again, it's not really my issue.",fjdrbdl,TaPragmata,5m5buhmy
Google meat consumption of those countries one by one. Useless vegans...,The-large-snek,4nidsc76,fjdrbai,I can’t see a reference to meat consumption here?,fjdqjnc,YorkshireAlex24,ya2hy
"No shit is any diet better for someone who is obese. That's common sense. The fact is, someone who is 400lbs just needs to lose weight, not eat only plants to become healthy.",The-large-snek,4nidsc76,fjdr8mc,"Adoption of global dietary guidelines [read: reduced meat and dairy intake] would result in 5.1 million avoided deaths per year and 79 million years of life saved. The equivalent figures for the vegetarian diet are 7.3 million avoided deaths and 114 million life years saved, and for the vegan diet 8.1 million avoided deaths and 129 million life years saved. [(Source)](https://www.pnas.org/content/113/15/4146)",fjdql86,painfulPixels,57tww
"Google it... Hong Kong has the highest life expectancy and eat the most meat.  Switzerland eats an average of 1kg of meat per person per week, etc. The vast majority of the top 10 countries eat more than the average amount of meat. All of these countries eat meats regularly too.

https://www.infoplease.com/world/health-and-social-statistics/life-expectancy-countries",The-large-snek,4nidsc76,fjdqdfg,*citation needed,fjdp54k,YorkshireAlex24,ya2hy
Most people in 3rd world countries don't live their lives on a pedestal. That's the biggest difference.,The-large-snek,4nidsc76,fjdpvtl,Being vegan is cheaper than buying meat in 99% of the world.,fjdn7c8,TooClose2Sun,59d7cjvb
Eating meat isn't bad for your health anyways. The populations who eat the most meat in the world have the longest lifespan.,The-large-snek,4nidsc76,fjdovd5,"I think ""treating your body like a temple"" aka trying to be as healthy as possible is only one of the reasons people refuse to eat meat. From my experience most vegans/vegeterians act mostly on ethical ground, they don't eat meat because they don't want animals to be hurt for them. They don't necessarily do it to live longer, everyone knows they could die tomorrow.",fjdmv9a,mirinin,5naeptha
"Yes, thanks. Most people shouldn't consume things they're allergic to.",The-large-snek,4nidsc76,fjci6j3,"if you are allergic to it, as most people are, you should not drink it, as you cant properly digest it. if you can, good, be on your merry way. if you cant, dont drink it.",fjchyh5,scarface2cz,on9aq
Nope. Cases have been overturned even with a very clear will stating the children should receive nothing. A will in Canada is almost pointless if you have children.,The-large-snek,4nidsc76,fjallc7,Only without a will,fjaegif,DanConnersGarage,hv2zi
Lol,The-large-snek,4nidsc76,fja19gs,I recall a similar but more disturbing story in the news a few years ago.  A man took a job at a shop to case it out and steal tools.  He came back during the night (possibly high) rammed his fist through a glass case and took the tools he was after.  However he severed an artery and the police were able to follow a trail of blood to where he lay in some bushes having bled out.,fj9vzlu,MaconShure,2e0rrzhy
"So even though Obama did all the same things, only Trump is a racist? Obama came up with the idea to ban Muslim countries, and he had been imprisoning Mexican families before Trump even took office.

The very fine people thing is false btw. CNN cut out the 3 seconds after that sentence of the speech where Trump condemns the white supremacists at that rally. Nice try though. 

You Democrats truly are fools. This is why people on the right have no respect for Democrats. Use actual facts as your justification for disliking Trump, rather than spewing babble.",The-large-snek,4nidsc76,fj7h81f,"Telling brown people to ""go back to their own country"" who were born in USA is pretty damn racist. Refusing to condemn white supremacists and infact saying they had ""very fine people"" among them is pretty damn racist. Using unfounded immigration fears to stoke ignorant support and imprisoning hispanic children is also pretty damn racist.

Trump is a racist.",fj7g5xt,Eramance,nimmh
"Ahh, yes. I guess everyone who voted for Trump who isn't white is also a racist? 

I find it hilarious that people still think Trump is racist... this rhetoric proves how clueless voters are. At least hate him for his policies instead of calling him racist. Be an adult and do some research.

Absolute moron.",The-large-snek,4nidsc76,fj7enca,"But all trump supporters ARE idiots, racists, and nazis. From poor people in rural states voting for the guy who cuts their snap benefits to the guys who show up with torches at rallies and scream jews will not replace us. The biggest problem with Hillary's ""half are deplorables"" statement was that she got the number wrong",fj7dqpm,icy-fuckboy,57o7o85w
"Ok you cuck. Call me racist because I suppourt someone you disagree with? Lmao, what a bitch.",The-large-snek,4nidsc76,fj218h8,"lies of omission in statistics is a purposeful tactic of racists.... but you know that you racist misogynistic trolling trumptard idiot based on just glance at your fucking comments.

>Lol, no. Find a nurse in real life and they'll tell you differently. 99% of all abortions are had out of convenience.

>Imagine thinking this is a good thing. Advocating for allowing children to become completely fucked up mentally and physically is disgusting.

>Great job, liberals! Another win! Ending lives is what liberals love.

>Exactly. Veganism is a virtue signalling cult.

>Hate Speech is any speech someone doesn't like. Basically meaning you can be jailed for literally saying anything someone doesn't like. That's how fucking stupid these laws are.

>Tell that to all the useless morons who wouldn't work when the whole world becomes Socialist...

> That's why Trump won black awards for helping inner city communities.",fj1d551,falcon5768,pa2de
"I'm aware. It doesn't make the facts any less true, though.",The-large-snek,4nidsc76,fj1aver,"Not racist, just misinterpreted. People like to say that black-on-black crime accounts for 90% of violence against African Americans as if that’s unique to them. Turns out it’s the same for other races, including white folks. Here’s the data: 

https://ucr.fbi.gov/crime-in-the-u.s/2016/crime-in-the-u.s.-2016/tables/expanded-homicide-data-table-3.xls",fj1ad4a,Matt_McT,6tmz7
Facts are racist I guess. Lmao,The-large-snek,4nidsc76,fj19ua2,oh here we go,fj18c33,westcampuswhiskey,hv3rv
Lol. Imagine thinking taxes save the environment,The-large-snek,4nidsc76,fj0ausi,"Slap taxes on things that take up public space and harm the enviroment and climate. Public spaces are a limited resource (just look at parking spaces and traffic in big cities) if you use them you should pay for them. Same goes for enviroment and climate. It belongs to all of us, if you damage it you should compensate the rest of us. Taxes are a good way to do it if they are used for greener alternatives.",fj09gtx,Steve_the_Stevedore,8zzep
They usually all are. I've seen 100 unit condo buildings with unbranded Chinese equipment - no warranty paperwork or user manuals were provided to anyone.,The-large-snek,4nidsc76,fiximxj,"Your builder is a moron or a con-man, potentially both.",fixhixa,trees138,gjsh3
Lowest I've seen is 35 for a ductless,The-large-snek,4nidsc76,fi40wdx,"That’s nothing, another tech posted a 50 micron they pulled in 30 minutes on a ductless system. That’s the one to beat.",fi3qzvl,RemindMeToBlink,in4z8ro
"I thought car racing was the most hardcore conservative sport next to hunting, wtf?",The-large-snek,4nidsc76,fhrak8o,"You all should see the salt flowing from the liberal NASCAR fans on twitter. They are losing their shit about this. I didn't realize there were so many never Trumpers in NASCAR either, kinda shocked me.",fhr8214,LazyAte,h2xge
It's a Muslim shithole tho,The-large-snek,4nidsc76,fhr74jm,"Blistering heat all year round, work for your money and pay no taxes, an exceptionally low crime rate, progressive af with its natural energy goals,  close to both Europe *and* Asia, and incredibly culturally diverse. It’s a pretty good deal!",fhr5jm1,MonkeyOnYourMomsBack,mo0hp
Literal fun coupons,The-large-snek,4nidsc76,fhr1dow,"Speaking of fun with money; ever heard about Steve Wozniak's crazy billionaire habit?

The Woz buys uncut $100 bill sheets from the mint, and has them cut into stacks as perforated tear-off sheets, like Post-it notes.  Then he goes to Vegas and spends a pad a day.",fhqh7ct,ryusoma,7fiul
"Nope. Good luck to the retard who tries that. If the fucktard homeowner wants to save some money, that's on him",The-large-snek,4nidsc76,fhq58l8,I wonder if we could get sued for giving advice here on the sub?,fhpsnmb,Marvin2021,5j0g5bet
Every nurse I've met says differently. Interesting.,The-large-snek,4nidsc76,fhmiatr,"Don't change the argument.

The fact that most abortions are out of convenience isn't an argument in favor of late term abortions since most abortions aren't late term to begin with. That was the argument at hand - late term abortions, not abortions in general.

Late term abortions aren't generally carried out unless medically necessary to do so to save the life of the mother.",fhm3fqj,Mr__Pocket,2s4gumfr
Simp,The-large-snek,4nidsc76,fhlsetm,You have none,fhlqg6k,AssCrackBanditHunter,eufac
"Lol, no. Find a nurse in real life and they'll tell you differently. 99% of all abortions are had out of convenience.",The-large-snek,4nidsc76,fhlrlat,"Late term abortions are used as a last resort to save the life of the mother.  Imagine being intellectually dishonest enough to take it out of context and using it to bully people.  Oh, i guess you dont have to.....",fhlfw8p,boobymcbubblebutt,c94jk
Imagine thinking late term abortions are fine and thinking people against them are the animals. lOgIc,The-large-snek,4nidsc76,fhl6lua,"It’s really off-putting and almost scary how delusional some people can be. I just can’t imagine living life without an ounce of self-awareness, it’s insane.",fhkoh8a,1000cocklover-,53zhjw1o
Pasture raised beef is carbon neutral. Imagine having a wife that tells you to stop eating beef for feel-good points.,The-large-snek,4nidsc76,fhl54ad,"Even just doing something small, like cutting out beef from your regular diet, is a good first step.  Beef is one of the most resource intensive protein sources to produce.

My husband and I just stopped buying it as part of our weekly groceries, filling in the gap with another fish.  Now a good steak becomes a rare treat and something worthy of splurging on, instead of a common thing.",fhl47v2,katarh,rcz3v
Not all of us meat eaters feel bad about existing and value our lives as less than a pig.,The-large-snek,4nidsc76,fhl34le,"People who want to eat meat without having to feel bad? I already eat some soy meat and it's close enough for me. I'd love to see more choices out there.

Edit: Industrial farming is mostly where my guilt comes from. Plus if I can eat without harming animals, what could be better?",fhkx3of,melzhas,qsfb3
Probably because he worked hard to get where he's at.,The-large-snek,4nidsc76,fhenidr,"Working class. Didn't go to college, worked his way up from janitor, and his current salary is $155k, which isn't much for NYC.",fhekrx4,pbntm2,3qnqfogd
Arabs have been paying money for possession of people for thousands of years.,The-large-snek,4nidsc76,fhbgaik,"I mean that's the total opposite. Now you're asking why a husband pays to acquire his wife, not the other way around.

I don't know why Arabs do it the other way around.

Wives came with dowries generally because they were regarded as a financial burden, so her family sent her with assets. This was either regarded as a straight up payment made, or an early issuing of the daughter's part of the family inheritance, since she'd generally be regarded as ""joining"" the husband's family on marriage.",fhb17eq,PoachTWC,h22xa
It's native men killing them. Life on the reservations is hell. Everybody gets molested and everyone is addicted to drugs and alcohol.,The-large-snek,4nidsc76,fhaezyy,"I had to look it up, but there's this:

>Native American women have the highest rates of violent crime victimization, more than double that of other racial groups.[51] In the violent acts committed against Native women, Native American women are more likely to have injuries that require medical attention than crimes committed against other races. They are also more likely to face an armed assailant than female victims of violent acts of other races.[52] On a number of Native American reservations Native Women are murdered at a rate representing ten times the national average. Violent crime rates over all on Native American reservations are 2.5 times the national average while some individual reservations reach 20 times the national average of violent crime.[52]

https://en.m.wikipedia.org/wiki/Native_Americans_and_reservation_inequality#Violence_against_Native_women

Goddamn tragedy.",fh9zdwt,SteveKingIsANazi,3zqnj7p2
"Ahh, yes. I'd love to see a long term study of theae transitions. Nobody should be altering their body in any fashion until 18 years of age.",The-large-snek,4nidsc76,fhacjmz,"It's proven that transitioning lowers suicide rates. Kids can also not transition until they're older.

Also, the irony in your last statement is through the roof, considering all the shit Republicans have done to make life harder for anyone but the rich.",fhabozj,Muisverriey,qz0hw
Exactly. Veganism is a virtue signalling cult.,The-large-snek,4nidsc76,fh8z4z5,"It's just funny to me that you'd tell an omnivore to stop eating meat.

Why doesn't anyone tell all the bears to cut down on their meat intake and eat more berries?",fh8vid7,The_Tydar,l0qtn
Yet you constantly reply to my comments. Sounds like you're a liberal cuck. Go spend more time with your gross liberal wife instead of on Reddit.,The-large-snek,4nidsc76,fh85j8v,"Grown man, happily married and independently wealthy*

FTFY, you bitter loser.

Also, 100% of people who call others ""cucks"" exclusively watch cuckolding porn. Pornhub knows all about your secret desires, gimp boy.",fh82vab,Corvus_Clanculum,1fdej9n
It's true. Redditors on average are all liberal sissies. You suggest someone does a trade and all you get in response in excuses as to why they can't.,The-large-snek,4nidsc76,fh7zahq,Lol @ cucks. Nice one. You really got em’,fh7hxov,Techsupport_Banana,40ytjdyc
Says the kid making minimum wage. Imagine being such a cuck that you keep commenting on someone else's comments. Hahaha,The-large-snek,4nidsc76,fh7z4kv,You still don't have the freedom to find a date though. Die mad and alone.,fh7o200,Corvus_Clanculum,1fdej9n
We're installing one this upcoming summer. We quoted around 30k originally to install about 5 indoor units and a VRF. The walls are too thin for ductwork and there's no basement.,The-large-snek,4nidsc76,fh7ypnn,"That's a hard question to answer without any details.

Either choice is going to serve you better than a window unit though.

Some Air Handlers/Furnaces come with CFM settings to adjust how much air you're moving through the system. If your ducts are too small, you can adjust the settings to work better with the smaller duct. If you start forcing too much air into smaller ducts, you'll freeze the coil or over heat the furnace.

When we install mini-splits it's usually for an addition, or for a section of the house that isn't getting heated/cooled well. I've never seen a whole house mini-split system, I know they exist, I've just never installed one.

/u/vim_for_life called it correctly though, start calling around to get quotes. Feel free to stop back here with the quotes to get more advice. Just make sure you bring as much information as you can.",fh7uym2,DoctorWhoToYou,5ybr0
It's skilled labour. The alternative is paying someone $65ph to do skilled HVAC work. I love these cucks downvoting me lmao.,The-large-snek,4nidsc76,fh6sgk6,"Yeah, that’s how you get Boeing. Easier to hire someone cheap to do the manual labor tbh.",fh6qtlg,Techsupport_Banana,40ytjdyc
Now outsource that work.,The-large-snek,4nidsc76,fh6mp72,Cool. I make 75$ programming software and get breaks and work 7 hour days lol.,fh6lr0n,Techsupport_Banana,40ytjdyc
Doubt all you want. I make $50ph self employed. The motivation to do it is there.,The-large-snek,4nidsc76,fh6du5n,Doubt it.,fh648r8,Techsupport_Banana,40ytjdyc
"I work 14 hour shifts with no break while doing hard labour lol, who cares.",The-large-snek,4nidsc76,fh62n6h,"Damn, no breaks for 9 hours, that's rough bud.",fh5qled,colonelcadaver,ygjp0
They have the freedom to not be a bitch tho,The-large-snek,4nidsc76,fh61zuw,"Of course not. You have utter freedom to think whatever you want. Hell, you can even say whatever you want, in general. When you start addressing specific people directly, and personally harassing them, then *you* are infringing *their* freedom by a greater degree than your own freedom is hurt by telling you to shut it.",fh5zhdh,Tylendal,p86dk
I don't care lmao. I shouldn't be prosecuted for wrongthink is all.,The-large-snek,4nidsc76,fh5milt,"I mean, clearly you do care, because you're quite obsessed with what people have in their pants, as opposed to what you see initially.",fh5kxkb,Tylendal,p86dk
No. Psychopathy can be inherited or learned.,The-large-snek,4nidsc76,fh56x4q,"I have bad news for you. Psychopaths are often created. They are not just born that way.


You should be screening the parents.",fh4oy57,BanditaIncognita,2a6c5q5g
Democrats would love this!,The-large-snek,4nidsc76,fh56osr,Good luck psychologically assessing a fetus,fh4nr9e,daenewyr,e5vg6
"Yeah, no. Being transgender is a mental illness. The government of Canada had it listed as such only up until a few years ago.",The-large-snek,4nidsc76,fh4gs2c,"http://www.euro.who.int/en/health-topics/health-determinants/gender/gender-definitions/whoeurope-brief-transgender-health-in-the-context-of-icd-11

it’s not tho, it’s the same as being gay.",fh4deik,funkyvengence,16pd2d9e
"Funny. I have native and Indian friends and both would think you're fucked if you told them you're trans. 

Natives are more homophobic and transphobic than anyone else. Same with Indians. Try telling your Indian parents you're trans. You'll be disowned. You stupid uncultured fools really think minorities believe in this shit. It's hilarious.",The-large-snek,4nidsc76,fh4cmkt,The Indian subcontinent has recognized more than 2 genders for over 2000 years (see Hijra). Native Americans also had more than 2 genders. This is by no means something new or exclusive to Western Europe and it’s colonial descendants.,fh4bgy9,fifrein,kuass
"They do, and the human rights tribunal that decides on cases is full of ugly blue-haired bob-cut feminists.",The-large-snek,4nidsc76,fh4b2wx,">Because these crybabies get special treatment for nothing.

Forgive me if I'm wrong, but anti-harrasment laws exist in Canada, no?",fh3nh8v,StuStutterKing,ksizo
I don't follow stupid social sciences for a reason lmao. This is why I like being friends with real scientists. 😉,The-large-snek,4nidsc76,fh4aplr,"A male is born with a dick. That is the biology part. Man and woman are terms that historically have meant many different things across many different countries, which is why they are defined by the fields of sociology, anthropology, and psychology - not biology.",fh3t3ob,fifrein,kuass
"You can't define it other than if it hurts your feelings. The fact is, everyone has different feelings.",The-large-snek,4nidsc76,fh4a5ca,"How are you defining hate speech?

I would argue there is such a thing as speech that is meant to generate hate. The problem is defining it.",fh3kjp5,yarsir,12lbxy
Funny. Only in the western world does the concept of 50+ genders exist.,The-large-snek,4nidsc76,fh49w2v,"History is liberal nonsense now? Neat. 

Maybe grab a biology book that's not in fourth grade level.",fh3jcuz,GenderGambler,rfxkn
"Guidelines that are vague af. Just like Canada's human rights tribunal, if it offends any of the social justice warriors on the panel then it's offensive. Absolutely stupid.",The-large-snek,4nidsc76,fh49q2r,"Switzerland disagrees, and already has guidelines in place detailing what is and isn't. This law would simply add gay people to the list of demographics you can't target.",fh3i7f9,BoomShalashaska,x5bdo
"I would find it pretty fucking weird, but I wouldn't stop talking to them. 

Being transgender is a mental illness, so I don't doubt ths prevalence of other mental health issues.",The-large-snek,4nidsc76,fh49ek0,"yeah i’m one of those “cry babies.”

i am afraid that one of these days, someone is going to lynch me because they think i’m the devil and no one is going to help me. 

what would you do if your child was trans? your parent? best friend? boss? significant other?

any of them could be transgender, and they’re stealth/you either don’t know it or they don’t wanna tell you out of fear. also that 43% y’all like to quote, is people that weren’t supported. transgender people are usually pretty ok on mental health when people don’t actually tell them they should die.",fh3iv2i,funkyvengence,16pd2d9e
According to liberals. Lol. Gender is derived from sex. There's only 2 genders.,The-large-snek,4nidsc76,fh3ht2i,"Gender is not sex. Those are separate concepts, and modern biology recognize this. 

It's not a modern phenomenon, either. Plenty of ancient civilizations have displayed behavior that exemplified the separation of gender and sex and plenty of individuals have shown gender non-conforming behavior that points to them being transgender (among which, a transgender man who fought in the Confederate war)",fh3h5op,GenderGambler,rfxkn
Because these crybabies get special treatment for nothing. It's ironic because other minorities are more likely to be homophobic to them anyways.,The-large-snek,4nidsc76,fh3hc5m,"all of the homophobes were saying the exact same things when gay and lesbian people were getting their rights. so now it’s the transphobes. nothing we can say will change your mind so the rest of the world will leave you behind. 

inb4 you say “bUt mEn iN wOmEn’S bAtHrOoMs” i agree, men shouldnt go in the womens bathroom, why don’t we get rid of gendered bathrooms anyways, we should just have gender-neutral bathrooms.",fh3gdqt,funkyvengence,16pd2d9e
A man is born with a dick. That trans opponent is a man. It's not a difficult concept. These useless members of society spend their entire lives bitching and crying about people not giving in to their mental illness. Guess what? Most people don't give a fuck that you dress like a woman and change your name.,The-large-snek,4nidsc76,fh3gssc,">I don’t get to have someone arrested when they hurt my feelings

Neither do transgender individuals. But as a society we strive to prevent hate crimes, and that applies to all groups of minorities. 

>The transgender person in the story is biologically male. 

And nobody argues against that. What you are failing to understand is that “male” and “female” are biology terms, whereas “man” and “woman” are not.",fh3ecgd,fifrein,kuass
"Some people choose not to accept that you can physically change your gender, because you can't.",The-large-snek,4nidsc76,fh3g9gy,"Here's some biology for you. Gender dysphoria is a real thing, and transitioning is a vastly superior form of treatment to harassment.",fh3ey97,Tylendal,p86dk
"I don't get to have someone arrested when they hurt my feelings.

The transgender person in the story is biologically a male. That's 100% true.",The-large-snek,4nidsc76,fh3cywl,">More rights 

And which rights do they have that you don’t? 

>Against biology

Biology doesn’t determine gender. It determines sex. Try reading a psychology, sociology, or anthropology textbook. Those are going to be the ones that discuss gender.",fh3bsgk,fifrein,kuass
"So? Everything on the flier was factually correct? That's more of a reason to be opposed to these laws.

So someone uses facts to make a point and they deserve to be prosecuted for doing so? Feelings are more important than facts nowadays I guess.",The-large-snek,4nidsc76,fh3asiz,"Your article doesn’t really back up your point, they went a lot further with personal attacks and flier distribution and their behavior in court. It’s not like they misgendered someone in a debate and got fined or arrested.",fh39wij,Merisuola,tun97
Sure is good that our own government is against biology. Gotta make sure the 1% of society has all their needs met and has more rights than the rest.,The-large-snek,4nidsc76,fh3aa1j,">A politician in Canada got fined $30,000 for calling a transgender opponent a man. 

Good.",fh391t6,Tylendal,p86dk
So we should go against biology to make a few special people happy and give in to their opinions? Lol,The-large-snek,4nidsc76,fh39vx2,"I don’t need to. The courts will.

> A Canadian politician was fined for calling a transgender opponent a man. So unless you're ""woke"" then I guess you should be prosecuted.

No, because it’s not “woke” to refer to a transgender person by their chosen identity.

It’s just being a decent person.",fh39alv,Vulkan192,56mklow
"Thats ""discrimination """,The-large-snek,4nidsc76,fh38d0n,People like that should either get their shit together or be homeless.,fh37s17,EventuallyDone,3sda1jat
https://www.google.com/amp/s/vancouversun.com/news/local-news/anti-gay-activist-ordered-to-pay-55000-to-b-c-trans-activist-in-fight-over-hateful-flyer/amp,The-large-snek,4nidsc76,fh372vq,Source?,fh36497,Merisuola,tun97
"Define hate speech for me. It's literally ""speech someone might find offensive "" that's the problem with these laws. Someone having a bad day can find any comment offensive.

A Canadian politician was fined for calling a transgender opponent a man. So unless you're ""woke"" then I guess you should be prosecuted.",The-large-snek,4nidsc76,fh36odb,"Funnily enough, I didn’t call you a dick. Unless you’re saying you’re someone that goes around spewing hate speech at others because of their race/gender/sexuality.

And the courts decide, obviously.",fh34gem,Vulkan192,56mklow
I think you comment is hate speech. Good thing you don't live in Switzerland.,The-large-snek,4nidsc76,fh363w2,I’m sorry people nowadays are calling you out for being a shitty person. I hope your feelings are okay.,fh34ogu,Merisuola,tun97
"A Canadian politician was fined $30,000 for calling a transgender opponent a man... it is a fucking joke.",The-large-snek,4nidsc76,fh35wbq,"Nah, they’re great. And despite what Jordan Peterson might have told you, people aren’t getting arrested for misgendering people.",fh354mw,Merisuola,tun97
"Treatment in Canada is free... so what's your point now? If you live in a western country, you literally have no excuses for anything. You can do anything you want if you put your mind to it.",The-large-snek,4nidsc76,fh3590a,"I'm betting it's just gonna be, ""well I *chose* to spend my money on treatment instead of more drugs, and anyone who doesn't is a lazy piece of trash!"" while ignoring that his treatment costs more than most of his fellow addicts would have available to spend, and that it would drive them into deep debt if they took out a loan to pay for it.",fh2lkwr,Saith_Cassus,g8qug
Hate Speech is any speech someone doesn't like. Basically meaning you can be jailed for literally saying anything someone doesn't like. That's how fucking stupid these laws are.,The-large-snek,4nidsc76,fh34fqz,">hate speech doesn't exist

You really just want to say the gamer word, huh?",fh33c1t,SeeShark,gh08j
Who decides what constitutes being a dick? Maybe I just took offence to you calling me a dick? Should you be arrested now?,The-large-snek,4nidsc76,fh347ic,"No they’re not. 

It’s a tragedy that we had to enshrine “Don’t be a dick to people because of their race/gender/sexuality”.  But people will be people.",fh33m3a,Vulkan192,56mklow
"Who decides what's a joke or not? Hate speech laws are subjective as fuck. 

A politician in Canada got fined $30,000 for calling a transgender opponent a man. Hate speech laws are as useful as laws that filter the internet. A super small minority gets upset that someone has a different opinion and cry until they get their way.",The-large-snek,4nidsc76,fh33zdq,That is still excessive as it treads the line of what is a joke and what is not. This might be just my view on it if more people disagree in an election I am more then happy to give in which is how it should be.,fh2yxte,BorderKeeper,fsrnk
Where? It's not covered in this article. It seems pretty damn vague to me. The same laws exist in Canada and they're a fucking joke.,The-large-snek,4nidsc76,fh336n0,No. Why don’t you actually read the law?,fh3295l,Vulkan192,56mklow
What's the line? What if I compliment a gay on their clothing and they they get offended? What if I make a gay joke to someone who doesn't like jokes? I guess I'll just go to jail because someone has a bad day. Hate speech doesn't exist.,The-large-snek,4nidsc76,fh32i3g,"It is always obvious, if someone says that about you and you think ok, i can handle that comment, but others maybe not. Positive comment//funny gay joke//gay joke you would not say in front of a gay person//THE LINE //bad or evil gay joke//hate speech towards someone",fh2zorj,TheExile7,144wt9
What counts as mean? Will I be arrested when someone in Switzerland gets upset that I call them gay?,The-large-snek,4nidsc76,fh320d4,"No it isn’t, stop being a moron.",fh2xpun,Vulkan192,56mklow
Says the vegan. A literal cuck is trying to talk shit. Lmao,The-large-snek,4nidsc76,fgrteui,"Lol, this explains a lot about the rest of your posts and why girls dump you.

I pity you.",fgrsxii,oblone,3wyoh7wb
You're fucking stupid. Lmao.,The-large-snek,4nidsc76,fgpx1l5,"The Russian empire in 1916 was a semi-feudal agrarian society. Under a planned economy they became the #2 world power by 1945, achieving an industrialisation process in 30 years that took Britain a century, while at the same time shouldering the most devastating conflict in world history, moving their entire industry eastward to the Urals, literally packing up entire factories and destroying vast swathes of infrastructure, as well as shaking off the chaos of a revolution and the subsequent capitalist backed civil war that followed. That's not fantasy, that's a matter of public record. It was achieved without any computerisation whatsoever, just sheer human organisation.

Think that's a fluke? In 1916 China was 100% a feudal society, splintered into bickering cliques and preyed on by indutrialised imperialist empires. There was absolutely no industry whatsoever, not even an early industrial base like the USSR inherited from the Russian Empire with Leningrad linked to the Baltic. In 100 years they have become the #2 world power, and are projected to overtake the United States under several metrics, some projecting it will occur as early as this year. They've managed this by essentially operating a dual system still ultimately under the control of the state, with just enough leeway to allow normalised trade relations with the US, which would have otherwise strangled their trade in an effort to stamp out the parallel communist economic system, as they did with Cuba and Venezuela. They're slated to make the full transition to what they consider a Marxist-Leninist definition of socialism by 2050. This isn't a fantasy either; this is also a matter of public record.",fgpp5qo,Shaggy0291,1cohwc70
"Because it downgrades any achievement by highlighting the fact that they're female.

Imagine the idea that not all women are morons and don't openly celebrate accomplishments of others just because they share a vagina. Spend years getting a Phd and becoming an astronaut, but the news only highlights your genitals as your accomplishment? Kinda of a joke.",The-large-snek,4nidsc76,fgpo06d,"A lot of guys don't get why gender is important here.  I used to agree with that view but then I had kids.  It turns out they my boy is naturally more inspired by men and my daughter is naturally more inspired by women.  If they watched Toy Story my daughter l wants to be Jessie and my boy wants to be Woody.

&#x200B;

As long as everyone is being given a fair shot I don't see a problem with celebrating these types of events.",fgpm3yn,DewDurtTea,lllnl
"Tell that to all the useless morons who wouldn't work when the whole world becomes Socialist...

Star Trek is a fantasy because all the people in it still work, that wouldn't happen in the real world.",The-large-snek,4nidsc76,fgpnmig,"It kind of upsets me seeing stuff like this because you take a look around at all the things going on in politics in order to prop up the capitalist establishment and then you just think of all the work we *could* be doing to advance human spaceflight instead. If we could just move past this antiquated economic system we could be putting Earth's natural and human resources to work on solving the big problems of our time; we could face up to climate change, we could end hunger and want, we could reach out for the stars and build new wonders to bring a sense of splendour back to this universe that's being made ever more existentially sad by the blind and rampant fumbling we're made to do for just a drop more profit. We were all meant for so much more than this.",fgpkeif,Shaggy0291,1cohwc70
That's why everyone should vote for Trump again. Don't want any corrupt useless lifelong politician to become president.,The-large-snek,4nidsc76,fgosf6f,"If you believe it’s too late and we can no longer change it, you’ve already defeated yourself.

We have the chance now to elect someone that will lead the charge. The deck will continue to be stacked against us more and more, we need to stop this now.

Just trying to change the defeated narrative here on reddit, as someone did for me earlier today. Many nations are relentlessly and repeatedly oppressed and the corruption runs much deeper than here.

We just aren’t accustomed to having to worry about our institutions’ stability and our freedoms threatened, so it’s new territory and easy to feel helpless. 

If you can’t donate, volunteer, talk to whoever will listen, etc, just make sure you vote. It counts. 

And if you see someone else feeling defeated, or speaking in absolutes, feel free to just give them a little nudge. If we don’t believe we can change it, we can’t. 

Never know who needs to hear it or who it will impact, like I needed to.",fgorsn3,ajmartin527,uncp9
Nice. You're racist as fuck.,The-large-snek,4nidsc76,fgos0af,"Probably because being black and a conservative is fucking stupid and self-defeating. Even if you are successful, you are ensuring that your descendants and others of the same race and background continue to suffer.",fgonk1m,BTFF12,57wyqpjt
"As am I, moron. Lmao. Classic liberal cuck.",The-large-snek,4nidsc76,fgo13hy,"At least they're getting dates.

Gotta suck knowing you'll be alone forever.",fgnw4l2,Corvus_Clanculum,1fdej9n
"Only 15% of emissions are produced from farming lol. I bet you use a car and a smartphone and use electricity produced by fossil fuels. All of those things contribute much much more than the 15% from eating meat. You vegans are so hard pressed to be right about something. You have mental issues.

Annoying vegans lmao. Go volunteer to help children or some shit, virtue signalling cucks.",The-large-snek,4nidsc76,fgmsz9u,"And I’m sure everybody consumes grass fed beef, yeah ? I assume you check every place you go to eat to also ? 
I wonder how much of the beef that is sold worldwide is grass fed beef with no emission.

Anyway how is that useless ? I provided you with facts that you can verify yourself, if you chose to do nothing, not only you are not helping, you are part of the problem.

And how is it related to veganism only ? Co2 emission affect everyone regardless of your or mine political and ethical views, and this is a hard fact.",fgmqiy6,oblone,3wyoh7wb
"All my comments are politically charged, so that's all you have to go from. 

Must suck being so weak minded that facts hurt you.",The-large-snek,4nidsc76,fgmsc8d,"Hide behind your political beliefs all you want, they're not the reason you're an asshole.",fgmqpb5,justveryslightlymad,qvz7c
"Grass fed beef that are raised off the land are actually carbon neutral. If you took 5 seconds to Google that before your useless vegan rant, you'd know that.",The-large-snek,4nidsc76,fgmig9m,"It is not a matter of being woke, of all the food produced by the food industry, red meat is the one that produces the most co2 emissions, and we are not talking about a bit more, compared to some other foods the emission can be even 1000% more.
Every other type of meat follows.


To add on top of that, we have a lot more farmland as opposed to forests, because most of the vegetables we produce we use for raising cattle, for our meat and dairy consumption.

So we are also missing out forests that could capture co2.

In USA only 27% of the vegetables produced goes to human consumption, most of the rest is used for cattle, think about how much waste is involved.

You care about the problem ? Then stop being a little bitch and do something about it, you vote with your wallet.",fglgb44,oblone,3wyoh7wb
"Ahh, yes. The retarded liberal women I've gone on dates with? Maybe if conservative women existed in my city, everything would be dandy.",The-large-snek,4nidsc76,fgmhqh5,"What's to refute? Even the women in your life cant stand to be around you.

I'll trust their judgement.",fglm7xn,Corvus_Clanculum,1fdej9n
"No doubt. Funny how all these children can call me an asshole, but none of them bother to refute my comments that make me a supposed asshole.",The-large-snek,4nidsc76,fglg0qf,"I with you on that, people often allow for their emotions to control judgement instead of seeing things for how they are.",fgl8is3,ixlHD,ar7e1
"Funny, I'm an asshole when my political viewpoints don't align with yours. Love the useless reddit hivemind, ""you're an asshole because your political views are opposite of mine"". Nice.",The-large-snek,4nidsc76,fglfyju,You're just a garden variety asshole. Feel free to romanticize it though,fgl8zjt,justveryslightlymad,qvz7c
"Any liberal will find my factual comments to be ""rude""",The-large-snek,4nidsc76,fgl55ak,"Based on your other comments, you're probably just an asshole who has deluded themself into thinking their shittiness is actually something out of their control.",fgl4wq4,Corvus_Clanculum,1fdej9n
"I'd rather castrate myself than force myself to be vegan to be ""woke"".",The-large-snek,4nidsc76,fgl2o1m,"That's a disturbing thing to say to someone, violent tendencies?",fgl2785,Drouzen,i0spy
"I'm quite sure I'm a sociopath/psychopath, but I'm aware of the negative consequences of my actions. I think I inherited this trait because my father is extremely successful but cares about none of his actions unless they hinder him, and I never grew up with him around so I don't believe it was learned.

There's no reason for me to commit crimes or hurt anyone because I know how it feels and don't wish to see any consequences of my actions. I believe I've learned empathy over the years, because I cared about none of my actions growing up - unless they had negative consequences.

You're right though. I spend everyday longing for love, but love to me is more of a convenience to help me through life. All I want from a woman is to give me affection and to motivate me to succeed. If I have no need for those traits in the moment, then that person doesn't benefit me in my mind.",The-large-snek,4nidsc76,fgl2jj8,"My stepson is a mini sociopath raised by a narcissist. It's not that he doesn't care, he lacks the ability to care. It's weird watching him fake being human.

He knows how and when to say and to the right things but that's only to get what he wants. At the end of the day it's a sad existence. These type of individuals don't experience true happiness unless at the expense of others.",fgkyw8h,SnatchAddict,a15gz
Might as well castrate yourself instead.,The-large-snek,4nidsc76,fgl1nzk,"""stop eating meat""
Lol
You're funny",fgkh52u,The_Tydar,l0qtn
I'm sorry you advocate for illegal to stay in your country on your dime.,The-large-snek,4nidsc76,fgjh6ig,"Well yea, it's like the US, getting in, *and sticking around,* legally is difficult. I have a couple friends from college that would love to move here from the EU but it's basically impossible unless they have a job lined up. 

For people without much to lose the best bet is sticking around illegally until you can get proper status.",fgj517n,SolomonG,68a66
"Imagine calling someone a rapist, yet they've never been found guilty of doing so. I bet you believe any woman who says anything bad about men as well.",The-large-snek,4nidsc76,fginmzt,"What is with the rapists in power and odd dicks? Donnie Boy with his lil' mushroom cap, Epstein with his bizarre egg-shaped dick (which I've read somewhere could be from excessive use of a penis pump, but can't confirm), and now Weinstein's... whatever the fuck that situation is.",fgi7167,CCDestroyer,5v138t
"Lol okay, tell that to the hundreds of thousands of illegals still living here after their visa expires. Or tell that to the parents of many immigrants who are too old to work and don't speak any English whatsoever and are just going to end up dying in Canada on our ""free"" healthcare, though they've never worked a non-cash job here.",The-large-snek,4nidsc76,fgimsba,They really aren't all welcome unless they're professionals we have a shortage of. Canada has a rather stringent immigration system.,fgilic5,9xInfinity,h4uwq
"You all make it sound difficult. Its not tough to spend 4 hours cooking once a week to meal prep for the week. Eat clean for 75% of your meals, eat whatever the fuck you want for the other 25% and you're set. Y'all motherfuckers are just lazy. Workout often and cook ONCE per week, it's not difficult.",The-large-snek,4nidsc76,fghm23s,"27. I’ve been into skincare for a long time and spend a lot of money on it because I want to look good when I’m old. I was more commenting on her face and skincare and not her body. You definitely still have to put in the work in the gym to keep a body like that at 50 and THAT is not easy, but it’s easier when you have a personal trainer, nutritionist, live in chef to cook you healthy meals, etc.",fgh9mdn,Brooklyn_Bunny,1402ca
She just works out a ton. The secret to longevity is fitness... people are too fat and lazy to admit it though.,The-large-snek,4nidsc76,fghlj1z,"It’s called being rich. It’s easy to look good at an older age when you have millions to spend on skincare like Botox, fillers,  the best dermatologists in the US, etc.",fgh4w9c,Brooklyn_Bunny,1402ca
