child_body,child_screen_name,child_user_id,child_tweet_id,parent_body,parent_tweet_id,parent_screen_name,parent_user_id
"Couldnt have said it any better, I've been itching to end my membership for a while as well",YourBoyFrodoge,12s3w1,fki6xuw,"Costco has always felt like shopping at the mall on Dec 23rd to me.  Impossible to find parking.  People running around like crazy to grab whatever they can, waiting an hour in line at the register and even then you end up spending $300 just to make it worthwhile.  I've not renewed my membership and have no plans to.",fki3gn7,RadA380,64dps
Amazing,YourBoyFrodoge,12s3w1,fki5w4s,[Something to raise your spirits](https://www.youtube.com/watch?v=wA4KS546rZo),fkhurba,Kooriki,oucpi
Cringe normie 💦🗿💦,YourBoyFrodoge,12s3w1,fki5co0,Nah mate im fine with :),fkhwhkr,nowihaveredditmemes,4y9oji3x
Holy shit haha,YourBoyFrodoge,12s3w1,fkfs5h7,Boomer remover,fkf7f79,Roge2005,4auddcrl
Chappie (2015),YourBoyFrodoge,12s3w1,fkb6ws6,What movie was it?,fkb6rez,RedditMaeastro,dpshuem
Someone needs to create a website where these people can hook up.,YourBoyFrodoge,12s3w1,fk6m9m5,The sad thing is you know there’s probably hundreds of niceguys that commented some bullshit like: “but they’re too busy going after some chad instead of a good guy”,fk5ooc4,zweig01,2ofjw6c7
Satire,YourBoyFrodoge,12s3w1,fk5mw1g,"Voting is now closed. With 7 votes, the community has decided that this post is **Satire**.

Vote totals:  

* **Satire**: 7 votes

* **Meta**: 2 votes

* **Cringe**: 1 votes



*I am a bot, and this action was performed automatically. Message the moderators if you have any questions.*",fk4edds,RoboSonichu,4zxwopo8
Satire,YourBoyFrodoge,12s3w1,fk5mob9,"Voting is now closed. With 7 votes, the community has decided that this post is **Satire**.

Vote totals:  

* **Satire**: 7 votes

* **Cringe**: 7 votes



*I am a bot, and this action was performed automatically. Message the moderators if you have any questions.*",fk4gm6q,RoboSonichu,4zxwopo8
Bro we have to rate cock through these crying times 😭😭😭😭😭😭,YourBoyFrodoge,12s3w1,fk4yxg0,"Haha and now all my classmates who watches PewDiePie will not stop talking about this subreddit, school's gonna be shit too 😔",fk4v7w7,ViriViri77,3e6cv3rx
This guy looks like he needs a twelve year old,YourBoyFrodoge,12s3w1,fk1zhbl,This guy looks like he needs some cereal,fk1fblz,powerzlo_,4ruezssl
"There isa waterpark in my city that I went to a few years ago that had a dryer for kids, I used it it's pretty awesome. Loud af though",YourBoyFrodoge,12s3w1,fk1wx9y,Why TF do we not get these for ourselves?,fk1larr,BrockAndaHardPlace,zznf2
Alright honey love ya 😳,YourBoyFrodoge,12s3w1,fjzmxk5,See you there tomorrow!,fjzf111,jordane46,15iekr
"Stfu retar 🤣🤣😂😂😂😂😂🤪🤪🤪🤪🇰🇵🇰🇵🇰🇵 

NTA 

S T U F F 👉🏿👉🏾👉🏽👉🏼👉🏻👉😳👈👈🏻👈🏼👈🏽👈🏾👈🏿 S T U F F",YourBoyFrodoge,12s3w1,fjzbm9d,this is the quality content I subscribe for,fjz2zwp,MARIYA_TAKEUCHI_RULZ,5jacmpp2
👉🏿👉🏾👉🏽👉🏼👉🏻👉😳👈👈🏻👈🏼👈🏽👈🏾👈🏿,YourBoyFrodoge,12s3w1,fjzb6u4,😳,fjyyvkc,Brans666,lhryp71
😳 bro wtf delete this,YourBoyFrodoge,12s3w1,fjyezsv,2020,fjy6hj9,NormalDooder,4lwvwsdn
Stupid bitch walked out on me for a fucking accountant,YourBoyFrodoge,12s3w1,fjvspcx,Somebody had a rough breakup,fjvsltl,John21903,52nuidkp
We are all meat bags waiting for our knives,YourBoyFrodoge,12s3w1,fjvsgzl,The way the skin flaps its so weird but interesting,fjvmkc9,John21903,52nuidkp
"It's a sad place to be in where you have to put ""/s"" at the end of that blatant bait",YourBoyFrodoge,12s3w1,fjvozc4,Sooooooo many people getting this mad at bait lmao fucking idiots,fjv2ekc,LAUGH100,5kgvucbm
#AAAAAGGGGGGHHHHHHH,YourBoyFrodoge,12s3w1,fjv5f5c,Okay  ☕️,fju48sg,LeoMarius,e021g
"It's the ""I've got mine, fuck you"" mentality",YourBoyFrodoge,12s3w1,fjuvz10,"This is the same as the guy convincing all of his children to vote trump who was immediately deported.

Or women that regret their abortions telling other women they can’t have them.

For me but not for thee.

I have only empathy for the wildlife that is destroyed by these hideous politics",fjsy9hv,Happy_face_caller,5q1o0e9y
I think he was set up,YourBoyFrodoge,12s3w1,fjuvqup,"What really got him arrested is the fact that there are bullet holes in the store worker, and yet he appeared to have a knife as a murder weapon. No one with that much raw power should be allowed free on the streets. 

*This must be the work of an enemy* [[Stand]] *user!!*",fjuu2u1,KEVIN_WALCH,g5g11
walter,YourBoyFrodoge,12s3w1,fjuu4t0,r/youngpeopleyoutube,fjt66ph,Geraminus,3mhh88wx
Bro no wtfffffd wauligi would never d o yhis 😨😨😨😨😨😱😱😱😱😱😭😭😭😭😭😭😭😭,YourBoyFrodoge,12s3w1,fju8oew,Waluigi has been banned from smash bros for commiting 23 acts of sexual misconduct,fjtjavu,Kamzooo,uh6o0ex
"I'm pretty sure the original image is pretty high quality, this one has been through the deep fryer a few times",YourBoyFrodoge,12s3w1,fjtl4in,I don’t even know how many times I’ve seen this before,fjti9vf,_Yukiteru-kun_,46cly48m
Man those heavy drug use subs made me depressed,YourBoyFrodoge,12s3w1,fjrpry5,The worst sub ever is still r/fuckingtweakers i really hate everyone who takes part in this sub,fjofs3c,VoidShaman25,4z6a1xiw
That's the real cringe here,YourBoyFrodoge,12s3w1,fjp3iaf,"""got paid""",fjogtvu,TurkeySandMitch,15wygt
I'm death,YourBoyFrodoge,12s3w1,fjocjr4,Try one hundred seconds,fjocgnr,richard_slyfox,6sa13
How about... I dont know... just not fucking the horse?,YourBoyFrodoge,12s3w1,fjnm3n8,Fencehopping isn't cool my man. Find other zoos and ask for permission. Don't just touch other people's horses.,fjnjlr4,RagingRoastbeef,81nnu
"God damn I got 41, 760 the second time I did it.",YourBoyFrodoge,12s3w1,fjkyz60,"Close. You're off by almost exactly 10,000 Courics. 47,454",fjklrqp,xSTSxZerglingOne,yntib
Man I cant wait until I get old and bitter so I can shit talk children lol,YourBoyFrodoge,12s3w1,fjkadow,"I don't think this really works for this sub. He doesn't think he is in the wrong generation. He's just complaining about genZ, a generation he isn't even a part of.",fjjykuh,Lenora_O,1p4gltar
"37,440",YourBoyFrodoge,12s3w1,fjka30t,How many Courics does 1800 Bezoses weigh?,fjk6qqk,FLHCv2,8tpuh
Sh9w your c9xk 😳🇰🇵,YourBoyFrodoge,12s3w1,fjjnz8u,She hit 👋👱🏿‍♀️the floor💦🙏🏻🚦😳👀,fjjmenp,chronic_dreamer01,2xuz3b96
I thought Uncle Sam was based off of Samuel Wilson,YourBoyFrodoge,12s3w1,fjjlgeo,"Well, Uncle Sam is Supposedly based off a real person as well.",fjj88za,MyParentsAre_Cousins,sv8qx
It's supposed to be him throwing his deceased wife's ashes lol,YourBoyFrodoge,12s3w1,fjgb8ir,I don't get it?????,fjga3s4,ArtGal94,zxb6t
O,YourBoyFrodoge,12s3w1,fjejlcl,N,fjeeheh,JuanitoBanditio,48wb6mrp
Oh lord....,YourBoyFrodoge,12s3w1,fjejjpu,Hey guys. Moon man here.,fjef2r7,charlietangomike,9vkl2
"Once you start venturing far enough into Canada, everything looks like Home Depot.",YourBoyFrodoge,12s3w1,fjeghy0,Why does this look like Home Depot to me?,fjamrfp,ballbusta-b,13fajf
How the fuck dude,YourBoyFrodoge,12s3w1,fjdtlg4,You rang?,fjdq50q,bumblebeebooty,3615pl8
Now that's the shit,YourBoyFrodoge,12s3w1,fjdsgk6,flat stanley be like,fjdk451,temporarystudentacc,22jv61ls
Begone satan,YourBoyFrodoge,12s3w1,fjdm7hc,"nope, cats do need meat for sure but dogs can get all the necessary amino acid and proteins they need without meat. canines have the ability to transform certain amino acids into others which let's them get all they need. I think itd be a lot of work and definetly more expensive, especially with a big dog, but its definetly possible to raise a dog healthily with no meat :)",fjdlmje,msc2008,4itue5iv
"It's quite ironic that calling others ""normie"" is now one the most normiest things a person can do",YourBoyFrodoge,12s3w1,fjd8nu1,"Is it gatekeeping to say that I think anyone who uses the word ""normie"" unironically has exactly zero opinions worth hearing?",fjd6va6,ChosenOfNyarlathotep,jnzpb
This is a detailers wet dream,YourBoyFrodoge,12s3w1,fjc97g6,The Detail Geek or Stauffer Garage are wringing their hands looking at this.,fjbzzoh,chasewhit2003,2pw1wpsb
Hooking a lot of fish with that unintentional bait,YourBoyFrodoge,12s3w1,fj9utwt,I’m guessing you didn’t click the link,fj9u1th,CytokineFlower,561nzusv
That's gotta be cool as fuck seeing your photographs out in the wild like that,YourBoyFrodoge,12s3w1,fj9j2eu,"Fun fact... I am the photographer of this image! This shoot was a loooong time ago, I think 2013?

Another fun fact, this shoot is a casualty (the only one) of a laptop getting water on the hard drive (not by me!) and losing the original images before they were backed up to CrashPlan. So I no longer have the original RAW files to revisit or re-edit the shoot :(. My backup situation is much stronger now. 

[iStock link](https://www.istockphoto.com/photo/doctor-meeting-with-mom-and-son-after-appointment-gm176686485-26459898)",fi3qtkg,adamkaz,8nqmu
"Yeah, I mean it has to show that they at least feel enough shame or embarrassment to delete their account.",YourBoyFrodoge,12s3w1,fj8l7b6,"Two points to add.

Suddenly becoming an art critic to discount their art is not gonna magically make the world better if they are being a jerk. Art is separate from the artist, and there is no such thing as “good or bad” art. 

Their age is stated as 17 that is still very young, this person obviously has growing to do, and I think pointing out their hypocrisy is a good way to punish this rude behavior, it will hopefully be a learning experience for them and they will adjust their behavior appropriately. There should be no need to make them a permanent target of hate.",fj8h49u,Woymalep_Yay,qc91u
"Their ego, its gotta be a lot easier to feel good about yourself and your work if you constantly shit talk others and their pieces.",YourBoyFrodoge,12s3w1,fj8kyv5,"what on earth makes someone, especially one who claims to be artist herself, say shit like that?",fj8fq5q,pia_82,2svkdwxf
We sure are a rambunctious youth,YourBoyFrodoge,12s3w1,fj6vzue,You kids. The game was originally called Pandemic back in the day,fj6vwda,TheCrypticSloth,3iku9bex
"Search up ""begpacking""",YourBoyFrodoge,12s3w1,fj6rhro,Is she a tourist asking for money? She doesn’t look Vietnamese but idk,fj6qg0t,Yumdoge41,2kslf029
Furry societal unrest,YourBoyFrodoge,12s3w1,fj63ful,Maybe they're just racist towards other species of furries.,fj5x950,Real_RaZoRaK,xw0xd
Someone has to manufacture the unnecessary outrage on the internet.,YourBoyFrodoge,12s3w1,fj5gcmx,Yup. Stopped reading at the lavender oil part. This is horseshit.,fj5fdw6,Jas_God,iqz17
I love old people lol,YourBoyFrodoge,12s3w1,fj5fjd4,I always love that car that goes by laying on its horn without a clue what's going on.,fj4dqi2,KJClangeddin,1perrjbq
"Yeah I've seen corded orbital Sanders go for 50ish where I live in canada, location matters",YourBoyFrodoge,12s3w1,fj40fao,wow those are expensive up north. I got mine for 40 usd from lowes about 53 cad,fj3zcfw,SurakiDK,7axbx
"Poor balancing, stumbling. That little bro has brain damage for sure",YourBoyFrodoge,12s3w1,fj36zfk,Didn’t he get any kind of brain damage or something? He looks beyond dizzy in that video. Glad it survived though.,fj33b54,lffg18,rjhajq4
My sides lol,YourBoyFrodoge,12s3w1,fj2vjh7,Good quality flags if they last more than a hundred years!,fj2rzqr,DasArchitect,h5gdh
"The peace tower flag is changed every weekday, and other flags weekly. Keeps the flags clean and is a cool little thing to do with the canadian public",YourBoyFrodoge,12s3w1,fj2vfh9,"I'm confused, why do they give away these flags? They do this instead of retiring them?",fj2tncz,Ziltoid_The_Nerd,4lmy7cvz
r/Sovereigncitizen,YourBoyFrodoge,12s3w1,fj2mmjk,"You’re right but it’s the damn American pride they think ‘ I don’t have to show him what’s in my hands’ I don’t have to give him my name
I don’t have to cooperate etc. it’s rather annoying",fj0y7dv,why_am_i_likethis,2mk54y2f
Hope she sees this bro,YourBoyFrodoge,12s3w1,fj2lg5k,I don’t blame any woman for not wanting to birth a male.,fj2cgqe,whispertojasmine,58d3s822
That's just the advertising for Vancouver,YourBoyFrodoge,12s3w1,fizq816,"reminds me of the clip with Poke when he's watching the yop commercial and then there's Jessie from Breaking Bad smoking crack OMEGALUL, if someone can link it I'm kinda lazy :)",fiza7v4,Postrigodon,157rhm
"HAHA mine has the exact same, maybe it's time to monitor my reddit usage habits",YourBoyFrodoge,12s3w1,fizkb5q,I recently noticed my galaxy 9 has the fuckin reddit save tab and 3 dots burned into the right hand corner somehow,fiypu1t,A_Third_Past_Four,27zef6b9
This is what it is. It's to coerce the customer to make a quick decision and choose items off the menu which are typically more pronounced as well as expensive.,YourBoyFrodoge,12s3w1,fixeqkb,it probably gets you to make snap decisions and keeps the line moving.,fixdkeh,intangibleTangelo,5283v2ci
"Sequential tightening, very important anytime you have a gasket between two flanges and you want to bolt something down evenly and safely minimizing damage to parts.",YourBoyFrodoge,12s3w1,fiq7fhc,"Ppe so you don’t get metal shavings in your eyes or skin, but yeah supposed to tighten ANYTHING in a crisscrossing pattern. Reason being is that the item and screws are tightened evenly",fiq31mg,Robo_Scorpions,3mxq88gt
Another runner in the night,YourBoyFrodoge,12s3w1,fip6wzk,Reeved up like a deuce,fi14lx0,GerpySlurpy,2qckndw6
Stop in the name of the law,YourBoyFrodoge,12s3w1,fimpoer,Put a nickel in there and... you know...,fimk875,Test0004,h7ekh
I have to ask is that like Korean laughing or am I retarded?,YourBoyFrodoge,12s3w1,fimp4iz,ㅋㅋ,fim6nun,itz_NoobJay,210o5kjj
POOLS CLOSED DUE TO AIDS,YourBoyFrodoge,12s3w1,fic18u5,Why is it closed again? I hear some kind of disease infected the water,fic02sv,EskilPotet,1rtiq7lg
A real visually beautiful game.,YourBoyFrodoge,12s3w1,fic0tse,"Firewatch.

The main theme of the game is about dealing with your problems. I was dealing with a lot of problems I couldn’t escape, and this game was an escape from everything. It gave me the ability to escape my own problems.
 
It was about a broken man to find peace from his responsibilities. The simplicity is the beauty of the game. The dialogue was so realistic and funny at times. It’s almost as if you would have been listening to an actual conversation between two real people. Lastly, it opened up my eyes in many different ways. It showed me the world can be beautiful despite everything else in the world.",fibtz19,VelvtThunder,278t2mso
"Yeah it's time is over, it was funny at the start, but it just hurts my soul at this point. It's one of those jokes that you hear over and over again that makes you want to drown whoever says it next.",YourBoyFrodoge,12s3w1,fgjlivz,The Karen shit is so cringey now dude,fgiawu3,superkickerjess,2jl7k5b9
"Dude always has that sinister look on him, like hes about to snatch a pie off the neighbours windowsill",YourBoyFrodoge,12s3w1,fge37id,They couldn't even find a decent photo of him. He looks like a creep!,fgdu4al,panda_deli_meats,4xz8cx6f
Tanos snap 😎👌,YourBoyFrodoge,12s3w1,fgdnwnw,"Idk, I thought the first movie was pretty good but I don't like how he died in Endgame",fgd60ni,MetalArbiter,35d3ad24
Why not both?,YourBoyFrodoge,12s3w1,fgdn8eu,Arsehole or mental illness?,fgdjhpm,BingoRingo2,11fujv
"Sounds like he's projecting some frustrations onto others, haha",YourBoyFrodoge,12s3w1,ff6t4d9,"Well this was unexpected. Not sure what to do with that, honestly.",ff4yejt,Acnat-,5ffsstq3
Canada does,YourBoyFrodoge,12s3w1,fejywd8,"Does every nation say this? I mean, we got it engraved on many, many memorials around the UK",fejc83a,jack93885,hb4yl
You're so brave,YourBoyFrodoge,12s3w1,fdfmdyy,"Look at what I've [found](https://i.imgur.com/UgFdYsE_d.jpg?maxwidth=640&shape=thumb&fidelity=medium)


Please upvote 100% positive, thx",fdffz6h,00049585847,2n58v45n
Just another sycophant to throw down the well,YourBoyFrodoge,12s3w1,fbddje0,It's fine if you wanna praise women but I legit hate this stupid man hating. What is he trying to prove ? Frickin creep,fbd37r7,blueblackzebra,44eokzcr
E,YourBoyFrodoge,12s3w1,fb8xqrq,N,fb8xhw9,MyDogYawns,mz7eiye
Eat my ass 🤬😎🤬😍😡😔🖕🤪👊😍😍😍😍😍😍🖕😄🙋‍♀️🤪🖕👍🙋‍♀️🖕😄🙋‍♀️🤪👊🤡💪🤢🙄🤡🤡🤡🤡🤡🤡🤡🤡🤡🤡🤡🤡🤡🤡🤡🤡🤡🤡🤡🤡🤡🤡🤡🤡🤡🤡🤡🤡,YourBoyFrodoge,12s3w1,fb0e58w,"Im from r/emojipolice and you are under arrest!

Cant people see a joke?!? Do i have to add a /s for all you morons to understand?",fb0cefw,dompam,2rkffw6j
"Knew it just from the paint haha, lovely boxes",YourBoyFrodoge,12s3w1,fad4053,Is that a Kennedy box?,facudql,g_shock211,4r10q6wf
"I mean, do we even really need lanes? 5 big boy chandeliers over vancouver should be adequate enough",YourBoyFrodoge,12s3w1,fad3v5m,We can’t afford that shit we got giant chandeliers to build,facskry,Bluebabydonkey,4zceahvl
"Not the easiest feat, but someone had to do it.",YourBoyFrodoge,12s3w1,f7koea9,Do you think someone out thrre jerked off to this?,f7kephb,Flzrian,4971k78u
Oof,YourBoyFrodoge,12s3w1,f79p2o1,If it was Native American in Canada it would’ve been missing,f76js83,Dexjain12,1o1ozv7w
"Exactly, everyone is guilty of this petty bullshit, OP just had to flex a bit",YourBoyFrodoge,12s3w1,f6w5qe4,"if i had a nickel for every time a pedestrian illegally plays ""beat the countdown"" and jaywalks against the flashing hand when traffic is trying to legally move in the few seconds it has to make turns at a light",f6vk6ep,Travis_Healy,11zh8j
Perhaps a 😳😳😳 or an 😱😱😱,YourBoyFrodoge,12s3w1,f6lnjo7,I wanted them to include 😰,f6k9jc9,Dsltech,jbzqu
"Most manufacturers do offer student discounts, they'll usually have a section on their website dedicated to info on it. Usually 30% to 50% off the regular price for a certain amount of years (2 to 4).",YourBoyFrodoge,12s3w1,f1xgz0u,"Some of the manufacturers do student discounts. My recommendation is tekton. Good quality, good prices, and they do student discounts.",f1wwy9y,helms66,23j9bn12
Random,YourBoyFrodoge,12s3w1,f1vz4wx,"# RANDOMETER: [██████████|98%]

Does this post belong in r/iamveryrandom? Please reply to this comment with either '**random**' or '**not random**'. (OP's vote doesn't count.)",f1tzdpv,iamveryrobotic,1vrry8ec
"And now since pretty much all the refineries in BC are gone, were returning the favor by going down into Washington for our cheap gas now haha",YourBoyFrodoge,12s3w1,f1gblud,My grandfather used to drive across the border from the US into BC because gas was half as much in Canada and the Canadian Gallon was 1.201 US gallons. Oh how times change.,f1g4vzu,Penelepillar,zi8cl
Disagree,YourBoyFrodoge,12s3w1,f15p5o7,"Do you **Agree** or **Disagree** with this opinion?

Please reply to this comment with either '*agree*' or '*disagree*'.

Because your vote is now personal, we wish to afford some anonymity to users, and so your votes will be automatically hidden by the AutoModerator, but they will still be counted.

#**Do not vote on your own submission, it will not be counted.**

Current Votes:

Total Votes|
:--|
1895|",f13jkos,UnpopularOpinionMods,3myo4c5f
Mediocre bait 4/10,YourBoyFrodoge,12s3w1,f15ewgu,"Slut shaming her? Christ you people are pathetic sexists. If you want to call her a piece of human garbage for betraying the trust of the guy she cheated on, and that she is a total piece of shit for hurting him like that, then no one would have an issue with it. Why slut shame though? Just hurting society even more by doing that.",f159f60,SendMeSushiPics,3hacq8bj
ARRRRRRRRROOOOOOOO SPEAK UP MFER I CANT HEAR YOUUUUUU,YourBoyFrodoge,12s3w1,f0743ic,Yeah stroke it guy!!!,f06gtoe,likesexonlycheaper,396fzhwx
Fits better in r/dankchristianmemes,YourBoyFrodoge,12s3w1,f067vds,Where else would I post it then?,f064ksn,NIXKZOFFICIAL,3tarh0sk
I mean hes technically right,YourBoyFrodoge,12s3w1,ezvgl73,anti-abortion people are pro forced labor,ezve6zy,ascii122,g8sig
"""A bit fake"" it's such an obvious troll, yet everyone seems to be lapping it up",YourBoyFrodoge,12s3w1,ezufp4a,"Seems a bit fake, ngl.",ezubzhu,NitroScrooge,2yjvd3m2
The sub really took the bait on this one.,YourBoyFrodoge,12s3w1,ezufk36,Looks pretty fake tbh,eztouge,RoboCastro1959,2rn75dk3
Reads like a 12 year old girl trying to get some attention. I dont understand how most of the subreddit is so fast to jump on this obvious bs,YourBoyFrodoge,12s3w1,ey28ny7,The way this is written sounds fake. And how do you know they're 29?,ey27vwn,mittenshape,12n8lu87
Literally reads like a shitty fanfic,YourBoyFrodoge,12s3w1,ey28kwz,This is up there for fakest posts I’ve ever read,ey1xwe7,chickenhead22,1fs0q1cj
"If worksafebc videos had a little more action, some might pay more attention to their safety videos haha",YourBoyFrodoge,12s3w1,ewwphau,"The logo of the company that made that video looks like the Pornhub logo, lmao.",eww02ao,namenotrick,1mxlsse
"Not surprising, most of the media absolutely despised Collins.",YourBoyFrodoge,12s3w1,euh8sov,"People, probably under the age of 35, forget how big Phil Collins was in the 80s. Up there with Michael Jackson",euh2ovy,SmellsLikeChurch,3cbudsv
Snaw wee,YourBoyFrodoge,12s3w1,ekwuuhd,Wee snaw,ekwsc9q,A_Interesting_Name_,3hzrufz8
"Yeah that vise will definitely need to be moved up a bit in the future, at least it's an easy fix though.",YourBoyFrodoge,12s3w1,ekm92om,"Curious, it's hard to tell from the photo: but is it mounted far enough out on the bench? Does the 'fixed' jaw hang out over the edge of the bench allowing long objects to be held vertical, extending down to the floor if necessary? I'm not familiar with that vise, but it looks like it might have a bottom 'stop' that butts back against the front bench top edge when mounted... hope my question makes sense.",ekm78fx,nullvoid88,i8mw0mg
"Well you do drink during a water fast, but just water. Shitty thing to do to a dog",YourBoyFrodoge,12s3w1,ejv627v,**very** excited not being able to drink!,ejv5yqs,-idrinkwater-,3i36ezu2
Could it be led lights?,YourBoyFrodoge,12s3w1,ejor12q,"definitely not, it's not common in this kind of buses",ejoqo7h,Disco-penguin,8finxv0
"You'd be surprised buddy, in Canada you can start driving at 14 if you live in Alberta.",YourBoyFrodoge,12s3w1,ed7pnw6,I think you need to be 18 to drive?,ed7aiiv,Lachy_Dachy,27ph7a9c
