child_body,child_screen_name,child_user_id,child_tweet_id,parent_body,parent_tweet_id,parent_screen_name,parent_user_id
"Canada, for simple minds. Since this guy still don’t post the country of origin.",zordon_rages,6pdo1,fkhsjez,"Vancouver, British Columbia.",fkhffz2,SeniorWumpo,4ecwxzl5
"Check gas stations/convenient stores/organic shops. People are some how forgetting these places. We’ve been stocked on toilet paper for a long time (not because of this virus, just cuz we buy a decent amount when they good stuff comes to the $.99 store) but we can’t find water anywhere. Went to 7/11 and they had gallons and packs stocked. Seems like people are having a one track mind and forget that other places sell these things",zordon_rages,6pdo1,fkhpykw,"I've been to three stores in the area just today. I also started my last roll of TP today. Guess who couldn't find a single fucking pack of toilet paper?

Baby-Wipes, wet wipes of all description were also out, I also tried gas-station, I'm in Germany, I've never seen a home improvement store carry paper towels or toilet paper and bidets seem yucky to me. I have been able to acquire paper towels and tissues though, so I'll make it till monday at the very least and see if the stores haven't restocked some TP then. 

Thanks for all the recommendations, but I can't answer individually anymore, due to the sheer volume and my having better things to do.",fkh6jgu,nimmalt,mwxkj
Got em,zordon_rages,6pdo1,fkc3pgd,lmfao,fkc3jz8,SpacieCowboy,1lluakj0
"My dad had a tattoo removed from his right inner forearm. It was a topless lady that took up the whole space. Well it was expensive af and also worse than any lain he said he’s ever voluntarily put himself thru. They basically just burn off layers of skin until the tattoo is removed. It takes a long time, a lot of money, and a lot of pain tolerance.",zordon_rages,6pdo1,fk7wrya,I hear it's not fun. But it's gotta feel nice to have a lot of yourself back from a regretful past.,fk7jly0,TheRealIosefka,3l7c0byw
You know nothing but speak as if you know everything. Ignorance.,zordon_rages,6pdo1,fk7vooe,I didn't say don't mourn. I said mourn the life they lived for a short time.  Watch videos of them alive. Look at photos. Chat with loved ones about their life. We aren't baboons. Humans hanging out with dead bodies is not healthy.,fk7ulau,Llanos31,y8j7r2j
They use the word expensive because they make it expensive to match what they say.,zordon_rages,6pdo1,fk7uwox,I was told insurance wouldn't cover it because it's not necessary. And they used the word expensive. Not sure the actual cost,fk7hjm9,Trollz4fun,9vrio8c
I’m still tryna figure out where the hell Isaiah is,zordon_rages,6pdo1,fk6ptzi,Two school boy q albums before a new K.dot album?,fk3tpz1,Frankiedrunkie,16c78j
"Dude this is crazy I was trying to figure out forever how to save it and then I saw it said it was unofficial. It’s also up as a podcast. I’ve never seen that, crazy. I downloaded it tho, thanks man",zordon_rages,6pdo1,fk6pfmf,https://open.spotify.com/playlist/1i7EmcGor4yhBnM9UY7TbB?si=9sANlhBnSs-lCjBSLZkkSg,fk6gnw3,indecisiveasheck,4ikt187y
"I just didn’t know that as a thing in general. I figured if something asks me to save a reply there shouldn’t be an extra step to make sure it doesn’t delete with the next update. Just seems like a weird thing especially for casual players who probably don’t keep up with that kind of info. Save should mean just that, save it until I delete it haha",zordon_rages,6pdo1,fk4wz2l,it makes sense since the replays are saved as inputs instead of videos because it takes up less space,fk4wnjh,Mate_Nan,1kjfr67z
"Oh wow that’s lame. I wish I knew that, what a fucking terrible feature.",zordon_rages,6pdo1,fk4wgu2,every update where balance changes happen your replays get deleted unless they are made into videos,fk4wa6b,Mate_Nan,1kjfr67z
"For me it’s side B with DDD and up B with Incineroar. 

One time on Hyrule Bridge with Incineroar, I was second to last front the left, my buddy was last on the left and was Villager. Immediately up B when the timer went out and got a one hit KO in the first second, he went flying to the left immediately. I have never seen it happen before or since. We were all in disbelief. It may have been solely because of how close to the left side we were, only thing I can think of. My friend was peeved 😂

I saved it but for some reason all my saved videos got erased. Not even just that one but all of my smash videos. I was really sad, still don’t know how it happened. I do wish I could prove this.",zordon_rages,6pdo1,fk4vtac,"Can confirm. I don't spam during the match, but the first move has to be crown :) like in Donkey Kong Country 1",fk48di9,Aytrone,3wo1vwcu
"You say that, but....


https://www.instagram.com/p/B8jyci8Jrkg/?igshid=1tngkrxpt7jbk",zordon_rages,6pdo1,fk1erss,Those are the final two sperm fighting it out to fertilize the egg,fk0d9tk,pinkguyfriedrice,31qzihit
"I used to work at Chuck E Cheese and I was second in charge game room when main boss wasn’t there. I broke a $600 piece of glass, the same glass, twice, and i think within 6 months too. I thought for sure I’d be fired. Not even close to this cost of a fuck up but a 19 year old me was shitting bricks when I broke that second one 😂",zordon_rages,6pdo1,fjwlfjg,"Wait hold up, $200k+ lost product and the driver isn't fired? Who's responsible for the loss?

Edit: Sometimes I hate making semi-popular comments because I get a lot of notifications and feel the need to clarify something. I'm not saying anyone should be fired, simply that the OP referred to the guy not being fired when that is often a way that a company shifts blame for losses. I'm aware that insurance is a thing, and that not-shit companies would see it as a better trained employee.",fjwf5pw,DaelinD93,hbeoa
That or a question. Questions work a lot too because it gives the lady something to go off of rather than something lame like “hey!” Which they get 100 times a day,zordon_rages,6pdo1,fjnih0r,"Always start the conversation with something that is at least a bit amusing for you, a comment about her bio, about her pic, something you think it's funny or interesting, etc.  


You'll either build some bond and talk about engaging stuff that might lead to a date/fuck or she'll completely ignore it and you'll avoid having these boring conversations.",fjn28z5,Shallasa,55wawvda
"I think what your missing is this doesn’t have to do with other people or just being alone. It’s about staying occupied, afraid to sit in a quiet room because thoughts race when you have nothing to keep you occupied. People are afraid of their own thoughts because they are afraid what they might find. This comment is about constantly having to stay occupied because if you stop and just think, we’ll what you find you might not like. This is different than just being alone and watching TV, because then your still technically occupied and not really letting your mind wander.",zordon_rages,6pdo1,fjlils5,"Naw dude I love being alone fuck people lmao. I feel loneliest around others. There’s only a few people in my life I feel are actually there when I interact with them.

I think it’s different for each person. I think about how miserable life can be with most other people around me and being alone is a quiet reprieve where I can do things and think about things that matter to me. I know I’m not the only one either because some of my friends feel a similar way.

People are different and that’s okay.",fjl0qhm,Calfredie01,12i61u
"Tbh I’m not 100% sure because I’m not an artist and don’t know technique so let me try and say without any knowledge really. 

I think parts of it still look drawn, like I don’t know how to make that go away. Especially the lower handle part of the spoon. I think it could be the pencil marks themselves. Perhaps pen would be better? The shadow also looks a little off too. 

That’s not to say that it’s bad by any means, and I think one day you could do truu photorealism, just keep at it. I like your use of white to create shine, it looks correct. This is great, but not quite totally there yet because I can clearly tell it’s pencil as soon as I looked at it.",zordon_rages,6pdo1,fjhlcy5,What could I do to make it more photorealistic?,fjhau3y,DeNNis_N2O,7528508
"Go look at his posts, he’s not that great, in fact I don’t even think this spoon is that special. It’s nice and he has a lot of talent,  it’s not photorealistic. He said he almost cried while drawing this lmao come on. 

Now I read this and I didn’t even realize he posted this in this sub lol I thought I was on r/drawing or something",zordon_rages,6pdo1,fjh8co9,"It's good, but posting your own drawing in this sub is cringey as fuck, there are so many perfectly fine subs to post in, why make yourself look like a smug narcissist by choosing this one?",fjgtbu3,Muscar,41j8u
This one works tho,zordon_rages,6pdo1,fjh7hvh,"Well, Fufuckck you too.",fjh7ga4,GuybrushThreepwo0d,zjs2uaf
Your being downvoted but I can easily tell it’s drawn. It’s really freakin good but totally a drawing.,zordon_rages,6pdo1,fjh76by,"Uh, hate to break it to you.. it loos like a drawing in the photo, lol.  No-one's gonna think that's a real spoon.

Correction: no-one with a brain.",fjgs6s0,9inety9ine,9bowt
It’s so dumb when people break up one word to put “fuck” in the middle. It always feels so forced,zordon_rages,6pdo1,fjh7148,I don’t even understand how you’ve done this but bra-fuckin’-o. For the rest of my living days I’d never be able to do something this good,fjgkedp,DevilInTheHat,1uzzila9
Lol I guess we all just out here being assholes. Didn’t even see that,zordon_rages,6pdo1,fjedbbq,http://reddit.com/r/UpliftingNews/comments/fculoe/no_more_active_bushfires_in_new_south_wales_after/fjds3hi *his* true self?,fjdx6lk,buzz120,86745
Yeah it was a really weird exchange of comments. He seemed genuine at first and then slowly started showing his truu self lol,zordon_rages,6pdo1,fjdu3f7,I thought he pretty clearly had an agenda from the outset and was putting on the “I want to learn” line for whatever reason.,fjdt18h,jimmypesto10,g85f8
"Didn’t really seem like he was tho. Your perception is your reality, so think what you want, but from an outside third party point of view, your the one being off putting here. 

Under normal circumstances I’d be inclined to agree with you, everyone should feel heard, and people should listen and try and understand each other. I’m just saying, from me reading this exchange, you may not feel it, but you came off as the pretentious one here. Again, if you don’t think that, that’s ok, or maybe you’ll grow from some criticism. The way you were going all about this wrong, there was better ways to get info without doing it the way you did it. It’s like you were being genuine at first and slowly started to get more and more idk, sharky. Like you were laying bait for what you wanted to say next. Just my opinion man.",zordon_rages,6pdo1,fjdram5,"When I’m answered by people who are pretentious enough to talk down to me, why should I value their opinion?",fjdqddb,OfCourseIKnowHim,njffu
"It’s 100% the way you are going about this. You can be curious without being an ass or pretending to be stupid. Just ask questions man, you don’t need to be pretentious while doing it.",zordon_rages,6pdo1,fjdq7kt,"Could be both.  But I’m willing to be educated by people who have facts rather than ideas, which (including mine) are all bullshit.

Edit:   Also, I haven’t paid any attention to usernames, so if I’ve trampled anyone or ignored anyone, I offer sincere apologies.",fjdpwk7,OfCourseIKnowHim,njffu
"At first I was reading this chain of comments and I thought you were dense, but now I just see you’re an ass lmao maybe a dense asshole",zordon_rages,6pdo1,fjdpqx9,"Land management, which I alluded to earlier, prevents this kind of shit from happening.  What are you missing?

These fires don’t happen *ex nihilo*.  They are *caused*.",fjdp73y,OfCourseIKnowHim,njffu
"Hey buddy, your link doesn’t work!",zordon_rages,6pdo1,fjcjh0t,"I make videos on this. Its basically my life.

https://youtu.be/uobTInpatm

PM me and I can give you some 'secret spots'

Take care.",fjabwwo,wgthevdMan,5paldcqm
"I will do this, thanks! I definitely plan to make this happen on a week day for sure",zordon_rages,6pdo1,fjb37rv,"Download the All Trails app. Super useful in finding trails that are near you with mileage and elevation information! If your schedule allows, try to go out on a weekday to avoid the weekend warrior crowds.",fjarztq,deannaclaire,3m4xugz2
Wow man thanks! I’m at work rn but I’ll check this out later today,zordon_rages,6pdo1,fjb33dn,"I make videos on this. Its basically my life.

https://youtu.be/uobTInpatm

PM me and I can give you some 'secret spots'

Take care.",fjabwwo,wgthevdMan,5paldcqm
I’ve been there with friends but never alone. This might be the spot. I just don’t know where to go in crestline 🤔,zordon_rages,6pdo1,fj98nmm,Crestline!,fj8yiod,GraciousGabby,j0f1l
"My dad used to work there and took us a few times as kids, nice place",zordon_rages,6pdo1,fj98mj1,The botanical gardens at UCR are really nice and open to the public.,fj8u1dv,Turiisrad,c1k54
Not alone.  I have something like that planned later this month with my brother. We’re going to Joshua tree to drop acid,zordon_rages,6pdo1,fj98l7u,"You’re gonna do psychedelics in nature, aren’t you?",fj8xh30,AntiLumpenProle,1jaqeldr
"I have been here with friends, nice place for sure!",zordon_rages,6pdo1,fj98jm7,Oak Glen is one of my favorite places in the world. Swing by Los Rios Ranchos for some delicious food. They’ve got some hiking trails to meander around and a little park with some picnic tables as well,fj80e42,po1aroidz,3iv4b7b2
Thanks!,zordon_rages,6pdo1,fj98ich,There’s a fisherman’s trail that leads to Bear Creek. Search Bear Creek Campground in Angeles Oaks and you can see where the road meets the highway. Its really peaceful and secluded.,fj81bur,thebknowsall,gbc38
"Thanks, didn’t think anoint a place like this",zordon_rages,6pdo1,fj98hw3,"You can check out the Rancho Santa Ana Botanical Garden in Claremont. It's $10 to get in, but it is usually quiet and has lots of area to walk. There are benches scattered through the grounds where you can sit. Www.rsabg.org if youre interested. Also theres a place across the street, Wolfe's Deli. Really good sandwiches there if you want to have lunch before or after.",fj807ib,subiewoo89,2s40x4ju
Where do you get a trail pass?,zordon_rages,6pdo1,fj98h7p,"There are nice hicking trails in the Crestline, Blue Jay, Lake Arrowhead area. Trail maps are available online. Make sure to purchase an Adventure Pass to park at the trailhead and not get ticketed.",fj97gd1,ClutterKitty,r1l1qvx
Your whole human that you are bringing into this world could easily be the reason it changes for the better. All you can hope for is that your offspring will strive to be better than you were.,zordon_rages,6pdo1,fj8xa49,I’m currently 8.5 months pregnant. I was on a line in McDonald a week ago and this person (who looked homeless) in front of me silently asked the cashier “hey I haven’t had anything in 2 days. Can I have any left over you have? But I can’t pay for it.” The cashier then asked the manager and the manager said no. He went ahead and checked all the trash cans. I bought a couple more food and gave it to him and he broke down crying. I went inside my car and started crying too. I can’t believe I’m bringing a whole human to this nasty nasty world.,fj8qtsp,HowDidIGetHerewoopss,4uhdrf5m
Joshua is the one place I do know.  Actually going there with some friends for my bday later this month. Never heard of the other one tho! Any good trails to recommend?,zordon_rages,6pdo1,fj7zxaw,"Angeles National Forest, Joshua Tree National Park",fj7ze14,charclub700,3rhah6zj
"If you think this is possible in one weekend, you’ve never done a puzzle 😂",zordon_rages,6pdo1,fj2o7t1,"I was thinking you guys had a crazy weekend.  14months!? How did you move around the house? I assume it was stuck there for the duration, or was it moveable?",fj1m33p,hollandkt,9ai5z
"It’s crazy cuz I realize the show isn’t amazing or anywhere near the top of my list of shows, but I just enjoy watching it. It’s just a fun watch I think, some seasons have been better than other but I have enjoyed most of the series. It’s like a guilty pleasure",zordon_rages,6pdo1,fivwpvh,Gonna disagree with the other reply and say you should stick to only seeing 2 seasons. For me it was all downhill from there.,fiuk24y,wallfacer_luo,13sccl43
What no one realizes is it took you an hour to think of this,zordon_rages,6pdo1,fivlwyy,"Well my girlfriend just said ""clown meat is what you have between your legs"" so I guess it goes both ways",fitvyfj,DarkVadek,a2zfk
Don’t we all tho?,zordon_rages,6pdo1,finiwhr,"Maybe he really hates his father too.

Those two statements aren't mutually exclusive",fimvjyc,testiclekid,fyqk9lp
Except we don’t truly know that,zordon_rages,6pdo1,finakw7,But this post is about a *man* using a cancer patient’s photos to lie about women wanting men to shave their beards because facial hair is apparently offensive?,fin9w5q,ranchojasper,wy7ya
"I mean, I’m not talking about women as a whole. There’s tons of crazy people out there. So I’m my opinion, it stands to reason that there could be some woman out there who carries those beliefs and tries to lie and con her thoughts to get people on board. To me this is more believable than the notion of a man trying to push this agenda, which is what everyone else is suggesting. Clearly someone believes this! 

You say there isn’t an agenda for that, yet this post is proof that someone out there truly does believe this and tried to push it by lying. Why not a woman? Why is that so unbelievable? I think everyone thinks I’m probably some sexist from my comment seeing how much I was downvoted, but all I’m doing is looking at it from another angle. It could have been anyone who lied and posted this, and to me, based off the contents of the comment itself, it’s more likely a woman write this because it’s crazier to me that a man would think that of his own accord. 

None of us know for sure yet for someone everyone hates my guess which I put honest thought into. If that guess offends everyone maybe it’s someone with alopecia universalis. Do you get me now?",zordon_rages,6pdo1,fimb01t,"There isn’t an agenda to get men to shave their beards based on some idea that having facial hair is sexist, though.",fik5k38,ranchojasper,wy7ya
Could have just as easily been a woman trying to push her agenda,zordon_rages,6pdo1,fik584p,"And it's such a weirdly specific lie as well, what was he even thinking",fijp642,ARealFool,nxjeq
Dude I came a long way down to find this. I don’t even have a PC or use steam but that MF is Gabe Newell redneck incarnate,zordon_rages,6pdo1,ficjuad,Gabe Newell is doing well...,fic0cud,JSquared072_,5lvisjy2
And tell them why.,zordon_rages,6pdo1,fic2loh,I'd find a new office. I'm a hygienist and I rarely make my patients wait for more than 5 min,fibby7k,pooter-doots,46wq9bz
Sounds like an over generalization of cons. I don’t go often but I’ve never experienced what your expectations seem to suggestion and maybe if you actually got out you might see that.,zordon_rages,6pdo1,fi3zm37,"I heartily enjoy a handful of anime/manga series but can't bring myself to go to a con or anything along those lines, because I know even if there's some fun to be had, you have to wade through the sea of smelly people carrying body pillows to get there. same thing with smash, would love to go to a tourney but no fucking way am I hanging around a hotel convention center with those people for hours

I wish it was more acceptable to publicly shame them",fi3r64y,Hey--Ya,4u94be1u
"Looks like a water tower far in the distance with tree branches much closer to the camera crossing paths, to me anyways.",zordon_rages,6pdo1,fi33jif,Is that a silver robot in the background?,fi2rtbw,gypsybulldog,132137
Literally just finished the show for the first time yesterday and damn are you wrong af. That show moved me more than I ever thought it could,zordon_rages,6pdo1,fhjsfsp,Naruto is not worthy of that phrase,fhjh5s2,OwenPope,4ipaqtem
I saw them open for Kali Uchis and that is still one of my favorite shows to this day. These guys know how to put on a goddamn show.,zordon_rages,6pdo1,fhisuwm,"Saw them play this when they opened for the roots a couple months ago, such a fucking groove. 10/10 would recommend seeing them live",fhi45sn,shoecat,86ph3
Dude you should seriously use a filter list to skip that shit. I literally just finished Shippūden for the first time like 20 mins ago and I gotta do it’s by far and away one of my favorite shows but I think I would have gone insane watching all the filler. That war arc is fucking long and I can’t even imagine with all the filler.,zordon_rages,6pdo1,fhh19u4,"I watched all of OG Naruto in like a week. Im now 3 seasons into Shippuden. Even after 12 seasons in like 2 weeks, I still have another couple hundred episodes to go. Its crazy.",fhf8ncs,RepFame,5ae9k22d
"https://www.benjaminlcorey.com/could-american-evangelicals-spot-the-antichrist-heres-the-biblical-predictions/

Check this out. Some of those are pretty descriptive and hard for anyone to fit the bill. Yes, some are vague like you say, but wow is it scary how much of those definitely are not vague.",zordon_rages,6pdo1,fh3y89v,"> Man, I legit thought Bush II was the Antichrist in college

The key to prophecy is to make them vague enough to be applied to basically anyone, meaning they'll technically be right *eventually*.",fh2jxue,Kellosian,lus3g
"This really isn’t truu tho. I do think it is a question that should be asked early on, but people enter open relationships all the time.",zordon_rages,6pdo1,fg705h1,My son's GF told him she wanted an open relationship.  I told him that anyone who wants an open relationship is already having one.,fg6jx7t,NeverCallMeFifi,f0q8k
One of them was,zordon_rages,6pdo1,ffnylqr,"Apparently they weren’t thank goodness

EDIT: WOJ confirmed that his 13 year old daughter Gianna was on the helicopter with him. Absolutely terrible.",ffnoi1a,RidgeLove,3gfpkbg
"My dad made me do circles backwards around a planter in extra long bed pick up truck in an empty parking lot. Only thing I could hit was a brick wall but when your doing circles backwards for the first time shit gets hard to control and you get flipped in your head when you start to panic and your dad just keeps yelling in your ear about being careful. Then you remember in all the chaos there is a break pedal and maybe, just maybe you should have used it.",zordon_rages,6pdo1,ff6ljah,The way the dad responded is perfect. He was so patient and kind. He didn’t yell. That’s a good dad right there.,ff5ye6u,adhdandwingingit,5d56jyr7
"When you have to atone for your sins in Dark Souls. 

*SHUDDERS*",zordon_rages,6pdo1,ff6brze,"Me starting my evil playthrough: *Does Evil*

Crying NPC:  Why would you do this? I trusted you

Me: *Restarts game to atone for my sins*",ff5zkjx,AllergicToStabWounds,14598g
Best guess is religion,zordon_rages,6pdo1,ff582x5,"What the fuck is going on why are they spinning? Why is kayne wearing a cloak? Why is the horse there? Wtf 
Thanks",ff4h3g8,Hejejeben,43vivq3b
No it doesn’t. At least not legally. They can’t garnish your wages like that,zordon_rages,6pdo1,fefdgbt,People like that are dicks because that money probably had to come out of the poor kids wages.,feewwn5,ShipSam,wnbh9ed
He got 6 months for that punch,zordon_rages,6pdo1,fedxeb6,"In the Halls of Justice, sometimes justice is found in the halls",fedhrs8,soxpatsbruinsfan1975,28nkdc6f
"Yeah, stupid kinds do that too. Happens all the time. Doesn’t change my comment.",zordon_rages,6pdo1,fed420l,"Drink driving is about as ""one stupid thing"" as pointing a loaded gun at someone.",fed409x,TrueDivision,e1q3w
"Before I start off, I have no clue who this guy was, I don’t know if it was a habit and he truly didn’t care, or if it was a one time thing, I don’t know but Imagine being a teenager and making one stupid decision that kills your sister and her friends. People do dumb things when they get drunk, ranging from saying stupid things you wouldn’t say sober to cheating on your lover to driving drunk. I know because I’ve been a stupid teenager and driven drunk myself. I regret it. A lot. I don’t even drink now, but I did as a teenager. I probably would kill myself if I did this, I wouldn’t be able to handle the guilt. What I’m saying is we are human, and we make mistakes, even life ending ones (see Iranian plane that was shot down). This man feels probably everything you are wishing upon him, and more, he probably wants death if he hasn’t killed himself already, but there is something deeply disturbing about how you are wishing this upon him. Perhaps you have been affected by a drunk driver, maybe someone you know was killed by one, I’m sorry if that has happened to you but it’s still so jarring to read a comment like this. So cold. I’m not trying to defend drunk drivers, but humans are complex, especially teenagers with little to no real life experience. Your invincible when you are a teenager, you feel like you are bigger than life and can do anything. Alcohol doesn’t make things any better. I’m not trying to start a fight, I guess I’m just trying to get you to see the other side of the coin.",zordon_rages,6pdo1,fed2vvo,"You're right, he should have killed himself instead.",feczyrm,TrueDivision,e1q3w
"Before I start off, I have no clue who this guy was, I don’t know if it was a habit and he truly didn’t care, or if it was a one time thing, I don’t know but Imagine being a teenager and making one stupid decision that kills your sister and her friends. People do dumb things when they get drunk, ranging from saying stupid things you wouldn’t say sober to cheating on your lover to driving drunk. I know because I’ve been a stupid teenager and driven drunk myself. I regret it. A lot. I don’t even drink now, but I did as a teenager. I probably would kill myself if I did this, I wouldn’t be able to handle the guilt. What I’m saying is we are human, and we make mistakes, even life ending ones (see Iranian plane that was shot down). This man feels probably everything you are wishing upon him, and more, he probably wants death if he hasn’t killed himself already, but there is something deeply disturbing about how you are wishing this upon him. Perhaps you have been affected by a drunk driver, maybe someone you know was killed by one, I’m sorry if that has happened to you but it’s still so jarring to read a comment like this, especially your last few words. So cold. I’m not trying to defend drunk drivers, but humans are complex, especially teenagers with little to no real life experience. Your invincible when you are a teenager, you feel like you are bigger than life and can do anything. Alcohol doesn’t make things any better. I’m not trying to start a fight, I guess I’m just trying to get you to see the other side of the coin.",zordon_rages,6pdo1,fed2paz,"They didn't HAVE to die, he killed them, as a result, he got what he deserved, as in whatever guilt and pain he suffers for the rest of his miserable worthless life",fed05of,MeaninglessFester,48wk92gt
That’s fucked up my man. You sound like someone who doesn’t understand humans.,zordon_rages,6pdo1,fed1xeb,"Play shit games win shit prizes, the sister and her friends were victims but the driver 110% got what he deserved, I hope the guilt crushes him",fecyvga,MeaninglessFester,48wk92gt
Ahh that explains it. Same state that keeps Moscow Mitch in Congress,zordon_rages,6pdo1,feadhip,Kentucky,fe8en2z,HoochIsCraaaazy,jyirm
"Yeah this is my next step actually, I’ve already been on the hunt for one. I was mostly waiting for the holidays to be over. You are absolutely right and it’s what I’m trying to do. I have a friend who left trying to get me into his company so I’m hoping that pans out. Coupons are the kiss of death, they have flooded their own market and there is no going back.",zordon_rages,6pdo1,fe9e4au,"Bro, find a new restaurant. It sounds like you're at a shitty chain place. Go step up to casual fine dining. Menu prices are generally higher with less bullshit promos. Plus staff at places like that have a good balance of chill/competent. Your restaurant is giving away the kitchen at your expense because normal guests arent coming in. It's dying.",fe9c371,akhoe,do1yw
"Yes. Everyday I look up thru that window and feel nothing but anger towards everyone, corporate and the customer. Corporate for doing it, and the customers because most of them do not give a single shit and could careless if your struggling. They will look at that line that has been to the door all day, see how frantic everyone is, how stressed we all are and still tell us we are incompetent. Ive had employees cry, walk out, and just all around get flustered because of the customers being so rude. Coupons do not bring in your regular clientele. I love my regulars. Couponers can go to hell. Most of my issues lie with corporate, you are right, but seriously, the customers we get do not make it easy.",zordon_rages,6pdo1,fe9672z,you're blaming customers for company policy...,fe94u7y,MasterBettyFTW,3o9x6
"The place I work I just about wanna quit because of all the discounts we give out. They tell you not to give more than one per order but get mad when you get complaints. It seems like every weekend now everyone gets sent “Buy two or more entrees and everything drops down to $6 a piece” so they already be feeding a whole family for $24, then they wanna use rewards which is another $5 off, senior discount 10%, military discount 10%, mall employee discount 10%, and all fucking types of other bullshit like free sweets coupons, free soup, free coffee. All this bullshit makes us busy af because by the time these bastards are done ordering they went from a $40+ order to paying a little more than $15 some times. This means most people use there coupon even if there alone because then they can take shit home, and families who would normally never come in want to show up for coupons. It would be great for business if we could actually keep up, but it’s impossible. We get steamrolled because of how goddamn busy we are cuz we’re giving out free food and then Corp has the gull to tell us we need to be more efficient and takes hours away from us that we could be using to help us thru the chaos. I wanna die every weekend. Fuck couponers and people who fish for discounts and free shit.",zordon_rages,6pdo1,fe91mt4,"I don’t understand how some people think they are entitled to a discount. Even if I know a business offers a discount I don’t ask for it. If they ask if I’m in the military I’ll say yes and any discount they offer me I am grateful for, but veterans are not owed anything by a private business.",fe7se48,l3ubba,cu3kf
"Your missing the point. THEY ARE SAYING WORDS. I know they are not sentient in the fact that they don’t really understand what they are saying, but the sheer fact that they can vocalize like that is what gets me.

Also, it’s not always about a treat, they repeat words they like. They have favorite words and what not.",zordon_rages,6pdo1,fdyiqzh,"They aren't actually speaking. They're just mimicking the sounds and repeat behaviors that leads to them getting a treat.

The bird has no emotional connection to the owners.",fdyi5pq,EVOSexyBeast,hes0w
What you missed is when OP mentioned in another comment that her bird says “go potty” when he’s about to shit on your shirt,zordon_rages,6pdo1,fdxjopv,">	I swear tho the day he says “go potty” while sitting on my lap will be the day he finds a new home 😂

Yeah, can’t have a cat telling you when you should use the bathroom now can you",fdxawpz,the_dude_upvotes,b3kxb
"That’s awesome, I curse like a sailor so a cursing bird would be my new homie lmao 

I guess in a way my cat does speak to me, he definitely knows what’s up and how to get my attention. He has different squeaks, I don’t even think he meows that often tbh. I swear tho the day he says “go potty” while sitting on my lap will be the day he finds a new home 😂 

https://imgur.com/a/RTHA64U/

Cat tax!",zordon_rages,6pdo1,fdx1x6t,"My old cat used to speak to me.  Mostly screaming by her food bowl that she could see the bottom and so the rest of the food was not good enough. It is kinda wild working with parrots, you just have to be careful, because like a toddle they will repeat things you don't want them to (cursewords, etc) and then when you get bent out of shape about it they do it more.  A lot of rescue parrots happen because they curse badly so the original owner couldn't find a new home.   Ours has one bad habit (shit) and thankfully it is not even close to his favorite word cause we ignore him when he uses it.",fdx0ngw,KalisCoraven,b050o
"It’s so fucking wild knowing there’s animals that can speak to us, even if it limited. Like it’s just bonkers to think about lol I so wish my cat could do this, although I’d probably regret that wish hahaha",zordon_rages,6pdo1,fdwzx1r,"Nah, African Greys are very intelligent and they pick up words.  He asks for specific things that he wants all the time. He has a bell to ring for treats.  He asks for baths if he wants one.  He says ""go potty"" if he's standing on you and wants to poop (that one was a long time learning but so worth it.  Sometimes he still just says it and then poops on you though)   he says hello when we walk in the door, bye when we leave. I love you when we turn out the light for bed.  When the dog barks he says ""Stop"" cause that's what we do.  He's like having a toddler.  Limited vocab but he knows how to make use of it for things he wants.",fdww9ni,KalisCoraven,b050o
"Truu, just my personal anecdote.",zordon_rages,6pdo1,fdwto9r,"I had about 4 cavities as a kid and also needed deep cleanings. I just got 3 cavities filled earlier this week. I also used to have jacked up teeth and saw an orthodontist for about 6 years. I can see if you have to get a more invasive procedure done, you might not like them. But after reading this guy's comment I'm 90% sure most older people don't like dentists because the way they were trained to deal with children was absolutely horrifying",fdwsh3h,kpyna,nq60b
"I’m guessing you never had lots of mouth work done as a child. I can’t speak for anyone else but having your gums laser cut and teeth anchored down doesn’t necessarily create happy memories for me to enjoy the dentist. That’s just one procedure, I had tons of thing done all the way up to high school.",zordon_rages,6pdo1,fdwqvea,"I wonder if that's the problem. I was born in the 90s and I've never minded the dentist and I also haven't met too many people my age who hate the dentist. Even as a kid I never understood why kids hated the dentist and why there were so many tv shows about how scary the dentist is. I feel like most people I meet who avoid going out of fear are 40+ years old.

Whenever I listen to older people it's these horror stories about pulling teeth and practically being tortured. Mine was like, ""sit back in this chair and read the cartoons on the ceiling for 30 min""",fdw8bf8,kpyna,nq60b
I personally dislike the dentist because of having tons of mouth work done as a child. As an adult I much prefer going to see the doctor over the dentist. I don’t like medical tools in my mouth and I’ve had so much work done that it just kinda haunts you as a kid. So many nights of just pain and not being able to eat. There’s nothing worse than starving and not being able to eat because every bite is torture.,zordon_rages,6pdo1,fdwpnis,"I don't think so. Sitting in a chair without any control over what's being done to you by a guy with noisy and sharp, scary looking tools is pretty bad on it's own.",fdvmrzt,_MusicJunkie,qt9uw
"Maybe not on studio albums (even that is not truu, you just gotta dig deep) but the man fucking destroyed every live performance he ever had.  If you want some awesome performances from him just look up 1984 Birthday Show concert, 1988 Small Club show, and more recently the One Night Alone... The Aftershow. His guitar will melt your face off in some of those. Those concerts are phenomenal and some of my favorite shit in music.",zordon_rages,6pdo1,fdwi6io,I feel like Prince's absolute rock guitar mastery is often overlooked for other things like his aesthetic and weird persona. I guess it's maybe because a lot of his songs didn't hit you over the head with heavy guitar and were more rythym driven but dude had face melting chops.,fdw6d6e,sawbones84,4olh2
Hit or miss for me. I like some new shit coming out and other stuff just sounds really really lazy.,zordon_rages,6pdo1,fdszqy3,To be fair most new rappers are cheeks,fdsysnr,Killer-of-dead6-,v7fr5yx
I wouldn’t call it overt. He just said they got no charisma. Isn’t really a truu diss in my opinion. You can be a good rapper with no charisma,zordon_rages,6pdo1,fdsznyl,Subtly?,fdsw6je,SheenEstevezzz,1s8vlz8s
"Nah fam, I didn’t say all of them, I said a lot of them. You can be an old head and still like new hip hop. That’s why I was careful with my words.",zordon_rages,6pdo1,fdsden0,"I’ve been listening to hip hop, like real listening experience and comprehension for about 15 years now. And I love Kodak Black, Thug and Lil Baby too. So you might be wrong",fds82ir,Burlytown-20,38buozxd
"Oldheads are just people who have been listening to hip hop for a looong. I don’t think it’s an insulting term, it’s just that a lot of them don’t like new shit. So this guy above you is calling him an old head cuz he is subtly dissing new rappers.",zordon_rages,6pdo1,fds5xpk,"I’ve heard oldhead being mentioned a lot and 99% of the time it’s in a negative way, is it an insult?",fds5iok,Brown_Love,gzo3n
That shit looks terrifying,zordon_rages,6pdo1,fdqk8jc,"Maybe its similar to Urumi:  [https://www.youtube.com/watch?v=fMz\_Z0Xq-2I](https://www.youtube.com/watch?v=fMz_Z0Xq-2I)

Either way, I'm not looking to be slapped with one :P",fdqju9o,mightbedylan,9o0q1
It’s the internet bro.,zordon_rages,6pdo1,fdpp0qe,Is that allowed? I’ve always wondered if it’s ok to share content that’s out of print.,fd9xgx3,moogle32,1iciv2b
Two very valid reasons. I don’t go because they won’t give me my own parking spot.,zordon_rages,6pdo1,fdnfnh6,Fair enough. I don’t go because I don’t want to get molestered.,fdna5s3,SocraticIgnoramus,279wcnuf
"What we need to worry about is what Trump is gonna do now. Iran might not start the war but at this point our POSP (piece of shit president, more fitting than POTUS) just might be crazy enough to try and make it happen.",zordon_rages,6pdo1,fdj7mnx,Not trying to spur up some shit but how in the hell do you actually think millions will die from this? In all of the Iraq war plus the Afghanistan war just over a million people died as a result. There seems to be cooler heads ahead of this one. No one is going to war with anyone. The Iranian regime knows that an attack on any military/civilian asset will result in a regime change in their country. They do not want that. Iran will flex their muscles and nothing else. To do anything else would be incredibly stupid.,fdiskqf,ExtensiveFew,nsngb58
"Don’t understand how you could stay with her. Your brother ain’t goin no where, do you expect her to just be ok with him all of a sudden? If anything this will make her resent him more, she will see him as the reason she’s homeless. Which will just compound and ruin your relationship. 

I hate to be a downer but I’m just tryna give you an impartial opinion that ain’t gonna sugar coat things. Can you honestly see yourself marrying someone who calls your brother worthless because he spilled some milk?",zordon_rages,6pdo1,fdhbwua,Thanks. When our parents died I considered dropping out and finding a full time job to care for him. I still do somewhat regret not doing so to be honest. Putting him first now is a no brainer - I love him very much.,fdgyxs1,CivilIdeal5,5e4f5u7d
I think it’s more about what he’s doing for truly evil people. We can never truly undo what he has done even if he ain’t hitler.,zordon_rages,6pdo1,fdgzpcl,"Can people just stop being overly dramatic acting like Trump is the worst thing to ever happen to the world? It diminishes just how bad the evil people are and were. I don't personally like the guy but let's be real, he wouldn't make it on to any real list of the top million evil people. Same goes for equating him with Hitler. How can anyone put him remotely close to a genocidal mass murderer like Hitler?",fdglmgd,Iamlegend_future,4xqqatcd
"Works great at home for me, but then I go to work and can’t even fucking browse Reddit on my break. Really damn annoying",zordon_rages,6pdo1,fdg9tix,How long ago was that? In the last few years they have mostly eliminated the service gap that used to exist between them and ATT/Verizon.  I have a family plan and it’s about 1/3 cheaper than ATT.,fdfhrf6,yunus89115,4aquy
Just start doing heroin and get ripped. Simple solutions,zordon_rages,6pdo1,fdemndj,Thanks I don't wanna live anymore,fdehskz,PudliSegg,wyheo
I thought the same lol I think it’s unique but doesn’t do much for me art-wise,zordon_rages,6pdo1,fdem4q8,Looks like something a crackhead would decorate his house with.,fdeaf0i,Rageskill,5wsnk
https://imgur.com/gallery/Nm1dPzR,zordon_rages,6pdo1,fde863i,I’d love to see the bubble once it’s cooled,fddzj1j,scruffygem,157lpf
"https://imgur.com/a/5563hCN/

Just look at some of these fucking comments.  Scary shit.",zordon_rages,6pdo1,fde782v,"If you still have any thought about this deescalating, [here is Trump Jr. with a rifle with Christian crusader iconography](https://www.instagram.com/p/B67J4TTlnDn/?igshid=1j39pk6bsyztn) to clear that up for you.",fddpq7e,chromegreen,4mp23
"As foreign as it seems, this is honor for them.",zordon_rages,6pdo1,fd6d0gt,honor culture.  lol they blow up fucking kids. fuck hezbollah,fd5bu0v,Evil_surpent,17iot0
"They actually annoy the shit out of me lmao I can’t imagine how they thought it was a good idea for an “antagonist” 

They add nothing, absolutely nothing to the game.",zordon_rages,6pdo1,fd3wih4,"Thank you. They’re terrible and they aren’t technically antagonists. The only reason the story gets held up is because they’re fat, obnoxious and inconsiderately in the way all the time. Like they block entire roads on accident. They’re a huge waste of space and by far my least favorite thing about the new gen",fd3uodu,skee_ball,c1fpf
"That’s my problem with the game. I’m enjoying it enough to finish it but goddamn is it a step backwards. I everything about this game is shallow and less developed than the past hand held games. Sword was actually my first game since Black/White OG. I was not impressed at all.  It’s a watered down Pokemon game. There is little to no story and what is there is uninteresting, there’s no real antagonist, there’s like 3 rivals and I could care less about any of them, there’s no elite 4 (used to be an actual challenge), there is no after game content, the dialog is cringe worthy, the starters are the worst designs we’ve ever had (I do like grookey tho), you can’t walk around with your Pokemon, there no side legendaries or quests, they added lots of useless “upgrades,” it’s the easiest and shortest game we’ve ever had. I just expected so so so much more from the transition from hand held to console. There’s elements of the game which I love and wish they would have combined that with past games that we know we love. I was expecting Emerald/Soul Silver level of a game, they shouldn’t have given us anything less. 

I was talking to one of my employees and I mentioned this was my first game since Black/White and I was disappointed, she ended up bringing me her copy of Moon try out. I’m barely up to the first badge and this is already got a better feel to it. It even just looks and plays better and I’m only a couple hours in. Like I can’t understand how they could take this far of a step backwards. We deserve so much more as loyal fans. I’m still having fun, me and my roommate decided to start a nuzlocke and we’ve had more fun with that than just a normal play through. It makes it at least some what harder and more interesting. I guess we’ll just have to wait and see what this year brings.",zordon_rages,6pdo1,fd3ouc9,">if you can even call them that

That's what endears them to me. Part of me doesn't wonder if the whole devious power plant scheme was a later addition when they realised most people would find a straight up Pokemon sports league approach a little underwhelming as a concept. But I was digging that, for 90% of the story, the world wasn't at threat... we all just wanted to be... the very best.",fd3l4lw,Lessiarty,70gyn
"Team Yell is the worst “antagonist,” if you can even call them that, we have ever gotten in a Pokémon game.",zordon_rages,6pdo1,fd3kjrz,"Team Yell are the best antagonist team in Pokémon for me. They're not trying to take over the world or have any ridiculous schemes... They're just passionate, misguided ~~football~~ Pokémon hooligans.",fd3csmh,Lessiarty,70gyn
"Oh goodness, America is full of religious nuts. People want something to believe in, and there is always someone ready and waiting to capitalize on that.",zordon_rages,6pdo1,fd0wa93,"This is quite shocking to me as I grew up here in India idealizing the west, and believed that they are not superstitious and blind in faith at all.",fd0jadq,nikamsumeetofficial,yc28wbq
I’m paying into it and will probably never get it. What’s your next point?,zordon_rages,6pdo1,fcyy383,People pay into SS 40-50 years before they retire.,fcyjply,barbmalley,cskf9
America is just good enough for the people who are making it worse to say there is nothing wrong and we should be more patriotic.,zordon_rages,6pdo1,fcxmep8,"Terrible down economics was a scam in the American People in 1982 and now we're living in the world it made.

When will Americans pull their head out of their ass? How bad does it have to get? Is it bad enough yet? You know those greedy motherfuckers will just keep making it worse because profits! For them. For you? Poverty.",fcx2th9,ttystikk,15pem7
"The difference is I didn’t come to you, you came to me wanting to say shit.",zordon_rages,6pdo1,fcsr1if,That's so underhandedly rude bro,fcspnsm,SharkBrew,aku2w
You clearly know everything so enjoy your victory,zordon_rages,6pdo1,fcsntho,"And then you guys always double down and defend your satire blindness and say, ""well we can't know for a fact because we didn't write it""

Kinda thinking everybody else must be as oblivious as they are. It's a shame, because you'll just be offended by this comment and you won't make an effort to learn.",fcsnnyd,SharkBrew,aku2w
"It’s crazy how underhandedly rude your comment is. It could be satire, but there’s no way to know for sure because I have known people this idiotic. Just like you have no way of saying for absolutely certain unless you have proof. Neither of us does and so it is up in the air as to whether it’s real or satire. Either of us could be correct, but you think so highly of yourself of course your the only one who is right here. 

It’s crazy to me how how of a horse you think your on when really you have no clue whether you are right or wrong. A wise man knows how much he doesn’t know, only a fool knows everything.",zordon_rages,6pdo1,fcsfaip,It's impressive to me when people like you can't tell obvious satire,fcs1tgr,SharkBrew,aku2w
I really don’t think you can say for sure,zordon_rages,6pdo1,fcrl1nr,It's fake. Tongue in cheek humor.,fcqg39c,PhyterNL,hurhr
