child_body,child_screen_name,child_user_id,child_tweet_id,parent_body,parent_tweet_id,parent_screen_name,parent_user_id
"I want to buy a gun with cash, and keep some in my safe just in case.",ZygotesLegacy,168oj2,fkawkvr,Why would you withdraw your money from banks?,fkapfuz,as-modeus,18jki5ow
Prager U people are to conservatism what Bernie Bro’s are to progressives lol,ZygotesLegacy,168oj2,fk56rso,"Remember, conservatives don't have a consistent ideology. They will shift their positions on a whim based on their feelings.",fk4btil,zackcase,htsva
Because reducing the amount of theft is *checks notes* a bad thing?,ZygotesLegacy,168oj2,fjol2mm,The tax cuts weren't offset. He still voted for those. I don't believe his bullshit about having libertarian principles.,fjoa1fk,BaggerX,d6my8
"Why would you get paid for not doing any work? Salaried positions are different they get PTO and sick leave, but if you get hired in at a mom and pop diner why would you expect to get paid for not showing up? This is even more ridiculous if you’re a tipped wage employ, whose expected to carry the burden?",ZygotesLegacy,168oj2,fjgx5eq,"Holy crap, you don't get paid if you stay at home because you were told to stay isolated by the doctor/government?

Do workers in the US not have any rights?",fjg36a8,3linksinmybrowser,2xhylfjx
"You claimed they’re “good at spending money” did you read what you wrote? Your claim is that the military is good at spending tax dollars on wars? What part of that do you not understand? I’m asking you to substantiate that statement, because I don’t consider “good = wasteful” so I’d like clarification.",ZygotesLegacy,168oj2,fjamxzy,Didn’t make a claim. You just like superimposing you’re baggage onto others and it’s ugly,fjai2ds,Agentsmurf,evee2
"Don’t make unsubstantiated claims and get mad when people call you on your bs. The US military failed in the Middle East and it’s only one example of their many blunders. 

Have a nice day!",ZygotesLegacy,168oj2,fjahu62,Unpacking all the things you’re wrong about will take too much of my day.  Instead I’ll just wish you a good day and I hope you learn to chill out,fjagrbi,Agentsmurf,evee2
"Are you stupid or ill informed? How long have we had troops in the Middle East, would you call that at a successful use of military funds? Don’t even get me started on the waste and shortsightedness of military spending. Have you served, have any of your family served? If not, trust me you don’t want the American public getting the military treatment.",ZygotesLegacy,168oj2,fjagbdo,"They’re pretty good at spending money on wars, maybe they should give a crack at helping actual citizens",fjac85a,Agentsmurf,evee2
Buy 3/6 PUTS to hedge your 401k while doubling your 401k contribution. Buy the dip and cash out on the way down.,ZygotesLegacy,168oj2,fj1e9uu,"The concern is disruption of business, not how many people actually die.",fj1e20h,steamydan,6ec6x
Where do you make 2.45% liquid?,ZygotesLegacy,168oj2,fj0il62,"That's what i did... All these armchair pros were saying HOLD then as well.  

They all seem to have forgot to secure profits, I guess they spent too much time on forums telling people to hold tight and ride it out to xx% down.

I'll take my money market and wait it out while i make 2.45% in the meantime than you very much",fj0346z,roox911,f3bap
"People are getting sick sure, but the fatality rate is like 2-3% and mostly elderly. The work force will be just fine, 5 years from now we’ll look back and laugh.",ZygotesLegacy,168oj2,fj0ib2f,"Such a unique situation this time. When businesses start closing with sick workers, stop hiring, production cancelled etc, the effects will be gigantic.",fizyx06,edge2528,13p5mklb
"That’s hardly fair, didn’t your Sunday school not also teach that God created Lucifer, and he was at one point the most beautiful angel. It’s not a Devil - Bad and God - good thing. People are responsible for their own actions not the devil nor God. You should’ve paid more attention.",ZygotesLegacy,168oj2,fixmcp3,"Everything good is thanks to Trumps genius. Everything bad is the deep state/Hillary/leftists/Obama’s fault. It’s pretty simple. 

Stock market up 2%? GENIUS BUSINESMAN TRUMPS GREAT POLICIES WORK! SEE!

Stock market down 2%? “It’s the fear of Bernie sanders/ corona virus / elites tanking the economy on purpose in an election year. 

Doesn’t matter it’s always the same. Reminds me of when I was a kid and in Sunday school they’d tell you how everything good in the world was thanks to god and everything bad was the devil. Even at 10 years old I thought they were full of shit. 

/rant over",fixekef,imightgetdownvoted,60kss
No to everyone of your questions. Next?,ZygotesLegacy,168oj2,firfnj8,"Should women pay taxes that go to researching prostate cancer? Should people without kids pay into schools? Should people without drivers' licenses pay taxes which go towards fixing roads? Not everything you pay taxes for directly goes to you, but that's because the entire world doesn't revolve around you.",firetcc,MiniatureBadger,qp6oc
How is it dumb for someone to be upset that roughly 50% of the population has to pay for something they’ll never use?,ZygotesLegacy,168oj2,fircog1,"As an American, ""But what about wait times?! You're gonna tax me to pay for someone's pads?! I want a choice of pads or tampons!  This is just communism!""

**Edit**: I'm being sarcastic, I think this is a great deal for Scotland. I'm just using the top 3 dumbest complaints of American Universal Health Care and applying it to this.",fir1njj,strtrech,9nmvo
"The stupid tax needs to be paid, no sympathy",ZygotesLegacy,168oj2,firc0cf,Coll story. I don't remember the part where I wrote everyone falls for it.,fir3zmv,John_T_Conover,ep53a
Bullshit I didn’t fall for this when I was 16 and it was popular,ZygotesLegacy,168oj2,fiqxhp9,"At that age many kids just haven't experienced and developed a good understanding of worldly things to be precautionary of. This especially goes for the kids competing for valedictorian as they are often busy with loads of difficult booksmart classes and being on multiple academic teams, clubs or sports. And tend to come from home environments where they are shielded from the shadier elements of humanity.",fipk07r,John_T_Conover,ep53a
"Idk about you man but I’m never going back to hailing a cab. It was a crap shoot, sitting outside in the cold, to have some douche cabi flash his screen to see how drunk I was and how much he could up charge the fair. Fuck that, I’ll pay more for ride sharing if I have too.",ZygotesLegacy,168oj2,fiqwn9m,"""entrenched in the culture"" lmao, they're known and widely used because they offer a good service for a low price. The moment they run out of VC cash to subsidize rides and pass on the full cost to the customer... bye bye uber/lyft.",fiqcm1e,brazotontodelaley,dl5xugr
"I used to buy bitcoin in college to get IDs anyway ended up making more holding onto bitcoin then I did actually in the ID game. I wouldn’t say it’s comparable to a Ponzi scheme considering I hardly was an “early investor.” Besides, bitcoin is still up some 2000% since inception more than I can say of any other speculative vehicle.",ZygotesLegacy,168oj2,fiqv7n2,God it was cringeworthy reading r/bitcoin and all the other crypto subs a few years back. So much delusion.,fiprfdr,TheTF,16wbaw
"This is great and all, but if you don’t want high interest aka a predatory loan why sign the paperwork? I could see an exception being made if you can’t read, but even if you’re illiterate you should be able to read numbers. If someone has shit or no credit they potentially could only get high interest loans, what happens to them when they get banned?",ZygotesLegacy,168oj2,fiqc7ym,"It’s because of our badass attorney general, Tom Miller. He is the longest continuously serving AG in the country. On behalf of Iowa consumers, he has sued, and won, cases against big corporations like Apple and Mediacom. Another notable victory of his was against predatory student loans and for-profit colleges.*

He is a treasure and doesn’t get enough attention. That is probably because most of the governors he has served under have not been from the same political party. They don’t give him credit where credit is due. 

*please feel free to double check my details, I’m writing this from memory of stuff I read years ago.",fipe2ej,TrappedInTheSuburbs,2z5r5rdo
"Privileged to be born in the USA, and in relatively good health sure, but I wasn’t born rich and I’m a minority. Believe it or not working hard still gets you somewhere.",ZygotesLegacy,168oj2,fi4s8q1,Ummm what you mean to say is you are privileged.,fi2hwtj,MrDalliardMrDalliard,57ni9r23
"A distinction that is overly pedantic for most Americans. Bernie isn’t a socialist in the same way that my gym teacher who fucked 15s year olds isn’t a pedophile, because technically they weren’t “pre-pubescent.”",ZygotesLegacy,168oj2,fi1jb9z,They are absolutely not the same. Democratic socialists believe in the abolishing of capitalism and the abolition of private property. Social democrats do NOT. Go look at the DSA platform and compare that to the governments in Scandinavia. DSA is further to their left.,fi1gx71,goosebumpsHTX,6g2pmxr
"No, what’s stupid is insinuating that most Americans are stupid then being surprised when they don’t wanna listen to you. 

Trump was down in the polls vs Hillary as well, look how that turned out. Besides don’t you have to yanno actually be convicted of a crime to be considered a criminal?",ZygotesLegacy,168oj2,fi1j0un,"This is stupid, most Americans don't even know what socialism is, and the ones that won't vote for a socialist will have Republicans telling them the Dem nominee is a socialist no matter who it is.  
  
Most Americans aren't going to vote for a criminal traitor, so just about anyone should be able to beat Trump this time around, I would even place favorable bets on a ham sandwich at this point.",fi14kuq,djlewt,4c9lq
"I can’t speak for everyone but at my company it’s limited “payed sick days.” Obviously if you’re really sick you don’t have to come in, but they won’t pay you indefinitely. I’m in the US",ZygotesLegacy,168oj2,fi0gx5u,limited sick days,fi0766l,44722e426f6e65,jnkjw
Yes it is,ZygotesLegacy,168oj2,fhxtlb3,This isn't askreddit,fhxt627,cyberjellyfish,t704q
I like u,ZygotesLegacy,168oj2,fhxq9x6,I'd do it for free if my employer does the inserting,fhxh68j,seaniebeag,j1yo5
I was thinking like an extra $10k per year but I guess I’m selling myself short,ZygotesLegacy,168oj2,fhxq8bn,250k salary,fhxgthx,pmccormick650,9iuw3
The question isn’t regarding the legality of it... this is r/AskReddit,ZygotesLegacy,168oj2,fhxq5cd,I don't think they could legally require that.,fhxh06c,cyberjellyfish,t704q
"So, women get all the opportunities available to women and all the opportunities available to men?? How is that fair. Why do you hate equal opportunities? Make it separate across the board or let both intermingle, that is the only fair way to do it.",ZygotesLegacy,168oj2,fhffv9g,"Because men have the inherent advantage in their biological makeup, vs women.

Women competing in Men's sports are putting themselves at a disadvantage. Thus, it's acceptable.",fhffble,Fractales,4vaoz
"Ok, so are you also against women competing with men? If not, how do you justify the blatant mismatch?",ZygotesLegacy,168oj2,fhfe2yx,"I support trans rights, but also believe that letting trans women compete against biological females will destroy women's sports",fhf31qg,MpVpRb,3bhl4
What’s the difference between a beckie and a stacie?,ZygotesLegacy,168oj2,fhc3pph,"Old cartoons are usually blackpilled. There are always chads, incels, beckies and stacies. The storyline is just always unlikely, and fake, but the initial settings aren't.",fhbrrl0,uebdkisbwnmakd,4t7gpmqv
What about pking?,ZygotesLegacy,168oj2,fhbyv83,"Ironman has put players into silos and the only update to prevent that was shelved. Clans are all dead because there is no incentive. Socializing used to involve trade and group bosses but there's no reason to trade person to person. Group bossing isn't easy to get into so Wars Retreat was supposed to have a group staging area but that was never implemented. Skilling is either afk or high intensity so people don't talk. Minigames have no  decent modern rewards and haven't been released in years. There is no built in VoIP which had been requested a long time ago. Clans never even got a clanwide lootshare back when relevant.

Jagex does not care about multiplayer in their multiplayer game.",fhb1lw8,Thus_RS,4g54lg
"Maybe they thought it was one of those situations where someone says “don’t throw me a party” or “don’t get me anything” but they would still appreciate it,",ZygotesLegacy,168oj2,ffxdyrs,"If OP had gone they wouldn't have let her leave. She's been telling them she didn't want to have a party. If they wanted to share the special day they could have settled with breakfast, or a lunch with OP.",ffxcarz,Roatie,50sil1jc
"If value can change per your example than said value is not intrinsic. Intrinsic properties do not change, subjective ones however do :)

Everything material is made of atoms, so that’s a mute point. Scarcity is subjective and is fleeting. At one point salt and aluminum were considered scarce, that’s no longer the case.",ZygotesLegacy,168oj2,ffd804a,"Okay let me say it in another way. The subjective value of gold is derived from its physical material existence. Whether it is soft or hard, conductive or non conductive, beautiful or ugly, rare or common... these are all value judgements based on the properties of this particular material thing. Its value can go up and down based on rarity or fashion or whatever. But ultimately there is an arrangement of scarce, tangible atoms from which its value is derived. Until it becomes superabundant like air, it will have at least have some value to someone, even if it is no more than a common pebble on a riverbed. 

Fiat currency has no such correlation. It is virtual. Its value is derived purely from agreement or imagination. If the worlds banking systems collapse, dollars will have no value. Beyond the raw material value of the cloth, or perhaps to currency collectors. Because dollars represent value. They do not provide value.",ffd71c5,Fibbr,qrk6k
"Intrinsic value is a lie. All of the uses you listed for gold are only “useful” in so much as the sum of human knowledge has increased and found use of them. Offer gold to a caveman and he’d grunt and tell you it makes a shitty arrow head, because it’s a soft metal, and opt for stone. The fact that conductivity, melting gold, etc uses all depends on a certain level of knowledge and thus is inherently subjective.",ZygotesLegacy,168oj2,ffd43ps,"Gold is valued based on its physical properties. It has intrinsic value.

Dollars are valued based on shared agreement that this valueless thing represents value. It and other fiat currencies have near zero intrinsic value.

What is your argument against these statements?",ffcramc,Fibbr,qrk6k
"Hey, I heard Taco Bell is paying managers 100k now",ZygotesLegacy,168oj2,ffcq7vw,"Can confirm. Worked fastfood then became a teller worked my way up and 3 years later I'm a full time banker and now I'm interviewing for back office jobs (wish me luck please!). I make pretty damn good money and get good benefits all with just an associate's degree. Starting a bank job was the best decision I could've made despite it being pretty shitty some days, it's always better than managing a fast food place. I still haven't forgotten what that's like and will forever be grateful for my job now.



Edit- Thank you to everyone wishing me good luck. It's much appreciated",ffci79g,AsImMiningRuneOre,59g5iams
"Damn, ok thanks",ZygotesLegacy,168oj2,feehxcw,"You could use a dental dam.  Otherwise no, you are at risk to get the STI",feehn6x,AbsoluteRadiance,33afy0sc
"I thought it’d be fine as long as we don’t have vaginal sex, but I don’t know for sure",ZygotesLegacy,168oj2,feehmeo,"I wouldn’t willingly get head from someone with an STI but sure, go for it",feehgtq,ThePriestEnricoPucci,4w95f3n9
"Sorry, I didn’t see that listed in the rules.",ZygotesLegacy,168oj2,fdqn8dp,No legal questions.,fdqmzra,Fapitalismm,8hbla
Is it tax deductible?,ZygotesLegacy,168oj2,fdhyee3,[Here](https://fiscal.treasury.gov/public/gifts-to-government.html) is the information about where to send it. You don't get to make any requests or demands about what it's used on though.,fdhxz3x,Feathring,8zpkz1i
"I’m sorry, but I mistyped I want to reduce my withholding to have a lower tax return.",ZygotesLegacy,168oj2,fdhs9mx,"> to reiterate bump withholding up to two?

If your employer is still doing allowances then sure, though again they should be using a revamped W4 that ""bump withholding up to two"" makes no sense on. The equivalent now is roughly filing a new W4 with $0 on lines 3 and 4a-4c.

> Also, what’s TCJA, Trump something?

Yeah, it's the tax reform bill (""Tax Cut and Jobs Act"").",fdgr62g,evaned,d2bpl
"So, to reiterate bump withholding up to two? Also, what’s TCJA, Trump something?",ZygotesLegacy,168oj2,fdgn7tp,"* Yes, most people with one job, no dependents, and no significant other tax stuff going on should have claimed two allowances. Very roughly speaking, before the TCJA one was your personal allowance and one most of your standard deduction; post TCJA it's a little weirder, but now both correspond to most of your standard deduction. In short, bumping it to 2 isn't ""artifical"", it's following the directions. :-)
* However, the IRS has significantly revamped the W4 for 2020 and dumped the whole allowances thing entirely, so what you do will be much different. But hopefully simpler.",fdg6dui,evaned,d2bpl
"They said “random men” so presumably men you meet organically through school, church, etc. are OK, it’s whack but that part kinda makes sense.",ZygotesLegacy,168oj2,fde0abv,"Hollll up. So, according to their logic, you'd have to get a boyfriend, but you can't talk to men you don't know. How's that supposed to work????",fddn7il,FenderBender98,2mfhtb05
"You can’t place it all on Google though, personally I use DuckDuckGo a search engine that values and respects privacy. While it’s not an all encompassing fix it’s a start. I have little respect for people who whine about privacy yet don’t take even the smallest measures to protect themselves. Too many Americans sacrifice privacy for convenience, and it’s ultimately their responsibility to protect themselves not big daddy government. 

End rant.",ZygotesLegacy,168oj2,fci8ww2,"The thing is, this stuff not only breeches people's privacy - but it also changes our behavior. 

Not only do Google saving each and every search you ever did give an unwarranted insight into your thoughts and beliefs - the *knowledge* that Google does this changes your behavior about what you search for. 

The primary reasons for the cameras in each person's home in Orwell's 1984 wasn't to catch people doing bad things, it was to force their whole population to work under the assumption that they were always watched, so that they were forced to always act and behave according to Big Brother's wishes. 

We're slowly approaching something similar happening now, with big tech - people here joke about getting put on watch lists etc for doing a google search, but there's also a kernel of truth there, people do to some degree modify their search patterns and actually stay away from searching on certain topics. An obvious example would be child porn - and ofc not searching for actual child porn, but searching for certain news or information regarding it. 

Say you wanted to find some of the scientific studies that showed that child porn being legal for a short duration in certain European countries in the 70s coincided with a reduced number of child sexual abuse in those countries - I'm willing to bet that a fair share of people would feel rather uncomfortable trying to use Google to find information on those studies, just because they know that those search terms would forever be saved and associated with their Google account...",fchdn8g,acathode,e35lj
I don’t recall voting for the officials of the WHO. Government derives it’s power from the consent of the governed. Without consent there can be no legitimacy.,ZygotesLegacy,168oj2,faucnoq,Running water is a human right. Water has a cost and a lot of people involved in the maintenance of water systems. Access to medical care is a human right according to the WHO.,fapc0cb,Jajaninetynine,15hmlf
"Do you understand what a contingency plan is? Allegories, metaphors, etc are legitimate and a fundamental basis of philosophy. Would you tell a professor that the trolley problem is illegitimate because it’s a hypothetical? Just because something hasn’t happened doesn’t mean we shouldn’t plan for it’s possibility.",ZygotesLegacy,168oj2,fap7sr8,">Words have meaning my friend. Don’t fool yourself it’s not free, never has been, never will be.

Okay so what will giving you and your loved ones coat you? If you are part of the 1% then a lot.

>Do I have a stat to show something that hasn’t happened yet? No I obviously do not. Part of learning is asking “what if?” 

I make it a point not to get into hypotheticals or perceived enemies/obstacles I deal in facts so please leave you feelings out of arguments thanks",faos2z7,BostonBarStar,130gso
"Ok, so broadly then you’re saying, “why should not having any money mean I can’t have access to a iPhone X? Gee idk man, probably because you didn’t contribute and your fellow humans don’t owe you shit.",ZygotesLegacy,168oj2,faor0b1,Why should my ability to generate capital affect my access to the scientific and medical advances made by humanity?,faoqkpk,knightsofmars,emg1m
"You only have that right for criminal cases no similar right exists for civil suits. Furthermore, that’s a check on the government. You can’t be jailed without a fair trial which means they need to supply you with competent counsel",ZygotesLegacy,168oj2,faoqlfe,"Bruh.

Like, your right to an attorney means they just go get one out of the lawyer cage to represent you?",faopz9s,findallthebears,fc7fp
"But he’s the only one who can perform x operation and you have a right to x operation, because *checks notes* rights?!",ZygotesLegacy,168oj2,faoqfpp,"What the actual fuck.

How does Ben Carson quiting affect anyone's right to health care?

No one has a right to Ben Carson. No one has said this, or anything like this.",faoq3t2,findallthebears,fc7fp
"Words have meaning my friend. Don’t fool yourself it’s not free, never has been, never will be.

Do I have a stat to show something that hasn’t happened yet? No I obviously do not. Part of learning is asking “what if?”",ZygotesLegacy,168oj2,faoq1io,">When you take a statement like, healthcare is a natural right, to is logical conclusion you cannot avoid servitude. What else do you call it when someone owes you their service? What happens if for whatever reason all the brain surgeons simply choose to retire? You do realize there aren’t that many of them to begin with, what then? Do you force them out of retirement?

I'm just glad you corrected yourself and stopped using the hyperbolic word enslavement. Now to your point do you have any studies which show what % of brain surgeons would retire over this? You don't because you made up a pretend scenario and asked my to fight argue against it. I believe there's a word for that, just at the tip of my tongue. 

Also Doctor's will be getting paid to provide you and your loved ones with free healthcare please remember that.",faopaqx,BostonBarStar,130gso
"Dr. Ben Carson was the first man to successfully perform brain surgery on conjoined twins. Now say after performing one surgery he decided to quit the medical profession. In your world, is he violating the **human rights** of other people in likewise predicaments?",ZygotesLegacy,168oj2,faop09c,"Holy shit strawman much

Why does something being a human right mean that someone delivering it is being forced into it? It is just as valid to say that health care is a human right so physicians need to be properly incentivised to provide it instead of your rant about forcing them to do it at gunpoint or whatever

Now let's skip a couple of comments in the middle and you can jump right to telling us taxation is theft",faoob5l,mullet85,3uy4i
Calling people names doesn’t constitute a valid argument. Do better.,ZygotesLegacy,168oj2,faoobme,Did you just fucking compare a human to a car you disgusting pile of shit? Holy fucking shit.,faone59,thewookie34,fmyub
"When you take a statement like, healthcare is a natural right, to is logical conclusion you cannot avoid servitude. What else do you call it when someone owes you their service? What happens if for whatever reason all the brain surgeons simply choose to retire? You do realize there aren’t that many of them to begin with, what then? Do you force them out of retirement?",ZygotesLegacy,168oj2,faoo8gj,"Will those doctors not be getting paid at all? Wow that's bullshit how could anyone vote for this candidate way to go Zygotes Legacy for bringing this fact forward, can you please provide a link, that Doctors won't be getting paid (enslavement your word not mine) to the nonbelievers?",faonn3e,BostonBarStar,130gso
Please answer the question. What happens in your world if **insert specialized medical field** workers quit? What then?,ZygotesLegacy,168oj2,faoo0xh,It's weird you act like having socialized health care means doctor become slaves and work for free. Do you wake up this fucking stupid or do you try really hard?,faonvex,thewookie34,fmyub
"Nice rhetoric, do you know of any states where infants are working in the mines? I’d love to hear about this pressing issue of infant servitude. 

Since when does graduating from medical school dictate a life of servitude? By what right do you demand your neighbors serve you?

A hypothetical, if tomorrow all brain surgeons went “on strike” and refused to take on any patients would they be depriving you of your human rights? Would you lock them in cages? I’m curious, because with other enumerated rights, typically transgressors are penalized.",ZygotesLegacy,168oj2,faonmvd,Why does being born mean your parents are forced to pay for your well being off to the coal mines infant.,faomv8a,thewookie34,fmyub
Didn’t the Amazon Echo originally start selling at like $90 or something crazy a few years back?,ZygotesLegacy,168oj2,fai3z2g,"Yep, pretty much.",fai3ree,Herdnerfer,6hed7
"Only on Reddit though, most 18-30 year olds enjoy a night out.",ZygotesLegacy,168oj2,f6phmvi,This opinion is popular.,f6p3jw4,Bananadong-III,mdafh
"You misunderstand the EMH. Index funds and other institutional investment vehicles are compatible. The EMH essentially says hand picking stocks and consistently “beating the market” isn’t sustainable in the long run, ceteris parbius.

Furthermore, trading firms aren’t a novel concept  when the EMH was formulated they existed as well albeit not as sophisticated as today. Just because you’re able to take a layman’s money and invest for a profit doesn’t mean you disapproved EMH.",ZygotesLegacy,168oj2,f6o5g64,"No, I'm not. Every dollar in my paycheck is a mark against the efficient market hypothesis because that's how trading firms make money. Efficient would imply there aren't systematic ways in which we can make money... and there just are. You're also not trying to ""solve"" the market; you're trying to predict how it behaves and then make a decision. Very different process.",f6nk81o,YouHaveToGoHome,143nc6
"My point is an officer‘s word doesn’t necessitate objective truth anymore than the word of any other citizen. Questioning authority is a good thing, it something we should do more.",ZygotesLegacy,168oj2,f6ndpfe,the guy lost in both lower courts.... so yeah.... they needed proof and shit.,f6ndf83,Baldrs_Draumar,21o3rae5
What about the allegation that after the arrest they forced Mr. Jones to lie face down on a cold holding cell floor in his underwear? I’m sure they do that to the female individuals as well.,ZygotesLegacy,168oj2,f6ndciw,"He was stopped for running a stop sign. The officer could have told him why he was stopped, but didn't have to. The driver however did have to show his license. People need to realize if you want to have your day in court with your violated rights, you should probably go along with whatever you are ordered to do and just voice your lack of consent, then actually go to court.",f6nbrwe,likwidfire2k,9us6w
“Allegedly blew a stop sign” has the police officer presented any proof of that? Do you believe the officer over Mr. Jones? If you were on a jury does it meet the criteria for “reasonable doubt?” Why do you trust a man with a badge over any other citizen? Police lie too.,ZygotesLegacy,168oj2,f6nd44p,news reports say that he blew though a stop sign.,f6nb5ne,Baldrs_Draumar,21o3rae5
"I take it you’re not a believer in the efficient market hypothesis? The only way to “win in the stock market” is to get in yesterday. There’s so many variables it’s essentially unsolvable, as long as you’re significantly diversified there is no losing.",ZygotesLegacy,168oj2,f6m6mdf,"I'm sure Robinhood is also selling your data like what u/notreallydutch suggested, but that's not it. Robinhood makes its money in 2 ways:

1) Cash sweep: Say you put in $4.9k of cash and buy 19 shares of AAPL. As of today's close, that's $4892.5, so you now have $7.5 left in your account that you can't purchase another share with. So it just sits there. Meanwhile, Robinhood takes that extra $7.50 and puts it in a money market account or some other interest-bearing instrument. Multiply this by a few million customers and now you're talking serious cash. This was Robinhood's initial money-maker

2) Payment for Order Flow: Whenever you make a trade, you are trading against someone. This means you're essentially betting against someone that something will happen. And boy, compared to the armies of physics and math PhDs who know the minutiae of market signals (geez, are your autocorrelations only robust to 3 sigmas?), the hungry financial analysts who hound every earnings call (you do attend those, don't you?), and the nanosecond-scale FPGA chips (you totally have those, right?), you SUCK at trading. What's more, there are tens of millions of really bad traders just like you! Essentially, you and the other millions are so, so bad that companies like Goldman Sachs\* will pay Robinhood to trade against you because they know that 99.999% of the time, you 1) could have waited until the stock was cheaper to buy or 2) have no idea how the stock is going to move and should not have bought in the first place. But it's not all bad! In scenario 1, you actually needed to wait .0000012312 seconds before pressing the button to get the best price based on their models. And in scenario 2, you didn't know that the stock was going to move down $.00125 for the next 2 milliseconds before moving up $.00245 over the next 3 seconds (sucker!). Again, not even a penny to you, but when Goldman Sachs gets billions of dollars of these orders, there's serious money to be made.

\*probably not Goldman Sachs; just using them as an example rather than my actual employer.",f6lae48,YouHaveToGoHome,143nc6
"I agree I have a lot of ideas behind why the field is predominately male, but I was wondering if there’s been any serious study into the subject.",ZygotesLegacy,168oj2,f6m4g0q,"Also, if you are dealing in illicit goods, you can't call the police if someone tries to take your stuff, so being strong helps.",f6m395o,Teekno,f4v2j
Wouldn’t this be anyone who files itemized instead of standard though?,ZygotesLegacy,168oj2,f6kknri,Tax avoidance. Benefitting from services paid by tax payers and going out of your way to avoid paying your fair share.,f6khx5m,joedavola77,2qjjal2d
Why are American troops there to begin with? Why should American men and women have to die on foreign soil? Why is it our responsibly to right the world’s wrongs? Fuck that noise. Stop sending poor kids to die in the 3rd world.,ZygotesLegacy,168oj2,f47iqz1,"Seriously, there's no reason for this. Turkey wouldn't have had the balls to do shit if Trump didn't order the withdrawal. America's foreign policy has always been considered calculating, but this man's regime is making us realize that instead it is in equal parts comprised of stupidity and greed. Pathetic.",f4613au,god_im_bored,1260eq
Smart TVs are worth it for the apps and just general easy to use UI. Not having to load up Chromecast or plug in an HDMI cord is so nice when you just wanna unwind after the bars or a long day.,ZygotesLegacy,168oj2,f3xceyh,"Slightly unrelated question, but do TVs have a receiver integrated or something? Because you can buy a brand new, somewhat high quality, 32"" 1440p IPS monitor for around $200-$250. Why would someone want to buy a used 30"" TV for the same price?",f3x57f5,vaynebot,em4gc
I don’t know if I could pull off heels.,ZygotesLegacy,168oj2,f3uhnj0,Sexy nurse,f3tt2cl,ShadowPuppett,17cduq
"I really like this one. Seems fairly simple too, thanks!",ZygotesLegacy,168oj2,f3twthe,"USSR Ushanka or a pilotka, USSR Navy tank top, some blue jeans, and a bottle of vodka. Or if you have to drive somewhere just get any old glass bottle and put ""1$ vodka"" with a backwards K, bonus points if you're built like a brick shit house",f3tt2mt,hawaiifunke,lu3yu0l
The focus of the meeting is on security specifically phishing. It’s supposed to be informative and educational.,ZygotesLegacy,168oj2,f2xdig6,"What's the goal of the meeting? That would help with generating valuable questions.

&#x200B;

What sort of training or protective measures do we take to prevent our non-IT staff from phishing? (pronounced fishing).",f2xd5be,TCFNationalBank,2yloiblv
"Yes, but I shower daily and am pretty good about staying clean.",ZygotesLegacy,168oj2,f0tndoc,Are you uncircumcised?,f0tmr50,ItchyTomato5,aqfkmwe
"Ok, I might be rubbing her urtheral opening I honest don’t know. Yeah, we’re probably doing a lot of the  things on your list (besides double dipping). I’ll try talking to her. It’s going to be awkward as hell telling her to pee / shower more.",ZygotesLegacy,168oj2,f0tn8n4,"Back in my mid-twenties I had a boyfriend for a while and had UTIs almost the entire time we were together. It really got bad at one point. After him, nothing. So in retrospect I can ask these questions: are your hands and hers clean when you have sex? How often are you both bathing? How often are you changing your sheets? Does she pee as soon as she possibly can after sex? Is she sufficiently hydrated?

I'm assuming you're not doing anything foolish like double-dipping from front to back and back again oh, and that she hasn't got anything like a latex allergy and using condoms, and also that if you're using your fingers on her you're not rubbing your her urethral opening rather than her vagina. I had to show my husband that that little spot that he thought was part of my clitoris was no, the opening to my urethra.

So in short, Clean Hands, trimmed and clean nails, clean bodies and sheets, no double-dipping, and watch where you put those fingers.",f0tmnhm,refugefirstmate,kyijw
"My dumbass kept thinking, huh “x=1.”",ZygotesLegacy,168oj2,f0tgwuo,"7x + 3x = 10x

🍎🍎🍎🍎🍎🍎🍎🍏🍏🍏",f0t80pg,Meester_Tweester,k0f7b
"But are they contributing 25-40k worth of value picking up trash? Why should we overpay the poor to do menial labor... doesn’t seem like it’s an efficient use of resources. If cleaning the streets is your concern why not encourage private investment in alternative packaging, or develop robotic street cleaning machines.",ZygotesLegacy,168oj2,f0tg888,"I can see the logic, but it seems like this could be a real opportunity and they are missing out. I'd love to see a program where, if you collect trash for 20 hours a week every week for a month, you get transitional housing and an increase to 30 hours a week. Another month and you get full time (salaried, 25-40k depending on region) and health benefits and a financial counselor to help plan for the future. After 6 months, you would be expected to move out of the transitional housing and into an apartment of your own. Do that, and you will probably have some really dedicated employees and a cleaner city. And once they've had enough of a work history beautifying the city, they can move on to more personally meaningful work, freeing up a position for another homeless person.

Edit: Woo, go to a meeting, come back to 100 replies. In reply to the common refrain ""that's more than I make!"" Yeah, your salary is fucking bullshit and we need to address that too. Workers need to unite in this country and take back the profits we've been making for our corporate masters. $12.50 (the lowest amount I've suggested) is *barely* a living wage in most parts of the country. If you make less than that, you probably work two jobs or have multiple roommates. That's fucking bullshit and not something we should just roll over and accept and bitch when someone gets a better opportunity. We can't create programs that pay people shit just because other people are paid shit. We need to increase the minimum wage to an actual living wage.

In reply to the comments about how would we pay for this? Taxes, man. We pay for it by taxing the absurdly wealthy and the corporations that run our country. We have [some of the lowest tax rates](https://bradfordtaxinstitute.com/Free_Resources/Federal-Income-Tax-Rates.aspx) in our national history right now. Just a bit higher than the Great Depression. Trickle down economics is a lie. We need to tax more.

I should also clarify the housing component. Transitional housing doesn't mean *free* housing. They would still have to pay for it. They just couldn't be turned away for lack of rental history, lack of income, etc. The rent would still need to come out of their paycheck, and they would still need to go through the process of paying it (i.e. not automatically deduced from pay).

Edit 2: Thank you for the gold and silver! While I greatly appreciate the awards, I ask anyone else who wishes to award this comment to please consider donating to your local food bank, homeless shelter, or soup kitchen instead.",f0t5pii,Series_of_Accidents,81hj5
"Actually big tobacco lobbied in favor of banning cigarette ads for example, because it maintained the established companies market share. There’s a reason why Marlboro, Camel, American Spirits, etc are still the top dog and it’s certainly not because they’re offering a better product...hell they’re not even offering cheaper prices.",ZygotesLegacy,168oj2,f01yqff,"So if it's 100% a money thing, how do you explain all the restrictions that have been brought against smoking in the last few decades? I'm pretty sure big tobacco didn't bribe them to do that.

Of course there are vested interests at work, they're politicians, but believe it or not they aren't always corporate interests.

Consider also that vaping is just getting off the ground. If it ends up anywhere near as bad as smoking you should be happy they're addressing it now. Consider this prevention because we know how hard it is to cure.",ezyip4t,obscureferences,13cp44yx
"No it’s not it highlights the ridiculous double standard. If the law is intended to help the public why are we going after the preverbal stray cat, vaping, when there’s a tiger, legal cigarettes, in the room. It’s utterly asinine and 100% a money thing.

Let’s focus our limited resources on addressing actual substantial issues and quibble about the <20 deaths from vaping later.",ZygotesLegacy,168oj2,ezy5miq,"Classic whataboutism. Just because punching babies is better than stabbing them doesn't mean it's ok.

I couldn't give a rats arse which way the law goes on vapes but the ""better than cigarettes"" argument is stupid.",ezy3rpq,obscureferences,13cp44yx
"I’m not disagreeing with you, but like how do you even begin to estimate that? Is this some sort of hedonic pricing model or what?",ZygotesLegacy,168oj2,ezfbt3y,"$30 billion a year, for about a decade, ballpark, is the estimate. Jeffy could fund that entirely by himself for 4 years and still have 2,000 millions left over. Then the U.S could spare the remaining $180 billion from their grossly oversized military budget; and still have money left over, then boom, world hunger ended.

But, y’know, spess travol! Am I right?",ezfb6zn,LavaMeteor,imljy
"Do you have to wear them on the outside of your pant? Like could I could cover it up with jeans, or does that block the signal?",ZygotesLegacy,168oj2,eyhoni6,"Most of the time, you're not realy bound to your house only, but a restricted area of movement. If you leave this area for no good reason, then you can get arrested for real, but having to go to a doctor is a good reason in that case.",eyhnjff,ColonelPrittius,1f9x07cf
"Tax evasion is illegal, tax avoidance is not. The distinction is important. You shouldn’t be a felon for following the law. 

The law clearly is poorly written and needs a revision, but Apple is following the rules, and shouldn’t be punished for adhering to the letter of the law. We’d set a dangerous precedent by doing what you suggest.",ZygotesLegacy,168oj2,exv0l3v,"Sounds appropriate. Escaping taxes should be a felony and enforced against systematically, to prevent it.",extxy9t,Capitalist_Model,39zsd1xj
"He means taxing wealth instead of taxing high income is a bad idea. Use your brain before you respond. 

Taxing wealth /=/ taxing high incomes. Currently we tax by income not wealth.",ZygotesLegacy,168oj2,excmuj2,"""A wealth tax is an insanely bad idea.""
""Instead raise taxes on the wealthy"" lol wut",excehe1,glix1,nl75c
"Who pays the teachers? Nothing is free. If you think the few, College students, should receive wealth transfer payments by society at large then just say so, but don’t lie about. 

Nothing is free stop spouting bullshit.",ZygotesLegacy,168oj2,exc49x8,Not a feel good story. Education should be free,exby98w,HippieCorps,3vuoj3zn
"What do you do when your neighbor decides they wanna put their couch on the front lawn and people watch? Better yet, they really love the color red and want to paint their entire house their favorite color. HOAs can be annoying but having one asshat bring your property values down by not keeping uo their property is worse. 

HOAs are voluntary if people didn’t want them they could just stop buying properties that have HOAs. Their existence is evidence of their necessity to many homeowners.",ZygotesLegacy,168oj2,ewzcwkz,Wtf. What's the appeal of a HOA then if you're not allowed to do anything? Why would anyone want to live there?,ewyork8,Bezzzzo,15ryuw
"Most people don’t understand theirself, so nah it still fits.",ZygotesLegacy,168oj2,ewyahfb,Try again.  I'm  poor and addicted,ewy9nj9,gRod805,aog2a
"This is the epitome of privilege. “Find some other ways to relax.” Clearly you understand nothing about addiction, poverty, and the correlation between the two.",ZygotesLegacy,168oj2,ewy8n7k,Then find other ways to relax. The best things in life are free,ewy6k2y,gRod805,aog2a
"You need insurance to get a permit to assemble? Isn’t it a constitutional right to assemble, seems unfair if it requires something as cost prohibitive as insurance.",ZygotesLegacy,168oj2,ewvr5uu,Its because they had no insurance...so getting denied was part of the plan.,ewv09u3,monkeypowah,bxcv1
"Are you explaining a meme I posted to me? I read the original tweet, chill bro.",ZygotesLegacy,168oj2,ewk0lgy,"This was a real response to why people need to own semi automatic rifles (not assault rifles amateurs, their not automatic). Contrary to city living, there are people who actually deal with this stuff and whose livelihoods depend on keeping those animals out",ewjqykb,Webbstar88,26lp5br3
"Wait, I thought Butcher’s wife cheated? Doesn’t the last scene basically prove that? She willingly went with Homelander.",ZygotesLegacy,168oj2,ewfklus,"I thought that The Deep’s rape was a heavy handed way to show all the ‘why didn’t she fight back?’ people about being overpowered both physically and by circumstances which can lead to non-violent rape.

Then I get online and everyone is talking about how Starlight should have fought back or Butcher’s wife was obviously cheating on him by the way she was so calm and dazed.

I was like FFS!?! They *showed* you. It was *the* most graphic rape in the show to illustrate how being powerful means shit and fighting back means pain or ending your career. They **showed it to you**.

But no, the forums on Reddit are full of idiots blaming Butcher’s wife. I fucked off back to tumblr to talk about Maeve’s alcoholism and whether she’s bi or a lesbian.

(Also, thank you Kripke for spending five fucking minutes giving Kimiko a name. ‘The Female’ is such disgusting anti-woman writing. She wasn’t even ‘The Woman’. Nope ‘The *Female*’, like trying not to anthropomoize a zoo animal)",ewesibn,Vysharra,bfx79
"Wait, Starlight actually sucked his dick? I thought he just exposed himself to her then she left? On the stage at the expo she said he just put it in her face.",ZygotesLegacy,168oj2,ewfdany,"They skip over the nonconsensual blowjob, but then make us watch this girl ride him and shove her hands in his lungs like that, for far too long. Ugh, that was uncomfortable",ewetlba,PuttingInTheEffort,142c2a
Isn’t this from Hinge not Tinder?,ZygotesLegacy,168oj2,ewds2yu,"Update:

https://imgur.com/a/QMRptOh

For all the people mocking that I have sex, isn’t that the goal of tinder? 

For all the people asking about her studio, she’s home right now and moving to my area beginning of next week to her own apartment. Sorry for the confusion",ewdn0nc,Defyingtoitle,dpqrm
"Ok, so what happens when they’ve been running in the red the past 3 years? You do realize most business ventures fail, right? Furthermore, most “corporations” are small, I’m talking less than 20 people small. What happens when the illegal loses his employment? Does he just give up and go home? Nah, he’ll most likely turn to crime when you slam the other door in his/her face. I’m glad we don’t have layman making public policy, don’t quit your day-job, Focker.",ZygotesLegacy,168oj2,ewcypob,Generally there is a difference in responsibility for a contract employee vs a direct employee. If you are breaking laws as a company you should be held responsible no matter the size. I would put a cap on the fine to not exceed a % of your latest 3 year average of taxable profit or something like that but otherwise you fine heavy.,ewcx5fk,FockerFGAA,8awpa
"I never understood this, in America people tend to have an issue with the police. Particularly police brutality, but what’s the one thing police fear? An armed populace. Even if you don’t think civilian ownership of semi-automatic rifles and handguns would serve as a deterrent to the Federal Government it most certainly does to the Police Force. Just look at how heavily armed Farmer protests are handled vs the ones in the inner city. It seems to me an oppressive police force only respects one thing, force.",ZygotesLegacy,168oj2,ew75om4,"What about a total ban on guns?  I accept that this would never reduce the number of guns to 0, but it would create a situation where nobody but very well connected criminals could get guns.

I'm a pretty well connected criminal, in Britain.  Not that I'm in a gang or commit fucked up crimes, but cannabis is illegal where I live, and so I know a few drug dealers.  I could get any recreational drugs you can name on the spot here within a maximum of 24 hours.  I bet I could get a stolen car, or hire a guy to beat people up.  I'm probably not too many steps away from being able to hire a hitman.

I have absolutely *no* idea how I would go about getting a gun.  The career drug dealers I know would most likely rat on me straight away if I even raised the prospect.  I can't just turn up in a dodgy pub and start asking for guns, it doesn't work like that.

The only two realistic ways I have of getting a gun are: spend years infiltrating actual gangs, or apply for a shotgun licence from the government, who would never ever give me one, even though I have a totally clean record.

That's the situation here.  It's practically impossible, and as a result, we have next to no mass shootings.

Since the Dunblane massacre in 1996, where a man entered a primary school with legally owned handguns, and killed some 5 year olds, causing the government to totally ban the civilian ownership of handguns, we've had just one mass shooting, which was perpetrated with legally owned long guns.

So in other words, it's been 100% effective.  The only mass shooting that's happened was with guns that didn't fall within the ban.

So while a ban on media coverage might work a lot, it's very unlikely that it would cut it out entirely, like it has the UK.",ew6afg6,Freeloading_Sponger,phc3f
"Rule of law is a core tenant of our legal system, and to a greater extent our culture. Why does the issue of gun violence necessitate throwing out our core principles?",ZygotesLegacy,168oj2,ew4vzv8,That is subjective.  I think these end DO JUSTIFY the means.,ew4tj3t,2ndandtwenty,1ffb9dqq
"Crime would go down if you did a lot of other morally repressive things as well, the ends do not justify the means. We have rights.",ZygotesLegacy,168oj2,ew4t1qz,"You realize crime went down after stop and frisk, and it went up after it was ended?",ew4s8il,2ndandtwenty,1ffb9dqq
Who said anything about black people? Stop projecting your racism onto my comment.,ZygotesLegacy,168oj2,ew4rgqm,U calling blk ppl stupid and poor?,ew4r9gd,JesusCrits,jraf2
My apologizes then I misunderstood your comment.,ZygotesLegacy,168oj2,ew2gis5,"I'm not skipping due process: investigate - then, if it's determined that he did indeed threaten people, then seize his weapons.",ew2ehnf,M4053946,3dej
"You’re missing due process. We are a nation of laws. 

The Trump notion of “take the guns worry, about the due process later” is toxic and erodes our fundamental rights.",ZygotesLegacy,168oj2,ew29r94,"He did do something, he threatened people. That should be enough for mandatory counseling, a search of his home to seize weapons, and to block him from purchasing weapons.",ew22nit,M4053946,3dej
"Ok, but what’s the alternative? Taking away someone’s constitutional rights without due process? Without violating the law? Something needs to be change, but it shouldn’t be scraping basic fundamental rights. This isn’t Minority Report, you can’t be punished for something you didn’t do.",ZygotesLegacy,168oj2,ew1zvyo,"""The discovery of the hit list in early 2012 prompted a police investigation and caused roughly one-third of students to skip school out of fear for their safety, according to the AP report.""

And this is a big flaw in our system: the person who is clearly a loose cannon, who is not sane, who is clearly a threat, is legally allowed to acquire weapons if they haven't yet committed a crime.",ew0v5dr,M4053946,3dej
"When seconds matter the police are minutes away. 

When my grandad traveled cross country his firearm saved his and my grandmas life on several occasions. What would you have him do? Flash a pocket knife? Raise his voice? Sit at home? Believe it or not there are those among us who are vulnerable. A Glock-19 gives them a sense of security nothing else could.

God made man, Smith & Wesson made them equal. We have the Right to defend ourselves.",ZygotesLegacy,168oj2,evdv5ve,"They didn't gaf when white kindergartners were killed en masse. They aren't going to feel shame now that a brown kindergartner was killed. They won't even get out of bed to offer up the usual ""thoughts and prayers"". They are without compassion or concern for anyone but themselves",evcvg4t,JennyBeckman,8ji0w
"They’re not 12, they’re teenagers. If they wanna post this trash for the world to see then they should be ready to accept the consequences. 

I have no doubt they’ve done shit like this before. No one just instantly jumps to aggravated battery, trying to involve a minor in sex acts, etc overnight. This was just the first time they got caught.",ZygotesLegacy,168oj2,ev0wcb8,"Man, I mean I get it. These girls fucked up and did something horrible but holy shit those comments! What are they, 12 years old? They got grown adults saying die and basically antagonizing them and laughing at them. Why is everyone so quick to throw stones these days? They got caught (thankfully) and will be punished (on top of the public embarrassment) but it seems  these days, that's just not enough even for children that make very stupid decisions. I'm all for punishing these girls for their choices and the victim getting justice but some people just take it to far and basically want to ruin those KIDS lives for a single horrible mistake. Am I the only one who now feels kinda bad for them too simply because of the public mob being involved?",ev0qkm0,mountedduece,11hfrb
"Relying on *men’s virtue* is laughable at best, I see no way in which that system can go wrong. Basing your entire legal system on the supposed virtue of a few is lunacy.",ZygotesLegacy,168oj2,ev0si1w,"It’s supposedly to ensure that there’s no miscarriage of justice. The judges in the supreme court tend to fall more on the virtuous side thankfully. But as in all countries, they are quick to condemn the common man but play it loose with big corporations. It’s the consequence of unregulated capitalism.",euzzoqn,spacecadet6966,n4jaip
"Yeah, *ethics* is the reason you’re not as successful as Bezos. If you died tomorrow what would they say in your eulogy? Bezos, Buffet, Gates, and all the “Capitalists” have done more for the poorest among us than you’ll ever do. If Amazon or any of those other companies disappeared tomorrow the world world would notice, but you wouldn’t even get a blink. Honestly, did you read your comment but you posted it, utterly ridiculous. 

Having a victim complex must be exhausting. I can’t imagine living in a world where everyone who owned capital (I.e. a computer for your small business, a 401k with blue chip stocks, etc) is oppressing you. 

Grow a spine, and stop acting like a child.",ZygotesLegacy,168oj2,ev0qm05,"Nah capitalism is about funneling wealth from the bottom to the top and creating a hierarchy. It's just nobles vs. commoners with extra steps. 

Sure it's technically possible for anyone to be a Bezos... if you start undercutting or buying out competition, treating your employees like shit and prioritizing profits and expansion over ethics. But for some reason that doesn't quite sit well with me.",euwzh5z,IwishIwasGoku,cmb1l
"Capitalism is all about choice too, think about it. The entire premise of capitalism is predicated on the idea of voluntary exchange. Sure, marketing companies bombard women with beauty ads etc, but at the end of the day the consumers make a decision to buy those products. 

The most successful person in terms of wealth in a capitalist society isn’t the smartest, prettiest, or the strongest, it’s the one most adaptive to change. Bezo’s went from “I sell books”to “I sell fucking everything.” He beat out the market leaders: Seers, Wal-Mart, etc not by having deeper pockets, bigger guns, or a revolutionary idea. He won by seeing a market, and capitalizing on it. The same can be said about Uber and taxis, Facebook, Netflix, etc.",ZygotesLegacy,168oj2,euwvj7r,"It's all a con. Create anxiety about looks so women spend thousands of dollars on makeup, shoes, waist trainers, yoga, etc. 

This is the secret of capitalism. Create a problem and then charge people for the solution. Everyone from big pharma to alex jones does this.

Feminism is about choice. If women want to live that ho life, I completely support that. Especially as a man who wants to get his nut. I'd rather live in a world where women are clear about who, when, or why theyll have sex than one where it's a huge guessing game and I feel like I have to talk my way into sex and women feel like they have to act a certain way and make men ""work for it"" when they just wanna have sex too. Women should also not be chastised for wanting to work as escorts. Men and women will hire sex workers. These people fulfill a need that people have. It's stupid as hell to do anything other than legalize and regulate it like any other job.

Edit: thanks for the gold kind stranger",euweqa6,Vanillas_Guy,3saqvw2m
I’m interested!,ZygotesLegacy,168oj2,eurm2un,Plenty of great bars/pubs to relax with a pint.  I’ll give ya short list if you’re interested.,eunpy7y,ol_greggory,6jvub
"I mean just like your employer doesn’t have a right to your time/labor you don’t have a right to your job. The term here is “at-will employment.” Our society is built upon consent as a fundamental, consent b/w employee and employer, can be withdrawn at anytime without notice or reason. Excluding some protected reasons (race, age, pregnancy, etc).",ZygotesLegacy,168oj2,eurkxt2,"That’s kinda depressing to me. So if you have a mortgage, bills and a child, are you not secure?",eupew5t,Oriachim,104hgd
