child_body,child_screen_name,child_user_id,child_tweet_id,parent_body,parent_tweet_id,parent_screen_name,parent_user_id
"I came here knowing someone would have said it, so I could say ""I came here to say exactly that""... are you me?",CiforDayZServer,a7oe2,fjc5lf4,I came here to say exactly that...are you me?,fjb7vsl,trixmix12812,13q4ox
Maybe worry about yourself and your ability to detect bullshit...,CiforDayZServer,a7oe2,fi91q6m,Someone needs to red flag her. I’m starting to worry about her mental health and  growing delusions.,fi8lvok,Klaus_Von_Richter,6ge6zwf
"Head butting is illegal in basically every form of MMA.



She would be penalized if not outright declared the loser for illegal strike if she did that in an event... so she definitely knows that's not ok.",CiforDayZServer,a7oe2,fi8pjxh,"She fights for a living, I'm sure her opinion on violence is biased. In her perspective, she probably thinks that she let him off easy. Survivor is a hard game, it isn't for short tempered people. I'm assuming there was tension between them prior to this. Being starved, dirty, smelly, forced to socialize and depend on people you hate, ontop of losing a game more than likely just make her rage boil over. 

Honestly I'm surprised that there aren't more acts of violence between castmates on survivor.",fi7rplz,gofigure62,yu5mw
Oh right lol... duh.,CiforDayZServer,a7oe2,fi8dfdg,"Well the other issue is that there's absolutely no way to have a precise calculation of their net worth in real time. 

For example, with \~60B in assets, Bloomberg's net worth fluctuates minute by minute, day by day to the tune of millions and billions of dollars.",fi83x16,TinaBelcherUhh,172tuo
"Seriously? 



I work in dry cargo shipping. Contracts between parties can go into the 10s or 100s of millions and it's always accounted for to the penny. 



I used to audit time charter accounts that ran for 3 to 5 years at 7-70k per day. Dozens of ports all over the world costs passed up and down between parties with basically everything negotiated aggressively, exchange rates effecting tons of the expenses.",CiforDayZServer,a7oe2,fi7jfl9,"In all seriousness though, including cents is simply poor data handling, because it implies that the source material is accurate down to the nearest penny

Anyone who works or has taken classes with materials dealing with numbers know how important significant figures are.  I just don't understand the point of including .00 in dollars for each candidate.  To be realistic, most likely these numbers should be handled to the nearest thousand or ten thousand dollars, and reported as say 1.00x10^(5) for Buttigieg, but I get why that would be confusing for most people.",fi6ylkc,thepolan,u6lfo
If he thought there was any threat he wouldn't have done what he did. Exposing your entire back and giving your opponent an opportunity for a choke hold with leverage unless you know they're going for the ride.,CiforDayZServer,a7oe2,fhv66j8,"Meh, you never know if she is some psycho that’s gonna pull out a knife last second or try and grab your gun. You can’t let her get too close.",fhuazkl,xxrth,4faguo8f
"CAData is a root directory in Arma/Arma 2. So you need CUP Terrain Core, if you have it, chances are it's corrupted and needs to be redownloaded. I think you can verify the integrity of the DL in steam? But I'm not entirely sure if it works on mods?",CiforDayZServer,a7oe2,fhge9lz,"19:03:13 Warning Message: Addon 'wgl_commercial' requires addon 'CAData'
This is the message we were getting last night. It would make sense cause we never got any dependencies on the map other than CUP Terrains Core. So maybe WGL is another terrain pack?",fhe648a,YoshiWanKenobi7,4h8q9rhz
"In 3 or 4 days a week at most. I used to work at a place that bought and rebuilt salvage vehicles.


Salt water floods are a little more difficult, but again fairly easy. You just take the entire interior out and wash everything with fresh water then soap them rinse and dry.


I found out after I left the owner had bought enormous amounts of salt water flooded cars that sat he slowly rolled them into inventory over years. Those sometimes required a lot more work depending on how high the salt water got.",CiforDayZServer,a7oe2,fhfquhg,Sounds like it could still be usable for the project. Thanks for the background story,fhen93f,roararoarus,4pjrphdo
My art teacher in high school used to do it. Only he did scientific labs and other eclectic places. He had a mirror for the Hubble telescope that must have failed quality control.,CiforDayZServer,a7oe2,fhelc6n,This is actually a thing. There are youtubers dumpster diving and showing their finds. Bookstores throw away boxes and boxes of new merch. Also game stop is a well known dumpster score.,fhe6ei7,FancyFruitCake,2vre6t4r
I'm working under the assumption this barnes and noble has a Starbucks with those cookies and brownies and blondies.,CiforDayZServer,a7oe2,fhe6zrg,This is actually a thing. There are youtubers dumpster diving and showing their finds. Bookstores throw away boxes and boxes of new merch. Also game stop is a well known dumpster score.,fhe6ei7,FancyFruitCake,2vre6t4r
"I disagree with your assessment. It's a primary, all the early states pride themselves on not being afraid to mix it up IE explore other candidates. NH as a whole for sure was running under the assumption that Bernie was going to take it with little sweat... so, they voted for who they thought did the best job in this round of the primary, or who they think has the best chance against trump, or who they like a little bit to a lot more than Bernie...  


No one blows out competition in a loaded ticket like this.",CiforDayZServer,a7oe2,fhd7x9a,"Yea, there's no way it should be this close for him, it's a red flag.  Pete is a new face nobody knew, and Amy ... just introduced herself to America. Sanders SHOULD have blown them out of the water, same in Iowa with Pete and ... he just didn't.",fhd3bp3,likelemoon,59un77qm
"Don't do that... that's not even remotely true. Comparing the very worst Bernie bro to an even mildly MAGA hatter they're oceans apart.


Being gleeful about your candidate overwhelming the competition has entirely different context when Bernie supporters are gleeful everyone will have healthcare and companies and individuals doing the best will be expected to pay higher taxes... trump supporters hope kids come home to no parents because ICE deported them.",CiforDayZServer,a7oe2,fhd1zm4,No offense taken. I voted for him in 16 and plan to again this year. It's just slightly discomforting how much it reminds me of another mob of supporters for another candidate...,fhczibo,illQualmOnYourFace,hs9xy
"Did you not watch the actual clip? He said it's going to be an uphill battle if Bernie wins the nomination... He'll ""work like hell but it will be an uphill battle""",CiforDayZServer,a7oe2,fh4x258,I love Bidens attitude about Sanders.,fh337ko,kahagap,dilop
"Yes everyone is just stuck in capitalism there is no ability for anyone but the rich to succeed... Jayz Beyonce, Tyler Perry... all just propaganda devices... you're a moron.",CiforDayZServer,a7oe2,fgjmfv9,"I could be ""self made"" as well if mommy and daddy gave me 300,000 to start a business. Lord have mercy please read something other than propaganda.",fgj4s0x,strangetobe,b2baq
"Bill gates, Warren Buffett, Jeff Bezos, Elon Musk... literally not one of them was born millionaires...


It's not about bootstraps... it's about understanding the environment you're living in and exploiting it or altering it in a way that benefits you... pretending that everyone is trapped under a boot in capitalism is even dumber than thinking that anyone can lift themselves up by their bootstraps. No one who built a fortune over a lifetime did so by sitting on their ass complaining they couldn't get ahead... it's not easy or the norm but it is very possible.",CiforDayZServer,a7oe2,fgikdtv,"if you believe in the bootstrap nonsense, I reckon feudalism would seem entirely different from capitalism.",fghgsdw,strangetobe,b2baq
"So... entirely different.


*edit.  If you don't think there is a major difference between ONLY family names being kept rich for generations while ALL others suffer under their rule is not ENTIRELY different than literally anyone can scrape their way to the top with the right combination of luck intelligence and work... then you're a fucking moron. 


My grandfather's neighbor in Florida was a guy who literally started a recycling empire by collecting cans himself... then scrap when he could afford a truck... over 40 years he built a interstate network of recycling companies.


Hell my grandfather's father came to america with nothing... my grandmother's grandfather came with nothing and died poor... all his daughters had drastically better lives than he did or would have in Poland.


My mother came from Norway where her father could only be promoted to a certain level in banking because he wasn't from the right family...",CiforDayZServer,a7oe2,fghglps,"capitalism is basically feudalism, just with capital in place of blood lines.",fghexgk,strangetobe,b2baq
