child_body,child_screen_name,child_user_id,child_tweet_id,parent_body,parent_tweet_id,parent_screen_name,parent_user_id
"Playerbase dropped because less streamers are streaming the game consistently and the novelty of TFT wore off.

I'm having fun in Set 2 as in Set 1.",Liocardia,ccdoc,fiwo259,The first set was clearly better. I think this set not being as fun as the first one is why the playerbase has dropped so much,fiwk3yv,YoloMcSweggins,k9rbc
"I've been to LANs where they had TFT tournaments, it was really fun and exciting to watch.",Liocardia,ccdoc,fg9evso,"I think tft kinda suffers from the a similar problem as overwatch. The viewer experience just isnt all that great because to much is going on at the same time. You'd want to consume info from 2-3-4 perspectives at once which is just over stimulating and hard to process. Then you got to track progress from multiple points (you wanna know what comps theyre going for which champs they pass on if they are rolling well. but for 8 different people at the same time) Fluidity is a big part of success in esports. Games like lol, csgo, rocket league, sc2 have linear moments and single perspectives that garnish most of the crucial info. 

Maybe riot has got some clever ideas to over come this but I'm not all that hopeful it will get to a point I can tune into a match and understand whats going on.",fg8sjua,Gonzored,6m4rs
"Nah, Normals are just too free. A lot of casuals play normals so you don't really learn anything and you can't gauge your progression whereas in ranked you actually see a climb in ranking.",Liocardia,ccdoc,ffw7gdy,Wouldn’t playing normals on your main be the same thing? I’m just curious because that’s why I do to relax and try new comps ( even tho even in normals people are tryharding haha),ffw555k,drumag,2gctoz0k
"I mean, people already level when they see the lvl up notification pop up on their screens",Liocardia,ccdoc,ff8qpjk,"I agree that player level shouldn't be obstructed when you manually check them, but Mort said they intentionally don't want player levels to be shown in the side bar.

I believe he mentioned that when the level information is readily available in the UI, people end up all leveling around the same time which dumbs down the game a bit.",ff8me1v,edzwoo,6x0du
"Well it's Marvel Studios, they are going to make superhero movies, doesn't stop anyone else making other movies.",Liocardia,ccdoc,fedit67,"I think they timed, and wrapped up, the superhero era perfectly. Tied a neat little bow around it and called it perfection.

Please let us move on and have something new. Please.",fed8cbz,Panda_hat,47o13
I love living in Paris.,Liocardia,ccdoc,fdmym6a,Paris.   (I'm french.),fdky4em,IseultDarcy,5ajhsrzr
That's only for League.,Liocardia,ccdoc,fdmomct,The day after tomorrow I mean on 10th,fdkpqji,retobato,jtjmg
"Yeah it's probably true, it's just that I kept rolling at lvl 5 to just find a copy for science but couldn't.",Liocardia,ccdoc,fb75m9s,"You can find them, but you have to remember the chance of seeing them goes way down as you're removing 9 from the pool. I just finished a game where I had 3\* Nocturne and I had a 2 more I bought from shop on my bench to deny the other Blender player. I think 1 costs are probably the worst to test with because you already have such a low chance to roll 1\* to begin with at high levels + the smaller chance to get any specific unit. I've been the only Orn player at Lvl 8 and couldn't 2\* my Orn due to unlucky rolls.",fb752fo,Ryga_,3wsl8e
"In your shop (outside from the roll that gave you the 3*)? I don't count carousels, neekos or other people's board.",Liocardia,ccdoc,fb4xqky,I saw copies of a unit that I 3*’d yesterday.,fb4x5is,gaybearswr4th,npqgx
"How can you disagree with what he said? He just stated real facts. I've coached and seen gold players play, I can tell you they make a lot of mistakes, there are a lot of indecisions, they don't know where they are going, they don't maximize eco etc... So there are a lot of things that can easily be improved to climb a bit more.",Liocardia,ccdoc,fb3twcm,Respectfully disagree with you.,fb0fz8u,travissack,2zjxyijr
Same MMR. On my gold account I play challenger players LUL,Liocardia,ccdoc,fas5qxk,"Hi, I was wondering. I'm grinding a bit in TFT ranked. Currently I went from Iron to low platinum. But I've noticed that I'm not getting queue'd with people of the same rating. Does this have to anything with MR? I'm getting in games with gold and silver now (even tho I haven't played a lot in platinum yet.)  


Does anyone know what is going on?",fard1vg,LearnandCreate,172cwg
Dude with a bunch of people we watched live TFT tournaments at Paris Games Week this year and it was FIRE. It can definitely be exciting!,Liocardia,ccdoc,farwlvm,"TFT games are too boring to be covered. The odd one out like you and me (and more ppl on this sub) might find it interesting but in essence TFT is not a watchable game. We watch TFT streams for the streamer, the chill, and the decisionmaking process that gets explained from time to time. You don't get that in competitive TFT tourney stream.

Mort put it expertly. TFT games should be summarized with key interactions and decisions highlighted into a 5-10 minute game summary.",fariqke,toonboon,5of87
They announced 200 (a reduction from 300) but apparently it's still 300 ?,Liocardia,ccdoc,fan5l66,How many people can be in challenger EUW at the same time ?,fan4ymr,Dasje,136elq
"For sure, but it's frustrating xD",Liocardia,ccdoc,fa9r97p,"The LP and rank do not matter for MMR. Only your win ratio/placement matter. Plus, keep in mind that there are not that many Diamond+ players so there is a higher chance to get them in your game, especially since your MMR is most likely higher than Diamond.",fa9pztl,andysava,a4dp8
"TFT isn't any worse than having 1v1s, 2v2s, Tandem or any invented gameplay outside of Summoner's Rift.",Liocardia,ccdoc,fa9q2qo,Yes I wish they would treat TFT like a diff game. Or get all the TFT stuff out of the way first.,fa9o6yh,SuperMorimo,4dv0wit
"But how can I be in the same MMR range when they have : more games, way more LP and higher rank?",Liocardia,ccdoc,fa9pwpw,"You still face them because you probably still are in the same MMR range as them, since you were challenger last season. This is why, in my opinion, the rank hard reset was stupid without MMR reset. They should have just done it like they do it with League ranked. Someone described the situation better in a comment above.",fa9ppsm,andysava,a4dp8
