child_body,child_screen_name,child_user_id,child_tweet_id,parent_body,parent_tweet_id,parent_screen_name,parent_user_id
Why would you use Youtube over Spotify for music?,Pollylocks,16n37f,fj9gf5h,How come Spotify still outweighs YouTube users?? I don't get it. Might be a preference thing idk,fj7ypbl,MaybeImJustTired,7f4yh
"Thanks man, but you can see patches of different thickness. I have started taking vitamin D as of last week.",Pollylocks,16n37f,fj94lwa,Try start taking a daily vitamin and some vitamin d. Also your hair looks basically normal for it being short,fj94jzc,slotback67,1409mj
"I'm really not sure hey, never really noticed much shedding, definitely more than usual a bit after swapping to oral minox but i was confident in the doctors advice. Also the chances of neither fin or min working are pretty low, and the idea that they could make it worse is almost absurd, but yeah cant help but think they have made it worse. 

He said to come back and see him in July which would be a total of 6 months on 2mg but it's gonna be hard to ride it out til then. I always thought it was just the front that was taking a hit and that I could fix it with a transplant, but buzzing it and seeing that it's all over has made me lose hope that thats even possible + the cost of it would be insane.",Pollylocks,16n37f,fj94kdl,"That doesn’t even look that bad to me, mine is 1000x worse (diffuse thinner). However, I understand your frustration. Do you feel like using these products made it worse visibly, ie did you see way more shedding after using them? It sucks, man.",fj942gx,chrisinro,3g0wd69w
"Yea me too, new songs from DGD is one of my favourite things in the world, if it leaks you fucken bet I'm gonna listen to it immediately. I still buy the bundles and listen on Spotify to give them plays. 

Send me to rehab cause I'm a DGD addict.

Spreading leaks and posting that it's out to reddit isn't cool though, keep the secrets to yourself.",Pollylocks,16n37f,fj59kqn,"Yeah, personally, I always listen to leaks as soon as I can find one, because I can’t really contain my excitement and I’m a little impatient! But I still support the artist any way I can by buying merch and the new album, as well as turning off Adblock on their videos sometimes.",fj2c41i,Octobermode,lsyx6uc
"Yeah, anyone on the ISHRS or IAHRS are leading doctors in hair restoration. Never see much about any Aussie doctors on here but you can just Google him.",Pollylocks,16n37f,fj3b4zj,"Thanks mate! Guessing ISHRS is a good thing?

And I enjoy Adelaide, so worth a trip if he is good. 

Much on here about him?",fj3901e,hard_earned_recovery,5di69wj3
Yeah the ArSe dislike here is just weird tbh.,Pollylocks,16n37f,fj2ndv2,"ArSe is good. You guys might think it is ""just a bunch of singles"" or not deep enough but... I enjoy listening to it. I enjoy every song off it. I think the vocals and instrumentals are fucking mindblowing from everyone involved.",fj1wd58,altxi,lxt403o
4 minutes.,Pollylocks,16n37f,fiwmsmx,What’s the total length of the album?,fiwlgxe,squirt-daddy,tbw13gw
"Agree, kind of... I mean, if you know where to look... but posting about it leaking to reddit isn't cool.",Pollylocks,16n37f,fipxejw,"Respect the band, don't look for the leak.",fiptj6h,orions-pants,2t0xes6
"Yeah me too, it's coming. So good to see them grow. It was around 600k leading up to ArSe I believe.",Pollylocks,16n37f,fimpb99,I wanna see em break a million listeners 🔥,filuk9l,greg__37,4ozaeq04
http://www.mashew.com/health/hair/telogen-effluvium-success-story,Pollylocks,16n37f,fij2d7d,"> From what I've read, the shedding can last months but eventually your hair will go back to how it would've been if you had never used it in the first place.

I've read this too, but I can't seem to find any detailed accounts from people who have actually experienced it. Mostly everything I find is just people explaining what they switched to when they stopped Minoxodil.",fij1vqu,onlinedatinthrowaway,3uzz1kvh
Haha. Byeeeeeee!,Pollylocks,16n37f,fiejs20,"> I refuse to continue the DGD circlejerk 

Bye",fibg6nm,bropanski,ej2a1
"That last bit is incredible. Didn't really take note of it on my first few listens but fuck, it's so good. Absolutely love the drumming too.",Pollylocks,16n37f,fid8pdq,"Hint of SB style screams from JM near the end holy fuck


...also, did tilian scream?",fia73av,Troy_Davis,5wmt7
Me too :(,Pollylocks,16n37f,fic193j,"Hell, I wish I had an irl friend that cared about DGD",fib9u48,altxi,lxt403o
How long before you saw results with oral & what dose?,Pollylocks,16n37f,fi9f8ct,"It's not minox it's the alcohol in it that dries the skin up. Wear a head band while applying it, and remove it only when dry.

Source: switched from topical to oral minox. In spite of the larger dosage have better skin now",fi95esv,biplab1990,ij4gi
The kingdom,Pollylocks,16n37f,fi955nq,Where is that even from tho,fi8yp2p,Johnnykooks,3xsecho4
"When is the Closure in Moscow drought gonna end? So thirsty, please.",Pollylocks,16n37f,fi8l88q,I don’t know if they’re big enough to be our opener currently. Let them release a few albums and see where they’re at.,fi8b31v,ClosureInMoscowBand,e28fm
