child_body,child_screen_name,child_user_id,child_tweet_id,parent_body,parent_tweet_id,parent_screen_name,parent_user_id
"I figured ballistics were taken into account, the amount of rounds I put into that guy was absurd even with armor. That’s unfortunate to hear",Tristen518,53przv15,ffb25du,"The new damage system is so borked it might aswell be dice rolling.

It worked alot better in alpha but they decided to throw that out the window for some reason.

Mostly to sell the game better, they figure players have a ""more fun time"" if they can get shot 50 times and have a chance to shoot back.

Back in the day bullets worked very nicely i can assure you.

Infact the MP5 was quite the close combat king back then, and for good reason.

You would of won that fight much sooner if not for such tom foolery behind the scenes.",ffb10zf,Dack2019,4t6igljn
Elaborate?,Tristen518,53przv15,ffb0o6l,Because the new damage system is utterly stupid.,ffb0jb1,Dack2019,4t6igljn
"Sounds like someone is getting defensive after making a comment that warrants the same attitude. The objective point is that in a FPP situation you are in a more fair fight rather than the guy staring at you over a wall. Take that with a grain of salt but players who play 3pp are generally dick heads to begin with and play Dayz just like every other game on the market, therefore ruining the dayz experience. When I put on a plate carrier I lose stamina, when I put on sniper rifle it makes it harder to clear buildings, when I peak a corner in 3PP I receive no negatives and now have the ultimate advantage in a game where everything matters. If I peak in 1PP I expect my head to get taken off because that’s the cost VS reward.",Tristen518,53przv15,fei24wf,"Yeah and? I play a lot of different games, fortnite included, I enjoy every single one, games that are exclusively first person, *I enjoy* games that are exclusively third person, *I enjoy* it's nobody's fault that you got shot by a guy using third person or whatever, doesn't mean ridiculing everyone else about using it is morally correct, nor does it make a slightest bit of sense, if you don't like using third person in compatable games, who cares? I know I don't.",fei1h8w,Zackeramis0298,3tohgi7h
Sounds like someone that plays fortnight and isn’t even good at it lmao. I’ve got 0 hours and I’m proud of it.,Tristen518,53przv15,fehzbyq,Sounds like someone needs to go back to fortnite,fehxy1x,Zackeramis0298,3tohgi7h
"Absolutely, find what works for you but if you want a more fair aspect to this type of game then going FPP will give you that. 3PP is just bad for a game like this",Tristen518,53przv15,fehxgqy,"Yeah, I will start doing more first person I think, combat is so few and far between on console though so it’s hard to find what’s best suited to you, just trial and error unfortunately haha",fehwxyy,dth20,3a17bzff
"I see you’re still skulking around and being our last bastion of good humor and gameplay. Keep up gods work, friend!",Tristen518,53przv15,fait5z2,Meh,faim3vv,XboxModernWarfare,4rc3pyy4
This mission let’s you carry 4 from the start. Restock doesn’t work in the operations sadly,Tristen518,53przv15,fairnmk,How tf do you have 3 stims? Every time I try to use restock it never seems to work at all.,faieo9x,Happy_Cyanide,9hhky
"No, I think 2 is enough. The first time I did it wrong and it lasted too long. Cut it down, change the title because the first one sucked and BAM you fixed the post. That’s right friend, i reposted it and tried to make it better. Thank you for noticing.",Tristen518,53przv15,faddlks,You should post this at least 2-3 more times.,faddg95,hsdad,lqvhr
"Got me there, thanks!",Tristen518,53przv15,fadd3m1,Thank*,fadd2p3,XboxModernWarfare,4rc3pyy4
"Well hey I mean if your worth anything other than a dog shit, it’s consistent dog shit lmao",Tristen518,53przv15,fadd37i,"I like the term ""blunt"" and ""consistent"" better.",fadd1bw,XboxModernWarfare,4rc3pyy4
Than you,Tristen518,53przv15,fadcxqo,The 0 upvotes speak for itself. Trash,fadcul8,XboxModernWarfare,4rc3pyy4
"Thank you for being me back into focus, I...don’t know what happened. You’re right, you set me off. It’s just...you’re a dick. And it’s hard not to want to say something back. I definitely learned that you can’t win against guys like you.  It’s not funny,  just sharing something I thought was",Tristen518,53przv15,fadcx5l,Your such a drama queen. All I said was womp womp womp. Look at you. Frothing at the mouth ide imagine. You clearly care to the point you are mad that I don't find this funny. Keep crying man this post has gotten funnier by the reply.,fadcrxi,XboxModernWarfare,4rc3pyy4
"Ah, I see. Yes I have a liking for the matrix trilogy and the name meaning new in Latin. Shall you being the Berating?",Tristen518,53przv15,fadcgh4,Call me neo.,fadcch3,XboxModernWarfare,4rc3pyy4
"Man you are so ass backwards it’s hard to understand if your just messing with me. I don’t want or care that you didn’t find my shit funny. You decided to act like a child on the internet, but Ohhhh man I’m the sensitive one for saying anything back. Man GTFO. downvote.move.on.",Tristen518,53przv15,fadcdyc,Not agreeing with you makes me sensitive?  A perfect example of the snowflakes running around reddit crying. You aren't speaking btw. No one on Reddit  can hear you speak.,fadc9u6,XboxModernWarfare,4rc3pyy4
"Sir, I think you’re taking this a bit far don’t you think? We have already given you the title of great truth and humor. You need not show your strength. Humor is only subjective, yes? Shouldn’t you know this? You are the one?",Tristen518,53przv15,fadc2uh,"Don't comment anything negative or the OP will get defensive, dense and outright outlandish. Make sure you upvote his HILARIOUS video and comment good things or else you might be spoken to by the OP.",fadbzx0,XboxModernWarfare,4rc3pyy4
"Thank you for putting me in my place, I shall never share my pleasure with anyone else. Truly you are the one and only person who can look through the sea of Monotony and despair. Where will you go? What will you do? We may never know because life has its ways with assholes.",Tristen518,53przv15,fadbwn3,I am honored. Maybe you will get that karma you so desperately are trying to get with an actual funny post next time.,fadbu8k,XboxModernWarfare,4rc3pyy4
