category,comment_body,parent_body,poster_name
@AndrejBabis,"@AndrejBabis Prchale, vy jste fakt odpad...","Máme zatím štěstí 👍 Doufám, že si to mezi sebou řeknou všechny koronaviry. https://t.co/YaH25L6OEM",1038729043150090240
@AndrejBabis,@AndrejBabis fakt čistá svině,"Chci upozornit, že na boj s COVID-19 nedává EU ani o korunu víc, než na kolik měly stát nárok už před pandemií. Sch… https://t.co/W9iF3y0cnq",1038729043150090240
@AndrejBabis,"@AndrejBabis what an idiot, our PM... What shall we do in case of total need, because of fail of government....",Watch this video. Czechs are sewing their own masks to fight COVID-19. Everyone in the world should follow our exam… https://t.co/8sMpyTLMWF,1038729043150090240
@adamvojtechano,"@adamvojtechano twl, já fakt nechci být vulgární, ale do*********, ku*****, co vy jste za **********","Zásobování sociálních služeb pomůckami převzal pan ministr Hamáček. Pokud je někde nedostatek, měla by to paní mini… https://t.co/xzloSu7LXG",1038729043150090240
@AndrejBabis,@AndrejBabis Bez komentáře.,Bez komentáře. https://t.co/wKdSBlDarr,1038729043150090240
@alenaschillerov,"@alenaschillerov @AndrejBabis to je dobře, že jste v minulých letech v dobách neuvěřitelného ekonomického růstu našetřili do rezervy.",Prezident republiky před chvílí podepsal novelu zákona o státním rozpočtu na rok 2020. Naše země je díky tomuto zák… https://t.co/ivqceWdJGf,1038729043150090240
@AndrejBabis,@AndrejBabis Twl.,Památník Tomáše Bati jsem navštívil 29. 5. 2015. Byl v totálně zchátralém stavu a sám bývalý primátor a současný ná… https://t.co/vOWk7gUzKl,1038729043150090240
@AndrejBabis,"@AndrejBabis najdi 2 rozdíly.... to zas budou slaboduchý slzet, jak nosí roušku jako my https://t.co/JRAWlEbvyD","Mám něco na srdci. Sledujte dnes ve 20.05 můj mimořádný projev. Česká televize, Nova, Prima a Český rozhlas Radiožu… https://t.co/JB2jLZGW1O",1038729043150090240
@AndrejBabis,"@AndrejBabis tak to jdete do hajzlu, brát si vzor z Číny!!!","Jedeme podle vzoru Číny a Jižní Koreje, které situaci s COVID-19 zvládly.",1038729043150090240
@AndrejBabis,"@AndrejBabis nenajdeme. Vy vždycky mluvíte na těch tiskovkách jazykem, kterému nikdy nerozumím.
takže zítra opravdu čas ztrácet nebudu.","Najdete si zítra, v pondělí večer ve 20 hodin chvilku? Vím, že je to teď těžké období a já víc než kdy jindy cítím,… https://t.co/aB5P27DcDc",1038729043150090240
@adamvojtechano,"@adamvojtechano ministrem Itálie
ministrem Itálie
ministrem Itálie
ministrem Itálie",V Bruselu jsem se setkal i s ministrem Itálie Robertem Speranzou. Mluvili jsme spolu o vážném nárůstu nemocných v I… https://t.co/zjwhBkWkS3,1038729043150090240
@AndrejBabis,@AndrejBabis Nevěřím ani slovo.,"Po Messengeru tady teď lítá klasická fake news, která bohužel už dost lidí vystrašila 🙈🙄 Audiozpráva, ve které říká… https://t.co/d3eMNmjg0U",1038729043150090240
@adamvojtechano,@adamvojtechano @etabery Čau lidi!!! Víte kolik máme v Čechách ministrů zdravotnictví???,Právě mi volali z Nemocnice Na Bulovce. Máme dalšího vyléčeného pacienta! Celkem se vyléčilo už 6 osob.,1038729043150090240
@adamvojtechano,"@adamvojtechano Čau lidi!!! Víte kolik máme v Čechách ministrů zdravotnictví??? o jednoho víc, než je třeba.",Právě mi volali z Nemocnice Na Bulovce. Máme dalšího vyléčeného pacienta! Celkem se vyléčilo už 6 osob.,1038729043150090240
@AndrejBabis,@AndrejBabis Prchalovi nevěřím ani slovo,"A další nepravdivá informace, kterou někdo šíří, je, že má být zítra vyhlášena karanténa Prahy. Není to pravda.",1038729043150090240
@AndrejBabis,@AndrejBabis A touhle propagandistickou lží chcete Prchale zakrýt všechny Babišovy problémy?,V boji proti koronaviru je Česká republika nejaktivnější stát v Evropě.,1038729043150090240
@AndrejBabis,"@AndrejBabis o kolik mohlo být méně nakažených, kdyby jste nebyl tak neschopný!!!!!!!!!!",V České republice máme první tři pacienty vyléčené z nákazy koronavirem! Všichni tři v nemocnici v Ústí nad Labem.… https://t.co/4s4qwRsxNb,1038729043150090240
@AndrejBabis,@AndrejBabis Tak tomu rychle udělejte tiskovku!!! ať si zkusíte nahnat další procenta do průzkumu!!!,"Právě jsem dostal od čínského velvyslance Zhanga Jianmina informaci, že naše letadlo, které letí do Číny pro rychlo… https://t.co/QOmFxlsGyy",1038729043150090240
@AndrejBabis,"@AndrejBabis o kolik mohlo být méně nakažených, kdybyste nebyl tak neschopný!!!!!!!!!!",V České republice máme první tři pacienty vyléčené z nákazy koronavirem! Všichni tři v nemocnici v Ústí nad Labem.… https://t.co/4s4qwRsxNb,1038729043150090240
@AndrejBabis,"@AndrejBabis jednu Babiš vlastní, Prchale","A vyzýváme i další velké firmy, aby se zapojily.",1038729043150090240
@AndrejBabis,@AndrejBabis @alenaschillerov 😁😁😁😁 Babiš je prostě slaboch.,"Oznamuju novinářům, že řeším jen koronavirus, stovky dotazů od občanů, firem a institucí. Ohledně vašich dotazů k p… https://t.co/w6190Y32MP",1038729043150090240
@adamvojtechano,@adamvojtechano vy si z nás prostě budete dělat prdel furt...,Češi jako světoví rouškaři! Světová média vyzdvihují naše opatření k povinnému nošení pokrývky úst a nosu. Je úžasn… https://t.co/hDJXSlS7kj,1038729043150090240
@AndrejBabis,"@AndrejBabis @CzechTV @RobertPlaga takže to Berkovec psal celé zbytečně? pravda, když to vysílání pro školy Dvořák… https://t.co/vx1aETS9P2","Obrátil se na mě ředitel @CzechTV pan Petr Dvořák s návrhem, že jsou schopni zrealizovat od příštího týdne vysílání… https://t.co/HnfK1XuyG7",1038729043150090240
@AndrejBabis,"@AndrejBabis twl! citovat svého oddaného nohsleda, co pro mě aktivně pracuje nejen v mých vlastních novinách.","MACHÁČEK: Východní Evropa dává Západu víc, než si bere zpátky https://t.co/M8BEGLfqV9",1038729043150090240
