category,comment_body,parent_body,poster_name
@AndrejBabis,"@AndrejBabis @strakovka @KarelHavlicek_ A 2022 pojedeme nanovo, protože česká kvalita, co nejvyšší cena a co nejvíc to odfláknout...","Modernizace D1 jede. Start podle plánu. Před chvílí začala demolice dvou nadjezdů u Humpolce, vyrazil jsem na místo… https://t.co/HfVRqh2JVP",1081634118583152641
@adamvojtechano,"@adamvojtechano A co osoby zdravotně postižené pod 50 let, ty jako nejsou ohrožené? To je nefér.",Na základě podnětů jsme pro seniory změnili čas pro nákupy. Od středy mohou do potravin nad 500m2 mezi 8 a 10 h pou… https://t.co/KWwLyfzJRy,1081634118583152641
@alenaschillerov,@alenaschillerov @AndrejBabis Ještě by to chtělo na stejnou dobu pozastavit úroky.,"Půl roku bez splátek úvěrů a hypoték pomůže všem. Občanům, firmám i náladě ve společnosti. Banky i nebankovní spole… https://t.co/bKiCT8jdff",1081634118583152641
@AndrejBabis,"@AndrejBabis Dobrý den, chtěla bych se zeptat co bude se zaměstnanci uzavřených obchodů, jak jim budete kompenzovat… https://t.co/Qi5NWuOT6A","Na neděli 16:00 jsem svolal vládu, abychom důkladně vyhodnotili dopady dnešních opatření a doladili detaily o maloo… https://t.co/6II6tjuhYH",1081634118583152641
