category,comment_body,parent_body,poster_name
@adamvojtechano,"@adamvojtechano Twl Adama, ty jsi blesk! To by je asi nenapadlo a urcite to nedelaji.",Musíme udělat maximum pro ochranu seniorů před koronavirem. Je to nejohroženější skupina. Přicházíme proto s mimořá… https://t.co/moD5nIe24Q,1085837133552730112
@AndrejBabis,"@AndrejBabis A co nasetrila tvoje vlada za casu rustu? Nic co? Uz zase kopes kolem sebe, proto sem nic nemas.","Chci upozornit, že na boj s COVID-19 nedává EU ani o korunu víc, než na kolik měly stát nárok už před pandemií. Sch… https://t.co/W9iF3y0cnq",1085837133552730112
@adamvojtechano,@adamvojtechano @JStredula @infocz_web @VrataDostal @tripartita_cz @ZdravkoOnline @odbory @UnieCr @JMalacova… https://t.co/tewvsepD2J,@JStredula @infocz_web @VrataDostal @tripartita_cz @ZdravkoOnline @odbory @UnieCr @JMalacova @mpsvcz @SestryOnline… https://t.co/6rlvIlrUOP,1085837133552730112
@alenaschillerov,@alenaschillerov @vnitro Poskokove uz na nem makaj co? Musime ho dopsat!,"Samozřejmě, že má @vnitro jako gestor krizového zákona svůj právní výklad k náhradám škod. A já z něj vycházím. Pod… https://t.co/hlglzMFw6S",1085837133552730112
@AndrejBabis,@AndrejBabis Chces rict tvoje? Ne?,"Chci upozornit, že na boj s COVID-19 nedává EU ani o korunu víc, než na kolik měly stát nárok už před pandemií. Sch… https://t.co/W9iF3y0cnq",1085837133552730112
@alenaschillerov,"@alenaschillerov A kde je ta podpora podnikatelum, ktera jim pomuze, aby nemuseli vyhazovat sve zamestnance? Furt j… https://t.co/kScCtAAa97","Stručnost a přehlednost je v této chvíli klíčová. Koukněte, co všechno přináší #liberacnibalicek daňových úlev a co… https://t.co/BmS6eymuqk",1085837133552730112
@alenaschillerov,"@alenaschillerov @SenatCZ Proc se pozastavuje? Ja myslel, ze to podnikatelum nepridelava praci navic?",Také @SenatCZ odsouhlasil dočasné pozastavení EET. Podnikatelé nebudou muset evidovat své tržby po dobu nouzového s… https://t.co/XTilLhkuHR,1085837133552730112
@alenaschillerov,"@alenaschillerov Nenavrhovala to opizice uz davno? Myslim, ze to nekdo smetl ze stolu, ze? Pry zavazali bojovat. Je… https://t.co/W9kfgh50uw","Dobře vím, že peníze dnes jsou důležitější než peníze zítra. V těžké době to platí dvojnásob. Vládě proto navrhnu z… https://t.co/xzlc8q4NB7",1085837133552730112
@kalousekm,@kalousekm @alenaschillerov To by Alenka neudela. Pak by byl videt ten bordel co tam zpusobila a prokazala se jeji neschopnost.,"Jsem zoufalý z toho, jak jsou zoufalí živnostníci. Paní ministryně,@alenaschillerov, pusťte mě v 7,00 ráno na minis… https://t.co/s3tQpDKDyl",1085837133552730112
@kalousekm,@kalousekm @rprymula Neni to sireni poplasne zpravy?,"Šokující výrok náměstka @rprymula o zavřených hranicích na 2 roky znovu naléhavě nastoluje otázku, zda je správné,… https://t.co/APFVuO7TO4",1085837133552730112
@AndrejBabis,@AndrejBabis Takze cely agrofert homeoffice. Ale bys pristel o penize co? Takze pekne makaaat,"Žádám zaměstnavatele, aby se postavili k této situaci čelem, uznali zaměstnancům překážku v práci, dali jim plnou m… https://t.co/Z04PVYhas7",1085837133552730112
@adamvojtechano,"@adamvojtechano Co takhle prestat blabolit, delat si PR a poradne maknout? Je videt, ze vam o lidi vubec nejde, hla… https://t.co/rF61eP604j","Téměř 1 000 000 ks roušek, respirátorů, rukavic a dalších ochranných pomůcek jsme do této doby doručili nemocnicím,… https://t.co/EgNpqyFEun",1085837133552730112
@AndrejBabis,"@AndrejBabis @SkupinaPPF A proc to nenakoupila vlada uz davno, ale Kellner to dokazal nakoupit? Zajimavy",Vláda ČR děkuje @SkupinaPPF za pomoc. Česká republika získává darem 120 tun zdravotnických pomůcek v hodnotě 100.00… https://t.co/TDAtJJnDCQ,1085837133552730112
@AndrejBabis,@AndrejBabis V klidu. Agrofert uz nakupuje a preproda to vlade za dvojnasobek.,"A vyzýváme i další velké firmy, aby se zapojily.",1085837133552730112
