category,comment_body,parent_body,poster_name
@AndrejBabis,@AndrejBabis @realDonaldTrump https://t.co/ITc3ptbZfP,"Mr. President @realDonaldTrump, try tackling virus the Czech way. Wearing a simple cloth mask, decreases the spread… https://t.co/j0TkxlDlbI",1085094464849367040
@AndrejBabis,"@AndrejBabis Emocni taktika, jo? Zmena strategie?","Najdete si zítra, v pondělí večer ve 20 hodin chvilku? Vím, že je to teď těžké období a já víc než kdy jindy cítím,… https://t.co/aB5P27DcDc",1085094464849367040
@AndrejBabis,"@AndrejBabis @alenaschillerov @MarieBeneov2 mluv, babo! 😁😁😁","Oznamuju novinářům, že řeším jen koronavirus, stovky dotazů od občanů, firem a institucí. Ohledně vašich dotazů k p… https://t.co/w6190Y32MP",1085094464849367040
@AndrejBabis,@AndrejBabis Kurva uz. Ty co reknes je kec... Puvodne mel letet dneska. Shanels dotaci na kerosin? Z*rde,"Vláda ČR vysílá do Šen-čenu airbus vládní letky, který doveze 100.000 rychlotestů. Odlet pondělí v 5:00, návrat středa v 0:40.",1085094464849367040
@adamvojtechano,@adamvojtechano @kalousekm @strakovka @ZdravkoOnline Ale kdy??? Proboha kdy??? Když uz jste měli po poradě s @AndrejBabis a @prchal ?,"@kalousekm @strakovka @ZdravkoOnline Naprosto nerozumím této Vaší poznámce. Na ministerstvu se vytvořil tým lidí, k… https://t.co/BkaDHspWXf",1085094464849367040
@PiratIvanBartos,"@PiratIvanBartos @P_Fiala @market_a @Vit_Rakusan Tak doufeme, ze to dorazi k temto debilum... https://t.co/vORD2KLmDk","Vyzýváme vládu, aby říkala pravdivé informace o skutečném stavu zásob ochranných pomůcek pro pracovníky v ohroženýc… https://t.co/ljSdhTPmkZ",1085094464849367040
@adamvojtechano,"@adamvojtechano Kurva uz, kupte do prdele doktorum A SESTRAM A ZBtku personalu vcetne vratnycz ochranme pomucky. Co… https://t.co/8kt8DsPFXo","Pořídíme do všech nemocnic v ČR termokamery. Celkem 500. Chceme mít na vstupu do nemocnic maximální jistotu, že ide… https://t.co/M8cf6kE4kG",1085094464849367040
@adamvojtechano,"@adamvojtechano @PiratIvanBartos Prdlajs. Rouskam jste se vysmal, totalne jste je shodil a ted se tim chlubite. Nem… https://t.co/F3aHDgmBNR","@PiratIvanBartos Proč? V té době toto platilo, měli jsme zmapován stav zásob v nemocnicích, které měly tehdy dostat… https://t.co/1ospy4zn9g",1085094464849367040
@PiratIvanBartos,"@PiratIvanBartos @adamvojtechano Mozna ministr, ale ne zdravotnictvi...","@adamvojtechano To myslíte vážně, že to nikdo nemohl předpokládat? Evropské středisko pro prevenci a kontrolu nemoc… https://t.co/VkdfmHRSUX",1085094464849367040
@alenaschillerov,"@alenaschillerov @PolicieCZ @Celnisprava Co ty se do toho jeste seres, Aleno?",Informace o bezpečném chování a povinnostech proti případnému šiření koronaviru na území ČR budou od pondělí společ… https://t.co/pHcN1cRSft,1085094464849367040
@AndrejBabis,"@AndrejBabis Předsedo, to ste to tam umisťovali s ferdou mravencem @KarelHavlicek_ nebo s @TatanaMala?",Právě jsme umístili infotabuli na Dolní Dvořiště a ještě na další dvě místa na hraničních přechodech na silnicích I… https://t.co/cUyGDkGuVZ,1085094464849367040
