category,comment_body,parent_body,poster_name
@AndrejBabis,@AndrejBabis @realDonaldTrump @realDonaldTrump @WhiteHouse,"Mr. President @realDonaldTrump, try tackling virus the Czech way. Wearing a simple cloth mask, decreases the spread… https://t.co/j0TkxlDlbI",1093995099762159616
@AndrejBabis,@AndrejBabis Konecne!!! @realDonaldTrump @AndrejBabis @PellegriniP_ @ZuzanaCaputova @WHO,😊👍 https://t.co/dPCx9w7cfk,1093995099762159616
@AndrejBabis,@AndrejBabis @NaBulovce @HasiciPraha Uzavriet Prahu!,"Ze 104 pozitivních případů máme 50 v Praze, proto od zítřka navyšujeme kapacitu:
UVN spouští zítra v 11:00 nový sta… https://t.co/3g0POp24FO",1093995099762159616
