category,comment_body,parent_body,poster_name
@AndrejBabis,@AndrejBabis @realDonaldTrump Pan chytrý...,"Mr. President @realDonaldTrump, try tackling virus the Czech way. Wearing a simple cloth mask, decreases the spread… https://t.co/j0TkxlDlbI",1118907316412342272
@kalousekm,@kalousekm @prchal Těch jo co? A když je označím reagují jako sršni,"Vytvalost je dlužno ocenit. Slibuji všem trollům z března 2020, které jsem už desetkrát zabanoval, že pokud se přiz… https://t.co/qx9aaFVRew",1118907316412342272
@AndrejBabis,"@AndrejBabis Prodávat cizí to ti vždycky šlo, že ty smrde.",Watch this video. Czechs are sewing their own masks to fight COVID-19. Everyone in the world should follow our exam… https://t.co/8sMpyTLMWF,1118907316412342272
@adamvojtechano,@adamvojtechano @NaBulovce Nebylo by na čase to přenechat někdo rozumnému?,"S panem prof. Prymulou intenzivně řešíme narůstající počet nakažených seniorů. Domluvili jsme kapacity @NaBulovce,… https://t.co/Joxa8cMAFw",1118907316412342272
@AndrejBabis,"@AndrejBabis Já bych, když už použil jeho mluvu.
Som hluboce otresny.... atd.","Jsem hluboce otřesený, jako každý, kdo četl zprávu o střeleckém útoku ve městě Hanau, při kterém přišlo o život nej… https://t.co/f80zVoBR86",1118907316412342272
@AndrejBabis,@AndrejBabis Odstup satane!,Právě jsme s epidemiologem Romanem Prymulou vyhodnotili vývoj epidemie koronaviru v Itálii. Mezidenní nárůst o 769… https://t.co/sRC9nZokgm,1118907316412342272
@AndrejBabis,@AndrejBabis @vrecionova @P_Fiala Demisi,"Paní @vrecionova lže. Nikdy, opakuji, nikdy jsem kancléřce Merkelové netelefonoval s tak nesmyslným požadavkem, aby… https://t.co/KvrOOBGcq4",1118907316412342272
@AndrejBabis,@AndrejBabis @Markus_Soeder Záleží satane.,"Právě jsem mluvil s Angelou Merkelovou a @Markus_Soeder. Bavorsko postupně zavádí opatření, která kopírují ta česká… https://t.co/TSnM1C0b6V",1118907316412342272
