category,comment_body,parent_body,poster_name
@kalousekm,"@kalousekm @MartinZrust ruský ,americký,-všechny jsou z Činy.",@MartinZrust Samozřejmě ten americký..,1174993544634871808
@AndrejBabis,@AndrejBabis No mám pocit že tady kdejaka babka ušije kvalitňejši respirátor.....😄,Otázka dne pro Romana Prymulu. Mají dorazit miliony roušek a respirátorů. Komu je stát chce rozdat? Zbyde i na obyč… https://t.co/1cxmW3Lw9e,1174993544634871808
@AndrejBabis,@AndrejBabis Že by šelest........???,"Mám něco na srdci. Sledujte dnes ve 20.05 můj mimořádný projev. Česká televize, Nova, Prima a Český rozhlas Radiožu… https://t.co/JB2jLZGW1O",1174993544634871808
@adamvojtechano,@adamvojtechano @ZdravkoOnline Tak to teda nevím co s tím budete dělat. Teda od nástupu Koronaviru v Česku jsem vid… https://t.co/X1ZjJbxfMA,Představuji vám náš obchodní tým @ZdravkoOnline. 24 hodin denně sledují trh a nakupují všechny dostupné respirátory… https://t.co/YEnvnBlo5C,1174993544634871808
