category,comment_body,parent_body,poster_name
@AndrejBabis,@AndrejBabis Taky mám hezkou písničku: https://t.co/nfjSNJJmYg,"Tahle píseň je skvělá, určitě si ji pusťte. Planeta musí koronavirus porazit 👍 Děláme pro to všechno.
https://t.co/Ij0flMSRko",1177654497100926976
