category,comment_body,parent_body,poster_name
@AndrejBabis,"@AndrejBabis Ale třeba Václavovi @Fergl_EE_Pergl, jeho sestře Růženě a Zdeně, matce hlavně a synovi vůbec nic nepřišlo, ty elbundo!","Gratuluju autorům toho skvělého videa, co jsme všichni viděli a co jsem poslal většině premiérů a prezidentů Evropy… https://t.co/3o56MP74pv",1201832283843510277
@adamvojtechano,"@adamvojtechano @AndrejBabis Prosimvás pane Vojtěcháno, až těch lidí bude 101,tak je zrušíte? Václav… https://t.co/uXuKL3WxvA",Aktuální čísla ke koronaviru. Celkem jsme již vyšetřili 1816 osob. K dnešnímu ránu stále platí 94 pozitivních pacientů.,1201832283843510277
@AndrejBabis,@AndrejBabis Lidi sou pitomci starý a šíří tydle dezyformelace a vyvolávaj panický stavy! Třeba včera zrovna někdo… https://t.co/A556HnHl0E,"Někdo šíří po Facebooku nepravdivou zprávu, že budeme zavírat obchody. Není to pravda, nic takového jsme neřekli a… https://t.co/GKV8BWPAMg",1201832283843510277
