category,comment_body,parent_body,poster_name
@AndrejBabis,@AndrejBabis Má poškozené plíce jeho stav je velmi vážný mini lekari,"Úžasná zpráva. Remdesivir zabral! Stav pacienta ve VFN, který tři dny lék dostává, se výrazně zlepšil. Mohl být odp… https://t.co/338hgdYWao",1216345309590294528
@adamvojtechano,@adamvojtechano @AndrejBabis Ráno řekněte zase že nepřibyl zadny nový případ co? Sakra už něco dělejte tohle vám nestačí?,"Pražská hygienická stanice dnes večer také potvrdila pozitivní případ muže, který nemá cestovatelskou anamnézu. Hyg… https://t.co/iKjhvCziB9",1216345309590294528
@AndrejBabis,"@AndrejBabis Nejlepší projev který sem od vás slyšela
 Politika by teď měla jít stranou.zo by každý měl uvědomit. Děkuji","Mám něco na srdci. Sledujte dnes ve 20.05 můj mimořádný projev. Česká televize, Nova, Prima a Český rozhlas Radiožu… https://t.co/JB2jLZGW1O",1216345309590294528
@AndrejBabis,@AndrejBabis Budou zase nějaké změny v nařízení?,"Najdete si zítra, v pondělí večer ve 20 hodin chvilku? Vím, že je to teď těžké období a já víc než kdy jindy cítím,… https://t.co/aB5P27DcDc",1216345309590294528
@AndrejBabis,@AndrejBabis A čeho se to bude týkat?,"Mám něco na srdci. Sledujte dnes ve 20.05 můj mimořádný projev. Česká televize, Nova, Prima a Český rozhlas Radiožu… https://t.co/JB2jLZGW1O",1216345309590294528
@AndrejBabis,@AndrejBabis První s tím ale přišel pan Pan Primula,"Po Messengeru tady teď lítá klasická fake news, která bohužel už dost lidí vystrašila 🙈🙄 Audiozpráva, ve které říká… https://t.co/d3eMNmjg0U",1216345309590294528
@AndrejBabis,@AndrejBabis Když už svolá v 8.00 tiskovku tak situace je opravdu vážná.,Svolal jsem mimořádné zasedání Bezpečnostní rady státu. Přijmeme další opatření v boji proti koronaviru v ČR. V 8h krátká tiskovka.,1216345309590294528
@kalousekm,@kalousekm Paní si test nechala udelat na soukromé klinice vyšelpozitivne informovala skolu což si myslím že je dob… https://t.co/HP6mucoctE,"Mezi politickými egomaniaky propukl boj, kdo první ohlásí další případ nakažení koronavirem, byť nepotvrzený. Zajis… https://t.co/0INaZ4sv1q",1216345309590294528
@kalousekm,@kalousekm @MisaPopelky Teď si musíme hlavně počkat na ty výsledky ty sou hlavní,@MisaPopelky Existuje jasně daný proces toku informací prostřednictvím resortu zdravotnictví. Za chvíli bude inform… https://t.co/vvc1mVtmcH,1216345309590294528
@kalousekm,@kalousekm A chvíli na to primátor Hřib zveřejní že máme další 6 případ tentokrát v Praze 6  matka od dítěte násled… https://t.co/C7brGlq6RB,"Vláda míní, že k omezování hromadných akcí není důvod, neb “virus se nerozšiřuje”. No, nevím. Až se rozšiřovat začn… https://t.co/ZofphJlvAY",1216345309590294528
@adamvojtechano,@adamvojtechano @AndrejBabis Tomu říkáte že to zvládáte?,"Dovolím si uvést informaci pana primátora na pravou míru. Žena, která se v sobotu vrátila z Itálie, se nechala otes… https://t.co/1WYX4J9cJo",1216345309590294528
@adamvojtechano,@adamvojtechano @NaBulovce Nějak se vám ten systém hroutí ne ?,"Protože chceme mít jistotu, vyšetření u ženy z Prahy opakujeme a budeme mít výsledky večer. Také testujeme její rod… https://t.co/tBnQXX8iLV",1216345309590294528
@AndrejBabis,@AndrejBabis @MorawieckiM Ale ze máme právě potvrzeny 6 případ to neřeknete,"Díky přátelům, premiérům V4, že přijeli do Prahy a zareagovali rychle na návrh @MorawieckiM poté, co se i Evropou z… https://t.co/2mwSl7994l",1216345309590294528
@AndrejBabis,@AndrejBabis Takže už můžeme o Velikonocích na hory? takže omezení pohybu už platit ne bude? Měníte názory jako ponožky,"Tady máte rozhovor z dnešního Práva. Přečtěte si ho prosím, je důležitý.
https://t.co/B7OkrMb9KD https://t.co/UQGqf4trCc",1216345309590294528
@adamvojtechano,@adamvojtechano @AndrejBabis Je dobre že jste se omluvil.,Omlouvám se paní doktorce z laboratoře Tilia. Bohužel jsem od kolegů dostal špatnou informaci. Spletl jsem se a mrz… https://t.co/w7oYoNGChw,1216345309590294528
@adamvojtechano,@adamvojtechano @AndrejBabis Strašný,Nemocnice Na Bulovce ohlásila dnes večer dalších 5 pozitivních pacientů na koronavirus. Celkem tedy máme 26 nakažen… https://t.co/Jj5ugk23Qk,1216345309590294528
@alenaschillerov,@alenaschillerov @AndrejBabis Kolik takových změn ještě bude?,Výsledek naší rychlé dohody na výjimkách z karantény u některých profesí. Velmi důležité. https://t.co/L3VGy39Z40,1216345309590294528
@AndrejBabis,@AndrejBabis @sebastiankurz @GiuseppeConteIT Hlavne uklidnit české spoluobčany,"Koronavirus. Evropa se koordinuje. Ve 13:45 jsem volal @sebastiankurz, řekl mi, jak vypadá situace v Rakousku. Mají… https://t.co/TCTzbdeMKj",1216345309590294528
