category,comment_body,parent_body,poster_name
@AndrejBabis,@AndrejBabis Fandím vám.Děláte to dobře.Situace si to vyžaduje.Jedni vás budou kritizovat že přeháníte opatření a d… https://t.co/9lDWCgIITX,"Na neděli 16:00 jsem svolal vládu, abychom důkladně vyhodnotili dopady dnešních opatření a doladili detaily o maloo… https://t.co/6II6tjuhYH",1237994994545369088
@AndrejBabis,"@AndrejBabis Dobrý den,může se na víkend vyjet z Prahy do Středních Čech a nehrozí, že by se člověk nemohl vrátit?Děkuji",Zítra se potkají i s novou hlavní hygieničkou a budou konzultovat další případná opatření. Bavili jsme se i o možno… https://t.co/9OZK6l7mdE,1237994994545369088
