category,comment_body,parent_body,poster_name
@AndrejBabis,"@AndrejBabis Dobry den, jak budete resit oblasti, ktere to zasahne nejvice? Chapu, ze na prvnim miste je zdravi, al… https://t.co/ZpP1ketqh2",Na dnešní mimořádné jednání vlády jsme pozvali ředitele Státního zdravotního úřadu a ředitele hygienických stanic P… https://t.co/7EczWInx4c,1238001203746877441
@AndrejBabis,"@AndrejBabis Proc nejsou balicky na podporu firmam, jak to ma Nemecko, Portugalsko nebo Spanelsko? Pomoc na mzdach.… https://t.co/8etlrusAYZ",Na dnešní mimořádné jednání vlády jsme pozvali ředitele Státního zdravotního úřadu a ředitele hygienických stanic P… https://t.co/7EczWInx4c,1238001203746877441
