category,comment_body,parent_body,poster_name
@AndrejBabis,@AndrejBabis DD.Velmi prosím tedy i zvážení jak ochránit prodavačky.Pracuji jako vedoucí prod.potravin v krkonošské… https://t.co/3Pg6cZULSK,"Na neděli 16:00 jsem svolal vládu, abychom důkladně vyhodnotili dopady dnešních opatření a doladili detaily o maloo… https://t.co/6II6tjuhYH",1238757289382809601
@AndrejBabis,"@AndrejBabis Dobrý den ještě jednou.Prosím také zvážit cesty a návštěvy prodejen obchodními zástupci,jezdí po celé… https://t.co/7T2EOk1Pka","Na neděli 16:00 jsem svolal vládu, abychom důkladně vyhodnotili dopady dnešních opatření a doladili detaily o maloo… https://t.co/6II6tjuhYH",1238757289382809601
