category,comment_body,parent_body,poster_name
@AndrejBabis,"@AndrejBabis By mě zajímalo, kde se u spousty zde diskutujících bere ta nenávist. Musí být nespokojení ve svém živo… https://t.co/aKyePfr79D",Zvládneme to. https://t.co/rVNbfaP92Y,1239209622143217664
@kalousekm,"@kalousekm @rprymula Aha, takže až budu chtít opravit auto, tak nemám jet do servisu za automechanikem, ale za vámi… https://t.co/k8iBxxGcGZ","Šokující výrok náměstka @rprymula o zavřených hranicích na 2 roky znovu naléhavě nastoluje otázku, zda je správné,… https://t.co/APFVuO7TO4",1239209622143217664
@PiratIvanBartos,"@PiratIvanBartos Hlavně, že jste AB kritizovali za to, že nechtěl poskytnout roušky Číně, když říkal, že jich máme… https://t.co/cAjQOmr9Ob","Jsem rád, že si i pan prezident všiml nedostatku zdravotního materiálu. Jako opozice “pumpujeme” a některé naše náv… https://t.co/KJ9D8wfa8Y",1239209622143217664
@AndrejBabis,"@AndrejBabis Přimlouvám se za dočasný zákaz pendlerů, byť to pro ně bude rána. Ale podívejme se na situaci v Německ… https://t.co/RDGdZRNCVk","Jsem opravdu překvapen, že v Německu není povinnost nosit roušky, a dokonce je stále možné, aby se lidé potkávali n… https://t.co/4ojt0kq0Jp",1239209622143217664
@AndrejBabis,"@AndrejBabis já bych to zakázal, aspoň do Německa a Rakouska...","Vláda bude zítra diskutovat o pendlerech, kteří jezdí za prací. Jejich pohyb omezíme, otázka je jen jak.",1239209622143217664
