category,comment_body,parent_body,poster_name
@AndrejBabis,"@AndrejBabis Hope, finally rest of our population will understand, all these measures are for the people - we are a… https://t.co/O7ID0rvuyD",We follow the example of China and South Korea who got the COVID-19 under control. Tomorrow the government will dis… https://t.co/Em4w867CSg,1240012094277332999
@AndrejBabis,"@AndrejBabis so, our people, those really need to wok there in cross border are on  high risk -along with their fam… https://t.co/nADu325JQN",I am really surprised that there is no obligation to wear protective masks in Germany and some other states with ve… https://t.co/EyVRnG8NWB,1240012094277332999
