category,comment_body,parent_body,poster_name
@AndrejBabis,"@AndrejBabis Dobrý den,chtěla bych se zeptat proč chcete v této době otevřit další obchody.Když bylo nakaženo minim… https://t.co/yGcxiKla2m","Tady máte rozhovor z dnešního Práva. Přečtěte si ho prosím, je důležitý.
https://t.co/B7OkrMb9KD https://t.co/UQGqf4trCc",1246722088095887361
