category,comment_body,parent_body,poster_name
@adamvojtechano,"@adamvojtechano Together, we will fight COVID-19 and create a healthier Czechia 🇨🇿",Bilance za dnešek. Celkem byla nákaza koronavirem prokázána již u 1394 lidí. Od dnešního rána jejich počet vzrostl… https://t.co/6qQmgBR7qT,1252910772
@AndrejBabis,"@AndrejBabis @adamvojtechano Together, we will fight COVID-19 and create a more healthier 🇨🇿",Watch this video. Czechs are sewing their own masks to fight COVID-19. Everyone in the world should follow our exam… https://t.co/8sMpyTLMWF,1252910772
