category,comment_body,parent_body,poster_name
@AndrejBabis,@AndrejBabis Nezapomeň si to Máro pořádně olajkovat. A nasdilet. Tento se fakt poved.,"Musel jsem jim bohužel říct o hrozném incidentu ze včerejška, kdy řidič Boltu v Praze vyhodil z vozu nevidomou ženu… https://t.co/8I9wTt8vwS",12897922
@AndrejBabis,@AndrejBabis Ale fuj to. Necháš toho ty jeden. Hyena by se styděla.,"Musel jsem jim bohužel říct o hrozném incidentu ze včerejška, kdy řidič Boltu v Praze vyhodil z vozu nevidomou ženu… https://t.co/8I9wTt8vwS",12897922
