category,comment_body,parent_body,poster_name
@adamvojtechano,"@adamvojtechano @ZdravkoOnline Pane ministře, to musel být šok, když jste v ČT prohlásil, že budou do tří týdnů a l… https://t.co/O58TDET28x",Představuji vám náš obchodní tým @ZdravkoOnline. 24 hodin denně sledují trh a nakupují všechny dostupné respirátory… https://t.co/YEnvnBlo5C,1376381743
@AndrejBabis,"@AndrejBabis V Nouzovém Stavu má vše řídit Ústřední Krizový Štáb. Kdy na něj přesunete pravomoci, aby tady konečně… https://t.co/KRXGBtQR5N","Na neděli 16:00 jsem svolal vládu, abychom důkladně vyhodnotili dopady dnešních opatření a doladili detaily o maloo… https://t.co/6II6tjuhYH",1376381743
