category,comment_body,parent_body,poster_name
@alenaschillerov,"@alenaschillerov @financnisprava Prosim o odpoved jak to bude s touto davkou 15tis. v pripade, kdy je majitelem zav… https://t.co/ZDfM45SK3n","Paletu opatření na podporu zaměstnanosti, ekonomiky a podnikání rozšiřujeme o přímou pomoc OSVČ, kterým vládní opat… https://t.co/aFuqnA4KzS",14867930
@AndrejBabis,@AndrejBabis Jdete se s tema vasima vyzvama vycpat,"Toto preventivní opatření je nezbytné, abychom se vyhnuli nekontrolovanému šíření koronaviru, v ČR. Za chvíli budem… https://t.co/KbZF7nMz0x",14867930
@AndrejBabis,@AndrejBabis @adamvojtechano Jdete s tim centralnim planovanim do prdele...trh si pomuze i bez stbackejch rad...,"Musíme zařídit dostatek roušek a respirátorů PRO ZDRAVOTNÍKY. Dnes jsem svolal do Motola 98 ředitelů nemocnic, doda… https://t.co/kgYhhYSlvU",14867930
@AndrejBabis,@AndrejBabis To je vůůůl 😂,Právě jsme umístili infotabuli na Dolní Dvořiště a ještě na další dvě místa na hraničních přechodech na silnicích I… https://t.co/cUyGDkGuVZ,14867930
