category,comment_body,parent_body,poster_name
@AndrejBabis,@AndrejBabis máme na to ale jiné metody... https://t.co/mjoquoCito,Zvládneme to. https://t.co/rVNbfaP92Y,15790705
@AndrejBabis,@AndrejBabis @CVUTPraha Jediná zásluha kterou na tom máte je že jste nechal naše zdravotnictví dojít do takových sr… https://t.co/drJL5RQEXH,"Taky dáváme zdarma k dispozici technologii na respirátory z 3D tiskáren, kterou vyvinuli naši vědci z @CVUTPraha. O… https://t.co/HrosCsitz4",15790705
