category,comment_body,parent_body,poster_name
@kalousekm,"@kalousekm @ivan_pilip @AndrejBabis je obyčejný virus, na který jednou najdeme lék. Napáchá mnoho škod, ale my se u… https://t.co/tXnC6j5RJO","@ivan_pilip Máš kus pravdy. Budu se víc hlídat. Na druhou stranu-jak chceš označit člověka, který v okamžiku existe… https://t.co/d13iZddb6u",1666243332
@AndrejBabis,"@AndrejBabis Omlouvám se všem dámám a gentlemanům, ale je 12:30 a mám sedmičku vína božího Sauvignonu Kolby ročník… https://t.co/qh8GQxbe9m","Chci upozornit, že na boj s COVID-19 nedává EU ani o korunu víc, než na kolik měly stát nárok už před pandemií. Sch… https://t.co/W9iF3y0cnq",1666243332
@AndrejBabis,"@AndrejBabis @CMZRB_Praha Evropské dotace  jsou určené pro jiné účely. Nemůžete je využívat na provozní náklady, pr… https://t.co/blqsgtcXlo","Uvolnění pravidel využijeme např. pro převody v rámci OP PIK ve výši cca 10 mld. Kč, kdy budeme moci skrze… https://t.co/eQdd3yRdcE",1666243332
@AndrejBabis,"@AndrejBabis Skutečně se omlouvám(zítra to nejspíš smažu) 

MRDKO","Chci upozornit, že na boj s COVID-19 nedává EU ani o korunu víc, než na kolik měly stát nárok už před pandemií. Sch… https://t.co/W9iF3y0cnq",1666243332
@AndrejBabis,@AndrejBabis Můžu si koupit Boloňskou omáčku?,Právě jsme s epidemiologem Romanem Prymulou vyhodnotili vývoj epidemie koronaviru v Itálii. Mezidenní nárůst o 769… https://t.co/sRC9nZokgm,1666243332
@adamvojtechano,"@adamvojtechano Mezinárodní srovnání...
ďupky, ďupky, ďupky, ďupky, ďupky, ďupky, ďupky, ďupky, ďupky, ďupky, .....… https://t.co/BuQKhNNa9M","Stále slyším mýty, že Česká republika netestuje. Testujeme v mezinárodním srovnání nadprůměrně. A zapojujeme další… https://t.co/nxydvt9Wtl",1666243332
@AndrejBabis,"@AndrejBabis @vdzurilla @e_estonia všiml sis názvu e-estonia? To je ale národ blbců, že! 
Místo toho aby použili ja… https://t.co/AsvAIf1xMW","Estonsko patří mezí lídry v digitalizaci. Spolu s @vdzurilla jsme v centru @e_estonia viděli, jak funguje jejich e-… https://t.co/tVBytgyuun",1666243332
@AndrejBabis,@AndrejBabis Jste to preimérování pojal jako Honzíkovu cestu za dobrodružstvím a poznáním. https://t.co/25pnLarolI,"U pomníku Války za nezávislost jsme uctili vojáky, kteří padli v boji za estonskou nezávislost. Historie Estonska j… https://t.co/Gdz3Jp2Th6",1666243332
