category,comment_body,parent_body,poster_name
@AndrejBabis,@AndrejBabis @realDonaldTrump COVFEFE!,"Mr. President @realDonaldTrump, try tackling virus the Czech way. Wearing a simple cloth mask, decreases the spread… https://t.co/j0TkxlDlbI",18392040
@AndrejBabis,"@AndrejBabis @vrecionova @P_Fiala Obsesi opakovat několikrát v jedné větě slovo NIKDY mívají často ti, kterým se z… https://t.co/UHBeMftg4I","Paní @vrecionova lže. Nikdy, opakuji, nikdy jsem kancléřce Merkelové netelefonoval s tak nesmyslným požadavkem, aby… https://t.co/KvrOOBGcq4",18392040
