category,comment_body,parent_body,poster_name
@AndrejBabis,@AndrejBabis @janekrubes Rezignace?,"Najdete si zítra, v pondělí večer ve 20 hodin chvilku? Vím, že je to teď těžké období a já víc než kdy jindy cítím,… https://t.co/aB5P27DcDc",185818393
@AndrejBabis,@AndrejBabis Ksindle ...,"Jedeme podle vzoru Číny a Jižní Koreje, které situaci s COVID-19 zvládly.",185818393
