category,comment_body,parent_body,poster_name
@AndrejBabis,@AndrejBabis Si říkal že je rozvezeš sám?!,Otázka dne pro Romana Prymulu. Mají dorazit miliony roušek a respirátorů. Komu je stát chce rozdat? Zbyde i na obyč… https://t.co/1cxmW3Lw9e,273107727
@AndrejBabis,@AndrejBabis Běž s tím do hajzlu,"Najdete si zítra, v pondělí večer ve 20 hodin chvilku? Vím, že je to teď těžké období a já víc než kdy jindy cítím,… https://t.co/aB5P27DcDc",273107727
