category,comment_body,parent_body,poster_name
@kalousekm,@kalousekm @alenaschillerov No ale co ak by ste škrtali v podpore pre Agrofert ktorý môjmu rodákovi samozrejme nepatrí .... ale predsa ;-),"Jsem zoufalý z toho, jak jsou zoufalí živnostníci. Paní ministryně,@alenaschillerov, pusťte mě v 7,00 ráno na minis… https://t.co/s3tQpDKDyl",2890802901
@AndrejBabis,@AndrejBabis To predsa nie je pravda čo sa vraví v tom videu. Toto je číra a trápna propaganda . Hanba našemu rodák… https://t.co/t1kGb3OsL5,"Kdo máte přátele, známé, rodinu nebo obchodní partnery v zahraničí, pošlete jim tohle důležité video. Každý v Evrop… https://t.co/0Gl3u0GwLV",2890802901
@AndrejBabis,"@AndrejBabis @FNBrno Prvý krát som na môjho rodáka hrdý. Správne, musíme si pomáhať.",Francie se na nás obrátila s žádostí o pomoc s hospitalizací svých pacientů. Vzhledem k dostatečné kapacitě jsme ji… https://t.co/YHnZqKEZOt,2890802901
@AndrejBabis,@AndrejBabis @ObranaTweetuje Môj rodák je klamár a klame aj teraz.,"Absolutně s tím nesouhlasím, zastavil jsem to a projednávat to SAMOZŘEJMĚ nebudeme. Nevím, proč teď @ObranaTweetuje… https://t.co/L70sJ1478t",2890802901
