category,comment_body,parent_body,poster_name
@AndrejBabis,"@AndrejBabis Hňupe

https://t.co/B0sg6VC1mW","Úžasná zpráva. Remdesivir zabral! Stav pacienta ve VFN, který tři dny lék dostává, se výrazně zlepšil. Mohl být odp… https://t.co/338hgdYWao",3413082112
