category,comment_body,parent_body,poster_name
@AndrejBabis,@AndrejBabis V každé větší firmě funguje SOD a není to nikdy one-man show... Andrej to řídí jako garazovej startup… https://t.co/9By4921hPO,Dnešní rozhovor pro MF DNES. https://t.co/6gExgAzWyL,39472190
@AndrejBabis,@AndrejBabis Nic není zmanipulované... Však tam ten dokument leží... A skuteční majitele se řešit budou https://t.co/teknJ5yGcv,"Samozřejmě na sítích probíhá účelově zmanipulovaný obrázek od Milionu chvilek, který sdíleli i někteří novináři a m… https://t.co/ZJNGAMkoXh",39472190
