category,comment_body,parent_body,poster_name
@tomio_cz,"@tomio_cz #NaPravouMiru: Naopak! Je možné, že bez společné zeměd. politiky EU by ČR byla ještě méně soběstačná. Nav… https://t.co/hYBWpSciDo","ČR není kvůli zemědělské politice EU potravinově soběstačnou zemí. Co se stane, když zahraniční státy na základě vl… https://t.co/GscO743xLb",415155630
@AndrejBabis,"@AndrejBabis Upřesňujeme: Komise uvolnila ČR peníze (8 mld. Kč), o které by mohla přijít, nebo se k nim dostat až z… https://t.co/jDua9Jvefw","Chci upozornit, že na boj s COVID-19 nedává EU ani o korunu víc, než na kolik měly stát nárok už před pandemií. Sch… https://t.co/W9iF3y0cnq",415155630
