category,comment_body,parent_body,poster_name
@AndrejBabis,"@AndrejBabis Žádný rady od tý vaší odporný svoloče nepotřebuju, Máro @prchal","Tohle si přečtěte 👍
https://t.co/RTmZWqO8rO",425162517
@AndrejBabis,"@AndrejBabis Všude říkám, jakej jste nevychovanej hajzl","Máme zatím štěstí 👍 Doufám, že si to mezi sebou řeknou všechny koronaviry. https://t.co/YaH25L6OEM",425162517
@AndrejBabis,"@AndrejBabis Máro @prchal , tuhle klasiku ten pitomec nemůže znát, leda tak Dušana Grúňa","Tahle píseň je skvělá, určitě si ji pusťte. Planeta musí koronavirus porazit 👍 Děláme pro to všechno.
https://t.co/Ij0flMSRko",425162517
@AndrejBabis,"@AndrejBabis Omluvil jsem se paní Hohlmaier za ty vaše sračky, tak můžete pokračovat v boji s neexistujícím virem a… https://t.co/Zot67xq0cu","Gratuluji Igoru Matovičovi a hnutí OĽaNO k vítězství ve slovenských parlamentních volbách! Skvělá kampaň, díky kter… https://t.co/gkzPVOGIfr",425162517
@AndrejBabis,"@AndrejBabis Omluvil jsem se paní Hohlmeier za ty vaše sračky, tak můžete pokračovat v boji s neexistujícím virem a… https://t.co/5yG57U5lBN","Gratuluji Igoru Matovičovi a hnutí OĽaNO k vítězství ve slovenských parlamentních volbách! Skvělá kampaň, díky kter… https://t.co/gkzPVOGIfr",425162517
@PiratIvanBartos,@PiratIvanBartos 😀,"Po dohodě a po komunikaci s kandidátem, zástupci kraje a republikovým předsednictvem budeme v pondělí na jednání RP… https://t.co/Ne6cX94IWh",425162517
@AndrejBabis,"@AndrejBabis Kampaň, nic jinýho ten váš dream team snů nezajímá, tak si udělejte Máro @prchal pořádný rozbor, abyst… https://t.co/8rRkHtrH9A","Gratuluji Igoru Matovičovi a hnutí OĽaNO k vítězství ve slovenských parlamentních volbách! Skvělá kampaň, díky kter… https://t.co/gkzPVOGIfr",425162517
@AndrejBabis,"@AndrejBabis Když vám platila neoprávněný dotace, tak vám byla dobrá celá EU, co? Jste odpornej podvodník, hajzl, a… https://t.co/4SJ0HUmoFr","Chci upozornit, že na boj s COVID-19 nedává EU ani o korunu víc, než na kolik měly stát nárok už před pandemií. Sch… https://t.co/W9iF3y0cnq",425162517
@AndrejBabis,"@AndrejBabis A až bude po všem, přiznáte se k eStéBácví-konfidentství, zlodějství a mafiánství? Teprve pak by jste… https://t.co/cU0I01QQNP","Gratuluju autorům toho skvělého videa, co jsme všichni viděli a co jsem poslal většině premiérů a prezidentů Evropy… https://t.co/3o56MP74pv",425162517
@AndrejBabis,"@AndrejBabis Kohezní, další oblíbený slovíčko do žvástů dua Bureš - Mára @prchal","Mimochodem, my jsme Komisi žádali spolu s dalšími zeměmi o mnohem širší změny v pravidlech čerpání, což zatím nevys… https://t.co/dVmc2HCqjR",425162517
@AndrejBabis,"@AndrejBabis Fake news @lidovky , bez komentáře",Bez komentáře. https://t.co/wKdSBlDarr,425162517
@AndrejBabis,"@AndrejBabis Pustím si letitý záznam Jakeše z Hrádku, blekota jako blekotající jekota, prašť jako uhoď, Máro @prchal","Najdete si zítra, v pondělí večer ve 20 hodin chvilku? Vím, že je to teď těžké období a já víc než kdy jindy cítím,… https://t.co/aB5P27DcDc",425162517
@AndrejBabis,"@AndrejBabis O nacvičený projev podvodníka, křiváka, sraba a estébáka, kterému ho navíc napsali geniální mediální m… https://t.co/HNlNTYhdco","Mám něco na srdci. Sledujte dnes ve 20.05 můj mimořádný projev. Česká televize, Nova, Prima a Český rozhlas Radiožu… https://t.co/JB2jLZGW1O",425162517
@alenaschillerov,"@alenaschillerov Ale jděte, lhářko, bude předseda SSHR Švagr odvolán „za špatnou komunikaci”? / https://t.co/7HXfZhfO0c",Především pracovníkům v první linii patří omluva za nedostatek ochranných pomůcek. Bohužel je to realita většiny po… https://t.co/Lxj9USI7KD,425162517
@AndrejBabis,@AndrejBabis Každej den? A kde jsou tanky?,Svolal jsem mimořádné zasedání Bezpečnostní rady státu. Přijmeme další opatření v boji proti koronaviru v ČR. V 8h krátká tiskovka.,425162517
@AndrejBabis,"@AndrejBabis @adamvojtechano A vrátí ty nakradený prachy, pane Máro @prchal ? 🤔","Požádal jsem @adamvojtechano, aby se spojil s polským ministrem a zjistil jejich přesný postup sanitárních kontrol.",425162517
@AndrejBabis,@AndrejBabis Hochštaplere posr***** https://t.co/hYEdA48zMz,"Co se týče migrace, nechceme, aby se opakoval rok 2015. Situace na vnějších hranicích EU je vážná, nesmíme ji podce… https://t.co/3Xmiwet2ks",425162517
@AndrejBabis,"@AndrejBabis Už jsem se lek’, že smyk 🤭","Právě jsem dostal od čínského velvyslance Zhanga Jianmina informaci, že naše letadlo, které letí do Číny pro rychlo… https://t.co/QOmFxlsGyy",425162517
@adamvojtechano,"@adamvojtechano Máro @prchal , jaký by to bylo krásný, kdyby to neřídila ta vaše zkurvená pakáž v čele s tím prolhaným srabem",Musíme bez výjimky chránit sebe a své okolí! Vláda právě schválila povinnost mít od dnešní půlnoci na veřejných mís… https://t.co/wMdOjv03qT,425162517
@adamvojtechano,"@adamvojtechano Něco bych se vás zeptal, ale je to k ničemu, @prchal mi stejně neodpoví","Další roušky a respirátory jsou na cestě. Vnímám vaše reakce, a vím, že to jde pomaleji, než bychom si představoval… https://t.co/gYcHnY7uG8",425162517
@adamvojtechano,"@adamvojtechano @ZdravkoOnline 2 notebooky, to je ústředí 🤣",Představuji vám náš obchodní tým @ZdravkoOnline. 24 hodin denně sledují trh a nakupují všechny dostupné respirátory… https://t.co/YEnvnBlo5C,425162517
@AndrejBabis,"@AndrejBabis Odborník, pan poslanec, doktor B. Svoboda za Palermo @ODScz se v lednu o tuto problematiku v PS zajíma… https://t.co/3UXAjblwu5","Znovu mluvím přes video se všemi lídry EU, VŠICHNI řeší kritickou situaci a VŠEM chybí roušky, respirátory a ventil… https://t.co/a9Xw48F7EI",425162517
@PiratIvanBartos,"@PiratIvanBartos @AndrejBabis je konkurence neschopnej, proto se bojí, dneska ho znemožnil například R. Šmucler","Již několik dní marně apelujeme na vládu, aby svolala Ústřední krizový štáb. Ten by pomohl zapojit i řadu odborníků… https://t.co/daFK9UTBGP",425162517
@adamvojtechano,"@adamvojtechano Moje dcera ještě stále nemá jako zdr. sestra v nemocnici kvalitní respirátor, tak to selhání tý vaš… https://t.co/LJQsuC9voh",Počet vyléčených se zvýšil na 45!,425162517
@adamvojtechano,@adamvojtechano https://t.co/tOwTl0UaAf,"Pořídíme do všech nemocnic v ČR termokamery. Celkem 500. Chceme mít na vstupu do nemocnic maximální jistotu, že ide… https://t.co/M8cf6kE4kG",425162517
@AndrejBabis,"@AndrejBabis Máro @prchal , vy můžete klečet na kolenou a prosit, ale effect zůstane stejný, jako kdyby klečel samo… https://t.co/EXxDcSgfya","Tady máte rozhovor z dnešního Práva. Přečtěte si ho prosím, je důležitý.
https://t.co/B7OkrMb9KD https://t.co/UQGqf4trCc",425162517
@AndrejBabis,"@AndrejBabis @FNBrno Pomáhat cizím? Co si to za moje peníze dovolujeme? Snad ještě k tomu nejsou čmoudové, nemají k… https://t.co/ycd3v35tDE",Francie se na nás obrátila s žádostí o pomoc s hospitalizací svých pacientů. Vzhledem k dostatečné kapacitě jsme ji… https://t.co/YHnZqKEZOt,425162517
@kalousekm,@kalousekm @P_Fiala Šaškovi @ZahradilJan se to ale líbí 🥰,"Umím si představit, jak bylo tohle pro @P_Fiala těžké a na jak tenký led ve vlastní straně vstoupil. O to víc si vá… https://t.co/8Echer2WDI",425162517
@adamvojtechano,"@adamvojtechano Teď ti budu tykat, kokote. Jsi cynický hovado (že ti to napsal Mára @prchal je tvůj problém). To je všechno",Češi jako světoví rouškaři! Světová média vyzdvihují naše opatření k povinnému nošení pokrývky úst a nosu. Je úžasn… https://t.co/hDJXSlS7kj,425162517
@AndrejBabis,@AndrejBabis @CzechTV @RobertPlaga Berkovec s @juchelkaa budou monitorovat,"Obrátil se na mě ředitel @CzechTV pan Petr Dvořák s návrhem, že jsou schopni zrealizovat od příštího týdne vysílání… https://t.co/HnfK1XuyG7",425162517
@AndrejBabis,"@AndrejBabis Máro @prchal , běžte si za tu neuvěřitelnou Babišovu lidskost vypláchnout klávesnici","Musel jsem jim bohužel říct o hrozném incidentu ze včerejška, kdy řidič Boltu v Praze vyhodil z vozu nevidomou ženu… https://t.co/8I9wTt8vwS",425162517
@AndrejBabis,"@AndrejBabis @sebastiankurz @GiuseppeConteIT A co delegace z Bruselu, už byla na Čapáku a v Sokolovně?","Koronavirus. Evropa se koordinuje. Ve 13:45 jsem volal @sebastiankurz, řekl mi, jak vypadá situace v Rakousku. Mají… https://t.co/TCTzbdeMKj",425162517
