category,comment_body,parent_body,poster_name
@AndrejBabis,"@AndrejBabis Boha, to je sráč...","Chci upozornit, že na boj s COVID-19 nedává EU ani o korunu víc, než na kolik měly stát nárok už před pandemií. Sch… https://t.co/W9iF3y0cnq",42835755
@AndrejBabis,@AndrejBabis https://t.co/Vsh6i4Xymb,"Znovu mluvím přes video se všemi lídry EU, VŠICHNI řeší kritickou situaci a VŠEM chybí roušky, respirátory a ventil… https://t.co/a9Xw48F7EI",42835755
