category,comment_body,parent_body,poster_name
@AndrejBabis,"@AndrejBabis Vis co buresi,jdi do prdele","Kdo máte přátele, známé, rodinu nebo obchodní partnery v zahraničí, pošlete jim tohle důležité video. Každý v Evrop… https://t.co/0Gl3u0GwLV",441846899
@AndrejBabis,@AndrejBabis Tvoje letadlo a tvoje pomoc jo?Smejde slovenskej? https://t.co/agc21JaqXs,"Právě jsem dostal od čínského velvyslance Zhanga Jianmina informaci, že naše letadlo, které letí do Číny pro rychlo… https://t.co/QOmFxlsGyy",441846899
