category,comment_body,parent_body,poster_name
@AndrejBabis,"@AndrejBabis Rozdíl je, ze někdo o tom týdny lze a mlži a někdo to přizná a pak se ten problém dá nějak řešit.","Znovu mluvím přes video se všemi lídry EU, VŠICHNI řeší kritickou situaci a VŠEM chybí roušky, respirátory a ventil… https://t.co/a9Xw48F7EI",483455387
@AndrejBabis,"@AndrejBabis Prosím pěkně, proč je pod tím převzatým článkem z FT podepsán pan Macháček?","MACHÁČEK: Východní Evropa dává Západu víc, než si bere zpátky https://t.co/M8BEGLfqV9",483455387
