category,comment_body,parent_body,poster_name
@adamvojtechano,"@adamvojtechano @AndrejBabis Průzkum mezi lékaři i zdravotnickým personálem jasně ukázal, že jste banda neschopných… https://t.co/RvYZVTY5H8","Hygienici, lékaři i zdravotnický personál odvádí skvělou práci. To jasně ukázal tento průzkum mezi čtenáři serveru… https://t.co/c3ElQnq2gR",612063915
@AndrejBabis,"@AndrejBabis 6 let nemáme televizi, ale jestli už půjde do prdele, budu se dívat na netu. A paní Monice to moc sluší.","Najdete si zítra, v pondělí večer ve 20 hodin chvilku? Vím, že je to teď těžké období a já víc než kdy jindy cítím,… https://t.co/aB5P27DcDc",612063915
