category,comment_body,parent_body,poster_name
@AndrejBabis,@AndrejBabis Siete delle merde. Spero per voi il peggio. Indegni della razza umana,"Najdete si zítra, v pondělí večer ve 20 hodin chvilku? Vím, že je to teď těžké období a já víc než kdy jindy cítím,… https://t.co/aB5P27DcDc",69285003
@AndrejBabis,@AndrejBabis Sporco ladro di merda,We follow the example of China and South Korea who got the COVID-19 under control. Tomorrow the government will dis… https://t.co/Em4w867CSg,69285003
