category,comment_body,parent_body,poster_name
@AndrejBabis,"@AndrejBabis A bude to opravdu projev? Nebo budete číst z papíru, co Vám napsal pan Prchal? A bude to projev státní… https://t.co/iVtuJGD3uL","Mám něco na srdci. Sledujte dnes ve 20.05 můj mimořádný projev. Česká televize, Nova, Prima a Český rozhlas Radiožu… https://t.co/JB2jLZGW1O",696797674356531200
@AndrejBabis,"@AndrejBabis Kdokoliv jinej.....teda kromě prezidenta (a spol.), Faltýnka, Filipa (a spol.), Okamury (a spol.), Fol… https://t.co/0bz4sGC8aT","Najdete si zítra, v pondělí večer ve 20 hodin chvilku? Vím, že je to teď těžké období a já víc než kdy jindy cítím,… https://t.co/aB5P27DcDc",696797674356531200
@AndrejBabis,"@AndrejBabis Ale raději opravdu ne! Nejste lídr, nejste řečník, nejste silný premiér, nejste ten, kdo by měl v tuto… https://t.co/Rsu8TfSKYX","Najdete si zítra, v pondělí večer ve 20 hodin chvilku? Vím, že je to teď těžké období a já víc než kdy jindy cítím,… https://t.co/aB5P27DcDc",696797674356531200
@AndrejBabis,"@AndrejBabis A pokud to bude muset opravdu být pane Babiši (Bureši nebo Máro), vezměte si prosím alespoň jen obyčej… https://t.co/PcBQLvebno","Najdete si zítra, v pondělí večer ve 20 hodin chvilku? Vím, že je to teď těžké období a já víc než kdy jindy cítím,… https://t.co/aB5P27DcDc",696797674356531200
@tomio_cz,"@tomio_cz Neprskej tady bez roušky a neobtěžuj tady s uprchlíkama, na kterých sis vybudoval kariéru a namastil sis… https://t.co/avzTghW1oW",To je šokující. Bývalý velvyslanec Česka při NATO a nynější šéf Evropské obranné agentury (což je orgán Společné be… https://t.co/quRhBVXVyc,696797674356531200
@AndrejBabis,"@AndrejBabis Je absolutně jasné a stoprocentní, že vaše twíty nepíšete vy pane premiére. Kdybyste je psal vy, nebud… https://t.co/XSmk9TYqZz","Po Messengeru tady teď lítá klasická fake news, která bohužel už dost lidí vystrašila 🙈🙄 Audiozpráva, ve které říká… https://t.co/d3eMNmjg0U",696797674356531200
