category,comment_body,parent_body,poster_name
@AndrejBabis,"@AndrejBabis Je štěstí, že jsme zemí šílenců? 🤔 Díky, pane premiére","Máme zatím štěstí 👍 Doufám, že si to mezi sebou řeknou všechny koronaviry. https://t.co/YaH25L6OEM",739389481472655364
@AndrejBabis,"@AndrejBabis Z části neříkáte úplnou pravdu a z části lžete: Jde o peníze, které bychom museli použít na něco jinéh… https://t.co/8EjCBGeCpy","Chci upozornit, že na boj s COVID-19 nedává EU ani o korunu víc, než na kolik měly stát nárok už před pandemií. Sch… https://t.co/W9iF3y0cnq",739389481472655364
@kalousekm,"@kalousekm @SeznamZpravy @ODScz @AndrejBabis Občas se to stane snad každé straně, je nemožné vše ohlídat, ale tím,… https://t.co/ld1OXY4N7G","@SeznamZpravy Vím, že musíte podávat vyčerpávající informace. Jenom mi přijde trochu nespravedlivé to zdůrazňování,… https://t.co/xjr2ATEl1U",739389481472655364
