category,comment_body,parent_body,poster_name
@AndrejBabis,@AndrejBabis U estébáků není třeba koronavirus. Tam je mozek napadený už dávno. #andrejbabiš #podvodník #lhář https://t.co/2thalchSLJ,Bez komentáře. https://t.co/wKdSBlDarr,740256607083343872
@AndrejBabis,@AndrejBabis Ty jsi neskutečný lhář a zmrd. Chápu že potřebuješ číňanům splatit svůj dluh z Agrofertu - proto ta ša… https://t.co/sUpMnTar2d,"Chci upozornit, že na boj s COVID-19 nedává EU ani o korunu víc, než na kolik měly stát nárok už před pandemií. Sch… https://t.co/W9iF3y0cnq",740256607083343872
@AndrejBabis,@AndrejBabis @adamvojtechano The REASON WHY is because Czech Crime Minister @AndrejBabis  has actively blocked all… https://t.co/cAVS8FrWF5,Watch this video. Czechs are sewing their own masks to fight COVID-19. Everyone in the world should follow our exam… https://t.co/8sMpyTLMWF,740256607083343872
@adamvojtechano,"@adamvojtechano Fakt, mladej? A kde byly vod tý doby co jste V LEDNU s tou vaší bolševickou partají zablokovali jed… https://t.co/s9vzBSOsqV","Intenzivně pracujeme na dodávkách ochranných pomůcek. Na cestě je 16 kamionů s 1,4 mil. respirátorů a 2,2 mil. úste… https://t.co/qByQsxtpPI",740256607083343872
@adamvojtechano,@adamvojtechano Světová média vyzdvihují to že Češi si uměli poradit v době kdy je jejich vláda totálně neschopných… https://t.co/YK2f8LhkQJ,Češi jako světoví rouškaři! Světová média vyzdvihují naše opatření k povinnému nošení pokrývky úst a nosu. Je úžasn… https://t.co/hDJXSlS7kj,740256607083343872
