category,comment_body,parent_body,poster_name
@AndrejBabis,"@AndrejBabis Kolik lidí čeká na testy? 
Já vím, že je to těžká situace ale prostě pokud nedokážeme zajistit adekvát… https://t.co/730uoe2ATO",V České republice máme první tři pacienty vyléčené z nákazy koronavirem! Všichni tři v nemocnici v Ústí nad Labem.… https://t.co/4s4qwRsxNb,760512948368465920
