category,comment_body,parent_body,poster_name
@AndrejBabis,"@AndrejBabis Zatímco Čína nám dala ten Covid... to ste takovej zbabělec?! Řečnická otázka, nenamáhejte se. Vám  nevěří ani detektor lži.","Chci upozornit, že na boj s COVID-19 nedává EU ani o korunu víc, než na kolik měly stát nárok už před pandemií. Sch… https://t.co/W9iF3y0cnq",761458513
@adamvojtechano,"@adamvojtechano @vnitro Jasný, a proto musíme dodávat roušky od holek, co šijí do úmoru, i do domovů důchodců. A ne… https://t.co/BnSdVVR2Jn","Vypomůžeme @vnitro s dodávkami ochranných pomůcek, než jim dorazí další várka. Domluvili jsme se na tom teď operati… https://t.co/qJlRmHy0UF",761458513
@AndrejBabis,"@AndrejBabis O Číně neví nikdo nic, nebo spíš jim nikdo ty čísla nevěří, a v Jižní Koreji se testuje... všude a zda… https://t.co/m30mTxY7pF","Jedeme podle vzoru Číny a Jižní Koreje, které situaci s COVID-19 zvládly.",761458513
@AndrejBabis,@AndrejBabis @strakovka Asi tak?! https://t.co/9mgknRKYCu,Otázka dne pro Romana Prymulu. Mají dorazit miliony roušek a respirátorů. Komu je stát chce rozdat? Zbyde i na obyč… https://t.co/1cxmW3Lw9e,761458513
@adamvojtechano,"@adamvojtechano @TomZdechovsky @infocz_web Budete odpovídat i na ostatní otázky, třeba lékařů?!","@TomZdechovsky @infocz_web Lžete Vy, vážený pane europoslanče a měl byste se za to omluvit. MZ ČR se přihlásilo do… https://t.co/g9cj7JHM2E",761458513
@alenaschillerov,"@alenaschillerov Vy prostě nejste schopný řict omluvu bez ""ale"". Jděte se vycpat, a mimochodem, peníze z EU sou kde?!",Především pracovníkům v první linii patří omluva za nedostatek ochranných pomůcek. Bohužel je to realita většiny po… https://t.co/Lxj9USI7KD,761458513
@AndrejBabis,@AndrejBabis Rozhodně ne vaší zásluhou!,V České republice máme první tři pacienty vyléčené z nákazy koronavirem! Všichni tři v nemocnici v Ústí nad Labem.… https://t.co/4s4qwRsxNb,761458513
@adamvojtechano,"@adamvojtechano Je mi z vás na blití... tohle už dosahuje výšin vašeho guru... odporný... a mate pravdu, bojujeme s… https://t.co/t8sSinDbxI",Češi jako světoví rouškaři! Světová média vyzdvihují naše opatření k povinnému nošení pokrývky úst a nosu. Je úžasn… https://t.co/hDJXSlS7kj,761458513
