category,comment_body,parent_body,poster_name
@AndrejBabis,@AndrejBabis Podle projevu kombinace Jakeše s Husákem. Myšlením Pepek Vyskoč.,"Tahle píseň je skvělá, určitě si ji pusťte. Planeta musí koronavirus porazit 👍 Děláme pro to všechno.
https://t.co/Ij0flMSRko",761633128683278336
@AndrejBabis,"@AndrejBabis Je Ti jasné, že ANO by bylo první, koho by Matovič měl na ráně.","Gratuluji Igoru Matovičovi a hnutí OĽaNO k vítězství ve slovenských parlamentních volbách! Skvělá kampaň, díky kter… https://t.co/gkzPVOGIfr",761633128683278336
@AndrejBabis,"@AndrejBabis @KarelHavlicek_ De facto jste zatím 3 roky ve skluzu. A de facto vedete MD celou dobu vy. To znamená,… https://t.co/3S9lDzYo4y","Modernizace D1 jede. Start podle plánu. Před chvílí začala demolice dvou nadjezdů u Humpolce, vyrazil jsem na místo… https://t.co/HfVRqh2JVP",761633128683278336
@AndrejBabis,@AndrejBabis Přímý přenos z Červeného Hrádku.,"Najdete si zítra, v pondělí večer ve 20 hodin chvilku? Vím, že je to teď těžké období a já víc než kdy jindy cítím,… https://t.co/aB5P27DcDc",761633128683278336
@kalousekm,@kalousekm Česká stranická a vládní delegace vítá na letišti zboží zakoupené v Číně. Po přátelském přivítání se vši… https://t.co/S2fgFj79BM,"Před Vámi pokleknem
se slzou dojetí.
Už ani neceknem
o střelbě do dětí,
o zvůli, o bití,
o vraždách na orgány...
Pr… https://t.co/fYouQvjbHa",761633128683278336
@kalousekm,"@kalousekm Je nepřípustné nás stavět před rozhodnutí, zda zachráníme lidi nebo ekonomiku. To je asi jasné. Ale jak… https://t.co/TDtEUVeBCh","Česká ekonomika nezemře. Zcela jistě však projde krizí a změní se. Já pevně věřím, že se může změnit směrem k větší… https://t.co/K45gSjlA07",761633128683278336
