category,comment_body,parent_body,poster_name
@AndrejBabis,@AndrejBabis Ty si pro změnu pusť Reportéři ČT,"Čau lidi, na nedělní příběh týdne fakt už není čas. Ale mám něco na srdci. Tady je krátké video, 13 minut a něco. P… https://t.co/BIGxwZbHbJ",790203483832082432
@alenaschillerov,"@alenaschillerov @AndrejBabis Neradovat se a být ve střehu, sliby chyby, vlk také sliboval.","Dobře vím, že peníze dnes jsou důležitější než peníze zítra. V těžké době to platí dvojnásob. Vládě proto navrhnu z… https://t.co/xzlc8q4NB7",790203483832082432
@adamvojtechano,"@adamvojtechano @AndrejBabis Samochvála smrdí, nevím čím se hlubší, to je snad samozřejmý, potom co jste předvedli,… https://t.co/2efaYGDnGR","4 kamiony roušek, které v noci přiletěly z Číny na pardubické letiště, jsou ve skladu Správy státních hmotných reze… https://t.co/t1sM7ll0iC",790203483832082432
@alenaschillerov,"@alenaschillerov @AndrejBabis @snemovna @MinFinCZ Strč si ten ústupek i s tvým falešným úsměvem do prdele, opakuji, do prdele.","Schváleno. @snemovna před několika okamžiky kývla na návrh @MinFinCZ pozastavit EET, a to po dobu stavu nouze a nás… https://t.co/tsgAcDhIAO",790203483832082432
@AndrejBabis,@AndrejBabis @HyundaiCZ Hlavně se nech vyfotit ty estabácká krearuto,"10 milionů korun na podporu boje s koronavirem. Dík @HyundaiCZ. Vezmu to na jednání vlády, ať společně rozhodneme,… https://t.co/DznJgHIc9k",790203483832082432
@AndrejBabis,@AndrejBabis Proč ten podvodník krákorá jako vrána.,"Chci upozornit, že na boj s COVID-19 nedává EU ani o korunu víc, než na kolik měly stát nárok už před pandemií. Sch… https://t.co/W9iF3y0cnq",790203483832082432
@adamvojtechano,@adamvojtechano @AndrejBabis @JStredula @infocz_web @VrataDostal @tripartita_cz @ZdravkoOnline @odbory @UnieCr… https://t.co/NMiuMR4Cmr,@JStredula @infocz_web @VrataDostal @tripartita_cz @ZdravkoOnline @odbory @UnieCr @JMalacova @mpsvcz @SestryOnline… https://t.co/6rlvIlrUOP,790203483832082432
@AndrejBabis,"@AndrejBabis Premiére, vyliž si s tím prdel.","Kdo máte přátele, známé, rodinu nebo obchodní partnery v zahraničí, pošlete jim tohle důležité video. Každý v Evrop… https://t.co/0Gl3u0GwLV",790203483832082432
@adamvojtechano,"@adamvojtechano @AndrejBabis Je to málo, je to málo, kurva málo!!!","Ranní report ke koronaviru: Počet pozitivních pacientů vzrostl na 1 289 nakažených, od včerejšího rána nárůst o 124… https://t.co/1zMxrzsNWD",790203483832082432
@PiratIvanBartos,"@PiratIvanBartos A to vám nevadí, že každý den porušuje zákony a lže, potom se omluví a jede se dál, jakoby se nic nestalo.","Oceňuji, že pan premiér mluvil slušně a poděkoval zdravotníkům i dobrovolníkům. Je ale klíčové, aby vláda komunikov… https://t.co/LrcoG3MbML",790203483832082432
@AndrejBabis,"@AndrejBabis Ty ho máš každý den, k pobavení mas.","Mám něco na srdci. Sledujte dnes ve 20.05 můj mimořádný projev. Česká televize, Nova, Prima a Český rozhlas Radiožu… https://t.co/JB2jLZGW1O",790203483832082432
@adamvojtechano,@adamvojtechano @AndrejBabis Hlavně je nebonzuj Schilerové.,"20 000 respirátorů FFP3 a 10 000 FFP2 dnes dorazí do skladu SSHR v Sedlčanech. A to díky tuzemskému výrobci Moldex,… https://t.co/lc4lotof3X",790203483832082432
@adamvojtechano,"@adamvojtechano @AndrejBabis Twl, snad se daří testovat, jinak zvládáte pěkný hovno.",Aktuálně ke koronaviru. Počet nakažených stoupl na 904. Stále platí 4 vyléčení. Za včerejší den jsme vyšetřili 2 08… https://t.co/a1BH7Siwbl,790203483832082432
@AndrejBabis,@AndrejBabis Ty hajzle estabáckej zalez na Čapák.,"Otázka dne pro Romana Prymulu. Byla uzavřena první města. Za jakých podmínek by se uzavřela další? A hrozí, že se u… https://t.co/i8rIOuzeKy",790203483832082432
@AndrejBabis,"@AndrejBabis @Markus_Soeder Je divné, že on se tím nikde nechlubí, ty estabáckej hajzle.",Mluvil jsem s bavorským premiérem @Markus_Soeder. Bavorsko zavedlo přísná opatření po vzoru České republiky. Skvělé… https://t.co/0SgkHSM658,790203483832082432
@adamvojtechano,"@adamvojtechano @AndrejBabis To je pořád hovno platný, když to odnášejí stále zdravotníci, odstup satane.","Téměř 1 000 000 ks roušek, respirátorů, rukavic a dalších ochranných pomůcek jsme do této doby doručili nemocnicím,… https://t.co/EgNpqyFEun",790203483832082432
@adamvojtechano,@adamvojtechano @AndrejBabis Kdy se už na to vysereš ??,Stav k dnešnímu ránu. Počet pozitivních pacientů vzrostl na 1 047 nakažených. Za včerejšek ale také stoupl počet vy… https://t.co/1geSR5moAD,790203483832082432
@adamvojtechano,"@adamvojtechano @AndrejBabis Twl, nás je ale 10 milionů.","Téměř 290 000 ks ochranného materiálu, jako roušky, respirátory a rukavice jsme dnes rozvezli do krajů za zdravotní… https://t.co/6ltYcfXJUc",790203483832082432
@alenaschillerov,"@alenaschillerov @AndrejBabis Twl, to je objev.",Ekonomický vývoj je stále obtížně predikovatelný. Jakékoliv odhady mohou být za týden přehodnoceny. S jistotou však… https://t.co/Cqu7d22Jam,790203483832082432
@alenaschillerov,"@alenaschillerov @AndrejBabis @financnisprava Mě zajímá, kdy podáte rezignaci, ať se rychleji zachranime.","Jsou tady pro vás. A poradí vám, co dělat. @financnisprava spustila ve všech krajích mimořádné infolinky, aby vám z… https://t.co/iaFYtmn6rO",790203483832082432
@adamvojtechano,"@adamvojtechano @AndrejBabis Twl, ono se už něco dovezlo, zabal to, už jde o megaprůser.","Další roušky a respirátory jsou na cestě. Vnímám vaše reakce, a vím, že to jde pomaleji, než bychom si představoval… https://t.co/gYcHnY7uG8",790203483832082432
@AndrejBabis,"@AndrejBabis Teď už zbývá, abys podal rezignaci a vše se roběhlo rychleji.",V České republice máme první tři pacienty vyléčené z nákazy koronavirem! Všichni tři v nemocnici v Ústí nad Labem.… https://t.co/4s4qwRsxNb,790203483832082432
@adamvojtechano,"@adamvojtechano @AndrejBabis Nařizovat a zakazovat to by Ti šlo, co takhle se starat a sloužit lidu, kt",Musíme bez výjimky chránit sebe a své okolí! Vláda právě schválila povinnost mít od dnešní půlnoci na veřejných mís… https://t.co/wMdOjv03qT,790203483832082432
@AndrejBabis,@AndrejBabis Jdi do prdele nebo tu válku s tebou včele prohrajeme .,"Pro jistotu jsme se okamžitě připojili i ke třem veřejným zakázkám na respirátory, ventilátory a testery vyhlášeným… https://t.co/taUYEnq8nh",790203483832082432
@PiratIvanBartos,"@PiratIvanBartos Ivane, probuďte se a přitvrďte, tady přestává sranda, začíná jít každému o kejhák. Experimenty stranou, není na ně čas.","Již několik dní marně apelujeme na vládu, aby svolala Ústřední krizový štáb. Ten by pomohl zapojit i řadu odborníků… https://t.co/daFK9UTBGP",790203483832082432
@adamvojtechano,@adamvojtechano @AndrejBabis Jsi lhář a rezignuj !!!,"Další roušky a respirátory jsou na cestě. Vnímám vaše reakce, a vím, že to jde pomaleji, než bychom si představoval… https://t.co/gYcHnY7uG8",790203483832082432
@AndrejBabis,@AndrejBabis Sláva vrchnímu šaškovi a jeho PRTeamu.,😊👍 https://t.co/dPCx9w7cfk,790203483832082432
@AndrejBabis,"@AndrejBabis Kriple, omluv se veřejně Itálii, protože Tě raději odstavili.","Tady máte rozhovor z dnešního Práva. Přečtěte si ho prosím, je důležitý.
https://t.co/B7OkrMb9KD https://t.co/UQGqf4trCc",790203483832082432
@AndrejBabis,@AndrejBabis Starej se o Ostravu.,👍 https://t.co/ipZGWy5WUH,790203483832082432
@AndrejBabis,@AndrejBabis Zloději a křiváku Preol.,😊👍 https://t.co/dPCx9w7cfk,790203483832082432
@AndrejBabis,@AndrejBabis https://t.co/aNzrS2a0s2,"Jsem rád, že se experti ve Spojených státech kloní k doporučení, aby si lidi zakrývali obličej. https://t.co/DonCiorlQ5",790203483832082432
@PiratIvanBartos,"@PiratIvanBartos Ivane nebuď naivní, AB se nikdy nepodřídí.",Takže zákon o střetu zájmů je zcela v souladu s Ústavou. Nyní zbývá jen aby si pan premiér přestal vymýšlet a začal jej dodržovat.,790203483832082432
