category,comment_body,parent_body,poster_name
@AndrejBabis,@AndrejBabis ŽE by rezignace?,"Najdete si zítra, v pondělí večer ve 20 hodin chvilku? Vím, že je to teď těžké období a já víc než kdy jindy cítím,… https://t.co/aB5P27DcDc",829368191231070208
@AndrejBabis,"@AndrejBabis No jsem zvědav jak se k tomu postaví Agrofert,zda půjde příkladem","Žádám zaměstnavatele, aby se postavili k této situaci čelem, uznali zaměstnancům překážku v práci, dali jim plnou m… https://t.co/Z04PVYhas7",829368191231070208
