category,comment_body,parent_body,poster_name
@kalousekm,"@kalousekm dyť ona nekecela 200 je víc jak 100, to má paní ministryně srovnaný",Nad sto miliard to bude jenom kvůli propadu příjmů. Budeme-li chtít zvýšit výdaje (a to budeme muset(lidi v tom nec… https://t.co/pRtB5ynyzY,830316101787582464
@AndrejBabis,"@AndrejBabis Praha by se měla uzavřít jako první, je tam nejvíc nakažených. Navíc si myslím, že to úspěsně vyvážejí… https://t.co/KzFTgSAtWs","Otázka dne pro Romana Prymulu. Byla uzavřena první města. Za jakých podmínek by se uzavřela další? A hrozí, že se u… https://t.co/i8rIOuzeKy",830316101787582464
@AndrejBabis,"@AndrejBabis Nějak si to nepochopil Andrejku. Ty si furt myslíš, že stát si Ty. Že jsi něco jako král, který všemu… https://t.co/UHCM5nKl4e","A když už píše o dalších projektech, tak jsem velice rád, že pan náměstek slibuje Zlíňanům rekonstrukci stadionu a… https://t.co/4gekl51jsT",830316101787582464
