category,comment_body,parent_body,poster_name
@AndrejBabis,"@AndrejBabis To se vám hodí teď co? Ve finále budete skvělý manažer, ale jste k smíchu a umíte řídit leda velké hov… https://t.co/OwXTCZ23pz","A vyzýváme i další velké firmy, aby se zapojily.",855693401748123648
@adamvojtechano,"@adamvojtechano @ZdravkoOnline Teď si honite triko, ale jste minimálně 14 dní pozadu pane ministře!! 🤬",Představuji vám náš obchodní tým @ZdravkoOnline. 24 hodin denně sledují trh a nakupují všechny dostupné respirátory… https://t.co/YEnvnBlo5C,855693401748123648
@AndrejBabis,@AndrejBabis Víš co Maro? Jdi do prdele i s tím pohádkovým příběhem o Králi Babisovi. To že je to StBák a bezpatern… https://t.co/WS5q54s1G5,"U pomníku Války za nezávislost jsme uctili vojáky, kteří padli v boji za estonskou nezávislost. Historie Estonska j… https://t.co/Gdz3Jp2Th6",855693401748123648
