category,comment_body,parent_body,poster_name
@AndrejBabis,"@AndrejBabis 15% na všechny piva, problém vyřešen a na konci bude výsledek stejný, jak ten váš nesmysl.","Francie, hory, 2200m nad mořem, vysokohorská přirážka. 0,5l čepovaného piva 15 euro, DPH 20 % = 2,5 euro, přátelé.… https://t.co/5qMZVhFoph",861981632370282496
@AndrejBabis,@AndrejBabis @KarelHavlicek_ https://t.co/53b4EXsJQU,"ORKÁN. Koordinační skupina Ředitelství silnic a dálnic, Správy železnic, Řízení letového provozu, ČEZ a ČEPS, pod v… https://t.co/MqHCt1Kry1",861981632370282496
