category,comment_body,parent_body,poster_name
@AndrejBabis,"@AndrejBabis @GiuseppeConteIT @MorawieckiM Informační hodnota nula.
ZERO, ZERO (čti s imitací italského přízvuku a hodně gestikuluj)",Telefonoval jsem s italským premiérem @giuseppeconteit a polským premiérem @MorawieckiM o situaci s koronavirem. Sa… https://t.co/aCxWHFYw8z,863175895162515457
@AndrejBabis,"@AndrejBabis Thank you, but no thank you.","Najdete si zítra, v pondělí večer ve 20 hodin chvilku? Vím, že je to teď těžké období a já víc než kdy jindy cítím,… https://t.co/aB5P27DcDc",863175895162515457
@kalousekm,"@kalousekm @ArchaVt Jasně, a vůbec to není nebezpečné, protože tu máme jen uvědomělé spoluobčany, kteří vůbec nebud… https://t.co/KgJlEqhkEx",Pojďme všichni té potvoře přestat říkat COVID-19 a pojďme jí nazývat pravdivě a srozumitelně “Čínská chřipka”. Bylo… https://t.co/HIQY5Ps4m5,863175895162515457
@adamvojtechano,"@adamvojtechano @ZdravkoOnline a) tohle jste měli dělat už 1-2 měsíce zpátky
b) neměli by mít ochranné prostředky?… https://t.co/smgleQICTb",Představuji vám náš obchodní tým @ZdravkoOnline. 24 hodin denně sledují trh a nakupují všechny dostupné respirátory… https://t.co/YEnvnBlo5C,863175895162515457
