category,comment_body,parent_body,poster_name
@adamvojtechano,@adamvojtechano @WHO I believe this was clear for all of us from beginning. Our politics Andrej Babiš and Adam Vojt… https://t.co/ftL4wZGg6O,"Právě teď. @WHO připouští, že nošení roušek, i po domácku vyrobených, má smysl a skutečně může pomoci zmírnit šířen… https://t.co/sBQqlKbGwe",86703629
@AndrejBabis,@AndrejBabis Jen to ne prosím. Projednou Velikonoce budou konečně bez pomlázky a výslužky pro negramoty.,"Tady máte rozhovor z dnešního Práva. Přečtěte si ho prosím, je důležitý.
https://t.co/B7OkrMb9KD https://t.co/UQGqf4trCc",86703629
