category,comment_body,parent_body,poster_name
@kalousekm,@kalousekm @ZdravkoOnline Vůbec všem stejně!!,"Čína byla vyřazena ze seznamu rizikových zemí? Je opravdu rozumné těm jejich číslům věřit, @ZdravkoOnline? Já bych… https://t.co/7aravnn2DC",884829430161526785
@AndrejBabis,@AndrejBabis Se ti všichni smejou))),Watch this video. Czechs are sewing their own masks to fight COVID-19. Everyone in the world should follow our exam… https://t.co/8sMpyTLMWF,884829430161526785
@alenaschillerov,@alenaschillerov @AndrejBabis @vnitro Když má vnitro řešit takové věci tak proč tomu nesefuje ministr z vnitra?? Šp… https://t.co/FgDudNowq4,"Samozřejmě, že má @vnitro jako gestor krizového zákona svůj právní výklad k náhradám škod. A já z něj vycházím. Pod… https://t.co/hlglzMFw6S",884829430161526785
@alenaschillerov,@alenaschillerov @AndrejBabis @vnitro @ZdravkoOnline Kdy to Čína vrátí??,Na nákup ochranných pomůcek jsem hned po obdržení žádostí uvolnila z vládní rozpočtové rezervy už cca 5 mld. Kč. Ne… https://t.co/AME3V0THkK,884829430161526785
@AndrejBabis,@AndrejBabis @realDonaldTrump Já furt nechapu jak muzes nařídit lidem ať něco nosí a neopatrit ty rousky pro ne)))… https://t.co/cjyzVf6Yt6,"Mr. President @realDonaldTrump, try tackling virus the Czech way. Wearing a simple cloth mask, decreases the spread… https://t.co/j0TkxlDlbI",884829430161526785
@AndrejBabis,@AndrejBabis Ty jsi nechutný prase!!!,"Mimochodem, my jsme Komisi žádali spolu s dalšími zeměmi o mnohem širší změny v pravidlech čerpání, což zatím nevys… https://t.co/dVmc2HCqjR",884829430161526785
@adamvojtechano,@adamvojtechano @AndrejBabis Aspoň to mas na koho svádět ty parodie na ministra,"Zásobování sociálních služeb pomůckami převzal pan ministr Hamáček. Pokud je někde nedostatek, měla by to paní mini… https://t.co/xzloSu7LXG",884829430161526785
@AndrejBabis,@AndrejBabis Takže se dozvíme ze odstupujes za neschopnost??? Jinak mě nezajímá na koho budeš žalovat STB praktiky poslouchat nebudu!!!,"Najdete si zítra, v pondělí večer ve 20 hodin chvilku? Vím, že je to teď těžké období a já víc než kdy jindy cítím,… https://t.co/aB5P27DcDc",884829430161526785
@AndrejBabis,@AndrejBabis Smysl projevu???,"Mám něco na srdci. Sledujte dnes ve 20.05 můj mimořádný projev. Česká televize, Nova, Prima a Český rozhlas Radiožu… https://t.co/JB2jLZGW1O",884829430161526785
@adamvojtechano,@adamvojtechano Trochu pozdě,"Intenzivně pracujeme na dodávkách ochranných pomůcek. Na cestě je 16 kamionů s 1,4 mil. respirátorů a 2,2 mil. úste… https://t.co/qByQsxtpPI",884829430161526785
@adamvojtechano,@adamvojtechano @AndrejBabis @ArmadaTweetuje Hlavně zes byl aktivní když se přišlo na to ze tvoje zásoby byla lež!!!,Distribuce ochranných pomůcek ze skladu SSHR pokračuje i v noci. Právě teď míří 73 000 ks roušek do nemocnic po cel… https://t.co/2vGRjbUsqE,884829430161526785
@AndrejBabis,@AndrejBabis Všichni víme ze to je tvoje zásluha si pamatujem jak si běhal v doktorském plášti po nemocnici a říkal… https://t.co/BSSrmjtCTr,V České republice máme první tři pacienty vyléčené z nákazy koronavirem! Všichni tři v nemocnici v Ústí nad Labem.… https://t.co/4s4qwRsxNb,884829430161526785
@adamvojtechano,@adamvojtechano To brzo!!!! https://t.co/E3OZDWkMht,"Pořídíme do všech nemocnic v ČR termokamery. Celkem 500. Chceme mít na vstupu do nemocnic maximální jistotu, že ide… https://t.co/M8cf6kE4kG",884829430161526785
@kalousekm,@kalousekm Proč státní zaměstnanci mají stále 100%??,"V přebujelém státním rozpočtu, schváleném ještě v době blahobytu (2019) vláda odmítá sama na sobě ušetřit jedinou k… https://t.co/pYVkLlwir4",884829430161526785
@adamvojtechano,@adamvojtechano @PREZIDENTmluvci Vy nejste normální po dvou měsíci co  každý den se všude řeší virus nic jiného! Vl… https://t.co/EE3IqbNlcC,"Aktualizovali jsme pro vás video s důležitými informacemi o koronaviru. Teď pracujeme na tom, aby se dostalo k co n… https://t.co/X94fxQRDT5",884829430161526785
@adamvojtechano,@adamvojtechano @PiratIvanBartos Ty vaši vládní sektě neverim ani pozdrav. Jste nechutný lidi kteří lžou a obviňují… https://t.co/Nx3coyJKQk,@PiratIvanBartos Nikoliv v takovém rozsahu. První evropský případ byl reportován 24.1. ve Francii. Až do konce únor… https://t.co/ckJ3PWJw1Y,884829430161526785
@AndrejBabis,@AndrejBabis @ObranaTweetuje Jen tak dal Bureš děláš radost lidem!!)) TIk tak tik tak tik tak!)),"Absolutně s tím nesouhlasím, zastavil jsem to a projednávat to SAMOZŘEJMĚ nebudeme. Nevím, proč teď @ObranaTweetuje… https://t.co/L70sJ1478t",884829430161526785
@AndrejBabis,@AndrejBabis Dík za upozornění co nemám číst!!!,"Tady máte rozhovor z dnešního Práva. Přečtěte si ho prosím, je důležitý.
https://t.co/B7OkrMb9KD https://t.co/UQGqf4trCc",884829430161526785
