category,comment_body,parent_body,poster_name
@kalousekm,"@kalousekm @ArchaVt Nejsem si jisty zda v ruhle dobu je vhodne nazyvat nekoho jmenem statu za to, co vzniklo! Nebyt… https://t.co/Y7YMCXkQ3s",Pojďme všichni té potvoře přestat říkat COVID-19 a pojďme jí nazývat pravdivě a srozumitelně “Čínská chřipka”. Bylo… https://t.co/HIQY5Ps4m5,900640546175188992
@AndrejBabis,@AndrejBabis @FNBrno Za chvilku pokud to pujde jako dnes ji budeme potřebovat taky...Nedele jak vysita. Nikdo rousk… https://t.co/KGaSZXfrqg,Francie se na nás obrátila s žádostí o pomoc s hospitalizací svých pacientů. Vzhledem k dostatečné kapacitě jsme ji… https://t.co/YHnZqKEZOt,900640546175188992
