category,comment_body,parent_body,poster_name
@AndrejBabis,"@AndrejBabis Nemuzu si pomoci, ale vyborny projev. Nejlepsi!","Mám něco na srdci. Sledujte dnes ve 20.05 můj mimořádný projev. Česká televize, Nova, Prima a Český rozhlas Radiožu… https://t.co/JB2jLZGW1O",914174880358322178
@AndrejBabis,"@AndrejBabis Skoro aby se tady clovek bal rict, ze se podiva. Ja celkove nemusim nenavistne vylevy, ani ty vtipne,… https://t.co/A4ex4NH0Vo","Najdete si zítra, v pondělí večer ve 20 hodin chvilku? Vím, že je to teď těžké období a já víc než kdy jindy cítím,… https://t.co/aB5P27DcDc",914174880358322178
@adamvojtechano,"@adamvojtechano @AndrejBabis Dobry den, to jste udelali moc dobre. Dekujeme! A jak jeste vyresit situaci cizincu, k… https://t.co/AI7DPSc97Y",Vzhledem k výraznému šíření onemocnění novým koronavirem #COVIDー19 na území Itálie jsme dnes vydali nařízení týkají… https://t.co/xYDMAiX3bp,914174880358322178
@adamvojtechano,"@adamvojtechano Pane ministre, diky moc za Vasi praci! Jen nerozumim, proc Rakousko muze zavrit hranice a my ne? Dekuji moc.","Další mimořádné opatření: Cizinci, kteří překročí hranice ČR, budou kontrolováni na příznaky infekčního onemocnění… https://t.co/uRdOhR8E5G",914174880358322178
@AndrejBabis,"@AndrejBabis Pane predsedo, moc dekuji! Jeste jen dotaz: proc vice nepodporujete praci z domova? Vim, ze pro radu p… https://t.co/FmJPr78PKh",Tady celé znění dnešního usnesení: https://t.co/11bOmkEiWb,914174880358322178
