category,comment_body,parent_body,poster_name
@AndrejBabis,@AndrejBabis @alenaschillerov Lzes lzes lzes.,"Oznamuju novinářům, že řeším jen koronavirus, stovky dotazů od občanů, firem a institucí. Ohledně vašich dotazů k p… https://t.co/w6190Y32MP",927609580049371136
@adamvojtechano,@adamvojtechano To pise Prchal??,Do meziskladu Správy státních hmotných rezerv dorazil 1 milion zdravotnických rukavic. Teď aktivně pracujeme na jej… https://t.co/NXckC3zNPP,927609580049371136
@AndrejBabis,"@AndrejBabis @AndrejBabis nakonec vymyslel rousku jako prvni, ze se vsichni opicej","V Jeně zavádějí povinné zakrytí úst a nosu a vyzývají občany, ať je šijí pro sebe a pro ostatní 👍 https://t.co/fmCeyD9vkW",927609580049371136
