category,comment_body,parent_body,poster_name
@AndrejBabis,"@AndrejBabis @ZdravkoOnline Inu pracovití a šikovní ""Rákosníci"". A kola pokroku se otáčí. Od Evropy směrem k Asii...","„Vaše potíže, jsou naše potíže.“ To mi řekl vietnamský premiér Nguyen Xuan Phúc při 30minutovém rozhovoru, kdy potv… https://t.co/ep0mvfKSAk",960404067016171520
@kalousekm,"@kalousekm Ekonomika byla již odsouzena k daleko větší zkáze, než si většina ekonomů může jen představit. Takové zm… https://t.co/LJUXXqRgBL","Česká ekonomika nezemře. Zcela jistě však projde krizí a změní se. Já pevně věřím, že se může změnit směrem k větší… https://t.co/K45gSjlA07",960404067016171520
@AndrejBabis,@AndrejBabis @MPKretschmer Kdy budeme společně hlídat hranice historické Svaté říše Římské národa německého (a česk… https://t.co/KMS6XHaWWe,"Mluvil jsem se saským premiérem @MPKretschmer o tom, jak si můžeme vzájemně pomoci. Jsme solidární a zatím nechávám… https://t.co/J1NDUd4x2d",960404067016171520
@AndrejBabis,@AndrejBabis Skutečně? Jako lékař jsem si toho fakt nevšiml. Ale nikdy není pozdě...,"Jedeme podle vzoru Číny a Jižní Koreje, které situaci s COVID-19 zvládly.",960404067016171520
@AndrejBabis,@AndrejBabis Jak? No přece stejně jako jste zašmikli 95% nependlerů. Ta polovičatost je hrozná...,"Vláda bude zítra diskutovat o pendlerech, kteří jezdí za prací. Jejich pohyb omezíme, otázka je jen jak.",960404067016171520
@AndrejBabis,"@AndrejBabis @PREZIDENTmluvci Aktivní jistě ano. Ale je to k ničemu, neboť to ""řídí"" Diletanti - Prymula, Gottvaldo… https://t.co/VufT9tnfDI",V boji proti koronaviru je Česká republika nejaktivnější stát v Evropě.,960404067016171520
@AndrejBabis,"@AndrejBabis @PREZIDENTmluvci @MorawieckiM Je třeba, abychom ""uzavřeli"" prostor V4 plus Německo a Rakousko. A to ne… https://t.co/iP64vpyqHk","Volal mi polský premiér @MorawieckiM, mají už 15 nakažených polských občanů koronavirem. Všichni se nakazili v Něme… https://t.co/JC7a7x0ESu",960404067016171520
@adamvojtechano,"@adamvojtechano @PREZIDENTmluvci Pane ministře, ty stovky mrtvých půjdou za Vámi. Ale to Vy jistě dobře víte, že? 🎭","Epidemiologická situace v Evropě se nevyvíjí dobře, a to nejen v Itálii, ale i dalších státech. Je lepší být aktivn… https://t.co/EUarGZIV69",960404067016171520
@kalousekm,"@kalousekm Právě že na ""🍻 s Mirkem"" byste mohl pro své spoluobčany nejvíce ostatním pomoci! Potřebujeme co nejvíce… https://t.co/kM7ARpFaBm","S velikou lítostí ruším až do odvolání “Piva s Mirkem”. Přijde mi neodpovědné pořádat akce, kde se lidé mohou navzá… https://t.co/S9rgkHOKeS",960404067016171520
@adamvojtechano,"@adamvojtechano @PREZIDENTmluvci @WHO A ještě tu o Budulínkovi, moc prosím, tu mám taky rád. Ještě že tak málo Čech… https://t.co/7E9kmaa073","Právě teď. @WHO připouští, že nošení roušek, i po domácku vyrobených, má smysl a skutečně může pomoci zmírnit šířen… https://t.co/sBQqlKbGwe",960404067016171520
@adamvojtechano,@adamvojtechano @AndrejBabis Jaká je nemocnost? Jaká je smrtnost? Jak vypadá incidence a prevalence ostatních nemoc… https://t.co/2ImeddaRBO,Počet vyléčených se zvýšil na 45!,960404067016171520
@AndrejBabis,"@AndrejBabis @PetrLudwig @anetakernova @CNN Aha. A co tam máš dál, Kubrte?","Jdeme příkladem. Jsem hrdý, že Češi @petrludwig a @anetakernova udělali video, které inspiruje celý svět. I Spojené… https://t.co/XHKGK2hysY",960404067016171520
@AndrejBabis,"@AndrejBabis Ano je důležitý, pro něho je důležitý, ale lid český již dlouho blafovat nebude, bo vařené nudle již došly...","Tady máte rozhovor z dnešního Práva. Přečtěte si ho prosím, je důležitý.
https://t.co/B7OkrMb9KD https://t.co/UQGqf4trCc",960404067016171520
@AndrejBabis,"@AndrejBabis Ale kdeže, nekloní. To neznáte Anglosasy...","Jsem rád, že se experti ve Spojených státech kloní k doporučení, aby si lidi zakrývali obličej. https://t.co/DonCiorlQ5",960404067016171520
@AndrejBabis,"@AndrejBabis @ObranaTweetuje Jó, jaké sis vybral Andreji ministry tož takový Kokoty tam máš...","Absolutně s tím nesouhlasím, zastavil jsem to a projednávat to SAMOZŘEJMĚ nebudeme. Nevím, proč teď @ObranaTweetuje… https://t.co/L70sJ1478t",960404067016171520
@adamvojtechano,@adamvojtechano @AndrejBabis A tak dál budeme jen dohánět co jsme zanedbali. Nikoliv záměrně. Jde o Diletantství a Šlendrián...,"Pořídíme do všech nemocnic v ČR termokamery. Celkem 500. Chceme mít na vstupu do nemocnic maximální jistotu, že ide… https://t.co/M8cf6kE4kG",960404067016171520
