category,comment_body,parent_body,poster_name
@AndrejBabis,@AndrejBabis @alenaschillerov Děkujeme za přiznání. Dodatek jste ale na program musel mimořádně zařadit Vy sám. Nic… https://t.co/beznfoOgHf,"Oznamuju novinářům, že řeším jen koronavirus, stovky dotazů od občanů, firem a institucí. Ohledně vašich dotazů k p… https://t.co/w6190Y32MP",968576596377526277
@AndrejBabis,@AndrejBabis Děkujeme za přiznání. Dodatek jste ale na program musel mimořádně zařadit Vy sám. Nic není zmanipulova… https://t.co/3mNMEmRdv6,"Samozřejmě na sítích probíhá účelově zmanipulovaný obrázek od Milionu chvilek, který sdíleli i někteří novináři a m… https://t.co/ZJNGAMkoXh",968576596377526277
