category,comment_body,parent_body,poster_name
@adamvojtechano,"@adamvojtechano @AndrejBabis Domovy duchodcu stale nemaji respiratory, nakazenych tam raketove pribyva a vy se tu c… https://t.co/JUUpPghxiG",V novém kabátě. Takové jsou naše stránky s ukazateli ke koronaviru. Doplnili jsme například denní procentuální změn… https://t.co/1yKJoJjbRV,977284482372898816
@AndrejBabis,"@AndrejBabis Kolik DAVA teda navic Cina, kdyz vlada vita jejich letadla na letisti?","Chci upozornit, že na boj s COVID-19 nedává EU ani o korunu víc, než na kolik měly stát nárok už před pandemií. Sch… https://t.co/W9iF3y0cnq",977284482372898816
@AndrejBabis,@AndrejBabis https://t.co/t4uShUvXio,"Kdo máte přátele, známé, rodinu nebo obchodní partnery v zahraničí, pošlete jim tohle důležité video. Každý v Evrop… https://t.co/0Gl3u0GwLV",977284482372898816
@AndrejBabis,@AndrejBabis Bez tebe to zvladneme lip.,"Zítra to bude 100 let, co se zrodila a byla uzákoněna naše státní vlajka. Na tuto počest jsme na Kramářovu vilu vyv… https://t.co/AhA0CTnSFq",977284482372898816
@adamvojtechano,@adamvojtechano @PREZIDENTmluvci Budete ty slavny cinsky rychlotesty reklamovat a chranit tak penize danovych popla… https://t.co/sN6H06kw18,Za 10 dní fungování meziskladu Státní správy hmotných rezerv jím při zásobování nemocnic prošlo 2 mil. kusů zdravot… https://t.co/2ZsdVtmAC3,977284482372898816
@AndrejBabis,"@AndrejBabis @Markus_Soeder Taky nechavaji otevrene galanterie, aby si lide mohli sit rousky, protoze jim je vlada nedokazala zajistit?",Mluvil jsem s bavorským premiérem @Markus_Soeder. Bavorsko zavedlo přísná opatření po vzoru České republiky. Skvělé… https://t.co/0SgkHSM658,977284482372898816
@alenaschillerov,@alenaschillerov https://t.co/YJWz4HIW4t,"Česká ekonomika je silná, stav našich veřejných financí dobrý, bankovní sektor je mimořádně zdravý, rozpočty samosp… https://t.co/5GDAnrLtX9",977284482372898816
@adamvojtechano,@adamvojtechano @PREZIDENTmluvci Tenhle tweet jste zkopiroval z ledna.,"Intenzivně pracujeme na dodávkách ochranných pomůcek. Na cestě je 16 kamionů s 1,4 mil. respirátorů a 2,2 mil. úste… https://t.co/qByQsxtpPI",977284482372898816
@AndrejBabis,"@AndrejBabis @alenaschillerov Rano rousky jsou, vecer jich chybi milion. Rano se obchody zavirat nebudou, vecer se… https://t.co/p3KGXb7s7G","Oznamuju novinářům, že řeším jen koronavirus, stovky dotazů od občanů, firem a institucí. Ohledně vašich dotazů k p… https://t.co/w6190Y32MP",977284482372898816
@adamvojtechano,"@adamvojtechano @PiratIvanBartos Pane Vojtechu, Vy jste uplne mimo realitu. Skoncil jste, jen Vam to porad nedochazi.","@PiratIvanBartos Proč? V té době toto platilo, měli jsme zmapován stav zásob v nemocnicích, které měly tehdy dostat… https://t.co/1ospy4zn9g",977284482372898816
@AndrejBabis,"@AndrejBabis @ObranaTweetuje Neco si tu odlozim, ty hajzle. https://t.co/UYlpLVBAgd","Absolutně s tím nesouhlasím, zastavil jsem to a projednávat to SAMOZŘEJMĚ nebudeme. Nevím, proč teď @ObranaTweetuje… https://t.co/L70sJ1478t",977284482372898816
@adamvojtechano,@adamvojtechano Neschopne vlade navzdory.,Češi jako světoví rouškaři! Světová média vyzdvihují naše opatření k povinnému nošení pokrývky úst a nosu. Je úžasn… https://t.co/hDJXSlS7kj,977284482372898816
@AndrejBabis,"@AndrejBabis Mezitim v Cechach, zatimco premier resi USA. https://t.co/MuS72BEtK6",😊👍 https://t.co/dPCx9w7cfk,977284482372898816
@adamvojtechano,"@adamvojtechano Po tom nechutnem kartaci od estebaka bych zvazil i rezignaci. Ale vy vypadate, ze jste splachovaci.",Omlouvám se paní doktorce z laboratoře Tilia. Bohužel jsem od kolegů dostal špatnou informaci. Spletl jsem se a mrz… https://t.co/w7oYoNGChw,977284482372898816
