category,comment_body,parent_body,poster_name
@kalousekm,@kalousekm AB v plné parádě. Nefláká se ani vteřinu. Podvod za podvodem. Nevěřte mu ani pozdravení.  Je to neskutečnej hajzl.,"Je to krok přesně podle Babišovy povahy i politiky. Zatímco se modlil a sliboval, jak vláda nikoho nenechá na holič… https://t.co/z6V0OBgRGv",1000124580374212608
@AndrejBabis,@AndrejBabis Havel!,Zvládneme to. https://t.co/rVNbfaP92Y,1000124580374212608
@adamvojtechano,"@adamvojtechano Jste směšný panák, fňukáte po vzoru ještě trapnější Babiše. Styďte se.","Stále slyšíme kritiku, že málo testujeme na koronavirus. Tak jsme se koukli za hranice. A ČR testuje více než Švýca… https://t.co/AdlQ18LmgB",1000124580374212608
@kalousekm,"@kalousekm Naprostý souhlas. Jsou si vědomi svého selhání s jen marketingově zkoumají, co lidi snesou a pak to naří… https://t.co/hpfloOfC05","Pokrytecká, impotentní vláda... Týden měli strach to nařídit, protože platí, že když roušky nařídím, musím je taky… https://t.co/qTdi9y87q0",1000124580374212608
@kalousekm,"@kalousekm Smutné ale nepříliš překvapivě. On je totiž ve své podstatě strašně hloupý, řídí se jen primitivními pud… https://t.co/3lYtUFbI6S","Během jednání s členy vlády jsme se dozvěděli pouze to, že vláda nemá žádné variantní plány, “co uděláme, když..”,… https://t.co/06qnyyRXRA",1000124580374212608
@adamvojtechano,@adamvojtechano Ty jseš ale fakt pěknej hajzl.,Češi jako světoví rouškaři! Světová média vyzdvihují naše opatření k povinnému nošení pokrývky úst a nosu. Je úžasn… https://t.co/hDJXSlS7kj,1000124580374212608
@adamvojtechano,@adamvojtechano @PiratIvanBartos @adamvojtechano  Jste lhář. Užijte si ten pocit. Kdy jste byl naposledy v první li… https://t.co/4tJzD4f5uY,@PiratIvanBartos Nikoliv v takovém rozsahu. První evropský případ byl reportován 24.1. ve Francii. Až do konce únor… https://t.co/ckJ3PWJw1Y,1000124580374212608
@AndrejBabis,@AndrejBabis @NaBulovce @HasiciPraha Kde jsou roušky a respirátory?,"Ze 104 pozitivních případů máme 50 v Praze, proto od zítřka navyšujeme kapacitu:
UVN spouští zítra v 11:00 nový sta… https://t.co/3g0POp24FO",1000124580374212608
@adamvojtechano,@adamvojtechano @marta_kadlecova Řekni jména!,Nemocnice Na Bulovce ohlásila dnes večer dalších 5 pozitivních pacientů na koronavirus. Celkem tedy máme 26 nakažen… https://t.co/Jj5ugk23Qk,1000124580374212608
