category,comment_body,parent_body,poster_name
@adamvojtechano,@adamvojtechano @strakovka V pořádku 👍,"Posílili jsme opatření proti koronaviru. Situace je velmi dynamická, proto jsme zasedli s kolegy ministry ještě v n… https://t.co/hINP2hCEni",1039815369979031552
@adamvojtechano,"@adamvojtechano @AndrejBabis @ArmadaTweetuje To jsou každý den tisíce roušek jak se furt něco někam vozí, ale stále nemá nikdo nic.",Distribuce ochranných pomůcek ze skladu SSHR pokračuje i v noci. Právě teď míří 73 000 ks roušek do nemocnic po cel… https://t.co/2vGRjbUsqE,1039815369979031552
