category,comment_body,parent_body,poster_name
@kalousekm,@kalousekm Protože v podání AB &amp; company se vše prodává stejně. Prodáváš přidání důchodcům 900 jako svou zásluhu a… https://t.co/h24hMgkGlw,"Je to krok přesně podle Babišovy povahy i politiky. Zatímco se modlil a sliboval, jak vláda nikoho nenechá na holič… https://t.co/z6V0OBgRGv",1039857455063281664
@adamvojtechano,@adamvojtechano https://t.co/t8v91V7Ltz,"Vývoj je jedna věc, výroba a montáž druhá. Obě hrozně důležité. Velké díky společnosti 3Dees, která respirátory pro… https://t.co/WYcb4qkHut",1039857455063281664
