category,comment_body,parent_body,poster_name
@AndrejBabis,"@AndrejBabis Vazne budete hejtovat i za to, co pomaha a neni politicke? Ach jo...","Kdo máte přátele, známé, rodinu nebo obchodní partnery v zahraničí, pošlete jim tohle důležité video. Každý v Evrop… https://t.co/0Gl3u0GwLV",1100765523275583490
@adamvojtechano,@adamvojtechano @AndrejBabis Skvela zprava a skvela spoluprace!,"Bojujeme proti koronaviru společně, všemi možnými prostředky. Známý český vývojář 3D tiskáren Josef Průša tiskne oc… https://t.co/oDvnPIn6Dq",1100765523275583490
@adamvojtechano,@adamvojtechano @AndrejBabis Drzime palce!,"Remdesivir v ČR! Všeobecná fakultní nemocnice ho začíná podávat pacientovi s těžkým průběhem onemocnění. Doufejme, že zabere.",1100765523275583490
@adamvojtechano,@adamvojtechano Zase hejty. Jen hejty. To se lidi nestydite?,Odborníci z ČVUT vyvinuli respirátor na 3D tiskárně. Speciální filtr vydrží asi týden. Je to ještě vyšší ochrana ne… https://t.co/h37wgZpfH6,1100765523275583490
