category,comment_body,parent_body,poster_name
@AndrejBabis,"@AndrejBabis @GiuseppeConteIT @MorawieckiM Prosím, a můžete nějaké výsledky vašeho ""řešení"" dát i na web? Ne jako v… https://t.co/pQ75z1Dx7k",Telefonoval jsem s italským premiérem @giuseppeconteit a polským premiérem @MorawieckiM o situaci s koronavirem. Sa… https://t.co/aCxWHFYw8z,1117746529
@adamvojtechano,"@adamvojtechano @CVUTPraha @ZdravkoOnline Pardon, ale to nebyla spolupráce. Spolupráce znamená, že dvě skupiny spol… https://t.co/EZAWOC8puy",A je to tady. Dodávka prvních 600 ks respirátorů nejvyšší kvality pro naše fakultní nemocnice z dílny @CVUTPraha a… https://t.co/3104VkY4k8,1117746529
@AndrejBabis,"@AndrejBabis Aha aha..

Takže draze _zaplacené_ roušky jdete osobně vítat na letiště. A evropskou pomoc v _transfer… https://t.co/6JUTIMTU6G","Chci upozornit, že na boj s COVID-19 nedává EU ani o korunu víc, než na kolik měly stát nárok už před pandemií. Sch… https://t.co/W9iF3y0cnq",1117746529
@AndrejBabis,"@AndrejBabis @CVUTPraha VY nedáváte NIC. Vy ne. Tu technologii vyvinuli vědci, na respirátory v ČR se složili běžní… https://t.co/jpWRE4slwU","Taky dáváme zdarma k dispozici technologii na respirátory z 3D tiskáren, kterou vyvinuli naši vědci z @CVUTPraha. O… https://t.co/HrosCsitz4",1117746529
@adamvojtechano,"@adamvojtechano @NaBulovce Že vám není hanba chlubit se něčím, co po vás odborná veřejnost už dlouho chtěla, ale vy to až doteď ignoroval..","S panem prof. Prymulou intenzivně řešíme narůstající počet nakažených seniorů. Domluvili jsme kapacity @NaBulovce,… https://t.co/Joxa8cMAFw",1117746529
@AndrejBabis,"@AndrejBabis Nelži, Máro, nelži.

V Jižní Koreji dělají víc testů denně a zdarma, než my za celou dobu.

Dle Číny j… https://t.co/313heS0p21","Jedeme podle vzoru Číny a Jižní Koreje, které situaci s COVID-19 zvládly.",1117746529
@AndrejBabis,"@AndrejBabis Otázka týdne pro Andreje Babiše:

Proč jste sakra nezajistili roušky ani pro zdravotníky včas? Proč js… https://t.co/85KJQt2Mhu",Otázka dne pro Romana Prymulu. Mají dorazit miliony roušek a respirátorů. Komu je stát chce rozdat? Zbyde i na obyč… https://t.co/1cxmW3Lw9e,1117746529
@adamvojtechano,"@adamvojtechano @michalblaha Kdyby nebylo vašich selhání, většina takové pomoci ani není třeba.

Jak krásně se nyní… https://t.co/FemzHQBMEW",Ochota pomoci je v těchto dnech naprosto neskutečná. Dnes se nám třeba ozvala firma https://t.co/fO7q6SnmYk a nabíd… https://t.co/JlCfb1f3uI,1117746529
@kalousekm,"@kalousekm @AndrejBabis A co obecné ohrožení z nedbalosti?

https://t.co/ZwLMCTMrHx","Paragraf? Určitě ano, na sabotáž paragrafy máme. Jenže tam musíte prokázat úmysl a tady by došlo k důkazní nouzi. V… https://t.co/P02EVuYV78",1117746529
@adamvojtechano,"@adamvojtechano @michalblaha Pro zdraví Čechů uděláte vy osobně nejvíc, pokud rezignujete.

Zabráníte tak možnému d… https://t.co/YWLqpnQ8ue","Rychlé občerstvení a jídlo s sebou dál funguje. Občané se také nemusí obávat, že by si nemohli nakoupit jídlo. Záso… https://t.co/vGd4E6wpuQ",1117746529
@kalousekm,"@kalousekm Připomněl bych Napoleona. Jakkoliv byl zápornou postavou, vyhrávat války uměl. Právě proto, že dopředu p… https://t.co/4bgyzGwD1R","Během jednání s členy vlády jsme se dozvěděli pouze to, že vláda nemá žádné variantní plány, “co uděláme, když..”,… https://t.co/06qnyyRXRA",1117746529
@adamvojtechano,"@adamvojtechano @FilipHorky To je tweet z půlky února, co se dodneška někde toulal, žejo?","Intenzivně pracujeme na dodávkách ochranných pomůcek. Na cestě je 16 kamionů s 1,4 mil. respirátorů a 2,2 mil. úste… https://t.co/qByQsxtpPI",1117746529
@adamvojtechano,"@adamvojtechano @ZdravkoOnline Tak proč jste před 6 týdny psal zde na Twitteru, že roušek respirátorů všeho je dost… https://t.co/qghtFfhg5z",Představuji vám náš obchodní tým @ZdravkoOnline. 24 hodin denně sledují trh a nakupují všechny dostupné respirátory… https://t.co/YEnvnBlo5C,1117746529
@adamvojtechano,"@adamvojtechano Lidi to zvládnou, zejména ti co dobrovolně šijí roušky sobě a/nebo potřebnějším.

Zato VY jako vlád… https://t.co/7bYinJdHF4",Musíme bez výjimky chránit sebe a své okolí! Vláda právě schválila povinnost mít od dnešní půlnoci na veřejných mís… https://t.co/wMdOjv03qT,1117746529
@adamvojtechano,"@adamvojtechano Prosím, proč ignorujete české firmy, a lezete do řiti Číně?

https://t.co/ouJdwB831s","Pořídíme do všech nemocnic v ČR termokamery. Celkem 500. Chceme mít na vstupu do nemocnic maximální jistotu, že ide… https://t.co/M8cf6kE4kG",1117746529
@adamvojtechano,"@adamvojtechano Nojono, žádný jiný stát si totiž nedovolil vlastním občanům přikázat nosit něco, co nelze sehnat.… https://t.co/839c2FSPQk",Češi jako světoví rouškaři! Světová média vyzdvihují naše opatření k povinnému nošení pokrývky úst a nosu. Je úžasn… https://t.co/hDJXSlS7kj,1117746529
