category,comment_body,parent_body,poster_name
@tomio_cz,"@tomio_cz Konichiwa, bitch 🥴🤡","Dnes jsem v japonštině🙂 přímo do Japonska oslovil japonského výrobce léku favipiravir, známého též jako avigan, a d… https://t.co/dbcgrpXAw5",1138083311379800064
@kalousekm,"@kalousekm @jan_svejdar šel taky políbit “čínský prsten” a poděkovat. Děkujeme, že držíte politickou basu, pane generále.","Před Vámi pokleknem
se slzou dojetí.
Už ani neceknem
o střelbě do dětí,
o zvůli, o bití,
o vraždách na orgány...
Pr… https://t.co/fYouQvjbHa",1138083311379800064
@adamvojtechano,@adamvojtechano Jméno! Od koho! Dělej! JMÉNO!!!,"Koronavirus se také potvrdil u manželského páru, který byl v kontaktu s nakaženou ženou v Rakousku, ta se vrátila z… https://t.co/pueZWNumKn",1138083311379800064
