category,comment_body,parent_body,poster_name
@adamvojtechano,@adamvojtechano @AndrejBabis A to jako do kterých oblastí chytrolíne?,"Chtěl bych všechny ujistit, že děláme veškerá opatření, aby bylo zabráněno šíření. Hygienici pracují v maximálním p… https://t.co/52CmWBNnpg",1150799561503453186
@adamvojtechano,"@adamvojtechano @NaBulovce Doposud jsem se nějak nedozvěděl, kde se pohybovala ta nakažená Američanka... Jak se dos… https://t.co/cUmh1WiGCq","Bohužel musím potvrdit první 3 případy nákazy koronavirem v ČR. Situace v Evropě to již určitou dobu naznačovala, b… https://t.co/RIbDTj4mJP",1150799561503453186
@kalousekm,@kalousekm Už ale hodlá podpořit lesníky a zemědělce... Ale určitě přitom nemyslela na holding ve svěřeneckém fondu...,"Co vlastně vláda sleduje? Pokud jenom nechce, aby živnostníci neumřeli hlady, tak 15 000 stačí. Pokud by ale chtěla… https://t.co/gsTnFvzJcJ",1150799561503453186
@adamvojtechano,"@adamvojtechano Taky řešení.... Ale nakonec, nic jiného jsem od vlády ""odborníků"" nečekal.","Situace ohledně koronaviru může pro některé občany znamenat velkou psychickou zátěž, proto jsme spustili na bezplat… https://t.co/RDFeZmwkDE",1150799561503453186
@AndrejBabis,@AndrejBabis https://t.co/tqcE1qhg3W,Zvládneme to. https://t.co/rVNbfaP92Y,1150799561503453186
@kalousekm,"@kalousekm @TVPrima V politice jste přes dvacet let. To jste ještě nezjistil, že hádat se s blbcem nemá smysl?",Vážená televize @TVPrima. Když necháte v této situaci ve studiu dva ministry účelově a falešně útočit na opozici be… https://t.co/ZNK978RiVw,1150799561503453186
@alenaschillerov,@alenaschillerov No a jak tu radostnou novinu všem lidem oznámíte? Celostránkovou inzercí v Babišových plátcích?,"Půl roku bez splátek úvěrů a hypoték pomůže všem. Občanům, firmám i náladě ve společnosti. Banky i nebankovní spole… https://t.co/bKiCT8jdff",1150799561503453186
@alenaschillerov,@alenaschillerov @MinFinCZ @financnisprava Co je zase tohle za sviňárnu? https://t.co/Qm9KLzJOL6,"Avizovaná podpora pro OSVČ paralyzovala všechny linky @MinFinCZ a @financnisprava. Váš zájem mě těší, ale pamatujte… https://t.co/Bz6rSLLYnN",1150799561503453186
@AndrejBabis,@AndrejBabis Klika že máme tak skvělé doktory... https://t.co/6Ff02bxlIr,"Úžasná zpráva. Remdesivir zabral! Stav pacienta ve VFN, který tři dny lék dostává, se výrazně zlepšil. Mohl být odp… https://t.co/338hgdYWao",1150799561503453186
@adamvojtechano,"@adamvojtechano @AndrejBabis Takže kdyby umřela už převčírem doma, tak by nikdy nikdo nezjistil že měla koronovirus?","Smutná zpráva z VFN. Zemřela pacientka roč.1949, od 22.3. hospitalizována s plicní chorobou. Měla další zdravotní p… https://t.co/o0rVp8hvBH",1150799561503453186
@AndrejBabis,@AndrejBabis Ty seš doopravdy neskutečnej vůl.,"Gratuluju autorům toho skvělého videa, co jsme všichni viděli a co jsem poslal většině premiérů a prezidentů Evropy… https://t.co/3o56MP74pv",1150799561503453186
@alenaschillerov,@alenaschillerov @EU_Commission Stát platí někomu DPH? Komu?,"Roušky nebo respirátory vyjdou stát levněji. Včera jsme požádali @EU_Commission o možnost, aby byl zdravotnický mat… https://t.co/fp2JCEWxp3",1150799561503453186
@adamvojtechano,"@adamvojtechano Seš si jistej že tohle je tvoje práce? Jak to, že seš ve skupince více než dvou lidí????","Večerní návštěva plného skladu v Sedlčanech. Dnes jsme tady naskladnili stovky tisíc roušek, respiratorů a obleků p… https://t.co/rKVgvDXJxo",1150799561503453186
@kalousekm,"@kalousekm @jhamacek Čest vem svetr... Mě by spíš zajímalo, po kom se opičí Schillerka.. Babiš po Kimovi....","Kdybyste snad nevěděli, po kom se @jhamacek opičí s tím červeným svetrem... https://t.co/ifXIl29W41",1150799561503453186
@AndrejBabis,@AndrejBabis Povolil tu vopičárnu vůbec někdo?,Zvládneme to. https://t.co/rVNbfaP92Y,1150799561503453186
@adamvojtechano,@adamvojtechano Copak že to? Paní Monika má zaprášenou Audinu?,"Prodloužili jsme zákaz maloobchodního prodeje a prodeje služeb v provozovnách, s výjimkou vybraných prodejen. Nově… https://t.co/djJranT5ks",1150799561503453186
@AndrejBabis,@AndrejBabis Vláda vyvěšuje vlajky formou billboardu?,"Zítra to bude 100 let, co se zrodila a byla uzákoněna naše státní vlajka. Na tuto počest jsme na Kramářovu vilu vyv… https://t.co/AhA0CTnSFq",1150799561503453186
@alenaschillerov,@alenaschillerov Stejně je to zajímavé... Šest let nás Budeš přesvědčuje o tom jak díky němu lámeme v ekonomice rek… https://t.co/WZXtGYonKa,"Stručnost a přehlednost je v této chvíli klíčová. Koukněte, co všechno přináší #liberacnibalicek daňových úlev a co… https://t.co/BmS6eymuqk",1150799561503453186
@kalousekm,"@kalousekm Když se někdo neštítí do podvodů namočit vlastní děti a pak je ještě prohlásit za kriply, pak mě u takov… https://t.co/CP1OGfqoDb","Neznají stud a neváhají zneužít jakékoliv situace. Obcházejí pravidla, ale důsledně se jich dovolávají u protistran… https://t.co/XGhg8ZclMu",1150799561503453186
@adamvojtechano,"@adamvojtechano ""Teď musíme být všichni solidární. ""  Já jsem si ty šašku nějak nevšiml že by si navrhl snížit plat… https://t.co/sUJ4rjt0EK","Epidemie koronaviru přinesla nejen vysoká zdravotní rizika, ale také nemalé celospolečenské náklady. Teď musíme být… https://t.co/RW4oLWbbax",1150799561503453186
@adamvojtechano,@adamvojtechano V řádu dnů.... Ty vole nech se vyšetřit.... Tedy jestli k tvému psychiatrovi dorazí respirátor...,"300 000 respirátorů týdně pro zdravotníky v terénu - praktické a dětské lékaře, zubaře, ambulantní specialisty a lé… https://t.co/eh8XDQjXpW",1150799561503453186
@adamvojtechano,"@adamvojtechano @AndrejBabis Ty bojuješ tak maximálně hubou. Mimochodem jak bobuješ proti obyčejné chřipce, která j… https://t.co/a6cDoSLkFh","Bojujeme proti koronaviru společně, všemi možnými prostředky. Známý český vývojář 3D tiskáren Josef Průša tiskne oc… https://t.co/oDvnPIn6Dq",1150799561503453186
@alenaschillerov,@alenaschillerov No a nešlo by to razítko dát na řetízek k tomu boxu? Tak jako to mají banky? Stejně nikdo nekontro… https://t.co/zrWRu5e7Cn,Místo razítka SMS. Pokud jste se rozhodli podat přiznání k dani z příjmů v těchto dnech (kvůli vratce) a nepoužívát… https://t.co/0PUzgjgfvt,1150799561503453186
@kalousekm,"@kalousekm Vy jste především nepochopil jednu základní věc. Podle Babiše živnostníci 30 let kradli, (tak jako von),… https://t.co/ruk4itOHrH","Co vlastně vláda sleduje? Pokud jenom nechce, aby živnostníci neumřeli hlady, tak 15 000 stačí. Pokud by ale chtěla… https://t.co/gsTnFvzJcJ",1150799561503453186
@adamvojtechano,@adamvojtechano Tam už chybí jen Achtung! Achtung!,"Prodloužili jsme zákaz maloobchodního prodeje a prodeje služeb v provozovnách, s výjimkou vybraných prodejen. Nově… https://t.co/djJranT5ks",1150799561503453186
@AndrejBabis,@AndrejBabis To už víme Máro...,"Úžasná zpráva. Remdesivir zabral! Stav pacienta ve VFN, který tři dny lék dostává, se výrazně zlepšil. Mohl být odp… https://t.co/338hgdYWao",1150799561503453186
@AndrejBabis,@AndrejBabis Tu předchozí zprávu Máro smažeš? Nebo ta platí?,"Úžasná zpráva. Remdesivir zabral! Stav pacienta ve VFN, který tři dny lék dostává, se výrazně zlepšil. Mohl být odp… https://t.co/338hgdYWao",1150799561503453186
@kalousekm,"@kalousekm Kdyby nepřišla epidemie, našli by si jinej důvod. Třeba změnu času na letní... Ta hodina chybí. To se ne… https://t.co/erR0TMmRm0","Neznají stud a neváhají zneužít jakékoliv situace. Obcházejí pravidla, ale důsledně se jich dovolávají u protistran… https://t.co/XGhg8ZclMu",1150799561503453186
@AndrejBabis,"@AndrejBabis Děsný kecy... Škrty jsou právě to, co tahle republika potřebuje. Ten tvůj socialismus, kdy se rozdává… https://t.co/Q6o2XXJxo6",Bez komentáře. https://t.co/wKdSBlDarr,1150799561503453186
@adamvojtechano,"@adamvojtechano @CIIRCCTU Zajímavé je, že si nikde ve světě nevšímají skvělé práce našich ministrů.. Není ti to divný Kene?",Skvělé práce našich vědců z @CIIRCCTU si všímají ve světě. Prvních 600 kusů jejich respirátorů FFP3 již od tohoto t… https://t.co/3WHcXWDg8M,1150799561503453186
@alenaschillerov,@alenaschillerov @AndrejBabis Ten koronavirus má zajímavé vedlejší účinky... Třeba ministryně financí A. Sdhillerov… https://t.co/kXfupCOQXA,"Zákon navrhnu s retrospektivní účinností od 30. března 2020. V případě schválení zákona, kdo podá žádost na katastr… https://t.co/l28MckKMQM",1150799561503453186
@adamvojtechano,"@adamvojtechano @AndrejBabis Takže kdyby umřela už převčírem doma, tak by nikdy nikdo nezjistil že měla koronavirus?","Smutná zpráva z VFN. Zemřela pacientka roč.1949, od 22.3. hospitalizována s plicní chorobou. Měla další zdravotní p… https://t.co/o0rVp8hvBH",1150799561503453186
@alenaschillerov,@alenaschillerov @AndrejBabis @vnitro No a co se konečně vyjádřit k EET??? Čtyři roky přesvědčujete podnikatele že… https://t.co/OfjdIVpy3R,"Samozřejmě, že má @vnitro jako gestor krizového zákona svůj právní výklad k náhradám škod. A já z něj vycházím. Pod… https://t.co/hlglzMFw6S",1150799561503453186
@adamvojtechano,@adamvojtechano @AndrejBabis Konečně. Tak teď už nemám strach... To bude rázem uzdravených....,V novém kabátě. Takové jsou naše stránky s ukazateli ke koronaviru. Doplnili jsme například denní procentuální změn… https://t.co/1yKJoJjbRV,1150799561503453186
@AndrejBabis,@AndrejBabis Klika že jde tohle mimo tebe.,"Úžasná zpráva. Remdesivir zabral! Stav pacienta ve VFN, který tři dny lék dostává, se výrazně zlepšil. Mohl být odp… https://t.co/dS5b4sdgBt",1150799561503453186
@adamvojtechano,@adamvojtechano @AndrejBabis @JMalacova Já myslel že tohle už platí měsíc. Ty doopravdy nejseš normální. Snad to tv… https://t.co/N25GTIBsQd,Vydali jsme nové mimořádné opatření. Při příjmu nových klientů do domovů důchodců a sociálních zařízení bude od zít… https://t.co/6D0n1OMCj1,1150799561503453186
@adamvojtechano,"@adamvojtechano @AndrejBabis Když nebudu obědvat v Palomě, tak každý den ušetřím 3.200 Kč... To dělá za měsíc 36.00… https://t.co/pfwlLdoMSJ","Osoby samostatně výdělečně činné tak za každý měsíc ušetří 2 352 Kč, dohromady 14 112 Kč. Ty osoby samostatně výděl… https://t.co/xbmlWypq3a",1150799561503453186
@alenaschillerov,"@alenaschillerov FÚ Slaný.... Box je umístěný v hale FÚ, dveře zamčené...",Místo razítka SMS. Pokud jste se rozhodli podat přiznání k dani z příjmů v těchto dnech (kvůli vratce) a nepoužívát… https://t.co/0PUzgjgfvt,1150799561503453186
@AndrejBabis,"@AndrejBabis @adamvojtechano 373 nových případů za 24 hodin...Seš si jistej, že jen nekopírujeme ostatní země?",Watch this video. Czechs are sewing their own masks to fight COVID-19. Everyone in the world should follow our exam… https://t.co/8sMpyTLMWF,1150799561503453186
@AndrejBabis,@AndrejBabis @realDonaldTrump Aby to celé nedopadlo jako s kuponovou privatizací.. Když si naši politici myslí že j… https://t.co/W8LCxz6Fly,"Mr. President @realDonaldTrump, try tackling virus the Czech way. Wearing a simple cloth mask, decreases the spread… https://t.co/j0TkxlDlbI",1150799561503453186
@alenaschillerov,"@alenaschillerov Pohřbila jsem vynikající projekt ""datová schránka"". Díky vaším debilním pokutám za nic se živnostn… https://t.co/LNU51CASDv",Není žádný důvod stát frontu na finanční úřad. Termín pro podání přiznání jsme posunuli do 1.7. Nikdo nepřijde ani… https://t.co/4AmjpWpQGM,1150799561503453186
@adamvojtechano,"@adamvojtechano Chudáci senioři... X měsíců je nebudou moct navštívit vnuci, což je v jejich životě jediná radost,… https://t.co/sYffSI3ccS",Zaměstnanci musí například 2x denně měřit klientům teplotu bezkontaktním teploměrem a kontrolovat jejich zdravotní… https://t.co/YoZj5hqb2b,1150799561503453186
@adamvojtechano,@adamvojtechano @AndrejBabis Neprodleně hospitalizován bys měl být ty magore.,"Dojde-li k nákaze v domově pro seniory a pacient má lehký průběh, zůstane v tomto zařízení. Zařízení bude rozděleno… https://t.co/M4OKXSF1kX",1150799561503453186
@adamvojtechano,"@adamvojtechano @AndrejBabis Téměř v každém městě je hotel, který je v současné době prázdný, protože se nesmí ubyt… https://t.co/7vRJxqCzVm","Dojde-li k nákaze v domově pro seniory a pacient má lehký průběh, zůstane v tomto zařízení. Zařízení bude rozděleno… https://t.co/M4OKXSF1kX",1150799561503453186
@adamvojtechano,@adamvojtechano @AndrejBabis Jdi už do hajzlu ty netáhlo. Každej druhej by na tvým místě chodil kanálama a ty máš t… https://t.co/naoCIRb6LW,"Roušky mohou významně zpomalit šíření viru v populaci. Doporučuji všem státům, aby zavedly nošení roušek, i těch do… https://t.co/C3aaivXFdv",1150799561503453186
@adamvojtechano,@adamvojtechano To víme. Vůdce nám to oznámil už před hodinou.,Odborná péče lékařů Všeobecné fakultní nemocnice a léčba lékem Remdesivir zabrala. Stav pacienta ve VFN se zlepšil!,1150799561503453186
@adamvojtechano,@adamvojtechano @AndrejBabis @jhamacek @JStredula @martin_baroch @infocz_web @VrataDostal @tripartita_cz… https://t.co/tBgEYsUZlg,@jhamacek @JStredula @martin_baroch @infocz_web @VrataDostal @tripartita_cz @ZdravkoOnline @odbory @UnieCr… https://t.co/H5U8ungAye,1150799561503453186
@adamvojtechano,@adamvojtechano https://t.co/Xbfomdphfj,K naší debatě s paní předsedkyní Žitníkovou v OVM. Zákaz vývozu a regulace prodeje se od začátku týká pouze respirá… https://t.co/uOOwJyA5eB,1150799561503453186
@alenaschillerov,@alenaschillerov No a teď musí přijít i krok B... Solidární musí být všichni... Tedy i státní zaměstnanci a senioři… https://t.co/xiQGPaU80o,"Půl roku bez splátek úvěrů a hypoték pomůže všem. Občanům, firmám i náladě ve společnosti. Banky i nebankovní spole… https://t.co/bKiCT8jdff",1150799561503453186
@alenaschillerov,"@alenaschillerov Když pošlou DP poštou, tak nedostanou orazítkovanou kopii...",Není žádný důvod stát frontu na finanční úřad. Termín pro podání přiznání jsme posunuli do 1.7. Nikdo nepřijde ani… https://t.co/4AmjpWpQGM,1150799561503453186
@adamvojtechano,"@adamvojtechano Já hlavně nerozumím proč takový jelito dělá ministra zdravotnictví. Hele ty netáhlo, kdo ti tenkrát… https://t.co/zvkun2Fj2U","Nerozumím těmto útokům přes sociální sítě, přitom jsem s paní ministryní před chvílí telefonoval… Pokud by Minister… https://t.co/xnJYuz5gNk",1150799561503453186
@AndrejBabis,@AndrejBabis Kdo jsou ti tvoji lidé?,"Má obavy, že naši lidi nenastoupí do práce. Německé firmy pro ně zavedly speciální motivaci pro tento režim. Uvidíme, jak to bude fungovat.",1150799561503453186
@alenaschillerov,"@alenaschillerov Všem asi ne. Jen těm, co mají úvěry a nemůžou je splácet. Tem co úvěry nemají to nepomůže vůbec a… https://t.co/hxxLNSVthM","Půl roku bez splátek úvěrů a hypoték pomůže všem. Občanům, firmám i náladě ve společnosti. Banky i nebankovní spole… https://t.co/bKiCT8jdff",1150799561503453186
@alenaschillerov,"@alenaschillerov Je jen otázkou, co se z trhem s nemovitostmi teď stane. Není zrovna příznivá doba na nákup...","Zákon navrhnu s retrospektivní účinností od 30. března 2020. V případě schválení zákona, kdo podá žádost na katastr… https://t.co/l28MckKMQM",1150799561503453186
@AndrejBabis,@AndrejBabis Poslal si to klukovi na Krym?,"Kdo máte přátele, známé, rodinu nebo obchodní partnery v zahraničí, pošlete jim tohle důležité video. Každý v Evrop… https://t.co/0Gl3u0GwLV",1150799561503453186
@kalousekm,@kalousekm @alenaschillerov Jste si jistej že na Ministerstvo financí trefíte? https://t.co/jYL3Cf8C1l,"Jsem zoufalý z toho, jak jsou zoufalí živnostníci. Paní ministryně,@alenaschillerov, pusťte mě v 7,00 ráno na minis… https://t.co/s3tQpDKDyl",1150799561503453186
@AndrejBabis,@AndrejBabis A proto když si jel onehdá za Násoskou do Lán tak si do ní prskal?,Před sto lety napsal v návrhu zákona Antonín Švehla: „Vlajka navržená bude zajisté odchylná od jiných vlajek státní… https://t.co/Aou1e07XIn,1150799561503453186
@kalousekm,@kalousekm https://t.co/8ZBMXaYW1g,Učebnicový příklad našich priorit v boji s čínským virem: Vláda není schopná ochránit ty nejzranitelnější v domovec… https://t.co/XW8IEkN5C7,1150799561503453186
@AndrejBabis,@AndrejBabis Proč to nenamluvil někdo kdo umí perfektně anglicky? Třeba Alenka Schillerová?,"Kdo máte přátele, známé, rodinu nebo obchodní partnery v zahraničí, pošlete jim tohle důležité video. Každý v Evrop… https://t.co/0Gl3u0GwLV",1150799561503453186
@alenaschillerov,"@alenaschillerov Už zase lhářko? Ty boxy nejsou před FÚ, ale uvnitř. Takže ono je to celé v podstatě úplně na hovno.",Místo razítka SMS. Pokud jste se rozhodli podat přiznání k dani z příjmů v těchto dnech (kvůli vratce) a nepoužívát… https://t.co/0PUzgjgfvt,1150799561503453186
@kalousekm,@kalousekm @lubos_sotek No vy jste se zbláznil. To jako vzít 40 mld. voličům ANO?,@lubos_sotek 1.Provozní výdaje kapitol 2.Stop stav přijímání zaměstnanců 3. Slevy na jízdném 4. Dotace agrokomlexu… https://t.co/0tStW7glHj,1150799561503453186
@kalousekm,@kalousekm @DominikFeri @TVPrima TV Prima převzala štafetu po TV Barrandov. Je z ní hradní a provládní televize. Je… https://t.co/NJEQ4xmHbj,Vážená televize @TVPrima. Když necháte v této situaci ve studiu dva ministry účelově a falešně útočit na opozici be… https://t.co/ZNK978RiVw,1150799561503453186
@adamvojtechano,@adamvojtechano @AndrejBabis Nestačilo by jen něco na prsty? https://t.co/tbGxH6DaAa,Nově také musí podnikatelé provozující maloobchodní prodejnu potravin se samoobslužným prodejem bezplatně zákazníků… https://t.co/t7q2MuVHil,1150799561503453186
@AndrejBabis,@AndrejBabis @CVUTPraha To seš hodnej...,"Taky dáváme zdarma k dispozici technologii na respirátory z 3D tiskáren, kterou vyvinuli naši vědci z @CVUTPraha. O… https://t.co/HrosCsitz4",1150799561503453186
@alenaschillerov,@alenaschillerov Co to v tý televizi žvaníte za kraviny? Prostě jsme v hajzlu a zvyšování daní je nevyhnutelné.. Ne… https://t.co/1R3RNPJrOO,Není žádný důvod stát frontu na finanční úřad. Termín pro podání přiznání jsme posunuli do 1.7. Nikdo nepřijde ani… https://t.co/4AmjpWpQGM,1150799561503453186
@adamvojtechano,@adamvojtechano @AndrejBabis Ty si doopravdy moc rozumu nepobral. To jako chceš aby z toho za chvíli všichni zecvokli?,"Máme tady pátek a před námi další víkend v této mimořádné situaci. Chtěl bych všechny požádat, aby odložili návštěv… https://t.co/lnCBL77P2G",1150799561503453186
@alenaschillerov,@alenaschillerov Polštář - prostředky uspořené na horší časy.... Bianko šek na dluh doopravdy není  polštář.,"Poslanci právě schválili novelu zákona o státním rozpočtu na rok 2020. Máme polštář, díky kterému současné rány tuz… https://t.co/RYj7mwDNHA",1150799561503453186
@alenaschillerov,"@alenaschillerov @AndrejBabis @vnitro No a za další... Nesmím si koupit splachovadlo k hajzlu, ale Babiš si klidně… https://t.co/TSF9QZXs2P","Samozřejmě, že má @vnitro jako gestor krizového zákona svůj právní výklad k náhradám škod. A já z něj vycházím. Pod… https://t.co/hlglzMFw6S",1150799561503453186
@adamvojtechano,@adamvojtechano No a nechceš zrušit tu kravinu s dobou nákupu pro seniory? Je to stejně na prd. Já byl dneska v pol… https://t.co/4VcAjVb0NW,"Prodloužili jsme zákaz maloobchodního prodeje a prodeje služeb v provozovnách, s výjimkou vybraných prodejen. Nově… https://t.co/djJranT5ks",1150799561503453186
@AndrejBabis,@AndrejBabis Takže si jí smazal. Jak jinak prolhanej dobytku.,"Úžasná zpráva. Remdesivir zabral! Stav pacienta ve VFN, který tři dny lék dostává, se výrazně zlepšil. Mohl být odp… https://t.co/338hgdYWao",1150799561503453186
@kalousekm,"@kalousekm @alenaschillerov Já se docela těším na to, jak budou obhajovat, že si lidé můžou koupit kytku, ale ne tř… https://t.co/VodJj5WlzD","Co říká @alenaschillerov, je celkem jedno. Důležité bude, jak to budou vykládat soudy. Jestli vláda rozhodla něco,… https://t.co/iE7DIl7xfA",1150799561503453186
@AndrejBabis,"@AndrejBabis Dozvím se konečně jestli je pravda to, že EET nikterak podnikatele nezatěžuje, nebo je dobré teď EET o… https://t.co/eNnSgnbIae",Bez komentáře. https://t.co/wKdSBlDarr,1150799561503453186
@adamvojtechano,@adamvojtechano @AndrejBabis Vy si někoho vyšetřoval šášulo? Sám by ses měl nechat vyšetřit. Jak tě vůbec napadlo se cpát na takovej flek?,"Aktuálně. V ČR je 2062 nakažených. Počet laboratoří vzrostl na 70, což se projevilo v počtu otestovaných. Včera jsm… https://t.co/loPY3asFe2",1150799561503453186
@adamvojtechano,@adamvojtechano @AndrejBabis Ty si někoho vyšetřoval šášulo? Sám by ses měl nechat vyšetřit. Jak tě vůbec napadlo se cpát na takovej flek?,"Aktuálně. V ČR je 2062 nakažených. Počet laboratoří vzrostl na 70, což se projevilo v počtu otestovaných. Včera jsm… https://t.co/loPY3asFe2",1150799561503453186
@AndrejBabis,@AndrejBabis @CVUTPraha Tobě by slušela tahle rouška.... https://t.co/Mp2JN1oIA6,"Taky dáváme zdarma k dispozici technologii na respirátory z 3D tiskáren, kterou vyvinuli naši vědci z @CVUTPraha. O… https://t.co/HrosCsitz4",1150799561503453186
@AndrejBabis,"@AndrejBabis To snad napadne i vola... Pokud bysme dostali něco navíc, tak by tam taky někdo něco navíc musel nasypat.","České republice bude už letos poskytnuto zhruba 300 mio eur (asi 8,1 mld. Kč), které bychom jinak dostali až při zú… https://t.co/zMXf7bGwdE",1150799561503453186
@adamvojtechano,@adamvojtechano @AndrejBabis @CVUTPraha @ZdravkoOnline A proč???? Horší je chřipka... Navíc sklady jsou plné...,A je to tady. Dodávka prvních 600 ks respirátorů nejvyšší kvality pro naše fakultní nemocnice z dílny @CVUTPraha a… https://t.co/3104VkY4k8,1150799561503453186
@adamvojtechano,@adamvojtechano @CVUTPraha @ZdravkoOnline Kde to je focený? Na dvoře tvého přechodného bydliště na Borech?,A je to tady. Dodávka prvních 600 ks respirátorů nejvyšší kvality pro naše fakultní nemocnice z dílny @CVUTPraha a… https://t.co/3104VkY4k8,1150799561503453186
@alenaschillerov,"@alenaschillerov Pohřbila jste vynikající projekt ""datová schránka"". Díky vaším debilním pokutám za nic se živnostn… https://t.co/Z3psx0IsLC",Není žádný důvod stát frontu na finanční úřad. Termín pro podání přiznání jsme posunuli do 1.7. Nikdo nepřijde ani… https://t.co/4AmjpWpQGM,1150799561503453186
@AndrejBabis,@AndrejBabis Poslal si i jim i fotečku? https://t.co/Y68Rk17Prl,"Gratuluju autorům toho skvělého videa, co jsme všichni viděli a co jsem poslal většině premiérů a prezidentů Evropy… https://t.co/3o56MP74pv",1150799561503453186
@AndrejBabis,"@AndrejBabis A tohle je u Babiše se vším.... Plácá o vlajce, ale na fotce musí vyniknout sám modelka.","Zítra to bude 100 let, co se zrodila a byla uzákoněna naše státní vlajka. Na tuto počest jsme na Kramářovu vilu vyv… https://t.co/AhA0CTnSFq",1150799561503453186
@kalousekm,"@kalousekm @oldafojtik @alenaschillerov To si doopravdy myslíte, že z toho bordelu za jeden den vydolujete nějaký r… https://t.co/TtodYAYS01","@oldafojtik @alenaschillerov To memůžu, potřebuji alespoň minimální data. Proto potřebuji vstup na ministerstvo a tři profíky. Pak to dám.",1150799561503453186
@alenaschillerov,@alenaschillerov @PREZIDENTmluvci @vnitro @ZdravkoOnline No ještě aby ne. To nejsou vaše prachy. I když to zjevně nechápete.,Na nákup ochranných pomůcek jsem hned po obdržení žádostí uvolnila z vládní rozpočtové rezervy už cca 5 mld. Kč. Ne… https://t.co/AME3V0THkK,1150799561503453186
@AndrejBabis,"@AndrejBabis Babiš je PR produkt Marka Prchala. Něco mezi práškem na praní a vložkami... Prchale, ty debile, přesta… https://t.co/IKtfFKtRnQ","Gratuluju autorům toho skvělého videa, co jsme všichni viděli a co jsem poslal většině premiérů a prezidentů Evropy… https://t.co/3o56MP74pv",1150799561503453186
@adamvojtechano,@adamvojtechano @NaBulovce Už si konečně zjistil že je to pořádnej průser?,"S panem prof. Prymulou intenzivně řešíme narůstající počet nakažených seniorů. Domluvili jsme kapacity @NaBulovce,… https://t.co/Joxa8cMAFw",1150799561503453186
@adamvojtechano,@adamvojtechano @ZdravkoOnline https://t.co/Ceo3QEjHqj,Právě teď sedíme s kolegy na @ZdravkoOnline a připravujeme zítřejší distribuci další várky ochranných prostředků. Z… https://t.co/cQJsrWsVDQ,1150799561503453186
@adamvojtechano,@adamvojtechano @JStredula @martin_baroch @jhamacek @infocz_web @VrataDostal @tripartita_cz @ZdravkoOnline @odbory… https://t.co/QLtNywN1N6,@JStredula @martin_baroch @jhamacek @infocz_web @VrataDostal @tripartita_cz @ZdravkoOnline @odbory @UnieCr… https://t.co/xGZAg7f4Tt,1150799561503453186
@kalousekm,@kalousekm @alenaschillerov Proč? Každý má možnost jít porcovat kuřata do Vodňan. Volných míst je v holdingu víc ne… https://t.co/dYtTZX4aFd,"Jsem zoufalý z toho, jak jsou zoufalí živnostníci. Paní ministryně,@alenaschillerov, pusťte mě v 7,00 ráno na minis… https://t.co/s3tQpDKDyl",1150799561503453186
@AndrejBabis,@AndrejBabis Mám dotaz. Kterej kripl vymýšlí to prodlužování omezování volného pohybu o týden? Do hajzlu to byl tak… https://t.co/1ED5GfBQkC,Zvládneme to. https://t.co/rVNbfaP92Y,1150799561503453186
@alenaschillerov,@alenaschillerov @SenatCZ Jak pomůžete v případě koronaviru podnikatelům? Umožníte jim nepřiznávat tržby. Vy jste d… https://t.co/9mWPlzyp5u,Také @SenatCZ odsouhlasil dočasné pozastavení EET. Podnikatelé nebudou muset evidovat své tržby po dobu nouzového s… https://t.co/XTilLhkuHR,1150799561503453186
@adamvojtechano,@adamvojtechano @AndrejBabis @JStredula @martin_baroch @jhamacek @infocz_web @VrataDostal @tripartita_cz… https://t.co/59hoOW8c0I,@JStredula @martin_baroch @jhamacek @infocz_web @VrataDostal @tripartita_cz @ZdravkoOnline @odbory @UnieCr… https://t.co/xGZAg7f4Tt,1150799561503453186
@alenaschillerov,@alenaschillerov @MinFinCZ @financnisprava Tak hlavně aby se dostalo na Agrofert.,"Avizovaná podpora pro OSVČ paralyzovala všechny linky @MinFinCZ a @financnisprava. Váš zájem mě těší, ale pamatujte… https://t.co/Bz6rSLLYnN",1150799561503453186
@adamvojtechano,@adamvojtechano @AndrejBabis Nechtěl by ses živit raději něčím co umíš? Tedy jestli něco takového vůbec je.,K naší debatě s paní předsedkyní Žitníkovou v OVM. Zákaz vývozu a regulace prodeje se od začátku týká pouze respirá… https://t.co/uOOwJyA5eB,1150799561503453186
@adamvojtechano,@adamvojtechano A ty seš tam k čemu? Počítáš živé a mrtvé?,"Zásobování sociálních služeb pomůckami převzal pan ministr Hamáček. Pokud je někde nedostatek, měla by to paní mini… https://t.co/xzloSu7LXG",1150799561503453186
@adamvojtechano,@adamvojtechano U Číny riziko kleslo????? A to jako proč?,V některých zemích se onemocnění COVID-19 nevyvíjí dobře. Rozšířili jsme tak seznam států s vysokým rizikem přenosu… https://t.co/eU8WVCGD5n,1150799561503453186
@kalousekm,"@kalousekm @SturmTomas @oldafojtik @alenaschillerov Jenže máte silnýho soupeře.. ""Nikdy neodstoupím, nikdy! Nech si to všichni zapamatují!""","@SturmTomas @oldafojtik @alenaschillerov Nemohu Vám slíbit vítězství. Slibuji ale, že to nikdy nevzdám. Na moři, ve… https://t.co/a5R3KfltEc",1150799561503453186
@adamvojtechano,"@adamvojtechano @AndrejBabis Zrušte zákazy letů úplně. Když sem stejně nikdo nesmí, tak sem stejně nikdo lítat nebude.",Rušíme zákaz letů z Jižní Koreje.☝️Nadále ale platí zákaz vstupu pro všechny cizince s výjimkou cizinců s přechodný… https://t.co/pKiGpPeuxn,1150799561503453186
@kalousekm,@kalousekm @alenaschillerov Myslíte Agrosoudy?,"Co říká @alenaschillerov, je celkem jedno. Důležité bude, jak to budou vykládat soudy. Jestli vláda rozhodla něco,… https://t.co/iE7DIl7xfA",1150799561503453186
@kalousekm,"@kalousekm @alenaschillerov Jeden z nejbohatších mužů ve státě,miliardář a vůdce své politické družiny ANO2011 Andr… https://t.co/HPKDRcy9Sk","Jsem zoufalý z toho, jak jsou zoufalí živnostníci. Paní ministryně,@alenaschillerov, pusťte mě v 7,00 ráno na minis… https://t.co/s3tQpDKDyl",1150799561503453186
@AndrejBabis,@AndrejBabis Hele ty debile. Ten vir se šíří vzduchem. Ty jdeš a provokativně si v roušce koupíš točenou zmrzlinu.… https://t.co/OMXBwj0E7b,"Kdo máte přátele, známé, rodinu nebo obchodní partnery v zahraničí, pošlete jim tohle důležité video. Každý v Evrop… https://t.co/0Gl3u0GwLV",1150799561503453186
@AndrejBabis,@AndrejBabis Kýč jak prdel. Jakej pán....,Zvládneme to. https://t.co/rVNbfaP92Y,1150799561503453186
@alenaschillerov,@alenaschillerov @snemovna @MinFinCZ Už zase? Tahle sviňárna tady byla už odpoledne... Pročpak si jí smáznul Máro?,"Schváleno. @snemovna před několika okamžiky kývla na návrh @MinFinCZ pozastavit EET, a to po dobu stavu nouze a nás… https://t.co/tsgAcDhIAO",1150799561503453186
@alenaschillerov,"@alenaschillerov @snemovna @MinFinCZ Takže znova. EET podnikatele nezatěžuje, přivítali ho, protože narovnává podni… https://t.co/8dWuN5Xdop","Schváleno. @snemovna před několika okamžiky kývla na návrh @MinFinCZ pozastavit EET, a to po dobu stavu nouze a nás… https://t.co/tsgAcDhIAO",1150799561503453186
@AndrejBabis,@AndrejBabis To je zajímavé.. Čas na odpověď Bruselu ohledně auditu úředníci nemají... Ale čas na to hrát si se svě… https://t.co/zbW5VLWAcX,Zvládneme to. https://t.co/rVNbfaP92Y,1150799561503453186
@AndrejBabis,"@AndrejBabis Bill Gates není žádný génius, ale pragmatik. Bylo jen otázkou času, kdy něco takového přijde.. To ale… https://t.co/KEmi6l7Eew","Bill Gates je génius. Před epidemií varoval už v roce 2015 a co říkal, si pusťte. Tady je jeho přednáška s českými… https://t.co/MVquNox0FO",1150799561503453186
@adamvojtechano,"@adamvojtechano ""Jeden ze Středočeského kraje""  To je velmi hodnotná informace.","Dnešní bilance. Počet pacientů s koronavirem vzrostl za dnešek o 6, celkem je nakažených 38 osob. Posledními případ… https://t.co/EBJeElNH23",1150799561503453186
@adamvojtechano,"@adamvojtechano Jinými slovy, je to v prdeli. Tohle se dalo očekávat. Stejně to dopadlo i v Itálii a dalších zemích… https://t.co/yvGR7C0xp9","Pražská hygienická stanice dnes večer také potvrdila pozitivní případ muže, který nemá cestovatelskou anamnézu. Hyg… https://t.co/iKjhvCziB9",1150799561503453186
@AndrejBabis,@AndrejBabis Já se dívám jen na porno. Tam snad smrdět nebudeš.,"Najdete si zítra, v pondělí večer ve 20 hodin chvilku? Vím, že je to teď těžké období a já víc než kdy jindy cítím,… https://t.co/aB5P27DcDc",1150799561503453186
@kalousekm,@kalousekm @SkupinaCEZ To by byla docela škola tohle odpískat... V tom jedou velký prachy. I Putin by pustil chlup.… https://t.co/kLgIcLnuSl,Většina politické scény mě teď prokleje (je to jen můj názor bez konzultace s kýmkoliv) : V silách státního fiskálu… https://t.co/aTgEOwvYkW,1150799561503453186
@alenaschillerov,@alenaschillerov @AndrejBabis A proč? EET podnikatele přece nijak nezatěžují. EET vadí jen zlodějům a podvodníkům.… https://t.co/15t2rXYMHi,Podnikatelům pozastavujeme povinnost evidovat tržby (EET) po dobu stavu nouze a následující tři měsíce. Nemusí tržb… https://t.co/d44tyFKYKu,1150799561503453186
@adamvojtechano,"@adamvojtechano To jsem nevěděl že když někdo umře, tak to musí oznámit ministr zdravotnictví.. Ale zase na druhou… https://t.co/gHtcVbo1By","Je mi moc líto, že musím oznámit druhé úmrtí pacienta nakaženého koronavirem. Zpráva přišla z nemocnice v Havířově.… https://t.co/QBHvQ7SCc2",1150799561503453186
@AndrejBabis,@AndrejBabis @ZdravkoOnline Že ty ovládáš i vietnamštinu? Proč si nám to neřekl ty tajnůstkáři?,"„Vaše potíže, jsou naše potíže.“ To mi řekl vietnamský premiér Nguyen Xuan Phúc při 30minutovém rozhovoru, kdy potv… https://t.co/ep0mvfKSAk",1150799561503453186
@alenaschillerov,@alenaschillerov @MinFinCZ @snemovna V horní komoře EET hájila i náměstkyně resortu financí a budoucí ministryně Al… https://t.co/AQr69tRtrc,Sněmovní rozpočtový výbor právě schválil návrh @MinFinCZ pozastavit EET na dobu nouze a další tři měsíce. Chceme ta… https://t.co/TeJhHOAocL,1150799561503453186
@AndrejBabis,@AndrejBabis Já jen doufám že se tam nebudeš volizovat s Prchalem jako po volbách.,"Najdete si zítra, v pondělí večer ve 20 hodin chvilku? Vím, že je to teď těžké období a já víc než kdy jindy cítím,… https://t.co/aB5P27DcDc",1150799561503453186
@adamvojtechano,"@adamvojtechano @AndrejBabis Na základě podmětů, by měli mít vyhrazený čas jak senioři, tak ostatní. Jinak je to to… https://t.co/nmywwRyFQp",Na základě podnětů jsme pro seniory změnili čas pro nákupy. Od středy mohou do potravin nad 500m2 mezi 8 a 10 h pou… https://t.co/KWwLyfzJRy,1150799561503453186
@kalousekm,@kalousekm @_Hernajz_ @ODScz No buďme upřímní... Nečas to pořádně s tou svojí tehdejší milenkou podělal.,"@_Hernajz_ Já myslím, že Vy v tom máte jasno: “Může za to @ODScz a @kalousekm, symbol korupce.” Pozdravujte Prchala.",1150799561503453186
@adamvojtechano,@adamvojtechano Tak to oslav.,Dnes jsou to přesně 3 týdny od prvních případů koronaviru v ČR. Počet nakažených ráno překročil tisíc a k večeru vz… https://t.co/iJILdDog4R,1150799561503453186
@kalousekm,"@kalousekm Je to přesně takové, jaké jsem od této vlády čekal. Ale dost se divim že vy jste snad doufal v něco lepš… https://t.co/xAv6PqZbDG","První pohled na novelu zákona o SR: 1)Propad příjmů velmi optimistický, ale o to se přít nechci. 2) Naprostá neocho… https://t.co/t63MHx8ium",1150799561503453186
@kalousekm,"@kalousekm Vy chcete bojovat proti vojevůdci, který je tak neschopný, že nedokáže ani najít bojiště.  To je tedy odvaha...","Tři vládní priority novely zákona o státním rozpočtu:
1. Účinná pomoc velkým firmám a jejich zaměstnancům.
2. Dokon… https://t.co/pNSZArMb7G",1150799561503453186
@kalousekm,@kalousekm My tam můžeme napumpovat 2 biliony z lithia... Apríííl.,"Paní rektorka je dáma, říká to tedy o něco slušněji, než já. Nejvíc mě na tom štve, že jsme jim to naléhavě říkali… https://t.co/f6xuHEZJK8",1150799561503453186
@kalousekm,"@kalousekm No a nepomohlo by, kdyby je vrátil Agrofert?","Hezký komentář. Dlužno však upřesnit, že věta “..vlády budou muset vrátit peníze ze státní kasy..” platí v Německu,… https://t.co/Xd6k3XaxGg",1150799561503453186
@adamvojtechano,@adamvojtechano @AndrejBabis Report..... Máro ty seš doopravdy blbec.,"Ranní report ke koronaviru: Počet pozitivních pacientů vzrostl na 1 289 nakažených, od včerejšího rána nárůst o 124… https://t.co/1zMxrzsNWD",1150799561503453186
@AndrejBabis,@AndrejBabis @CNB_cz No a nestačilo by použít ty dva biliony z prodeje lithia? Ty jak si zachránil ze spárů ČSSD.,"Vláda dnes v 9:30 mimořádně projedná návrh změny zákona o @CNB_cz, díky kterému ČNB pomůže státu ve financování vše… https://t.co/FtvCrejwuN",1150799561503453186
@AndrejBabis,"@AndrejBabis @CNB_cz Stejně je to zajímavé. Tahle vláda vytváří virtuální stadiony, vysokorychlostní tratě, chodník… https://t.co/6KehJlQ6Mb","Vláda dnes v 9:30 mimořádně projedná návrh změny zákona o @CNB_cz, díky kterému ČNB pomůže státu ve financování vše… https://t.co/FtvCrejwuN",1150799561503453186
@AndrejBabis,@AndrejBabis Já nic takového necítím. Při tobě držet nehodlám. Vem si ten svůj respirátor a nevotravuj. Už si lží nažvanil víc než dost.,"Najdete si zítra, v pondělí večer ve 20 hodin chvilku? Vím, že je to teď těžké období a já víc než kdy jindy cítím,… https://t.co/aB5P27DcDc",1150799561503453186
@adamvojtechano,"@adamvojtechano @NaBulovce No a jak je to s trasováním? Nechce se mi věřit, že byl lyžovat v Itálii.",Před pár desítkami minut přišla z @NaBulovce smutná zpráva. Zemřel první pacient pozitivní na koronavirus v ČR. Muž… https://t.co/XlBAS8gtaK,1150799561503453186
@alenaschillerov,@alenaschillerov cash-flow měla vylepšit i prodloužená lhůta na vrácení DPH.,Poplatník si po vyměření ztráty bude mít možnost ztrátu odečíst od základu daně vykázaného v letech 2018 a 2019. Do… https://t.co/3UeFtwtGHs,1150799561503453186
@alenaschillerov,@alenaschillerov Cože jste vytvořili???,"Navyšujeme rozpočtovou rezervu o 59,3 mld. Kč. Prostředky půjdou na zamezení šíření a řešení dopadů COVID-19. Podpo… https://t.co/DXK01j1g35",1150799561503453186
@alenaschillerov,@alenaschillerov @AndrejBabis A nechtěla byste se živit raději něčím co umíte? Pletete ráda?,Poplatník si po vyměření ztráty bude mít možnost ztrátu odečíst od základu daně vykázaného v letech 2018 a 2019. Do… https://t.co/3UeFtwtGHs,1150799561503453186
@AndrejBabis,@AndrejBabis @CNB_cz A co to udělá třeba s kurzem koruny? Nebo vůbec s důvěrou investorů? Jasný signál vyslaný do z… https://t.co/kTaAsfBtkt,"Vláda dnes v 9:30 mimořádně projedná návrh změny zákona o @CNB_cz, díky kterému ČNB pomůže státu ve financování vše… https://t.co/FtvCrejwuN",1150799561503453186
@kalousekm,"@kalousekm Vláda zatím nic nesnižuje. To jsou jen plky z huby domovnice, která se nějakým ""zázrakem"" stala ministry… https://t.co/YeQ909CfMe","Vláda snižuje výdaje na obranu o větší částku (2,9 mld), než o kolik snižuje slevy na jízdné(1,5 mld), které odmítá… https://t.co/bK2XXc0UdS",1150799561503453186
@alenaschillerov,"@alenaschillerov Proč jste tak neskutečně prolhaná??? EET se nemůže odsunout na pozdější dobu, protože to neumožňuj… https://t.co/fRrIxMazQm","Je dobře, že na naše liberační opatření v oblasti daní (např. odklad termínů daňových přiznání či odpuštění druhé l… https://t.co/sVOGsoWAfa",1150799561503453186
@adamvojtechano,"@adamvojtechano Sleduju jen videa kde je náš velký vůdce, generální tajemník ÚV ANO, soudruh Andrej Babiš, nebo pre… https://t.co/k4VblQI8fT",Nejprve nám měli jen pomoci pro vás natočit edukační video. Nakonec si v něm sami zahráli. Velké díky řediteli SZÚ… https://t.co/klPRP90nle,1150799561503453186
@alenaschillerov,"@alenaschillerov @MinFinCZ @CNB_cz A jaký to má vliv na to, že jsme díky vám v hajzlu?",Skvělá a rychlá spolupráce @MinFinCZ a @CNB_cz. Díky dnes schválené novele zákona o ČNB ještě více upevňujeme silné… https://t.co/12RxPF1hPN,1150799561503453186
@AndrejBabis,@AndrejBabis Já si snad pustím Šlágr. Tam smrdět nebudeš.,"Najdete si zítra, v pondělí večer ve 20 hodin chvilku? Vím, že je to teď těžké období a já víc než kdy jindy cítím,… https://t.co/aB5P27DcDc",1150799561503453186
@adamvojtechano,"@adamvojtechano @AndrejBabis Určitě bezpečně přistálo jen díky tobě, protože si se ujal pilotování toho stroje.",V noci bezpečně přistálo letadlo Smartwings s dalším ochranným materiálem. Místo cestujících přivezlo 700 000 rouše… https://t.co/yrziVeX83t,1150799561503453186
@alenaschillerov,"@alenaschillerov Jo kdybyste napsala, že jste tu zlodějinu, kdy občany trestáte za to že si dovolili koupit nemovit… https://t.co/KgznRp5tSj",Podepsala jsem rozšířený #liberacnibalicek úlev pro poplatníky. Navazujeme na první balíček a promíjíme zálohy na D… https://t.co/hrLUMC4Ny6,1150799561503453186
@alenaschillerov,@alenaschillerov @MinFinCZ @snemovna Jogurt si na trhu od farmáře koupit nesmím... Jogurt z Olmy si v supermarketu… https://t.co/yRRDpAsJTE,Sněmovní rozpočtový výbor právě schválil návrh @MinFinCZ pozastavit EET na dobu nouze a další tři měsíce. Chceme ta… https://t.co/TeJhHOAocL,1150799561503453186
@kalousekm,"@kalousekm @CNB_cz Prostý občan to chápe tak, že ČNB má peníze které jsou naše a teď je jen pro naše potřeby uvolní… https://t.co/Av87famGQ3",Princip takového kroku je prostý: Vládě se pomůže s financováním dluhu a okradou se tím občané s úsporami. Je to v… https://t.co/jFVSKMLf3m,1150799561503453186
@adamvojtechano,"@adamvojtechano Já ti rozumim. Bojíš se kriminálu, tak to hraješ na to že seš cvok..",Od rána počet nových pacientů vzrostl o 71. Aktuálně je v České republice 1 236 nakažených osob koronavirem. Nejvíc… https://t.co/ukoKiaxS6I,1150799561503453186
@alenaschillerov,@alenaschillerov @MinFinCZ @snemovna Ale nechcete. Aspoň nelžete.,Sněmovní rozpočtový výbor právě schválil návrh @MinFinCZ pozastavit EET na dobu nouze a další tři měsíce. Chceme ta… https://t.co/TeJhHOAocL,1150799561503453186
@AndrejBabis,@AndrejBabis To se nedá poslouchat šišlale. To sis nemohl ten hadr z huby sundat když mluvíš k národu?,"Mám něco na srdci. Sledujte dnes ve 20.05 můj mimořádný projev. Česká televize, Nova, Prima a Český rozhlas Radiožu… https://t.co/JB2jLZGW1O",1150799561503453186
@kalousekm,"@kalousekm Agrofert můžeme i zestátnit a jednotlivé firmy rozprodat. Stejně nikomu nepatří, takže to nikomu nemůže vadit.",@KlaudaRadoslav Velmi inspirativní..👍,1150799561503453186
@AndrejBabis,@AndrejBabis Tak co máš na srdci? Uvolníš ty dvě miliardy co si získal z prodeje lithia????,"Mám něco na srdci. Sledujte dnes ve 20.05 můj mimořádný projev. Česká televize, Nova, Prima a Český rozhlas Radiožu… https://t.co/JB2jLZGW1O",1150799561503453186
@adamvojtechano,@adamvojtechano @AndrejBabis Tak určitě by bylo lepší je draze dovážet z Číny. Škoda že je nemají....,Odborníci z ČVUT vyvinuli respirátor na 3D tiskárně. Speciální filtr vydrží asi týden. Je to ještě vyšší ochrana ne… https://t.co/h37wgZpfH6,1150799561503453186
@adamvojtechano,"@adamvojtechano Soudruh StB je koukám ve svém živlu... Jen zákazy, příkazy, nařízení. Co na tom že je to úplně na hovno.",Vzhledem k výraznému šíření onemocnění novým koronavirem #COVIDー19 na území Itálie jsme dnes vydali nařízení týkají… https://t.co/xYDMAiX3bp,1150799561503453186
@alenaschillerov,@alenaschillerov Tyhle skupinky by měla policie rozehnat pendrekem a napařit všem pokutu.,Především pracovníkům v první linii patří omluva za nedostatek ochranných pomůcek. Bohužel je to realita většiny po… https://t.co/Lxj9USI7KD,1150799561503453186
@kalousekm,@kalousekm Já se jí musím zastat. Ona nelže. Ona je jen neskutečně hloupá.,"Tohle je čistá lež, odkazuji na svoji argumentaci ve sněmovně. Zálohy se stanovují až v rámci kontrolní činnosti, k… https://t.co/xeDgl7oyG4",1150799561503453186
@kalousekm,@kalousekm @KredaRadek @jhamacek @PolicieCZ To těžko. Jedině snad že by jeho prarodiči narukovali do Wehrmachtu.,"@KredaRadek @jhamacek @PolicieCZ Klid, pane. Vaši prarodiče byli svými vládami povoláni do války. Vy jste teď povol… https://t.co/ValXcQjQcY",1150799561503453186
@kalousekm,@kalousekm @adamvojtechano Miloš Popelník převčírem udělil dvě milosti... Trénuje...,"Kdybych byl na místě @adamvojtechano, tak kromě roušek a respirátorů si také sháním dobrého právníka. Na to, čeho s… https://t.co/Us7Djw9z3y",1150799561503453186
@alenaschillerov,@alenaschillerov @PragueAirport A kde jsou rozestupy?,"Na @PragueAirport právě roluje čínské letadlo se zásilkou 1,1 milionu respirátorů. Ty okamžitě zamíří k těm nejpotř… https://t.co/vM3odMHpEk",1150799561503453186
@AndrejBabis,"@AndrejBabis No a co hodláš dělat, pokud současná opatření nezaberou? Už moc možností není.","Po Messengeru tady teď lítá klasická fake news, která bohužel už dost lidí vystrašila 🙈🙄 Audiozpráva, ve které říká… https://t.co/d3eMNmjg0U",1150799561503453186
@adamvojtechano,"@adamvojtechano ""Za včerejšek ale také stoupl počet vyléčených na 6.""   Mlčeti zlato troubo.",Stav k dnešnímu ránu. Počet pozitivních pacientů vzrostl na 1 047 nakažených. Za včerejšek ale také stoupl počet vy… https://t.co/1geSR5moAD,1150799561503453186
@adamvojtechano,@adamvojtechano Důvod proč se zákaz netýká zrovna květinářství je konkrétně jakej? Splachovadlo k hajzlu si koupit… https://t.co/FwKn9UvcFw,"Současná epidemiologická situace vyžaduje, abychom nadále nechali zavřené obchody, omezený volný pohyb a také omeze… https://t.co/QRXYfRgCAi",1150799561503453186
@AndrejBabis,"@AndrejBabis Jo, když už seš tady: Státní vlajka
§ 7 (6) Ostatní fyzické a právnické osoby a organizační složky stá… https://t.co/U1tVlVI31G","Po Messengeru tady teď lítá klasická fake news, která bohužel už dost lidí vystrašila 🙈🙄 Audiozpráva, ve které říká… https://t.co/d3eMNmjg0U",1150799561503453186
@adamvojtechano,@adamvojtechano @AndrejBabis Doopravdy se kretén.,Právě mi volali z Nemocnice Na Bulovce. Máme dalšího vyléčeného pacienta! Celkem se vyléčilo už 6 osob.,1150799561503453186
@adamvojtechano,@adamvojtechano Ty si ještě nepodal demisi hajzlíku?,Právě mi volali z Nemocnice Na Bulovce. Máme dalšího vyléčeného pacienta! Celkem se vyléčilo už 6 osob.,1150799561503453186
@adamvojtechano,@adamvojtechano @AndrejBabis Gratuluju.,Nová čísla k 18 hodině. Hygienici za dnešek nahlásili 122 nových případů. Celkem je v ČR 694 potvrzených pacientů s koronavirem.,1150799561503453186
@AndrejBabis,@AndrejBabis Pro za naše peníze nakupuješ v Číně to co nepotřebujeme? A ještě jim u toho lezeš do zadku.,Otázka dne pro Romana Prymulu. Mají dorazit miliony roušek a respirátorů. Komu je stát chce rozdat? Zbyde i na obyč… https://t.co/1cxmW3Lw9e,1150799561503453186
@adamvojtechano,@adamvojtechano Seš skvělej ministr zdravotnictví... Aprííííl.,"Současná epidemiologická situace vyžaduje, abychom nadále nechali zavřené obchody, omezený volný pohyb a také omeze… https://t.co/QRXYfRgCAi",1150799561503453186
@adamvojtechano,"@adamvojtechano @AndrejBabis ""Policie bude v pátek sledovat, zda lidé dodržují omezení cest, řekl Hamáček v souvisl… https://t.co/peDojzeINE","Situace, ve které jsme se kvůli koronaviru ocitli, je pro nás úplně nová. Natočili jsme pro vás proto video🎥, jak s… https://t.co/uSx6TKMH2y",1150799561503453186
@adamvojtechano,"@adamvojtechano Jdi už do hajzlu smrade ulhanej. Když nesmíme vědět kolik je nakažených v jednotlivých městech, jak… https://t.co/JTuIqPTPPD",Aktuálně ke koronaviru. Počet nakažených stoupl na 904. Stále platí 4 vyléčení. Za včerejší den jsme vyšetřili 2 08… https://t.co/a1BH7Siwbl,1150799561503453186
@kalousekm,@kalousekm @kritzlerova Bohužel pevný příjem mají jen státní zaměstnanci. Navíc předplatit si služby třeba kadeřnic… https://t.co/7hHTJpgaWh,"Paní @kritzlerova má dobrý nápad, který si dovoluji zveřejnit: Máte pevný příjem a máte svoji kadeřnici, mechanika,… https://t.co/eLXwcIWt37",1150799561503453186
@AndrejBabis,@AndrejBabis @MPKretschmer O ně máš strach? A o nás ne???? Vždyť sem ten vir zanáší...Jestli chtějí pracovat v Něme… https://t.co/0AuJNobH6c,"Mluvil jsem se saským premiérem @MPKretschmer o tom, jak si můžeme vzájemně pomoci. Jsme solidární a zatím nechávám… https://t.co/J1NDUd4x2d",1150799561503453186
@alenaschillerov,@alenaschillerov @AndrejBabis @PragueAirport Vy jste horší než Biľak. Ten na letiště jezdil vítat jen jiné soudruhy… https://t.co/Ij66288C6M,"Na @PragueAirport právě roluje čínské letadlo se zásilkou 1,1 milionu respirátorů. Ty okamžitě zamíří k těm nejpotř… https://t.co/vM3odMHpEk",1150799561503453186
@kalousekm,@kalousekm Je to kampaň... Kdě stě slyšel že je Agrofert bohatý? Má půjčené dlouhé peníze. Sám jsem mu je půjčil. A… https://t.co/ixvFg8sZFR,"Po šesti tučných letech kapitalizace zisků přichází doba socializace ztrát. Ideologii stranou. Ač duší pravičák, vů… https://t.co/Ans2dmNKLX",1150799561503453186
@adamvojtechano,"@adamvojtechano Tak hele ty zmetku. Když něco nevíš, tak řekni že nevíš. A nehraj si na chytrýho. Národu si vykláda… https://t.co/IriW8EwwKF","Stále slyšíme kritiku, že málo testujeme na koronavirus. Tak jsme se koukli za hranice. A ČR testuje více než Švýca… https://t.co/AdlQ18LmgB",1150799561503453186
@kalousekm,@kalousekm @adamvojtechano Ministr zdravotnictví je právník... jo moment. Vy jste psal dobrého.,"Kdybych byl na místě @adamvojtechano, tak kromě roušek a respirátorů si také sháním dobrého právníka. Na to, čeho s… https://t.co/Us7Djw9z3y",1150799561503453186
@alenaschillerov,"@alenaschillerov A taky je realita, že ministr zdravotnictví a předseda vlády tvrdili, že ochranných pomůcek je dos… https://t.co/8Kg4EppOCI",Především pracovníkům v první linii patří omluva za nedostatek ochranných pomůcek. Bohužel je to realita většiny po… https://t.co/Lxj9USI7KD,1150799561503453186
@adamvojtechano,"@adamvojtechano Stačil by zákaz nákupu v tamním konzumu. Hospody, zábavy a pod. stejně nefungujou, takže v podstatě… https://t.co/1OX7xj9H48","Je tady první víkend v režimu usnesení vlády o zákazu volného pohybu osob. Chtěl bych všechny občany požádat, aby n… https://t.co/pFZSYq3HpE",1150799561503453186
@kalousekm,@kalousekm @JaroslavFalynek @adamvojtechano @alenaschillerov Vyprdně se na ně. Ať si v tom tu hubu vymáchají.,"@JaroslavFalynek @adamvojtechano @alenaschillerov Napadlo mě, že bych měl cítit pocit zadostiučinění, za všechny ty… https://t.co/3X6qIQKvfJ",1150799561503453186
@adamvojtechano,@adamvojtechano Tohle doopravdy není normální.,"I když každý den sledujeme nárůst pozitivních případů, postupně se objevují i dobré zprávy. Vyléčil se čtvrtý pacie… https://t.co/LXC5twix9L",1150799561503453186
@adamvojtechano,@adamvojtechano Je von ti někdo nakecal že 1000% lidí na to umře. A teď čtyři vyléčené bereš jako zázrak.,"I když každý den sledujeme nárůst pozitivních případů, postupně se objevují i dobré zprávy. Vyléčil se čtvrtý pacie… https://t.co/LXC5twix9L",1150799561503453186
@AndrejBabis,@AndrejBabis Tak to si národ uklidnil. Asi jako Tonda Zápotocký ve třiapadesátém....,"Po Messengeru tady teď lítá klasická fake news, která bohužel už dost lidí vystrašila 🙈🙄 Audiozpráva, ve které říká… https://t.co/d3eMNmjg0U",1150799561503453186
@kalousekm,@kalousekm @IvanaLinhartov2 Hlavně nikdo neví jak dlouho to bude trvat. Takže cokoliv odhadovat je dost komplikovan… https://t.co/AITgH18u5n,@IvanaLinhartov2 Já nych jim taky rád věřil. Ony totiž možná budou horší.,1150799561503453186
@adamvojtechano,"@adamvojtechano @ZdravkoOnline Fakt fraška. Chlebíčky, kafíčko.... To jako žerete a pijete přes roušky a respirátory?","Epidemiologové, hygienici, statistici, zástupci ministerstev i WHO. To je Ústřední epidemiologická komise. Velmi dů… https://t.co/qz8yw99xQa",1150799561503453186
@kalousekm,@kalousekm Kvůli propadu příjmu to může být klidně 200.000.000.,Nad sto miliard to bude jenom kvůli propadu příjmů. Budeme-li chtít zvýšit výdaje (a to budeme muset(lidi v tom nec… https://t.co/pRtB5ynyzY,1150799561503453186
@adamvojtechano,@adamvojtechano Dalších 150 se nakazilo a jeden vyléčil... A ministr chrochtá blahem jak teenka když... no nic.,"I když každý den sledujeme nárůst pozitivních případů, postupně se objevují i dobré zprávy. Vyléčil se čtvrtý pacie… https://t.co/LXC5twix9L",1150799561503453186
@alenaschillerov,"@alenaschillerov Mohla byste vyřídit tomu slovenskými psychopatovi, že to co má na držce a do čeho prská, je naše v… https://t.co/gra2e9Vz3O",Především pracovníkům v první linii patří omluva za nedostatek ochranných pomůcek. Bohužel je to realita většiny po… https://t.co/Lxj9USI7KD,1150799561503453186
@kalousekm,@kalousekm Neměli ho vůbec budit. Dalo se čekat že bude žvanit kraviny.,"Prezident: “Podporujte opatření vlády.”
Vláda: “Zakazujeme návštěvy v nemocnicích a domovech pro seniory.”
Preziden… https://t.co/C8kLuRiPR5",1150799561503453186
@kalousekm,@kalousekm @AndrejBabis Budete mít prima společnici..... https://t.co/sojBo7PtoA,"No vida. Konečně jsme se s @AndrejBabis na něčem shodli. Škoda jen, že si to budeme muset celé půjčit a skokově tak… https://t.co/B0dAGn4KFE",1150799561503453186
@AndrejBabis,@AndrejBabis A co Pičín? Ten je na tom jak?,"Otázka dne pro Romana Prymulu. Byla uzavřena první města. Za jakých podmínek by se uzavřela další? A hrozí, že se u… https://t.co/i8rIOuzeKy",1150799561503453186
@kalousekm,"@kalousekm @ArchaVt Problém je, že před sto lety byla ""Španělská chřipka"". Která ale nepocházela ze Španělska, jak… https://t.co/FpIa6YaS2x",Pojďme všichni té potvoře přestat říkat COVID-19 a pojďme jí nazývat pravdivě a srozumitelně “Čínská chřipka”. Bylo… https://t.co/HIQY5Ps4m5,1150799561503453186
@alenaschillerov,"@alenaschillerov @infoegap Já bych čekal, že nastíníte co bude dál... Armáda právníků teď má připravovat nové zákon… https://t.co/PAMWHtHBR0",Také EGAP pomáhá našim podnikatelům a exportérům se zvládáním následků koronavirové krize. @infoegap snížil poplatk… https://t.co/uyjIzbwjfo,1150799561503453186
@AndrejBabis,@AndrejBabis A co na to říkají lidé třeba v Litovli?,"Po Messengeru tady teď lítá klasická fake news, která bohužel už dost lidí vystrašila 🙈🙄 Audiozpráva, ve které říká… https://t.co/d3eMNmjg0U",1150799561503453186
@kalousekm,@kalousekm @kritzlerova Pak může nastat další problém. Kadeřnice dlouhodobě onemocní.... A bude muset peníze vracet....,"Paní @kritzlerova má dobrý nápad, který si dovoluji zveřejnit: Máte pevný příjem a máte svoji kadeřnici, mechanika,… https://t.co/eLXwcIWt37",1150799561503453186
@AndrejBabis,"@AndrejBabis Otázka dne pro Andreje Babiše... Hele šmudlo, co říkáš na včerejší ""projev"" starýho Násosky z lánského vejminku ?","Otázka dne pro Romana Prymulu. Byla uzavřena první města. Za jakých podmínek by se uzavřela další? A hrozí, že se u… https://t.co/i8rIOuzeKy",1150799561503453186
@kalousekm,@kalousekm @JaroslavFalynek @adamvojtechano @alenaschillerov To by nebylo nic novýho. Už si jí mácháme šest let. Te… https://t.co/evfZRQEI1A,"@KlaudaRadoslav @JaroslavFalynek @adamvojtechano @alenaschillerov No jo, ale my s nimi...",1150799561503453186
@adamvojtechano,@adamvojtechano Hlavně že se čtyři vyléčili...,Počet nakažených onemocněním Covid-19 od rána vzrostl o 68. V tuto chvíli je tedy 833 pozitivních pacientů. Aktuáln… https://t.co/kDA0SvDdwD,1150799561503453186
@adamvojtechano,"@adamvojtechano To podle krajů si strč hádej kam.... Třeba středočeský kraj je co? Kolín, Kladno, Beroun, Benešov,… https://t.co/6MIyEx9YdM",Počet nakažených onemocněním Covid-19 od rána vzrostl o 68. V tuto chvíli je tedy 833 pozitivních pacientů. Aktuáln… https://t.co/kDA0SvDdwD,1150799561503453186
@adamvojtechano,@adamvojtechano @AndrejBabis @ZdravkoOnline A tebe tam pozvali proč?,"Epidemiologové, hygienici, statistici, zástupci ministerstev i WHO. To je Ústřední epidemiologická komise. Velmi dů… https://t.co/qz8yw99xQa",1150799561503453186
@adamvojtechano,"@adamvojtechano ""Nyní je skutečně naprosto klíčové, aby se lidé potkávali co nejméně.""  Říká šulin, kterej společně… https://t.co/gjz7JPcwoW","Současná epidemiologická situace vyžaduje, abychom nadále nechali zavřené obchody, omezený volný pohyb a také omeze… https://t.co/QRXYfRgCAi",1150799561503453186
@AndrejBabis,"@AndrejBabis Chřipka je v Česku vážnější problém než koronavirus, říká ministr Vojtěch.","Nic takového nikdy nebylo na stole. Dneska jsme už popřeli karanténu Prahy, a teď popíráme i tuto šílenou fake news… https://t.co/A1K0xAg7JV",1150799561503453186
@kalousekm,@kalousekm @luboszalom @kritzlerova No vás ne. Poslanci mít EET nemusí. A koalice ANO - ČSSD - KSČM si tak maximáln… https://t.co/CJyjOIGfvF,@luboszalom @kritzlerova To by mě teď netrápilo...,1150799561503453186
@AndrejBabis,"@AndrejBabis Jak je to dlouho co si plácal, že veřejnost roušky nepotřebuje...","Jsem opravdu překvapen, že v Německu není povinnost nosit roušky, a dokonce je stále možné, aby se lidé potkávali n… https://t.co/4ojt0kq0Jp",1150799561503453186
@kalousekm,"@kalousekm Cílem je, aby po vzoru socialismu mělo vše jen jednoho vlastníka.Jen by jím nebyl stát, ale Babiš.Psycho… https://t.co/2Ul0x27CiV","Tohle je čistá lež, odkazuji na svoji argumentaci ve sněmovně. Zálohy se stanovují až v rámci kontrolní činnosti, k… https://t.co/xeDgl7oyG4",1150799561503453186
@kalousekm,@kalousekm @JaroslavFalynek @adamvojtechano @alenaschillerov On je problém trochu jinde. Tak jako Marek Prchal devě… https://t.co/uvBxZMM6pD,"@JaroslavFalynek @adamvojtechano @alenaschillerov Napadlo mě, že bych měl cítit pocit zadostiučinění, za všechny ty… https://t.co/3X6qIQKvfJ",1150799561503453186
@AndrejBabis,"@AndrejBabis @Markus_Soeder Nejlepší by bylo,kdyby už si šel konečně do hajzlu.Tohle mělo přijít na řadu hned. Je l… https://t.co/eEcXFgS2gh",Mluvil jsem s bavorským premiérem @Markus_Soeder. Bavorsko zavedlo přísná opatření po vzoru České republiky. Skvělé… https://t.co/0SgkHSM658,1150799561503453186
@AndrejBabis,@AndrejBabis Já četl o pendrekách.... Ani by mě to nepřekvapilo...  Seber jim auta. Tim jim omezíš pohyb. Pak jim j… https://t.co/PxOlBis8CN,"Vláda bude zítra diskutovat o pendlerech, kteří jezdí za prací. Jejich pohyb omezíme, otázka je jen jak.",1150799561503453186
@AndrejBabis,"@AndrejBabis „Ano, musíme počítat s tím, že se u nás může objevit importovaný případ koronaviru, riziko rozšíření e… https://t.co/y19miQqLwI","Po Messengeru tady teď lítá klasická fake news, která bohužel už dost lidí vystrašila 🙈🙄 Audiozpráva, ve které říká… https://t.co/d3eMNmjg0U",1150799561503453186
@AndrejBabis,"@AndrejBabis „Nemáme podmínky k tomu, aby se tady virus udržel, aby vzniklo sekundární ohnisko jako v Číně. Mnohem… https://t.co/727nlNeqic","Po Messengeru tady teď lítá klasická fake news, která bohužel už dost lidí vystrašila 🙈🙄 Audiozpráva, ve které říká… https://t.co/d3eMNmjg0U",1150799561503453186
@adamvojtechano,@adamvojtechano Já jsem čůral na dlaždičky. Franta počůral zeď a Pepa pochcal školníka....,"Stále slyšíme kritiku, že málo testujeme na koronavirus. Tak jsme se koukli za hranice. A ČR testuje více než Švýca… https://t.co/AdlQ18LmgB",1150799561503453186
@adamvojtechano,@adamvojtechano @PREZIDENTmluvci To je docela odvaha soustředit rizikovou skupinu do jednoho časoprostoru.. Bude ta… https://t.co/okhjFuNNIJ,Pár novinek po dnešní vládě. Rozhodli jsme ve všech nemocnicích vyčlenit speciální lůžka pro pacienty s nákazou kor… https://t.co/mVxJMHJEcm,1150799561503453186
@AndrejBabis,@AndrejBabis Takhle můžete žvanit pokaždý. Není potřeba někam lítat.,Začínáme. Videokonference prezidentů a premiérů zemí EU. Měli bychom se domluvit na společných opatřeních proti šíř… https://t.co/nEIzXGGUIQ,1150799561503453186
@adamvojtechano,"@adamvojtechano No sláva. Už jsem se lekl, že dneska ""Žili byli"" nebude.",Aktuální čísla ke koronaviru. Celkem jsme již vyšetřili 1816 osob. K dnešnímu ránu stále platí 94 pozitivních pacientů.,1150799561503453186
@AndrejBabis,@AndrejBabis To se mi ulevilo. Zrovna jsem chtěl jet na Staromák do Apple Store pro ajfoun.,"A další nepravdivá informace, kterou někdo šíří, je, že má být zítra vyhlášena karanténa Prahy. Není to pravda.",1150799561503453186
@alenaschillerov,@alenaschillerov @AndrejBabis No a co jako?,"Teplota byla změřena 9 615 lidem, z nichž 6 případů bylo identifikováno jako rizikových a byly dále řešeny ve spolu… https://t.co/fG0MaFWYdb",1150799561503453186
@adamvojtechano,@adamvojtechano Nebuďte slušnej a řekněte to jméno!,"Druhým potvrzeným je muž ročník 1966, Ústecký kraj, návrat z lyží ze Sextenu v Itálii. Celkem jsme za celou republi… https://t.co/sham0QiInl",1150799561503453186
@adamvojtechano,@adamvojtechano To hlášení krajů je konkrétně dobré k čemu???? Ti nakažený nejsou z nějakého města? Třeba Čunek inf… https://t.co/DICtGCbqBa,"Druhým potvrzeným je muž ročník 1966, Ústecký kraj, návrat z lyží ze Sextenu v Itálii. Celkem jsme za celou republi… https://t.co/sham0QiInl",1150799561503453186
@AndrejBabis,"@AndrejBabis Copak soudruhu? Ten taxikář ti nedá spát, viď? To je megaprůser.",Svolal jsem mimořádné zasedání Bezpečnostní rady státu. Přijmeme další opatření v boji proti koronaviru v ČR. V 8h krátká tiskovka.,1150799561503453186
@adamvojtechano,"@adamvojtechano To už víme. I to, že ministr zdravotnictví stojí úplně za hovno. Ráno bylo opravdu dobré, ale to od… https://t.co/bCiG73fTa5",Aktuálně z Národní referenční laboratoře. Testy potvrdily 3 pozitivní výsledky na koronavirus. 2 vyšly u rodinných… https://t.co/PQfcXgxFSx,1150799561503453186
@adamvojtechano,@adamvojtechano https://t.co/zBfQdKZNpC,Pár novinek k opatřením. Před vstupem do nemocnic bude umístěna cedule s telefonním číslem. Na to budou volat lidé… https://t.co/3sytmDEE39,1150799561503453186
@adamvojtechano,"@adamvojtechano Jedno je jisté.  Do té vlády ""odborníků"" se doopravdy hodíte.","Dovolím si uvést informaci pana primátora na pravou míru. Žena, která se v sobotu vrátila z Itálie, se nechala otes… https://t.co/1WYX4J9cJo",1150799561503453186
@kalousekm,"@kalousekm Schillerová šla na ples celníků.... Účes na tu akci si nechala udělal v Sapě, kde si pochvalovala poctiv… https://t.co/2XPDsM9QLQ","Nejhorší únorový deficit od r.1993..A to není krize, zatím je to jen výsledek neodpovědné rozp.politiky. Až se prom… https://t.co/0CqGtni69e",1150799561503453186
@adamvojtechano,"@adamvojtechano Tak důležitý je, že vy jste spokojenej.",Dobré ráno. A to doslova! Přišly čerstvé výsledky z laboratoří a všechny nové testy jsou negativní. Celkem jsme dop… https://t.co/2p46SfeNr1,1150799561503453186
@alenaschillerov,@alenaschillerov Může bezplatně požádat... Že vám to není trapné.,"V případě, že bude poplatník negativně zasažen koronavirem, může bezplatně požádat o posečkání či o splátkování dan… https://t.co/UdI7dB1PTQ",1150799561503453186
@adamvojtechano,@adamvojtechano Ujistil si je? Tak to jsou hned klidnější....,"Sešel jsem se se zástupci všech poskytovatelů zdravotní péče. Řešili jsme ochranné pomůcky. Ujistil jsem je, že int… https://t.co/B5LJhjDXbJ",1150799561503453186
@AndrejBabis,@AndrejBabis Ty seš doopravdy neskutečnej hajzl. https://t.co/7A9DnPHVkB,"Znovu mluvím přes video se všemi lídry EU, VŠICHNI řeší kritickou situaci a VŠEM chybí roušky, respirátory a ventil… https://t.co/a9Xw48F7EI",1150799561503453186
@adamvojtechano,@adamvojtechano @AndrejBabis Jo teď jsem si to dočetl. To je tvůj návrh...Nechtěl by ses na to konečně vyprdnout?,"Na vládě jsme dnes rozhodli posílit ochranu seniorů, kteří jsou v souvislosti s koronavirem nejvíce rizikovou skupi… https://t.co/860NiRsWyB",1150799561503453186
@adamvojtechano,"@adamvojtechano @AndrejBabis Vláda blbů. Zítra začíná akce v Penny, v Lidlu.... to si vážně myslíš, že budou důchod… https://t.co/DemJdKq7aH","Na vládě jsme dnes rozhodli posílit ochranu seniorů, kteří jsou v souvislosti s koronavirem nejvíce rizikovou skupi… https://t.co/860NiRsWyB",1150799561503453186
@AndrejBabis,@AndrejBabis Největší je Agrofert....,"A vyzýváme i další velké firmy, aby se zapojily.",1150799561503453186
@adamvojtechano,@adamvojtechano @AndrejBabis V čem je problém? Je jen jeden vrtulník? Proč to nerozvážela auta po celé ČR od dvou h… https://t.co/0CoTwhqPT7,"Připravujeme k distribuci další rychlotesty na koronavirus. Na Moravu už dorazily, teď zamíří do nemocnic v Čechách. https://t.co/qfwOYA6W5r",1150799561503453186
@alenaschillerov,"@alenaschillerov Platební styk je automatický, zajišťují ho počítače... Nevím o tom že by koronavirus napadal i je,… https://t.co/MsUf7MY1aF","Dovolte mi ujistit všechny občany i podnikatele, že platební styk funguje bez omezení. Hotovosti je k dispozici opr… https://t.co/MiuJ4FEgs1",1150799561503453186
@adamvojtechano,"@adamvojtechano @AndrejBabis Škoda jen, že předseda vlády a ministr zdravotnictví stojí za hovno.","Za poslední týden projevilo mnoho lidí a firem nesmírnou solidaritu a nabídlo pomoc. S info servisem, dopravou pomů… https://t.co/4VXn1rleVj",1150799561503453186
@adamvojtechano,"@adamvojtechano @kalousekm @strakovka @ZdravkoOnline Kene, nebo Máro, ty máš vážně dost...","@kalousekm @strakovka @ZdravkoOnline Naprosto nerozumím této Vaší poznámce. Na ministerstvu se vytvořil tým lidí, k… https://t.co/BkaDHspWXf",1150799561503453186
@adamvojtechano,@adamvojtechano Tak aspoň že těch vyléčených neubylo. To je velmi pozitivní.,Nová čísla ke koronaviru. V ČR je v tuto chvíli 572 pozitivních pacientů. Stále platí 3 vyléčení. Za včerejšek jsme… https://t.co/b0p0GGBos9,1150799561503453186
@AndrejBabis,"@AndrejBabis Tak tyhle vlašťovky si pouštěj na ředitelských poradách, ale tady si musíme přiznat, že jsme zatím pořádně v hajzlu.",V České republice máme první tři pacienty vyléčené z nákazy koronavirem! Všichni tři v nemocnici v Ústí nad Labem.… https://t.co/4s4qwRsxNb,1150799561503453186
@alenaschillerov,@alenaschillerov Tak ať na FÚ pohnou zadkem. 30 dní je dostatečná doba.,"Právě na tento bod vládní novely mířila hlavní kritika senátorů. Ti však i přesto trvají na tom, aby se lhůta pro v… https://t.co/mAgaakPyXn",1150799561503453186
@adamvojtechano,@adamvojtechano Tak hlavně jestli je dost živočišného uhlí. Z téhle vlády by se jeden pos.... Tedy víc než jeden.,Vláda dnes odsouhlasila můj návrh zakázat vývoz léčiv za hranice ČR. Bude platit po dobu trvání nouzového stavu. V… https://t.co/WUYI5iTH1l,1150799561503453186
@adamvojtechano,@adamvojtechano A jak to vypadá s tou paní doktorkou s neregistrovanou laboratoří matlo?,Dočasně povolujeme používání neregistrovaného léčivého přípravku Remdesivir. Bude u nás k dispozici pro pacienty ve… https://t.co/UKh6CaPt1N,1150799561503453186
@adamvojtechano,@adamvojtechano @AndrejBabis @ZdravkoOnline @MinFinCZ @Celnisprava Tak na zdraví...,"Představujeme vám dezinfekční prostředek Anti-COVID. Vlastní výroba @ZdravkoOnline, za podpory @MinFinCZ a… https://t.co/OEpSPKDhtj",1150799561503453186
@AndrejBabis,@AndrejBabis Hele neměl bys tam nějakou fotku bez tý debilní čepice?,V České republice máme první tři pacienty vyléčené z nákazy koronavirem! Všichni tři v nemocnici v Ústí nad Labem.… https://t.co/4s4qwRsxNb,1150799561503453186
@alenaschillerov,"@alenaschillerov Jednou jste řekla, že problémy řešíte až když vzniknout. Teď problém vznikl a vy absolutně nevíte… https://t.co/Jf62hCsbA6","Tyto desítky miliard pomohou zachovat vysokou zaměstnanost a jistotu příjmů, které výrazně usnadní rychlou obnovu f… https://t.co/Ya6uBU6WJ0",1150799561503453186
@alenaschillerov,"@alenaschillerov Vy jste jak Dolfík, který na mapách šiboval neexistujícími armádami.","Česká ekonomika je silná, stav našich veřejných financí dobrý, bankovní sektor je mimořádně zdravý, rozpočty samosp… https://t.co/5GDAnrLtX9",1150799561503453186
@adamvojtechano,@adamvojtechano Kdyby si zase zatoužil přivítat nějaké letadlo..... https://t.co/Z8dA9VDqia,"Mám čerstvá data ke koronaviru. K dnešnímu ránu je 464 pozitivních pacientů, to je v porovnání se včerejšími ranním… https://t.co/QP6SQTtoLw",1150799561503453186
@alenaschillerov,@alenaschillerov Do desítek miliard? To nemůžete myslet vážně.,"Je to nutné. Škody pro ekonomiku půjdou do desítek miliard. Jsou to prostředky, o které přijde stát na daních a kte… https://t.co/BSYjQeEAqz",1150799561503453186
@adamvojtechano,@adamvojtechano https://t.co/ZVmL8Z2fcY,Dalších 50 000 rychlotestů na koronavirus je na cestě. Právě teď vyjelo poslední auto Správy státních hmotných reze… https://t.co/nXugGXeGUK,1150799561503453186
@adamvojtechano,"@adamvojtechano To letadlo přistálo ve dvě ráno... Je skoro 9:30... Cesta autem z Prahy do Ostravy trvá 3,5 hodiny...",Všechno klaplo. Vrtulník s 19 000 rychlotesty na koronavirus pro 6 moravských nemocnic právě odlétá. https://t.co/riiKdo5K59,1150799561503453186
@alenaschillerov,"@alenaschillerov Super. Tak mi přineste milion. Nebojte, respirátor mám (heč)","Dovolte mi ujistit všechny občany i podnikatele, že platební styk funguje bez omezení. Hotovosti je k dispozici opr… https://t.co/MiuJ4FEgs1",1150799561503453186
@alenaschillerov,"@alenaschillerov Česká ekonomika stojí na hliněných nohách. Tahounem jsou automobilky... Kdo si myslíte, že teď bude kupovat auta?","Česká ekonomika je silná, stav našich veřejných financí dobrý, bankovní sektor je mimořádně zdravý, rozpočty samosp… https://t.co/5GDAnrLtX9",1150799561503453186
@adamvojtechano,@adamvojtechano @PolicieCZ Případ jsme ohlásili... Kdo je to my? Nemáš na mysli náhodou ministra Hamáčka?,"Jak je situace na trhu s ochrannými pomůckami složitá, ukazuje tento případ. Během nákupu respirátorů jsme narazili… https://t.co/kDlrrvUN7W",1150799561503453186
@adamvojtechano,@adamvojtechano @ZdravkoOnline Jdi už s těma kecama do hajzlu... https://t.co/CZwROxik5m,Představuji vám náš obchodní tým @ZdravkoOnline. 24 hodin denně sledují trh a nakupují všechny dostupné respirátory… https://t.co/YEnvnBlo5C,1150799561503453186
@AndrejBabis,@AndrejBabis Já myslel že odletěl už v noci na dnešek... Co ho tak zdrželo?,"Vláda ČR vysílá do Šen-čenu airbus vládní letky, který doveze 100.000 rychlotestů. Odlet pondělí v 5:00, návrat středa v 0:40.",1150799561503453186
@adamvojtechano,@adamvojtechano My jsme stát troubo. To jen paraziti z ANO mají pocit že musí vést proti soukromému sektoru vést svatou válku.,"Dva světy, státní a soukromý, spojily síly proti koronaviru a vznikla iniciativa https://t.co/yWp0pKOKC3. Tahle par… https://t.co/yZ1NINalfH",1150799561503453186
@adamvojtechano,@adamvojtechano To jde? A kterej z vás je máma?,Jsme v tom spolu. A spolu to zvládneme. Díky Radku! https://t.co/42VusejM89,1150799561503453186
@alenaschillerov,@alenaschillerov @AndrejBabis Spořitelna je banka....,"Občané tedy mohou v bance, ve spořitelně či na poště vyřídit své nezbytné záležitosti. Zkontrolujte si ale nejdříve… https://t.co/89nY4UDwzw",1150799561503453186
@alenaschillerov,@alenaschillerov Tak hejběte na FÚ zadkem. 30 dví je až až.,"Právě na tento bod vládní novely mířila hlavní kritika senátorů. Ti však i přesto trvají na tom, aby se lhůta pro v… https://t.co/mAgaakPyXn",1150799561503453186
@adamvojtechano,@adamvojtechano @AndrejBabis Tak hlavně aby nebyly někde na polní cestě. Nevnímáš vůbec nic.,"Další roušky a respirátory jsou na cestě. Vnímám vaše reakce, a vím, že to jde pomaleji, než bychom si představoval… https://t.co/gYcHnY7uG8",1150799561503453186
@adamvojtechano,@adamvojtechano @AndrejBabis Jestli by nebylo lepší jít pro ty roušky do Sapy. Vietnamci jsou schopní je do druhého… https://t.co/llFoA66hOO,"Další roušky a respirátory jsou na cestě. Vnímám vaše reakce, a vím, že to jde pomaleji, než bychom si představoval… https://t.co/gYcHnY7uG8",1150799561503453186
@adamvojtechano,@adamvojtechano @AndrejBabis A s tím se chlubíš ubožáku?,Právě jsme zajistili 82 000 roušek pro sociální služby. Nejpozději zítra začne jejich distribuce do terénu. Roušky… https://t.co/aKgZyomjtV,1150799561503453186
@adamvojtechano,"@adamvojtechano @metnarl @jhamacek Doufám, že je to naposled kdy takhle z blízka vidíš vládní letadlo... Podáš demi… https://t.co/JYQd81QdRP","Letiště Kbely, 2:00h. Dorazila důležitá zásilka. 150 000 ks rychlotestů. Společně s @metnarl a @jhamacek jsme u hoh… https://t.co/wzpmbrsjeG",1150799561503453186
@adamvojtechano,"@adamvojtechano Adam Vojtěch Mar 2
""Čerstvé výsledky. Všechny nové vzorky jsou negativní, vyšetřeno bylo 211 osob.… https://t.co/SEmFfuZCwD",Je potřeba omezit mezilidský kontakt. To je klíčová prevence před koronavirem. Vláda dnes vyhlásila omezení pohybu… https://t.co/sAjD5k5B6q,1150799561503453186
@adamvojtechano,"@adamvojtechano Adam Vojtěch Feb 25
Na jednání Bezpečnostní rady státu jsme řesili aktuální situaci kolem koronavir… https://t.co/TZbbSEFB7P",Je potřeba omezit mezilidský kontakt. To je klíčová prevence před koronavirem. Vláda dnes vyhlásila omezení pohybu… https://t.co/sAjD5k5B6q,1150799561503453186
@alenaschillerov,@alenaschillerov @AndrejBabis @financnisprava To zrovna. Já tam zavolám a do dvou let mi přijde platební výměr 2.00… https://t.co/LPVAfyZZM6,"Jsou tady pro vás. A poradí vám, co dělat. @financnisprava spustila ve všech krajích mimořádné infolinky, aby vám z… https://t.co/iaFYtmn6rO",1150799561503453186
@adamvojtechano,"@adamvojtechano @ZdravkoOnline Je nepochopitelné, že člověk s tolika tituly může bejt tak neuvěřitelně natvrdlej...… https://t.co/zqcjz19Xke","Žádní detektivové, ale naši skvělí kolegové z týmu nákupů na @ZdravkoOnline odhalili tuhle spekulaci. Zaslouží si můj velký dík.👍",1150799561503453186
@adamvojtechano,@adamvojtechano A už ta paní doktorka může testovat skladníku?,Do meziskladu Správy státních hmotných rezerv dorazil 1 milion zdravotnických rukavic. Teď aktivně pracujeme na jej… https://t.co/NXckC3zNPP,1150799561503453186
@AndrejBabis,@AndrejBabis @alenaschillerov Koronavirus neřeš. Ten stejně nevyřešíš. Řeš roušky a respirátory.,"Oznamuju novinářům, že řeším jen koronavirus, stovky dotazů od občanů, firem a institucí. Ohledně vašich dotazů k p… https://t.co/w6190Y32MP",1150799561503453186
@AndrejBabis,@AndrejBabis Doufám že dostanou nějaký pěkný dárek... https://t.co/MACHvI8xue,V České republice máme první tři pacienty vyléčené z nákazy koronavirem! Všichni tři v nemocnici v Ústí nad Labem.… https://t.co/4s4qwRsxNb,1150799561503453186
@adamvojtechano,"@adamvojtechano @alenaschillerov To je teda Alenka moc hodná.... Celá země v karanténě, obrovskej průser a ona dala… https://t.co/eZ3LQApNij",Vláda schválila finanční podporu hygienických stanic. Hygienici dohledavají kontakty a jsou maximálně vytížení. Zas… https://t.co/eKE9XL1uvw,1150799561503453186
@adamvojtechano,@adamvojtechano Jenže on už ti ten vlak dávno ujel.,Je potřeba omezit mezilidský kontakt. To je klíčová prevence před koronavirem. Vláda dnes vyhlásila omezení pohybu… https://t.co/sAjD5k5B6q,1150799561503453186
@AndrejBabis,@AndrejBabis Tak doufám že pojedeš na  letiště a necháš se tam vyfotit... Makáme...,"Znovu mluvím přes video se všemi lídry EU, VŠICHNI řeší kritickou situaci a VŠEM chybí roušky, respirátory a ventil… https://t.co/a9Xw48F7EI",1150799561503453186
@adamvojtechano,"@adamvojtechano Podívej se na svojí výplatní pásku. Ta krásná sumička, to je odpovědnost. Tak se podle toho chovej… https://t.co/EKRa6xsK2l",Jsme v tom spolu. A spolu to zvládneme. Díky Radku! https://t.co/42VusejM89,1150799561503453186
@adamvojtechano,"@adamvojtechano Já bych se raději dozvěděl, kolik je nových případů od 00:00 do 24:00.... V tomhle mrdníku, kdy se… https://t.co/L82ZUdV41m",Aktuálně máme v ČR 522 potvrzených pacientů s koronavirem. Od rána jejich počet vzrostl o 58. 👉 https://t.co/3mbH9UJyt1,1150799561503453186
@adamvojtechano,@adamvojtechano @ArmadaTweetuje https://t.co/1SJtqROoTi,Distribuce ochranných pomůcek ze skladu SSHR pokračuje i v noci. Právě teď míří 73 000 ks roušek do nemocnic po cel… https://t.co/2vGRjbUsqE,1150799561503453186
@adamvojtechano,@adamvojtechano Proboha co to je za barák?,Nezahálí ani studenti a studentky medicíny. Po intenzivním tréninku patnáct z nich posílí dobrovolnou informační li… https://t.co/yyK4qGxlxb,1150799561503453186
@adamvojtechano,@adamvojtechano @AndrejBabis Je pondělí...  Pátek je poněkud daleko.,Každý den objednáváme respirátory a ústenky. Dnes dorazilo do meziskladu Správy státních hmotných rezerv dalších 50… https://t.co/tQIpTevQNy,1150799561503453186
@adamvojtechano,@adamvojtechano Situace je velmi dynamická... Ještě ráno jsme si mysleli že máme plné sklady roušek a respirátorů a… https://t.co/WX5pHfiLj8,"Posílili jsme opatření proti koronaviru. Situace je velmi dynamická, proto jsme zasedli s kolegy ministry ještě v n… https://t.co/hINP2hCEni",1150799561503453186
@kalousekm,"@kalousekm Myslíte Schillerovou, Dostálovou, Maláčovou....? Tak ty se snad neurazí...","Mitrofanov: “Andrej Babiš měl vládu řídit jako firmu, ale řídí ji jako kurník.” No, nevím...Snad se ty slepice neur… https://t.co/9SlIylPvb2",1150799561503453186
@kalousekm,"@kalousekm Jak za co? No za to že od nich nepřišel vir, který by zlikvidoval 99% populace.","Za co mám být vděčný Číně? Za to, že její režim se několik týdnů snažil coronavirus ututlat a přispěl tak k jeho ro… https://t.co/GaLmaKsX1W",1150799561503453186
@adamvojtechano,@adamvojtechano Super graf. Ten se Márovi povedl. Klika že neobsahuje žádná čísla.,"Jak by vypadal vývoj onemocnění, když bychom seděli se založenýma rukama? Tento obrázek to pěkně vystihuje. Proto t… https://t.co/KpXVhrg8Tp",1150799561503453186
@kalousekm,@kalousekm Kalousek už netáhne. Babiš nasadil těžší kalibr. Může za to EU.. Takže bude platit jak mourovatá.. Sprav… https://t.co/059CA46z3y,"Čekám na prohlášení: “Kalousek může za to, že ve Státních hmotných rezervách žádné roušky nebyly.” A já jsem to cel… https://t.co/JfmobwNI96",1150799561503453186
@alenaschillerov,"@alenaschillerov @AndrejBabis @financnisprava Klika je, že můžete použít ty dva biliony z lithia, o které nás Sobotka málem připravil...",Liberalizační daňový balíček v praxi. @financnisprava právě zveřejnila průvodce pro daňové poplatníky. Rozjíždíme t… https://t.co/erpZaLe5oK,1150799561503453186
@alenaschillerov,@alenaschillerov @financnisprava https://t.co/fIdqHPDg1x,Právě jsem podepsala prováděcí akt uvádějící v život #Liberačníbalíček. Díky němu bude třeba možné individuálně pro… https://t.co/ccoJ5AuL3h,1150799561503453186
@adamvojtechano,@adamvojtechano @AndrejBabis Strč si to video do prdele gaunere.,"Aktualizovali jsme pro vás video s důležitými informacemi o koronaviru. Teď pracujeme na tom, aby se dostalo k co n… https://t.co/X94fxQRDT5",1150799561503453186
@AndrejBabis,"@AndrejBabis Mám dotaz chytrolíne. Když jsou roušky tak skvělá věc, proč musíme všude dodržovat dvoumetrové rozestu… https://t.co/JkAUZ50OdD","Zdá se, že v Bílém domě se velmi aktivně diskutuje o doporučení občanům nosit roušky 👍 https://t.co/ZfWO7MpsYP",1150799561503453186
@adamvojtechano,"@adamvojtechano No a co dál.. Až si dohoníš triko, mohl bys mi prozradit jak bude vypadat ""život"" v dalším desetile… https://t.co/RLvni86YRl",Mezi vyléčenými je pacientka z Prahy ve věku 96 let! Jsem za to moc rád.,1150799561503453186
@kalousekm,@kalousekm Rodiček a personálu jsou na světě miliony. Miloš Zeman je jen jeden.. I Babiš je unikát. Kdyby jsme o ně… https://t.co/1GCN8J5cAx,Rodičky a personál? Proč? Přednostně je třeba testovat okolí pana prezidenta a pana premiéra. Za péči o rodičky se… https://t.co/ZXOHJEKZtu,1150799561503453186
@alenaschillerov,@alenaschillerov To a co když někdo platí hotově? Třeba prodal jinou neovitost a další koupil? Toho bez čeří oškube… https://t.co/M6MD1Mf0aJ,"Návrh zákona bude restrospektivní, tedy opatřen zpětnou účinností KE DNI SCHVÁLENÍ VLÁDOU. Do té doby platí, že kdo… https://t.co/be19hsKj7x",1150799561503453186
@adamvojtechano,"@adamvojtechano Dej jim číslo na sebe. Oni ti od plic řeknou, co si o tobě myslí.","Iniciovali jsme linku 1. psychické pomoci pro pracovníky ve zdravotnictví. ☎️ 
Právě zdravotníci jsou nyní v první… https://t.co/Z3sgLbuThl",1150799561503453186
@alenaschillerov,@alenaschillerov @AndrejBabis Hlavně aby se tam vešel Čapák... Nerad bych aby ten skvost padnul...,"Pokud se nezanedbatelná část zasažených OSVČ do kritérií z různých důvodů nevešla, tak spravedlivý nebyl. Pracujeme na úpravě.",1150799561503453186
@kalousekm,"@kalousekm Hlavně doufejme že testují ty pravé... Třeba Béma otestovat nechtěli, musel si to zaplatit...","Potřebujeme dobré zprávy. Tahle mezi ně určitě patří. Doufejme, že pozitivní trend bude pokračovat. 👍https://t.co/AL7ulpCqjr",1150799561503453186
@AndrejBabis,"@AndrejBabis Babiši, my máme normální děti. A ty nemůžeš od sebe držet metr.  Já chápu že ty to máš jinak. Dítě si… https://t.co/cyJKFr0MoL","Tady máte rozhovor z dnešního Práva. Přečtěte si ho prosím, je důležitý.
https://t.co/B7OkrMb9KD https://t.co/UQGqf4trCc",1150799561503453186
@kalousekm,"@kalousekm To jste špatně pochopil... Do těch velkých soukromých společností nemá vstoupit stát, ale Agrofert. Baťa… https://t.co/0L9UWuQ5ed",Nejsem zastánce vstupu státu do velkých soukromých podniků. Konkurzní řízení ještě nemusí znamenat zánik společnost… https://t.co/OhRqnCBtue,1150799561503453186
@adamvojtechano,@adamvojtechano Tak teď jsem si učůrnul radostí.,Mezi vyléčenými je pacientka z Prahy ve věku 96 let! Jsem za to moc rád.,1150799561503453186
@AndrejBabis,@AndrejBabis A nenavrhujou náhodou Babiše do primárek místo Trumpa?,"Zdá se, že v Bílém domě se velmi aktivně diskutuje o doporučení občanům nosit roušky 👍 https://t.co/ZfWO7MpsYP",1150799561503453186
@alenaschillerov,@alenaschillerov @AndrejBabis Aspoň nelžete. Přišla jste původně z 15.000 měsíčně a hned jste to změnila na jednorá… https://t.co/Ve0ECwbwLs,"Chci vám říct, že všechny vaše reakce a připomínky k programu pro OSVČ Pětadvacítka velmi pozorně vnímám. Program m… https://t.co/MNpfpGrqls",1150799561503453186
@kalousekm,"@kalousekm @Blesk24 Já ho bral pouze jako brilantního řečníka.. Ale jak říká klasik, ""Ať řekneš sebevětší blbost, k… https://t.co/1105lLaXT8","Je mi M. Zemana líto. Pamatuji si ho ještě jako muže s brilantním intelektem, se kterým jsem sice nesouhlasil, ale… https://t.co/Yum3UOXnlw",1150799561503453186
@AndrejBabis,@AndrejBabis Já už se lekl že Monika roušky šila.. A ona je objednala u Vesraciho nebo kerýho kozla.,"Čau lidi! Kdybyste tápali, je neděle. Jak tu sedím furt, už se mi ty dny pletou. Tak jedem. Hlášení! https://t.co/kpzG6CrgFl",1150799561503453186
@adamvojtechano,@adamvojtechano Aspoň že si se nezapomněl pochválit. Co bude dál? Rok nás budeš dusit v izolaci a pak nás za korunu koupí Čína.,Z ranní tiskovky: ČR zvládá pandemii velmi dobře. Stávající vývoj počtu pacientů a čerpání kapacity systému zcela o… https://t.co/fKj5e55TkF,1150799561503453186
@adamvojtechano,@adamvojtechano @AndrejBabis Hlavně ty si se stal vzorem šašku.,Češi jako světoví rouškaři! Světová média vyzdvihují naše opatření k povinnému nošení pokrývky úst a nosu. Je úžasn… https://t.co/hDJXSlS7kj,1150799561503453186
@adamvojtechano,"@adamvojtechano Ty seš vážně vůl... Už dávno se prokázalo, že nákazu šíří především ti, kteří ještě žádné symptomy nemají.","Pořídíme do všech nemocnic v ČR termokamery. Celkem 500. Chceme mít na vstupu do nemocnic maximální jistotu, že ide… https://t.co/M8cf6kE4kG",1150799561503453186
@adamvojtechano,"@adamvojtechano Mě by naplnilo mírným optimismem cokoliv, co určí nějaký časový rámec kdy tenhle státem ""řízený"" bo… https://t.co/g5BTYg6SVk","Určitě je namístě prodloužit nouzový stav o 30 dní. Stále ještě nejsme za vrcholem epidemie, byť nás aktuální vývoj… https://t.co/w1aqyOwxsY",1150799561503453186
@alenaschillerov,@alenaschillerov @AndrejBabis @MinFinCZ A k čemu je to dobrý? Když to ani nikdo nemůže vidět.,"U příležitosti Světového dne na zvýšení povědomí o autismu, v ČR pod názvem Česko svítí modře, se dnes spousta budo… https://t.co/5ESqZP9kX5",1150799561503453186
@AndrejBabis,@AndrejBabis To že se ti pletou dny není to nejhorčí...,"Čau lidi! Kdybyste tápali, je neděle. Jak tu sedím furt, už se mi ty dny pletou. Tak jedem. Hlášení! https://t.co/kpzG6CrgFl",1150799561503453186
@AndrejBabis,@AndrejBabis To že se ti pletou dny je ten nejmenší problém.,"Čau lidi! Kdybyste tápali, je neděle. Jak tu sedím furt, už se mi ty dny pletou. Tak jedem. Hlášení! https://t.co/kpzG6CrgFl",1150799561503453186
@alenaschillerov,@alenaschillerov Jako již tradičně se vám v tom podařilo udělat pořádnej bordel. Zaměstnanci a často i menší zaměst… https://t.co/2ggaOIJKrr,"Dostávám naléhavé zprávy, že někteří zaměstnavatelé zneužívají kurzarbeit jako falešnou záminku k uzavření nepřijat… https://t.co/takAGTDXWX",1150799561503453186
@alenaschillerov,"@alenaschillerov Především by to chtělo nové logo. Ta pětadvacítka vypadá moc fádně. Nějaké oživení, jako měla Účte… https://t.co/57AaRsgrNU","Chci vám říct, že všechny vaše reakce a připomínky k programu pro OSVČ Pětadvacítka velmi pozorně vnímám. Program m… https://t.co/MNpfpGrqls",1150799561503453186
@adamvojtechano,"@adamvojtechano @AndrejBabis Odstup dva metry od ostatních, chrání si oči.... https://t.co/DVhEatcGlQ","Tři základní pravidla, na která nesmíme teď zapomenout. Zakrývat si ústa a nos, nechat si odstup 2 metry od ostatní… https://t.co/LW1rXLPKDB",1150799561503453186
@adamvojtechano,@adamvojtechano A k čemu ty termokamery jsou????,"Termokamery jsme objednali u švýcarské společnosti, nikoliv čínské. Pro MZ je prioritou spolupracovat s českými výr… https://t.co/iwnubPvtz2",1150799561503453186
@AndrejBabis,@AndrejBabis Já furt koho mi připomíná... https://t.co/98oSxR9xuF,"Čau lidi! Kdybyste tápali, je neděle. Jak tu sedím furt, už se mi ty dny pletou. Tak jedem. Hlášení! https://t.co/kpzG6CrgFl",1150799561503453186
@adamvojtechano,@adamvojtechano @AndrejBabis Tak super... Od zítřka končí karaténa... To si nám chtěl říct?,67 vyléčených!,1150799561503453186
@alenaschillerov,@alenaschillerov Stejně zejtra přijde s tím že platí to původní a tímhle tweetem chtěl vyvést živnostníky aprílem....,"Chci vám říct, že všechny vaše reakce a připomínky k programu pro OSVČ Pětadvacítka velmi pozorně vnímám. Program m… https://t.co/MNpfpGrqls",1150799561503453186
@alenaschillerov,@alenaschillerov @AndrejBabis @PragueAirport Jediný co na tom letišti teď funguje je Billa. A zjevně to tak zůstane… https://t.co/Am1FNMh7Mx,"Dobrá zpráva, Moody´s potvrdili @PragueAirport výborný rating se stabilním výhledem. Jeho management zaslouží pochv… https://t.co/X4CNw7pFo4",1150799561503453186
@AndrejBabis,"@AndrejBabis Co to meleš za hovadiny? ""Někteří by prodloužili ty prázdniny až do září""  Proboha jaký prázdniny? Teď… https://t.co/dNORaLmwoB","Čau lidi! Kdybyste tápali, je neděle. Jak tu sedím furt, už se mi ty dny pletou. Tak jedem. Hlášení! https://t.co/kpzG6CrgFl",1150799561503453186
@adamvojtechano,@adamvojtechano @AndrejBabis To si zase někdo namastí kapsu....,"Tři základní pravidla, na která nesmíme teď zapomenout. Zakrývat si ústa a nos, nechat si odstup 2 metry od ostatní… https://t.co/LW1rXLPKDB",1150799561503453186
@adamvojtechano,@adamvojtechano @ZdravkoOnline Bylo hodně náročné v tom bordelu změnit červená světla za modrá?,"I když téma koronavirus ovládl celou společnost, nesmíme zapomenout na ty, kteří to potřebují. Dnes je Světový den… https://t.co/vjewTtZ6hj",1150799561503453186
@alenaschillerov,"@alenaschillerov @vnitro Tak bodejť ne, když třeba s živnostníky jste pěkně vyjebala...","Na nákup ochranných prostředků jsem pro @vnitro z vládní rozpočtové rezervy uvolnila dalších 4,3 miliardy korun, ce… https://t.co/dw6Jj6sf04",1150799561503453186
@AndrejBabis,"@AndrejBabis Když budu 14 dní v karanténě, nebo dokonce budu doma nemocnej, jak si asitak nakoupím ty Einsteine? Fa… https://t.co/oLKl7duhgh","Informoval jsem zástupce všech obchodních řetězců o aktuálních opatřeních vlády. Řetězce jsou zásobovány na 95 %, t… https://t.co/mbH19l9OmA",1150799561503453186
@alenaschillerov,@alenaschillerov @ZdravkoOnline Chránit. Vy ale nikoho nechráníte. Jen šikanujete. Ale co chtít od bandy netáhel po… https://t.co/R2pIE9f5UR,"Sobotní jednání na @ZdravkoOnline. Stát musí chránit své občany, jak jen se dá 🇨🇿 https://t.co/2iGWKr8E80",1150799561503453186
@adamvojtechano,@adamvojtechano Ty seš vážně debil. Estébák si tě vodí jak psíka.,"Koronavirus se také potvrdil u manželského páru, který byl v kontaktu s nakaženou ženou v Rakousku, ta se vrátila z… https://t.co/pueZWNumKn",1150799561503453186
@adamvojtechano,"@adamvojtechano Co to je za kecy? Tak buď jste se spletl, nebo jste dostal špatnou informaci.",Omlouvám se paní doktorce z laboratoře Tilia. Bohužel jsem od kolegů dostal špatnou informaci. Spletl jsem se a mrz… https://t.co/w7oYoNGChw,1150799561503453186
@adamvojtechano,"@adamvojtechano Hele chytrolíne. Do ČR ten vir zavlekly i dvě zahraniční studentky, které v Itálii studovaly...  Na… https://t.co/rjMfkiTZn8","Právě jsem podepsal výjimky z mimořádného opatření týkající se karantény pro ty, kteří se vrací z Itálie. Opatření… https://t.co/8NBIXCvZVB",1150799561503453186
@AndrejBabis,"@AndrejBabis Hele Bureši, než si vstoupil do politiky, tak si pindal, že politici jsou zaměstnanci občanů. To je za… https://t.co/1xdz41slkb","Žádám zaměstnavatele, aby se postavili k této situaci čelem, uznali zaměstnancům překážku v práci, dali jim plnou m… https://t.co/Z04PVYhas7",1150799561503453186
@adamvojtechano,"@adamvojtechano Odvolávám, co jsem odvolal a slibuji, co jsem slíbil.","Právě jsem podepsal výjimky z mimořádného opatření týkající se karantény pro ty, kteří se vrací z Itálie. Opatření… https://t.co/8NBIXCvZVB",1150799561503453186
@alenaschillerov,@alenaschillerov @ZdravkoOnline Ta Schillerka čumí jako kdyby ČR postihl mor.,"Sobotní jednání na @ZdravkoOnline. Stát musí chránit své občany, jak jen se dá 🇨🇿 https://t.co/2iGWKr8E80",1150799561503453186
@alenaschillerov,"@alenaschillerov @AndrejBabis No a oznámili jste to i tomu viru? Bylo by od něj hodně sprosté, kdyby napadl řidiče kamionu, nebo pilota....",Výsledek naší rychlé dohody na výjimkách z karantény u některých profesí. Velmi důležité. https://t.co/L3VGy39Z40,1150799561503453186
@alenaschillerov,"@alenaschillerov Masaryk? Neznám... Jedinou ikonou české státnosti je soudruh Babiš. Po něm tady zůstane Karlštejn,… https://t.co/is6UcP14JB",Prvnímu prezidentovi by dnes bylo 170 let. TGM neochvějně zůstává největší ikonou naší státnosti. Jeho díla jsou st… https://t.co/9u6lHzgHJJ,1150799561503453186
@alenaschillerov,@alenaschillerov @PolicieCZ @Celnisprava Namátková kontrola zdrav. stavu přijíždějících. To je jako co???,Informace o bezpečném chování a povinnostech proti případnému šiření koronaviru na území ČR budou od pondělí společ… https://t.co/pHcN1cRSft,1150799561503453186
@adamvojtechano,"@adamvojtechano „Ministr Vojtěch by potřeboval odpočinout, aby nemusel z únavy zbytečně žvanit nesmysly – jsem v pr… https://t.co/jdyNjrtDsb","Aktuální čísla ke koronaviru. Celkem bylo v ČR vyšetřeno 594 osob. Nadále platí, že máme 19 pozitivních pacientů.",1150799561503453186
