category,comment_body,parent_body,poster_name
@AndrejBabis,@AndrejBabis Lžeš jak blekotáš!,"Chci upozornit, že na boj s COVID-19 nedává EU ani o korunu víc, než na kolik měly stát nárok už před pandemií. Sch… https://t.co/W9iF3y0cnq",1177990170622271489
@adamvojtechano,"@adamvojtechano Proč se snažíte tvrdit, že roušky jsou dostatečná ochrana? Není to proto že jste zaspali a !!!účinn… https://t.co/K851sC6JVi",Stav k dnešnímu ránu. Počet pozitivních pacientů vzrostl na 1 047 nakažených. Za včerejšek ale také stoupl počet vy… https://t.co/1geSR5moAD,1177990170622271489
@adamvojtechano,"@adamvojtechano Heureka Adys, v práci už to máme druhý týden.","Pořídíme do všech nemocnic v ČR termokamery. Celkem 500. Chceme mít na vstupu do nemocnic maximální jistotu, že ide… https://t.co/M8cf6kE4kG",1177990170622271489
@AndrejBabis,@AndrejBabis Jseš křivák největší. Ale tvůj čas u kormidla se krátí. Jop;,😊👍 https://t.co/dPCx9w7cfk,1177990170622271489
@adamvojtechano,@adamvojtechano Jako že se vláda vysrala na všechny včetně lidi v první linii a vy koblihy z toho ještě budete děla… https://t.co/5jEaYabMT6,Češi jako světoví rouškaři! Světová média vyzdvihují naše opatření k povinnému nošení pokrývky úst a nosu. Je úžasn… https://t.co/hDJXSlS7kj,1177990170622271489
@adamvojtechano,@adamvojtechano Ooooó ANO bude svoji divizi marketingu vytěžovat i na akci boj s virem. To přesně potřebujeme dusit se koblihama.,"Právě jsem podepsal výjimky z mimořádného opatření týkající se karantény pro ty, kteří se vrací z Itálie. Opatření… https://t.co/8NBIXCvZVB",1177990170622271489
