category,comment_body,parent_body,poster_name
@adamvojtechano,@adamvojtechano https://t.co/quQxv40MI2,"Podařilo se nám od dubna zajistit o 30 % větší dodávky paracetamolu na český trh, než doposud. Dnes vydaný specific… https://t.co/xjmjW4KFFl",1177141237595496448
@adamvojtechano,"@adamvojtechano Vzhledem k tomu, co dnes vyplulo ohledně toho jak se vláda podle vyvlékla z placení kompenzací za u… https://t.co/3obRQgARQw","Dnešním dnem je nárůst o 157 nových pacientů, kteří se nakazili koronavirem. Celkový počet nakažených je aktuálně 1… https://t.co/AzGooXZMgz",1177141237595496448
@adamvojtechano,@adamvojtechano Měli byste ke galanteriim povolit otevřít také provaznictví.,"Osoby samostatně výdělečně činné tak za každý měsíc ušetří 2 352 Kč, dohromady 14 112 Kč. Ty osoby samostatně výděl… https://t.co/xbmlWypq3a",1177141237595496448
@adamvojtechano,@adamvojtechano Ken a jeho dekrety,Aktuální stav. V ČR je 1 775 pacientů s koronavirem. Včera jsme zaznamenali vysoký počet provedených testů. Laborat… https://t.co/an33rzW1XV,1177141237595496448
@adamvojtechano,@adamvojtechano Help line pro sebevrahy,"Situace ohledně koronaviru může pro některé občany znamenat velkou psychickou zátěž, proto jsme spustili na bezplat… https://t.co/RDFeZmwkDE",1177141237595496448
@AndrejBabis,"@AndrejBabis Chci upozornit, že jste podvodník,  zloděj a lhář.","Chci upozornit, že na boj s COVID-19 nedává EU ani o korunu víc, než na kolik měly stát nárok už před pandemií. Sch… https://t.co/W9iF3y0cnq",1177141237595496448
@adamvojtechano,"@adamvojtechano K čemu to bude, říkal jste že sklady máte plné ?","Dnes naskladněno: 150 tisíc roušek, 140 tisíc rukavic, kamion dezinfekce a v noci přijede ještě 100 tisíc respiráto… https://t.co/XsQFOXyxoM",1177141237595496448
@adamvojtechano,@adamvojtechano Vy máte 14 nemocnic a objednáte si 150 000 roušek?,"Dnes naskladněno: 150 tisíc roušek, 140 tisíc rukavic, kamion dezinfekce a v noci přijede ještě 100 tisíc respiráto… https://t.co/XsQFOXyxoM",1177141237595496448
@adamvojtechano,"@adamvojtechano Je mi úplně jedno, jak testují v Japonsku, ale ty vaše neustálé lži mě silně znepokojují.","Stále slyšíme kritiku, že málo testujeme na koronavirus. Tak jsme se koukli za hranice. A ČR testuje více než Švýca… https://t.co/AdlQ18LmgB",1177141237595496448
@kalousekm,"@kalousekm Jak myslíte, že Babiš došel k sumě 1 bilion na podporu ekonomiky.
Má přeci 2 biliony v lithiu. 
Půlku uk… https://t.co/Je4aAUcSPX","K slibovaným státním intervencím malá kalkulace:
1. Plánovaný deficit: 40 mld
2. Propad příjmů : 60-100 mld
3. Zvýš… https://t.co/TiEDXqa4Sh",1177141237595496448
@adamvojtechano,"@adamvojtechano @PolicieCZ S tímhle běžte do prdele. Teď se budete trumfovat, kdo to zajistil. Věnujte radši tu ene… https://t.co/JQle5fz8V8","Jak je situace na trhu s ochrannými pomůckami složitá, ukazuje tento případ. Během nákupu respirátorů jsme narazili… https://t.co/kDlrrvUN7W",1177141237595496448
@AndrejBabis,@AndrejBabis Jste zločinec a tuhle zemi ničíte.,"Samozřejmě na sítích probíhá účelově zmanipulovaný obrázek od Milionu chvilek, který sdíleli i někteří novináři a m… https://t.co/ZJNGAMkoXh",1177141237595496448
@adamvojtechano,@adamvojtechano @ZdravkoOnline To že vláda a MZ selhala je evidentní. Ale proč lidi nenosí jakékoli roušky nechápu.… https://t.co/6dbEvPX3yR,Představuji vám náš obchodní tým @ZdravkoOnline. 24 hodin denně sledují trh a nakupují všechny dostupné respirátory… https://t.co/YEnvnBlo5C,1177141237595496448
@alenaschillerov,@alenaschillerov V Agrofertu dneska lítají špunty🍾🥂💶,Vláda dnes schválila můj návrh na vyhlášení moratoria na splácení úvěrů a hypoték. Po schválení Parlamentem a nabyt… https://t.co/Jmm27GMcjm,1177141237595496448
@AndrejBabis,"@AndrejBabis @FNBrno Tohle musím ocenit, solidarita je potřeba.
 Ale nic to nemění na tom, že vy jste lhář, zloděj… https://t.co/6gPp69H6G3",Francie se na nás obrátila s žádostí o pomoc s hospitalizací svých pacientů. Vzhledem k dostatečné kapacitě jsme ji… https://t.co/YHnZqKEZOt,1177141237595496448
