category,comment_body,parent_body,poster_name
@AndrejBabis,"@AndrejBabis A co nemocnice v Techonine, kdy ji zprovoznite? Mohli by jsme vysvobodit Thomayerku..",Evropská rada. Videocall. Naše kroky v boji s virem musíme koordinovat. Klíčový je teď pro mě společný nákup zdravo… https://t.co/RALiCtJgJ9,1193072494141423616
@adamvojtechano,@adamvojtechano @AndrejBabis A co nemocnice v Techonine?,Aktuálně ke koronaviru. K dnešnímu ránu máme 1 497 nakažených. A zvládáme testovat více lidí. Za včerejšek dokonce… https://t.co/KuUDn71coL,1193072494141423616
