category,comment_body,parent_body,poster_name
@adamvojtechano,@adamvojtechano @FilipHorky Jsi to vymyslel.,"@FilipHorky O jaké FN prosím mluvíte? Jen v posledních dnech přišly miliony roušek, rukavic a statisíce respirátorů… https://t.co/oCpoh3lNpy",1197995646130774016
@adamvojtechano,@adamvojtechano @adamvojtechano Jsi neumíte zařídit svoje letadla a musíte krást prostor Hamáčkovi?,V novém kabátě. Takové jsou naše stránky s ukazateli ke koronaviru. Doplnili jsme například denní procentuální změn… https://t.co/1yKJoJjbRV,1197995646130774016
@alenaschillerov,"@alenaschillerov @AndrejBabis Dívu se teď na @CT24zive a sleduju ty chudáky, když vtom @JaroslavFalynek zveřejní váš plat. 😂","Pokud se nezanedbatelná část zasažených OSVČ do kritérií z různých důvodů nevešla, tak spravedlivý nebyl. Pracujeme na úpravě.",1197995646130774016
