category,comment_body,parent_body,poster_name
@adamvojtechano,"@adamvojtechano Tak jsem to spočítala. Jenom škoda, že nemůžeme platit pojištění a daně na bázi vašeho redistribučn… https://t.co/xms8I5Nalo","Zdravotníkům jsme již poslali přes 11,1 mil. ochranných pomůcek. Konkrétně přes 8 mil. roušek, přes 1,8 mil. respir… https://t.co/re5fFICHVP",1233565355009810433
@adamvojtechano,"@adamvojtechano Tak jsem to spočítala. Jen škoda, že nomůžeme platit pojištění a daně na bázi vašeho redistribučníh… https://t.co/gnOeX3rCQM","Zdravotníkům jsme již poslali přes 11,1 mil. ochranných pomůcek. Konkrétně přes 8 mil. roušek, přes 1,8 mil. respir… https://t.co/re5fFICHVP",1233565355009810433
@adamvojtechano,"@adamvojtechano Tak jsem to spočítala. Jenom škoda, že nemůžeme platit pojištění a daně na bázi vašeho redistribučn… https://t.co/rRZu5SgQFs","Zdravotníkům jsme již poslali přes 11,1 mil. ochranných pomůcek. Konkrétně přes 8 mil. roušek, přes 1,8 mil. respir… https://t.co/re5fFICHVP",1233565355009810433
