category,comment_body,parent_body,poster_name
@adamvojtechano,"@adamvojtechano Zde https://t.co/8CffTz8XYF je možné se podívat, že ani zdaleka nejsme z nejhoršího venku. Doporuču… https://t.co/CKcMYSR7dT",Aktuálně ke koronaviru. K dnešnímu ránu máme 1 497 nakažených. A zvládáme testovat více lidí. Za včerejšek dokonce… https://t.co/KuUDn71coL,1237979973874573312
@kalousekm,"@kalousekm @alenaschillerov Děkujeme, že se snažíte pomoci, ale raději ne. Pokud se vám  prakticky samostatně poved… https://t.co/KCubBmqL6A","Jsem zoufalý z toho, jak jsou zoufalí živnostníci. Paní ministryně,@alenaschillerov, pusťte mě v 7,00 ráno na minis… https://t.co/s3tQpDKDyl",1237979973874573312
@adamvojtechano,"@adamvojtechano @ZdravkoOnline Dobrý den, nebruslete kde puk je ale kde bude. Nechte centrální zásobování, které js… https://t.co/F2zbYeOYEV",Právě teď sedíme s kolegy na @ZdravkoOnline a připravujeme zítřejší distribuci další várky ochranných prostředků. Z… https://t.co/cQJsrWsVDQ,1237979973874573312
@adamvojtechano,"@adamvojtechano Je třeba vyslovit pochvalu za to že jsme se konečně dostali na 4000/ den. Samozřejmě, je třeba dosá… https://t.co/t43NAhWTYR",Aktuální stav. V ČR je 1 775 pacientů s koronavirem. Včera jsme zaznamenali vysoký počet provedených testů. Laborat… https://t.co/an33rzW1XV,1237979973874573312
@AndrejBabis,"@AndrejBabis No teď ale musíte znárodnit patent a začit vyrábět generikum v Zentivě, nebo budou lékaři moci zachrán… https://t.co/DMhIdzyflV","Úžasná zpráva. Remdesivir zabral! Stav pacienta ve VFN, který tři dny lék dostává, se výrazně zlepšil. Mohl být odp… https://t.co/dS5b4sdgBt",1237979973874573312
@adamvojtechano,@adamvojtechano Z dn. rozhovoru p. Prymuly nemám dobrý pocit. Jako by relativní úspěch opatření zamlžil úsudek. Bla… https://t.co/4ZqemZ5FE5,Máme ale také dobré zprávy. Ústecký a Plzeňský kraj hlásí vyléčené. Jejich počet tak vzrostl na 10.,1237979973874573312
@adamvojtechano,"@adamvojtechano Rád bych upozornil, že se zatím žádný “Český zázrak” nekoná. 
https://t.co/8CffTz8XYF","Máme tady pátek a před námi další víkend v této mimořádné situaci. Chtěl bych všechny požádat, aby odložili návštěv… https://t.co/lnCBL77P2G",1237979973874573312
@AndrejBabis,"@AndrejBabis Dobrý den, jsem samozřejmě moc rád že se snažíte vysvětlit ostatním ne-asijským zemím, že se mají použ… https://t.co/4osNmmSekk",Watch this video. Czechs are sewing their own masks to fight COVID-19. Everyone in the world should follow our exam… https://t.co/8sMpyTLMWF,1237979973874573312
@adamvojtechano,"@adamvojtechano Zatím nemáme úmrtí, jelikož několika málo kritickým pacientům může být poskytnuta kvalitní péče.  J… https://t.co/bTaaLQa6hZ",Dnes jsou to přesně 3 týdny od prvních případů koronaviru v ČR. Počet nakažených ráno překročil tisíc a k večeru vz… https://t.co/iJILdDog4R,1237979973874573312
@adamvojtechano,"@adamvojtechano Dobrý den, včera pan Prymula zmínil dvě výborné zprávy: že od středy zavedete nový systém testování… https://t.co/yIsu242a0p",Bilance koronaviru k dnešnímu ránu. Počet pozitivních pacientů vzrostl na 1 165 nakažených. Nadále platí 6 vyléčený… https://t.co/HkxHGmwhkX,1237979973874573312
@alenaschillerov,"@alenaschillerov Z odkazovaného textů ale není zřejmé že by se to vyřešilo, naopak vypadá to jako kdyby Žufánek poř… https://t.co/k2Cl3hIXQK","Jsem ráda, že se nakonec všechno vyjasnilo 🙂 https://t.co/iR9olNW53s",1237979973874573312
@AndrejBabis,@AndrejBabis Otazkou dne je jak se vypořádáme z nadcházející hospodářskou krizí? Včera výborné nakročení správným s… https://t.co/a15ZaMvhAB,"Otázka dne pro Romana Prymulu. Byla uzavřena první města. Za jakých podmínek by se uzavřela další? A hrozí, že se u… https://t.co/i8rIOuzeKy",1237979973874573312
@adamvojtechano,"@adamvojtechano Dobrý den, my jsme samozřejmě rádi, že u nás děláme víc než v zemích kde to vzali na lehkou váhu, a… https://t.co/mJcbaIguWG","Stále slyšíme kritiku, že málo testujeme na koronavirus. Tak jsme se koukli za hranice. A ČR testuje více než Švýca… https://t.co/AdlQ18LmgB",1237979973874573312
@adamvojtechano,"@adamvojtechano Dobrý den, to je dobrá zpráva, nicméně kolik těch lůžek bude? V nejhorší variantě budeme potřebovat… https://t.co/q2PuWJ9FMj",Pár novinek po dnešní vládě. Rozhodli jsme ve všech nemocnicích vyčlenit speciální lůžka pro pacienty s nákazou kor… https://t.co/mVxJMHJEcm,1237979973874573312
@alenaschillerov,@alenaschillerov No výborně! Podniky nebudou propouštět a to je podstatné.,"Podáváme pomocnou ruku i firmám. Stát bude zaměstnavatelům proplácet náhrady mezd zaměstnanců, kterým byla nařízena… https://t.co/MymMDAVtJV",1237979973874573312
@adamvojtechano,"@adamvojtechano Dobrý den, jste částečné nespravedlivě pranýřován za chybějící pomůcky, nicméně zde máte možnost pr… https://t.co/Xv1h0Vah36",Stav k dnešnímu ránu. Počet pozitivních pacientů vzrostl na 1 047 nakažených. Za včerejšek ale také stoupl počet vy… https://t.co/1geSR5moAD,1237979973874573312
@adamvojtechano,"@adamvojtechano Nějak tam zmizela číselná řada denně provedených testů.  Sice se to dá ze zveřejněných dat dá dopočítat, ale stejně .....",Aktuálně je v ČR pozitivních 631 pacientů. Právě jsme zveřejnili čerstvá data. Stránku pro vás neustále vylepšujeme… https://t.co/UCxqNS1l9s,1237979973874573312
@adamvojtechano,@adamvojtechano Proč prosím klesají počty otestovaných?,Stav k dnešnímu ránu. Počet pozitivních pacientů vzrostl na 1 047 nakažených. Za včerejšek ale také stoupl počet vy… https://t.co/1geSR5moAD,1237979973874573312
@alenaschillerov,@alenaschillerov Dnes tedy samá rozumná rozhodnutí.,"Vycházíme vstříc rodičům, kteří kvůli zavřeným školám nechodí do práce a zůstávají s dětmi doma. Na vládě jsme se d… https://t.co/JAvvUqlzfY",1237979973874573312
@adamvojtechano,"@adamvojtechano Dobrý den, vzhledem k situaci v Thomayerově nemocnici není na čase aktivovat Těchonín? Evidentně ne… https://t.co/VbdXviLgoM",Právě mi volali z Nemocnice Na Bulovce. Máme dalšího vyléčeného pacienta! Celkem se vyléčilo už 6 osob.,1237979973874573312
@adamvojtechano,"@adamvojtechano Dobrý den, kdy uvidíme výsledky snahy zvýšit kapacitu testů a nasmlouvaných laboratoři v nárůstu po… https://t.co/XygSSTzhvi",Aktuální čísla ke koronaviru. Celkem jsme již vyšetřili 1816 osob. K dnešnímu ránu stále platí 94 pozitivních pacientů.,1237979973874573312
@adamvojtechano,@adamvojtechano Konečně.  Výborně.,"Pár důležitých pravidel. Jestli můžete, co nejvíce zůstávejte doma a nechoďte mezi lidi. Pokud to nejde, při odchod… https://t.co/OXT0uKCQjV",1237979973874573312
@adamvojtechano,"@adamvojtechano Situace z rouškami je jasná. Co však chybí jsou jasné pokyny jak a kde má probíhat testování, jak p… https://t.co/1j8SaREUmp","Další roušky a respirátory jsou na cestě. Vnímám vaše reakce, a vím, že to jde pomaleji, než bychom si představoval… https://t.co/gYcHnY7uG8",1237979973874573312
@adamvojtechano,@adamvojtechano Jackem Maa sponzorovaný manuál pro zdravotníky na léčbu na základě čínských praktických zkušenosti.… https://t.co/pWLuPMquOC,Jsme v tom spolu. A spolu to zvládneme. Díky Radku! https://t.co/42VusejM89,1237979973874573312
@adamvojtechano,"@adamvojtechano Kdy předpokládáte, že se dostaneme na avizovaných 4000 testů denně? Je nějaká strategie jít pak na… https://t.co/A0yJeIh9z0",Nová čísla ke koronaviru. V ČR je v tuto chvíli 572 pozitivních pacientů. Stále platí 3 vyléčení. Za včerejšek jsme… https://t.co/b0p0GGBos9,1237979973874573312
@alenaschillerov,"@alenaschillerov @financnisprava Abychom nebyli pořád dva kroky za koronavirem, jaké kroky připravuje vláda a #mfcr… https://t.co/vbwOPym4VJ",Liberalizační daňový balíček v praxi. @financnisprava právě zveřejnila průvodce pro daňové poplatníky. Rozjíždíme t… https://t.co/erpZaLe5oK,1237979973874573312
@adamvojtechano,"@adamvojtechano @AndrejBabis Považuji za úplně skandální, že 1) testy na vlastní žádost stojí 2900Kč
2)testovací mí… https://t.co/J7DF98fzf1","Pár čísel ke koronaviru k dnešnímu ránu. Celkem 6 302 vyšetřených pacientů, 383 pozitivních a 3 vyléčení. Sledujte 👉 https://t.co/3mbH9UJyt1",1237979973874573312
@alenaschillerov,"@alenaschillerov Dobrý den, chápu že máte v popisu práce šířit optimismus, nicméně část ekonomiky závislá na funguj… https://t.co/TEQZynQKRf","Česká ekonomika je silná, stav našich veřejných financí dobrý, bankovní sektor je mimořádně zdravý, rozpočty samosp… https://t.co/5GDAnrLtX9",1237979973874573312
@adamvojtechano,"@adamvojtechano Dobrý den, ad roušky. Na Taiwanu stát sám přímo investoval, vzniklo tak 60 linek s kapacitou milion… https://t.co/F58jgbbORr","Posílili jsme opatření proti koronaviru. Situace je velmi dynamická, proto jsme zasedli s kolegy ministry ještě v n… https://t.co/hINP2hCEni",1237979973874573312
@alenaschillerov,"@alenaschillerov Běžná emisní činnost se obavám nebude stačit, bez koordinace (za normální situace velice nestandar… https://t.co/lKHJdRN5zK","V řádu dnů předložím novelu Zákona o státním rozpočtu na rok 2020. Počítám s úsporami, redistribucí evropských peně… https://t.co/LLsEQcuDiY",1237979973874573312
@adamvojtechano,"@adamvojtechano Je skvělé že se připravujeme na první vlnu těžkých případu, ty lůžka potřeba budou a to v mnohem vě… https://t.co/UuqhhWtPmB","Od dneška nemocnice omezí plánované výkony, které je možné odložit, a vyčlení kapacity na léčbu pacientů s koronavi… https://t.co/xzDhPk06GI",1237979973874573312
@adamvojtechano,"@adamvojtechano Výborně. Jak probíha příprava nemocnic na minimalizaci rizika zavlečení koronaviru, kromě termokamer co se ještě chystá?",67 vyléčených!,1237979973874573312
@adamvojtechano,"@adamvojtechano Je skvělé jak jsme díky české schopnosti improvizace dokázali za 2-3 týdny naboostovat propustnost,… https://t.co/2X9IrfECzn","Aktuálně ke koronaviru: V ČR je 3604 nakažených. Za včerejší den bylo provedeno 5973 testů, celkově už 60 990. V me… https://t.co/yt3zFOwZfv",1237979973874573312
@adamvojtechano,"@adamvojtechano @WHO Dobrý den, Co kdybychom se my taky někde inspirovali, třeba v Korei jak má vypadat dobře řízen… https://t.co/hp8e1pa1lq","Právě teď. @WHO připouští, že nošení roušek, i po domácku vyrobených, má smysl a skutečně může pomoci zmírnit šířen… https://t.co/sBQqlKbGwe",1237979973874573312
@alenaschillerov,@alenaschillerov @JMalacova @JStredula Nejedná se náhodou o pokus trestného činu podvodu či úmyslného uvedení v omy… https://t.co/Q5PJwUgVzW,Ale rozhodně ne s odkazem na program Antivirus! Ten pouze nastavuje vztah mezi zaměstnavatelem a státem. Apeluji na… https://t.co/IsAzINPJec,1237979973874573312
@alenaschillerov,"@alenaschillerov Samozřejmě je dobře, že vláda nenechala OSVČ úplně bez pomoci, ale je to 12500 za měsíc. A co když… https://t.co/nzT66zvAtd","Program pro OSVČ zasažené koronavirem ""Pětadvacítka"" v nejčastějších otázkách a odpovědích  👉 https://t.co/AYFXtS6N54",1237979973874573312
@adamvojtechano,"@adamvojtechano Povinná četba pro každého ředitele nemocnice a metodika. 
https://t.co/GHacOs7GEW",Z ranní tiskovky: ČR zvládá pandemii velmi dobře. Stávající vývoj počtu pacientů a čerpání kapacity systému zcela o… https://t.co/fKj5e55TkF,1237979973874573312
@adamvojtechano,"@adamvojtechano Obě tato tvrzení jsou pravdivá. Testujme nadprůměrně, ale pořád je to málo. Za nejlepšími m. zaostá… https://t.co/aVKnu6v3eA","Stále slyším mýty, že Česká republika netestuje. Testujeme v mezinárodním srovnání nadprůměrně. A zapojujeme další… https://t.co/nxydvt9Wtl",1237979973874573312
@adamvojtechano,@adamvojtechano ´Plošné testování celé populace podle ministra zdravotnictví Adama Vojtěcha není na pořadu dne. „Ne… https://t.co/b5VqrGT5Lf,"Určitě je namístě prodloužit nouzový stav o 30 dní. Stále ještě nejsme za vrcholem epidemie, byť nás aktuální vývoj… https://t.co/w1aqyOwxsY",1237979973874573312
@AndrejBabis,"@AndrejBabis Předčasné uvolnění zmaří vše čeho ČR za vysokou ekonomickou cenu dosáhla. 
https://t.co/w2M4WMwdnn
V t… https://t.co/JJJ7RukKFs","Tady máte rozhovor z dnešního Práva. Přečtěte si ho prosím, je důležitý.
https://t.co/B7OkrMb9KD https://t.co/UQGqf4trCc",1237979973874573312
@adamvojtechano,"@adamvojtechano Skvělý nápad. Výborný první krok. Nicméně ideální by bylo testovat každého před příjmem,  na to vša… https://t.co/va86vBkuW9","Pořídíme do všech nemocnic v ČR termokamery. Celkem 500. Chceme mít na vstupu do nemocnic maximální jistotu, že ide… https://t.co/M8cf6kE4kG",1237979973874573312
@adamvojtechano,"@adamvojtechano Za masky můžeme být společně pyšní, nicméně už se s @AndrejBabis za to přestaňte stále chválit a za… https://t.co/XU8crcF93e",Češi jako světoví rouškaři! Světová média vyzdvihují naše opatření k povinnému nošení pokrývky úst a nosu. Je úžasn… https://t.co/hDJXSlS7kj,1237979973874573312
@adamvojtechano,"@adamvojtechano Kapacita na papíře není problém, ale je třeba připravit speciální biohazard nemocnice. Běžné nemocn… https://t.co/Qk15EIfhoq",Z ranní tiskovky: ČR zvládá pandemii velmi dobře. Stávající vývoj počtu pacientů a čerpání kapacity systému zcela o… https://t.co/fKj5e55TkF,1237979973874573312
@adamvojtechano,"@adamvojtechano Dobrý den, vaše dnešní vyjádření že kapacita laboratoří je dostatečná (Za stavu 500 testů denně) mn… https://t.co/WNTakXNKP2",Aktuálně máme 113 pacientů s onemocněním Covid19 již napříč všemi kraji. Na Vysočině je zatím pouze 1 pacient. Dneš… https://t.co/vJwIQLl4ip,1237979973874573312
