category,comment_body,parent_body,poster_name
@AndrejBabis,@AndrejBabis Ať jde Milion chvilek pro demokracii do háje.,"Samozřejmě na sítích probíhá účelově zmanipulovaný obrázek od Milionu chvilek, který sdíleli i někteří novináři a m… https://t.co/ZJNGAMkoXh",1237077972617768962
@adamvojtechano,"@adamvojtechano Nic proti, ale tato opatření jsou málo. Koukejte nám říct pravdu. Odkud se tento vir vzal?",Zakazujeme také činnost provozoven stravovacích služeb v rámci nákupních center s prodejní plochou přesahující 5000… https://t.co/V7IO7O1ozJ,1237077972617768962
