category,comment_body,parent_body,poster_name
@adamvojtechano,@adamvojtechano lehni už do hrabanky ty klaune,V novém kabátě. Takové jsou naše stránky s ukazateli ke koronaviru. Doplnili jsme například denní procentuální změn… https://t.co/1yKJoJjbRV,1238786757451227136
@adamvojtechano,@adamvojtechano skoč už do zdi tvítovací suprstár,"Roušky mohou významně zpomalit šíření viru v populaci. Doporučuji všem státům, aby zavedly nošení roušek, i těch do… https://t.co/C3aaivXFdv",1238786757451227136
@adamvojtechano,@adamvojtechano @AndrejBabis @jhamacek @JStredula @martin_baroch @infocz_web @VrataDostal @tripartita_cz… https://t.co/NqrDTUG65X,@jhamacek @JStredula @martin_baroch @infocz_web @VrataDostal @tripartita_cz @ZdravkoOnline @odbory @UnieCr… https://t.co/H5U8ungAye,1238786757451227136
@alenaschillerov,@alenaschillerov @AndrejBabis Alena Šílená,Poplatník si po vyměření ztráty bude mít možnost ztrátu odečíst od základu daně vykázaného v letech 2018 a 2019. Do… https://t.co/3UeFtwtGHs,1238786757451227136
@AndrejBabis,"@AndrejBabis jj ty rád kopíruješ , viz trumpova kšiltovka a ten je stejně jako ty díky koroně za kašpara , hamáček… https://t.co/xipDYEimTZ","Jedeme podle vzoru Číny a Jižní Koreje, které situaci s COVID-19 zvládly.",1238786757451227136
@alenaschillerov,@alenaschillerov @AndrejBabis zruš radši EET ty megero bláznivá,Zítra navrhnu vládě prominutí zálohy na daň z příjmů fyzických i právnických osob. A to za druhé čtvrtletí roku 202… https://t.co/yvfTxZy9Ld,1238786757451227136
@kalousekm,"@kalousekm Mirku pojď nás zachránit, ta ouřednická blbka každej den zvedne schodek o 100giga, za chvíli to bude bilion 🤢","První pohled na novelu zákona o SR: 1)Propad příjmů velmi optimistický, ale o to se přít nechci. 2) Naprostá neocho… https://t.co/t63MHx8ium",1238786757451227136
@AndrejBabis,@AndrejBabis kudy chodil tudy lhal babišovo mára prchal,"Nic takového nikdy nebylo na stole. Dneska jsme už popřeli karanténu Prahy, a teď popíráme i tuto šílenou fake news… https://t.co/A1K0xAg7JV",1238786757451227136
@adamvojtechano,"@adamvojtechano @AndrejBabis duchodci vstavaji se slepicema a jsou zvykly vtrhnout do nakupaku hned v 7h, tim ze bu… https://t.co/bGOBIEpR2B","Na vládě jsme dnes rozhodli posílit ochranu seniorů, kteří jsou v souvislosti s koronavirem nejvíce rizikovou skupi… https://t.co/860NiRsWyB",1238786757451227136
@AndrejBabis,@AndrejBabis @alenaschillerov Bureš do tepláků a Ken ven,"Oznamuju novinářům, že řeším jen koronavirus, stovky dotazů od občanů, firem a institucí. Ohledně vašich dotazů k p… https://t.co/w6190Y32MP",1238786757451227136
@AndrejBabis,"@AndrejBabis prchale ty jsi ale kus limberskýho, samý love a morál nikde","Samozřejmě na sítích probíhá účelově zmanipulovaný obrázek od Milionu chvilek, který sdíleli i někteří novináři a m… https://t.co/ZJNGAMkoXh",1238786757451227136
@kalousekm,@kalousekm taký bordel som neviděl ani u cigánou,"Můj bratr, ambulantní specialista: “Na pátek slíbili distrbuovat ochranné prostředky, leč ..nic. Nikam se nedovolám… https://t.co/nueGceyprn",1238786757451227136
@AndrejBabis,@AndrejBabis svolal jsem předsednictvo agrofertu...,"Na neděli 16:00 jsem svolal vládu, abychom důkladně vyhodnotili dopady dnešních opatření a doladili detaily o maloo… https://t.co/6II6tjuhYH",1238786757451227136
@adamvojtechano,@adamvojtechano @AndrejBabis Ken slož funkci a jdi se připravit na novou řadu superstar https://t.co/vHvMB95DNi,"Rychlé občerstvení a jídlo s sebou dál funguje. Občané se také nemusí obávat, že by si nemohli nakoupit jídlo. Záso… https://t.co/vGd4E6wpuQ",1238786757451227136
@AndrejBabis,@AndrejBabis zruš radši EET ty pitchusi,Tady celé znění dnešního usnesení: https://t.co/11bOmkEiWb,1238786757451227136
@alenaschillerov,@alenaschillerov @AndrejBabis @financnisprava to si ho radsi vydrandim na sucho ty stara lolito,Právě jsem podepsala prováděcí akt uvádějící v život #Liberačníbalíček. Díky němu bude třeba možné individuálně pro… https://t.co/ccoJ5AuL3h,1238786757451227136
@kalousekm,@kalousekm @AndrejBabis @adamvojtechano AŇO se řídí heslem lepší zůstanou https://t.co/3z0VwZBylh,"No jo, pane hejtmane. Vy máte na Andreje telefon. Jak ale k tomu přijdou ti ostatní, kteří díky Vaší privilegované… https://t.co/boYcQTq49F",1238786757451227136
@adamvojtechano,@adamvojtechano Ken ven!,"Posílili jsme opatření proti koronaviru. Situace je velmi dynamická, proto jsme zasedli s kolegy ministry ještě v n… https://t.co/hINP2hCEni",1238786757451227136
@adamvojtechano,"@adamvojtechano dej tam ještě víc vykřičníky ty ubožáku, mrtvejch skoro stejná kupa a von tu slintá blahem....",Počet vyléčených se zvýšil na 45!,1238786757451227136
@adamvojtechano,"@adamvojtechano vy šašci jste mimo realitu, lidi budou chcípat hlady a ty si budeš dělat nový mikádo a srkat u toho latte","Určitě je namístě prodloužit nouzový stav o 30 dní. Stále ještě nejsme za vrcholem epidemie, byť nás aktuální vývoj… https://t.co/w1aqyOwxsY",1238786757451227136
