category,comment_body,parent_body,poster_name
@adamvojtechano,@adamvojtechano @ZdravkoOnline @MinFinCZ @Celnisprava Premyslite o vyzkouseni testu od pani Pekove z lab. Tilia? Ne… https://t.co/JamT0kPFiF,"Představujeme vám dezinfekční prostředek Anti-COVID. Vlastní výroba @ZdravkoOnline, za podpory @MinFinCZ a… https://t.co/OEpSPKDhtj",1238107090889191425
@adamvojtechano,@adamvojtechano @ZdravkoOnline Řeší se prosím možnost testování vzorků v laboratořích Akademi věd? Kaslete na ISO v… https://t.co/6xM6PkwQgw,Vláda pomůže přetíženým hygienickým stanicím. Právě schválila návrh @ZdravkoOnline na trasování nakažených pomocí t… https://t.co/PQKMlRdjNY,1238107090889191425
