category,comment_body,parent_body,poster_name
@adamvojtechano,@adamvojtechano Souhlasím,"Současná epidemiologická situace vyžaduje, abychom nadále nechali zavřené obchody, omezený volný pohyb a také omeze… https://t.co/QRXYfRgCAi",1240702025949732864
@adamvojtechano,@adamvojtechano Jen tak dál 😊,"I když každý den sledujeme nárůst pozitivních případů, postupně se objevují i dobré zprávy. Vyléčil se čtvrtý pacie… https://t.co/LXC5twix9L",1240702025949732864
