category,comment_body,parent_body,poster_name
@adamvojtechano,"@adamvojtechano @adamvojtechano opravdu si chcete na sebe hodit naštvané obyvatelé, jak je možné že matka ročního d… https://t.co/1ibk3RnFaX","I když každý den sledujeme nárůst pozitivních případů, postupně se objevují i dobré zprávy. Vyléčil se čtvrtý pacie… https://t.co/LXC5twix9L",1240203808212484096
@adamvojtechano,@adamvojtechano Jen pro zajímavost a pravdivě byla vláda testována. ? Vsadím se že jste byly mezi prvníma kdo testem prošel .,"Počet laboratoří, které diagnostikují koronavirus, neustále navyšujeme. Zapojilo se již 48 laboratoří, včetně kapac… https://t.co/f4emLBWd1F",1240203808212484096
@adamvojtechano,@adamvojtechano Je mi úplně u prdele kdo na tom zbohatne hlavně ať jsou .. nechápu jak někdo má síly v tomto obdoby… https://t.co/1c6VrjEIqZ,"Tak tohle je opravdu nesmysl, co jsem si teď přečetl. Že se někdo jmenuje “Vojtěch” neznamená, že jsme příbuzní. Ne… https://t.co/DSesOZs67g",1240203808212484096
@adamvojtechano,@adamvojtechano Počet 464 je jen testovaných že ? Jaký počet s nákazou může být když higiena netestuje všechny ? My… https://t.co/BNu548HR9O,"Mám čerstvá data ke koronaviru. K dnešnímu ránu je 464 pozitivních pacientů, to je v porovnání se včerejšími ranním… https://t.co/QP6SQTtoLw",1240203808212484096
