category,comment_body,parent_body,poster_name
@adamvojtechano,"@adamvojtechano Někteří kolegové diskutéři asi upadnou do mdlob, ale co kdybychom něco poslali do Madridu. Tam jsou… https://t.co/u6fRGm1bG5","4 kamiony roušek, které v noci přiletěly z Číny na pardubické letiště, jsou ve skladu Správy státních hmotných reze… https://t.co/t1sM7ll0iC",1241240358509596672
@adamvojtechano,@adamvojtechano S dovolením přidávám čerstvou zkušenost s fungováním krizové linky: spojte se s nějakou velkou práv… https://t.co/045ztgsQDd,"Situace ohledně koronaviru může pro některé občany znamenat velkou psychickou zátěž, proto jsme spustili na bezplat… https://t.co/RDFeZmwkDE",1241240358509596672
@alenaschillerov,"@alenaschillerov Jediný správný postup je co nejrychleji uvolňovat přijatá opatření, mnohdy zcela absurdní. Pokud n… https://t.co/h9PZDxzZJR","A budu s bankami jednat dále. Je dobře, že bankovní domy v tom naše občany, firmy a živnostníky nehodlají nechat. O… https://t.co/us5cCUzecB",1241240358509596672
@adamvojtechano,"@adamvojtechano Zkráceně: stát lidem pozavíral živnosti. V určitém okamžiku správné, sám jsem byl pro. Pokud ale li… https://t.co/D4dKlX0j0o","Osoby samostatně výdělečně činné tak za každý měsíc ušetří 2 352 Kč, dohromady 14 112 Kč. Ty osoby samostatně výděl… https://t.co/xbmlWypq3a",1241240358509596672
@adamvojtechano,"@adamvojtechano Nemohl byste dát echo někomu z Technetu na https://t.co/Kim7fMTkoo, ať o tom udělá podrobný článek?… https://t.co/rYr9iYCNy2",Odborníci z ČVUT vyvinuli respirátor na 3D tiskárně. Speciální filtr vydrží asi týden. Je to ještě vyšší ochrana ne… https://t.co/h37wgZpfH6,1241240358509596672
@alenaschillerov,"@alenaschillerov Prominutí zálohy je ok, ale pomůže to lehce vylepšit cash-flow jenom tomu, kdo měl výraznou daňovo… https://t.co/u7fkmVn0XQ",Zítra navrhnu vládě prominutí zálohy na daň z příjmů fyzických i právnických osob. A to za druhé čtvrtletí roku 202… https://t.co/yvfTxZy9Ld,1241240358509596672
@adamvojtechano,"@adamvojtechano Dnešní Guardian: https://t.co/QRxghMv2sQ Oni snad začnou až po hromadě mrtvých chápat, že to tady v… https://t.co/4RSRGmIvRg","Aktuálně. V ČR je 3 869 nakažených. Včera bylo provedeno nejvíce testů od začátku epidemie, konkrétně 6 291. Poziti… https://t.co/i0auqwHXEX",1241240358509596672
@kalousekm,"@kalousekm @mrazikmirek @hrusks Likvidita je fajn, ale pokud Vám začnou masově kolabovat zejména podnikatelské úvěr… https://t.co/OTYk244GE7",@mrazikmirek @hrusks O ty naše se nebojím. Mají vysokou kapitálovou přiměřenost a ČNB je schopná dodat jim v případ… https://t.co/HjtLxgHCyW,1241240358509596672
