category,comment_body,parent_body,poster_name
@adamvojtechano,"@adamvojtechano @AndrejBabis pekny den,
Dr. Peková jeste pracuje, nebo ste uz zaklekli?",Aktuálně ke koronaviru. Počet nakažených stoupl na 904. Stále platí 4 vyléčení. Za včerejší den jsme vyšetřili 2 08… https://t.co/a1BH7Siwbl,1241299544681349120
