category,comment_body,parent_body,poster_name
@kalousekm,"@kalousekm @AndrejBabis Vy už jste za dobu svého působení napáchal takových škod,  že radši zůstaňte tam kde jste a… https://t.co/ystTPzq3bc","Já jsem byl při minulé krizi hodně drsný, možná až moc. Prosadil jsem snížení příjmů všem o 4-15%. Ale nikdy by mě… https://t.co/ZSx9C3Zc92",1241687333394624513
@adamvojtechano,@adamvojtechano Držím pěsti 👍👍👍,"Remdesivir v ČR! Všeobecná fakultní nemocnice ho začíná podávat pacientovi s těžkým průběhem onemocnění. Doufejme, že zabere.",1241687333394624513
