category,comment_body,parent_body,poster_name
@AndrejBabis,"@AndrejBabis Zdravím pane Babiš můžete mi poradit. Jsme občan ČR a máme přechodný pobyt v Německu, můžeme jednorázo… https://t.co/nxfmVjb7QN","V Jeně zavádějí povinné zakrytí úst a nosu a vyzývají občany, ať je šijí pro sebe a pro ostatní 👍 https://t.co/fmCeyD9vkW",1245081859857489920
@adamvojtechano,@adamvojtechano Doufám že jim řekněte že ste obyčejným lidem co nejsou v první linii roušky nedaly.,Češi jako světoví rouškaři! Světová média vyzdvihují naše opatření k povinnému nošení pokrývky úst a nosu. Je úžasn… https://t.co/hDJXSlS7kj,1245081859857489920
@adamvojtechano,@adamvojtechano Co z toho a dalších 1000 pribyde i když nosí roušky jak je to ale mozne,67 vyléčených!,1245081859857489920
@adamvojtechano,@adamvojtechano Jooo na místě je to ze zase nic nevíte,"Určitě je namístě prodloužit nouzový stav o 30 dní. Stále ještě nejsme za vrcholem epidemie, byť nás aktuální vývoj… https://t.co/w1aqyOwxsY",1245081859857489920
