category,comment_body,parent_body,poster_name
@AndrejBabis,@AndrejBabis Přestane se pěstovat řepka? Prznit nafta a benzín biosložkami? Zruší se dotace solárníkům? Neziskovkám… https://t.co/LpCEXzyJVN,"Mám něco na srdci. Sledujte dnes ve 20.05 můj mimořádný projev. Česká televize, Nova, Prima a Český rozhlas Radiožu… https://t.co/JB2jLZGW1O",1294114764
@alenaschillerov,@alenaschillerov Zálohy na daň jsou nemravné z principu,Zítra navrhnu vládě prominutí zálohy na daň z příjmů fyzických i právnických osob. A to za druhé čtvrtletí roku 202… https://t.co/yvfTxZy9Ld,1294114764
@kalousekm,@kalousekm @ArchaVt https://t.co/OLegGQyRAf,Pojďme všichni té potvoře přestat říkat COVID-19 a pojďme jí nazývat pravdivě a srozumitelně “Čínská chřipka”. Bylo… https://t.co/HIQY5Ps4m5,1294114764
@adamvojtechano,"@adamvojtechano @strakovka Nestačí pouze zrušit přímé lety. Je třeba zavést plošné hraniční kontroly a zjišťovat, j… https://t.co/LsP0IfRaHn","Vydali jsme opatření, která vychází z ranní BRS. Od 5.3. rušíme lety z Jižní Koreje a severní Itálie. Bohužel kvůli… https://t.co/6Ox5cOFS97",1294114764
@adamvojtechano,@adamvojtechano https://t.co/bOu94YRBeW,"Pár čísel ke koronaviru k dnešnímu ránu. Celkem 6 302 vyšetřených pacientů, 383 pozitivních a 3 vyléčení. Sledujte 👉 https://t.co/3mbH9UJyt1",1294114764
