category,comment_body,parent_body,poster_name
@adamvojtechano,"@adamvojtechano Můžete jít laskavě do háje s tím vaším do práce a z práce... Je vám vůbec jasné, kolik lidí přišlo… https://t.co/6fBfSta182","Situace, ve které jsme se kvůli koronaviru ocitli, je pro nás úplně nová. Natočili jsme pro vás proto video🎥, jak s… https://t.co/uSx6TKMH2y",15041419
@adamvojtechano,"@adamvojtechano @Bazilis @ZdravkoOnline @IBM Milá Anežko, můžeš mi říct, od kdy naši zemi řídí nemehla...?",Ode dneška můžete pokládat dotazy také naší virtuální sestřičce Anežce.👩‍⚕️Je na stránkách @ZdravkoOnline ke korona… https://t.co/4ykGi5Lbgp,15041419
