category,comment_body,parent_body,poster_name
@adamvojtechano,@adamvojtechano @Andrea96015307 Čínské roušky do každé rodiny!,"I když každý den sledujeme nárůst pozitivních případů, postupně se objevují i dobré zprávy. Vyléčil se čtvrtý pacie… https://t.co/LXC5twix9L",1935040561
@adamvojtechano,"@adamvojtechano Je možné použít potápěčské brýle a šnorchl, právě jsem ho našel ve sklepě?","Pár důležitých pravidel. Jestli můžete, co nejvíce zůstávejte doma a nechoďte mezi lidi. Pokud to nejde, při odchod… https://t.co/OXT0uKCQjV",1935040561
