category,comment_body,parent_body,poster_name
@AndrejBabis,"@AndrejBabis @strakovka Ideální skupinka tak nám potom.dejte vědět prosím 
https://t.co/Nxkcelo03m",Na dnešní mimořádné jednání vlády jsme pozvali ředitele Státního zdravotního úřadu a ředitele hygienických stanic P… https://t.co/7EczWInx4c,19542164
@adamvojtechano,@adamvojtechano Počet testů je něco jiného než počet (o)testovaných. Klasick7 Master Data Management problém a prob… https://t.co/b78zxrrgvV,Podíl pozitivních záchytů z celkového počtu provedených testů je stabilní a v posledních dnech klesá. Při srovnání… https://t.co/w6YMwnDYI2,19542164
@alenaschillerov,"@alenaschillerov @strakovka @vnitro Já já já jenom jááááá, fandím si sám... 
https://t.co/ca9eUKB2es","Na nákup ochranných prostředků jsem pro @vnitro z vládní rozpočtové rezervy uvolnila dalších 4,3 miliardy korun, ce… https://t.co/dw6Jj6sf04",19542164
@adamvojtechano,"@adamvojtechano @ZdravkoOnline Nevím jaké predikce jste viděli, ale že by  v nich bylo napsáno že jste ""schopni zam… https://t.co/Vny8GVItcU","Viděli jsme predikci vývoje onemocnění. Jasně z toho vyplývá, že pokud nyní uděláme razantní kroky, jsme schopni za… https://t.co/E1D7ZougAr",19542164
@adamvojtechano,@adamvojtechano Jste sráč. Omlouvám se ostatním za použitý výraz ale je to tak.,Omlouvám se paní doktorce z laboratoře Tilia. Bohužel jsem od kolegů dostal špatnou informaci. Spletl jsem se a mrz… https://t.co/w7oYoNGChw,19542164
