category,comment_body,parent_body,poster_name
@PiratIvanBartos,@PiratIvanBartos @AndrejBabis Mozna by mohli Ti clenove KDU CSL kteri pro Burese hlasovali aby mohl sedet ve vlade… https://t.co/TMkoXVHQjS,"Pane @AndrejBabis, k nehorázným výrokům na adresu českých europoslanců: upozornit na vaše zlodějiny není zrada vlas… https://t.co/Z7UrG11ZoB",235078988
@PiratIvanBartos,@PiratIvanBartos @honzabartosek @PiratskaStrana A ty blaboly o Stalinovi jsou ok?,@honzabartosek @PiratskaStrana Izrael je náš důležitý partner a přítel České republiky. Toto je 11 let starý screen… https://t.co/BGFmunHQCn,235078988
@PiratIvanBartos,@PiratIvanBartos @honzabartosek @PiratskaStrana Hele jeste jeden dotaz. Optali jste se s Tozicky na jeho nazor na b… https://t.co/Nef1PrS6rI,@honzabartosek @PiratskaStrana Izrael je náš důležitý partner a přítel České republiky. Toto je 11 let starý screen… https://t.co/BGFmunHQCn,235078988
@AndrejBabis,@AndrejBabis To neni Vase vlajka.,"Zítra to bude 100 let, co se zrodila a byla uzákoněna naše státní vlajka. Na tuto počest jsme na Kramářovu vilu vyv… https://t.co/AhA0CTnSFq",235078988
@adamvojtechano,"@adamvojtechano @NaBulovce Kdy podate rezignaci, amatere?","S panem prof. Prymulou intenzivně řešíme narůstající počet nakažených seniorů. Domluvili jsme kapacity @NaBulovce,… https://t.co/Joxa8cMAFw",235078988
@alenaschillerov,@alenaschillerov #Demisi,"Dobře vím, že peníze dnes jsou důležitější než peníze zítra. V těžké době to platí dvojnásob. Vládě proto navrhnu z… https://t.co/xzlc8q4NB7",235078988
@AndrejBabis,@AndrejBabis Vrat se domu Mongole,"Mám něco na srdci. Sledujte dnes ve 20.05 můj mimořádný projev. Česká televize, Nova, Prima a Český rozhlas Radiožu… https://t.co/JB2jLZGW1O",235078988
@adamvojtechano,@adamvojtechano https://t.co/cyX463LMhQ,"Téměř 1 000 000 ks roušek, respirátorů, rukavic a dalších ochranných pomůcek jsme do této doby doručili nemocnicím,… https://t.co/EgNpqyFEun",235078988
@adamvojtechano,@adamvojtechano https://t.co/VpihRwEJAC,Dnes jsou to přesně 3 týdny od prvních případů koronaviru v ČR. Počet nakažených ráno překročil tisíc a k večeru vz… https://t.co/iJILdDog4R,235078988
@AndrejBabis,@AndrejBabis https://t.co/ToYyshiO2z,"Mám něco na srdci. Sledujte dnes ve 20.05 můj mimořádný projev. Česká televize, Nova, Prima a Český rozhlas Radiožu… https://t.co/JB2jLZGW1O",235078988
@AndrejBabis,@AndrejBabis @MPKretschmer Proc zase resite Slovaky?,"Mluvil jsem se saským premiérem @MPKretschmer o tom, jak si můžeme vzájemně pomoci. Jsme solidární a zatím nechávám… https://t.co/J1NDUd4x2d",235078988
@adamvojtechano,@adamvojtechano #Demisi,"Dnes naskladněno: 150 tisíc roušek, 140 tisíc rukavic, kamion dezinfekce a v noci přijede ještě 100 tisíc respiráto… https://t.co/XsQFOXyxoM",235078988
@adamvojtechano,@adamvojtechano @FilipHorky @AndrejBabis @jhamacek Odstupte driv nez Vas Bures sunda sam.,"@FilipHorky @AndrejBabis @jhamacek Omlouvám se, ale z čeho vychází tato čísla? Všechna čest panu ministru Hamáčkovi… https://t.co/EKgmCvOPBW",235078988
@adamvojtechano,@adamvojtechano Pristi tyden Vam da Bures padaka protoze krome toho ze jste kolaborant jste i zabrzdenec.,"Téměř 1 000 000 ks roušek, respirátorů, rukavic a dalších ochranných pomůcek jsme do této doby doručili nemocnicím,… https://t.co/EgNpqyFEun",235078988
@AndrejBabis,@AndrejBabis Neverte StBackejm konfidentum lidi!,"Někdo šíří po Facebooku nepravdivou zprávu, že budeme zavírat obchody. Není to pravda, nic takového jsme neřekli a… https://t.co/GKV8BWPAMg",235078988
@adamvojtechano,@adamvojtechano StBackej kolaborante odejdi dekuji,Dnes opět jednala Ústřední epidemiologická komise ohledně šíření koronaviru. Stále se intenzivně věnujeme jednotliv… https://t.co/rm4UzYtdtp,235078988
@PiratIvanBartos,@PiratIvanBartos https://t.co/03Ifb6Ckq3,"RP Pirátů se dnes usneslo, že požádá Tomáše Tožičku o stažení jeho kandidatury. Tomáš Tožička této žádosti vyhověl.… https://t.co/1hwn5cFDMC",235078988
@adamvojtechano,@adamvojtechano @hotovson https://t.co/LLsSMIZYmv,"Sešel jsem se se zástupci všech poskytovatelů zdravotní péče. Řešili jsme ochranné pomůcky. Ujistil jsem je, že int… https://t.co/B5LJhjDXbJ",235078988
@adamvojtechano,@adamvojtechano @metnarl @jhamacek #Demisi,"Letiště Kbely, 2:00h. Dorazila důležitá zásilka. 150 000 ks rychlotestů. Společně s @metnarl a @jhamacek jsme u hoh… https://t.co/wzpmbrsjeG",235078988
@adamvojtechano,@adamvojtechano Odstupte. Jste smesnej.,"Jak by vypadal vývoj onemocnění, když bychom seděli se založenýma rukama? Tento obrázek to pěkně vystihuje. Proto t… https://t.co/KpXVhrg8Tp",235078988
@adamvojtechano,@adamvojtechano #Demisi,"Intenzivně pracujeme na dodávkách ochranných pomůcek. Na cestě je 16 kamionů s 1,4 mil. respirátorů a 2,2 mil. úste… https://t.co/qByQsxtpPI",235078988
@adamvojtechano,@adamvojtechano https://t.co/Mzgg80GFK1,Ochota pomoci je v těchto dnech naprosto neskutečná. Dnes se nám třeba ozvala firma https://t.co/fO7q6SnmYk a nabíd… https://t.co/JlCfb1f3uI,235078988
@adamvojtechano,@adamvojtechano #Demisi,Musíme bez výjimky chránit sebe a své okolí! Vláda právě schválila povinnost mít od dnešní půlnoci na veřejných mís… https://t.co/wMdOjv03qT,235078988
@adamvojtechano,@adamvojtechano https://t.co/5b62QeBeL6,Aktuálně máme v ČR 522 potvrzených pacientů s koronavirem. Od rána jejich počet vzrostl o 58. 👉 https://t.co/3mbH9UJyt1,235078988
@adamvojtechano,@adamvojtechano https://t.co/QxbXRAYmBJ,Právě jsme zajistili 82 000 roušek pro sociální služby. Nejpozději zítra začne jejich distribuce do terénu. Roušky… https://t.co/aKgZyomjtV,235078988
@AndrejBabis,@AndrejBabis @ObranaTweetuje Vladnou nam nemehla,"Absolutně s tím nesouhlasím, zastavil jsem to a projednávat to SAMOZŘEJMĚ nebudeme. Nevím, proč teď @ObranaTweetuje… https://t.co/L70sJ1478t",235078988
@adamvojtechano,@adamvojtechano https://t.co/snIpmCV5aw,"Termokamery jsme objednali u švýcarské společnosti, nikoliv čínské. Pro MZ je prioritou spolupracovat s českými výr… https://t.co/iwnubPvtz2",235078988
@adamvojtechano,@adamvojtechano StBackym kolaborantum neverim.,"Viděli jsme predikci vývoje onemocnění. Jasně z toho vyplývá, že pokud nyní uděláme razantní kroky, jsme schopni za… https://t.co/E1D7ZougAr",235078988
@PiratIvanBartos,@PiratIvanBartos https://t.co/fuvSsbQD0P,"Vláda musí umět učinit i nepopulární věci. Bude to bolet, ale bez zpřísnění opatření včetně nouzového stavu by situ… https://t.co/fSeJAGjMFy",235078988
