category,comment_body,parent_body,poster_name
@AndrejBabis,"@AndrejBabis @CzechTV @RobertPlaga Tyvole Andreji, tohle mi nedělej. Dyť já už mu balim kufry!","Obrátil se na mě ředitel @CzechTV pan Petr Dvořák s návrhem, že jsou schopni zrealizovat od příštího týdne vysílání… https://t.co/HnfK1XuyG7",2433437610
@adamvojtechano,"@adamvojtechano Vojtěchu! Ty si neměl špatnou informaci, ty si jí chtěl prostě sejmout. Jako ne že bych tohle neděl… https://t.co/HK3L2Pdx6U",Omlouvám se paní doktorce z laboratoře Tilia. Bohužel jsem od kolegů dostal špatnou informaci. Spletl jsem se a mrz… https://t.co/w7oYoNGChw,2433437610
