category,comment_body,parent_body,poster_name
@adamvojtechano,"@adamvojtechano @mpo_tweetuje @CzechInvest_CZ https://t.co/gptzQ50pIW
Opozice připomíná, že jí vláda zamázla schůzi ke koronaviru ...","Super! Děkuji vědcům ČVUT, @mpo_tweetuje a @CzechInvest_CZ za pomoc a těšíme se na první dodávku.👍 https://t.co/FIMKv8e38F",24379027
@alenaschillerov,"@alenaschillerov https://t.co/gptzQ50pIW
Opozice připomíná, že jí vláda zamázla schůzi ke koronaviru ...",Především pracovníkům v první linii patří omluva za nedostatek ochranných pomůcek. Bohužel je to realita většiny po… https://t.co/Lxj9USI7KD,24379027
@adamvojtechano,@adamvojtechano @strakovka https://t.co/ztwiXPcG6R,"Právě jsem podepsal výjimky z mimořádného opatření týkající se karantény pro ty, kteří se vrací z Itálie. Opatření… https://t.co/8NBIXCvZVB",24379027
