category,comment_body,parent_body,poster_name
@alenaschillerov,"@alenaschillerov @MinFinCZ @snemovna Zajimave, jak narizeni, ktere dle tech, ktere to prosadili, narovnana prostred… https://t.co/NxzrWuBhTQ",Sněmovní rozpočtový výbor právě schválil návrh @MinFinCZ pozastavit EET na dobu nouze a další tři měsíce. Chceme ta… https://t.co/TeJhHOAocL,2472451770
@alenaschillerov,"@alenaschillerov @MinFinCZ @snemovna Zajimave, jak narizeni, ktere dle tech, ktere to prosadili, narovnana prostred… https://t.co/gvxucUREnc",Sněmovní rozpočtový výbor právě schválil návrh @MinFinCZ pozastavit EET na dobu nouze a další tři měsíce. Chceme ta… https://t.co/TeJhHOAocL,2472451770
@adamvojtechano,"@adamvojtechano @AndrejBabis Mycky automobilu fakt nechapu. U nas se nezastavi, jak je den dlouhy, vsichni tam po s… https://t.co/04hiLutBmH","Prodloužili jsme zákaz maloobchodního prodeje a prodeje služeb v provozovnách, s výjimkou vybraných prodejen. Nově… https://t.co/djJranT5ks",2472451770
@adamvojtechano,@adamvojtechano @AndrejBabis @JStredula @infocz_web @VrataDostal @tripartita_cz @ZdravkoOnline @odbory @UnieCr… https://t.co/LUAHnIGBlP,@JStredula @infocz_web @VrataDostal @tripartita_cz @ZdravkoOnline @odbory @UnieCr @JMalacova @mpsvcz @SestryOnline… https://t.co/6rlvIlrUOP,2472451770
@alenaschillerov,"@alenaschillerov @AndrejBabis @financnisprava To neni ani na najem jak doma, tak v praci, LOL.","Paletu opatření na podporu zaměstnanosti, ekonomiky a podnikání rozšiřujeme o přímou pomoc OSVČ, kterým vládní opat… https://t.co/aFuqnA4KzS",2472451770
@adamvojtechano,@adamvojtechano @AndrejBabis Moravskoslezske nemocnice maji utrum,"4 kamiony roušek, které v noci přiletěly z Číny na pardubické letiště, jsou ve skladu Správy státních hmotných reze… https://t.co/t1sM7ll0iC",2472451770
@adamvojtechano,@adamvojtechano @ZdravkoOnline @Prusa3D,"Doručeno do ČR celkem za MZ: 11 000 000 roušek, respirátorů a dalších ochranných pomůcek. Odeslané objednávky máme… https://t.co/MR8kOGxHUc",2472451770
@adamvojtechano,@adamvojtechano @AndrejBabis A uz maji ochranne pomucky? Nebo za to muzou taky sestry?,Odborná péče lékařů Všeobecné fakultní nemocnice a léčba lékem Remdesivir zabrala. Stav pacienta ve VFN se zlepšil!,2472451770
@adamvojtechano,"@adamvojtechano @AndrejBabis Kolik krabic jste sam naskladnil, pane kinistre?","Večerní návštěva plného skladu v Sedlčanech. Dnes jsme tady naskladnili stovky tisíc roušek, respiratorů a obleků p… https://t.co/rKVgvDXJxo",2472451770
@adamvojtechano,"@adamvojtechano @AndrejBabis Kolik krabic jste odnosil, kdyz uz jste tam byl? A nestojite od sebe dva metry, fotit… https://t.co/EBaHEOyutN","Večerní návštěva plného skladu v Sedlčanech. Dnes jsme tady naskladnili stovky tisíc roušek, respiratorů a obleků p… https://t.co/rKVgvDXJxo",2472451770
@AndrejBabis,"@AndrejBabis Krast,?","Kdo máte přátele, známé, rodinu nebo obchodní partnery v zahraničí, pošlete jim tohle důležité video. Každý v Evrop… https://t.co/0Gl3u0GwLV",2472451770
@adamvojtechano,@adamvojtechano @AndrejBabis Nesedite od sebe dva metry!,Podepsáno. Obdržíme darem 30 000 ks speciálních nanovlákenných roušek a od dubna bude česká společnost Respilon naš… https://t.co/lQb0J0tM9w,2472451770
@adamvojtechano,@adamvojtechano @AndrejBabis @ZdravkoOnline Takze plicni v Thomayerce konecne dostane? @jhamacek @ondrej_profant,Právě teď sedíme s kolegy na @ZdravkoOnline a připravujeme zítřejší distribuci další várky ochranných prostředků. Z… https://t.co/cQJsrWsVDQ,2472451770
@alenaschillerov,"@alenaschillerov @AndrejBabis @SenatCZ Zajimave, ze to, co podnikatelum nepridelava zadnou praci a co narovnava pro… https://t.co/vUAIhLczlh",Také @SenatCZ odsouhlasil dočasné pozastavení EET. Podnikatelé nebudou muset evidovat své tržby po dobu nouzového s… https://t.co/XTilLhkuHR,2472451770
@adamvojtechano,@adamvojtechano @AndrejBabis @CVUTPraha @ZdravkoOnline A thomayerka dostane na plicni? @ondrej_profant,A je to tady. Dodávka prvních 600 ks respirátorů nejvyšší kvality pro naše fakultní nemocnice z dílny @CVUTPraha a… https://t.co/3104VkY4k8,2472451770
@adamvojtechano,@adamvojtechano @AndrejBabis Zentiva uz davno neni cesky vyrobce.,"Podařilo se nám od dubna zajistit o 30 % větší dodávky paracetamolu na český trh, než doposud. Dnes vydaný specific… https://t.co/xjmjW4KFFl",2472451770
@AndrejBabis,"@AndrejBabis Se divim, ze mu ta firma nekrachla.",Dnešní rozhovor pro MF DNES. https://t.co/6gExgAzWyL,2472451770
@adamvojtechano,@adamvojtechano @AndrejBabis Nasi Hasici maji i americke uniformy?,V noci bezpečně přistálo letadlo Smartwings s dalším ochranným materiálem. Místo cestujících přivezlo 700 000 rouše… https://t.co/yrziVeX83t,2472451770
@adamvojtechano,"@adamvojtechano @AndrejBabis Takze jako ten sklad tricet let nefungoval? To jste borci, ze jste ho ze dne na den postavili.",Za 10 dní fungování meziskladu Státní správy hmotných rezerv jím při zásobování nemocnic prošlo 2 mil. kusů zdravot… https://t.co/2ZsdVtmAC3,2472451770
@adamvojtechano,@adamvojtechano @ZdravkoOnline To neni helikoptera @PolicieCZ,Rychlá zásilka: Z meziskladu Správy státních hmotných rezerv v Sedlčanech právě odletělo 3000 ks respirátorů FFP3 d… https://t.co/9xBKL6KjJS,2472451770
@adamvojtechano,@adamvojtechano @ZdravkoOnline Ja vcera slysel dva odbery behem 48 hodin. Jaka je pravda tedy?,Máme první 3 uzdravené z Covid-19! Všichni měli 2 odběry s 9denním odstupem s negativním výsledkem. Nyní již bývalí… https://t.co/hrVXYcs6jA,2472451770
@adamvojtechano,"@adamvojtechano @AndrejBabis Ty vado dalsi adresa, nemuzete mit jen jednu?","Pár čísel ke koronaviru k dnešnímu ránu. Celkem 6 302 vyšetřených pacientů, 383 pozitivních a 3 vyléčení. Sledujte 👉 https://t.co/3mbH9UJyt1",2472451770
@adamvojtechano,"@adamvojtechano @ZdravkoOnline Karantena opravdu funguje, vsichni ji pilne dodrzuji. Mozna by nebylo marne, aby ta… https://t.co/8sKVYWOE6g","Pár důležitých pravidel. Jestli můžete, co nejvíce zůstávejte doma a nechoďte mezi lidi. Pokud to nejde, při odchod… https://t.co/OXT0uKCQjV",2472451770
@PiratIvanBartos,"@PiratIvanBartos Mohu poprosit predsedu jedne z parlamentnich stran o odkaz na dokumenty komplexne vysvetlujici, co… https://t.co/P5g6ooPgp2","Již několik dní marně apelujeme na vládu, aby svolala Ústřední krizový štáb. Ten by pomohl zapojit i řadu odborníků… https://t.co/daFK9UTBGP",2472451770
@adamvojtechano,"@adamvojtechano @AndrejBabis @ZdravkoOnline 6 mikrofonu, dva tablety, jedna televize. Mne staci mobil a sluchatka. 🙈😷",Jednáme bezpečně a zodpovědně! Dnešní schůze vlády ČR proběhla online. Situace to bohužel vyžaduje. S kolegy jsem t… https://t.co/SEwnOmVUuB,2472451770
@alenaschillerov,@alenaschillerov @AndrejBabis Jestw to chtelo rozmazat misto a data,"Dostávám naléhavé zprávy, že někteří zaměstnavatelé zneužívají kurzarbeit jako falešnou záminku k uzavření nepřijat… https://t.co/takAGTDXWX",2472451770
@alenaschillerov,@alenaschillerov @JMalacova @JStredula Jsou jich desetitisice,Ale rozhodně ne s odkazem na program Antivirus! Ten pouze nastavuje vztah mezi zaměstnavatelem a státem. Apeluji na… https://t.co/IsAzINPJec,2472451770
@adamvojtechano,"@adamvojtechano @AndrejBabis Dobry den, muzete kolegy jmenovat?",Omlouvám se paní doktorce z laboratoře Tilia. Bohužel jsem od kolegů dostal špatnou informaci. Spletl jsem se a mrz… https://t.co/w7oYoNGChw,2472451770
@adamvojtechano,@adamvojtechano @AndrejBabis A na migranty se to vztahuje nebo ne?,"Právě jsem podepsal výjimky z mimořádného opatření týkající se karantény pro ty, kteří se vrací z Itálie. Opatření… https://t.co/8NBIXCvZVB",2472451770
