category,comment_body,parent_body,poster_name
@AndrejBabis,"@AndrejBabis @realDonaldTrump Radsi si zkrotte ministra zdravotnictvi, at se nehada zbytecne s Hamackem.","Mr. President @realDonaldTrump, try tackling virus the Czech way. Wearing a simple cloth mask, decreases the spread… https://t.co/j0TkxlDlbI",253799294
@adamvojtechano,"@adamvojtechano @PREZIDENTmluvci A to tweetujete z jednani? Kdy budeme vedet, jaka prava budeme mit za hodinu?","Jak by vypadal vývoj onemocnění, když bychom seděli se založenýma rukama? Tento obrázek to pěkně vystihuje. Proto t… https://t.co/KpXVhrg8Tp",253799294
@adamvojtechano,"@adamvojtechano A neslo by aspon jednou poskytnout informace vcas? A nevyhlasovat vsechno v noci? Chcete, abysme ta… https://t.co/EcIuLKhddq",Stále pro vás vylepšujeme info na webu https://t.co/6AWnWnfALC. Nově jsou stránky i v angličtině. Chceme být také r… https://t.co/vivjEAtM2M,253799294
@alenaschillerov,"@alenaschillerov Takže úroky se budou platit stejně, případně je zaplatíme později.",Vláda dnes schválila můj návrh na vyhlášení moratoria na splácení úvěrů a hypoték. Po schválení Parlamentem a nabyt… https://t.co/Jmm27GMcjm,253799294
