category,comment_body,parent_body,poster_name
@PiratIvanBartos,@PiratIvanBartos @AndrejBabis V jakém případě se budeme skládat na ty hamižnosti? Kvůli hlouposti vašich europoslan… https://t.co/g6CMqwkXYx,"Pane @AndrejBabis, k nehorázným výrokům na adresu českých europoslanců: upozornit na vaše zlodějiny není zrada vlas… https://t.co/Z7UrG11ZoB",2824504154
@adamvojtechano,"@adamvojtechano @david_ryc Pane @david_ryc nemáte pocit, že byste se měl omluvit? Chápu, že jste ve stresu, který j… https://t.co/AgOkOtnpan","@david_ryc Výsledky testů jsou ihned, jak se je dozvíme, předány nemocnici, lékařům pacienta. Až následně o případe… https://t.co/DSkXllm6G7",2824504154
@adamvojtechano,@adamvojtechano Ještě přitvrďte. Děláte to dobře. Na vědomí: @MirekTopolanek 😂,"Současná epidemiologická situace vyžaduje, abychom nadále nechali zavřené obchody, omezený volný pohyb a také omeze… https://t.co/QRXYfRgCAi",2824504154
@AndrejBabis,"@AndrejBabis @Markus_Soeder Proč oni říkají, že není nutné? Mají jich nedostatek?","Právě jsem mluvil s Angelou Merkelovou a @Markus_Soeder. Bavorsko postupně zavádí opatření, která kopírují ta česká… https://t.co/TSnM1C0b6V",2824504154
@adamvojtechano,"@adamvojtechano @TomZdechovsky @infocz_web Dejte na TW Vaši odpověď pane @TomZdechovsky . Je lež, že se MZ ČR přihlásilo 6. února?","@TomZdechovsky @infocz_web Lžete Vy, vážený pane europoslanče a měl byste se za to omluvit. MZ ČR se přihlásilo do… https://t.co/g9cj7JHM2E",2824504154
@PiratIvanBartos,"@PiratIvanBartos Jen zájmy Pirátů, jsou zájmy země?","(Opozice se sjednotila, shodla na několika jménech, ale ANO se nebylo ochotno dohodnout. Zájem strany je pro ně mnohem víc než zájem země.)",2824504154
@PiratIvanBartos,@PiratIvanBartos @P_Fiala @market_a @Vit_Rakusan Šátek jste oprášil. Nechybí Vám ještě v ruce nějaká vlajka?,"Vyzýváme vládu, aby říkala pravdivé informace o skutečném stavu zásob ochranných pomůcek pro pracovníky v ohroženýc… https://t.co/ljSdhTPmkZ",2824504154
@adamvojtechano,"@adamvojtechano Někteří tu předhazují roušky v rakouských obchodech zdarma. Pochybuji, že je mají od vlády, dává je… https://t.co/w6JmOmcsoc",Češi jako světoví rouškaři! Světová média vyzdvihují naše opatření k povinnému nošení pokrývky úst a nosu. Je úžasn… https://t.co/hDJXSlS7kj,2824504154
@PiratIvanBartos,"@PiratIvanBartos @adamvojtechano Co to plácáte, do kdy vyhlašovala WHO, že se nejedná o pandemii? My jsme měli v té… https://t.co/6VL1hPK3mN","@adamvojtechano To myslíte vážně, že to nikdo nemohl předpokládat? Evropské středisko pro prevenci a kontrolu nemoc… https://t.co/VkdfmHRSUX",2824504154
@tomio_cz,"@tomio_cz Odkud ty tři pistole má? Jestli je dostal od Richarda Hávy, uvedl to ve svém daňovém přiznání?",Pan Kalousek se snad připravuje na ozbrojené povstání proti vládě... Lze na to vůbec něco říci? Co byste panu Kalou… https://t.co/tncp6UzJ92,2824504154
@adamvojtechano,"@adamvojtechano Je tady spousta pošuků, kteří vědí co by se mělo dělat a nadávají. Já Vám za Vaši práci a práci Vašich kolegů děkuji.","Viděli jsme predikci vývoje onemocnění. Jasně z toho vyplývá, že pokud nyní uděláme razantní kroky, jsme schopni za… https://t.co/E1D7ZougAr",2824504154
@PiratIvanBartos,"@PiratIvanBartos Jste si jist, že nedodržuje? Nebo si to jenom myslíte jako Wagenknecht a Ondračka? Zatím jste se m… https://t.co/HUoI9Ckg9e",Takže zákon o střetu zájmů je zcela v souladu s Ústavou. Nyní zbývá jen aby si pan premiér přestal vymýšlet a začal jej dodržovat.,2824504154
