category,comment_body,parent_body,poster_name
@adamvojtechano,"@adamvojtechano Co se týká mikrofirem, budou-li mikrofirmam poskytnuté stejne úlevy?","Epidemie koronaviru přinesla nejen vysoká zdravotní rizika, ale také nemalé celospolečenské náklady. Teď musíme být… https://t.co/RW4oLWbbax",2860580944
@adamvojtechano,@adamvojtechano Budou-li mikrofirmam poskytnuté stejne úlevy?,"Osoby samostatně výdělečně činné tak za každý měsíc ušetří 2 352 Kč, dohromady 14 112 Kč. Ty osoby samostatně výděl… https://t.co/xbmlWypq3a",2860580944
