category,comment_body,parent_body,poster_name
@adamvojtechano,"@adamvojtechano @CIIRCCTU Radši zavřete Prahu do karantény! 
Pražáci se tahají po celé ČR, protože neumí sedět doma… https://t.co/bHzHIRcR8h",Skvělé práce našich vědců z @CIIRCCTU si všímají ve světě. Prvních 600 kusů jejich respirátorů FFP3 již od tohoto t… https://t.co/3WHcXWDg8M,2923242653
@adamvojtechano,@adamvojtechano @ZdravkoOnline To to trvalo🥺,Představuji vám náš obchodní tým @ZdravkoOnline. 24 hodin denně sledují trh a nakupují všechny dostupné respirátory… https://t.co/YEnvnBlo5C,2923242653
