category,comment_body,parent_body,poster_name
@adamvojtechano,"@adamvojtechano Můžete zjistit, proč je v nemocnici v Brně propustili?","Vydali jsme opatření, která vychází z ranní BRS. Od 5.3. rušíme lety z Jižní Koreje a severní Itálie. Bohužel kvůli… https://t.co/6Ox5cOFS97",3025186383
@adamvojtechano,"@adamvojtechano Tak doufám, že bez diváků bude i pražské derby - protože to znamená mnohem větší riziko než biatlon… https://t.co/uGqrdpkzAl","Vydali jsme opatření, která vychází z ranní BRS. Od 5.3. rušíme lety z Jižní Koreje a severní Itálie. Bohužel kvůli… https://t.co/6Ox5cOFS97",3025186383
