category,comment_body,parent_body,poster_name
@adamvojtechano,@adamvojtechano Pán nalevo se chrání snad i proti Cyklonu B...,Odborníci z ČVUT vyvinuli respirátor na 3D tiskárně. Speciální filtr vydrží asi týden. Je to ještě vyšší ochrana ne… https://t.co/h37wgZpfH6,3072809901
@adamvojtechano,"@adamvojtechano A Prymula si myslí, že budou školáci schopní v půlce května nastoupit. Co jsem se dočetl, tak máme… https://t.co/rVMu9KNAXT",Dnes jsou to přesně 3 týdny od prvních případů koronaviru v ČR. Počet nakažených ráno překročil tisíc a k večeru vz… https://t.co/iJILdDog4R,3072809901
@adamvojtechano,"@adamvojtechano Aby se to začalo snižovat, lidé by museli dodržovat karanténu. Každopádně dobrá práce. 

https://t.co/XBfctKucBK","Mám čerstvá data ke koronaviru. K dnešnímu ránu je 464 pozitivních pacientů, to je v porovnání se včerejšími ranním… https://t.co/QP6SQTtoLw",3072809901
