category,comment_body,parent_body,poster_name
@adamvojtechano,"@adamvojtechano Aaa, tak to jo","Zastavujeme lety z Milána, Bergama, Benátek, Boloni a Jižní Koreje kvůli šíření koronaviru. Rozhodli jsme to dnes n… https://t.co/hHdxV7PjbS",3179202759
@adamvojtechano,@adamvojtechano Muzu se zeptat do kdy budou skoly uzavreny?,"Druhé mimořádné opatření od zítřka zakazuje osobní účast studentů na výuce na základních, středních i vyšších školá… https://t.co/ny1YJBgbSc",3179202759
@AndrejBabis,@AndrejBabis @adamvojtechano Drz hubu,"Musíme zařídit dostatek roušek a respirátorů PRO ZDRAVOTNÍKY. Dnes jsem svolal do Motola 98 ředitelů nemocnic, doda… https://t.co/kgYhhYSlvU",3179202759
