category,comment_body,parent_body,poster_name
@AndrejBabis,"@AndrejBabis @KarelHavlicek_ Nevybavuji si, je by třeba něm. kancléřka asistovala u demolice nějakého dál. mostu a… https://t.co/QTzqygV92l","Modernizace D1 jede. Start podle plánu. Před chvílí začala demolice dvou nadjezdů u Humpolce, vyrazil jsem na místo… https://t.co/HfVRqh2JVP",3368929120
@AndrejBabis,"@AndrejBabis Tak Babiši, jak to teda je? Už nám zase lžeš?","Chci upozornit, že na boj s COVID-19 nedává EU ani o korunu víc, než na kolik měly stát nárok už před pandemií. Sch… https://t.co/W9iF3y0cnq",3368929120
@adamvojtechano,"@adamvojtechano @AndrejBabis Vykašli se tiskovky a prohlášení a začni hledat ochranné pomůcky pro doktory, sestry,… https://t.co/pLHiifyOYY","Posílili jsme opatření proti koronaviru. Situace je velmi dynamická, proto jsme zasedli s kolegy ministry ještě v n… https://t.co/hINP2hCEni",3368929120
@AndrejBabis,"@AndrejBabis Může za to Kalousek! To si zapamätajte, nikdy neodstúpím.","Samozřejmě na sítích probíhá účelově zmanipulovaný obrázek od Milionu chvilek, který sdíleli i někteří novináři a m… https://t.co/ZJNGAMkoXh",3368929120
@adamvojtechano,"@adamvojtechano Pozdě, pozdě, pozdě!",Právě jsme zajistili 82 000 roušek pro sociální služby. Nejpozději zítra začne jejich distribuce do terénu. Roušky… https://t.co/aKgZyomjtV,3368929120
@AndrejBabis,"@AndrejBabis Netahej lidi za nos a začni rozvážet respirátory a roušky, ty prolhanej PR-klaune!","Na neděli 16:00 jsem svolal vládu, abychom důkladně vyhodnotili dopady dnešních opatření a doladili detaily o maloo… https://t.co/6II6tjuhYH",3368929120
@alenaschillerov,@alenaschillerov @AndrejBabis Vykašlete se na PR a začněte myslet! V březnu dostane OSVČ peníze na účet za ... niko… https://t.co/U1nrL8pg7g,"Chci vám říct, že všechny vaše reakce a připomínky k programu pro OSVČ Pětadvacítka velmi pozorně vnímám. Program m… https://t.co/MNpfpGrqls",3368929120
@kalousekm,@kalousekm Nešlo by ho dát dohromady s Ovčáčkem? To by byla bezva dvojka.,"Nemohu se s Vámi o tento milý vzkaz nepodělit. Ne proto, že by se mě snad dotkl. Proto ale, abychom si uvědomili, ž… https://t.co/aGTefq1F7G",3368929120
@kalousekm,@kalousekm @AndrejBabis Podlý a zbabělý lhář = #prolhanasvine,"Všichni víme, že premiér @AndrejBabis je podlý a zbabělý lhář. Takže nic nového. Překvapivé však je, že poslední do… https://t.co/jaCdyr8jI1",3368929120
@kalousekm,@kalousekm Syrové netopýre...🤣🤣🤣,Naprosto geniální😂😂😂 To si musíte přehrát. https://t.co/D7SBnoyRFt,3368929120
@kalousekm,"@kalousekm @TOP09cz @EPP_CZ To jste mu to teda nandali. Doufám, že je to jen první krok.","Předsednictvo @TOP09cz přijalo jednomyslně usnesení, že bude podporovat vyloučení strany Fidész V. Orbána z Evropsk… https://t.co/Hf0aFSXLQq",3368929120
@adamvojtechano,"@adamvojtechano Fuj, MZd je tak akorát vzorem totální neschopnosti. Co si lidi sami neušili, to nemají. Že vás hanb… https://t.co/WAjMEAzwPO",Češi jako světoví rouškaři! Světová média vyzdvihují naše opatření k povinnému nošení pokrývky úst a nosu. Je úžasn… https://t.co/hDJXSlS7kj,3368929120
@adamvojtechano,@adamvojtechano @AndrejBabis Asi takhle...buďte slušnej a položte to.,Sleduji prudký nárůst případů koronaviru v Itálii. Během 24 hodin tady onemocnělo 1 247 lidí a 36 lidí zemřelo. Ten… https://t.co/17BaIT4a0P,3368929120
@adamvojtechano,"@adamvojtechano @AndrejBabis Jsou tyhle profese vůči viru imunní? Pokud ne, tak té výjimce nějak nerozumím.","Právě jsem podepsal výjimky z mimořádného opatření týkající se karantény pro ty, kteří se vrací z Itálie. Opatření… https://t.co/8NBIXCvZVB",3368929120
