category,comment_body,parent_body,poster_name
@alenaschillerov,"@alenaschillerov @AndrejBabis Tvl, jakej fiskální prostor? To je jako co, možnost si půjčit ještě víc, než už mám půjčeno?","Navyšujeme rozpočtovou rezervu o 59,3 mld. Kč. Prostředky půjdou na zamezení šíření a řešení dopadů COVID-19. Podpo… https://t.co/DXK01j1g35",3812437829
@adamvojtechano,@adamvojtechano @AndrejBabis Nadprůměrně? Ale ale... Každá osoba je testována vícekrát. Vydělte si 60990 tak cca 3… https://t.co/SKVUTjMbbh,"Aktuálně ke koronaviru: V ČR je 3604 nakažených. Za včerejší den bylo provedeno 5973 testů, celkově už 60 990. V me… https://t.co/yt3zFOwZfv",3812437829
