category,comment_body,parent_body,poster_name
@tomio_cz,@tomio_cz 🤮🤮🤮,Musíme bránit hranice Evropy i naší vlasti! Kvůli pandemii koronaviru i kvůli invazi nezvaných imigrantů. Co myslít… https://t.co/53afeEK5MX,4305364816
@adamvojtechano,@adamvojtechano @ArmadaTweetuje Je zajímavé že dáváš příspěvky když jsi na živo v TV a nemáš u sebe telefon nebo počítač 🤔,"Další pomůcky pro zdravotníky dorazily do ČR. Obří Ruslan dnes přivezl naši objednávku 1 000 000 respirátorů, 550 0… https://t.co/1hfpqYx8gQ",4305364816
