category,comment_body,parent_body,poster_name
@adamvojtechano,"@adamvojtechano Budete nás prosím informovat i o zdravotním stavu vyléčených? Konkrétně by mě zajímalo, zda se vám… https://t.co/TvYmLBHeg2",Odborná péče lékařů Všeobecné fakultní nemocnice a léčba lékem Remdesivir zabrala. Stav pacienta ve VFN se zlepšil!,432599242
@adamvojtechano,"@adamvojtechano Senioři chodí do obchodu na 7 hodin, je to jejich rutina, chtějí stihnout akce. Stejně jako dnes za… https://t.co/NwMjkspLs2",Nová čísla ke koronaviru. V ČR je v tuto chvíli 572 pozitivních pacientů. Stále platí 3 vyléčení. Za včerejšek jsme… https://t.co/b0p0GGBos9,432599242
@adamvojtechano,"@adamvojtechano To je super, ale kdy zavedete ta přísnější opatření? Čekáme na to. Začali jste velmi dobře první dn… https://t.co/iZxjY0zJXB",Z ranní tiskovky: ČR zvládá pandemii velmi dobře. Stávající vývoj počtu pacientů a čerpání kapacity systému zcela o… https://t.co/fKj5e55TkF,432599242
