category,comment_body,parent_body,poster_name
@kalousekm,"@kalousekm @Lukas_92 Ne nebude. ČR má stále korunu a tak jeho rozpočet nefunguje jako rozpočet domácnosti, nebo Řecka.","K slibovaným státním intervencím malá kalkulace:
1. Plánovaný deficit: 40 mld
2. Propad příjmů : 60-100 mld
3. Zvýš… https://t.co/TiEDXqa4Sh",441176802
@adamvojtechano,@adamvojtechano Kdy povolíte Tilia Laboratories opět testovat? Není teď potřebná každá laboratoř?,"Rychlé občerstvení a jídlo s sebou dál funguje. Občané se také nemusí obávat, že by si nemohli nakoupit jídlo. Záso… https://t.co/vGd4E6wpuQ",441176802
@adamvojtechano,@adamvojtechano Tohle jste měl udělat před měsícem,"Pořídíme do všech nemocnic v ČR termokamery. Celkem 500. Chceme mít na vstupu do nemocnic maximální jistotu, že ide… https://t.co/M8cf6kE4kG",441176802
