category,comment_body,parent_body,poster_name
@kalousekm,"@kalousekm @anna_gumplova @TOP09cz nemáme jako společnost a vláda důležitější problémy, než řešit, jak se nějaký vi… https://t.co/Fbs4Z9UYbe",@anna_gumplova @TOP09cz V rámci politického kompromisu mezi našimi stranami jsem ochoten akceptovat název: “Virus strýčka Si”.,46438636
@adamvojtechano,@adamvojtechano více testování.,"Olomoucký kraj hlásí vyléčeného pacienta, celkem je to už sedmý.🙂 Dnes byl propuštěn po 2 negativních výsledcích do… https://t.co/ov72lyXr3m",46438636
