category,comment_body,parent_body,poster_name
@AndrejBabis,@AndrejBabis @realDonaldTrump But you said we didn't need them three weeks ago and a week ago that you didn't know… https://t.co/Z9xowzf2s9,"Mr. President @realDonaldTrump, try tackling virus the Czech way. Wearing a simple cloth mask, decreases the spread… https://t.co/j0TkxlDlbI",481590310
@adamvojtechano,@adamvojtechano @AndrejBabis @JStredula @infocz_web @VrataDostal @tripartita_cz @ZdravkoOnline @odbory @UnieCr… https://t.co/D5PYGB1pG7,@JStredula @infocz_web @VrataDostal @tripartita_cz @ZdravkoOnline @odbory @UnieCr @JMalacova @mpsvcz @SestryOnline… https://t.co/6rlvIlrUOP,481590310
@AndrejBabis,"@AndrejBabis To my víme, že jsou dávno vaše.","Chci upozornit, že na boj s COVID-19 nedává EU ani o korunu víc, než na kolik měly stát nárok už před pandemií. Sch… https://t.co/W9iF3y0cnq",481590310
@alenaschillerov,@alenaschillerov Osoby při výkonu práce lze nahrávat už teď. Dál?,Poslanci dnes schválili zákon zvyšující ochranu občanů při sjednávání investičních služeb po telefonu. Díky nahrává… https://t.co/6OY6zxbxSt,481590310
@adamvojtechano,"@adamvojtechano @ZdravkoOnline Výborně, doktory bychom měli pokrytý. Kdy se dostanou k občanům, ať to na sebe nechr… https://t.co/uwU4Cugzg2",Představuji vám náš obchodní tým @ZdravkoOnline. 24 hodin denně sledují trh a nakupují všechny dostupné respirátory… https://t.co/YEnvnBlo5C,481590310
@adamvojtechano,"@adamvojtechano @okundra A pořád těma rukama akorát umíte vkládat už ohraný memečka. My chceme funkční roušky, kter… https://t.co/9ckgV6uiUA","Jak by vypadal vývoj onemocnění, když bychom seděli se založenýma rukama? Tento obrázek to pěkně vystihuje. Proto t… https://t.co/KpXVhrg8Tp",481590310
@adamvojtechano,"@adamvojtechano @ZdravkoOnline jn, jedeš bomby, kámo... víc roušek si dneska lidi ušili z prostěradel, ty ostudo","Bilance obchodního týmu @ZdravkoOnline za víkend. Doručeno: 100 000 respirátorů, 82 000 roušek, 300 litrů dezinfekc… https://t.co/bSFkix2Ga1",481590310
@adamvojtechano,"@adamvojtechano Tak to je štěstí, že jste nasadili brutální letákovou kampaň, to jsme hned klidnější.",Sleduji prudký nárůst případů koronaviru v Itálii. Během 24 hodin tady onemocnělo 1 247 lidí a 36 lidí zemřelo. Ten… https://t.co/17BaIT4a0P,481590310
