category,comment_body,parent_body,poster_name
@kalousekm,"@kalousekm @VlkVaclavMVA @alenaschillerov @Azcon8 @strakovka možná máš nějaký dobrý nápad, problém je v tom, že už… https://t.co/dFZBnUqYLX","Jsem zoufalý z toho, jak jsou zoufalí živnostníci. Paní ministryně,@alenaschillerov, pusťte mě v 7,00 ráno na minis… https://t.co/s3tQpDKDyl",559957185
@AndrejBabis,"@AndrejBabis @strakovka @Azcon8     chceš říci, že Česko je díky Tobě někde mezi ano i ne???Nějaká třetí cesta Andr… https://t.co/NbGgen1qVg","Několikahodinová diskuse na Evropské radě, které jsem byl přítomen, jasně ukázala názory členských států eurozóny n… https://t.co/v1DwLbpPqw",559957185
@adamvojtechano,"@adamvojtechano @strakovka @Azcon8 ++ 6,05% z otestovaných 7664. Je třeba zveřejnit, zda ti pozitivní nakazili své… https://t.co/dDc7bAB1iV","Mám čerstvá data ke koronaviru. K dnešnímu ránu je 464 pozitivních pacientů, to je v porovnání se včerejšími ranním… https://t.co/QP6SQTtoLw",559957185
