category,comment_body,parent_body,poster_name
@adamvojtechano,"@adamvojtechano @strakovka Však aj ma mamka vyrobila více roušek, než vy jste dovezli...","Doručeno do ČR celkem za MZ: 11 000 000 roušek, respirátorů a dalších ochranných pomůcek. Odeslané objednávky máme… https://t.co/MR8kOGxHUc",701519051433107456
@adamvojtechano,"@adamvojtechano @strakovka Super! Místo 15 tisíc měsíčně, dostanou lidi jednorázově 25 tisíc!! Doufám.. Že se vy ja… https://t.co/BCqKyHyOdt","Aktualizovali jsme pro vás video s důležitými informacemi o koronaviru. Teď pracujeme na tom, aby se dostalo k co n… https://t.co/X94fxQRDT5",701519051433107456
@adamvojtechano,"@adamvojtechano @strakovka Super! Místo 15 tisíc měsíčně, dostanou lidi jednorázově 25 tisíc!! Doufám.. Že se vy ja… https://t.co/mrp1qjmBCB","Pořídíme do všech nemocnic v ČR termokamery. Celkem 500. Chceme mít na vstupu do nemocnic maximální jistotu, že ide… https://t.co/M8cf6kE4kG",701519051433107456
@alenaschillerov,"@alenaschillerov @strakovka Super! Místo 15 tisíc měsíčně, dostanou lidi jednorázově 25 tisíc!! Doufám.. Že se vy j… https://t.co/lUQJgoQEXE",V kombinaci s ošetřovným ve výši 424 Kč denně a prázdninami na sociálním a zdravotním ve výši 4896 Kč měsíčně jde o… https://t.co/o5Emm8LwuF,701519051433107456
@adamvojtechano,"@adamvojtechano @strakovka Co si budem.. Česko je silný národ, jen politici, to je jeho nádor...","Aktualizovali jsme pro vás video s důležitými informacemi o koronaviru. Teď pracujeme na tom, aby se dostalo k co n… https://t.co/X94fxQRDT5",701519051433107456
@alenaschillerov,@alenaschillerov @financnisprava https://t.co/k5RtYngloE,Pětadvacítka pro OSVČ💰 Dali jsme jí ta nejmírnější pravidla a na pomoc díky tomu dosáhne až 700 tisíc drobných podn… https://t.co/YRggoNgT8R,701519051433107456
