category,comment_body,parent_body,poster_name
@adamvojtechano,"@adamvojtechano Všichni jsou děsní odborníci, jak tak koukám. Bych chtěla vidět vás, jak byste se s něčím, co tady… https://t.co/Cm1G9PHqX0",@JStredula @martin_baroch @jhamacek @infocz_web @VrataDostal @tripartita_cz @ZdravkoOnline @odbory @UnieCr… https://t.co/xGZAg7f4Tt,702757813
@adamvojtechano,"@adamvojtechano Jsem tam každý den a zjišťuji, jak na tom jsme 🙈. Stránky se povedly a jsou přehledné. Jen bych si… https://t.co/4UwyIsgPMN",V novém kabátě. Takové jsou naše stránky s ukazateli ke koronaviru. Doplnili jsme například denní procentuální změn… https://t.co/1yKJoJjbRV,702757813
@adamvojtechano,"@adamvojtechano Jsem tam každý den a zjišťuji, jak na tom jsme 🙈. Stránky se povedly a jsou přehledné. Jen bych si… https://t.co/sGzqinenWB",V novém kabátě. Takové jsou naše stránky s ukazateli ke koronaviru. Doplnili jsme například denní procentuální změn… https://t.co/1yKJoJjbRV,702757813
@adamvojtechano,@adamvojtechano Tak snad jich brzy přibude víc 🙏,Právě mi volali z Nemocnice Na Bulovce. Máme dalšího vyléčeného pacienta! Celkem se vyléčilo už 6 osob.,702757813
@adamvojtechano,"@adamvojtechano Teď už je to jen o lidech a jak se k tomu postavíme. Doufám a věřím, že tato opatření pomůžou. Děkujeme.",Je potřeba omezit mezilidský kontakt. To je klíčová prevence před koronavirem. Vláda dnes vyhlásila omezení pohybu… https://t.co/sAjD5k5B6q,702757813
@adamvojtechano,"@adamvojtechano Chtěla bych Vám poděkovat za Vaši práci, snahu a všechna opatření, která jsou určitě na místě. Věří… https://t.co/DEs8fDksh5","Rychlé občerstvení a jídlo s sebou dál funguje. Občané se také nemusí obávat, že by si nemohli nakoupit jídlo. Záso… https://t.co/vGd4E6wpuQ",702757813
@adamvojtechano,"@adamvojtechano @ZdravkoOnline Věřím, že to musí být teď náročné. Respirátory a roušky je v těchto chvílích těžké s… https://t.co/vLg1DLA94d",Představuji vám náš obchodní tým @ZdravkoOnline. 24 hodin denně sledují trh a nakupují všechny dostupné respirátory… https://t.co/YEnvnBlo5C,702757813
