category,comment_body,parent_body,poster_name
@adamvojtechano,@adamvojtechano @AndrejBabis Držím palce 😊👍🏻,"Remdesivir v ČR! Všeobecná fakultní nemocnice ho začíná podávat pacientovi s těžkým průběhem onemocnění. Doufejme, že zabere.",754315099679121409
@adamvojtechano,@adamvojtechano @AndrejBabis @ZdravkoOnline @MinFinCZ @Celnisprava Jste skvělý 😃👍🏻,"Představujeme vám dezinfekční prostředek Anti-COVID. Vlastní výroba @ZdravkoOnline, za podpory @MinFinCZ a… https://t.co/OEpSPKDhtj",754315099679121409
@adamvojtechano,@adamvojtechano @AndrejBabis Další pozitivní zpráva 😃❤. Máme radost 😃😃,Máme první 3 uzdravené z Covid-19! Všichni měli 2 odběry s 9denním odstupem s negativním výsledkem. Nyní již bývalí… https://t.co/hrVXYcs6jA,754315099679121409
@adamvojtechano,@adamvojtechano @AndrejBabis 😀👍🏻,67 vyléčených!,754315099679121409
