category,comment_body,parent_body,poster_name
@kalousekm,"@kalousekm @alenaschillerov Aby se pak mohlo říkat, že za to zase může Kalousek. Toho by se určitě mělo využít!","Jsem zoufalý z toho, jak jsou zoufalí živnostníci. Paní ministryně,@alenaschillerov, pusťte mě v 7,00 ráno na minis… https://t.co/s3tQpDKDyl",755061669538197504
@adamvojtechano,@adamvojtechano A kolik z těch 1011 se testovalo? 400?,"K dnešku je v ČR celkem 1011 lidí v karanténě v souvislosti s Covid-19. Nejvíc jich je v Praze, celkem 341. Nad 100… https://t.co/XHD3nExrtg",755061669538197504
@adamvojtechano,"@adamvojtechano Tady všichni hysterčej a přitom je úplně jasný, že si virus přečte letáček a do pátku ještě počká.","Intenzivně pracujeme na dodávkách ochranných pomůcek. Na cestě je 16 kamionů s 1,4 mil. respirátorů a 2,2 mil. úste… https://t.co/qByQsxtpPI",755061669538197504
@kalousekm,"@kalousekm Však oni jim to sousedi a okolí dají sežrat. Na takovouhle mezilidskou solidaritu se spolíhá, jestli jse… https://t.co/oM9UAk7ktY","Turisté, kteří prijíždějí z Itálie dnes ráno, představují infekční riziko a musí na 14 dní do karantény. Ti však, k… https://t.co/sKAEXPdV6Q",755061669538197504
