category,comment_body,parent_body,poster_name
@AndrejBabis,@AndrejBabis @SemSuchar Lžete.,"@SemSuchar Vážený pane, V4 bude s prezidentem Erdoganem jednat těsně před Evropskou radou 25.3. v Budapešti. Žádnou… https://t.co/YAL1DB40fa",764280014
@AndrejBabis,"@AndrejBabis Pane Prchale, kolik desítek miliard dotací dostal Babiš z EU za dobu svého podnikání? Že do ní teď kope a lže?","Chci upozornit, že na boj s COVID-19 nedává EU ani o korunu víc, než na kolik měly stát nárok už před pandemií. Sch… https://t.co/W9iF3y0cnq",764280014
@adamvojtechano,@adamvojtechano A co kdyby jeden nekecal a radši makal.,Rychlá zásilka: Z meziskladu Správy státních hmotných rezerv v Sedlčanech právě odletělo 3000 ks respirátorů FFP3 d… https://t.co/9xBKL6KjJS,764280014
@AndrejBabis,"@AndrejBabis @Markus_Soeder Neříkal, pane Prchale, náhodu vrchní blábolil, že se musí udržet v chodu ekonomika?",Mluvil jsem s bavorským premiérem @Markus_Soeder. Bavorsko zavedlo přísná opatření po vzoru České republiky. Skvělé… https://t.co/0SgkHSM658,764280014
@kalousekm,"@kalousekm @adamvojtechano Což o to, paragrafů bylo vždy dost. Ještě, aby se podle nich postupovalo.","Kdybych byl na místě @adamvojtechano, tak kromě roušek a respirátorů si také sháním dobrého právníka. Na to, čeho s… https://t.co/Us7Djw9z3y",764280014
@alenaschillerov,"@alenaschillerov @PragueAirport Vy nemáte nic lepšího na práci, než se tam předvádět?","Na @PragueAirport právě roluje čínské letadlo se zásilkou 1,1 milionu respirátorů. Ty okamžitě zamíří k těm nejpotř… https://t.co/vM3odMHpEk",764280014
@adamvojtechano,"@adamvojtechano @kalousekm @strakovka @ZdravkoOnline Na to vás v ANO školí? Nevím, nerozumím, nečetl, neviděl ... Běžte někam.","@kalousekm @strakovka @ZdravkoOnline Naprosto nerozumím této Vaší poznámce. Na ministerstvu se vytvořil tým lidí, k… https://t.co/BkaDHspWXf",764280014
@adamvojtechano,"@adamvojtechano Maj tam chybu panáčku. Ne ""již"", ale ""teprve teď"".","Zdravotníkům jsme již poslali přes 11,1 mil. ochranných pomůcek. Konkrétně přes 8 mil. roušek, přes 1,8 mil. respir… https://t.co/re5fFICHVP",764280014
@kalousekm,@kalousekm @Blesk24 Bezcharakterní egoistický lhář a křivák nemůže mít můj respekt. Navíc má tak maximálně talent p… https://t.co/28vIb8PzVJ,"Je mi M. Zemana líto. Pamatuji si ho ještě jako muže s brilantním intelektem, se kterým jsem sice nesouhlasil, ale… https://t.co/Yum3UOXnlw",764280014
@adamvojtechano,@adamvojtechano PR za cizí peníze.,Vzhledem k výraznému šíření onemocnění novým koronavirem #COVIDー19 na území Itálie jsme dnes vydali nařízení týkají… https://t.co/xYDMAiX3bp,764280014
