category,comment_body,parent_body,poster_name
@PiratIvanBartos,@PiratIvanBartos Jasné odpovědi od premiéra? No nevím..good luck,"Pirátské týmy každý týden připravují návrhy, které jsou klíčové nejen pro dobu epidemie. Otázku kompenzací jsme pan… https://t.co/QAO4FncSQh",789079447492292612
@adamvojtechano,@adamvojtechano @AndrejBabis Dík letový dispečere,Všechno klaplo. Vrtulník s 19 000 rychlotesty na koronavirus pro 6 moravských nemocnic právě odlétá. https://t.co/riiKdo5K59,789079447492292612
@adamvojtechano,@adamvojtechano @AndrejBabis Děláte taky něco jinýho než jen tiskovýho mluvčího?,"Zdravotníkům jsme již poslali přes 11,1 mil. ochranných pomůcek. Konkrétně přes 8 mil. roušek, přes 1,8 mil. respir… https://t.co/re5fFICHVP",789079447492292612
