category,comment_body,parent_body,poster_name
@AndrejBabis,@AndrejBabis A koho to zajímá guru Máro? Kecy a lži nás nebaví číst,Evropská rada. Videocall. Naše kroky v boji s virem musíme koordinovat. Klíčový je teď pro mě společný nákup zdravo… https://t.co/RALiCtJgJ9,804047161897918468
@adamvojtechano,"@adamvojtechano @AndrejBabis Když si pane ministře odrthnete s celou tou vaší bandou od huby, bude dost i pro OSVČ","Osoby samostatně výdělečně činné tak za každý měsíc ušetří 2 352 Kč, dohromady 14 112 Kč. Ty osoby samostatně výděl… https://t.co/xbmlWypq3a",804047161897918468
