category,comment_body,parent_body,poster_name
@adamvojtechano,@adamvojtechano Vždyť už ve volném prodeji žádné nejsou. Máte měsíční zpoždění.,Sledujeme šíření koronaviru v Evropě. Musíme být připraveni. Rozhodli jsme se proto jako Francie přijmout mimořádné… https://t.co/HzIxBQUnl3,807926674952163332
@adamvojtechano,"@adamvojtechano Takhle nevypadají zavřené hranice. Právě teď jdou na přistání stroje z Paříže, Madridu a Istanbulu. https://t.co/7gefgTBX2I","Posílili jsme opatření proti koronaviru. Situace je velmi dynamická, proto jsme zasedli s kolegy ministry ještě v n… https://t.co/hINP2hCEni",807926674952163332
@adamvojtechano,"@adamvojtechano V době, kdy Německo blokuje dodávky a transporty ostatním zemím nepovažuji za vhodné zveřejňovat in… https://t.co/4qlTH6aH03","Intenzivně pracujeme na dodávkách ochranných pomůcek. Na cestě je 16 kamionů s 1,4 mil. respirátorů a 2,2 mil. úste… https://t.co/qByQsxtpPI",807926674952163332
