category,comment_body,parent_body,poster_name
@adamvojtechano,@adamvojtechano A dostane se to k obyčejným lidem?,"20 000 respirátorů FFP3 a 10 000 FFP2 dnes dorazí do skladu SSHR v Sedlčanech. A to díky tuzemskému výrobci Moldex,… https://t.co/lc4lotof3X",817836079
@AndrejBabis,"@AndrejBabis Teklo mu do bot. Někdo mu to sepsal. On to roboticky přečetl a lidi mu pod to na FB píšou, jak u toho… https://t.co/YL4Q9Z4lWK","Mám něco na srdci. Sledujte dnes ve 20.05 můj mimořádný projev. Česká televize, Nova, Prima a Český rozhlas Radiožu… https://t.co/JB2jLZGW1O",817836079
@adamvojtechano,@adamvojtechano @TomZdechovsky @infocz_web To je nejlepší řešit to na tt... 🙄.,"@TomZdechovsky @infocz_web Lžete Vy, vážený pane europoslanče a měl byste se za to omluvit. MZ ČR se přihlásilo do… https://t.co/g9cj7JHM2E",817836079
@adamvojtechano,@adamvojtechano To už je fakt totální hovadina tohle...,"Děti do 2 let a řidiči, kteří jsou sami v uzavřeném vozidle, nově nemusí mít zakrytá ústa a nos rouškou či šátkem.… https://t.co/h8rfoqYaBy",817836079
