category,comment_body,parent_body,poster_name
@AndrejBabis,"@AndrejBabis Pokud vás inspiroval Bill Gates se svým videem, doporučuji si přečíst závěry vědců v poslední zprávě I… https://t.co/w4ZbTNYqKM","Bill Gates je génius. Před epidemií varoval už v roce 2015 a co říkal, si pusťte. Tady je jeho přednáška s českými… https://t.co/MVquNox0FO",839615099241381893
@kalousekm,"@kalousekm @Kate_Nemcova @ArchaVt Věřím, že najdete důmyslnější způsoby, jak se bránit před čínskou propagandou. So… https://t.co/5LPDhqtw10",@Kate_Nemcova @ArchaVt To nemá nic společného s hněvem a nenávistí vůči lidem jiných kultur. Nic mi není víc cizí a… https://t.co/PlSo7bY9wK,839615099241381893
@adamvojtechano,@adamvojtechano Kdy bude hradit pojišťovna testy pro všechny? @adamvojtechano,"Mám čerstvá data ke koronaviru. K dnešnímu ránu je 464 pozitivních pacientů, to je v porovnání se včerejšími ranním… https://t.co/QP6SQTtoLw",839615099241381893
