category,comment_body,parent_body,poster_name
@kalousekm,"@kalousekm 15 tacu je k smíchu. To je hloupý vtip kolektivu okolo pana Burese. Mimochodem, myslím si, ze expirace p… https://t.co/5sVDodKdZj","Co vlastně vláda sleduje? Pokud jenom nechce, aby živnostníci neumřeli hlady, tak 15 000 stačí. Pokud by ale chtěla… https://t.co/gsTnFvzJcJ",882222170
@adamvojtechano,"@adamvojtechano @AndrejBabis @ZdravkoOnline Cele Vaše ministerstvo a přilehlé podřízené organizace ví, ze vy končít… https://t.co/4mmTDZ7DPD",Právě teď sedíme s kolegy na @ZdravkoOnline a připravujeme zítřejší distribuci další várky ochranných prostředků. Z… https://t.co/cQJsrWsVDQ,882222170
@adamvojtechano,"@adamvojtechano @ZdravkoOnline Andrej se prý nechal slyšet, v pondělí , ze ten kokot z tého superstar poletí ako pr… https://t.co/xSHhhyZTC5",Právě teď sedíme s kolegy na @ZdravkoOnline a připravujeme zítřejší distribuci další várky ochranných prostředků. Z… https://t.co/cQJsrWsVDQ,882222170
@adamvojtechano,"@adamvojtechano @AndrejBabis @ZdravkoOnline Ministře, ten Delor na vašich ústech nebyl fejk! Tato informace je velk… https://t.co/0AeBM7FPtP",Právě teď sedíme s kolegy na @ZdravkoOnline a připravujeme zítřejší distribuci další várky ochranných prostředků. Z… https://t.co/cQJsrWsVDQ,882222170
@adamvojtechano,"@adamvojtechano Hele, POZOR! Bureš koupil Lukacevice! Lukacevic je pilot , poradce / donašeč Burese je také pilot.… https://t.co/SrIjZHtiQq","Hygienici, lékaři i zdravotnický personál odvádí skvělou práci. To jasně ukázal tento průzkum mezi čtenáři serveru… https://t.co/c3ElQnq2gR",882222170
@adamvojtechano,"@adamvojtechano Sorry, pro vysvětlení . Lukacevic je zakladatel https://t.co/YwqlnPE6uq a majitel letiště tocna","Hygienici, lékaři i zdravotnický personál odvádí skvělou práci. To jasně ukázal tento průzkum mezi čtenáři serveru… https://t.co/c3ElQnq2gR",882222170
@adamvojtechano,"@adamvojtechano Já tomu průzkumu nevěřím, stejně jako panu Burešovi a Lukacevicovi","Hygienici, lékaři i zdravotnický personál odvádí skvělou práci. To jasně ukázal tento průzkum mezi čtenáři serveru… https://t.co/c3ElQnq2gR",882222170
@kalousekm,@kalousekm Musíme jít všichni k volbám,"Je to krok přesně podle Babišovy povahy i politiky. Zatímco se modlil a sliboval, jak vláda nikoho nenechá na holič… https://t.co/z6V0OBgRGv",882222170
@kalousekm,"@kalousekm @AndrejBabis Je to tak, mě jste sebral z platu 7% solidarni dan! Dodnes ji platím. Ale nikdy jsem neplatil 100% dan!","Já jsem byl při minulé krizi hodně drsný, možná až moc. Prosadil jsem snížení příjmů všem o 4-15%. Ale nikdy by mě… https://t.co/ZSx9C3Zc92",882222170
@adamvojtechano,"@adamvojtechano Pane ministře. Zatímco slibujete rousky kudy chodíte, sám děláte reklamu zakazkovemu krejcovstvi DE… https://t.co/fuEiShAEyQ","4 kamiony roušek, které v noci přiletěly z Číny na pardubické letiště, jsou ve skladu Správy státních hmotných reze… https://t.co/t1sM7ll0iC",882222170
@kalousekm,"@kalousekm Bratrská Čína nás efektivně bratrsky škube a ještě si říká, ať mi zkusí vrátit objednávku ! V příštím ba… https://t.co/3w3e84H551","Tohle bude asi nějaká nepřátelská propaganda. Tak drahé respirátory, navíc přímo z bratrské Číny, prostě nemohou bý… https://t.co/KfEoDoqw6O",882222170
@adamvojtechano,"@adamvojtechano @kalousekm @strakovka @ZdravkoOnline Pane ministře ,  toto je důkaz totálního selhání všeho co řídí… https://t.co/hkuwJhFJV7","@kalousekm @strakovka @ZdravkoOnline Naprosto nerozumím této Vaší poznámce. Na ministerstvu se vytvořil tým lidí, k… https://t.co/BkaDHspWXf",882222170
@adamvojtechano,@adamvojtechano @kalousekm @strakovka @ZdravkoOnline Pane ministře kdy budete více testovat ? Proč veškeré testy mu… https://t.co/9Jwn8gjs1e,"@kalousekm @strakovka @ZdravkoOnline Naprosto nerozumím této Vaší poznámce. Na ministerstvu se vytvořil tým lidí, k… https://t.co/BkaDHspWXf",882222170
@kalousekm,@kalousekm @AndrejBabis @jhamacek @OklestekLa dejte tam  Kalouska. Pan Kalousek je náš  Winston Churchil.  Toto pro… https://t.co/ebhzU2YMe6,"Vládo a krizový štábe, Haló! Uničov je bez ochranných prostředků! Není jak zajistit základní služby od lékaře až po… https://t.co/CfHHiZtHCR",882222170
@adamvojtechano,@adamvojtechano A pan ministr dále pokračuje s propagaci značky Delor .,Češi jako světoví rouškaři! Světová média vyzdvihují naše opatření k povinnému nošení pokrývky úst a nosu. Je úžasn… https://t.co/hDJXSlS7kj,882222170
