category,comment_body,parent_body,poster_name
@adamvojtechano,"@adamvojtechano Tak to byste mohli reklamovat tady ty, ne? https://t.co/HR1wgeZfWQ",Podepsáno. Obdržíme darem 30 000 ks speciálních nanovlákenných roušek a od dubna bude česká společnost Respilon naš… https://t.co/lQb0J0tM9w,917684295145279489
@AndrejBabis,"@AndrejBabis Tak od člověka, který si o všech penězích na světě myslí, že jsou dávno jeho, to není moc výstižná replika...","Chci upozornit, že na boj s COVID-19 nedává EU ani o korunu víc, než na kolik měly stát nárok už před pandemií. Sch… https://t.co/W9iF3y0cnq",917684295145279489
@alenaschillerov,"@alenaschillerov Škoda, že jste za časů konjunktury všechno rozfrcali, nemuselo to teď tolik bolet. Kdyby to takhle… https://t.co/6zkYLeIYNL","Vycházíme vstříc rodičům, kteří kvůli zavřeným školám nechodí do práce a zůstávají s dětmi doma. Na vládě jsme se d… https://t.co/JAvvUqlzfY",917684295145279489
@AndrejBabis,"@AndrejBabis Tak fakenews, to je vaše specialita, lidi to od vás asi pochytili...","Po Messengeru tady teď lítá klasická fake news, která bohužel už dost lidí vystrašila 🙈🙄 Audiozpráva, ve které říká… https://t.co/d3eMNmjg0U",917684295145279489
@kalousekm,@kalousekm Herci jsou především zaměstnanci nebo živnostníci jako každý jiný. Proč by radost důchodcům nemohli uděl… https://t.co/YBZAZbytaJ,"Prezident: “Podporujte opatření vlády.”
Vláda: “Zakazujeme návštěvy v nemocnicích a domovech pro seniory.”
Preziden… https://t.co/C8kLuRiPR5",917684295145279489
@AndrejBabis,@AndrejBabis Navzdory neschopnosti vlády...,V České republice máme první tři pacienty vyléčené z nákazy koronavirem! Všichni tři v nemocnici v Ústí nad Labem.… https://t.co/4s4qwRsxNb,917684295145279489
@adamvojtechano,"@adamvojtechano @WHO Adame, tady už to nikoho nezajímá. Dělejte svou práci a my už se o sebe nějak postaráme. Dobrou.","Právě teď. @WHO připouští, že nošení roušek, i po domácku vyrobených, má smysl a skutečně může pomoci zmírnit šířen… https://t.co/sBQqlKbGwe",917684295145279489
@adamvojtechano,"@adamvojtechano @WHO Jo, pořád doma šijeme roušky a vozíme do nem. U sv. Anny, co jste ji v Brně vyčlenili pro koro… https://t.co/st2HtZfX1o","Právě teď. @WHO připouští, že nošení roušek, i po domácku vyrobených, má smysl a skutečně může pomoci zmírnit šířen… https://t.co/sBQqlKbGwe",917684295145279489
@adamvojtechano,"@adamvojtechano Hele jako, my s váma rozhodně nebojujeme, to vy s náma bojujete...",Češi jako světoví rouškaři! Světová média vyzdvihují naše opatření k povinnému nošení pokrývky úst a nosu. Je úžasn… https://t.co/hDJXSlS7kj,917684295145279489
@kalousekm,"@kalousekm Ale to je milé, Milan je vážně milouš...","Nemohu se s Vámi o tento milý vzkaz nepodělit. Ne proto, že by se mě snad dotkl. Proto ale, abychom si uvědomili, ž… https://t.co/aGTefq1F7G",917684295145279489
@adamvojtechano,"@adamvojtechano @WHO Proč v nem. U milosrdných bratří v Brně, kousek od ""koronavirové"" sv. Anny, nutí personál ke s… https://t.co/7ZFQKe95Tt","Právě teď. @WHO připouští, že nošení roušek, i po domácku vyrobených, má smysl a skutečně může pomoci zmírnit šířen… https://t.co/sBQqlKbGwe",917684295145279489
@AndrejBabis,"@AndrejBabis Ježišmarjá, vy jste vážně kokoti...",Právě jsme umístili infotabuli na Dolní Dvořiště a ještě na další dvě místa na hraničních přechodech na silnicích I… https://t.co/cUyGDkGuVZ,917684295145279489
