category,comment_body,parent_body,poster_name
@PetrCech,@PetrCech Sign Sanchoooooooooo,https://t.co/ejcyMeayjA,1044969330562269186
@PetrCech,@PetrCech @PetrCech hope we Get Sancho💙💯,Here is your drum track 😉 https://t.co/vCkDX6GQql https://t.co/8qDQsuH5am,1044969330562269186
