category,comment_body,parent_body,poster_name
@PetrCech,@PetrCech @ClubPueblaMX Eso es todo @ClubPueblaMX,@ClubPueblaMX Cuando no se juega la Premier Ligue estoy feliz ayudar en la defensa ...😂 feliz por la victoria y por… https://t.co/awJwKany7G,466806739
@PetrCech,@PetrCech @ClubPueblaMX Eres un crack @PetrCech,@ClubPueblaMX Cuando no se juega la Premier Ligue estoy feliz ayudar en la defensa ...😂 feliz por la victoria y por… https://t.co/awJwKany7G,466806739
