category,comment_body,parent_body,poster_name
@kalousekm,@kalousekm Je to “znarodneni” pred nasima ocima!,"Tři vládní priority novely zákona o státním rozpočtu:
1. Účinná pomoc velkým firmám a jejich zaměstnancům.
2. Dokon… https://t.co/pNSZArMb7G",1065918642
