category,comment_body,parent_body,poster_name
@kalousekm,@kalousekm Humor! 🤓,"Před Vámi pokleknem
se slzou dojetí.
Už ani neceknem
o střelbě do dětí,
o zvůli, o bití,
o vraždách na orgány...
Pr… https://t.co/fYouQvjbHa",1068922365076213760
@kalousekm,@kalousekm @R_Bartonicek @Aktualnecz Mirku!!!!! neštvi mě,@R_Bartonicek @Aktualnecz Máte infekční otázky? Do karantény s Vámi.,1068922365076213760
@kalousekm,@kalousekm @Martin_Cervicek Míro! 🤓☝️ sklidni to,"@Martin_Cervicek Lžete!! Kampaň!! Já to odmítám! Okamžitě si, pán hejtman, vymeňtě tlačového mluvčího a hned budě r… https://t.co/K135WGhWia",1068922365076213760
