category,comment_body,parent_body,poster_name
@kalousekm,@kalousekm @alenaschillerov Založíte státní podnik a budete šít roušky?,"Jsem zoufalý z toho, jak jsou zoufalí živnostníci. Paní ministryně,@alenaschillerov, pusťte mě v 7,00 ráno na minis… https://t.co/s3tQpDKDyl",1073549632586829824
@AndrejBabis,@AndrejBabis @realDonaldTrump Kvůli takovému opovržení co tu lidé předvádí já budu pár měsíců bez rodiny!!  Nemám slov 😤,"Mr. President @realDonaldTrump, try tackling virus the Czech way. Wearing a simple cloth mask, decreases the spread… https://t.co/j0TkxlDlbI",1073549632586829824
@alenaschillerov,"@alenaschillerov Při čtení příspěvků ohledně tohoto tématu si říkám: ,,začni chlapče více vyžadovat platbu přes EET""",Zítra navrhnu vládě prominutí zálohy na daň z příjmů fyzických i právnických osob. A to za druhé čtvrtletí roku 202… https://t.co/yvfTxZy9Ld,1073549632586829824
@kalousekm,@kalousekm @OtazkyVM @AndrejBabis Vy tak můžete na někoho poukazovat...,"Sleduji @OtazkyVM. Jak má společnost “táhnout za jeden provaz”, když se vláda i v nouzovém stavu hádá o vnitřní kom… https://t.co/mhZvNhS8sk",1073549632586829824
@adamvojtechano,"@adamvojtechano Může mi někdo říct, jak moc je to celé závažné? Přijde mi, že ten humbuk kolem  škodí zdraví víc, než celý virus.","Během dneška vzrostl počet nakažených koronavirem na 19, oproti včerejšku je to o 7 více. Bez jednoho všichni přije… https://t.co/EnFqIB6mfJ",1073549632586829824
