category,comment_body,parent_body,poster_name
@PiratIvanBartos,@PiratIvanBartos @AndrejBabis A co jste vy soudruzi Piráti Levicová práskačská úderka,"Pane @AndrejBabis, k nehorázným výrokům na adresu českých europoslanců: upozornit na vaše zlodějiny není zrada vlas… https://t.co/Z7UrG11ZoB",1100305282922676225
@PiratIvanBartos,@PiratIvanBartos No máte mezi sebou pěkné svině ale co od vás čekat,"Izrael je náš důležitý partner a přítel České republiky. 11 let starý screenshot, na kterém Tomáš Tožička dle mých… https://t.co/wpfsOKWz17",1100305282922676225
@PiratIvanBartos,@PiratIvanBartos https://t.co/Vi7ZQHDkR9,"Izrael je náš důležitý partner a přítel České republiky. 11 let starý screenshot, na kterém Tomáš Tožička dle mých… https://t.co/wpfsOKWz17",1100305282922676225
@PiratIvanBartos,@PiratIvanBartos @AndrejBabis Stále jen lžete radši udělejte pořádek ve vlastní partičce https://t.co/ZtqQj83AfC,"Pane @AndrejBabis, k nehorázným výrokům na adresu českých europoslanců: upozornit na vaše zlodějiny není zrada vlas… https://t.co/Z7UrG11ZoB",1100305282922676225
@kalousekm,@kalousekm https://t.co/N4c7HX0P0v,"Je pozdě plakat, že vláda 6 let neslyšena naše naléhání, ať tvoří rezervy na horší časy. Rezervy naopak vybrakovala… https://t.co/66auyy5Q2Z",1100305282922676225
@kalousekm,@kalousekm Myslíte že osoby naložené v lihu projdou bez nákazy?,"Množí se texty s myšlenkou, že důsledná ochrana před virem nestojí za ekonom.krizi. Vycházejí z předpokladu, že pro… https://t.co/r7aJRGsn7q",1100305282922676225
@kalousekm,@kalousekm A co Bakala a jeho miliardy co Mirku ten by měl přispět a ne že málo,"Po šesti tučných letech kapitalizace zisků přichází doba socializace ztrát. Ideologii stranou. Ač duší pravičák, vů… https://t.co/Ans2dmNKLX",1100305282922676225
@kalousekm,@kalousekm @adamvojtechano Strašné hospody a nálevny zavřené. Delirium tremens nastupuje,Ministr @adamvojtechano : “O fungování distribuce bude v pondělí jednat vláda.”Deset dní už je vyhlášen nouzový sta… https://t.co/suW2FpEdG5,1100305282922676225
@kalousekm,@kalousekm @hadrmar Pamatujem kam jste to dovedl!!!,"@hadrmar Tuhle nepřinutíte. Šest let jsem v rozpočtových diskuzích naléhal, ať zvyšují odolnost vůči budoucí krizi. Snižovali ji.",1100305282922676225
@kalousekm,@kalousekm @OtazkyVM @AndrejBabis Od notorického alkoholika to sedí,"Sleduji @OtazkyVM. Jak má společnost “táhnout za jeden provaz”, když se vláda i v nouzovém stavu hádá o vnitřní kom… https://t.co/mhZvNhS8sk",1100305282922676225
@AndrejBabis,@AndrejBabis @TomZdechovsky @vonpecka Nemáte se za co omlouvat je to pravda,"V rozhovoru na Frekvenci 1 se mě redaktorka zeptala, co říkám na to, že po mém vyjádření, že jsou europoslanci… https://t.co/KOfaVnRbNW",1100305282922676225
@kalousekm,@kalousekm Vy zase jen melete  ale nic konkrétního neuděláte kritizovat to umí každý,"Zvládneme to. Někdo si roušku ušije, někdo popadne šálu či šátek. Přesně takhle to bylo za komunistů: Stát umí zaka… https://t.co/ZDavbDqkxa",1100305282922676225
@kalousekm,@kalousekm Vy jste nám to už ukázal a dodnes se z toho naše země nevzpamatovala tak radši mlčte,Prof. Prymuly si velmi vážím jako předního epidemiologa. V čele Ústředního krizového štábu má ale stát osoba s rozs… https://t.co/J1HfGGTCjq,1100305282922676225
