category,comment_body,parent_body,poster_name
@kalousekm,"@kalousekm @ZdravkoOnline Je opravdu rozumné, že prosazujete člověka, který navzdory všem špičkám z oboru podporuje… https://t.co/fXNKdKME56","Čína byla vyřazena ze seznamu rizikových zemí? Je opravdu rozumné těm jejich číslům věřit, @ZdravkoOnline? Já bych… https://t.co/7aravnn2DC",1100515382950064128
@kalousekm,"@kalousekm Ten clanek jednou bude v ucebnicich a lide se budou panu ptat, pokud ovsem - jiz pomerne letiti - panove preziji.","Česká ekonomika nezemře. Zcela jistě však projde krizí a změní se. Já pevně věřím, že se může změnit směrem k větší… https://t.co/K45gSjlA07",1100515382950064128
