category,comment_body,parent_body,poster_name
@AndrejBabis,@AndrejBabis Populista si pochvaluje populistovu kampaň.,"Gratuluji Igoru Matovičovi a hnutí OĽaNO k vítězství ve slovenských parlamentních volbách! Skvělá kampaň, díky kter… https://t.co/gkzPVOGIfr",1112722040950325249
@kalousekm,"@kalousekm Tak určitě. A teď tu o Karkulce. Myslel jsem, že jste trochu vyspělejší a máte nějakou štábní kultůru. A… https://t.co/UqUHKump9H","@BiochemistTomas Kdyby ten virus přišel z Aljašky, říkal bych mu aljašský. Nechcete v zájmu politické korektnosti p… https://t.co/2IZo8AIuwb",1112722040950325249
@kalousekm,"@kalousekm Škoda, měl jsem Vás rád, ale s tím čínským virem jste to podělal. Naskakovat na xenofobní trendy, jen ab… https://t.co/BlMDcvYJMA",Učebnicový příklad našich priorit v boji s čínským virem: Vláda není schopná ochránit ty nejzranitelnější v domovec… https://t.co/XW8IEkN5C7,1112722040950325249
@kalousekm,"@kalousekm @ArchaVt Gratuluji pane Kalousku, právě jste klesl na úroveň Pitomia 👍

@market_a necháte toto bez odpovědi?",Pojďme všichni té potvoře přestat říkat COVID-19 a pojďme jí nazývat pravdivě a srozumitelně “Čínská chřipka”. Bylo… https://t.co/HIQY5Ps4m5,1112722040950325249
@adamvojtechano,"@adamvojtechano A proč by výsledek neměl být průkazný jen proto, že ho dělaly jiné ruce? Tomu se říká reprodukovate… https://t.co/QwOw0yi9FT","Dovolím si uvést informaci pana primátora na pravou míru. Žena, která se v sobotu vrátila z Itálie, se nechala otes… https://t.co/1WYX4J9cJo",1112722040950325249
@kalousekm,"@kalousekm Pane Kalousku, prosím, nepouštějte se tady do žádných konspiračních teorií, ať si zachováte aspoň trochu… https://t.co/YsrLR3m3xU","Skutečná “Říše středu”..Epidemie vypukla v Číně. Od Číny se nakazil celý svět. A teď může Čína celý svět vydírat, p… https://t.co/KTNK1ZbKLl",1112722040950325249
@kalousekm,"@kalousekm to je poznat už z toho, jak každý den zavádí nová a nová opatření","Během jednání s členy vlády jsme se dozvěděli pouze to, že vláda nemá žádné variantní plány, “co uděláme, když..”,… https://t.co/06qnyyRXRA",1112722040950325249
