category,comment_body,parent_body,poster_name
@kalousekm,@kalousekm @rprymula Kdy se vrátíte z té protialkoholní léčebny?,"Šokující výrok náměstka @rprymula o zavřených hranicích na 2 roky znovu naléhavě nastoluje otázku, zda je správné,… https://t.co/APFVuO7TO4",1117454246545375233
@kalousekm,"@kalousekm Ta protialkoholní léčba je u vás opravdu nutná!!! Pokud jste si nevšiml, tak se svět odmítl na cokoliv p… https://t.co/mzOGetPPYI","Za co mám být vděčný Číně? Za to, že její režim se několik týdnů snažil coronavirus ututlat a přispěl tak k jeho ro… https://t.co/GaLmaKsX1W",1117454246545375233
