category,comment_body,parent_body,poster_name
@kalousekm,"@kalousekm @alenaschillerov Tak tohle už tady bylo a deset let jsme se z toho hrabali. Děkuji, ne...","Jsem zoufalý z toho, jak jsou zoufalí živnostníci. Paní ministryně,@alenaschillerov, pusťte mě v 7,00 ráno na minis… https://t.co/s3tQpDKDyl",1151894621880029184
@kalousekm,"@kalousekm @adamvojtechano Jednou vládnou neschopní, onehdá zase všeho schopní... Jak si z tohohle vybrat... 😶",Ministr @adamvojtechano : “O fungování distribuce bude v pondělí jednat vláda.”Deset dní už je vyhlášen nouzový sta… https://t.co/suW2FpEdG5,1151894621880029184
