category,comment_body,parent_body,poster_name
@kalousekm,@kalousekm @alenaschillerov Sepíše to veřejně předpokládám že to mate v hlavě... Jinak tohle zní poněkud prázdným p… https://t.co/xz1JgQGpM5,"Jsem zoufalý z toho, jak jsou zoufalí živnostníci. Paní ministryně,@alenaschillerov, pusťte mě v 7,00 ráno na minis… https://t.co/s3tQpDKDyl",1167730262899331073
@kalousekm,"@kalousekm Pane vy jste opravdu zrůda, co se nikdy nezastaví","Množí se texty s myšlenkou, že důsledná ochrana před virem nestojí za ekonom.krizi. Vycházejí z předpokladu, že pro… https://t.co/r7aJRGsn7q",1167730262899331073
@kalousekm,@kalousekm @adamvojtechano Tenhle člověk je opravdová kreatura,Ministr @adamvojtechano : “O fungování distribuce bude v pondělí jednat vláda.”Deset dní už je vyhlášen nouzový sta… https://t.co/suW2FpEdG5,1167730262899331073
