category,comment_body,parent_body,poster_name
@kalousekm,"@kalousekm @AndrejBabis KALOUSKU, jste jeden z prvních adeptů na trestní stíhání a na nářez spletenou oprátkou, kte… https://t.co/tUIacwn4av","Když @AndrejBabis vyzýval k “táhnutí za jeden provaz”, měl už na konci toho provazu spletenou oprátku na živnostník… https://t.co/1fB1S2aDl5",1194975266877165569
@kalousekm,"@kalousekm KALOUSKU NETUNELUJTE STÁTNÍ ROZPOČET, A PŘIDEJTE ZE SVÉHO ŽIVNOSTNÍKŮM ... https://t.co/3ZTX9IFffU","Co vlastně vláda sleduje? Pokud jenom nechce, aby živnostníci neumřeli hlady, tak 15 000 stačí. Pokud by ale chtěla… https://t.co/gsTnFvzJcJ",1194975266877165569
@kalousekm,"@kalousekm KALOUSKU UŽ KONČÍTE, TAK UŽÍVEJTE SI POSLEDNÍCH PÁR CHVIL OSTUDY A HANBY ....... https://t.co/QutSgQrPJQ","Je to krok přesně podle Babišovy povahy i politiky. Zatímco se modlil a sliboval, jak vláda nikoho nenechá na holič… https://t.co/z6V0OBgRGv",1194975266877165569
@kalousekm,"@kalousekm KALOUSKU A JAK SE MÁ FIRMA """"""JIHOTRANS"""""" DOBRÝ???","Tři vládní priority novely zákona o státním rozpočtu:
1. Účinná pomoc velkým firmám a jejich zaměstnancům.
2. Dokon… https://t.co/pNSZArMb7G",1194975266877165569
@kalousekm,"@kalousekm @CNB_cz KALOUSKU JAK SE MÁ FIRMA """"JIHOTRANS""""""???",Jsem zásadně proti návrhu. Mohu se samozřejmě mýlit. Leč snaha protlačit to za každou cenu v legislativní nouzi mi… https://t.co/mLsCaaUv71,1194975266877165569
@PiratIvanBartos,@PiratIvanBartos a tto nařídila vláda tu tabulka nebo pan pirát BARTOŠ???,"Dodání ochranných pomůcek fakt není PR závod o to, kdo “bude národní hrdina”. To je nepřípustné! V pondělí vláda mu… https://t.co/jkYApMYdkm",1194975266877165569
@kalousekm,"@kalousekm KALOUSKA se tento národ brzy konečně zbaví, bude méně nenávisti, zla a více pochopení , solidarity a tol… https://t.co/heT0wlXBrP","Před Vámi pokleknem
se slzou dojetí.
Už ani neceknem
o střelbě do dětí,
o zvůli, o bití,
o vraždách na orgány...
Pr… https://t.co/fYouQvjbHa",1194975266877165569
@adamvojtechano,"@adamvojtechano @AndrejBabis pane ministře děláte maximum, nenechte se od """"rouškotrollíků"""""" znechutit... supi se slétají nad kořistí...","Téměř 1 000 000 ks roušek, respirátorů, rukavic a dalších ochranných pomůcek jsme do této doby doručili nemocnicím,… https://t.co/EgNpqyFEun",1194975266877165569
@kalousekm,"@kalousekm @fendrych_m @max_bubakoff @AndrejBabis KALOUSEK , UŽ KONČÍTE, TAK SE TAK TRAPNĚ NEZVIDITELŇUJTE......",@max_bubakoff @AndrejBabis Ne. Vy si to zasloužíte a vrátila by vám to v dobrých časech každá vláda. Jenom neodpově… https://t.co/GwKF1foF54,1194975266877165569
@kalousekm,"@kalousekm @fendrych_m @adamvojtechano PRÁVNÍKA SI HLEDEJTE SÁM, bude ještě jistě potřeba, až Vám skončí imunita..........","Kdybych byl na místě @adamvojtechano, tak kromě roušek a respirátorů si také sháním dobrého právníka. Na to, čeho s… https://t.co/Us7Djw9z3y",1194975266877165569
@PiratIvanBartos,"@PiratIvanBartos trapně se zviditelňujete BARTOŠI, bez odborníků nelze žádné rozhodnutí vydávat už nyní !!!.... to dobře víte....","Již několik dní marně apelujeme na vládu, aby svolala Ústřední krizový štáb. Ten by pomohl zapojit i řadu odborníků… https://t.co/daFK9UTBGP",1194975266877165569
@adamvojtechano,"@adamvojtechano @AndrejBabis pane ministře držte, máte moji velkou podporu....","Připravujeme k distribuci další rychlotesty na koronavirus. Na Moravu už dorazily, teď zamíří do nemocnic v Čechách. https://t.co/qfwOYA6W5r",1194975266877165569
@PiratIvanBartos,"@PiratIvanBartos nechtějte se za této situace zviditelňovat, nejlépe pro své PIRÁTY uděláte, když budete držet """"ka… https://t.co/eaZRB5rqcn",Trošku plánování a předvídatelnosti místo chaosu :( Požádal jsem ráno pana premiéra o svolání schůzky zástupců vlád… https://t.co/NtPrbgAIEu,1194975266877165569
@kalousekm,"@kalousekm KALOUSKU U TOHO UŽ NEBUDETE, naštěstí...","Masivní státní intervence na záchranu ekonomiky jsou nutné. Vedle toho musí ale probíhat intenzivní debata, co všec… https://t.co/nAynPyHFMQ",1194975266877165569
@tomio_cz,@tomio_cz https://t.co/sfzHTO38d8,Ředitel ČT Petr Dvořák chce zvýšit koncesionářský poplatek na 150 kč. To se nestydí toto požadovat v době koronavir… https://t.co/uJcEBo4avX,1194975266877165569
@kalousekm,@kalousekm KALOUSKU KONČÍTE TAK SI UŽÍVEJTE POSLEDNÍ ZÁCHVĚVY VLASTNÍ MALOSTI A PLACATOSTI https://t.co/JvzCkTBsQ2,"Promiňte, pane ministře, že budu osobní. Leč vzhledem k tomu, že jste ve věku mých dětí Vám chci říct , že kdyby to… https://t.co/F6ORPsYSzv",1194975266877165569
@kalousekm,"@kalousekm @SeznamZpravy @ODScz @AndrejBabis KALOUSKU, VY DOSTANETE JEDNOU MEDAJLIČKU ZA ZÁSLUY O STÁT ale jedině od mimozemšťanů...","@SeznamZpravy Vím, že musíte podávat vyčerpávající informace. Jenom mi přijde trochu nespravedlivé to zdůrazňování,… https://t.co/xjr2ATEl1U",1194975266877165569
@PiratIvanBartos,@PiratIvanBartos https://t.co/wt9ltVqcaI,"Zneužívat stav nouze k posilování pravomocí premiéra a vlády? S Piráty uděláme vše proto, aby naše země nešla cesto… https://t.co/W7TP3YJIvm",1194975266877165569
@PiratIvanBartos,"@PiratIvanBartos piráti hlídejte !!!! kryptokomunistů, těch tu je stále třeba... https://t.co/3jsbZR6Ff3","Hlídáme. Díky, Ondro! https://t.co/atlLFZFF2O",1194975266877165569
