category,comment_body,parent_body,poster_name
@AndrejBabis,"@AndrejBabis Já jen, že Vy oslavujeme Čínu, od které si musíme pomoc za nemalé částky koupit!!! Nepříjde Vám to trochu hloupé!!!","Chci upozornit, že na boj s COVID-19 nedává EU ani o korunu víc, než na kolik měly stát nárok už před pandemií. Sch… https://t.co/W9iF3y0cnq",1195106450651176963
@AndrejBabis,@AndrejBabis Nemáte zač. To samé uvítáme i u Vás!,"Nic takového nikdy nebylo na stole. Dneska jsme už popřeli karanténu Prahy, a teď popíráme i tuto šílenou fake news… https://t.co/A1K0xAg7JV",1195106450651176963
@kalousekm,@kalousekm Asi jim jde o voliče. To víte - chléb a hry.,"Vláda míní, že k omezování hromadných akcí není důvod, neb “virus se nerozšiřuje”. No, nevím. Až se rozšiřovat začn… https://t.co/ZofphJlvAY",1195106450651176963
@kalousekm,"@kalousekm Copak proti Covid 19, ale proti prezidentovi a premiérovi by nás mělo MZ chránit. Těch infarktů a mozkov… https://t.co/crApmyERrE","Je mi M. Zemana líto. Pamatuji si ho ještě jako muže s brilantním intelektem, se kterým jsem sice nesouhlasil, ale… https://t.co/Yum3UOXnlw",1195106450651176963
