category,comment_body,parent_body,poster_name
@kalousekm,@kalousekm @AndrejBabis @jhamacek A jakým způsobem by jste to řešil vy !!! Furt do něčeho pořád .........!!,"Dovoluji si zdvořilý dotaz na @AndrejBabis a @jhamacek: Když je to úplně k ničemu, vyhodili jsme za to peníze:
A) A… https://t.co/VActQhAxqm",1223862063761707010
