category,comment_body,parent_body,poster_name
@kalousekm,"@kalousekm @alenaschillerov Jen to ne, nepuste ho nikam , zvedne daně lidem už to tady bylo","Jsem zoufalý z toho, jak jsou zoufalí živnostníci. Paní ministryně,@alenaschillerov, pusťte mě v 7,00 ráno na minis… https://t.co/s3tQpDKDyl",1238857230046433295
@kalousekm,"@kalousekm @Blesk24 Pořad má lepší názory a odpovědi na danou problematiku ve všech směrech, a víc tomu rozumí než vy pane Kalousku.","Je mi M. Zemana líto. Pamatuji si ho ještě jako muže s brilantním intelektem, se kterým jsem sice nesouhlasil, ale… https://t.co/Yum3UOXnlw",1238857230046433295
