category,comment_body,parent_body,poster_name
@kalousekm,@kalousekm To zajistí Agrofert preci😡😡😡,"Co vlastně vláda sleduje? Pokud jenom nechce, aby živnostníci neumřeli hlady, tak 15 000 stačí. Pokud by ale chtěla… https://t.co/gsTnFvzJcJ",1239614843516260360
@kalousekm,@kalousekm @alenaschillerov Držím Vám palec. Dotahnete to do konce👍,"Co říká @alenaschillerov, je celkem jedno. Důležité bude, jak to budou vykládat soudy. Jestli vláda rozhodla něco,… https://t.co/iE7DIl7xfA",1239614843516260360
@kalousekm,"@kalousekm Nejen, že si dělají co chtějí, ale tato nekoncepční řešení nás vedou dál a dál do slepé uličky. Ale na k… https://t.co/WoSpV0mfV0","Text je pravdivý. Jenom bych doplnil, že na to doplatíme všichni. Ministr vnitra v čele ÚKŠ by mohl činit okamžitě… https://t.co/NEwvKQ33ON",1239614843516260360
