category,comment_body,parent_body,poster_name
@kalousekm,@kalousekm Chudák Kalouskovsky to je nový druh živočicha ktery je uvedeny na seznamu škodcu k vyhubeni.,"“.Jako politik to nepotřebuji. Stačí mi ty milardy, které si od státu nechávám posílat do mých firem, které mi nepa… https://t.co/YkguhCSzmH",1245962568239386625
@adamvojtechano,@adamvojtechano Právě dobře děláte že minimálně na 30 dní možná bude schválená a prodloužena karanténa. Nemáte to j… https://t.co/Pwq7OGFHe1,"Určitě je namístě prodloužit nouzový stav o 30 dní. Stále ještě nejsme za vrcholem epidemie, byť nás aktuální vývoj… https://t.co/w1aqyOwxsY",1245962568239386625
@kalousekm,@kalousekm Pane Kalousku bylo by lepší kdyby jste se nevyjadřoval už jste skurvil toho dost a dostal ministerstvo k… https://t.co/31h2LHGXoI,"Nemohu se s Vámi o tento milý vzkaz nepodělit. Ne proto, že by se mě snad dotkl. Proto ale, abychom si uvědomili, ž… https://t.co/aGTefq1F7G",1245962568239386625
@PiratIvanBartos,@PiratIvanBartos @adamvojtechano Ty vůbec nemáš co psát nevím který směrovány voliči zvolili vaši sektu.jste darmozrouti.,"@adamvojtechano Že se nestydíte pane ministře...
https://t.co/ot9SvhvdXd",1245962568239386625
