category,comment_body,parent_body,poster_name
@kalousekm,"@kalousekm @AndrejBabis Holt se drží, estébák.  
Si zapamatujete, nikdy neodstoupí, nikdy......",Českou republiku a její státní aparát používá premiér @AndrejBabis pro své soukromé kšefty. To není žádné překvapen… https://t.co/EaB0qW83Io,1388116580
@AndrejBabis,@AndrejBabis @realDonaldTrump How about you go fuck yourself ?,"Mr. President @realDonaldTrump, try tackling virus the Czech way. Wearing a simple cloth mask, decreases the spread… https://t.co/j0TkxlDlbI",1388116580
@adamvojtechano,@adamvojtechano Nějaké prázdnější sdělení pro nás nemáte?,V Bruselu jsem se setkal i s ministrem Itálie Robertem Speranzou. Mluvili jsme spolu o vážném nárůstu nemocných v I… https://t.co/zjwhBkWkS3,1388116580
@kalousekm,"@kalousekm Když už se to takhle sype, tak třeba hledat něco částečně  pozitivního.

Pravděpodobně zlevní nemovitost… https://t.co/FqjLYjtxKo","Česká ekonomika nezemře. Zcela jistě však projde krizí a změní se. Já pevně věřím, že se může změnit směrem k větší… https://t.co/K45gSjlA07",1388116580
@kalousekm,"@kalousekm Srovnání by poskytla pouze země která taková opatření nezavede. 
Vidělo by se jaký měla pandemie průběh… https://t.co/5lajCh4ZoC","nelze vyloučit scénář, že bychom měli ještě hlubší a delší recesi a navíc hromady mrtvých a nemocných s doživotními… https://t.co/i31bU9yaxa",1388116580
@AndrejBabis,"@AndrejBabis Někdo šíří po soc. sítích nepravdivou zprávu že jste nezneužil dotace a že nejste konfliktu zájmů.

Mr… https://t.co/q00McxcyEa","Někdo šíří po Facebooku nepravdivou zprávu, že budeme zavírat obchody. Není to pravda, nic takového jsme neřekli a… https://t.co/GKV8BWPAMg",1388116580
@adamvojtechano,@adamvojtechano @okundra Ména!,Aktuální čísla ke koronaviru. Celkem jsme již vyšetřili 1816 osob. K dnešnímu ránu stále platí 94 pozitivních pacientů.,1388116580
@kalousekm,"@kalousekm A každý génius jako Babiš  nebude moct remcat , tak se Číňani nemusí moc zaobírat s kvalitou materiálu a práce ...","Skutečná “Říše středu”..Epidemie vypukla v Číně. Od Číny se nakazil celý svět. A teď může Čína celý svět vydírat, p… https://t.co/KTNK1ZbKLl",1388116580
@PiratIvanBartos,"@PiratIvanBartos @PiratskaStrana Vzpomínáte na rady odbornice primářky V. Adámkové
""...jak jste zdraví, jeďte třeba… https://t.co/diKTVUneCE",Pojďme chránit ty nejohroženější mezi námi: seniory a osoby oslabené nemocí! Jak na to? Máte-li ve svém okolí kohok… https://t.co/SSvrjn5Yv6,1388116580
@kalousekm,"@kalousekm Vidle, hrábě.... do ruky a estébáka zahnat zpátky na Slovensko nebo do Albánie, nebo odkud vlastně je....","Tady nelze říkat, že “po bitvě každý generál”. Na nezbytnost zvyšovat odolnost rozpočtu vůči budoucí krizi jsme upo… https://t.co/QZtg9ptYcz",1388116580
@AndrejBabis,"@AndrejBabis Dá se tento idiot Babiš, s čepicí přes ksicht brát vůbec vážně?","Žádám zaměstnavatele, aby se postavili k této situaci čelem, uznali zaměstnancům překážku v práci, dali jim plnou m… https://t.co/Z04PVYhas7",1388116580
