category,comment_body,parent_body,poster_name
@kalousekm,@kalousekm Na to se dá reagovat Tyranií od Timothy Snidera. @AndrejBabis jede jako přes kopírák,Mnozí čeští politici se zamilovali do čínského diktátorského modelu potlačení pandemie. Proti tomu musíme postavit… https://t.co/oIrtYgC7Rz,179646505
@kalousekm,@kalousekm Na to se dá reagovat Tyranií od Timothy Snydera. @AndrejBabis jede jako přes kopírák... https://t.co/7LKJ756L97,Mnozí čeští politici se zamilovali do čínského diktátorského modelu potlačení pandemie. Proti tomu musíme postavit… https://t.co/oIrtYgC7Rz,179646505
