category,comment_body,parent_body,poster_name
@kalousekm,"@kalousekm Vy jste hodně zamindrákovanej čurák, pane Kalousku","Tohle je děsivé. To už snad opravňuje k ozbrojenému odporu. Doufám, že naši vládu ani nenapadne se tím inspirovat. https://t.co/29ClCFtGUS",215574586
@kalousekm,"@kalousekm Kdyby jste ty peníze, co jste za své doby sebral státním složkám dal do Státních hmotných rezerv, tak by tam teď něco bylo.","Čekám na prohlášení: “Kalousek může za to, že ve Státních hmotných rezervách žádné roušky nebyly.” A já jsem to cel… https://t.co/JfmobwNI96",215574586
@kalousekm,"@kalousekm Kalousku vy se radši zaměřte na sebe. Já se divim, že Vás si ještě někdo nepodal na ulici.","Promiňte, pane ministře, že budu osobní. Leč vzhledem k tomu, že jste ve věku mých dětí Vám chci říct , že kdyby to… https://t.co/F6ORPsYSzv",215574586
