category,comment_body,parent_body,poster_name
@kalousekm,@kalousekm @Posledniskaut @MinFinCZ Nicméně vás tam rozhodně nepustí 😓 Co kdyby jste to dokázal? Taková potupa pro… https://t.co/mQNe8ufiVV,"@Posledniskaut @MinFinCZ Pepka je na mě krátká.. @MinFinCZ má jednu výhodu: Na rozdíl od jiných úřadů, zejména mini… https://t.co/I59iJpsps4",2162549203
@kalousekm,"@kalousekm @Posledniskaut @MinFinCZ Se vší pokorou, můj rozhodně víc 😓",@moudova @Posledniskaut @MinFinCZ Dokázal bych to v každém případě. Rád jim to odevzdám a nebudu za to nic chtít. J… https://t.co/orXLQDUbPZ,2162549203
@adamvojtechano,@adamvojtechano A z čeho konkrétně ušetří? Z 0kč? Jak se to dělá? Poraďte. Asi 600000 malých živnostníků za takovou radu poděkují. Vtipálku,"Osoby samostatně výdělečně činné tak za každý měsíc ušetří 2 352 Kč, dohromady 14 112 Kč. Ty osoby samostatně výděl… https://t.co/xbmlWypq3a",2162549203
@kalousekm,@kalousekm Bohužel,"Nemohu se s Vámi o tento milý vzkaz nepodělit. Ne proto, že by se mě snad dotkl. Proto ale, abychom si uvědomili, ž… https://t.co/aGTefq1F7G",2162549203
@kalousekm,"@kalousekm A kdy už konečně nastane to spojení opozice? Včera, pardon, před léty bylo pozdě","V souvislosti s výsměchem živnostníkům, který včera vláda zveřejnila pod názvem “pětadvacítka”, připomínám svůj 9 d… https://t.co/TmeJFcDdxk",2162549203
@kalousekm,"@kalousekm Teda to je sprosťárna! Nehorázná drzost. Takhle funguje PR nejen Babiše, ale už celé vlády? My jako náro… https://t.co/4oqkrOkMi6","Promiňte, pane ministře, že budu osobní. Leč vzhledem k tomu, že jste ve věku mých dětí Vám chci říct , že kdyby to… https://t.co/F6ORPsYSzv",2162549203
