category,comment_body,parent_body,poster_name
@kalousekm,"@kalousekm Při vší úctě jíž jsem k vám schopen... Babiše nemusím a k jeho ministrům mám také nejednu výhradu, ale v… https://t.co/x4QrqJxzpU","K slibovaným státním intervencím malá kalkulace:
1. Plánovaný deficit: 40 mld
2. Propad příjmů : 60-100 mld
3. Zvýš… https://t.co/TiEDXqa4Sh",2609578225
