category,comment_body,parent_body,poster_name
@kalousekm,@kalousekm Zavři tu svoji držku politická nulo,"Skutečná “Říše středu”..Epidemie vypukla v Číně. Od Číny se nakazil celý svět. A teď může Čína celý svět vydírat, p… https://t.co/KTNK1ZbKLl",2633632812
@kalousekm,@kalousekm Zastánci Kalouska jsou dementní a jsou typickými přiblblými čecháčky.,"Za co mám být vděčný Číně? Za to, že její režim se několik týdnů snažil coronavirus ututlat a přispěl tak k jeho ro… https://t.co/GaLmaKsX1W",2633632812
