category,comment_body,parent_body,poster_name
@kalousekm,"@kalousekm Třídit lidi do kategorií léčit, nelecit odporuje civilizacnim hodnotám i lékařské prisaze.","Česká ekonomika nezemře. Zcela jistě však projde krizí a změní se. Já pevně věřím, že se může změnit směrem k větší… https://t.co/K45gSjlA07",2669428663
@kalousekm,@kalousekm @TOP09cz @EPP_CZ Gratuluju. Třeba se to v EP ujme. Asi tak dva roky jsem o nutnosti vyloučit Orbanovu st… https://t.co/HSSxm1I2zF,"Předsednictvo @TOP09cz přijalo jednomyslně usnesení, že bude podporovat vyloučení strany Fidész V. Orbána z Evropsk… https://t.co/Hf0aFSXLQq",2669428663
@kalousekm,"@kalousekm @Blesk24 Kdysi,když jsem byl šéfredaktorem Lidovek,jsem podlehl imperativu rodící se demokracie a navští… https://t.co/DfPpMx72Kp","Je mi M. Zemana líto. Pamatuji si ho ještě jako muže s brilantním intelektem, se kterým jsem sice nesouhlasil, ale… https://t.co/Yum3UOXnlw",2669428663
