category,comment_body,parent_body,poster_name
@tomio_cz,"@tomio_cz No skanie obrovské, voľby vyhrál zmiešaný tovar a začína festival trapností. Prajem veľa šťastia, lebo as… https://t.co/bWzJWfymX1","Volby na Slovensku vyhrála strana, která prosazuje přímou demokracii - to je skvělá zpráva pro nás a bezesporu zkla… https://t.co/Oh2BcQ0V13",2722233986
@kalousekm,@kalousekm @alenaschillerov Už tam byl a nic nedokázal 🤔😒,"Jsem zoufalý z toho, jak jsou zoufalí živnostníci. Paní ministryně,@alenaschillerov, pusťte mě v 7,00 ráno na minis… https://t.co/s3tQpDKDyl",2722233986
