category,comment_body,parent_body,poster_name
@kalousekm,"@kalousekm @AndrejBabis @jhamacek Kdo ví, co je na tom pravdy.Zajímalo by mě, odkud byste bral materiál vy. Číně op… https://t.co/pR0JzOKC2l","Dovoluji si zdvořilý dotaz na @AndrejBabis a @jhamacek: Když je to úplně k ničemu, vyhodili jsme za to peníze:
A) A… https://t.co/VActQhAxqm",2775314439
@adamvojtechano,@adamvojtechano @AndrejBabis @ZdravkoOnline Fakt se ještě chválite???,"Bilance obchodního týmu @ZdravkoOnline za víkend. Doručeno: 100 000 respirátorů, 82 000 roušek, 300 litrů dezinfekc… https://t.co/bSFkix2Ga1",2775314439
@kalousekm,"@kalousekm Teď jen plivete, dobře víte, že to žádný návrh nebyl. Jak jsem jednoznačně souhlasil se snahou, aby nepr… https://t.co/FnBCCju1eX","Kdyby tohle chtěla vážně vláda prosadit, tak to je přesně ten okamžik, kdy v souladu s Ústavou mají občané právo po… https://t.co/IK9RBUTbOi",2775314439
@kalousekm,"@kalousekm Teď jen plivete, dobře víte, že to žádný návrh nebyl. Jak jsem jednoznačně souhlasil se snahou, aby nepr… https://t.co/FnBCCju1eX","Kdyby tohle chtěla vážně vláda prosadit, tak to je přesně ten okamžik, kdy v souladu s Ústavou mají občané právo po… https://t.co/IK9RBUTbOi",2775314439
@kalousekm,"@kalousekm Teď jen plivete, dobře víte, že to žádný návrh nebyl. Jak jsem jednoznačně souhlasil se snahou, aby nepr… https://t.co/FnBCCju1eX","Kdyby tohle chtěla vážně vláda prosadit, tak to je přesně ten okamžik, kdy v souladu s Ústavou mají občané právo po… https://t.co/IK9RBUTbOi",2775314439
@kalousekm,"@kalousekm Teď jen plivete, dobře víte, že to žádný návrh nebyl. Jak jsem jednoznačně souhlasil se snahou, aby nepr… https://t.co/FnBCCju1eX","Kdyby tohle chtěla vážně vláda prosadit, tak to je přesně ten okamžik, kdy v souladu s Ústavou mají občané právo po… https://t.co/IK9RBUTbOi",2775314439
@kalousekm,"@kalousekm Teď jen plivete, dobře víte, že to žádný návrh nebyl. Jak jsem jednoznačně souhlasil se snahou, aby nepr… https://t.co/FnBCCju1eX","Kdyby tohle chtěla vážně vláda prosadit, tak to je přesně ten okamžik, kdy v souladu s Ústavou mají občané právo po… https://t.co/IK9RBUTbOi",2775314439
@kalousekm,"@kalousekm Teď jen plivete, dobře víte, že to žádný návrh nebyl. Jak jsem jednoznačně souhlasil se snahou, aby nepr… https://t.co/FnBCCju1eX","Kdyby tohle chtěla vážně vláda prosadit, tak to je přesně ten okamžik, kdy v souladu s Ústavou mají občané právo po… https://t.co/IK9RBUTbOi",2775314439
@kalousekm,"@kalousekm Teď jen plivete, dobře víte, že to žádný návrh nebyl. Jak jsem jednoznačně souhlasil se snahou, aby nepr… https://t.co/FnBCCju1eX","Kdyby tohle chtěla vážně vláda prosadit, tak to je přesně ten okamžik, kdy v souladu s Ústavou mají občané právo po… https://t.co/IK9RBUTbOi",2775314439
