category,comment_body,parent_body,poster_name
@kalousekm,"@kalousekm @AndrejBabis Pane @kalousekm, asi mám představu co se stane, nechá-li se nějaká skupina ekonomicky vymří… https://t.co/PkYyb2ZzWG","Když @AndrejBabis vyzýval k “táhnutí za jeden provaz”, měl už na konci toho provazu spletenou oprátku na živnostník… https://t.co/1fB1S2aDl5",2900375919
@kalousekm,"@kalousekm Stejně za to můžeš ty, že nemáme masky a roušky, ty Kalousku jeden!!","Množí se texty s myšlenkou, že důsledná ochrana před virem nestojí za ekonom.krizi. Vycházejí z předpokladu, že pro… https://t.co/r7aJRGsn7q",2900375919
