category,comment_body,parent_body,poster_name
@kalousekm,@kalousekm @AndrejBabis @jhamacek To mi připomíná padáky co koupil jistý výzbrojní náčelník.,"Dovoluji si zdvořilý dotaz na @AndrejBabis a @jhamacek: Když je to úplně k ničemu, vyhodili jsme za to peníze:
A) A… https://t.co/VActQhAxqm",372343378
