category,comment_body,parent_body,poster_name
@kalousekm,"@kalousekm Ono to je logické, Maďaři jsou v tom přejímání bratrských zkušeností z Číny a Ruska o několik let před n… https://t.co/orvQE23IdQ","Tohle je děsivé. To už snad opravňuje k ozbrojenému odporu. Doufám, že naši vládu ani nenapadne se tím inspirovat. https://t.co/29ClCFtGUS",4235092648
@kalousekm,"@kalousekm Naprosto s tím souhlasím. Čína, jako pachatel této pandémie by naopak měla platit celému světu za to, že… https://t.co/cxuJTG3nSi","Za co mám být vděčný Číně? Za to, že její režim se několik týdnů snažil coronavirus ututlat a přispěl tak k jeho ro… https://t.co/GaLmaKsX1W",4235092648
@kalousekm,"@kalousekm Až tohleto skončí, bylo by skutečně na místě, aby se soudní politici spojili a vymetli ten Augiášův chlí… https://t.co/Jo6MiYSt4C","Pokrytecká, impotentní vláda... Týden měli strach to nařídit, protože platí, že když roušky nařídím, musím je taky… https://t.co/qTdi9y87q0",4235092648
@kalousekm,"@kalousekm Tak nevím, zda by na pána neměli poslat doc. Chocholouška. Děsí mě, že i tito lidé mají volební právo.","Nemohu se s Vámi o tento milý vzkaz nepodělit. Ne proto, že by se mě snad dotkl. Proto ale, abychom si uvědomili, ž… https://t.co/aGTefq1F7G",4235092648
@alenaschillerov,"@alenaschillerov Paní ministryně. Živnostníci potřebují okamžitou akci. Věřím, že se s tím svezou i nějací vykukové… https://t.co/iLHY8KUnXf","Chci vám říct, že všechny vaše reakce a připomínky k programu pro OSVČ Pětadvacítka velmi pozorně vnímám. Program m… https://t.co/MNpfpGrqls",4235092648
@kalousekm,"@kalousekm @JiriPehe Bohužel máte naprostou pravdu. Aby se decision makeři zalíbili své voličské základně, raději n… https://t.co/3dIxFt4NJ1","@JiriPehe Marně jsme vládu prosili: “Pojďme tomu naproti, budeme si moci vybrat sami, v táborech je i spousta křesť… https://t.co/2Zo7a17cao",4235092648
@adamvojtechano,"@adamvojtechano Pane ministře, proč jste ještě nezrušili všechna sportovní utkání a další hromadné akce. Není snad… https://t.co/8ZIlFw6G7m","Právě jsem podepsal výjimky z mimořádného opatření týkající se karantény pro ty, kteří se vrací z Itálie. Opatření… https://t.co/8NBIXCvZVB",4235092648
