category,comment_body,parent_body,poster_name
@AndrejBabis,"@AndrejBabis Skvělý nápad, Vůdče. Snad to na Chodově na Pyšelské nezapadne.","A vyzýváme i další velké firmy, aby se zapojily.",46351776
@kalousekm,"@kalousekm @P_Fiala Orbán není součástí Evropské lidové strany, stejně jako TOP 09...?","Umím si představit, jak bylo tohle pro @P_Fiala těžké a na jak tenký led ve vlastní straně vstoupil. O to víc si vá… https://t.co/8Echer2WDI",46351776
