category,comment_body,parent_body,poster_name
@kalousekm,@kalousekm Mozná plánuje crowdfunding 😀. Takový to - roušky si ušijte sami ventilátorama a podporou živnostníků můž… https://t.co/jAgEwrSVqF,"Co vlastně vláda sleduje? Pokud jenom nechce, aby živnostníci neumřeli hlady, tak 15 000 stačí. Pokud by ale chtěla… https://t.co/gsTnFvzJcJ",566612125
@kalousekm,"@kalousekm @rprymula Ačkoli nejsem fanoušek pana Prymuly ani ANO, tak po shlédnutí celého rozhovoru jsem přehodnoti… https://t.co/IkSJQXkbKx","Šokující výrok náměstka @rprymula o zavřených hranicích na 2 roky znovu naléhavě nastoluje otázku, zda je správné,… https://t.co/APFVuO7TO4",566612125
