category,comment_body,parent_body,poster_name
@kalousekm,@kalousekm 👍👍👍,"“Vám poděkování a lásku Vám...” Kdysi jsem to musel umět rusky, čínsky jsem se to na rozdíl od mnoha “kolegů” dosud… https://t.co/TBfMvAt53f",702488116037349376
@kalousekm,@kalousekm @AndrejBabis Jak ještě dnes může Babiše někdo podporovat a věřit mu. To snad není pravda!,"Já jsem byl při minulé krizi hodně drsný, možná až moc. Prosadil jsem snížení příjmů všem o 4-15%. Ale nikdy by mě… https://t.co/ZSx9C3Zc92",702488116037349376
@adamvojtechano,@adamvojtechano To je sráč.,Češi jako světoví rouškaři! Světová média vyzdvihují naše opatření k povinnému nošení pokrývky úst a nosu. Je úžasn… https://t.co/hDJXSlS7kj,702488116037349376
@kalousekm,@kalousekm @AndrejBabis Babiš prostě mluví pravdu jen když se splete.,"Všichni víme, že premiér @AndrejBabis je podlý a zbabělý lhář. Takže nic nového. Překvapivé však je, že poslední do… https://t.co/jaCdyr8jI1",702488116037349376
