category,comment_body,parent_body,poster_name
@kalousekm,"@kalousekm @AndrejBabis @jhamacek Pane Kalousek nemyslíte, že tohle je trochu přes čáru? Jak má chudák Andrej ze tř… https://t.co/qbzidoVEmk","Dovoluji si zdvořilý dotaz na @AndrejBabis a @jhamacek: Když je to úplně k ničemu, vyhodili jsme za to peníze:
A) A… https://t.co/VActQhAxqm",737247769
