category,comment_body,parent_body,poster_name
@AndrejBabis,@AndrejBabis To je tak když někdo má přeřikat věty napsané a požadované někým jinym(viz to o Zemanovi)a přitom není… https://t.co/zEQL8SKZg3,Dnešní rozhovor pro MF DNES. https://t.co/6gExgAzWyL,748222419383558144
@kalousekm,@kalousekm @AndrejBabis @jhamacek Za C) je nejvíc spravně!!!!...Nejedly? nebo ten zloprcek Mynař?..vypada to na jej… https://t.co/s59nihjQms,"Dovoluji si zdvořilý dotaz na @AndrejBabis a @jhamacek: Když je to úplně k ničemu, vyhodili jsme za to peníze:
A) A… https://t.co/VActQhAxqm",748222419383558144
@kalousekm,"@kalousekm @rprymula Mate naprostou pravdu,cela rodina to cítí stejne...náměstek je koště,které někdo(AB) drží v ru… https://t.co/VpYOl9meiB","Šokující výrok náměstka @rprymula o zavřených hranicích na 2 roky znovu naléhavě nastoluje otázku, zda je správné,… https://t.co/APFVuO7TO4",748222419383558144
@kalousekm,"@kalousekm Také jsme se tomu doma https://t.co/MZrGeRYEZw to klasika...jako ten článek s Peroutkou,on pindá čím dal tím větší nesmysly..","Prezident: “Podporujte opatření vlády.”
Vláda: “Zakazujeme návštěvy v nemocnicích a domovech pro seniory.”
Preziden… https://t.co/C8kLuRiPR5",748222419383558144
@kalousekm,"@kalousekm Babiš teď na ČT:...měli bychom se poučit u Činy,jak si poradila s koronavirem,jak ho zastavila!!!...cože?..nechápu?",Podpora rozhodnutí BRS nás nezbavuje odpovědnosti žádat  mnohem lepší organizaci nezbytných opatření.Neschopnost ry… https://t.co/TQk3blisFL,748222419383558144
@kalousekm,"@kalousekm Andrej by se posral vzteky kdyby v čele stal ministr,natož Hamáček...",Prof. Prymuly si velmi vážím jako předního epidemiologa. V čele Ústředního krizového štábu má ale stát osoba s rozs… https://t.co/J1HfGGTCjq,748222419383558144
@kalousekm,"@kalousekm Vás chválím pane Kalousku a pan Vojtěch nechť jde už konečně do prdele,šíji ve svém pokročilém věku rouš… https://t.co/SgDGz9cyzy","Promiňte, pane ministře, že budu osobní. Leč vzhledem k tomu, že jste ve věku mých dětí Vám chci říct , že kdyby to… https://t.co/F6ORPsYSzv",748222419383558144
@adamvojtechano,"@adamvojtechano @WHO Takže ,,z nouze ctnost”..že pane ministře?!...inu ANO vytáhne i z jalový krávy tele.","Právě teď. @WHO připouští, že nošení roušek, i po domácku vyrobených, má smysl a skutečně může pomoci zmírnit šířen… https://t.co/sBQqlKbGwe",748222419383558144
