category,comment_body,parent_body,poster_name
@kalousekm,"@kalousekm @adamvojtechano Otevřu si flašťičku,postnu další Tweet, věřte milí čechačci se mnou bude líp. Útočit na… https://t.co/3md132bbFm",Ministr @adamvojtechano : “O fungování distribuce bude v pondělí jednat vláda.”Deset dní už je vyhlášen nouzový sta… https://t.co/suW2FpEdG5,772285984436285440
@kalousekm,"@kalousekm @ZaoralekL Miroslave,Lubomire, hrajete na nějaký nástroj, pěkně zpíváte, umíte tančit, znáte noty?  Poku… https://t.co/yZkktRombQ","Když se naši přední interpreti klasické hudby budou muset živit jinak a nebudou mít čas a sílu cvičit, tak hrozí, ž… https://t.co/ed9HlrCjh0",772285984436285440
