category,comment_body,parent_body,poster_name
@adamvojtechano,@adamvojtechano @AndrejBabis Budu moci být i pendler do Sovětského svazu?,Aktuálně ke koronaviru. K dnešnímu ránu máme 1 497 nakažených. A zvládáme testovat více lidí. Za včerejšek dokonce… https://t.co/KuUDn71coL,855194802
@PiratIvanBartos,"@PiratIvanBartos My si tě Ivane taky pohlídáme, to se nebuj, ju?","Pirátské týmy každý týden připravují návrhy, které jsou klíčové nejen pro dobu epidemie. Otázku kompenzací jsme pan… https://t.co/QAO4FncSQh",855194802
@adamvojtechano,"@adamvojtechano @AndrejBabis To je vtip, takže vy ""podpoříte""  podnikatele a potom jim budete nakazovat, co mají kupovat",Nově také musí podnikatelé provozující maloobchodní prodejnu potravin se samoobslužným prodejem bezplatně zákazníků… https://t.co/t7q2MuVHil,855194802
@kalousekm,@kalousekm @Telicka @PepaKopecky @alenaschillerov Jsou to prostě socialistický čuráci,@PepaKopecky @alenaschillerov Dobrý..To je minimální mzda. OSVČ si sice budou moci nakoupit levné potraviny ve slev… https://t.co/ONPsfTA6uw,855194802
@adamvojtechano,@adamvojtechano @AndrejBabis Vyvěšme rudé vlajky soudruzi! Mávátka všem!,Máme ale také dobré zprávy. Ústecký a Plzeňský kraj hlásí vyléčené. Jejich počet tak vzrostl na 10.,855194802
@alenaschillerov,@alenaschillerov Vy si fakt nevidíte do huby,"Dobře vím, že peníze dnes jsou důležitější než peníze zítra. V těžké době to platí dvojnásob. Vládě proto navrhnu z… https://t.co/xzlc8q4NB7",855194802
@adamvojtechano,"@adamvojtechano @AndrejBabis Hele, poslední dobou jsi nějak potichu, co ty máničko 😁",V některých zemích se onemocnění COVID-19 nevyvíjí dobře. Rozšířili jsme tak seznam států s vysokým rizikem přenosu… https://t.co/eU8WVCGD5n,855194802
@kalousekm,"@kalousekm Vždyť souhlasím, jsou to diletanti! Ale bude to zase jako za nás, všichni budou mít hovno, nikdo nikam n… https://t.co/GRmxXDZ5DR","@porucik_tronda To je tím, že máme jednu roušku na 8-12 parlamentních soudruhů, Vy tupče!",855194802
@adamvojtechano,"@adamvojtechano @AndrejBabis Vsaď se soudruhu, že tě ten STBák hned jak to skončí odstřelí",Aktuální stav. V ČR je 1 775 pacientů s koronavirem. Včera jsme zaznamenali vysoký počet provedených testů. Laborat… https://t.co/an33rzW1XV,855194802
@adamvojtechano,@adamvojtechano @AndrejBabis Kontrolní otázka soudruzi: “Kdy pan předseda odstřelí máničku Adama?”,Aktuální stav. V ČR je 1 775 pacientů s koronavirem. Včera jsme zaznamenali vysoký počet provedených testů. Laborat… https://t.co/an33rzW1XV,855194802
@AndrejBabis,"@AndrejBabis @Markus_Soeder Soudruhu, dej tam rovnou drát!","Mluvil jsem s bavorským premiérem @Markus_Soeder, který vyslovil obavy z našeho opatření nařizujícího našim pendler… https://t.co/UU6z02M1Nj",855194802
@alenaschillerov,@alenaschillerov Co to je daňové přiznání? Podle mě nic takovýho neexistuje,Místo razítka SMS. Pokud jste se rozhodli podat přiznání k dani z příjmů v těchto dnech (kvůli vratce) a nepoužívát… https://t.co/0PUzgjgfvt,855194802
@alenaschillerov,"@alenaschillerov Co to je daňové přiznání? Podle mě nic takovýho neexistuje, jelikož vláda nemá ani korunu, a tak ž… https://t.co/K4uUQviSDV",Místo razítka SMS. Pokud jste se rozhodli podat přiznání k dani z příjmů v těchto dnech (kvůli vratce) a nepoužívát… https://t.co/0PUzgjgfvt,855194802
@kalousekm,"@kalousekm @ZdravkoOnline Potřebujeme, aby sem soudruzi navezli jejich kapitál 😁","Čína byla vyřazena ze seznamu rizikových zemí? Je opravdu rozumné těm jejich číslům věřit, @ZdravkoOnline? Já bych… https://t.co/7aravnn2DC",855194802
@adamvojtechano,"@adamvojtechano Tys mě tak nasral, že kvůli tomu ani neusnu! Asi si ještě půjdu zazpívat","Osoby samostatně výdělečně činné tak za každý měsíc ušetří 2 352 Kč, dohromady 14 112 Kč. Ty osoby samostatně výděl… https://t.co/xbmlWypq3a",855194802
@kalousekm,"@kalousekm Míro, včera ti to nějak padalo ta rouška, bylo mi tě líto ještě když jsi byl v souboji s humanistou a pobočníka Bureše",Proč jsme včera nepodpořili novelu zákona o st. rozpočtu? Vláda odmítá na svém provozu ušetřit jedinou korunu. Stat… https://t.co/0iDBvmGIiN,855194802
@alenaschillerov,@alenaschillerov Stejně nám úplně zdevalvuješ měnu s kámošema z ČNB,"Poslanci právě schválili novelu zákona o státním rozpočtu na rok 2020. Máme polštář, díky kterému současné rány tuz… https://t.co/RYj7mwDNHA",855194802
@alenaschillerov,"@alenaschillerov Vy si fakt nevidíte do huby,","Dobře vím, že peníze dnes jsou důležitější než peníze zítra. V těžké době to platí dvojnásob. Vládě proto navrhnu z… https://t.co/xzlc8q4NB7",855194802
@kalousekm,"@kalousekm @AndrejBabis Přesně, takový svině jsme nebyli ani my","Já jsem byl při minulé krizi hodně drsný, možná až moc. Prosadil jsem snížení příjmů všem o 4-15%. Ale nikdy by mě… https://t.co/ZSx9C3Zc92",855194802
@adamvojtechano,@adamvojtechano @AndrejBabis Nechci slevu zadarmo!,"Osoby samostatně výdělečně činné tak za každý měsíc ušetří 2 352 Kč, dohromady 14 112 Kč. Ty osoby samostatně výděl… https://t.co/xbmlWypq3a",855194802
@kalousekm,@kalousekm Můj učitel je Vladimir Iljič Lenin,"Dnes je den učitelů. Karanténní opatření před ně postavila úplně nové výzvy. Přeji jim hodně sil, tvůrčí invence a… https://t.co/RoVSn0FMg8",855194802
@alenaschillerov,@alenaschillerov A půjčíte mi na barák?,"Zavádíme finanční kompenzace pro zaměstnavatele, kterým současná situace znemožnila přidělovat práci zaměstnancům z… https://t.co/zguwB0H8jG",855194802
@kalousekm,"@kalousekm @CNB_cz Teď se poprvé za 30 let nemýšlíš, soudruhu. Jinak samozřejmě můžeš úplně za všechno",Jsem zásadně proti návrhu. Mohu se samozřejmě mýlit. Leč snaha protlačit to za každou cenu v legislativní nouzi mi… https://t.co/mLsCaaUv71,855194802
@kalousekm,"@kalousekm @CNB_cz Souhlasím, jsou to šmejdi!",Jsem zásadně proti návrhu. Mohu se samozřejmě mýlit. Leč snaha protlačit to za každou cenu v legislativní nouzi mi… https://t.co/mLsCaaUv71,855194802
@adamvojtechano,"@adamvojtechano @AndrejBabis To je úplně k hovnu, soudruhu! To bude stát ve výsledku ještě pěkný peníze!","Osoby samostatně výdělečně činné tak za každý měsíc ušetří 2 352 Kč, dohromady 14 112 Kč. Ty osoby samostatně výděl… https://t.co/xbmlWypq3a",855194802
@AndrejBabis,"@AndrejBabis @ZdravkoOnline Super práce soudruhu, zítra budeš povýšen na nástěnkáře!","„Vaše potíže, jsou naše potíže.“ To mi řekl vietnamský premiér Nguyen Xuan Phúc při 30minutovém rozhovoru, kdy potv… https://t.co/ep0mvfKSAk",855194802
@AndrejBabis,@AndrejBabis A něco na snižování daní by tam nebylo?,"A nabízí i další pomoc, antibakteriální látkové roušky. Díky moc, vážíme si toho.",855194802
@kalousekm,@kalousekm My jsme třeba za 40 let neprožrali a nezdevastovali nic a zanechali jsme vám tu podle některých blbečků prosperující podniky.,"Paní rektorka je dáma, říká to tedy o něco slušněji, než já. Nejvíc mě na tom štve, že jsme jim to naléhavě říkali… https://t.co/f6xuHEZJK8",855194802
@adamvojtechano,@adamvojtechano @AndrejBabis Tak hlavně aby to nedopadlo jako s těma lžičkama z NDR!,Odborníci z ČVUT vyvinuli respirátor na 3D tiskárně. Speciální filtr vydrží asi týden. Je to ještě vyšší ochrana ne… https://t.co/h37wgZpfH6,855194802
@kalousekm,@kalousekm @jhamacek To dohodil určitě Luftjatda 😂,"Kdyby @jhamacek přiznal, že respirátory FFP3 nedokáže sehnat, stejně bych mu za ústenky zatleskal, jenom přitom nem… https://t.co/Zexx1FNWIJ",855194802
@alenaschillerov,"@alenaschillerov @MinFinCZ @snemovna Okamžitě nech firmám a živnostníkům co nejvíce peněz můžeš, jinak za chvíli ne… https://t.co/EuXcLarwfs",Sněmovní rozpočtový výbor právě schválil návrh @MinFinCZ pozastavit EET na dobu nouze a další tři měsíce. Chceme ta… https://t.co/TeJhHOAocL,855194802
@alenaschillerov,@alenaschillerov S tou ČNB to snad nemyslíte vážně,Podepsala jsem rozšířený #liberacnibalicek úlev pro poplatníky. Navazujeme na první balíček a promíjíme zálohy na D… https://t.co/hrLUMC4Ny6,855194802
@alenaschillerov,"@alenaschillerov @zufanek @GoodMirek Soudružko, dejte si ty vaše aktivní ovečky do latě!","@zufanek @GoodMirek Volá Vám generální ředitel Generálního ředitelství cel Milan Poulíček, zvedněte, prosím 🙂",855194802
@alenaschillerov,"@alenaschillerov @snemovna Soudružko, kdybyste neprožírali za poslední roky prosperity rozpočet, třeba by nemusel b… https://t.co/lPXV1s2i2E","Naše ekonomika je silná, stav veřejných financí dobrý, bankovní sektor mimořádně zdravý, samosprávy mají bezprecede… https://t.co/MzjRBf8W77",855194802
@AndrejBabis,"@AndrejBabis @CNB_cz Vy jste fakt čuráci, soudruhu!","Vláda dnes v 9:30 mimořádně projedná návrh změny zákona o @CNB_cz, díky kterému ČNB pomůže státu ve financování vše… https://t.co/FtvCrejwuN",855194802
@kalousekm,"@kalousekm @JaroslavFalynek Soudruhu, moc s tebou nesouhlasím, ale teď máš pravdu!","Vláda snižuje výdaje na obranu o větší částku (2,9 mld), než o kolik snižuje slevy na jízdné(1,5 mld), které odmítá… https://t.co/bK2XXc0UdS",855194802
@kalousekm,@kalousekm @AndrejBabis Asi jako to teď děláme my po revoluci!,"Pokud chce @AndrejBabis “předhodit národu viníka”, musí si stoupnout do první řady. Prezident ČLK MUDr. Kubek na ně… https://t.co/HhTK2XCPC6",855194802
@AndrejBabis,"@AndrejBabis Konečně jsme se toho dočkali, soudruhu! Já věděl, že jsme tě dobře vycepovali!",Dnešní rozhovor pro MF DNES. https://t.co/6gExgAzWyL,855194802
@alenaschillerov,"@alenaschillerov Já ti to radši pošlu dvakrát, ať máš z čeho rozdávat! Jinak ten socialismus nevybudujeme!","Je dobře, že na naše liberační opatření v oblasti daní (např. odklad termínů daňových přiznání či odpuštění druhé l… https://t.co/sVOGsoWAfa",855194802
@AndrejBabis,"@AndrejBabis Soudruhu, už vyvěšuju vlajku CCCP","Mám něco na srdci. Sledujte dnes ve 20.05 můj mimořádný projev. Česká televize, Nova, Prima a Český rozhlas Radiožu… https://t.co/JB2jLZGW1O",855194802
@adamvojtechano,@adamvojtechano @CT24zive @ZdravkoOnline Můžete něco poslat i do Skotska? Angličanům se nedá věřit!,Podle vědeckých poznatků se lék Plaquenil jeví jako potenciálně účinný na onemocnění COVID-19. Od dnešní 18 hodiny… https://t.co/eQO5r1UlMD,855194802
@alenaschillerov,"@alenaschillerov A teď nám řekni, kolik bude schodek!","Navyšujeme rozpočtovou rezervu o 59,3 mld. Kč. Prostředky půjdou na zamezení šíření a řešení dopadů COVID-19. Podpo… https://t.co/DXK01j1g35",855194802
@alenaschillerov,@alenaschillerov @snemovna Dostanete za to cenu Vladimira Iljiče Lenina!,"Naše ekonomika je silná, stav veřejných financí dobrý, bankovní sektor mimořádně zdravý, samosprávy mají bezprecede… https://t.co/MzjRBf8W77",855194802
@alenaschillerov,@alenaschillerov Podle mě bychom měli začít dotovat i  tankování na benzínce,"Je dobře, že na naše liberační opatření v oblasti daní (např. odklad termínů daňových přiznání či odpuštění druhé l… https://t.co/sVOGsoWAfa",855194802
@kalousekm,@kalousekm @rprymula Jak se dostanu za rodinou so Skotska?,"Šokující výrok náměstka @rprymula o zavřených hranicích na 2 roky znovu naléhavě nastoluje otázku, zda je správné,… https://t.co/APFVuO7TO4",855194802
@kalousekm,@kalousekm @rprymula A jak se dostanu za rodinou do Skotska? Asi holt půjdu učit na VŠE.,"Šokující výrok náměstka @rprymula o zavřených hranicích na 2 roky znovu naléhavě nastoluje otázku, zda je správné,… https://t.co/APFVuO7TO4",855194802
@kalousekm,"@kalousekm Všichni chceme všechno kupovat levně, proto se všechno vyrábí v Číně. Ono koupit si stejné boty za 1000… https://t.co/wIfz78iHya","Skutečná “Říše středu”..Epidemie vypukla v Číně. Od Číny se nakazil celý svět. A teď může Čína celý svět vydírat, p… https://t.co/KTNK1ZbKLl",855194802
@kalousekm,"@kalousekm Stejně na všechno můžete vy, mistře.","Nebudu vládě vyčítat ani propad příjmů, ani zvýšené výdaje související s pandemií. Za to vláda nemůže. Trpce jí vša… https://t.co/K2I7Aq20E2",855194802
@kalousekm,@kalousekm A ještě něco! Zdroje jsou!,"Nebudu vládě vyčítat ani propad příjmů, ani zvýšené výdaje související s pandemií. Za to vláda nemůže. Trpce jí vša… https://t.co/K2I7Aq20E2",855194802
@kalousekm,"@kalousekm @P_Fiala Tenhle šašek nemá být vůbec předsedou ODS! Saša Vondra, to by byla jiná, to je dravec jako ty s… https://t.co/PB7vzaXAYQ","Umím si představit, jak bylo tohle pro @P_Fiala těžké a na jak tenký led ve vlastní straně vstoupil. O to víc si vá… https://t.co/8Echer2WDI",855194802
@AndrejBabis,"@AndrejBabis Na sračky nemám čas, sorry","Tady máte rozhovor z dnešního Práva. Přečtěte si ho prosím, je důležitý.
https://t.co/B7OkrMb9KD https://t.co/UQGqf4trCc",855194802
@kalousekm,"@kalousekm @Blesk24 Soudruzi, zato primárně ale může jeho tým kolem něj, který ho silně ovlivňuje. To není rozhodně z jeho hlavy.","Je mi M. Zemana líto. Pamatuji si ho ještě jako muže s brilantním intelektem, se kterým jsem sice nesouhlasil, ale… https://t.co/Yum3UOXnlw",855194802
@AndrejBabis,"@AndrejBabis @FNBrno Jak je to možné, že východňáři pomáhají západu?",Francie se na nás obrátila s žádostí o pomoc s hospitalizací svých pacientů. Vzhledem k dostatečné kapacitě jsme ji… https://t.co/YHnZqKEZOt,855194802
@AndrejBabis,"@AndrejBabis @FNBrno Některé komentáře ale naprosto nechápu. Někteří lidé by měli plnou hubu keců, i kdyby Babiš sral zlatý cihly.",Francie se na nás obrátila s žádostí o pomoc s hospitalizací svých pacientů. Vzhledem k dostatečné kapacitě jsme ji… https://t.co/YHnZqKEZOt,855194802
@alenaschillerov,"@alenaschillerov @financnisprava Už jsem ti to dneska poslal, tak se pořádně nažerte.","Pětadvacítka pro OSVČ má jasná pravidla. Klíčovým ukazatelem bude pokles tržeb nejméně o 10%, který se doloží čestn… https://t.co/KnXmIEH31v",855194802
@kalousekm,@kalousekm Nejsi ty náhodou v marketingovém týmu Marka Prchala. Bohužel.,Něco pro uklidnění: Pan profesor Prymula už není “pouhým nestranickým odborníkem”. Už je to “náš člověk” na stránká… https://t.co/7MasxlnlvI,855194802
@tomio_cz,"@tomio_cz @YouTube Já si soudruhu myslím, že naši nepřítelé jsou hlavně všichni demagogové jako jsi ty na jedné str… https://t.co/B5FsjJGPEz",Tomio Okamura: EU je největším nepřítelem pro naši budoucnost. https://t.co/9k83k2uGwL prostřednictvím @YouTube,855194802
@tomio_cz,"@tomio_cz Ty vole, ty spamuješ jak divej.","Europoslanec KDU-ČSL Tomáš Zdechovský,který hlasoval pro přijímání migrantů,si vymyslel a zalhal,že prý SPD útočí n… https://t.co/a8oZiHbl69",855194802
@adamvojtechano,"@adamvojtechano @AndrejBabis @ArmadaTweetuje Ty vole, řekni mi jak můžeš tweetovat, když kecáš hovna v televizi?","Další pomůcky pro zdravotníky dorazily do ČR. Obří Ruslan dnes přivezl naši objednávku 1 000 000 respirátorů, 550 0… https://t.co/1hfpqYx8gQ",855194802
@kalousekm,"@kalousekm @Telicka Mirku, přijď na hrad, dáme si panáka!","@Telicka Nebuďte tak podezíravý. Jídlo si před sebe dali, aby prokázali, jak mají pevnou vůli dodržovat nařízení vl… https://t.co/e4RKvs2TLZ",855194802
@alenaschillerov,"@alenaschillerov @MinFinCZ Alenko, jsi hodná holka.","U příležitosti Světového dne na zvýšení povědomí o autismu, v ČR pod názvem Česko svítí modře, se dnes spousta budo… https://t.co/5ESqZP9kX5",855194802
@alenaschillerov,"@alenaschillerov @vnitro Jsi úžasná, Alenko! Kam ti mohu poslat květinu?","Na nákup ochranných prostředků jsem pro @vnitro z vládní rozpočtové rezervy uvolnila dalších 4,3 miliardy korun, ce… https://t.co/dw6Jj6sf04",855194802
@AndrejBabis,"@AndrejBabis Máro, ty ještě nespíš?","Zdá se, že v Bílém domě se velmi aktivně diskutuje o doporučení občanům nosit roušky 👍 https://t.co/ZfWO7MpsYP",855194802
@kalousekm,"@kalousekm @AlexandrMitrofa @ProuzaTomas @bouskamichael @Hospodarky Míro, takhle ty volby nevyhraješ.",@AlexandrMitrofa @ProuzaTomas @bouskamichael @Hospodarky Přesný citát: ...”klišé a kecy. A je to na prd.”..,855194802
@kalousekm,"@kalousekm @AndrejBabis Vy děláte soudruhu, že jste v životě nelhal. Není to náhodou hřích?","Všichni víme, že premiér @AndrejBabis je podlý a zbabělý lhář. Takže nic nového. Překvapivé však je, že poslední do… https://t.co/jaCdyr8jI1",855194802
@PiratIvanBartos,"@PiratIvanBartos Prosim tě, Ivane, kdy už budu moct hulit tu trávu legálně v parku?","Mezi občany panuje značná nejistota z toho, co přinesou další týdny i měsíce. S Piráty neodmítáme prodloužení nouzo… https://t.co/8MhZ4MB4aW",855194802
@kalousekm,"@kalousekm @BabitaPhogat Amen, Miroslave!","Těžko bychom hledali lepší demonstraci společenských modelů, ve kterých chceme žít: Evropa: “Chováte se hnusně a po… https://t.co/VUDlF18p81",855194802
@kalousekm,"@kalousekm @TOP09cz @EPP_CZ A co přijalo dalších 2340234823904 subjektů, se kterými jste to dali dohromady? Už jen… https://t.co/Z4KleZFI8D","Předsednictvo @TOP09cz přijalo jednomyslně usnesení, že bude podporovat vyloučení strany Fidész V. Orbána z Evropsk… https://t.co/Hf0aFSXLQq",855194802
@alenaschillerov,@alenaschillerov @MinFinCZ A tady jsem vám s předsedou udělal takový videjko https://t.co/MFUsfbWoeq,"U příležitosti Světového dne na zvýšení povědomí o autismu, v ČR pod názvem Česko svítí modře, se dnes spousta budo… https://t.co/5ESqZP9kX5",855194802
@alenaschillerov,"@alenaschillerov Alenko, víš co?",Vláda dnes schválila můj návrh na vyhlášení moratoria na splácení úvěrů a hypoték. Po schválení Parlamentem a nabyt… https://t.co/Jmm27GMcjm,855194802
@kalousekm,"@kalousekm @Blesk24 Míro, až budeš starší, taky budeš jiný. Já to vidím sám na svých prarodičích.","Je mi M. Zemana líto. Pamatuji si ho ještě jako muže s brilantním intelektem, se kterým jsem sice nesouhlasil, ale… https://t.co/Yum3UOXnlw",855194802
