category,comment_body,parent_body,poster_name
@AndrejBabis,"@AndrejBabis @realDonaldTrump And best of all, Mr. President, we didn’t provide any and banned to sell them, so the… https://t.co/7Z0KLGHqcC","Mr. President @realDonaldTrump, try tackling virus the Czech way. Wearing a simple cloth mask, decreases the spread… https://t.co/j0TkxlDlbI",885838597663985665
@kalousekm,"@kalousekm A teď budete za populistu, protože “Kalousek obrátil a najednou souhlasí s vládou”. To si nevyberete.","Opatření respektuji jako nezbytná a prosím všechny, aby je akceptovali. Dovoluji si jen skromně podotknout, že když… https://t.co/RqwkivOPZy",885838597663985665
