category,comment_body,parent_body,poster_name
@kalousekm,@kalousekm Ten tweet radši smázli. Co tam bylo?,"Tohle je jeden z typických výroků dnešních vládních stran kdy člověk váhá, zda se má smát či plakat..Budou si moci… https://t.co/NzLrXqo81F",902607638181052416
@kalousekm,@kalousekm @P_Fiala Jestli byl před tím Orbán na tenkém ledě a byly důvody k rezervovanosti co se týče kritiky. Tak… https://t.co/RyYNRwTfBO,"Umím si představit, jak bylo tohle pro @P_Fiala těžké a na jak tenký led ve vlastní straně vstoupil. O to víc si vá… https://t.co/8Echer2WDI",902607638181052416
