category,comment_body,parent_body,poster_name
@AndrejBabis,"@AndrejBabis @KarelHavlicek_ Dva kašpaři, nic víc nejste.","Modernizace D1 jede. Start podle plánu. Před chvílí začala demolice dvou nadjezdů u Humpolce, vyrazil jsem na místo… https://t.co/HfVRqh2JVP",955081448075202560
@kalousekm,"@kalousekm @TVPrima Není jim zřejmě vůbec tak zle, že si jedou neustále svojí předvolební kampaň, aniž by se poradi… https://t.co/EtM6ZgCfkK",Vážená televize @TVPrima. Když necháte v této situaci ve studiu dva ministry účelově a falešně útočit na opozici be… https://t.co/ZNK978RiVw,955081448075202560
