category,comment_body,parent_body,poster_name
@kalousekm,@kalousekm @AndrejBabis 👍👍,"Já jsem byl při minulé krizi hodně drsný, možná až moc. Prosadil jsem snížení příjmů všem o 4-15%. Ale nikdy by mě… https://t.co/ZSx9C3Zc92",96865436
@kalousekm,"@kalousekm Ja si krátce přečetl jeho výrony a mám pocit, že ten člověk trpí vážným stihomamem. Všude vidí nácky. Nemá to chudák jednoduchý.","Nemohu se s Vámi o tento milý vzkaz nepodělit. Ne proto, že by se mě snad dotkl. Proto ale, abychom si uvědomili, ž… https://t.co/aGTefq1F7G",96865436
