category,comment_body,parent_body,poster_name
@AndrejBabis,@AndrejBabis Naše? Nebo Vaše (pardon: svěřenských fondů)?,"Chci upozornit, že na boj s COVID-19 nedává EU ani o korunu víc, než na kolik měly stát nárok už před pandemií. Sch… https://t.co/W9iF3y0cnq",980529010361950208
@kalousekm,"@kalousekm @janmolacek @AlexandrMitrofa Dalším stupněm bude:
""Prováděli jsme kontrolu prostřednictvím služebního te… https://t.co/B4K24Hrz6Y","@janmolacek @AlexandrMitrofa Jste pozadu, pane redaktore. Ještě jste nevstřebal jejich nový slovník: “Kontrolovali,… https://t.co/OPIh30M36l",980529010361950208
