child_body,child_screen_name,child_user_id,child_tweet_id,parent_body,parent_tweet_id,parent_screen_name,parent_user_id
"@MarieGlockner @P_Fiala A kam s těmi vyhozenými ? Úředníci bacha !
Hlavně na to, koho budete volit. Ale možná vás p… https://t.co/5I0tv1KOrn",bartamilos1,972755499866361856,1231903776287707136,@P_Fiala Nestačí zastropovat. Je nutné razantně snížit.,1231896416487968768,MarieGlockner,970607394014318592
"@P_Fiala Správně, na pracáku nebudou ti úředníci stát tolik peněz.
A kdy že začali v Estonsku s tou digitalizací ?",bartamilos1,972755499866361856,1231901437938065410,"Vláda zavaluje lidi stále dalšími a dalšími povinnostmi, potom samozřejmě roste i počet úředníků. Naším cílem je zr… https://t.co/bcGHcvY5TM",1231895234856079362,P_Fiala,1464550303
@majestatix @FORUM_24 Víte co je korupce ?,bartamilos1,972755499866361856,1231867560288751616,"@FORUM_24 Medaili ne, ale lepsi duchod od zkorumpovaneho Babise ano...",1231552100116639744,majestatix,988547204276252672
"@MichaelaUrban14 @FORUM_24 Mluvíte o ní, nebo o vlastní mámě ?",bartamilos1,972755499866361856,1231866281688739840,@FORUM_24 tak ona je to nakonec pravda 🤣🤣 postpřechodový diblík a opravdu pitomá 🤣,1231581804974481408,MichaelaUrban14,1131449208110821376
"@FORUM_24 Není absurdní, ale zachraňuje opozici zadek. No osoba blízká, to už je jedinný argument co jim zbyl, aby nebyli
za hňupy.",bartamilos1,972755499866361856,1231861727400222723,"Premiér Babiš: Rozhodnutí Ústavního soudu je absurdní a je namířeno proti mně
 https://t.co/nS1svgzYcG https://t.co/VEpufYqJSA",1231855542840283136,FORUM_24,3027882137
"@petr_silar @kducsl To na věci nic nemění. Všichni, kdo byli ve vládách po sametu mohou za to, kde jsou dnešní ceny… https://t.co/5bp1cIY8pw",bartamilos1,972755499866361856,1231860205656453120,"@bartamilos1 @kducsl To jsme se @bartamilos1 nepochopili. 👈 Já se obávám toho, co teprve může nastat - tzn. pokud b… https://t.co/2Tt9lMrlBv",1231507397610483713,petr_silar,801781506452635648
"@P_Fiala A zase budeme dělit ,,medvěda"".",bartamilos1,972755499866361856,1231858119887794177,"Budeme škrtat zákony. Omezíme byrokracii. To je jediná správná cesta k menšímu, ale efektivnějšímu státu, který bud… https://t.co/opKc19SfFk",1231506574667079681,P_Fiala,1464550303
"@TomasZdechovsky @kducsl @AndrejBabis A zase za všechno může Babiš. Stále nemocný. 
Diagnóza, babišismus agrofertis… https://t.co/ZX14rOmcJR",bartamilos1,972755499866361856,1231856573649170433,"Chápu, že @AndrejBabis musel něco říci. Ale proč říká nesmysly? Nevyjednal vůbec nic. Výstupy ze summitu jsou napro… https://t.co/X2KkhUz7Um",1231532997096198149,TomasZdechovsky,2615239693
"@petr_silar @kducsl Seděli jste ve vládách, které to k tomu stavu dotáhli.
Teď budete vykřikovat.",bartamilos1,972755499866361856,1231502581157027841,Už dnes je (nejen) pro seniory těžké ufinancovat bydlení. Nové opatření návrhované MPSV by podle odborných propočtů… https://t.co/4ls7qe3liN,1231121742137036801,petr_silar,801781506452635648
@kavalejk @milionchvilek Tak nám může Aňa zaspívat něco nového. Klus nebo Svěrák jí rádi něco složí.,bartamilos1,972755499866361856,1231499487329300480,@bartamilos1 @milionchvilek Bude treba nová písnička :),1231334448794415111,kavalejk,2844682488
