child_body,child_screen_name,child_user_id,child_tweet_id,parent_body,parent_tweet_id,parent_screen_name,parent_user_id
"@Zaschrona @tomasjirsa Zadání znělo ""profesionálně to působí""😂",jakubaranovic,3206937731,1231955915005407233,@tomasjirsa Okamura.,1231943263956938752,Zaschrona,55350986
"@mbartosm @sssirda @tomasjirsa Vážně? A co třeba ""chcípnul pes"" Bělobrádek?",jakubaranovic,3206937731,1231955770218098688,@sssirda @tomasjirsa Jiného lidovce ze sítí neznám. 🤷‍♂️,1231941795115929600,mbartosm,716639052
@DavidStplz @petr_sveceny nebo ještě hůř Okamura,jakubaranovic,3206937731,1231938849024200704,@petr_sveceny a co když si to tam dá Babiš?,1231492113159737344,DavidStplz,3021498339
"@petr_sveceny Mám pocit, že tohle žádná strana momentálně v programu nemá.",jakubaranovic,3206937731,1231334589177761792,"Pouštím si film Past o 50.letech a osudu Jiřiny Štěpničkové a rozhodl jsem se,že v dalších volbách budu volit jakou… https://t.co/5YFxsyBqTX",1231271907368079362,petr_sveceny,2366094949
"@JaromirBosak @sportCT Už se těším, Plzeň na ČT je v poslední době vzácnost🙃",jakubaranovic,3206937731,1231211697593036801,"Strávit odpoledne u pivovaru nevypadá špatně. I když - v pivovaru mohlo být ještě lépe. Ale doufám, že mač Plzeň -… https://t.co/MxSWcJtJsW",1231162476076683264,JaromirBosak,535584956
@marek_ruscak Lidského faktoru.,jakubaranovic,3206937731,1230966696820822018,Dáváme na mezinárodní úrovni dohromady důvody obav z jaderné energetiky pro lepší komunikaci s veřejností. Čeho je… https://t.co/wV3bnXfMHa,1230802924831420417,marek_ruscak,3750672256
@RadanKubant @marek_ruscak Ničeho? Takže žádná havárie podle vás není možná?,jakubaranovic,3206937731,1230966461193125888,"@marek_ruscak Ničeho. 
Podotýkám, že nejsem nestranný.",1230963996427157507,RadanKubant,1561631630
@MirekTopolanek @infocz_web Zoufalec týdne: Petr Holec,jakubaranovic,3206937731,1230959253680263170,"Docela nechutný text, na který musím reagovat. Kolega z @infocz_web zapomněl, že 1 z neúspěšných prez. kand. naopak… https://t.co/h5loGdEL9y",1230919912044089346,MirekTopolanek,907596333195907072
@Otakar_Brabec Vzducholoď😂,jakubaranovic,3206937731,1230930435431174145,"Milé děti, jestli budete zlobit, tak si vás odnese tlustá Máňa! https://t.co/CxUo5Q8V7h",1230927122597851138,Otakar_Brabec,928340572519174150
"@jietienming Ne, čeština na to není připravená, vedlo by to ke zmatkům a nesmyslným větám.",jakubaranovic,3206937731,1230930333731823616,"Majitelka čínské restauraci v New York City Rose Wuová.

Wuová

Wuová

Wuová

Wuová

Nemůžeme to přechylování už fakt zrušit?",1230841210761338880,jietienming,975641897350942720
