child_body,child_screen_name,child_user_id,child_tweet_id,parent_body,parent_tweet_id,parent_screen_name,parent_user_id
@AndrejBabis dalsi PR kravina,JirkaPalasek,312573927,1230462513973776384,Památník Tomáše Bati jsem navštívil 29. 5. 2015. Byl v totálně zchátralém stavu a sám bývalý primátor a současný ná… https://t.co/vOWk7gUzKl,1230120372781166594,AndrejBabis,713035525
@AndrejBabis ta sama evropska komise co nam nema co mluvit do toho jak utratime evropsky penize defraudante?,JirkaPalasek,312573927,1204731184900640768,"EU musí jádro uznat jako bezemisní zdroj. Některé státy jsou stále proti. Musíme je přesvědčit, s pomocí Evropské k… https://t.co/IY6ws3mBJL",1204718645752016896,AndrejBabis,713035525
@FrMatejka @milionchvilek Takhle v zimě? Nejspíš ten déšť co v noci byl...,JirkaPalasek,312573927,1204715091607924736,Kdo z vás z @milionchvilek to po sobě na Václaváku uklidí? Takhle to tam teď vypadá po dnešní akci. https://t.co/VLqOh9XTqu,1204467653341073411,FrMatejka,4688137050
"@VPikora Hloupost, je to na nich a jde o jejich rozhodnuti. Tyhle sovinisticky, radoby moudry reci jsou k nicemu.",JirkaPalasek,312573927,1204713693952516096,"V době, kdy mohou dobre otěhotnět, jsou v politice. Kariéra je pro ne přednější. Až budou chtít děti, budou se divi… https://t.co/d0sNHzfWpi",1204673584398000128,VPikora,2201535343
@Palinho61 @F1SimRacing @TCSOff_eRacing You were splendid bro,JirkaPalasek,312573927,1200074035985551360,Last race of this season @F1SimRacing. Thanks to my @TCSOff_eRacing team for the opportunity in the last two races!… https://t.co/EOKkdPmkgG,1199990150081716226,Palinho61,92762864
@DarrenHaynes_13 @chicagobulls @NBCSChicago nope,JirkaPalasek,312573927,1198994422375092224,@chicagobulls @NBCSChicago Coby should be starting https://t.co/CRMGHs6nqc,1198409685461798912,DarrenHaynes_13,298127045
@GavendaJaroslav @PrimaZpravy To je fakt trapas,JirkaPalasek,312573927,1186180993125900289,"Skákání, mávání čepicemi nebo deskami. Soukromá ochranka dnes bránila novinářům natáčet ve chvíli, kdy prezident Ze… https://t.co/kp6vDAoKTD",1185944207007145984,GavendaJaroslav,3218777536
@JaroslavFalynek @iDNEScz amateri :D,JirkaPalasek,312573927,1185860159828090880,Seznamka voe! Dobrá práce @iDNEScz 😉 https://t.co/XkdlAkUxWC,1185849982097776641,JaroslavFalynek,1014926334290784257
"@Posledniskaut Marcus Antonius: proc bys chtel byt nesmrtelny clovece, vzdyt neni vubec jasne, ze s pribivajicim ve… https://t.co/eURa1U1NoD",JirkaPalasek,312573927,1185858317085794305,"Václav Klaus (st.): ""Ústavní soud je instituce, která by vůbec neměla existovat. Jsem z principu proti Ústavnímu so… https://t.co/1RXhGs1taw",1185472255008169984,Posledniskaut,884811990
@Palinho61 whats happening?,JirkaPalasek,312573927,1185857758492614656,Very upset... https://t.co/MM70umkL1F,1185852781372084224,Palinho61,92762864
