child_body,child_screen_name,child_user_id,child_tweet_id,parent_body,parent_tweet_id,parent_screen_name,parent_user_id
@VlastaPolackova A ten autobus je Vězeňské služby?,martin_baroch,4782516983,1232011297396531200,Vláda jede autobusem..📢🎼🎵🎶🎺 🥁🎚🔇,1231918763869601792,VlastaPolackova,933065584736198657
@Posledniskaut Jakože mu nedal provizi?,martin_baroch,4782516983,1232007312686055425,@martin_baroch Bakala je public enemy no.1,1232006952978395136,Posledniskaut,884811990
@Posledniskaut Co mu ten Bakala udělal?,martin_baroch,4782516983,1232005401832546310,"Miloš Zeman, známý svými nekompromisními názory na mravní čistotu a naprostou bezúhonnost svých spolupracovníků, vy… https://t.co/0neznhuwk7",1232002615547813890,Posledniskaut,884811990
"@davidfamosa @market_a @VVetvicka Přesně, takovou žumpu nemají ani tam.",martin_baroch,4782516983,1231970097184608256,@market_a @VVetvicka Neurážejte Burundi ! 🇧🇮,1231968695372668929,davidfamosa,99189730
@WagenknechtLuk A kam zdrhla? Do Venezuely?,martin_baroch,4782516983,1231943109401030656,"Já nechápu, proč s tím mafra tolik nadělá. Když na MMR současná paní ministryně odevzdávala NCOZ svůj notebook kvůl… https://t.co/XCkFsyfWm4",1231902862608863233,WagenknechtLuk,2513640770
"@kathaskova Vždycky říká, tam hraje ten, co jsi mu podobnej 😁 Mě by to předtím ani nenapadlo.",martin_baroch,4782516983,1231942811823562753,@martin_baroch “Rikala zena” je nejlepsi duvod proc. Ale jako asi jo...,1231941693286572033,kathaskova,58507091
@kathaskova Mat Damon - říkala žena https://t.co/oMxDgKHPmX,martin_baroch,4782516983,1231940309896040448,"Kdo by vás hrál ve filmu a proč? Vypadáte podobně? Na základě nějaké role? 
Já vždycky tak nějak intuitivně říkala… https://t.co/1zzsl0k3tw",1231936957309165568,kathaskova,58507091
@RadekNohl Jako nadobro?,martin_baroch,4782516983,1231916828844318721,"Ministryně práce Jana Maláčová poté, co se na veřejnost dostaly informace o zásahu v jejím úřadu, opustila jednání vlády.",1231894943007940608,RadekNohl,191011637
@janis_ali @chudacik @KarlKorrektor @BlanikZ @mimoun2040 @JosefMachac To už jsme tu rozebírali minule a pořád tomu věříte.,martin_baroch,4782516983,1231912114253713411,@chudacik @KarlKorrektor @BlanikZ @mimoun2040 @JosefMachac To je názor vs. názor. Kdyby byla u většiny lidí skutečn… https://t.co/gS5b8SnTWS,1231882135428042752,janis_ali,4703329768
@janis_ali @KarlKorrektor @BlanikZ @mimoun2040 @JosefMachac Vtip dne.,martin_baroch,4782516983,1231911367785041921,"@KarlKorrektor @BlanikZ @mimoun2040 @JosefMachac Až budou, bude na to hotová příslušná infrastruktura...",1231875855347077121,janis_ali,4703329768
