child_body,child_screen_name,child_user_id,child_tweet_id,parent_body,parent_tweet_id,parent_screen_name,parent_user_id
"@PREZIDENTmluvci Ty máš nějaké přátele Ovce? Že ti nikdo nepřeje dobré ráno, už jsi přebalil dědka?",pucost1,4188978927,1231823480666103808,"Dobré ráno, milí přátelé! https://t.co/thUQQLJhMV",1231813379205013504,PREZIDENTmluvci,3055366126
"@ZdenekSeidl @MirekTopolanek Jestli nekdo likviduje zemedelstvi, tak je to ten STBak z ANOfertu....",pucost1,4188978927,1231657780307689485,"@MirekTopolanek Zapomněl jste na fázi 0. Kdy Topolánek, co by premiér vlády ČR, zlikvidoval české zemědělství a tak… https://t.co/hCQJoUtkgC",1231347063687962624,ZdenekSeidl,1122424422
"@spacil_marek @SzeligaPetr @AndrejBabis @eucopresident Jo, ANOfert vzkveta a lidi chudnou....dalnice 4km...kde jsou ty dotace? V ANOfertu...",pucost1,4188978927,1231301220356296705,@SzeligaPetr @AndrejBabis @eucopresident Tak to si na omylu. My jako jediná země využíváme EU peníze nejlépe ze vše… https://t.co/TMkkwk8NgO,1231290740149555201,spacil_marek,922529827370004481
@AndrejBabis @eucopresident Nevidim duvod financovat nejaky zlodejsky ANOfert...,pucost1,4188978927,1231299793131069442,Přijde mi to nefér. Postoj čtyř bohatých zemí vedený Nizozemskem vlastně zablokoval summit EU. @eucopresident na zá… https://t.co/HTaoh6ujkL,1231114138639835136,AndrejBabis,713035525
"@petrskala90 @adamvojtechano Je to stejny hajzl, jako STBak Andy a cely ANOfert",pucost1,4188978927,1230781063426957312,Pan ministr @adamvojtechano je jen obyčejný hajzl. Vyhazov špičkového odborníka psychiatra odůvodňuje lživým obvině… https://t.co/O6wlelSPde,1230580273680510976,petrskala90,1528246512
"@adamvojtechano A co na Krym nechcete už odjet s STBakem cely ANOfert, co nas jen zadluzuje..",pucost1,4188978927,1230009566202601474,Reakci zaměstnanců PN Havlíčkův Brod rozumím. Změny ve vedení nejsou nikdy jednoduché. V odpovědi na jejich otevřen… https://t.co/4FgCloumUC,1229836717919809536,adamvojtechano,931157413331337216
"@vojtafilip @hasek_dominik Jo určitě, minulost KSČ a STB opravdu mluvi za vše.....a vy jste se snad změnili? Pouze… https://t.co/VTsJnErbrK",pucost1,4188978927,1228224477038727171,"@hasek_dominik Vážený pane, v tomto prvenství nemáte. Také jsem Vám  nenabízel členství v KSČM, ale jen možnost kan… https://t.co/zB4JmB2qu0",1228209105115811840,vojtafilip,839771819469078529
"@vojtafilip Jo, nejlepe to zvladnou komusti s STBakem.....akorat, ze to vsechno rozkradou...",pucost1,4188978927,1227973866762514432,"Výtka Dominátora vůči Milanu Hniličkovi, že on by lépe rozděloval dotace pro sport nesedí. Nezpochybňuji kvality Do… https://t.co/Yd1b8p184x",1227913134071001088,vojtafilip,839771819469078529
@PREZIDENTmluvci Zalez buziku...,pucost1,4188978927,1227691028750176256,"Stát se má omluvit člověku, který se soustavně nenávistně vyjadřuje o prezidentu republiky, hovoří o smrti a v nezř… https://t.co/WcvxIPU771",1227546114125111296,PREZIDENTmluvci,3055366126
@luboszalom Udajne fasismus je SPD....,pucost1,4188978927,1227646918098083843,"""Miliony chvilek"" vyhrožují: bude-li ombudsmanem zvolen S.Křeček,vyjdou do ulic. Potvrzuje se,čím chce toto hnutí b… https://t.co/8BDlAA3PPZ",1227562209083039744,luboszalom,4637079497
