child_body,child_screen_name,child_user_id,child_tweet_id,parent_body,parent_tweet_id,parent_screen_name,parent_user_id
@TichysEinblick Školy v Lombardii uzavřeny pro výskyt coronaviru,Zoonpolitico1,1036177856299233280,1231642065349619712,Aktuelle Nachrichten aus Italien zu COVID-19 führt Marco Gallina in diesem Thread weiter fort: https://t.co/IGtzVRAxmh,1231639275944468480,TichysEinblick,3172870258
@parlamentky_cz Varování pro každého,Zoonpolitico1,1036177856299233280,1231641644275052544,Schůzka Babiše a Rusnoka? Tady nepůjde předně o řešení hypoték! Markéta Šichtařová varuje jako ještě nikdy. Cesta d… https://t.co/9tIz2KVIZv,1231639668703342592,parlamentky_cz,349050864
"@konva333 Když to umíš, tak to dělej!",Zoonpolitico1,1036177856299233280,1231639097036464134,Nejvíc! https://t.co/fHDrGlidC6,1231621218933104640,konva333,957709798170087424
@prageru @michaeljknowles @andrewklavan Není,Zoonpolitico1,1036177856299233280,1231615298454859777,"Why is Hamlet the greatest play ever written?

@michaeljknowles and @andrewklavan discuss: https://t.co/LsnmcrPW0S",1231614443282468866,prageru,41160276
@MichalFier1 @IrenaHrabinska Rodnou obec máte v Polsku nebe východním Slovensku?,Zoonpolitico1,1036177856299233280,1231606419742433281,"A doby, kdy komouši lustrovali a určovali, kdo smí kam jet a kdo nesmí je zpět. Ani to dlouho netrvalo. Tahle země… https://t.co/NAIInlmvjQ",1231438698379497473,MichalFier1,862206090561376256
"@Globe24cz @IrenaHrabinska Když tu byla tato zpráva před třema hodinama z echo24, nějaký kokot ji odstranil",Zoonpolitico1,1036177856299233280,1231605043280982017,"Itálie zápolí s koronavirem: Přes sto nakažených, 11 měst v úplné karanténě https://t.co/td7GwqckRp #globe24cz #covid19 #koronavirus",1231544735757733888,Globe24cz,703570633473527808
@deutsch365 ???,Zoonpolitico1,1036177856299233280,1231590495597539328,Leere Versprechen statt Erdgas: Wohin führt die Unterstützung der USA für die Drei-Meere-Initiative? https://t.co/eSmCuYzMLX,1231590229552877568,deutsch365,947238380454150145
@deutsch365 Ist schon,Zoonpolitico1,1036177856299233280,1231589463710720001,". Politik 
Unterstützung für Ramelow: Jetzt wird die CDU zum schlechten Witz.  https://t.co/08lLU9rgcc",1231586457145561090,deutsch365,947238380454150145
"@ceskova_jana @TryAgainGuy @Stredni_trida Tante Angela musí odejet s nepřízenou, premiére",Zoonpolitico1,1036177856299233280,1231587086253404160,"@TryAgainGuy @Stredni_trida ANO ANO ANO!!! Proto Merkel jede do Prahy, kdo jí bude vítat?!? Jourová byla v Maďarsku… https://t.co/yL9NonjLDH",1231582875000221696,ceskova_jana,712234296040407041
@IrenaHrabinska Vichni by si měli přečíst a zamyslet se nad obranou,Zoonpolitico1,1036177856299233280,1231585454174220291,"Jiří Kobza, Tomáš Doležal: EU něco chystá. Odvalte kámen frází a najdete totalitní červy https://t.co/WKqAXSmNtO",1231581746006810626,IrenaHrabinska,1013006934
