category,comment_body,parent_body,poster_name
@kalousekm,"@kalousekm @ZuzanaS12 Náš premiér se rád inspiruje Maďarskem, takže....","Tohle je děsivé. To už snad opravňuje k ozbrojenému odporu. Doufám, že naši vládu ani nenapadne se tím inspirovat. https://t.co/29ClCFtGUS",1153635214054371330
@alenaschillerov,"@alenaschillerov Apropos, nevím jestli to dobře chápu, je více méně jasné, že karanténa už bude minimálně celkově d… https://t.co/fXRKF5vgLA","Chci vám říct, že všechny vaše reakce a připomínky k programu pro OSVČ Pětadvacítka velmi pozorně vnímám. Program m… https://t.co/MNpfpGrqls",1153635214054371330
@alenaschillerov,"@alenaschillerov Jsem opravdu zvědavý jak to vše dopadne, jsem postižená skupina, fotograf svateb, klienti mi odřík… https://t.co/u4FzFbMsXU","Chci vám říct, že všechny vaše reakce a připomínky k programu pro OSVČ Pětadvacítka velmi pozorně vnímám. Program m… https://t.co/MNpfpGrqls",1153635214054371330
