category,comment_body,parent_body,poster_name
@alenaschillerov,"@alenaschillerov Škoda, že to nemohlo být hned. Nemusely jsme čekat. Co třeba pomoci těm kdo chtějí, ale v důsledku… https://t.co/RyZPxJJ1sk","Pokud se nezanedbatelná část zasažených OSVČ do kritérií z různých důvodů nevešla, tak spravedlivý nebyl. Pracujeme na úpravě.",1237819840867565568
@alenaschillerov,"@alenaschillerov Toto je hodně nešťastné řešení, jsem kadeřnice-pausalem. Loni jsem obnovila živnost bohužel jsem n… https://t.co/jkz10iIR1w","Program pro OSVČ zasažené koronavirem ""Pětadvacítka"" v nejčastějších otázkách a odpovědích  👉 https://t.co/AYFXtS6N54",1237819840867565568
