category,comment_body,parent_body,poster_name
@adamvojtechano,"@adamvojtechano Světoví rouškaři? Tím se chlubíte? To, že jsme si je museli ušít sami, protože stát nebyl schopen n… https://t.co/44wz8d7CNK",Češi jako světoví rouškaři! Světová média vyzdvihují naše opatření k povinnému nošení pokrývky úst a nosu. Je úžasn… https://t.co/hDJXSlS7kj,2921973677
@alenaschillerov,@alenaschillerov Dobrý den. Jak to bude s vrácením preplatků? Platí původní lhůta nebo se to také posouvá?,"Všem fyzickým osobám umožníme podat daňové přiznání a uhradit daň bez sankce o 3 měsíce později, a to bez nutnosti… https://t.co/sSkqUIciiQ",2921973677
