category,comment_body,parent_body,poster_name
@adamvojtechano,@adamvojtechano @ZdravkoOnline A jak se vám pane ministře spí?,"Bilance obchodního týmu @ZdravkoOnline za víkend. Doručeno: 100 000 respirátorů, 82 000 roušek, 300 litrů dezinfekc… https://t.co/bSFkix2Ga1",298866714
@alenaschillerov,"@alenaschillerov @financnisprava Jsem OSVČ ,samozivitelka, od 19.2.2020, vzdělávání dětí předškolního věku, tříleto… https://t.co/b0TAtXymej","Pětadvacítka pro OSVČ má jasná pravidla. Klíčovým ukazatelem bude pokles tržeb nejméně o 10%, který se doloží čestn… https://t.co/KnXmIEH31v",298866714
