category,comment_body,parent_body,poster_name
@alenaschillerov,@alenaschillerov @vnitro https://t.co/nJxErD16VP,"Samozřejmě, že má @vnitro jako gestor krizového zákona svůj právní výklad k náhradám škod. A já z něj vycházím. Pod… https://t.co/hlglzMFw6S",626815446
@alenaschillerov,"@alenaschillerov @vnitro Proč neřeknete, že 80% náhrada mzdy je jen z čisté mzdy zaměstnance a jinak vše ostatní (z… https://t.co/XeP5A32pKH","Samozřejmě, že má @vnitro jako gestor krizového zákona svůj právní výklad k náhradám škod. A já z něj vycházím. Pod… https://t.co/hlglzMFw6S",626815446
