category,comment_body,parent_body,poster_name
@adamvojtechano,@adamvojtechano @AndrejBabis @vnitro Asi tak... https://t.co/eFo2tDSVlu,Zásilka roušek z Číny dnes odpoledne dorazila do skladu v Sedlčanech. Odtud je bude armáda rozvážet do fakultních n… https://t.co/6sOSVDDBHn,728878369
@alenaschillerov,@alenaschillerov @AndrejBabis @PragueAirport Asi tak... https://t.co/eFo2tEawK4,"Na @PragueAirport právě roluje čínské letadlo se zásilkou 1,1 milionu respirátorů. Ty okamžitě zamíří k těm nejpotř… https://t.co/vM3odMHpEk",728878369
@adamvojtechano,@adamvojtechano @AndrejBabis @vnitro Asi tak... https://t.co/eFo2tDSVlu,Zásilka roušek z Číny dnes odpoledne dorazila do skladu v Sedlčanech. Odtud je bude armáda rozvážet do fakultních n… https://t.co/6sOSVDDBHn,728878369
@alenaschillerov,@alenaschillerov @AndrejBabis @PragueAirport Asi tak... https://t.co/eFo2tEawK4,"Na @PragueAirport právě roluje čínské letadlo se zásilkou 1,1 milionu respirátorů. Ty okamžitě zamíří k těm nejpotř… https://t.co/vM3odMHpEk",728878369
@adamvojtechano,@adamvojtechano @AndrejBabis @vnitro Asi tak... https://t.co/eFo2tDSVlu,Zásilka roušek z Číny dnes odpoledne dorazila do skladu v Sedlčanech. Odtud je bude armáda rozvážet do fakultních n… https://t.co/6sOSVDDBHn,728878369
@alenaschillerov,@alenaschillerov @AndrejBabis @PragueAirport Asi tak... https://t.co/eFo2tEawK4,"Na @PragueAirport právě roluje čínské letadlo se zásilkou 1,1 milionu respirátorů. Ty okamžitě zamíří k těm nejpotř… https://t.co/vM3odMHpEk",728878369
@adamvojtechano,@adamvojtechano @AndrejBabis @vnitro Asi tak... https://t.co/eFo2tDSVlu,Zásilka roušek z Číny dnes odpoledne dorazila do skladu v Sedlčanech. Odtud je bude armáda rozvážet do fakultních n… https://t.co/6sOSVDDBHn,728878369
@alenaschillerov,@alenaschillerov @AndrejBabis @PragueAirport Asi tak... https://t.co/eFo2tEawK4,"Na @PragueAirport právě roluje čínské letadlo se zásilkou 1,1 milionu respirátorů. Ty okamžitě zamíří k těm nejpotř… https://t.co/vM3odMHpEk",728878369
@adamvojtechano,@adamvojtechano @AndrejBabis @vnitro Asi tak... https://t.co/eFo2tDSVlu,Zásilka roušek z Číny dnes odpoledne dorazila do skladu v Sedlčanech. Odtud je bude armáda rozvážet do fakultních n… https://t.co/6sOSVDDBHn,728878369
@alenaschillerov,@alenaschillerov @AndrejBabis @PragueAirport Asi tak... https://t.co/eFo2tEawK4,"Na @PragueAirport právě roluje čínské letadlo se zásilkou 1,1 milionu respirátorů. Ty okamžitě zamíří k těm nejpotř… https://t.co/vM3odMHpEk",728878369
@adamvojtechano,@adamvojtechano @AndrejBabis @vnitro Asi tak... https://t.co/eFo2tDSVlu,Zásilka roušek z Číny dnes odpoledne dorazila do skladu v Sedlčanech. Odtud je bude armáda rozvážet do fakultních n… https://t.co/6sOSVDDBHn,728878369
@alenaschillerov,@alenaschillerov @AndrejBabis @PragueAirport Asi tak... https://t.co/eFo2tEawK4,"Na @PragueAirport právě roluje čínské letadlo se zásilkou 1,1 milionu respirátorů. Ty okamžitě zamíří k těm nejpotř… https://t.co/vM3odMHpEk",728878369
@adamvojtechano,@adamvojtechano @AndrejBabis @vnitro Asi tak... https://t.co/eFo2tDSVlu,Zásilka roušek z Číny dnes odpoledne dorazila do skladu v Sedlčanech. Odtud je bude armáda rozvážet do fakultních n… https://t.co/6sOSVDDBHn,728878369
@alenaschillerov,@alenaschillerov @AndrejBabis @PragueAirport Asi tak... https://t.co/eFo2tEawK4,"Na @PragueAirport právě roluje čínské letadlo se zásilkou 1,1 milionu respirátorů. Ty okamžitě zamíří k těm nejpotř… https://t.co/vM3odMHpEk",728878369
@adamvojtechano,@adamvojtechano @AndrejBabis @vnitro Asi tak... https://t.co/eFo2tDSVlu,Zásilka roušek z Číny dnes odpoledne dorazila do skladu v Sedlčanech. Odtud je bude armáda rozvážet do fakultních n… https://t.co/6sOSVDDBHn,728878369
@alenaschillerov,@alenaschillerov @AndrejBabis @PragueAirport Asi tak... https://t.co/eFo2tEawK4,"Na @PragueAirport právě roluje čínské letadlo se zásilkou 1,1 milionu respirátorů. Ty okamžitě zamíří k těm nejpotř… https://t.co/vM3odMHpEk",728878369
@AndrejBabis,"@AndrejBabis @ObranaTweetuje Pane premiére, jste lhář... https://t.co/raKzS8HcFQ @metnarl","Absolutně s tím nesouhlasím, zastavil jsem to a projednávat to SAMOZŘEJMĚ nebudeme. Nevím, proč teď @ObranaTweetuje… https://t.co/L70sJ1478t",728878369
