category,comment_body,parent_body,poster_name
@kalousekm,@kalousekm Kalousku a ty mas deti proboha chudinky,"Promiňte, pane ministře, že budu osobní. Leč vzhledem k tomu, že jste ve věku mých dětí Vám chci říct , že kdyby to… https://t.co/F6ORPsYSzv",1127979228488765442
@tomio_cz,@tomio_cz Tak at dou do prdele,"Vláda odmítla odpustit DPH na lék pro malého Maxíka,na který lidé dosud sesbírali 63 mil. kč!V odpovědi na mojí int… https://t.co/PAnayq2UcN",1127979228488765442
@kalousekm,@kalousekm Kousků s tím budem 3 Děte do prdele včera opozice,"V souvislosti s výsměchem živnostníkům, který včera vláda zveřejnila pod názvem “pětadvacítka”, připomínám svůj 9 d… https://t.co/TmeJFcDdxk",1127979228488765442
@tomio_cz,@tomio_cz Kalousku zwischenahn,Pan Kalousek se snad připravuje na ozbrojené povstání proti vládě... Lze na to vůbec něco říci? Co byste panu Kalou… https://t.co/tncp6UzJ92,1127979228488765442
@kalousekm,@kalousekm @Blesk24 Trapny,Zásadní zlom v probíhající koronovirové krizi: Poradnímu týmu prezidenta republiky se včera během čtyřhodinového ús… https://t.co/SwpXI77fxp,1127979228488765442
@tomio_cz,@tomio_cz Gauner,Ředitel ČT Petr Dvořák chce zvýšit koncesionářský poplatek na 150 kč. To se nestydí toto požadovat v době koronavir… https://t.co/uJcEBo4avX,1127979228488765442
