category,comment_body,parent_body,poster_name
@tomio_cz,@tomio_cz Drahý Pane @tomio_cz. Zcela přátelsky Vas prosím. Mohl byste na chvilku přestat se svojí populistickou ré… https://t.co/8EBfOjS2j6,"U nelegálních imigrantů v Německu v durynském Suhlu se objevil koronavirus, pokusili se uniknout z karantény a napa… https://t.co/nGtSyyeS8w",1215749532782342146
@tomio_cz,@tomio_cz Já doma sedím se ženou a pomáhám ji šít roušky.,@HejdaMartin A co jste udělal pro ostatní Vy?,1215749532782342146
