category,comment_body,parent_body,poster_name
@PiratIvanBartos,@PiratIvanBartos Začni třeba tady! https://t.co/xCZphBN5vu,Výročí plíživého komunistického puče je výzvou k zamyšlení. Začíná to ohýbáním demokratických procesů. Pokračuje to… https://t.co/vWeY0io6rR,3226345085
@adamvojtechano,@adamvojtechano @ZdravkoOnline https://t.co/j2oEugOYmG,"Roušky mohou významně zpomalit šíření viru v populaci. Doporučuji všem státům, aby zavedly nošení roušek, i těch do… https://t.co/C3aaivXFdv",3226345085
@tomio_cz,@tomio_cz Kašpárci 💩,"Šéf NATO Jens Stoltenberg řekl, že Rusko může zneužít pandemie k testování obrany NATO. Přitom člen NATO Turecko pr… https://t.co/GecmGUQ5Hh",3226345085
