category,comment_body,parent_body,poster_name
@PiratIvanBartos,"@PiratIvanBartos Další strana které vadí židé, po kom půjdete dál","Izrael je náš důležitý partner a přítel České republiky. 11 let starý screenshot, na kterém Tomáš Tožička dle mých… https://t.co/wpfsOKWz17",388411570
@PiratIvanBartos,@PiratIvanBartos To že nenávidíte židy vám už nikdo neodpáře,"Po dohodě a po komunikaci s kandidátem, zástupci kraje a republikovým předsednictvem budeme v pondělí na jednání RP… https://t.co/Ne6cX94IWh",388411570
@AndrejBabis,@AndrejBabis @adamvojtechano Prosím zvažte to ještě s tou karantenou Prahy,"Nic takového nikdy nebylo na stole. Dneska jsme už popřeli karanténu Prahy, a teď popíráme i tuto šílenou fake news… https://t.co/A1K0xAg7JV",388411570
@kalousekm,"@kalousekm @kritzlerova Co takhle zrušit i  politické strany se kteryma se už nepočítá do budoucna jako třeba TOP09, taky k zamyšlení","Paní @kritzlerova má dobrý nápad, který si dovoluji zveřejnit: Máte pevný příjem a máte svoji kadeřnici, mechanika,… https://t.co/eLXwcIWt37",388411570
@kalousekm,@kalousekm Momentálně jste pouze postradatelné hovado a lepší už to s Vámi do budoucna asi nebude,"Za co mám být vděčný Číně? Za to, že její režim se několik týdnů snažil coronavirus ututlat a přispěl tak k jeho ro… https://t.co/GaLmaKsX1W",388411570
@kalousekm,@kalousekm A kde má epicentrum ta blbost kterou jste nakažený vy,"Skutečná “Říše středu”..Epidemie vypukla v Číně. Od Číny se nakazil celý svět. A teď může Čína celý svět vydírat, p… https://t.co/KTNK1ZbKLl",388411570
@tomio_cz,"@tomio_cz Už jsme na to zvyklí, alespoň že nebudou ještě chvilku prudit s EET","Vládní program pomoci pro OSVČ, tzv. COVID 2, skončil fiaskem. O úvěr si požádalo cca 700 subjektů za 1,5 mld. kč,… https://t.co/diteoWI0Rx",388411570
@tomio_cz,@tomio_cz Sviňárna,"Vláda odmítla odpustit DPH na lék pro malého Maxíka,na který lidé dosud sesbírali 63 mil. kč!V odpovědi na mojí int… https://t.co/PAnayq2UcN",388411570
@tomio_cz,@tomio_cz To je prototyp EU občana jako Telička a Jourová,"Europoslanec KDU-ČSL Tomáš Zdechovský, který hlasoval pro povinné kvóty na přijímání migrantů, si vymyslel a zalhal… https://t.co/ieqrNeUZ19",388411570
