category,comment_body,parent_body,poster_name
@tomio_cz,"@tomio_cz Číně jsme to zaplatili, s Německem je to lež od vašich stranických fašistů a doteď jste si stěžoval, že E… https://t.co/EKI5U8xTrt","Čína nám pomůže, ale co Brusel a EU? Německo s Mutti Merkel akorát tak zadržuje zdravotnický materiál. A kritizují… https://t.co/qnzPgnovvh",700111593036783616
@tomio_cz,"@tomio_cz Vy jste podcenil svou zodpovědnost za prasárny vaší strany, ale všem rozumným lidem bylo jasné, že váš pr… https://t.co/eq0vt1UtTs","Předsedkyně EK Leyenová pro deník Bild připustila, že celosvětovou pandemii koronaviru podcenila. Třikrát hurá, kon… https://t.co/5sR3QZxDko",700111593036783616
