category,comment_body,parent_body,poster_name
@tomio_cz,@tomio_cz Čína je také naše nepřítel #ChinaLiedPeopleDied,"Tenhle mem jsem viděl na internetu. Připadá mi docela trefný. A co Vám?

P.S. Že nám prý EU pošle 32 miliard? To ne… https://t.co/mQgCbKMbgI",76361878
@tomio_cz,@tomio_cz Souhlasím 🇨🇿🇭🇺👍🏼,"Souhlasím s Orbánem. A co Vy? I krize okolo koranviru dokázala, že globalizace není správnou cestou. Správnou cesto… https://t.co/4efjfJOqEd",76361878
