child_body,child_screen_name,child_user_id,child_tweet_id,parent_body,parent_tweet_id,parent_screen_name,parent_user_id
"What? That is like me saying I am not allowed to hate Trump because I was a fan of a previous presidency.

Dude. We are allowed to hate on something that so blatantly gave zero shits about the original movies and the story they built. And not the prequels. The original series",0pend,13lf7rxp,flbeige,Yeah this post is mostly just the migrating prequel memers. They've been out of content for a few years now so they latch on to Sequel Hate.,fla8ta2,Angsty_Kylo_Ren,f3kpalo
"So, you loved the fact that they just brought back a character whose death was the most important thing in the original series?

And you loved the super lazy writing of the magical fleet of death stars when the original movies showcased how rare and special they were?

And you must have loved the obvious Hollywood trope of bad guy sacrifices himself for good girl?

And you must also love that a fleet of good guys shows up to one of the farthest reaches in the galaxy in time to help save the day. Because Hollywood is nothing but spectacular coincidence to help save a movie character.",0pend,13lf7rxp,flbe9ez,Well. I love the rise of skywalker soo.. It didn't really fall apart..,fla4teg,d4rth__skywalk3r,445zmbmy
"Well, if you completely ignore the originals. Then it probably was. But the fact is they are either just exact copies of the originals or they are shitting on the very story the originals laid out.",0pend,13lf7rxp,flbdrcz,"Am I the only one that thought TROS was good or at least a decent movie? Yeah the final battle was all kinds of stupid but it was a mostly enjoyable movie, I consider most of the sequels on the same level anyway, and I don’t think too much of it was actually bad, a lot of the action scenes and chemistry between characters was pretty great imo. The plot was really the only detracting factor for me, everything else played great, especially with what they were given to work with.",flac8wl,EggsBaconSausage,5yh6ry94
You mean let a true character arch happen?! And let the most well written character continue the series. That just makes too much sense,0pend,13lf7rxp,flbdlrt,"Ben carried the sequels. He should've been the one to live instead of Rey tbh, then it actually would've been the rise of Skywalker.",flaqry0,Polaris328,22gyz4uz
"Lol. The Force Awakens is literally just old Star Wars plots and narratives to a T. Rebels are still rebels. The sith still are in control of the largest army in the galaxy. The hero is an orphan. Their whole family gone. The hero is from a desert planet. The hero escapes on the millennium falcon and is helped by Han and Chewbacca. The hero has to destroy a death star. The jedi are still just legend.

There was practically ZERO originality in JJs movies.",0pend,13lf7rxp,flbdbku,"Well, maybe if Disney had let JJ turn it into two movies or had not cut over 20 minutes of it last minute behind his back it might have felt more forced.

If RJ hadn't made 8 so anti original Star Wars, JJ might not have felt the need to push the nostalgia narrative so hard latter on.

If Disney hadn't decided to hire different directors for each movie, we wouldn't have had this issue to begin with.

Disney wouldn't have ever had the ability to hire directors for Star Wars if they weren't able to buy LucasArts.

Lucas wouldn't have sold his business if he had more success with the prequel trilogy and hadn't received so much hate.

The prequels wouldn't have been hated nearly as much if Jar Jar didn't exist.

So if you think about it, this is Jar Jar's fault.",fla75g5,Timberwolf501st,o0wt9
"Lmao. Like it was trying sooo hard to make the exact same plotline as the original while shitting on everything the first three movies built.

Luke and vader killed palpatine in the first trilogy! Nope fuck that. The rebels go right back to being rebels. Palpatine can magically bring himself back to life and has not one but two new Orders with huge fleets bigger than the original empire had. Ya fucking right. Now we get to see palpatine die again!

Luke was always the good guy and destroyed the Sith, well that doesn't mean shit. And we will just exile him and make his life into a hermet and pointless. But it allowed Rey to look like a much more better jedi by choosing to do the ""right"" thing

They couldn't think of shit to improve on Han Solo, so they say he got bored and borrowed money and just went back to smuggling. Oh super clever there with ZERO CHARACTER DEVELOPMENT. Nope right back to where he was in the first movie, just with his kid being a sith now. And dont get me started on the coincidence of the fucking millennium falcon not only being on Reys planet, but the very next scene Han bumps right into them in the vastness of the whole universe.

They made leah a general again. Cool, you mean just like the first movies where she was leading the rebels. Cool. So no character development for her either.

R2D2 and C3PO are doing nothing but comedic lines and randomly waking up to show they knew where luke was all along.

Chewbacca is just still sitting by Hans side while being a smuggler. Not trying to rebuild the Wookie empire. Not trying to help fight the continued fucking rebellion..nope smuggling. And where the fuck did he go the last movie?

I can go on and fucking on about the super lazy writing and choices by these movies. Nothing was original, everything was lazy.",0pend,13lf7rxp,flbcvgq,I’m one of the few who loved 7 and 8 and was so excited for 9. But yeah the movie just feels OFF for some reason. Like it was trying too hard to be Star Wars. That being said Ben Solo was freaking best.,fla5bud,Mugglecostanza,3tvdab9z
"You are ok with the most obvious Hollywood trope of bad guy sacrifices himself for good girl.

I would have preferred he died in any other way like fighting palpatine. But this is just super lazy writing",0pend,13lf7rxp,flbbrb4,I’m actually ok with Ben Solo dying at the end but that’s just my opinion.,fla7xg6,Macman521,2584b0
Well I was hoping for an actual story arch. But it was wasted on the most obviously Hollywood storyline of bad guy sacrifices himself for good girl,0pend,13lf7rxp,flbbfqf,did anyone think he was actually going to survive after killing Han?,fla579s,heatfart79,3hpeoxxs
No sauce?,0pend,13lf7rxp,flb943w,"Did you see the video of the sale at the mall there the other day? 

Should have had a chopper there.",fla3l9b,tpx187,8xc73
For sure. 100% thai is basically theft and should not be allowed to be used by the party until services rendered,0pend,13lf7rxp,flb8ecd,"Makes you wonder if deposits should actually be held in escrow. If a venue wants me to set some money aside to guarantee a spot, they should have to keep their hands off of the money too.",fl9ukmr,B-WingPilot,onlkj
Been looking through all of the comments. And I still have no idea what is going on,0pend,13lf7rxp,flb4g2e,English pls?,flaqoc9,LtSMASH324,8w746
Really. Never occurred to me. Gonna have to give it a try,0pend,13lf7rxp,flb46t4,"To anyone reading this, do yourself a favour and read the book, it is great.",fl9ogue,crumpuppet,mkbkt
It looks like this train could have stopped 15 feet earlier and let traffic still go through,0pend,13lf7rxp,flb37v5,"Before some underpasses were built, it was possible to cut Riverside, Calif., in half with a stopped train.

One time in the early '80s a cop had had enough of it. He found the engineer having lunch in a pizza place, and cited him for obstructing traffic.",fl9n1ai,Nyckname,5qngg
And spoke. So now his voice and face can be identified,0pend,13lf7rxp,flb0848,"I'll never understand why these people record themselves doing the act, like, do you want to get arrested?",fl9s5as,langraffe,4djik2y1
All her super jedi powers because she is ridiculously overpowered,0pend,13lf7rxp,fl9d5oh,How does she even know about the homestead? How does she know how to get there?,fl7hz6d,EwanMcNugget,txxrn
Makes me.soo happy we have phones with cameras on them at all times. I imagine this shit would happen 40 times more without them,0pend,13lf7rxp,fl9c5tc,What kind of life experiences leads you to become the sort or person that does this. Bizarre and honestly just sad really.,fl8f8mb,vincecarterskneecart,3ylt54
I heard HEY HEY HEY! So hopefully,0pend,13lf7rxp,fl9c3nc,I hope the camera lost frame at the end because someone was about to punch the fuck out of her,fl8b51f,SydneyTom,9plwk
Reminds me o the flight of the conchords episode with bret,0pend,13lf7rxp,fl982wx,"This one guy I slept with didn't make a peep. Nothing. At one point, when I was riding him I stopped and asked if he was enjoying it. He's like ""oh yeah, this is great!"" And proceeded to make no noise for the rest of our session. Put a bit of a damper on it if I'm being honest. 

Moaning during sex is such a turn on for me, especially men doing it. It almost brings out an animalistic side that is so hot.",fl88y9y,Fireblu6969,5o9a7ztf
🏅u desirve thos!,0pend,13lf7rxp,fl8uore,E: spelling mistakes in memes,fl83lq5,I_like_the_abuse,590g0ix7
Postponed until april 1st,0pend,13lf7rxp,fl7iq0x,Sooo... What happened?,fl742rg,Blocks_,nu7qp
We used to make these in high school. Forgot all about them. They are great,0pend,13lf7rxp,fl6te9a,Update: this is the best thing I've ever made.,fl5275r,b3nchvis3,2elyktbx
And to protect the under paint,0pend,13lf7rxp,fl6gpmf,It's the stuff they put on nails to make them glossy i think,fl65d7h,M_y_t_hs,53rqddo0
"I dont play this game but it looks amazing and is super satisfying. I do play COD however, and for the highest selling game most years including this past one, it is extremely frustrating how little they give a shit about stuff like this. Guns go through half of people outfits in weird ways. And even their own legs and arms move through their outfits. So lazy",0pend,13lf7rxp,fl6gjnw,Holy shit! That’s my biggest complaint about games is clipping small details assuming we won’t notice. This is beautiful!,fl5aceh,Fakeaccrealstory,4pucfkbw
Which keeps you on the page longer and boosts your google status,0pend,13lf7rxp,fl6exqf,"And more importantly, it has to be above the recipe so you scroll through and view all the ads.",fl4ym3y,NephriteAcademic,4wv9kzqd
Sooo. Can you now give the actual ELI5?,0pend,13lf7rxp,fl6evao,"Your router has several hardware components.

* Integrated switch (physical network connections)
* Wireless RF circuitry for sending and receiving data
* Processor and routing software to handle data-link stuff
* NVRAM - non-volatile memory - stores configuration information and system software
* RAM - stores currently running configuration and copy of system software

The router will run a self-test on its hardware when starting up. During this period, it will give out fault codes and other diagnostic information if the system has internal data corruption or other hardware errors. This takes up time. Fun fact - you can actually connect a serial line directly to the board on most routers and observe this in a console.

So the memory copy rates aren't all that fast when a router boots up either. This is why, for instance, it still takes a good minute or two to update the firmware after you have downloaded it. After boot, It will copy your firmware / operating system and configuration from NVRAM to RAM. This takes up a good deal of time.

Once the hardware tests are passed and the router's software is loaded up, each piece of hardware gets ""initialized"". This is the part where the router looks at your connected devices and establishes connections. Things that are wired into the switch (such as a modem or gateway), checking the current bands and selecting the least congested one, and bringing any other software on the router up (such as a VPN service).

There is a lot more going on under the hood than listed here, but this is ELI5 after all.

EDITS: Just fixed a couple typos. I also see lots of people making a valid point that this isn't ""ELI5"". Also that a router is ""just a small computer"". The thing is, it isn't just like a small desktop/laptop. It has very specific hardware and software that accomplishes a very specific set of tasks. Unfortunately, this question can't really be meaningfully answered in the framework of ELI5. A 5 year old would just have to accept that it needs time to start everything up and get everything talking to each other.",fl4z875,Sparkie86,2cis2i8l
"If condensation is building enough to fall down onto the bottom part, as soon as you pick it up, the water would fall onto your lap or table. And if it is hot coffee, it doesn't form condensation.",0pend,13lf7rxp,fl6eitf,Yeah but what if the bottom's wet?,fl5k8zd,PM_ME_HUGE_CRITS,1ktx6hk2
I'm my city no. They have vehicles with sweepers and water to rinse the roads. A broom like that is pointless. She might as well be emptying a lake with her hands,0pend,13lf7rxp,fl6e7hz,Is sweeping the road with a broom really a thing?,fl4lmr9,spicyflour88,3icnlb9p
I am also wondering why she was sweeping the road when truck sweeper work much better?,0pend,13lf7rxp,fl6e5h8,"In case anyone is wondering, she is not dead. 

“Tonight in Pustomity (Lviv region, Ukraine) a car hit a woman who was cleaning the street. The injured is in the hospital in serious condition, the driver has not been found”

Update 21 March: “Source, update (in Ukrainian): https://galinfo.com.ua/news/politseyski_rozshukaly_zlovmysnyka_yakyy_u_pustomytah_zbyv_zhinku_340305.html

Police has found a 17-y.o. driver who hit a 71-y.o. woman. The woman is hospitalised with injuries.”
Thank you /u/conxt for providing the update.",fl4m0mx,redddiablo,ffvto
100% that guy has integrity,0pend,13lf7rxp,fl4z10y,I'd vote for the guy calling her out.,fl3idor,skydivinghuman,nlr9q
Love them. Do you have a gif of all of them? Or of each season?,0pend,13lf7rxp,fl2mi5z,"This is from my quest to draw a daily piece of pixel art for every episode of Adventure Time.

The fight scene in this episode is probably the smoothest animation in the entire show. Every time I watch it I'm blown away by how dynamic it all is. The kiss was also so unexpected. I quite like the idea that Finn and Huntress Wizard are in a casual relationship given Finn's life has featured so much romantic turmoil in the past. The kid could do with a break from all that. I hope they expand on the relationship in Distant Lands.

| [Season 1](https://imgur.com/a/KYOOS6e) | [Season 2](https://imgur.com/a/z7xh7pa) | [Season 3](https://imgur.com/a/z5kC0HA) | [Season 4](https://imgur.com/a/c8TODwC) | [Season 5](https://imgur.com/a/iMsWjEN) | [Season 6](https://imgur.com/a/aKN8nMs) | [Season 7](https://imgur.com/a/dOAA2ya) | [Season 8](https://imgur.com/a/8JYoTVd) | [Season 9](https://imgur.com/a/BErICuq) | [Season 10](https://imgur.com/a/aZXPBJK) |",fl1i22z,Jagm_11,larr1
The forbidden text. Yes,0pend,13lf7rxp,fl2imeg,#**IS THAT AN EMOJI?!**,fl2icxn,ThatGamerkidYT,5gxz07xy
Did you watch the video. The last level is invisible...,0pend,13lf7rxp,fl2f4ir,"It pleases me knowing that the game can even be beaten in the first place, damn that’s satisfying to know.",fl2aica,JustaRandomguy9999,1f6a3tfz
"All animals are cute. There is no ""cutest"". He is being ridiculous",0pend,13lf7rxp,fl2dpsa,"To be fair, OP said ""the cutest kitten or puppy you could find **at the shelter**"".  While there are reasons to disagree with his opinion, OP's statement is far from saying that pulling baby animals out of trash cans isn't rescuing them.",fl2bp2s,shadowbannedscrub5,s75iuul
Lmao. Here. Take my fools gold 🏅,0pend,13lf7rxp,fl21eoe,( ͡° ͜ʖ ͡°),fl21ak6,giraffe111,1505tvbw
Sooo. You wouldn't hate to stick a frozen sausage up your private parts?!,0pend,13lf7rxp,fl215lk,"C’mon, all. This is funny, but not r/TIHI material. Let’s be better, folks. I’m leaving the post up for visibility’s sake, but don’t upvote this kind of stuff. Downvote it, or report it so we can take a look. Nobody _actually_ hates this.",fl1ucx3,giraffe111,1505tvbw
Nobody in india for sure. They are carcus loving beasts,0pend,13lf7rxp,fl1yr49,So nobody who died was vegan?,fl11irf,Crispie_Onyon,4avb4xev
"Dont forgot the Republicans who think it is still a democratic hoax. And yes, I have still heard of a few",0pend,13lf7rxp,fl1w9qb,"I'm wondering if the increase is due to new cases, or simply there's a lot more testing going on and we're catching existing cases.",fl14oy6,terrybroadway,12iaml
Well according to op your a POS for not grabbing the ugly and old one I guess,0pend,13lf7rxp,fl1vy2f,I plucked my cute kitten out of a trash can on trash day after someone decided they truly didn't want a kitten so I'll continue to say I rescued him. T\^T,fl0jztq,kendrahf,2hqs5yg
"So frustrating when you start a series to have the most unrealistic group of people. The loner guy who is shy has 6 pack abs. The popular guy has super rich family every time, the nerdy girl is just linda cardinelli playing velma (who was amazing) and if they arent 12 or 50, then they all look like 20 year old perfect specimens",0pend,13lf7rxp,fl1v3e8,"As an American, not gonna lie it was a little odd when I started watching British series on Netflix and saw how normal most of the cast looked. Odd but refreshing. In the US, 85-90% of a cast could be models.",fl0m044,shosure,if7wb
"What..no dude. I said industry's too. Let me put it to you this way. You have a priest going down the road lobbying for religion, and you trust them not to be corrupt, so you let them do their thing. Then you have corporation A that needs to have a couple signs up for their business. and you allow it.

Next thing you know, you have corporation X that is claiming to be putting signs up for lobbying, while all the time receiving and paying bribes to make sure they get better spots on the road and even more time spent lobbying. All the while getting more money and then bribing the officials who set up the lobbying to give them even more power, and all while bribing the lawmakers to make sure the laws help their businesses make more money and not others.

Corruption in lobbying isn't that hard to imagine. We aren't saying remove all lobbying. We are saying remove the corrupt ones and regulate it more so that corporations cannot buy laws",0pend,13lf7rxp,fl1sveb,"you think only businesses lobby?

how do you think prohibition passed",fl1rzso,ubitchmade,5rw27otv
No. You idiot. We want to regulate them more so that corrupt shit cannot happen. So that lobbyist are not being unfairly treated because another lobbyist had more money,0pend,13lf7rxp,fl1rgu8,Environmental groups and unions lobby all the time. Do you want to ban advocacy groups from advocating for good policies?,fl1r4t4,lickedTators,kntxm
"By having informed people who are in the pockets of one company/ industry and are actively trying to only make them money at the expense of the people. They do not lobby for the people or the congressmen, they lobby to make more money. That alone breeds corruption",0pend,13lf7rxp,fl1qtij,"You are 100% correct, having informed people help our leaders make decisions is a must.",fl1pzlr,DHCB,a5d5n
"Lobbyist are only there to make the industry more money. Not save money for the citizens, not more cleaner and better policies for the people. No. To make the companies more money. They have no interest in the subject matter. They only care about money",0pend,13lf7rxp,fl1qnc8,"There is nothing inherently corrupt about a politician moving to lobby, just as there is nothing inherently bad about lobbying. If you work as a lobbyist for X industry, or a regulator for X industry, you tend to be a subject area expert. That is a *good* thing, we want experts in these areas. We shouldn't completely ban the public/private sector revolving door, but protections should definitely be stricter because as we are seeing it is very easily corrupted and abused.",fl1ov7m,themasterplan69,qam60pe
Were you there for Phoenix Afrobeat Orchestra a couple months ago. It was amazing,0pend,13lf7rxp,fl090gw,I love when this pops up on reddit. Used to be one of my local haunts. That said im still a Valley Bar guy myself.,fkykrvv,amigodemoose,77o54
Came here to say this as well,0pend,13lf7rxp,fl08zag,"I’ve been there, it’s in a more fancy restaurant in downtown Phoenix Arizona",fkydpe9,penn-tennisball,3gnwloxa
Dude's mad they happy and he ain't,0pend,13lf7rxp,fl071wz,Dudes mad he aint married,fkyl6y8,GottaKnowYourCKN,36336d0r
"TAKE IT! 

https://youtu.be/hHHB00Nu3Ak",0pend,13lf7rxp,fl06pg8,"She got a ""Strong Hand""",fkzd9vt,RageHamilton,v72e5cm
Dang. Dash cams are a must for truckers,0pend,13lf7rxp,fkzz43s,"My dad is a trucker and has been since I was about 2.  He was away most of my childhood and life supporting our family, jumping from business to business and moving us states away for a job.  He constantly gets shit on when he tells people he's a trucker, he used to be a limo driver but got sick and tired of asshole celebs and drunk party people.

The on the road rep they get is terrible too, a woman pulled out in front of him and called it his fault causing him to lose a GREAT job.  We didn't have enough money to fight it in court due to my mother being unemployed(she's a selfish bitch) and it's been on his record for 7 years now.",fkznpsn,Moist_Banana_Nana,5mot4g76
So does the FOH,0pend,13lf7rxp,fkzya2q,"BOH here, originally my boss was going to stay open and work the line by himself and have the rest of us take off, but he got slammed on monday night with takeout orders so he asked me specifically to come in to help from from 5 to 8 for the whole week. 

I was working the phone because it was slow and some lady called and asked what time we were open till. I said 5 to 8 for dinner service but before I could tell her that we were only doing takeout, she said “great! see you then!” and she hung up. She showed up half an hour later demanding to be sat and got all pissy when we told her to leave.

I hate customers.",fky7gsf,Bee-and-Barb,u1i7n
Wait. That is real? Not just a movie with johnny knoxville?,0pend,13lf7rxp,fkzv6ud,"This was a part of the world's most dangerous theme park to ever exist- Action Park

https://youtu.be/Ljk6oR5_zNE",fkz1hfs,savvyfuck,iv2ha
Hell no. Blockbuster never gave me 5% in trade credit for me movies I trade in. They were cool with their rent one and get one free deals,0pend,13lf7rxp,fkz9m84,"In 10 years: ""DAE remember Gamestop""? Then all the praising will begin, just like Blockbuster.",fkyzb1x,HollowGoob,32t1u2ka
Ya man. Because I am on reddit to look good.,0pend,13lf7rxp,fkz8gj0,"Bruv, getting this pissy over semantics isn’t that good a look, but you do you I guess",fkz7qgf,tendeten,3pcsyg74
And we have moved it to April 1st...,0pend,13lf7rxp,fkz5cvj,Update when?,fks74s0,Th3asshole,3jsit8nv
Same. Happens like once every 3 months for random events. But it doesnt bother me. I dont have to deal with all the crap in between,0pend,13lf7rxp,fkz1zq9,"Me leaving fb was how I found out I don't have any friends and most of my family don't give a fuck!! Family wedding? Ooooohhh noooo you aren't on fb, that's why we forgot to invite you!!!",fkx9zk7,Duckfacefuckface,xtxhs
In a reddit title. Those arent her exact words. And reddit has been wrong before. I am asking *how she knows to think that*,0pend,13lf7rxp,fkz1373,"“Eva **believes** she **may** be the youngest…”

(Emphasis mine)

It’s right there in the title my dude, I don’t think our girl was making an absolute statement.",fkz05bg,tendeten,3pcsyg74
"Well. Yes it is the holocaust. I know it was a nightmare. It is one of the most infamous horrible thing to happen in history.

But my question is how does she know? There could have been many 2 year olds tattoo'd. And many who survived, but I doubt there are many who made it to social media",0pend,13lf7rxp,fkyzk6a,They generally just killed infants almost immediately. The concentration camps were fucking nightmares,fkyykcs,tendeten,3pcsyg74
She looks drunk. Not like a POS,0pend,13lf7rxp,fkyv3r1,"Interior damage can net you up to 500 I think. She's still a piece of shit, but she definitely paid for it...",fkxg8tj,mycat_isanasshole,26lvucc4
You do know they have been caught multiple times throttling old phones though right? To force users to buy newer ones. Purposely making old OS run bad,0pend,13lf7rxp,fky6sa3,"No, I wait until they drop support for my model with OS updates ...Usually every 4 years and that’s only if I’m really interested in the new OS.",fky6ktg,DJ_DD,15kvmg
So you use your iPhone until they throttle the speed and then you buy a new one like they wanted....,0pend,13lf7rxp,fky6c6h,"Multiple companies release their flagship Android phone each year . There’s only Apple producing iPhones . The Android market is quite saturated. 

I don’t understand why I’m supposed to care about a phone losing value. I use my iPhone until it’s too slow to keep up with the newest OS and then go get the least expensive option. I’ve had the iPhone SE for about 3.5 years now",fkxbj61,DJ_DD,15kvmg
There is no way there isnt a big smear on her inside of her pants,0pend,13lf7rxp,fkwyjux,How did she know where it was gonna go?  It’s like she can mysteriously aim her diarrhea...,fkw0ta9,Exbldr,4feaxqw5
Ehm. I would like to introduce you to this invention by Ben Franklin called the bifocals,0pend,13lf7rxp,fkwxnfa,I don't smoke but I do read that's why,fkvydcm,AlphaMari0,3vggukaj
Lol. They actually think a chemotherapy doctor would instead do plastic surgery for a day,0pend,13lf7rxp,fkwwhvd,"Jup, even if triage was a daily fact of life under universal healthcare systems (wich it isn't)  I seriously doubt leukemia wouldn't be a priority.",fkuptym,greatcornolio17297,y658v
"Don't help those lazy people! They did it to themselves! 

/s",0pend,13lf7rxp,fkwvqgp,Handouts are only bad when they help poor people/minorities,fkuebgk,StuffandThings85,274pb5j2
"So. You answered one half of the question, but not the other. I have been on a grazing diet. And it has worked beautifully for me in increasing my metabolism and I have lost 30 pounds in the last 6 months. And I have tons of energy. I pretty much eat quarter to half sized meals every 2 to 3 hours. So why is my metabolism changing for the better in this situation?",0pend,13lf7rxp,fkwvlz5,"In general or body has three fuel sources: sugar, glycogen (a complex carb stored inside many cells in our body), and fat. (there is a fourth: protein, but our bodies will only start burning protein for energy if something is wrong or you are starving for a very long time) 


When we eat a meal our blood sugar starts to go up. When our blood sugar gets high enough our body starts storing the excess as glycogen. But each cell can only store so much of that glycogen, so any left over sugar gets turned into fat and stored in fat cells, which are made to do that one thing, and fat cells can store an endless amount of fat. They'll just keep packing it in and each individual fat can can become huge.


Our body really likes to hold onto the fat, it's a fail safe for when food is scarce. You can imagine our hunter gatherer ancestors needed to be good at storing energy in case they failed to hunt or gather food that day. Or you can think about bears who get super fat before the go into hibernation. It's all about energy storage.


When we burn energy we burn it in the same way: first the sugar in our blood, then the body will break down glycogen, then finally fat. When fasting in order to maintain energy levels, blood glucose levels, it will first start to break down glycogen to make those sugars. When glycogen stores run low the body then starts pulling from its emergency reserve: fat.


This is the purpose of intermittent fasting as a dieting technique. You're forcing your body to burn through its glycogen stores and maximizing the amount of time your body is burning fat for energy. This is called ketosis, and is probably what you're referring to when you say 'metabolism'. Our bodies change they way they are metabolizing different stores of energy to ensure it has enough to function.


Edit: people keep commenting that my comment about intermittent fasting is wrong. It's only wrong if you think intermittent fasting is just skipping breakfast. Many people who do intermittent fasting do OMAD, one meal a day, or implement 48-72 hour fasts to their intermittent fasting regime.


And in general, even by just skipping breakfast, you will be burning more fat during that period. Very rarely does the body do only one thing at a time. When you start fasting for any length of time you are going to be burning glycogen, metabolizing fat, and inducing gluconeogenesis (making sugar from fat and other sources). Fasting is a great way to burn extra fat stored in the liver (fatty liver disease, a precursor to type two diabetes and metabolic syndrome) b/c gluconeogenesis happens pretty much exclusively in the liver.


If you want to get more technical low blood sugar, like when you are fasting, will increase the amount of glucagon in your blood. Glucagon acts on peripheral tissues to tap into glycogen stores, on the liver to induce gluconeogenesis as well as burn glycogen, and on adipose tissue to induce lipolysis (break down of triglycerides into few fatty acids so they can be turned into energy in the liver). Even short periods of fasting will induce these actions. Will you go into full ketosis after a short fast? No. Will your body start the process after a few hours? Yes, even if it's just a little at first. Metabolizing fat from peripheral tissues takes time, so the longer the fast the better.",fkus29b,kurtist04,qap9w
Looks like a light switch. But just guessing,0pend,13lf7rxp,fkwv06j,What does that thing at the bottom right do?,fkw0w5e,nerdify42,177s1l42
Lol. I definitely yell at my teammates if they dont mark enemies using the in game system that works perfectly,0pend,13lf7rxp,fkwuqz0,"My buddies to a T. 

>“YO YO I GOT CONTACT” 

>“Ok where are they dude, I don’t see em” 

>“THEY’RE RIGHT HERE, AT THE BUILDING OVER THERE. FUCK IM DOWN” 

Oh cool cool the building that’s surrounded by buildings that’s how I’ll know what to look for.. Smh",fkw9yhg,ILoveDrive,1ptnflsk
"Rioting in some cities are bound to happen if the entire neighborhood goes without food and clean water and other resources.

But hen you cant really riot in groups. So it would be random houses being robbed or something",0pend,13lf7rxp,fkvvmi8,"Completely agree! Its not the virus im worried about, its peoples inability to pay bills/buy food/etc. Once that starts happening, who knows how people are going to react?",fkuzpvi,LifesPotential,4fnrb1iu
"That's is awesome that you know what you love. But it is far from simple. I build websites too, but not from the ground up. So I know how hard that is. 

There are tons of like minded people who love technology and building programs out there. I recommend looking on facebook events or something that is a meet up at local universities and other places. I went to a few group meetings for design while in college and I didnt have to be a member or anything",0pend,13lf7rxp,fkthjy5,"I personally love learning new technologies and building websites/programs from the ground-up. That, and games/movies/music. I'm a pretty simple guy lol",fktg3so,dstlny_97,13ysjw
Of course. And ya that sucks. And in texas I take it you don't have access to edibles or something that is easier to take,0pend,13lf7rxp,fkt4gdo,Every bowl makes me feel worse :((( haha thanks though my guy I’m staying in good spirits about it and everyone on reddit is really helping me stay sane right now. I really do appreciate the conversation.,fkt4csn,ilovepotatos420,3459lbyk
It definitely is. Feel better man! Smoke a bowl and watch some tv and hang in there,0pend,13lf7rxp,fkt4a9y,See that’s what people say but it really can be a lot sooner from what I’ve read there are people who have showed symptoms in 3 days and that would be the time we where showing symptoms. God I hope your right but it’s impossible for me to know yet.  We all had a steak but different cuts so it is possible I guess if all the cuts where contaminated. It’s just such a bad time to be sick with anything.,fkt47gk,ilovepotatos420,3459lbyk
"That actually makes me think it isn't the covid then. Most people do not show symptoms for up to 5 days they say, so you probably all got food poisoning or something that hits you faster. And if you ate the same thing like pizza or something like that it makes sense.

But still you can't be too careful with your family, so I would still keep isolated as much as possible",0pend,13lf7rxp,fkt409f,"Yeah I’m acting like it is the virus for the sake of my family and community but remaining hopeful it isn’t. Just the fact 4 people went out together and woke up with the exact same symptoms at the exact same time is really worrisome to me.

Edit: atleast it’s my best friends so we can still hang out lmao",fkt3smd,ilovepotatos420,3459lbyk
Fell better man. Hopefully just minor and precautionary,0pend,13lf7rxp,fkt3jbm,"Well I went to the doctor (i called a line for covid and their advice was to call my doctor and my doctor told me to come in I’ve gotten shit on for this people saying I should not have gone to the doctor, medical professionals told me to so I did) and I tested negative for all the usuals like strep flu a/b they said it could be a common cold seeing as they couldn’t test for the hundreds of viral colds but my symptoms arnt severe enough nor do I have the money to go to a hospital just for testing. I was told to treat it as covid and quarantine for 14 days or longer if symptoms persist. But my symptoms do match up so... 
edit: no one has been tested all the hospitals here refuse testing unless your dying.",fkt3cb8,ilovepotatos420,3459lbyk
Like you mean coronavirus or you mean common flu? Has anyone been tested in your group?,0pend,13lf7rxp,fkt34e0,Yes I’m in Texas I went to get tattoos and then went to dinner with a group of friends and we’re all sick. Katy Texas is where I believe I got sick.,fkt2zsu,ilovepotatos420,3459lbyk
"Where did you go and what did you do, and are you in the states or another country?",0pend,13lf7rxp,fkt2yjj,I don’t mean to be that guy but I would man I went out on Friday and now I’m sick...I should have just stayed home,fkt2wex,ilovepotatos420,3459lbyk
Well ya I am not quarantining myself.,0pend,13lf7rxp,fksxfow,That isn't really how quarantine works,fksv80d,Moarbrains,55gir
Lmao that is hilarious! Thanks for the update!,0pend,13lf7rxp,fksrth1,She could tell I was lying about the emergency. I texted her later that night saying the “emergency” was resolved and she called me an asshole... which seemed kinda fitting.,fksr8wi,beefer69,2tmak3px
"Omg, I know! When I first heard about that I thought it was like a dumb joke. But people actually believe the holocaust didn't happen!

Even if you didn't have a ton of money at home people are not trustworthy anyways unless you really know them. And even then friends suck sometimes. Don't get me wrong, there are tons of trustworthy people but the few who aren't ruin it for the rest of them.",0pend,13lf7rxp,fksgjpc,"If the guy wasn’t pushing it and it was an amazing date, maybe. However, most likely wouldn’t. I bartend and have over 2k in cash in my house at almost all times and I have trust issues. Even in a safe, I don’t like strangers in my home. & I met flat earthers before, but a Holocaust non-believer, whew that was a new one!",fkscgs3,xoXoxo58,2tdrnp6u
The restaurant we were going just said they were closing today. She lives in a city over that is still open. So we are going to meet somewhere there,0pend,13lf7rxp,fksg6z6,Where are you going to go on your date? With corona virus shutting everything down I’m running out of options.,fksexbp,HappiestWhenAlone,16rlau
RemindMe! 3 days,0pend,13lf7rxp,fks7aeu,Thursday night.,fks79fm,0pend,13lf7rxp
Thursday night.,0pend,13lf7rxp,fks79fm,Update when?,fks74s0,Th3asshole,3jsit8nv
I like hearing the female stories too. Fucking creepers,0pend,13lf7rxp,fks2osh,"Creepy guy wanted to know details of my sex life with previous guys. Went on about how women in the Caribbean were told by their mothers to learn how to give good head to men to try and get them to marry them and take them back to America. I was like yeah. Can you drive me back home please? Drove like a maniac almost got us killed then stopped in the middle of the road to drop me off. Complete nightmare. Felt so unsafe.
Edit: I am female. Didn’t realize this was an ask men post sorry.",fkqtphj,Existential_Soul,5c5acgib
I feel you definitely have to be on the same level of drinking and partying otherwise one or the other will just be left behind and the other feel oppressed but not being able to party all of the time.,0pend,13lf7rxp,fks1m5e,"Met with this girl at psychedelic indoor mini golf place.

The more we advanced through the game, it became clear she didn't want to stop playing at the 18th hole. But the words that were coming out of her mouth were having the opposite effect on me.

Her online profile didn't show that, but she was a little bit too trashy for me: flying away on weekends to go party and do coke in Miami, coming in to work hungover and still high...etc...Might be fun for some, but not my definition of good times.

So we finished our game and started walking to the subway station.

""So, what's your stop?""

told her my stop...

""Oh, same as mine...We could continue hanging out if you want....""

I had to come up with a solution, fast.

We were passing a movie theater...

""Well...I had a good time, but I can't at the moment...I need to catch up on new releases...Talk to you soon!"" and I entered the lobby.

I paid for the next showing (didn't really care about the movie) .

She texted me the next day to know how about the movie and when we would see each other again. Told her it was fine and that I didn't feel any spark.",fkqyztq,Bassman1976,ag4ih
Oh. She remembers,0pend,13lf7rxp,fks0y4p,"When i was 18, i was working at a ski hill. We lived in dorms with shared bathrooms and shared living space. A friend had asked me to her room. She appeared to be drunk, I'm still not sure how much or if she was pretending. I was dead sober. 

Anyways, she started telling me how she wanted my dick inside her. I was flattered and honestly wanted to so badly. but when she was sober before, she had told me flat out that she didn't want to sleep with me out of respect for her cousin who liked me, and who i had a drunken slumber party with a little while back. They both lived there too.

 So remembering this i told her no and she should sleep it off, and maybe when she was sober. I've never really liked sleeping with drunk girls, i always felt like if they couldn't remember it, it wasn't as meaningful. 

Now i don't know if someone saw me leaving her room and started a rumor or what. but she got angry at me after that and never talked to me again.",fkr3kxj,yoursISnowMINE,5vzer7qb
"1. That guy sounds like a douchebag based off this one.
2. You do you and set your boundaries where you want. As a guy I would not have a problem understanding that. But if things did go well, I am curious if you would go back to his place?
3. I am not a big drinker, and I hate being told to drink more when i dont want to. Sounds like he was being shady and trying to inky get in your pants.
4. What the actual fuck! Holy shit. At least her you know he was crazy on the first date and you didn't go on more with him before finding out",0pend,13lf7rxp,fks0ky0,"This just happened to me on Thursday last week. 
He insisted on picking me up, and I finally caved and said yes. Thankfully I picked a bar right across from my condo complex. I lasted way longer then expected.. these were the downsides that made me walk out. 

1. It’s 30 degrees and he’s wearing a tank top. Not the tank tops that are nice, but like he had a shirt and physically ripped the sleeves off with his armpit hair out. Let this one slide. 

2. My mutual friend that introduced us messaged him telling him not to try and go into my home. It’s one of my biggest pet peeves and my friends new this and wanted to give him an upper hand. However, he instead brought it up  and argued with me on why it’s “dumb” that I think this way at 25 years old. 

3. I’m not a big drinker. I had one and said I’m okay. He pushed and pushed for another one. I said no. Few minutes later, went to the bathroom and came back and saw he ordered me one. I refused to drink it. 

4. THIS was the last straw with this nut case. 
He tried to convince me that the Holocaust was fake and all media and never happened. Mind you, he doesn’t know a single thing about me. Including my religion or my families or ANYTHING. I finished the episode that was on tv bc at this point I was pretty interested. Then I told him “I’m sorry but this isn’t going to work out” and walked out and walked home.",fkr489a,xoXoxo58,2tdrnp6u
"I dont have snap and never even thought to do a video chat. She hasn't refused because I havent asked lol. Now you got me thinking 

At this point I could use the company so I will keep my fingers crossed and hope it works out.",0pend,13lf7rxp,fks04gb,That’s why you should video chat or at least snap chat before going out. Biggest red flag of a catfish is that they won’t let you see them.,fkrzwfs,cdromney,lghj0
Lmao! And can you share it with me as well,0pend,13lf7rxp,fks003z,That's absolutely disgusting. Do you still have her number?,fkru5f6,neofiter,13zv7h
"Love being silly with a girl I'm flirting with. The more goofy she is the more comfortable I feel being my nerdy self.

Find a guy who brings the goofy out of you,not forces you to hide it",0pend,13lf7rxp,fkrzuqv,"Yay for goofy! As a weird girl I also make sure to keep the goofy hidden, but not for long. Turns out a lot of guys do not like goofy women. At all. Fine with me!",fkr18tp,0bsidiaX,3xeus6aw
"Lmao this is definitely the first one where it was your fault, not hers. Did you return? Was she mad? How did it go? Did you date after that?",0pend,13lf7rxp,fkrznkc,I gambled on a fart walking into the restaurant... I had to fake an emergency phone call just so I could go home and change my poopy underwear,fkr7jwd,beefer69,2tmak3px
Lmao. Were you dating Andy Samberg from Parks and Rec?,0pend,13lf7rxp,fkryyhr,"Met a very nice guy for coffee, turns out he has no inside voice.  Everything he said to me was boomed into the four distant corners of the coffee shop.  Lowering my voice to nearly a whisper did not make him take the hint.  Eventually dragged him out into the parking lot to tell him that his volume was making me uncomfortable.  He replied LOTS OF PEOPLE TELL ME THAT.  Well, maybe you should listen, because this isn't going to work for me.",fkr0cw3,Lilliekins,daypl
"Oh, so you went on a date with my ex.",0pend,13lf7rxp,fkrwwtp,"She got upset that I wasn't vegan and talked about how much she loves herself and no one deserves her.

Edit: there's more to this. She spent an hour talking about how she dumped her previous ex to pursue different types of physical ""love,"" and was keen on being in a relationship where only she could experiment with other people as it was her right and women were oppressed far too long to be in one relationship. 

She seems to be doing ok last I checked. I think she works at a bee/honey shop now.",fkqpyew,Bikewonder99,517ge7r
"Been talking to this girl for a week now in POF and we meet Thursday, this is pretty much my biggest fear when meeting he because we are hitting it off so well via text.",0pend,13lf7rxp,fkrwsnn,"Catfished by some girl that had me worked up big time, and it’s not that I’m nasty but she completely lied about everything right down to her taste in music. I tried to see the date through but when I was waiting at the bar buying drinks I was so disgusted by her total ability to bs someone over such a long period of time that I bailed",fkqtuh4,Evil-Kris,igxxc
Well ya. I dont have a 60 foot tall screen to watch on.,0pend,13lf7rxp,fkq8wrz,"I may be completely wrong, but I don't think Americans will be done going to the theater any time soon.",fkq3cxr,WaggyTails,xelq6
Dude. I said it already. But I thought you were done anyways? Have to get the last say or something? Whatever you have to respond with I am sure it will not even be worth reading,0pend,13lf7rxp,fkpj4vx,">Thank God. Shut the fuck up already

Thanks for proving you have nothing useful to say in this matter.",fkpeb29,flyingwolf,5mpwk
Thank God. Shut the fuck up already,0pend,13lf7rxp,fkpdsuy,">I have already explained to you why you are an idiot. I am not refusing to understand anything other than you are anything but a jackass

I have backed up my statements with citations, you have done nothing but bloviate on a topic you early know nothing about.

If you refuse to tell me your state and city so I can prove you wrong then I have nothing more to say to you.",fkpbi96,flyingwolf,5mpwk
I have already explained to you why you are an idiot. I am not refusing to understand anything other than you are anything but a jackass,0pend,13lf7rxp,fkpaov0,">What in he hell are you talking about. The dude in the video isn't me and it isn't his warranty deed holder who is complaining. It is his neighbor. So fuck off with your bullshit

I am trying to explain to you property rights and quiet enjoyment of real property.

But you seem hell bent on refusing to actually understand it.",fkp8z58,flyingwolf,5mpwk
What in he hell are you talking about. The dude in the video isn't me and it isn't his warranty deed holder who is complaining. It is his neighbor. So fuck off with your bullshit,0pend,13lf7rxp,fkp7bcb,">You just like to assume everything straight out of your ass. Are you trying to look like an idiot?

What is your city and state, and do you rent or own or pay a mortgage?",fkp5lsp,flyingwolf,5mpwk
You just like to assume everything straight out of your ass. Are you trying to look like an idiot?,0pend,13lf7rxp,fkp4o6b,">What? Now you are claiming that this guy first of all doesnt own his home but has a warranty deed he is entrusting to someone else. But also that all home owners must have a warranty deed.

Do you own your home straight out?

No? Congrats, check your mortgage docume ts, you have a clause for quiet enjoyment.

Yes? Congrats, yourocal municipality almost certainly has a noise ordinance.",fkp3y5u,flyingwolf,5mpwk
What? Now you are claiming that this guy first of all doesnt own his home but has a warranty deed he is entrusting to someone else. But also that all home owners must have a warranty deed.,0pend,13lf7rxp,fkp2h28,"> Warranty deed is someone who promises to hold onto a deed for another party. So practically a tenant and landlord situation where the person holding the deed can have the final say on what noise is allowed and what isnt.

Which is what 99% of all homeowner's situation is, you know when they pay a mortgage company or bank. 

Read your paperwork folks, it is important.",fkotufz,flyingwolf,5mpwk
https://www.reddit.com/r/PublicFreakout/comments/fjn5ty/studens_on_campus_dorms_after_suspension_of_all/?utm_medium=android_app&utm_source=share,0pend,13lf7rxp,fkot8pb,"show some love bro, these are not easy days",fkosrwr,firetonian99,29w24xsx
https://www.reddit.com/r/PublicFreakout/comments/fjsnyy/spaniards_wont_let_coronavirus_affect_their/?utm_medium=android_app&utm_source=share,0pend,13lf7rxp,fkot5jj,"show some love bro, these are not easy days",fkosrwr,firetonian99,29w24xsx
https://www.reddit.com/r/PublicFreakout/comments/fje4zl/how_italians_are_currently_spending_their_nights/?utm_medium=android_app&utm_source=share,0pend,13lf7rxp,fkot3d9,"show some love bro, these are not easy days",fkosrwr,firetonian99,29w24xsx
