child_body,child_screen_name,child_user_id,child_tweet_id,parent_body,parent_tweet_id,parent_screen_name,parent_user_id
I work at a grocery store and a lady actually coughed in my direction while waking past with her cart. What kind of monster doesn't cover their mouth?!,0rganicMatter,jodqn,fksux5z,"Working retail has taught me that people are inherently self-centered and rarely stop to consider the world outside them.   
All of the videos I've seen like this make me sick to my stomach.",fksawm9,feelin_squatchy,gv2v8
Were both of those posted to the same sub?,0rganicMatter,jodqn,fkrm5eo,"It's been established (on reddit) that inserting yourself into the photo, especially female (though gender doesn't seem to matter), has very real results. [Here's a recent example](https://i.redd.it/vf6s5wuc1sg41.png)",fkrg2xl,skylla05,6rhy3
"So, it isn't really leaving grasp of his family? Not as uplifting as I thought.

Edit: Thanks for the helpful replies to my question. I learned more about charities today.",0rganicMatter,jodqn,fja81vx,"According to a different article, he gave it to ""The Douglas Foundation"", which he and his wife Anne Buydens founded in 1964. It's a 501(c)(3). Anne received the rest of his estate directly.",fja6pz9,st_sebastian,lbayj
"You can show almost the entire boob real or fake, but for some reason the female nipple is the most vulgar thing in the world and all Twitch viewers need to be shielded from its presence. (but it's ok if the game isn't classified as ""porn"" — slightly confusing)",0rganicMatter,jodqn,fj6j921,"Real titties with just paint ok to show.....fake titties with a top = BANNED.

This bias is why I don't understand that every famous male streamer just doesn't move to another platform at the same time.  Just get together and say ""Hey guys, let's all do this together.""  Then Twitch would literally be nothing but camgirls and lose half their money.",fj586oe,HorrorTropesSuck,4y6ocex5
I heard working for Amazon is pretty tough. How do you think the work environment compares to Walmart?,0rganicMatter,jodqn,fitikj1,"It's way too true. I basically used walmart to get my life stabalized then ran for the next step up (Amazon, harder work but $4+ an hour more pay) and now I'm to looking at the next step after that. I can't really recommend Wal-Mart as a career, or really even a general job, but I'd be fine with at least one Black Friday shit being mandatory for everyone - give them a taste of the bullshit! Including corporate idiots! Maybe if the Waltons actually did some goddamned work things would change and stop driving the good management away.",fit2glh,Xanthelei,be3c8
Please help. You're my only hope!,0rganicMatter,jodqn,firlku1,*Board of Health wants to know your location*,firl951,lallapalalable,3vbqx
"Yes! I'm already witnessing that after 2ish years! Anyone that actually cares only works here for a short while, then they leave before their life force is sucked out of them.",0rganicMatter,jodqn,firldl7,"I used to work at Wal-Mart, and the most telling thing of my time there was that literally every single good manager in the building straight up left. Some stayed in retail but at competitors, some left retail entirely, but every. last. one. left. And by good I mean ""did their job, tried to enable workers to do theirs, and actually could be approached with concerns.""",firhtel,Xanthelei,be3c8
"Oh damn, when I applied they were only paying $9.50 in my area. It's been a few years, though. Walmart offered $11.50 so I took it.",0rganicMatter,jodqn,fir6vng,I find that unlikely considering Target is paying 15 an hour these days.,fir45xt,nvduhn,122gdp
"When I was being trained at Walmart they always told us ""You're free to join a union if you'd like, but why would you want someone, who doesn't know you or know what it's like to work here, speaking for you; we have an 'open door' policy so that YOU can always come to us and voice your concerns directly and we'll try to work with you"". And then every 6 months or so we fill out surveys asking ""How comfortable do you feel talking about your concerns/issues with management?"" They really try hard to make it seem like they care, but I don't think anyone that I know has fallen for it. Everyone just takes it as it is because it's “better than being out on the streets“ (some people genuinely don't think they can do better and it's sad).",0rganicMatter,jodqn,fir5zqe,I'm taking some time off as I burn through some sweet severance (software engineer). Looking for things to do. I wonder how quickly I could get a job at Walmart and try to form a union. LOL,fiqqt4m,swattages,1j16wxsd
"I don't know about other states, but where I live, Walmart ~~pays~~ paid $1-2 above Target for starting employees. (apparently this has changed in the last 3 years) 

Though, your point about the employees being more pleasant might still be valid. I work at Walmart and everyone seems depressed and tries to do the bare minimum.

Edit: Also the work environment is garbage. I can't comment on how it compares to Target work environment, but I can say that at my Walmart we don't really have what I would consider drinkable water for employees, unless you want to drink out of the very questionable and weird tasting fountains. We had a water cooler in the lounge for a couple months until the filter had to be replaced, and then they just removed it instead of replacing the filter. I'm still salty.",0rganicMatter,jodqn,fir3dcy,"No its the shitty service combined with the bad product. I feel they're about to say ""what the fuck do you want"" when i go to Wally World.

This stuff is why I shop at Target at least they pay a livable wage and the employees don't look at me like a TOTAL burden. I mean it's retail so some customer disdain is expected but damn Wally World. I spend a bit more but I feel good knowing I'm not supporting someone that will complain about the shitty work environment right in front of me...",fiquzeo,nvduhn,122gdp
"My hair is about the same length, and I too think about cutting it often. My goal is to grow it a tad bit longer so that when I cut it, I'll have a decent amount to donate to Locks of Love. Hopefully it'll make a nice wig and it's not too damaged; I do have a bit of split ends I should really take care of before growing it more.",0rganicMatter,jodqn,finpzue,"My hair is down to my ass now. Sometimes I want to cut it, but it looks really nice in a braid.",fin3e08,foureyedkitten,38yibwly
"Haha, I definitely know what you mean! It makes me feel so weird and a tad self-conscious.",0rganicMatter,jodqn,fineoml,"How feeble, weak, and vulnerable do you feel without them? I hate not seeing clearly when talking to people. Gives me anxiety, makes me think they know I can't see, and my eyes feel crossed",fimpfh2,nm1043,5zsh3
"To be honest, the current political climate might just drive me out of the United States. This post is giving me some major dystopian-future vibes...",0rganicMatter,jodqn,fim1fr0,"I wasn’t interested much in politics growing up, but it may be the thing that drives me out of my home state of Wisconsin. So many other states are progressing a lot more.",fil1vzd,ChuckZest,hlrmspo
"I'm -10 in both eyes and I can tell you that I heavily rely on sense of touch in the shower. I can make out colors and vague shapes which is useful, but if I'm reaching for small objects, it's pretty hard to see them without glasses or contacts. I've definitely gotten used to it and can navigate around at night without putting on glasses (like if I need a glass of water or to go to the bathroom). Sometimes in the morning I find it amusing to brush my teeth and such without being able to see, for a little challenge.  Also, when I go swimming with people, I can only really tell who I'm talking to by their voice (if people have  similar skintones and hair). And I feel really awkward because I try to look them in the eyes like a normal person, but I can't tell if I'm actually looking at their eyes or slightly above/below (depending on how far away they are from me), haha.",0rganicMatter,jodqn,filt6iz,"So... what the hell do people with really bad vision do? Just shower legally blind and groping around for stuff? 

I'm not doubting your suggestion that it's not safe, I'm just trying to imagine showering when everything is a blur.",filqe4l,ReverendDizzle,3efbl
I'm right there with you. I'm diagnosed with PCOS and now I have to take hormones daily unless I want to end up growing a beard. I hate it. High T and very low estrogen...,0rganicMatter,jodqn,fikyhst,i have PCOS and have taken progesterone to bring on my period when my body can’t do it alone. THAT feels like hormone replacement therapy :/,fiklvwu,josski32,ctitncw
"I was going to say this same thing. Anyone who has ever bought this brand has seen this ""Easter egg"" 10 out of 10 times. Heck, you don't have to even buy it; just looking at it on the shelf at the store, it's certainly no hidden secret.",0rganicMatter,jodqn,fikkbtx,This is just product design,fik2spb,jermjuice,2oukmtx2
"Dang, that's a bad first hamster experience! Unlucky. I've been bit pretty hard by ones in pet stores when I was picking out a hamster to buy, but they've never broken skin for me. Maybe it got you in just the right way and your fingers were small (I've only had hamsters as an adult). As far as the 2 hamsters I've owned, they were pretty friendly and only gave me little nibbles (with licks) when they were looking for a treat and wanted to check if my finger was/had food. The only time I got a good bite from my hamster was when I startled her when waking her up, but that still wasn't enough to do anything.",0rganicMatter,jodqn,fiaf7db,"Don't they break skin from just a weak nibble?

I have a cousin  when we were younger years ago who didn't feed her hamster and was moving. I was maybe 6 I went up and put my finger in and it bit me.

It bit me hard but it didn't hurt at all really. I just looked dumbfounded that it went fully through pouring with blood lol


I heard she eventually gave it away thankfully",fi9giy5,meangreenmartian,4exzn1zp
"Pet hamsters are awesome and cute! Ask to handle the hamster before buying — that helped me make sure my hamsters weren't mean and bitey. Also, they're nocturnal so be aware of that if you plan on putting it in the same room that you sleep.",0rganicMatter,jodqn,fi76d4m,This is hilarious! I really wanna pet a hamster now! 💕,fi6n26p,farbenfux,r0o4tnn
"He could say that he regrets his past mistakes and he has a better understanding of what's appropriate now, and the women are free to discuss it (with his commentary included, perhaps) to the public to educate others that are prone to committing similar actions. He could say he has learned from the experiences and is no longer that kind of person; that he encourages victims, including the women he has wronged, to speak out in order to better society as a whole, in an educational fashion.

I don't know. Anything involving that kind of thinking is probably the only thing that could've saved him from this situation (even if he genuinely didn't learn and doesn't care if others could also learn from his ""bad jokes""), but clearly something happened that he doesn't want to get out or..? He seemed like a deer in headlights when that was so obviously going to come up at some point. Completely unprepared.",0rganicMatter,jodqn,fi6wwll,"What could he say?

I'm sorry? Or call the women liars they had to shut up with NDAs? Any way you play it he looks bad.

Best would be apologizing 10 years ago and them having 10 years of pro-women accomplishments to point to. Showing you learned your lesson and are working to help.

But this is Bloomberg. He has no positive record to point to.",fi6rz4c,a-breakfast-food,4u99drag
"If it were me, I'd throw in a Canadian penny or something like that and play a bit of ""Where's Waldo"" with guests.",0rganicMatter,jodqn,fi4pb4z,"I can’t help but wonder if there’s a rare one somewhere in there, like a copper 1943 penny.  Even if not, given enough time that floor will be full of super old coins.",fi3xduf,wedoodlydo,ezk51
"Is it really ""trashy"" to point out racists being racist? Be a little less obvious.",0rganicMatter,jodqn,fhymzi2,">I have no issues with moderating racist comments. You go, mister mod. But hijacking the top comment in a high traffic thread to promote a trashy sub like [r/FragileWhiteRedditor](https://old.reddit.com/r/FragileWhiteRedditor)?Very questionable decision. I can’t help but wonder what your motivation might be. r/pics is a vanilla sub recommended to all new users. Friends with a few mods over at [r/fwr](https://old.reddit.com/r/fwr) or are you getting paid to promote it?

No, he's making fun of your ridiculous pearl clutching, you fucking idiot.",fhyd3pw,Sidecarlover,x1vaj
"Sonia Sotomayor has written, I believe, a couple really great children books recently that you should check out. She too said she didn't see much of herself represented in books.",0rganicMatter,jodqn,fhxn358,"I grew up in the 90’s and I was the only Hispanic girl at my school. I didn’t read a book about someone like me until I picked up Esperanza Rising by Pam Muñoz Ryan. It’s a phenomenal book, and it made me feel like I could do anything - that my culture and my hair and my language were things to be proud of. I’m a librarian now and I haven’t come across another book about a Hispanic girl for middle-grade readers (or grown-ups, for that matter), so I write them now.",fhxe1o3,stelfloro,43p0mr3p
"One of the admins insta-grew xQc to an adult T-Rex (which would normally take a very long time), and the dev came in and said he didn't earn it.",0rganicMatter,jodqn,fhxjwtr,"didnt watched the stream, but probably the dev gaved xqc the most op shiet and killed him after",fhwsynz,AmKing2000,5ju4peu1
"There is no way someone could be committed enough to lose 200lbs+ if it's not at least partially for themselves. Maybe a small amount of weight, but not to that extent — it takes way too much time and self discipline. If it didn't make him feel happier/better, he would NOT be able to stick with it.",0rganicMatter,jodqn,fhxfbvr,Nah the he way he uses people just like they are objects and the way he treats some people is beyond disgusting. He is only losing weight because of people's crtisizm. He's not doing it for himself and that's the problem.,fhwr247,Lagyio,124t4cdp
Bam and Max both passed away around the same time last fall BibleThump,0rganicMatter,jodqn,fhtd59m,">Was

Bam is dead? PepeHands",fhqt9fz,Sedjin,j6445
Note to self: go to Europe for laser hair removal.,0rganicMatter,jodqn,fh5r34w,"Really? I paid 60€ ($65?) per session that included full legs, a really generous bikini line and full armpits. I had to wait 2 months between sessions so it came down to basically 30€ a month, which is basically a dinner out for two. 

Of course, this is my reality, can't speak for other. 30€ can be a lot of money for some.",fh42tfz,kawaiims,wkeyl
"I work at Walmart and there's no way in hell any low-level employee at my store has any clue what the CEO looks like. (I just looked him up) I've never seen his face anywhere on our employee website or in our staff magazine, and I've been working there for 2 years now.",0rganicMatter,jodqn,fgmbhmp,"I doubt a cashier at McDonalds (no offense to them) even know who the current CEO is. Or cares. Maybe the manger knows, or there's a picture in the store somewhere with some execs hanging by the manger's office, but who is the CEO of Home Depot? Does George over in the fridge section care about that at all?",fgm5d2i,SuperSulf,6pbza
I didn't even realize it was English at first.,0rganicMatter,jodqn,fghuav1,If only they didn't choose such a god awful font...,fgh1fk5,TheGazelle,5dzi7
"Yeah, MUA tends just to have a lot of praise and support comments without actual constructive criticism/feedback. Usually people who want to actually improve in makeup ability and get tough love responses post to sugarfreeMUA.",0rganicMatter,jodqn,fgewkx3,"The MUA aren't the right mods in general. There have been so many scandals, blow ups, and problems with them.

I've mostly gone to the eyelooks sub for just simple pictures of eyelooks and how to do them.

The lgbt/guy  petty argument definitely is a conversation to be had, and it definitely seems like most people are trying to be supportive and constructive without being overly harsh or coming off as undermining people who already deal with a lot of negative stuff already.",fge3yqp,Vio_,brxfa
Definitely going to need to see that braid pic ;),0rganicMatter,jodqn,fg8hre1,I’ll get my friend to braid it ASAP!,fg8597g,ignorant-slut-,436m00ac
Is there a sub for straightswritinggay like r/womenwritingmen and r/menwritingwomen? It'd be atrocious to see a compilation of all the worst written gay characters.,0rganicMatter,jodqn,fffhmvk,"Let’s be honest, gay is a personality trait to some gays",ffempxt,Billy_Rage,vb6bh
"Yo, me too. Lived in Columbus for college, but now live in Canton/Akron area. Most of the time I'm bored out of my mind. Columbus always has a special place in my heart.",0rganicMatter,jodqn,fdke09c,"Awesome, yes please. I'm in Canton actually.",fdkclct,Corpse_Grindin_Gal,vzwt80n
"It's much closer to being like, ""I hate sushi"", but you go to a sushi restaurant and complain about their food selection. So, why even go there? Simply a preference thing that has nothing to do with morality or illegal acts.


Pedophilia is morally wrong because there is a power dynamic and manipulation that takes place. On the other hand, watching couples or people in relationships enjoy each other's company is not attached to morality or objective ""wrongness"", rather just a personal preference of something you either like to see or you don't. Don't click on links with couples if it makes you feel lonely and you hate it/don't care. Pretty simple.",0rganicMatter,jodqn,fchd7bd,"I don’t like pedophilia, so I should just ignore it right? Let people do what they want and live their life? Not like it impacts my life. 

It’s a retarded argument",fc3rp2s,redjfkldje,4ytmsynn
Because they both stream and he's sharing wholesomeness of opening presents to and from his gf with his community. People love watching others get excited.,0rganicMatter,jodqn,fchaxpw,Why Public tho,fc4tsih,brutchev,e60ww
"Not sure how accurate this is, but I heard that blue LEDs actually damage your eyes, similar to looking directly at the sun. I 100% agree it should be illegal if that's the case. Honestly, almost crashed my car because some dingbat came around a sharp turn with LED lights shining directly into my eyes... I couldn't see the blasted road at all and had to guess when/how much to turn the wheel.",0rganicMatter,jodqn,fc2ywe9,"When the laws were made regarding headlights, they rightfully made a minimum in terms of the light produced. Of course, they need to be visible, and need to give you visibility. But at the time there was no problem with someone having *too much* light. Why would they? Everyone wants to keep costs low and lower light should mean less electricity, should mean a lower cost. But LED lights don't take much electricity to be bright as fuck.",fc1w4se,FuckMeMao,yphdz5r
That's adorable 😋,0rganicMatter,jodqn,fc2vgfv,"some of the kong ones do, some don’t. if it’s a pheasant / duck / other bird my dog destroys it no matter what, but has had this alligator one for a year and thinks it’s her nap buddy.",fc2o4hq,gangculture,2pr28nbs
"Oh, I see. Yeah that's a little more questionable.",0rganicMatter,jodqn,fc2svxg,"That would be believable, but I first saw this image in 2017(I don’t have the time to look now but I’ll edit this post when I find where I found it), and the second dog looks more than a year old.

Edit: I appear to be mistaken. It appears I first saw this image [11 months ago](https://www.reddit.com/r/aww/comments/ajwx12/elliots_owner_shares_what_he_looked_like_at_4/). I just have a bad memory. It probably is the same dog.",fc2qynz,fiercedude11,14e2xz
"I bet that'd be a funny conversation piece if guests saw my dog with that! Let me know when you find out; I'm  desperate lol.

Also, thanks for the Kong suggestion. I've seen some of those, but didn't know how they held up. Will definitely be trying those out!",0rganicMatter,jodqn,fc2ng3j,My husband started getting her these indestructible rubber toys...I’ll have to ask him when he wakes up. The only problem with them is they look like long black dildos >.>,fc2m32r,JenMcSpoonie,3cofspn7
"I could imagine the dog being about 3 years old. It has the same markings between the eyes, to the (my) right of its nose, and above the right eye extending to the top of the head. I guess it could be shopped, but almost every spot, as far as I can tell, seems to be exactly the same, just darker because of fur color changing with maturity. 
The toy on the other hand, could have been replaced.",0rganicMatter,jodqn,fc2mr1a,"Why is this guy getting downvoted? The toy is for the Pete’s dragon movie from 2016. I’ve seen this at least 3 times in the past two years. It very much is a different dog.

Edit: I appear to be mistaken. It appears I first saw this image [11 months ago](https://www.reddit.com/r/aww/comments/ajwx12/elliots_owner_shares_what_he_looked_like_at_4/). I just have a bad memory. It probably is the same dog.",fc2lrha,fiercedude11,14e2xz
"My dog is a strong chewer and destroys toys the same day she gets them. Do you have any suggestions for good, durable toys? I always look for toys with reinforced seams that I think will hold up, but never do. Am I doomed to continually replacing toys multiple times a week?",0rganicMatter,jodqn,fc2lwmh,"My dog rips everything to shreds, including her own bed.  She just recently stopped doing that with her bed when we got her on anxiety medication...but stuffed toys definitely do not work for her.",fc2j4be,JenMcSpoonie,3cofspn7
"The best part is how they said if women are the majority of the population, then why isn't there a woman president. Besides the fact that political party matters, and not many women have ran for US president in the past... the president is obviously determined by electoral college votes and not popular vote (the 2016 election demonstrated this pretty well, which is what I assume you were getting at). That being said, I think identity politics is dumb, and even though I'm a woman and would love to see a woman president, I'm definitely not voting for a candidate that I don't agree with just because they look like me.",0rganicMatter,jodqn,fc0t19h,"Well, time to throw some salt at the Hillary 2016 wounds before they heal!",fc0hhv6,rjmtl,hgvlm
Got a case of the zoomies 😱,0rganicMatter,jodqn,fbashvk,Cats see ghosts sometimes. My cat sometimes runs around in the Appartement and looks terrified for no reason,fb9swbp,I-hate-Username,272rk5zv
"😂 GOOD ONE 😂

Unfortunately, the money went directly to the charity this time so... no.",0rganicMatter,jodqn,f9v32y0,Lol I guess they are sailing to drop off the check from the “charity” stream.,f9telc3,mglee123,42ymzq1z
That's a really great idea! Would love to see the finished product eventually.,0rganicMatter,jodqn,f9sn487,"Yea this ones weird, normally I press and dry them in a book so I can place between two things of glass and have them displayed. But this one is getting sprayed in acrylic so it stays its shape and will stand up for display",f9sf1u7,Chode_of_Justice,uavbw8f
Which strain(s) do you like?,0rganicMatter,jodqn,f9rrxwg,"Yes, good luck! I have found that not all strains do this to me so you may have to play around to find one that works well for you!",f9qdhd8,newageclassic,144nta
Rajj was on her stream other than her talent show? Pog,0rganicMatter,jodqn,f8nmbwd,She lost a marbles bet to rent a lambo and when Rajj showed up she asked if it was a meme or not that he had one.,f8gt1td,Rhinooow,l0tvd
I bet Michael is pretty good behind a camera ;P,0rganicMatter,jodqn,f7f67k2,"I love the PO box opening videos, OTV content are awesome... Guess they need a new cameraman tho",f7f5fiz,M44t_,2pqhdsbf
"He was one of the streams I regularly watched. It was pretty chill for a background stream and it was interesting when he would react to magic videos or teach chat a magic trick. It was also fun to listen to him brainstorm about cool gadgets he could build to incorporate into his stream to enhance chat interaction. But, to be honest, I probably wouldn't have watched him as much as I did if he wasn't friends with fuslie or dating Lily.  Magic and music can only be entertaining for so long, then it just feels like all the content is blending together and kind of stale. Personally,  I have plenty of other streams I can put on in the background that has more variety in content. I won't be missing it very much, even as a frequent viewer (especially since it'll be pretty hard to repair his ""wholesome"" image that drew in a lot of fans that were more than happy to support Mr. Good Guy).",0rganicMatter,jodqn,f7f4czy,"Genuinely curious, did his viewers not watch him for his talent? So many people make it seem like people only watched his stream because he was Lily's boyfriend.",f7dyd5i,mikleo123,4wj06o18
Oh okay thanks :) I'll look for it in the recent video,0rganicMatter,jodqn,f7el6qe,"I think they have it in the description of their videos; if not, in the latest video there's one on screen but (I think) it will not be checked till sometime later, prob December.",f7eccjx,dieichpivi,1m32lq6g
Lol I'd probably feel the same,0rganicMatter,jodqn,f7apvzj,"Yea, Toast likes destiny but he's also afraid of him because Toast said Destiny is too confrontational about things that his social anxiety goes up just by being around him lol",f7ap9r9,litbacod4,7ildwc
Oh I actually didn't know that. Then that confirms it's not him.,0rganicMatter,jodqn,f7aihge,Toast actually really likes destiny,f7ahgaz,POOYAMON,lhgak
True good point,0rganicMatter,jodqn,f7aif0f,"nah, destiny and lily are super good friends so i think it would be more of lily bringing him over than albert.",f7ah4mw,currentlylucy,yiynucb
"I posted a clip for the guy above, but I want to repost it in reply to you in case you're interested.

https://clips.twitch.tv/SpinelessArborealMonitorResidentSleeper",0rganicMatter,jodqn,f520epp,"I don't have a clip unfortunately, but it was somewhere in the DT podcast.",f50v3o6,Misdefined,kxrt7
I'm waiting for the HT podcast. I feel like it'll give him a similar viewership boost and he seems to vibe better with Hasan ;),0rganicMatter,jodqn,f50fhhi,"Yeah that's the funniest thing. The DT Podcast sucked. Destiny never engaged in it, Trihex did all the prep work. He probably just did it because it was good for his stream to get influx of viewers (which I cant blame him for).",f50clfl,VozhdSavinkov,4pnfa8e9
I follow that sub and somehow missed whatever you're talking about. Are certain topics being silenced by the moderators or something?,0rganicMatter,jodqn,f3f0198,Lul the same way that /r/TwoXChromosomes is now 70% moderated by people with only one X chromosome. Constant outraged alphabet people until they take over the moderation and ban any wrong think in a subreddit named specifically for those of two X chromosomes.,f3dokab,AsAVegan,2zn51pfe
Foux du fafa,0rganicMatter,jodqn,enxvth0,Honhonhon baguette,envkrd1,HeyImFUCKYOU,vrya2
She also streams and has her own internet family that he is marrying into.,0rganicMatter,jodqn,ekg56c1,"just remember that you’re not just marrying him, you’re marrying the internet!",ekcgx7z,fluffykerfuffle1,tys7d
"There are so many people that smell like urine at my Walmart. Sometimes it's even young adults, which I never expected.",0rganicMatter,jodqn,e8y8fkr,I am seriously considering talking to upper management in my store and asking them to ban this one lady in particular. Every time she comes in she smells like she’s pissed her pants everyday for the past 3 months and hasn’t changed them. Other customers smell it and it’s absolute torture having to smell her piss when you’re checking her out. I don’t want to be rude because there might be some legitimate reasons for it but I doubt i’ll just stay quiet about it the next time she comes. ,e8xd8mm,governmentweed,19wt862y
"Oh, nice. In that case, let it happen, Blizzard.",0rganicMatter,jodqn,e35v0na,"No no, I want him at Stage Host position, Desk Host should be Puckett 100%, as I explained in the below comment.",e35twlj,pelican0,v9znl
Don't take away my Puckett :(,0rganicMatter,jodqn,e35t86k,I want Goldenboy as Stage Host 100% of the time for Season2. He brings the hype!,e35t53c,pelican0,v9znl
"Wow I would have never expected any other country to have ""rednecks"", especially not ones that adopt the Confederate flag.",0rganicMatter,jodqn,e1qbkcg,"I'd guess it's mostly from their love of country music and thats shaped them towards American redneck-ism more and more through the years. I've grown up in a small town and know lots of these kinds of people. One of my close friends even went to a country festival with some friends of his and they waved the Confederate flag around. I asked him why cause I thought it was dumb as hell, and he said it doesn't really mean anything racist or something like that. It's dumb and for many of them it's probably partly because of some innate racism and dislike of immigrants who's here to ""steal our welfare"" etc. They almost always lack higher forms of education and are just typical very redneck-y. ",e1q796f,mathiasjl92,9sz9c
"I think we have the same ex. All about his pleasure/orgasm; forget about having the decency to pleasure your partner. I felt like a sex doll (a fancy one that had to blow him a bit before sex because I was dry as a desert). I don't know why I even stuck around for as long as I did. Red flag right there that they're a self centered, unempathetic person.",0rganicMatter,jodqn,e0zw6nu,"My ex never took less than an hour. After no foreplay for my benefit I might add because he was not comfortable with it (he literally touched my vagina once and said after a few seconds ""I don't like doing this).

At least he was into switching positions so it was slightly less boring ",e0z3odo,Melcolloien,wbuf5
Ocarina of Time is an ageless classic. I still love playing it (and watching speedruns). Do you play any other games?,0rganicMatter,jodqn,e0m55zm,"n64 zelda ocarina of time.  elder scrills online is ok i guess

guess i javent done much",e0ludmp,Grande_Latte_Enema,10vk7l
"I'm sorry it took me so long to respond. I've been a lot busier than expected 😥. I wanted to wait until I had time to think before replying.

I like a lot of different genres, walking-sim, sandbox/builder, platformer, bullet-hell, fps, and even some racing games. However, the genres that I can't seem to resist are action/adventure, RPG, dungeon crawler/roguelite/roguelike games. Those types of games pretty much have taken over my Steam library and wish list, haha. What are your favorite genres? If you can think of some titles that you really stand-out to you from those genres, don't hesitate to share! I love finding new games to spend money on 😝.",0rganicMatter,jodqn,e0lt0hm,Favorite genre of video games?,e0f08ue,Coryphaues,xodpivf
"Sorry to take so long to reply. I've been kind of busy 😥

I've never played War Thunder (or very many vehicular combat games). I looked up some gameplay and playing with a plane seems like it'd be so fun. What do you like about War Thunder?",0rganicMatter,jodqn,e0lra84,War thunder?,e0fzos8,horsesdontbarf,eic7ff3
"(Sorry I meant to reply sooner, but I've been kind of busy the last couple days)

Yeah, I wasn't too into Diablo III either. I actually  sort of like that genre, but I totally agree, it did feel repetitive. Personally, I looked the Neverwinter Nights series, but I haven't played it in a long time. Are you a fan of RPGs? If so, what are some of your favorites? I'm always looking for some more RPG/dungeon crawler games. I recently played through Gauntlet (2014 on PC) with a friend and it was also pretty repetitive and kind of felt too easy... Until the last level, then the difficulty ramped up so much it felt like a different game. By that point, we had to beat it, but it was frustrating that I felt babied up until then.",0rganicMatter,jodqn,e0lqwde,"what do u think of diablo3?  i have up after a few weeks as it seemed to repetitive and i didnt know how to upgrade my gear

just, stand there kinda invincible and seing my sword repeatedly

repeat",e0f0iuj,Grande_Latte_Enema,10vk7l
"Sorry it took me a bit to reply. I've been a little busy lately. 

No I haven't unlocked the new character! I don't have Afterbirth+ yet 😔. Did you unlock the new character? What are they like? 
I'm not quite at 100%, but I'm definitely trying to work towards it! How long did it take you to 100%?",0rganicMatter,jodqn,e0lq0qy,"Have you unlocked the most recent booster pack new character yet? BoI is one of my favorite games, I had 100%-ed it until this most recent booster pack but they added in some new achievements, so I'm working through getting those now.",e0ey81t,pinkfloydchick64,92rcp
"(I'm assuming you mean Destiny the Bungie game and not the character in Battlerite, hopefully that's right 🤞😅)  
I've never played Destiny, but I just looked up gameplay trailers for Destiny and Destiny 2 and it looks pretty epic. I feel like I'd be into. Plus, I was a big fan of Bungie's Halo series on the Xbox (and when I could borrow my brother's Xbox 360). If you play it, what do you think of it? What's your critique of positives and negatives?

Unfortunately, I don't know any other female gamers (other than myself) in real life :(. I do follow a few female gamers on Twitch and Twitter, but I wish I knew some ladies personally that share my love of gaming. The closest I have is my brother's wife, who likes spectating games, but isn't as into playing them as me. Do you know many?

My longest time playing a game is 464 hrs on Overwatch. My League of Legends playtime might be pretty close to that, but I don't know if Riot keeps track of that. What's your longest play time?",0rganicMatter,jodqn,e0hwkr1,What do you think of Destiny? Do you have a lot of female gamer friends? Longest time of playing?,e0fx6ol,Gabymc1,ok687
"Actually, I haven't even heard of Warframe and just looked it up on Steam. It looks like a pretty cool game and the graphics are insane for being free to play. What do you like about it?

I've played WoW for a short while on my brother's account, and I really feel like I could get into it. Sadly, I'm currently looking for employment so I can't afford a subscription :(. What type of character do you play as? Also, do you have a favorite expansion? Do you like PvE, PvP, role-play or role-play PvP? (I don't know much about WoW so I don't know if that last question makes much sense, but I just read that those were some of the server types)",0rganicMatter,jodqn,e0hsyqk,Have you played Warframe? Wow?,e0fbtoc,Deathstreet,5okjv
"No I actually haven't! I just looked it up on Steam and it looks so graphically beautiful for a free to play. I can't believe I haven't even heard of it. What do you like about it? Also, is it online? I can't tell from the store page.",0rganicMatter,jodqn,e0hrz33,you ever play w a r f r a m e?,e0ez2f2,legobot34,u5aepyf
"Hey 👋☺️! Sorry for the delayed response (I've been busier than expected)

The bloat is so annoying! I hate when the blood on the floor takes up all of my dodging area! I try to stay behind him when I can because he doesn't shoot lasers that direction. Even still I feel like I die so many times to him. How do you feel about him? BOI has some pretty intense bosses.",0rganicMatter,jodqn,e0hrmef,What’s your opinion on the Bloat? (tboi),e0ew35m,Greciamelgar,djxqe
"Thanks that was really helpful! I have the hardest time with the group of hounds and usually just bait them into fighting other enemies 😂. Also, I didn't even know you could kill the shadow monsters, TIL.",0rganicMatter,jodqn,e0hk8bi,The key to stepping up to the next level in DStarve is learning to kite your enemies. Here's a lil video that kinda explains it. https://youtu.be/Yc9nTCHweBk,e0fxlr1,jamiedee,5tzjd
"Wow that's really cool that you enjoy so many different MMOs! I've always wanted to get into that genre, but didn't know where to start. I'll have to check out some of the ones you mentioned, especially Wildstar :). What do you like about FFIV over all the other final fantasy games?",0rganicMatter,jodqn,e0hjp55,"Hmm, very good question that I actually don't know the answer. It really depends on the year, month, day. Combat wise definitely BDO or Wildstar, lore wise I LOVE ESO. If I ever want to go back to nostalgia or something that doesn't need much brain power I love a bit of WoW or Runescape (though current runescape is pretty shit) I gave Bless online a try but it was pretty bad, also love path of exile and mmos like world of tanks. Overall I'd have to say my favourite ever MMO was actually Wildstar, it's such a shame that it's got the lowest population out of all of them, but I loved (and still do) that game to death ! A close second would have to be FFIV or WoW because it's really fun to meet new people and there are always plenty of people on there (plus they are good MMOs) followed in third by BDO, ESO and GW2",e0f0lz6,hudson1212,75ey4
"Hey! How's it going?  
I'd say Battlerite is still semi-active (queue time is about 2-4 min depending on time of day). I always wish it was more popular, though. Now that it's starting to have an official esports scene supported by SLS (the developer), I'm hoping it rises a bit in popularity. The subreddit seems somewhat active at least...   
Why did you stop playing?  

My all-time favorite flavor of ice cream is called kulfi. It's an Indian ice cream with rose and pistachio. If that's not available, I settle for pistachio (but sometimes I even have trouble finding that -- super chocolatey ice cream is my 3rd choice backup). What's your favorite?

Hmm, I would say first things first, makes sure you're having fun while streaming and try to stay involved with your audience even if there's 10 people (I watch some pretty small streams sometimes, and the ones that keep me coming back are the ones that have good viewer interaction). Also, what kind of games do you like? I'm not a streamer, but based off advice I've heard from a very popular Overwatch streamer, you kind of want to focus on a single game (or at least a specific genre) to build up the audience. Then, when you have a good following, you can branch out to other things. I would say it's not really worth trying to get super popular off of streaming Overwatch, League, Fortnite, Rocket League, etc. unless you're at top-level play. If you're into speedrunning, that seems to be really popular. Maybe it would be a good idea to try to stream a newly released game with a lot of hype? People will come to see the game, but stay for the quality stream. Personally, I'd love to see a good Stardew Valley stream, and it seems to be becoming a somewhat popular game since it's on multiple platforms. Perhaps even uploading parts of your stream to YouTube would help boost your popularity. In the end, I'd say all that matters is that you're having fun (not tilting), you have a consistent stream schedule, and you're not playing a dead game. And, from the same Overwatch streamer I mentioned previously, try not to pay too much attention to the # of viewers, especially when starting out. Building up a stream can be a real grind so try not to be discouraged by the small audience. Focus on the quality of your stream (and getting your name out there) and the viewers will come eventually. Again, I'm not a streamer so take my advice with a grain of salt.

Hahah a chalice collection sounds sweet! I'd love to see it. Sadly, I don't have any cool chalices to share with you :(. Good luck on the collection though!

You would be looking wayyyyy down. I'm 5'3""! 😂

Heck yes let's be friends! Let me know when you start your stream and I'll follow you, too. :)",0rganicMatter,jodqn,e0hiqyc,"I haven't played Battlerite in a long time, is it still active? 

What's your favorite flavor of ice cream? 

I've been pretty absent from gaming for about 5 months or so, I plan on coming back before the year is out, possibly as a streamer. What do you think will be streamworthy?

Will you aid me in starting my chalice collection? 

I'm 6 ft. If we were talking in person, would i be looking up, down, or directly at you in order to make eye contact?

Wanna be friends?",e0epeku,Cmax9874,ipmu4
"Yo, what's up :)   
Sorry for the slow response

I think I'm pretty close between Sebastian and Abigail, but I've gone through more of Sebastian's heart events than Abigail's. Abigail because I think her and I are a lot a like personality-wise, and Sebastian because I relate to his love for computers (and he's a loner, but I feel like he's too moody). Why did you pick Penny?

In BOI, I like how I you pick up 3 Guppy items, you turn into a cat. I've never actually had that happen to me without a seed, though. Book of Belial is definitely top tier, however. I like playing as either Judas or Samson usually. (Judas is such a cute cat name!)

My favorite Pokemon is Eevee because I like to breed it and try to get each of the evolutions, but in red/blue, I like Butterfree because I like that it learns psychic moves (and it's cute!)

Favorite champion: Braum. His personality is so cute. I want to be like him 😜. I also like Ez if I'm not playing support. Being against Blitz makes me upset lol, so if we ever were against each other in lane, you probably made me swear at my computer. Hahah

In Don't Starve, I only ever made it through part of spring of the first year (I think it starts in fall). It took me and my friend forever to figure out how to beat the giant winter monster! I'm still kind of new to it. What was your holy shit moment?

HUNI! He's so cute (though I have mad respect for how godly Faker is). Even my straight male friend agrees that Huni is the cutest. What about Sneaky vs Sneaky's cosplay? xD   
I'd still pick Sneaky, but his cosplays are pretty attractive... Definitely r/confusedboners material.",0rganicMatter,jodqn,e0he8c0,"DUDE LETS FUCKING TALK!!

Who's your favorite character in Stardew and why? (Penny)

Favorite Isaac item? (Book of Belial, named my cat after Judas lol)

Favorite Pokemon? ( I love Rattata, classic, he was my first caught Pokemon and strongest one)

Best champion in league?? (Blitzcrank is my love, but I adore tristana too)

Have you ever beaten the game? (Me and a friend played don't starve together and never beat it but had an amazing holy shit moment)

Huni or faker, who's cuter? (Huni <3 )",e0efdwm,warhugger,dilah
"No :( I don't have a 3DS yet, but I really want one. I've seen videos of other people playing SM (not ultra though) and it looks so fun and different from Gen 1-5. I am actually super excited for Pokemon Let's Go! I think I might get a Switch before a 3DS just because the Switch games that are coming out look sooo good. I didn't really get into Pokemon Go because it just didn't appeal to me the same way the authentic Pokemon games do (although I only tried it for a couple days).

What do you think about SM vs the ultra remakes? Are you excited for Pokemon Let's Go (if you read a little about what's been discussed, what's most exciting to you about it)? And, if you play Pokemon Go, what do you like about it? Maybe I'll try to check it out again because some people still seem to really be into it.",0rganicMatter,jodqn,e0hcv4c,"have you played the new pokemon games (sun/moon, ultra)? are you excited for pokemon let's go? do you play pokemon go?",e0equox,yaylindizzle,y0kpf
"Thanks so much for the compliment :). I got a lot more responses than expected, but I've been slowly trying to reply to everyone (even though I've been a little busier than I thought I would be)!  
As far as E3, I'm so pumped to hear about what's there. I heard that battlefield is getting a battle royal mode, and even though I don't play, I still think that's an exciting feature! I also saw a teaser trailer for an indie-type looking game called Sea of Solitude which looked like something I'd enjoy. What about you? Have you heard about/do you think there will be any big announcements you'll be excited for?",0rganicMatter,jodqn,e0feew7,"First off, you're doing a great job with this AMA! Good answers, questions in return, friendly tone. Well done.

Second, think you'll be following the news out of E3? What megatons are you expecting? ",e0epi6q,TallAmericano,9yxz6
"Wow 1000 days?! I could only do that in my dreams at the skill I'm at right now xD. ROG seems so hard, too! I need to practice a bit more of the vanilla game before I try that, haha.   
I actually only played Spelunky multiplayer with a friend in college. I never tried single player, but I've had it on my wish list for a couple years now! I'll have to check out the price during the next Steam sale because it really seems like something I could waste a lot of time playing.",0rganicMatter,jodqn,e0fdqtb,"Lucio is soooo fun now. As for longest Don't Starve run I've made it past 1,000 days a few times (not Together just vanilla and ROG). To be fair though I've been playing since super early beta. You tried Spelunky?? ",e0f2w1m,jamiedee,5tzjd
"Yeah I remember the maps seemed good when I played. I'll definitely have to check it out again very soon. I think when I played, I played as Cassie and Skye. Thanks for giving me an overview of a good mix of characters! Maybe this time I won't feel as overwhelmed with all the characters plus the cards that you can equip that enhance the characters. I'm sure if I put some real hours in, I could probably get a hang of some of it.",0rganicMatter,jodqn,e0fdaxf,"Its alright. The game is sorta better due to map balance and every champion has a similar skill to be even against different classes.

It recently got out of beta and it has much better polish.

I like playing frontliners (tanks) like Fernando and Makoa since their easy and well rounded.
 
Damage (thats the class) I play are Willo for aoe harrassment and Viktor for any situation.

Healers I play Maldamba for midrange heals and Grover for sniping.

Flankers I like Evie for high burst and skill; Zhin for punishing groups with melee.",e0emhip,avehicle,duuwk
So true. Thanks for letting me know! I might just do that :),0rganicMatter,jodqn,e0fd1t2,"You could also download the PS2 emulator and play the PS2 version.  It's a really beautiful game.  
",e0eh3k5,gamesfreak26,tqhd5
"Awe, darn :(. At least you have a Switch, though, right! I'm jealous :p",0rganicMatter,jodqn,e0fc6lb,"I wish you could mod stardew on the switch, I’ve seen some really neat texture packs for your farm and stuff but I sadly have to play vanilla :(",e0f0t4o,msrobinson11,7fbki1
"I hope so! That would be amazing. My ultimate goal is masters so I might be able to get matched with some of my favorite streamers ;), but I know I have a longgg way to go until then. Haha",0rganicMatter,jodqn,e0fc3dv,"If you started off high gold/ low plat, with a mic and a little bit of practice you could easily make it to diamond!",e0f2adg,supremeleaderjarjar,rnjjm
"I know! Exactly! I can't believe how far it's come. It has the right amount of complexity to not get bored, but it's not too overwhelming. Sometimes when I try a new sim game, it can be too complicated I don't know where to start, so I just try some stuff out, get lost or confused, and then quit. Happened with me for Anno and Cities: Skylines. Maybe there were tutorials I missed or something though.",0rganicMatter,jodqn,e0fbwi6,"Same here man! I used to play it all the time and watch all the progression videos of the devs. The game was already good and felt complete, so every update felt like a free expansion of a finished game.",e0ezqme,Flubberding,spg55
"No, I've actually never heard of that, but I just looked it up and added it to my Steam wish list! :D  
I love playing wizard/mage type characters, and that game kind of reminded me of Magicka or the wizard character in Gauntlet. Thanks for the suggestion!",0rganicMatter,jodqn,e0fblcq,"Have you tried Wizard of Legend? I got into it from HLD, and it's a great game.
",e0eynes,Death_Tripping,1fjotr6a
Thanks! I actually got overwhelmed with the number of responses and I've had to work through them pretty slowly. I'm trying my best to reply to everyone I can! What games do you like playing?,0rganicMatter,jodqn,e0f2g95,"I liked reading this ama, hope you got some new friends to play on Steam with op ",e0er335,mycaucasian,1fwof930
"Haha I did play it for a bit, but it's been a while. I pretty much only played Lucio, too, and I was horrible xD.  
Who do you play in HOTS?",0rganicMatter,jodqn,e0f1zzt,I wish you played HOTS so we could be friends :( ,e0ep0ly,Firecrotch2014,ixgmk
Wow that's awesome! Thanks! I'll have to set up an account and then I'll totally check it out :),0rganicMatter,jodqn,e0f1urz,"We have a server for playing games like Overwatch. It's a small community but we were all once in the same boat and LOVE talking about video games together. Here's a link if you want to spend some time with us!   
[https://discord.gg/AAYHauQ](https://discord.gg/AAYHauQ)",e0elrsh,ArkSpecter,10sdu6
"Hey my first Battlerite question! :D
Sirius is my go-to! I actually do really like Poloma, but I'm so bad with her. Her and Lucie are my next couple heroes I want to practice.",0rganicMatter,jodqn,e0f1spl,Favorite battlerite hero? If it's anything but Poloma it's wrong xD,e0ekf7s,SilverRetriever,f44w8
"My favorite hero to play in Overwatch is Mei, but the hero I'm best with is probably Lucio or Moira. I love playing Torb and doing some cheeky stuff with my turret when I'm about to ult (like put it on the opposite side of where I've been setting it up) then it just completely catches them off guard. Also, I went through a long period without playing Overwatch and when I started playing again recently, I noticed that they changed Lucio's wall riding mechanics a bit. I really like it now. Before, I had the hardest time wall riding + shooting and keeping my wall riding streak going. Now it feels like you can just zoom around the map and it's so fun!

My longest Don't Starve run was until half way through spring of the first year. It took me forever to figure out what to do for the giant winter monster! Haha  
How far have you made it?",0rganicMatter,jodqn,e0f1c02,You seem like a cool kid and we like a lot of the same games. Don't Starve is awesome! What's your Overwatch main? I'm a Torb and Lucio guy myself. And what's the longest DStarve run you've done? ,e0ef1n2,jamiedee,5tzjd
"No, I actually haven't played Witcher 3 yet. What do you think about it? I thought it looked interesting, but I need to save up my money right now.

Also Keep Talking and Nobody Explodes is an awesome game, and the best part is you can play long distance! So stressful, though. Sometimes when I play it with my family, we get a little frustrated with each other 😂. Definitely recommend printing out the bomb manual and perhaps binding it rather than looking at a digital copy. I even highlight some parts of it, but some people that I play with think that's cheating, so I printed off an extra unmarked copy.",0rganicMatter,jodqn,e0f0suc,"What's up?! I've been playing Witcher 3 a lot lately. Have you ever played it?

 I'm also thinking of picking up Keep Talking and Nobody Explodes but I need somebody to play it with!",e0e7epu,usernamedthebox,7xrcc
"Nice! I always thought if I had XY, I'd probably pick Fennekin because I like Pokemon that are dual psychic and something else. ",0rganicMatter,jodqn,e0ewwco,"I went with Fennekin in X and Froakie in Y because one has powerhouse psychic and fire type moves and one has a diverse move set with plenty of speed especially at higher levels✌🏻

Greninja was in my party for the elite 4 in Y",e0epaq9,PvtZydrate,7210t
"Yeah forest fires are awesome! I love making my own little patch  of a bunch of trees and burning them down for charcoal. 

Hahah Leah was actually the first person I ever got full hearts with when I started playing (and on my second save file, I dated Shane)! Shane is just misunderstood and depressed :( he kind of reminded me of my friend, so I wanted to get to know him more. It feels like the creator really tried to put thought into each of the NPC's personalities. I can't believe it's made by one guy!

This is a little off topic, but I really got into modding my Stardew Valley game by changing all of the animals to Pokemon, including the fish and some creatures in the mine. I even modded my character to look like Misty and some of the features around town using templates that other people designed online. Sadly, I had to remove it all in order to play the new multiplayer beta because otherwise I'm pretty sure my files would be corrupted or something. The cosmetic mods really made the game feel fresh to me again after playing 100+ hours.",0rganicMatter,jodqn,e0ewgx0,"I always play as willow too! I love setting entire forests on fire haha. 

I always marry Leah. I’m an artist that loves nature so I really feel for her need to live in a small cabin in the woods and do art, but I like Shane a lot too! I know most people don’t lol. As for non marriage candidates, I always get 10 hearts with Linus before anybody else. He is so sweet and just likes foraged food and living in his tent :3 ",e0epbvh,msrobinson11,7fbki1
"RUNESCAPE.

I actually don't normally play MMOs but I had a RuneScape phase for sure. Which MMO do you think is your favorite and why?",0rganicMatter,jodqn,e0enyz7,"Any MMOs? I've played every single one I swear, WoW, Tera, Neverwinter, Wildstar, BDO, Aion, Guild wars, etc ",e0ejw27,hudson1212,75ey4
"*""Together, we are strong.""* 💪🇷🇺  
She's my favorite tank to play. :)",0rganicMatter,jodqn,e0enn2l,Zarya!,e0ej13s,squaremomisbestmom,rpth2
"Hmm. Depends what kind of games you like?

Since you asked me about League, I'd suggest checking out Battlerite. Its a battle arena with 2v2 or 3v3 fight to the death. I mean, it's not super similar to League, but ability management and knowledge about how to play bruiser/adc/tank/support comes in handy (and puts you ahead of other people on the learning curve). Other than that, what are some genres you like and maybe some examples of other games you like? Maybe I can think of some good ones.",0rganicMatter,jodqn,e0elppm,Do you have any games you would recommend I try out? ,e0ed2qa,MagikIndian,14xxfe
"I just barely started playing multiplayer Stardew with on of my friends, but we haven't even talking about picking it back up on our farm since. I don't know about anything they added yet, and tried not to spoil it :).

In Don't Starve, I usually play Willow because of the lighter and the fact she can build a bear for her sanity. How about you?

In Stardew I haven't married anyone yet (even though I'm almost at 8 hearts with all of the marriage candidates), but I'm thinking I'll choose between Abigail or Sebastian. Partially because of the items they give you after marriage, but mostly because I like that they're both loners that like videogames and computers. Maru is pretty close, but I don't find her quite as interesting. As far as non-marriage NPCs, I'd have to go with Demetrius. I love science and it'd be awesome to be him in real life. What about you? Who do you like?",0rganicMatter,jodqn,e0ekxd7,"I love Stardew Valley and don’t starve! Have you played multiplayer stardew yet? I haven’t just because I only have the game for switch and would rather wait until it comes out but I’ve heard it’s pretty fun :)

What character do you play in don’t starve the most?

Who do you marry in Stardew Valley? Who is your favorite npc that you can’t marry?",e0e2em8,msrobinson11,7fbki1
Holy shit so hype!,0rganicMatter,jodqn,e0ejrld,https://youtu.be/hH4HPPqs8LI there's gameplay for RoR2 you should check out,e0e393m,Mumbly_the_Bumbly,jjakf
Who is your starter?,0rganicMatter,jodqn,e0ejpm1,"If you ever get a 3DS, definitely get XY! I think the general consensus is that they’re better than sun and moon, and I tend to agree",e0edy2i,PvtZydrate,7210t
"I'd like to answer your question, but I'm not sure what you mean by ""ship"". I'm guessing it might be a mistake, so I thought I'd say something (don't worry if it is a mistake; it happens to the best of us 😝)",0rganicMatter,jodqn,e0ej922,Which two game characters do you ship the most?,e0e3kuz,ArcOfRuin,wbn3w9
"In competitive I'm a support/flex (which means that I would usually play tank because no one picks that role for some reason), but if I could play anyone just for fun, I'd pick Mei. She's pure evil ❄️🔫👿

What about you? Who do you main?",0rganicMatter,jodqn,e0eioow,Who's your overwatch main?,e0e98r8,squaremomisbestmom,rpth2
"Hahah, NO! She's one of my favorite heroes! But seriously, she is so annoying to play against with that stun.

On a side note, I do like what she has done for the Pro-level of play, because one of my favorite teams (who used to be in the bottom 3 teams) is kicking butt ever since they added her to Overwatch League! It's nice to see a mix-up in the team standings.",0rganicMatter,jodqn,e0eifj9,Should brigitte be removed?,e0eeejl,WarSatyr,10r4rb
