child_body,child_screen_name,child_user_id,child_tweet_id,parent_body,parent_tweet_id,parent_screen_name,parent_user_id
ADMIRAL Kirk never bothered to check on our progress,1UnitOfPost,93qsv,fjbdtsz,Khan:  Admiral? Admiral!,fja7vcb,sanchopancho13,a5fx7
"Yep totally, her performance was one of the best I've ever seen - normally the horror movie trope is:

* Lead character sees spooky stuff that no one else does and they think she's crazy, but you're supposed to root for her because you see what she sees

In Hereditary because of her performance its more like:

* Get her to a doctor ASAP she really needs help she is genuinely going mad (and like, legit mental illness, not movie-mad)",1UnitOfPost,93qsv,egrqcb0,Great great film. Toni Collette absolutely should be nominated for best actress at the Oscars. The Oscars this year is more of a joke than usual though so can’t be too surprised by the snub.,egqqlcf,duhhhhdoy,p0os5wc
"Yeah I often say Horror suffers from ""3rd-Act-Itis"" - basically as a horror fan if I can enjoy the first 2 acts then I'm happy, a truly good 3rd act is pretty rare in horror.",1UnitOfPost,93qsv,egrpyj5,"Not that it justifies it, but wrapping things up seems to be a weak point in a lot of horror. I wonder if it’s owing to the stereotype that horror movies, and therefore their audiences, are somehow less sophisticated than other genres. Still, it’s ironic that *the* genre known for playing with the unknown bends over backwards to spoon feed the audience. ",egqza9n,TyphoidLarry,8dfai
"Interesting it has so much detail for 4/8 but not for 6 - I was just thinking about this and started getting intrigued by a 6 lane as:

* Any train approaching an intersection has 3 options - left/straight/right
* Therefore a 6 lane can have a track dedicated to each of these options - inside track turns inside, middle track goes straight, outside track turns outside
* Obviously the inside turns are the worst (4 possible clashes if you avoid crossing at the centre, 8 if you don't), middle next best (still 4), outside the easiest (no clashes)
* For any of it to work you need to do lane changes on the straights to be in the correct lane pre-intersection - seems logical then to do the lane changes immediately after exiting the intersection so you have maximum distance to stack waiting trains on the inside/middle tracks before the next intersection.

Some of the best throughput intersections on 4 way seem to do this just with the lane changing being done as part of the intersection (hence the long wide lead ups to the actual intersection).

I was in the process of upgrading my train system to 4 but now I'm thinking I'll try 6...",1UnitOfPost,93qsv,efeqwso,"You may want to [check out the intersections in this thread](https://forums.factorio.com/viewtopic.php?f=194&t=46855).  They are throughput tested, and include some 2, 4, 6, and 8 lane designs.",efbp96o,knightelite,hw6xn
"I think you're right, I was running around last night in PIR2 with 10 er micros and 5 heavy smalls and together they were only doing a bit over half my heat bar.",1UnitOfPost,93qsv,e6aack3,"looks like you have the laser color mod installed. if so, you'll have to update it because it overwrites your Weapons.xml which specifies all the ghost heat information. I tried this same loadout with no issues, and if you took it into a game it would probably show 100% heat on your end but you wouldn't shut down because the server says your heat is lower. You'll shut down in testing grounds because the servers aren't used there, it's all your client info which says you've overheated.",e6a7ml1,Kill2Blit,6o3hc
"Yep exactly, its not just the age as there are plenty of older players who bother to learn the mechanics, meta, git gud etc.

Its that this IP carries with it a high proportion of those older players who barely play games, and especially don't play a lot of multiplayer FPS competitive games. They are literally playing this online as its the only BT game (pre the latest turn based game anyway) and there is no SP to speak of.

So they have no real exp or context for online shooters, lack a lot of basic mechanical skills, and in the worst cases just get vocal about wanting the game to change to suit them (stock mechs, giant TTK, slow everything down, etc).

Think of trying to teach your dad how to use a PC to play solitaire for the first time, except replace solitaire with MWO cos he grew up with BT TT.",1UnitOfPost,93qsv,e660ywa,"It's a pejorative.  Stereotypically refers to older players (40+) who are both really into the lore and really bad at the game.  Actual status as a parent is not really necessary.  Can be identified by their love of lore builds and/or LRMs and a fondness for sharing rambling stories over comms about how back in 30dickety8 Jebediah Davion's cousin's best friend, Ezekial Whocares, used this EXACT Shadow Hawk build in the battle of Nobody Gives a Fuck.

Literally harmless in game, but dangerous on the Brown Sea in that PGI often listens to their idiotic complaints and ideas.",e64v2ug,Unerring_Grace,mgbfxut
"Yeah the old unnerfed LPLs were brutal, I ran my WHKs like that all the time (particularly good for pushes in CW events). You were underestimated a lot.

Hell I even busted it out again for that WHK event recently and even in its nerfed state I had some pretty decent games.",1UnitOfPost,93qsv,e5tn7to,"When they first came out I used to love brawling in a lance of 4 lpl warhawks, we would all chain fire everyone into submission haha the pain never ever stopped. I think you could chain 29 times before getting a heat beep?",e5t4g89,The_Clit_Beastwood,ba1yswk
"Depends on the role really - if you're going to get stuck right in the MPLs are a better choice, but sounds like OP is having trouble with those hard to reach LRM boats that don't get left behind. ERML Grinner has max speed and can engage at ranges that are still somewhat safe from retaliation / don't risk a countered ECM bubble.",1UnitOfPost,93qsv,e5jednd,Imo grinner should be using MPLs. ,e5jbg4m,LapseofSanity,ye4ru
"Yep SBS was our pre-internet teenage Pornhub for sure...

Soon as I saw this link I remembered it from SBS too haha

What a russian roulette it was though, you knew that arthouse French film was going to have some smoking nudity in it, but what horrible weird messed up scene would bookend it?",1UnitOfPost,93qsv,e5alhif,"The Weather Woman movies were on a lot on SBS, the Australian channel that played a lot of foreign news and films including a number of adult films. SBS after 10:30pm on a weekend was basically porno night. One night while I was still living with my mother I came home late from work and she was sitting there watching one of these movies, so I walk in while she’s watching two Japanese women making out in a hot tub.  
“Uh, this movie looks interesting.”  
“Yeah, it’s called Return of the Weather Woman or something.”  
“What’s it about?”  
“I don’t know but this very friendly girl goes around doing a lot of things that aren’t reporting the weather.”",e5acfec,kermi42,8drwg
"Yeah the storing option I have now has trays with further sub-dividing, so its actually really easy to go colour first then by rough groupings of type (usually size).

It's great until one type or colour starts reaching max capacity which is starting to happen already, hence I'm reconsidering - I feel like if a type gets full its easier to add another container of that type, than it is to add another colour and redivide all of that colour up into two trays etc...",1UnitOfPost,93qsv,e50q6yf,"I'm in the same position of beginning to sort. I'm leaning towards piece first. Ever try to find small pieces in a sea of the same colored larger pieces? Yeah... it's a pain. If I know the piece type, though, color identification seems a lot simpler. Do I have a green single stud? *Goes to single stud drawer, identified green stud, pluck* Eureka!

I could be wrong, but seems with large mixed group lots I've acquired and sorted that going by color first makes it really tasking to yield the piece I'm seeking. There's also the chance of over sorting which could prove counter productive. Has to be some kind of fine line the pros utilize.",e50plu6,RobTheBruce275,y8apqx8
"Yeah that's what I'm realising, I'm about to move house so now's my chance to rejig it all before I'm stuck in sunk cost fallacy hell.",1UnitOfPost,93qsv,e50q1dd,The alternative order that is teasing you is what I'd recommend,e50moo6,Dying_Soul666,dipjwsn
"Never realized how much I wanted a persistent FFA until you mentioned this, man it would be great with no MM, no wait times, no victory objectives etc. As long as it doesn't pay rewards (ie doesnt replace the other srs modes) it'd be fantastic.

Just make sure there is some kind of 1way shield around spawns (to avoid spawn camping) and off you go, I love it.

I'm sure the purists will object but screw em, it is PAST time to start building the game in a way where it can cope with a dying population and things like this are exactly the kind of risk they need to take.",1UnitOfPost,93qsv,e4bs7uo,"I've said for years that the game needs a ""retardo-destructo zone"".

You hit drop, boom, you're in a perpetual match. You spawn, people are dying left and right. You can go kill people. You can die. You can respawn in 15 secs after you die if you click a button, otherwise go back to mech lab.

This would serve a serious purpose of getting tangible feedback on mechlab testing. At some point you need a target that's moving and shooting you back for you to really know if your idea is a paper tiger or not. 90 secs from 'let me put this on my mech' to a visceral, asspumping ""nope"" realization or the possibility of something intriguing... in which case... take it for a spin in the real queue. Could have a limit per day on how often you can go in the retardo-destructo zone, in order to keep the other buckets active. No stat accumulation.

-----

Additionally, the game needs a permanent social function, ie, chat. I've said this for years as well. It could be a static background image like the mechlab, but it's a bar on Outreach from the lore or something, and you're a static char maybe a couple of frames of animation giving a sense of movement or ambience like old school RPGs. Bam, there you go, super easy to implement. New players can ask questions in between drops. Vets can answer questions. Why is this difficult to make. IRC has existed for a long time now, ain't reinventin the wheel here. Lemme guess PGI's excuse, they'd have to moderate it..? Yeah yall do such a good job with the Brown Sea Gestapo Volunteers... forget about it.",e4aayd3,-King-Harkinian-,266fll8
Super Galaxy Giga Drilling-Hammer!,1UnitOfPost,93qsv,e49tl8z,She will pierce the heavens with her murder!,e49g1b5,Darth_Kyryn,pr6oh
"Yep I've thought the same thing - without active TAG/NARC the missiles should just mortar the spot that was targetted when they were fired. IE if you stand still you deserve it, otherwise move out of the way.

If you want them to track moving targets get your lock (and keep it) directly, or use an active spotter.",1UnitOfPost,93qsv,e3sxehe,"Personally I would say for indirect to have the missiles not track post launch unless the target is painted by a support system. LRMs I feel are intended to be a bombardment system and I think removing the indirect fire without support completely would be out of flavour. But much like, for example, a mortar team in any other game, they should be usable but unreliable without information, but the second you get that spotter,whether ally with tag / Narc or yourself, they should start being a real threat.

Their ability to hit a moving target without targeting support should be non existent, I'll.
That said I'm also a fucking potato",e3siu3v,Yakkahboo,70yez
"Yep its the hidden nature of these conditions that makes them frustrating for an event (ECM mechs being almost immune to earning H&R is not intuitive at all, and in this meta...)

The post I found explained it as the engine needs you to lock each other to know you're in an engagement with each other... But really a H&R just being defined simply as you did a decent amount of damage and didn't take any in return for a few seconds is plenty good enough.",1UnitOfPost,93qsv,e3oe47y,100% fix items before using them. Why hit and run requires the enemy to lock you makes no sense (something something programming) i would think i just needs to be range + time after shooting but not shooting. But I guess its all about how it does that under the hood that we cant see.,e3oczzr,Kamikaze_VikingMWO,f147k
"Yep agreed, I never got to use my 3rd and 4th mechs, with a bit more time there would be room for some tactical use of the drop deck via ejects etc.

As tight as it is now the walk from spawn on most maps means it's better to just make do with your first two mechs.",1UnitOfPost,93qsv,e3obls6,"Going up to 1500 would add a minimum of ~~25~~ 100 seconds if a team has a 5 cap, or a maximum of ~~4.1~~ 8.3 minutes if only a single point was capped. 

So on most games where its usually a 2-3 cap, hence would increase match time on Average by ~~~42~~ ~150sec=2.5min 

(oops i mathed up, 5 points per 2 seconds takes 100sec=1.6minutes to get 250 points, 1 point per 2 sec takes 500 seconds=8.3min). 

That's a reasonable increase, & unlikely to upset the balance between capping and killing. I see most conquest FP matches decent players usually only use 2 mechs and maybe drop in their 3rd and don't get to use it. And I don't often see that many who managed to use all 4 mechs in conquest (except the occasional clearly new player in trial mechs)",e3ob0vp,Kamikaze_VikingMWO,f147k
Awesome that's great news thanks,1UnitOfPost,93qsv,e3fy1dc,"> Do we know if Jarl's list includes Solaris Matches?

It does not currently include solaris. 

There is only one season and due to how many buckets there are I am not sure how useful the information would be.",e3fxvck,Scurro,4clio
"Oh god please do, if I saw an ERLL SNV I'd weep for joy.

Ironically a 6ERLL SNV would eat a LRM SNV for breakfast on polar just outside of LRM range/under ECM. It's its own counter.",1UnitOfPost,93qsv,e3fwx7g,Time to get out the ERLL Super Nova build :D,e3facqx,GenerallyHarmless,mgibg
"Next patch needs some code that auto self destructs all Supernovas at the start of the match - every match I see one on my team I'm like sigh, bet it will be LRMs (spoiler, they always are).",1UnitOfPost,93qsv,e3dqa60,"Using MRM in daily event, got 606 damage first match (enough to quit) and then figured I'd play another. MRM40x2 Catapault, and the Supernova gets 1200 damage all LRMs, gets more component destroyed, and one more assist, and no damage to his mech. I lose one ear, and still do 791 damage, control the map from positioning, and help us win. The Warhammer does cleanup, gets all the kills, and still gets WAAAY less match score.

And I assume the SNV player will move up to tier 1 a lot faster.... /rant",e3d2s2t,bc74sj,l0ki1
"Yep agreed, no mechlab no point",1UnitOfPost,93qsv,e3bi5dy,"no customization, no buy",e3b2ayv,rhadiem,b9y9i
"Well said - people like to talk about PGI diverting all resources to MW5 and letting MWO die, which may be true to a degree. But realistically if that was the plan why do any balance changes right now at all? It's costing them staff time and community woes etc, its pretty lose/lose.

They could've just locked in when balance was pretty good awhile ago and gone into maintenance mode - just release mech packs for revenue (as these same models are useful in other games not just mwo) and then just keep the servers going and that's about it. Let it slowly die off with minimal effort/cost.

Instead they are wasting money atm AND hastening that decline, its pretty classic PGI business (do the opposite to all logical things). Tin Foil Hat conspiracies at this point are perhaps giving them too much credit...",1UnitOfPost,93qsv,e3bh0li,"I suspect that the “truth” is PGI actually feels like it it “listening” and can’t fathom why everyone is so pissed off.  

Giving them the benefit of the doubt, I think, that they think they are honestly “balancing” with the whole nerf clan weapons, then nerf IS quirks thing of the current PTS.  The problem is that they don’t seem to understand that by making everything equally crappy and watered down, they are making the game less fun to play casually and even less fun for those who play it with skill. 

Honestly, I have never been overly concerned about balance.  I have no problem getting my ass handed to me by a better player in a better mech with a better build. But PGI by reducing the possibility of even the existence of better mechs or better builds with the nerfs above all else balance philosophy, doesn’t seem to understand that they are taking the fun out of the game (and perhaps even the very identity of it) and thus the motivation of not just better players from playing it but casuals too.

It’s pathetic that we have gotten to the point where we would prefer no further development from the devs rather that what they are currently doing. ",e3b4trd,BudCrue,142cxl
"Yep this - there have been a couple of very vocal top 1% who liked to trash talk but haven't seen them around in a long time, I assume they've quit so unlikely to be what OP is referring to.

These days the vocally salty players I see are either:

* Very average players who think they are a lot better than they are (just like you describe above) doing a lot of sarcastic backseat driving after they're dead

* Good players trying to carry responding to the idiotic advice of point #1 above...

I fear OP may be listening to the tone of these people and assuming they are good players (they think they are in their heads and portray themselves as experts) but if you looked up their actual stats...

",1UnitOfPost,93qsv,e39xnel,"I've seen good players sometimes get frustrated and snark a bit, but by far the most (and worst) salt I see/hear in game comes from kinda bads.  They're not total potatoes with sub 180 average match scores, those guys mostly don't seem to care what happens in their games; they're just happy stomping around, going pew pew and talking about how Hanse Davion's cousin's nephew, Josiah Whocares used THIS EXACT BUILD at the battle of East Fuckistan.  It's the guys with average match scores in the 220-250 range that tend to get really salty.  Probably because they're not good enough to carry with any regularity, but not bad enough to not give a shit.",e39rjkx,Unerring_Grace,mgbfxut
"I'm torn about how to play at the moment to influence the data...

Last weekend ran almost exclusively full HLL/ERML lasvom HBR and was absolutely wrecking face. 3 of us in group queue were single handedly winning Polar while LRM idiots sat at the back doing <300dmg. The objective was to shut down the LRM-party which worked a treat, but sadly i worry that's just going to have them complaining to Chris: ""SEE - clan lasvom needs more nerf! ECM nerf!"" etc... (And our giant stats from most games will confirm it, ignoring skill of course)

So do we do the opposite? Run effective LRM boats (ie LRM heavy but still with enough direct fire to play properly) and try and hasten the end of LRMs by benefiting the LRM stats instead? Seems smarter (short term pain for long term gain) but relies heavily on PGI actually realising enough is enough at some point...

Counter LRMs and risk making lasvom/gauss nerfs even worse, or headfirst into LRMs and hope they see their mistake? Torn...",1UnitOfPost,93qsv,e33v4kd,"I went on a 10 minute rant a few nights ago on stream about how we need to do something, genuinely, something.

If we don't draw a line in the sand, very soon, this will all turn a lot worse than it already has.

Someone must do something. And that something must come from you and I, there is no other option.

What can we do? The only thing I can think of is a community-wide boycott of the game. And are we all willing to follow through with that? I highly doubt it... but something must give.

We need **ACTION**. *Enough with the rhetoric and hope* that balance will change if we post threads or vids, etc. The time for action is now.

A true paradigm shift is needed, asap, more like yesterday/yrs ago.",e33rkc8,-King-Harkinian-,266fll8
"Yep who is complaining about cMPL? I've run them a few times lately and they're ok, nothing as stronk as they were a yr ago (and I thought them in a good place then given the heat and range).

I can't think of the last opponent I've seen use them against me though...

Their whole point is duration, and you pay in tons and range for the privilege. This will mean you still pay but get...nothing in return, right.",1UnitOfPost,93qsv,e32ctno,"Changes heading in the right direction, but still needing work. Agree with pretty much everything you said above. 

The worst for me - cMPL : twice as much weight as a ERML for 0.25 extra damage, 40m less range and 0.21s less duration

Happy that PGI seem to have taken Taro's feedback on board in the form of increased burn times. I do wish they'd just stop twisting multiple dials at the same time to get clean data from the PTS.

My major issue with these changes is the same as the last - it misses the mark. The stated aim is to fix high alpha mechs like the MCII, but the real losers are the marginal mechs like the Ice Ferret - which is functionally dead with these ERML changes. 

As for the CP-S changes, I'm shocked PGI is prepared to nerf it's Golden Goose (Gauss?) ",e31rkt6,CpnCodpiece,7wwj5
"See my solution elsewhere, basically I think there should be a timer on Group Queue MM, and when it runs out it just makes what it can, whether that be 4v5 or whatever. Playing (even unevenly) is better than not playing at all.

Alternatively others have suggested allowing solo players to opt into group queue, which could also work.

Basically there are options (without any preferential server treatment), that if PGI doesn't want the pop to keep dropping (making these problems worse) they need to get onto asap. 

Oceanic being the smallest pop makes it the canary of the game. Ignore it now and watch Euro next and then finally US = dead game.",1UnitOfPost,93qsv,e31fo56,"PGI can't really ""sort"" group queue though. If the population is too low in the region, not enough people will sign up for queue unless AP servers get some kind of incentive to do so -- an interesting idea but folks will scream bloody murder if one server group gets some kind of preferential treatment.

If they promote group queue general incentives, like an event weekend, they face backlash from the AP players that struggle or fail to complete it.  It's an unfortunate side effect of our niche game being poorly balanced and driving off reams of casuals/tryhards/whales/insert demographic here.

I empathize with your plight mate.  I played an MMO from SW Asia for a short stint and it was a similar night mare :P",e31f563,Lukoi,g2jkj
"Whoa I just realized - the crosshair should really give a green hit marker instead when you hit friendlies...

That would go a ways toward educating those idiots who don't even realizing they are zoomed in and blowing friendly arms off etc. Or the new meta of LRM boats shooting their LRMs directly into the backs of teammates actually up the ridge in front them.",1UnitOfPost,93qsv,e31cxgc,The funny thing is that indirect LRMs have no way to know if they are hitting except by checking if the crosshair turns red. The crosshair turns red even when you hit a friendly...,e30yupw,abraxo_cleaner,g0i2g
"Yep letting people opt into Group queue would be good - some people only care about getting the fastest game they can get (I know I would opt into group when playing solo).

Not to mention for the solo players out there who constantly complain about a lack of teamwork in solo QP, this would give them a chance (for better or worse ha) to see what coordinated groups play like.",1UnitOfPost,93qsv,e31cf9p,"Yep, been saying it for ages.

There should even be the option for solo players to queue for group play(only if solo queue is also ticked), but limit to 1 solo per team. Not for the sake of the solo player, but to make it easier for group matches to form, and to allow groups of 11 to launch.",e308f5j,Ljusdahl,j3nzy
"Yep same, from 7pm onwards in Oceanic MM just can't make a 12v12 group at all. I hate to sync drop (usually you will be opposite sides and I play with mates for coordinated play).

Given this forces players away and makes the queues worse, PGI should be all over it (declining pop is $$$ to them).

As I've said before, Group Queue MM should have a timer (say 5min) and when it can't make a 12v12 it should make a 4v5 or whatever is available in the queue.

Is it balanced? No. Is it letting people at least play the game? YES. Does it stop solo people complaining about sync dropping? Also yes. Win-win.",1UnitOfPost,93qsv,e31c9q4,"I know those guys, there oceanic players like me and we often have to change from group queue to sync dropping during the week because group queue dies. Last night doing group drops with mates then we waited 20mins for a drop after that we switched to sync dropping.",e31adov,Geewiz27,due2bvs
"Yep I'm Oceanic and during Weeknights, especially during dinnertime hours, there is no Group queue. You can literally queue for an hr. 

Been saying it for a year, PGI needs to sort out group queue as no1 really WANTS to Sync Drop. 12v12 isnt always possible in group, it shouldn't be forced there.",1UnitOfPost,93qsv,e31bzw2,There's nothing dead bout GQ in my experience but I play NA primetime into the wee hours. They are an AP team I believe and it might literally be dead for them. Idk.,e319l2m,Lukoi,g2jkj
"Goes both ways though - sometimes a popular team at home will get smashed by the refs who are watching them like a hawk/don't want to appear like they are letting the crowd influence them etc, and likewise give the underdogs/visitors the benefit of the doubt.

The real problem is whether its the former or the latter is completely up to the headspace of the ref at any given time, which leads to the worst crime of bad reffing - inconsistency.",1UnitOfPost,93qsv,e2zimbr,Agreed. This opinion is likely to be unpopular with glamour clubs who continually get the rub of the green.,e2z9x6m,InflatableRaft,aklbo
"Yep I've come back recently and the #1 thing that sucks is not being able to group with any # of friends (Oceanic weeknights is the worst, you know my pain).

* Group queue, forever wait with no indicator if its even worth trying (ie a number of who else is waiting at what group sizes)

* FP, same as above but even more unlikely to be others queuing

* S7 2v2 - as in this thread, ghost town due to how hard they've made it to queue

* Leaves sync dropping - even when it works its 50/50 you're on the same side, and even if you are, the enemy team will (rightfully) hate you for it

Seriously #1 thing for PGI to be working on right now is making it easier to drop into games. If you can't play you'll quit, which in turn makes it harder for others to get a game, they quit, etc etc...

LRMs, PSR/MM, Skill Maze, P2W, Graphics/Physics Engine, all of them are pointless problems if you can't even get into a game to experience them.
",1UnitOfPost,93qsv,e2kx0th,"> Yep PGI have forgotten again that the #1 thing people want above all else is to actually play the game.

Waitwarrior online sucks. 

3 min wait time for solaris means i've gotten bored and didn't realised the match started by the time it actually gets around to happening.. IF it even happens.

We had a group of 12 the other night and still needed to mode hop to find people (faction - both sides, and group Q).

PUBLIC QUEUES (If PGI doesn't want to show actual numbers even just an indication of which modes are more active or % of players in each mode)",e2kt1y5,Kamikaze_VikingMWO,f147k
"Yep PGI have forgotten again that the #1 thing people want above all else is to actually play the game.

7 divisions that you can't even queue for all, its painful...

Ideally like you say it just uses the divisions for MM - but if its just you in a spider and one other guy in an ANH queuing at the time, screw it let them actually play a game together.

Otherwise its just cobwebs in another dead mode.",1UnitOfPost,93qsv,e2klyic,"Division system is a problem. Mechs in MWO are too far apart from each other, you would have to have like 20 divisions to set up any kind of fair matches. With only 7 divisions the majority of mechs will still be useless. Move the meta mech up, new meta will be settled.

I see only two solutions: 1) rebalance quirks of all the mechs to bring them closer to each other 2) implement a new system of matchmaking (divisions can be veiwed as a first step of matchmaking).

None of those will happen, too much work for PGI.",e2k7qaf,banana_peel2,161d3r
"Yep its my fav - Vermithrax (cool name) is supposed to be old and twisted, and it shows - no gleaming shiny scales here. It has the right blend of thin and nasty yet still huge and scary. It looks like it can actually fly.  It doesn't talk or anything stupid, lives in a lava cave, and properly kills/eats people. 

And still has the definitive fire breath for me - the wind up process sounds awesome, builds tension, and seems realistic for what organs would be required for such an ability.

Best movie dragon.",1UnitOfPost,93qsv,e1ta4az,Still one of the best looking dragons on screen.,e1rcs5w,OtakuTacos,n7e06jr
"There was a time when the Timber was as great as you wish. So good it was one of the first to get negative quirks as an attempt to balance it. Problem was they then nerfed all of Clans repeatedly but never really gave anything back to the Timber. They loosened its neg quirks but not all the way.

So poor thing never quite got back to normal, it sucks to see such a beloved chassis shat on like that but there you go. It's a flavourless dish now that deserves your salt.",1UnitOfPost,93qsv,dyqpazk,"I like the Loadout idea most of all. Going in blind is terrible because some mechs perform vastly different on different maps. The ability to select your chasis but pick the loadout based on map is a cool idea. Alternatively, loadout and deploy with a drop deck, but you only get to pick one mech to drop for the match. 

Of course, both of those options vastly benefit long time and/or experienced players so perhaps limit selection to the inverse of your tier. Tier 5 can have 1 variant loadout (so no ability to pick pregame) and T1 can have 5 (so stock + 4).

Also, I loved my Timberwolf, and I still do even in MWO. Except, i feel its never been as restrictive as it is in MWO even with the omnipod system. I'm a new player though so it's probably just salt for no good reason. I don't need the Timberwolf to be the best mech ever, but I'd like to be able to build it like I could in other games. In addition to it being my favorite mech bar none, it was so versatile in loadouts that it was insane. Single chasis could so SOOO many things.

",dymyb8k,Dark-Reaper,16t60m
"And certainly dont create a UI that could have multiple players all searching each queue looking for someone waiting, with no one realising they're all doing the same thing and no one is going first...

Currently you just have to trust that if you queue they will come... ",1UnitOfPost,93qsv,dyf4dss,"I have been saying this since they stopped showing the numbers. If you want more players so bad, lower that terrible grind for new players to catch up. ",dyf207z,Deathshade8,cgcx3
"The REAL Neil would never work for big corp like Nine News, he would be using his mad multi-laptop hacking skills to make Nine management kill themselves for their evil deeds.",1UnitOfPost,93qsv,dyctzkh,">According to a Nine News report from Neil Breen

Isn't Neil Breen that guy that makes ~~awful~~ fantastic movies about himself being a secret spy and shit",dybgtud,realTimSanchez,gh6nkf5
"My dad calls it Brigadoon (after the musical where a village in the Scottish highlands is cursed to only appear out of the mist once every hundred years, and is thus centuries behind the rest of the world).",1UnitOfPost,93qsv,dy71kr6,Lived there for many years. The town is nice but the people are still in the 19th century and they hate outsiders. ,dy6v42q,iGraveling,11p6yz
"I'm assuming a solid projectile stays on target for much greater distances, whereas plasma would quickly slow down/disperse?

As in plasma may be a dangerous material but getting it to stay concentrated and on target at range is a different story?",1UnitOfPost,93qsv,dwrwuz6,"Eh, current railguns are tuned to not *accidentally* shoot plasma. They're just slowed down to the point that what comes out is mostly still solid.",dwrq3gb,DoomBot5,u3xi8
Yeah we died together at sunrise so nothing buggy,1UnitOfPost,93qsv,dwp5mff,"Were you in render distance of the drake during daytime?

Edit: I tried leaving a featherlight on the surface during night and coming back the next night after a full day cycle. I was out of render distance and when I came back for him he was in the same  spot and did not have the burn/flame effect

I will attempt to ride a drake in god mode and infinite stats on the surface during the day to replicate this",dwlkc7g,Neonwater18,z8igi
"**Update**: Solved (kinda?)

I noticed this reflective problem goes away in the lower tiers like Villager, and it occurred to me the Castle tier is based on Metal. I'm thinking it's inheriting some of the reflective nature of the metal set its based on, and the lower tiers being wood/stone don't have this problem.

I wish I could say changing the ini settings fixed it, but neither bumping lower tiers to metal grants the reflection, or bumping Castle down to stone removes it (I think these ini settings just change the damage profile).

But at least it means I can replace some of the wood Castle items with their Villager equivalents for roughly the same look, but with drastically less reflected light. Will play around and see.",1UnitOfPost,93qsv,dwf2jg0,"hey I built a lil place on the mountain and got really bright textures as well, the fog moved in not long after I got up there but the outside still looked like this > https://i.pinimg.com/originals/3d/07/c7/3d07c7313f1a3a7b7a701db070912ce5.jpg",dwcw8tu,Thepilgrimz,wnrzgs6
"Hey yeah I did the opposite and went and built down on the north shore, and while you can see the CKF textures are a little generous in reflective surfaces (for a good example see the underside of wood-material ceilings), it was much darker in the interior of the building as you'd expect. Not quite as dark as vanilla but not distracting (this was in the middle of a bright sunny day).

So I think you're right, up there in the snow region peaks there is something particularly white and bright about the lighting, giving the effect of having it seem as if you have harsh white ambient light throughout during the day. Amplified by the amount of reflective surfaces with CKF (vanilla seems quite matte by comparison).

Upper (geographical) 1% problems I guess...

Thanks for checking, good to know I'm not going mad.",1UnitOfPost,93qsv,dwe2pzh,"hey I built a lil place on the mountain and got really bright textures as well, the fog moved in not long after I got up there but the outside still looked like this > https://i.pinimg.com/originals/3d/07/c7/3d07c7313f1a3a7b7a701db070912ce5.jpg",dwcw8tu,Thepilgrimz,wnrzgs6
"Yeah I've seen that, its pretty baller and creates a good circle. I guess the trouble with Howl is there is a lot of domes on top, with bulbous belly-like undersides. Then on top of that they are layered over each other...

So yeah, tricky! If you were to make a compromise and forget the underbellies (maybe get the top-down circles roughly right then just build straight down until cutting them off at the different heights) you could get close. The glamour areas are the tops anyway and those look much more doable (as long as you're accepting of parallel towers of course).",1UnitOfPost,93qsv,dw54k7d,"Yeah, have you seen this? https://youtu.be/bfDGCsC6zcY?list=PLMepA-3Hf63StAzEJT774CactNZbRRXY5
Its a round foundation idea from Captain Fatdog, I had a play around with it the other day and you can remove the platform after you have the main floor placed if you have 'no foundation true' on the tops of the domes on the guns will still need work. With a mix of steampunk mod and castles keeps mod I think you could get quite close ",dw53p8r,Thepilgrimz,wnrzgs6
"Yeah this is waaay up on a snow peak around 41, 53 (near the beacon drop)

Particularly bad with CKF wooden material selected as every grain reflects brightly (looks much better at night). Vanilla textures up there look fine though so quite weird.",1UnitOfPost,93qsv,dw53qw5,are you building up high on the snow mountains? I can build something small up there and see if I get the same thing,dw535wb,Thepilgrimz,wnrzgs6
"I think we've all thought about Howls Moving Castle, but one look at the movie art and you can see its a very bulbous style, lots of curves which don't suit Ark even with mods. I think you're right, best you could do is an inspired-by blockier style re-imagining.",1UnitOfPost,93qsv,dw4vea3,humm that would be a good project it would look kinda blocky in places but I could always try a 'based upon' build  ,dw47id8,Thepilgrimz,wnrzgs6
"Haha I always add the ""is about to E X P L O D E"" tag to any event I'm excited for, saddens me no one knows what the hell I'm on about",1UnitOfPost,93qsv,dw36vlu,NEO-TOKYO IS ABOUT TO E X P L O D E. ,dw2o0v0,mutantIke,kry2y
"Advance Wars just flat out embarrasses so many more modern/complicated mobile games. So simple yet so well executed, I sank more hours into it than any other DS game (and more than lots of PC games too).",1UnitOfPost,93qsv,dvxa1qq,Advance Wars?,dvwu8cz,FergusMacBolg,e7weu
"I feel you - my smurf already had 5vite Cupid and Aries so making the L5 set was pure bonus, could play with putting it in luxury positions like PD, Dusa, etc.

But my main had no 5vite talents so even tho i have the crest set now im constantly moving it around desperately filling the voids ><",1UnitOfPost,93qsv,dvpwoom,"Nice and congrats! I can't wait until I get there. I have 1 level 4 revite, 1 level 3 and a couple level 2 sets. Just gonna grind it out. I've never rolled a 5vite in all my time so the best I have is a vite4 on cupid. ",dvpr2dz,karl_hungas,696xw
"Isnt the theory SS doesn't affect reflect, so a SS GS can easily kill herself via reflected dmg? Thus TEN is safer from FG opponents etc.",1UnitOfPost,93qsv,dvpqgkq,"I disagree, I like Tenacity more. She seems to last longer than my SS dupe",dvpn287,GB-Thieves,2welgao
"I've been playing since before crests came in (F2P) and have been buying any merchant crests from sets i want like Revite, BW, WG...

A few months ago could finally forge my Revite 5 set, it was glorious. I can also do lvl 5s atm for BW/WG etc just waiting on the red meth.

Times will vary tho depending on your method - things sped up for me for example when I switched to forging all types I don't need/want (ie Scorch, Blade Shell, etc).",1UnitOfPost,93qsv,dvpq5e9,"It's definitely worth it. I buy what I need filled it. With all crest sets as a f2p you aren't going to get crests in even amounts so if you are really short in like BW 3 and it comes up in merchant buy it. It takes a lot of grinding as a f2p to get higher level crest sets. I've been playing for years and don't have any level 5 crest sets but I have level 4 FG, SS, BW, WG, Revite, and Revive. It's really useful, people ignore crests and LR in general but keep a focus on it. ",dvpdz50,karl_hungas,696xw
"In EC yep they are, and pretty much the only version of each dino you want for tames (given the other crazy god-tier wilds around) as soon as you're capable. 

Its pretty great for impatient players like me, one of the best things about tame alphas is they are all reeeeally fast.",1UnitOfPost,93qsv,dv6qn0l,does that mean alphas are tamable?,dv6jh7o,_Refuge,qgrea
"I think Structures Plus (S+) Mod has generators like this (snapped to foundation).

In general if you're a keen builder S+ is better (the ramps alone make it essential for me)",1UnitOfPost,93qsv,du41aef,"Now if only there was a way to snap generators to be ""square"" with a foundation...",du3hnao,-c3h5n3o9-,kdvzq
"Yep I'm overdue for a 5vite and at this late stage of the game (ID6-10 sweep, AF, etc) I'm all about the fame now. I feel like Dusa is edging fwd instead given her vite is useful in both LBF and AD (Labyrinth too I guess). Aries is useless in all ADs and losing that top spot in LBF too.",1UnitOfPost,93qsv,dqhjjq8,I would do priority of cupid dusa then Aries. Cupid gives the damage buff plus a revite for everyone. Dusa over Aries simply because nobody is immune to her. Not even bosses or ad. Also she can hit more targets in modes like labyrinth and lr. ,dqgueiu,Thebigtallguy,xe863
"Do people not just carry a stack of berries in the last slot so Pegos end up stealing their way into being tamed? I've got a hoard of tamed Pegos following me around atm thanks to this, nice little meat shield....",1UnitOfPost,93qsv,dqhibkl,"I take it you haven't experience Pegomastax yet, another great addition to the game we needed so badly ",dqh74c7,BelleVegaz,1ny0sc
"> this is where the rule of even number films being good somehow breaks apparently.

A lot of people (myself included) put Galaxy Quest in there - not technically ST but a parody that ends up being more like a homage, and quite good. If you consider it a good 'ST' movie it slots in right after Insurrection and before Nemesis, conveniently restoring the odds/evens rule.

Which I would argue has continued consistently into the reboot movies (1st one was good, 2nd one bad, back to good again with #3... not looking hopeful for #4...)",1UnitOfPost,93qsv,dnh2amm,"The ""rule"" is that every other one is bad/good.

Star Trek 1 is super long and boring. They made a really expensive ship model and there is seriously like a 15 minute scene of watching the model ship slowly launch. The 2 hour 25 minute movie has a neat Aha! moment at the end, but I'm not sure it justifies the run time.

Star Trek 2 - Wrath of Khan is considered by many to be the best Trek film, period. The odd thing is that it was written and directed by someone who wasn't a Trek fan, and was asked by the studio to make a mainstream appeal action film. Nimoy fought on the set with Meyer about how this wasn't Trek. And yet Trek fans hold it up as the epitome of Trek.

Star Trek 3 is a direct sequel to 2, when most of the Trek films are stand alone. (2-3-4 are one continuous arc) so that makes it worth seeing. Many people call this a bad Trek movie, but I enjoyed it.

Star Trek 4 is a comedy. They went in a completely different direction and it is fantastic. It is weird to cap off a trilogy where the two previous movies were more of action films with a comedy, but somehow it really works.

Star Trek 5 is painfully bad, and it contradicts canon from the TV show.

Star Trek 6 is the return of the writer/director from Wrath of Khan. It was supposed to be the swan song for the original Trek crew since they were already doing the TNG TV show at this point. It is quite good.

Star Trek Generations is a passing of the torch between Kirk and Picard. According to the rule it is bad, but I found it at least watchable.

Star Trek First Contact is easily the best of the TNG movies.

Star Trek Insurrection would have made a decent 1 hour TV episode. It is a forgettable movie though not completely terrible.

Star Trek Nemesis is basically the same plot as Wrath of Khan, but everyone hates the plot. It has Tom Hardy in a great role. I enjoyed the movie when I saw it opening night, but most people on the internet criticize it to shreds, and this is where the rule of even number films being good somehow breaks apparently.

Then you have the 3 reboot movies.",dng3l0w,enderandrew42,bqf2s
"I remember being raided by this dude who would use a single Druid, no other heroes, at max level and would just slowly but surely wipe my base.

I was like man I have to pump resources into this Druid guy asap",1UnitOfPost,93qsv,dmpdytc,"There was a time before PD was even a thing

And people would legit use rares and ordinary heroes all the way till endgame


Druid was the best hero hands down. Good times",dmo9am3,RiverOfKeys,12o7zv
"Pretty sure they set mouse-sensitivity too high, thought the jump key was the attack key, and thus panicked in their first encounter and had to run away to adjust settings...",1UnitOfPost,93qsv,dm09wk4,I can't tell from the video if this is a calibration issue or if the operating system crashed. I'd recommend taking your cat to an authorized repair center at your earliest convenience. ,dlzyrso,Roam_Hylia,tqauy
"Nice, thanks for the clarification ",1UnitOfPost,93qsv,dlznhlu,"You'd think that, but it actually isn't - SS is better there too

If I have 100 base hp, and say, 10% HP healing, I'd heal 20 EHP with tenacity, and 25 with SS.

I've added a quick line which says this.",dlzn68f,SlayerSFaith,88fbb
"As late as possible before anyone dies/they start spreading out.

Not sure how your SK is setup, mine had the std 5/5 corrode which I think was part of the problem (helped them kill the lured SK too quick for full stacks). With my (SS+LD) DD they sat on the lured SK for long enough GR winded right up and killed all the enemy heroes. Something to consider...",1UnitOfPost,93qsv,dkte1bt,Do I shield when they're still attacking SK or after he dies?,dkspl7m,TheViperScout,102m9i
"On my main I did 5-10 in only a couple of tries, using a SS 200ee DD to tank and GR and SB for the damage.

I don't know if I was just lucky first time around but on my Smurf took forever to 3-flame it, really the only difference was not having the DD tank. SK tank didn't really work well - in the end I went no tank and just used HBK+SB+GR (the rest was all buffers, PD+CP+Val) but it took a lot of goes. 

That drop is a massive bitch, so easy to stuff up and waste runs over and over. Just got to get that timing right of frenzy, 4 choppers as lure, freeze, drop everyone and some troops, shield and then more troops. Its the timing on the shield that makes the difference, takes a lot of practice.

It's easier just to shield and frenzy together at the start but that never got me the 100% on the Smurf. On the main it worked but maybe I was just really lucky. If you have a tanky DD its worth a try (mine was 6/8 SS + LD4 crests).",1UnitOfPost,93qsv,dks6ukf,"I beat id 5-6 and got to 5-10 in about 2-3 days. I had to devo TG and bring santa to 8/10. However, Im stuck at id5-10 now... the drop is sooo hard to master. My heros keep dying even tho Im using guadians. What do you suggest? Devo Santa for 60k? Bring GR to 8/10? Tank with evoDD or evoSK? Maybe take advantage of the fact that I have a WG vlad + HBk and try another drop?",dks3idk,TheViperScout,102m9i
"Sure, I had been building towards a HBM3 run anyway (just finished ID5-10 on my Smurf) but was a ways off, then got GS and did it pretty much over 2 days once she was evo, no Ghoul or anything. I used a side base:

200ee SK (5/5 corrode) + 180e PK (6/8 scatter) - outside row 

200ee PD (6/8 zerk) + 180e Val (5/5 revive) - center row

180e GS (garbage born-with talent) + 200ee HBK (4/5 vite) - inside row

Originally I had a devo Vlad ready to go from yonks back, and he was doing alright, but that freshly devo'd HBK really helped make it super easy once GS was in there. GS was only on skill lvl 7 I rushed her in so fast haha.

Towers were all freshly maxxed magic 15 (4/4/6, garrisons were next before I got GS, saved so many shards there), pads were a mix of 23/24, TH 23.",1UnitOfPost,93qsv,dkpuju2,"May I ask what heroes you used to easily beat hbm AE on your GS account ? I'm now trying hbm3 and I have anubis and GS with 3/3/x garrisons.. Hearing that you easily beat AA-AE makes me hope :D I beat AA and AB easily, but AC looks much harder :( My heroes and garrisons are clearly underleveled for HBM3, but it's compensated by nub and GS..
",dkoyjx4,KyoshiDeath,tlfix
"Yep HBK is just all round better than TG in pretty much every mode (she really helps in HBM3 as well). Bubblow should always be as maxxed as you can get him (angel and phant are good too), and is becoming good enough to replace druid (except for AD).

See how you go with LN (he's useful in other places so not a bad investment regardless) but I have a 200ee one with a 6/8 WG and can crest 4 bulwark, and he still just couldn't seem to do much in 5-10. I think it may be that unbuffed auto-proc means waiting 6 seconds to get another one, which is a long time in ID5+, whereas SB will get off a buffed proc much quicker than 6s, which will have the strength to clear out a big patch of towers. Teamed with HBK might be enough though.

I would but I'm not on discord or line, not even in an (occupied) guild which is part of the reason for my slow progression (I should really get on that as fame is my bottleneck, im just a lazy solo scrub atm)",1UnitOfPost,93qsv,dkptytq,"Wow thanks for the detailed list! Im gonna get HBK to 9/10 instead of TG. Also I rather level up bubblow, elephant and Angel pet skills. Now, regarding Santa, I got to Insane 5 without him so Im not willing to level him that much, I'll probably replace him with lil dick.  
Btw, can you DM me you discord name and tag, please? I wanna add you.",dkowvac,TheViperScout,102m9i
"Haha F2P patience - twice a day every day almost every mode (except arena) since I started when PD was introduced. So the shard heroes like Druid/TG/GR were already fairly high since I had them since the days there were bugger all gem heroes.

So I'm proof it's possible, just takes years...

Although these days just 1 or 2 of the newer OP heroes can replace 2 or 3 of those crappy old heroes so that's a plus at least. Also my ID/HBM etc has rapidly accelerated this last year with all the new shit like pets etc.

EDIT: I should actually answer the question of worth:

TG - At the time was a good dungeon damage dealer and can still get the job done, but is now pretty useless in all other modes so much better to aim for Grim/HBK/etc.

GR - Same as above for TG pretty much, except for that niche use in 5-10...

Druid - Still kind of worth it just for Archdemons

SB - Used to be definitely worth it but is fading a little outside of dungeons (but soooo useful in dungeons). If you lack good DPS heroes in other modes SB can sometimes fit in, decent enough in demons etc.",1UnitOfPost,93qsv,dkongj3,"I looked at one of your posts with your heroes and skill levels. I got to say, seeing 9/10 on druid, TG and santa was very painful. I dont think my will is strong enough to bring these heroes to 9/10, especially considering Im low on dupes.  
You have a lot of dedication and courage. Was it worth it?",dkomauu,TheViperScout,102m9i
"Yep sure did, basically hit it after 5-10 milestone was down. Got to AD with Druid, then finally got Ghoul and finished AE. Healing pets are even making no healer at all possible so it's worth trying after 5-10.

On my other account recently got straight to AE with no Ghoul well ahead of schedule, but that was purely due to luckily getting GS. Even sevo with 4/4/6 garrisons she was enough to catapult me straight to AE, she's ridiculous.",1UnitOfPost,93qsv,dkoi2kz,"What about HBMIII, did you succed without a ghoul?",dkoh52w,TheViperScout,102m9i
"Yep I'm afraid most of those I listed were devo, especially Santa and SK/DD. TG/Druid/GR at least are cheap with their dupes (fame cost still sucks though). 

I often spent the shards on devo, gotta spend green to make green philosophy... (At least these days when you inevitably get a dupe the roll after spending the shards, they can be used for Equipment haha)",1UnitOfPost,93qsv,dkofk7q,"
My only problem here is dupes. I dont wanna spend 60k to devo Santa, Hbk and Sk.",dkocqmg,TheViperScout,102m9i
"I followed the Al_fun youtube guides mostly, I was able to replicate those F2P heroes. So usually SK tank with PD+Cupid, sometimes with Val as well (although she was only Evo), SB, and cycling through TG/GR for the final hero depending on the dungeon. Honestly GR is really only necessary for 5-10. 

5-10 was a real killer though and eventually I brought a new devo HBK to the party and cracked it (I've done it on another account with DD instead of HBK/SK though somehow). 

I had a devo LN as well but honestly he didn't really help with 5-10.

While I did use Druid on occasion, sometimes its worth skipping him given pets these days.",1UnitOfPost,93qsv,dko4u67,Damnn ! Good job. Im stuck at 5-6 atm. What team did you use?,dko4cgx,TheViperScout,102m9i
Not that guy above but similar story on my F2P smurf (~140k might) who didn't have Ghoul - recently cleared ID5-10 if that helps.,1UnitOfPost,93qsv,dko3utr,Where are you in dungeons?,dko0ro6,TheViperScout,102m9i
"Yep this - quest talent rerolls are one of those things that *just* keep F2P in it, and without it would probably be the straw that breaks you eventually.",1UnitOfPost,93qsv,dkcw2bk,"Hoping that IGG adds an enchantment reroll quest, unless talent reroll quests can be used on enchantments, which I doubt.",dkc3ikm,Connor1736,kwrjh
"PS in the picture there are troops (choppers) - don't copy this. If you're getting insta wiped in wave 1 sometimes its because too much energy is being fed to them via clearing your external buildings, dont add to that with troops feeding free energy. ",1UnitOfPost,93qsv,dk5ilr6,The pictures included aren't my base. I have no garrisons. Is HBM3 impossible without garrisons? (I don't have Anubis),dk45o3q,ta105050,icgzk
"I've got maxxed cannons and pads, plenty of max devos, plenty of scatter, but unfortunately no GS or Nub yet, dang.",1UnitOfPost,93qsv,dk1ybem,It's more about the base than anything. Maxed Cannon towers are a biggie. But GS/Nub are the ones that carry it. The rest are fluid just as long as they have a lot of Scatter.,dk1wasi,shlam16,7vq8y
"Solo WG4 wow, what team did you use for that? I'm getting bored with solo WG3 and have been wondering what it would take to go up a notch...",1UnitOfPost,93qsv,dk1p4lr,"Haha I've been getting around to solo-ing all the content. WG4 is down, Mesa4 is down. I'm wondering if I can solo LI1 now.

Honestly I think solo IS1 is possible, but it would just be immensely luck based and would be like 1/50 so it's not something I would ever waste the attempts on.",dk1bbwn,shlam16,7vq8y
"Yeah we've started road tripping down there for 1 game a season as the day time vibe there is excellent, totally different to Brisbane.",1UnitOfPost,93qsv,djlau5b,Forgot how good Sunday arvo games are until I went to a Titans one. ,djl9nb5,shorrrno,bgrks
"> ""what have you done for me lately?""

CUPID - I want to talk to you CUPID",1UnitOfPost,93qsv,djkvjxz,"While nub certainly fits that written description, I find it hard to justify having him be as important as cupid or ghoul. I think this is a ""what have you done for me lately?"" type deal and you're taking Cupid/Ghoul for granted since you're already sweeping top hbm and dungeons.


Yes - he makes quite a few game modes easier. But where is he necessary? What game modes are you going to be getting stuck without him on? Insane dungeon 7-10 sure. But besides that? We all know it's possible to progress without him bc well...most of us did it.


Now try taking Cupid out. Sure, Val is better for hbm. So that's fine. But for Dungeons? Archdemon? GW Offense? You're going to have a hell of a time moving forward. 


Same goes for ghoul and most team modes, or pvp modes besides gw. For lava, summit, hbm, dungeons, etc. I'd generally rather be missing nub than ghoul. What kind of FF team wouldn't have him? What kind of lava group uses druids? 


&nbsp;


At the end of the day, Cupid & his buff, like PD, will always be relevant. There will always be a use for giving your whole team extra energy and damage. While nub is one of the best gem heroes to come around in awhile, over time he will get overshadowed by power creep. Or, igg will do what they did with Aries/SK (who were similarly dominant when they came out) and slowly release heroes that bring them down a peg or two. That's not to say he's not awesome. He is. But his strength is fallable. Meanwhile, Cupid has been at the top of the charts for years. He's seen his fair share of hot-shot heroes come and go ;)


&nbsp;


Edit: Look at it this way - Cupid came out over **3 1/2 years ago!!** Nub is what? A couple months old? Look at the other heroes that were released around same time as cupid. **GR, SZ, Immo and AC were all added within 2 months of Cupid!!** You may laugh now, but I remember when GR came out, p2p were furious that f2p would get a ""free sm."" Then when Immo came out, he was basically required (as the first proximity aoe hero - no vlad) to pass HBM H b/c otherwise the copters would just shred your base. AC was unprecedented when released - he straight up forcibly retired Pally. Up until then, Pally was actually a solid option to tank with.


My point is, in 3 1/2 years, Nub may still be somewhat relevant, but will be nowhere near his current status. Cupid, on the other hand, will probably still be a monster",djk761h,brahvmaga,eub44
"Yass, good one",1UnitOfPost,93qsv,dji4x3w,The one I want most is collect all quest board rewards. ,dji1och,ShareHappyness,ks78y
"Gotcha makes sense, ty",1UnitOfPost,93qsv,djhzjos,Yeah the sole purpose for DS in the game is in AD and for this you'll want usually 3 sets. Level 3 will hit the damage cap so going any further is just for their stat boost.,djhwx2v,shlam16,7vq8y
"On my main I actually was ""lucky"" enough to get a full SD set from that Lvl 4 Crest Set reward awhile back. So I've kept that and forged the rest, no regrets. I'm making a 4 set on my smurf tho and yeah, probs a waste of red but I can't help myself.

Multi DS 3 sets is interesting, I was just about to start them so good timing with your tip there, I'll stop at 4x3 maybe.

Cleaning up is a great feeling (not to mention all the nice forging, getting a psy set together finally) - navigating the crests in the forge screen is horrible when its padded by HB/SD/etc in the early parts of the scroll bar (FU resetting scroll bar).

",1UnitOfPost,93qsv,djhwjri,"> Forming a Lvl 4 set of Heavy Blow, Self Destruct, Deadly Strike, Sprint

Heavy Blow can have it's use. Self Destruct has literally no use so don't waste the meth on it. DS you'd be better with multiple level 3 than a single level 4.

> I think a lvl 5 Flame Guard could have its uses, just saving it for low priority

You're right both ways here. It is probably the most underrated talent in the game, but it's also not high priority. ",djhw67y,shlam16,7vq8y
That's... pretty brilliant imma try this now,1UnitOfPost,93qsv,djhvq5s,"Here's a tip to cancel the animation, for Eggs. Hatch it, press your back button, then press x on the ""leave"" pop-up. I do it for every hatching, watching it for hundreds of eggs is terrible. ",djhv661,TheFadedPlayer,1rlw456
"With 4x I just mean an option to set it - so would be x1 by default, but you could set it to 4x if that's your pref (so opt in basically - I'm a big believer in giving users options rather than forcing everyone into the same, usually lowest req, default). Probably poor wording from me there.

---
I think everybody wants to set drop order, I've always wondered what's the simplest way to do it - numbering the bases is a great solution I like it. In a perfect world I'd love to have an advanced setting where you could time the drops as well to avoid frantically mashing phone screens.

(Moving the tiles around within the altar would be great as well, I'm with you there)",1UnitOfPost,93qsv,djhvp82,"The 4x by default doesn't work because people are using different devices. I run LI3 for my group on Nox and my PC isn't exactly what you would call new. Most I can get out of it is 2x at about 1FPS. And I have to wait 15 seconds before I can activate even that because there is too much happening in the first 15 seconds which just crashes it.

***

My QOL change that I've been begging for for literally years is the ability to change hero order and drop order. So have each of the 6 bases set as 1-6 and that's the order the heroes drop. Then in the altar let us put them wherever we want. ",djhuzmx,shlam16,7vq8y
"yep, I'm sold",1UnitOfPost,93qsv,djhocli,give me 4x speed for everything :) I might start playing lr again,djhmh9l,FlowieNL,jbv46u
"Yeah I've been playing since PD was new, and the last year or so has seen some great improvements I never thought we'd see, so I have some hope",1UnitOfPost,93qsv,djhjwuz,"Ohh yeah I agree about that then!  
They have certainly stepped up the QoL updates! 
Crazy to think that we used to not be able to sweep",djhjrdo,hugh_g_wrecti0n,88vfk
"> I personally don't use my stamina cards, too lazy. I think there are quite a few players like me.
So no thank you to automatic stamina card use

I just mean it is automatically claimed to your warehouse, so you don't have to exit LR to be able to use it (if you choose to keep going when you use up your current stamina).

I actually think IGG does more QoL updates than any other game I play, but that could just be relativity speaking.

Yeah that spell rebuy bug is annoying af, I seem to get it a lot less frequently than I used to though (still happens).",1UnitOfPost,93qsv,djhjlsa,"I think a default x4 would be pretty laggy for lava3   
But for other modes it will be really nice: WG, HT, HBD     

I personally don't use my stamina cards, too lazy. I think there are quite a few players like me.     
So no thank you to automatic stamina card use     

IGG doesn't usually make constant QoL updates, so I doubt these requests are going to happen    
But still worth a shot! I believe we got some dev's hiding in this subreddit    

While on this topic: Magic is still buggy for me. I will rebuy and sometimes my spells aren't available for the next raid
",djhj1ye,hugh_g_wrecti0n,88vfk
"I recently executed a long term experiment of saving up the 35k gems needed for the spend and win event on my smurf (its the first level that gives fame rewards).

If they changed the odds I didn't notice it - excluding a bunch of shard purples I rolled (including Siren which is nice for AD), I also got HBK, GF, and GS (which I didn't have) as well as dupes for LN, Tree, SB. 

Not amazing rolls but perfect to get me to the next level  atm (struggling to 3-flame ID5-10 so HBK will do nicely there, and HBM3 is next in my sights which I believe GS is perfect for).",1UnitOfPost,93qsv,djg8m2g,"+1 to this... unless you believe that IGG changes the odds during the FTP event.

IGG runs this event pretty much weekly, and the best time to roll is when it's over 2 days, allowing you to roll 900 one day (for 3 eggs) and the rest the following day (for 3 more eggs).  The Talent cards are worth 900 gems if you use them during quest boards, so that's a net 1,650 gems spent for 17 hero rolls.

FYI, from a probability perspective, you would need to roll 45 times for a 90% chance at a legendary hero (doesn't mean a good one.. just any one).  So if you want to pretty much grantee yourself a purple hero, save up to 7,000 gems and roll (leaving yourself 300 for a talent refresh quest).  Also knowing that you will still have a 10% chance of rolling nothing but blues & greens...",djfel8q,GS-J-Rod,srzq3
"Yeah thats what I figured from the desc but thanks for confirming (esp. about the targeting, that's a killer if it doesn't prioritise heroes) - HBM3 is next up after ID5 so I'll get GS going on the side ready for that.",1UnitOfPost,93qsv,djfrlcr,"HBK is great for insanes, her kit is super useful there. GS is pretty lacklustre in dungeons TBH. her proc can hit buildings, the copters hit buildings, her healing reduction isn't useful there, nothing is really conducive to being a dungeon beast.",djenygl,Mr__Perfect_,14lpxh
"Damn just rolled her on my smurf which is currently struggling to 3-flame ID-5-10 - was hoping she might be able to help there but the one area I'm not hearing anything good about GS is Insane Dungeons...

Also rolled HB so been focusing on her instead while I'm doing ID5.",1UnitOfPost,93qsv,djelfbw,"Shes great, but when you get to insane dungeons she isn't that useful. the copters target nearby buildings, so i haven't found her super useful in ID5.",djeecfe,Mr__Perfect_,14lpxh
"Haha well coincidentally when I think of prime squibness it's all 80s Arnold films (predator is good but can't go past Total Recall for OTT squib action in huge quantities).

I love the original Dawn of the Dead as well (the opening descent into chaos is so good) but yeah their blood was... different. I think the colour has a lot to do with it, they picked a pretty bright hue in that movie as I recall.",1UnitOfPost,93qsv,div61yf,Did fake blood technology get a lot better in the 1980s? One of my favorite movies is the original dawn of the dead. However the blood is so bad. (I've sometimes wondered if it was on purpose or something),diuapmf,madronedorf,2qq9u
"CGI blood (especially for bullet impacts) is a pet hate of mine - done well squibs look amazing and don't really age visually. Whereas unless you are a real pro at CGI, blood splatters immediately look fake and distracting in every action scene. One of those prime examples of CGI overuse given it's not technically difficult or more expensive to use squibs, so why CGI?

In the same vein is insect swarms (or animals in general) - just use a horde of real bugs, CGI on that will look fake and date your movie in the long run. It is more difficult to get animals to do what you want but man is it worth it if all you want is a simple scene of an animal being an animal.",1UnitOfPost,93qsv,ditop8e,"> ""How did they do it without CGI??""

This question might sound silly to us old farts, but I've seen young directors* utterly blown away by the idea of using squibs on set to save on CGI costs later.  To the younglings out there, CGI is the default go to solution for absolutely everything.  In camera tricks are being forgotten.  (I was so happy when LotR used forced perspective to make Magneto look huge compared to the hobbits.)

(*This was a post-filmschool indie set, not a real set with seasoned pros.  I didn't attend film school, I just know how to hold a cable and hang out around craft services.)",ditjcwb,kyleclements,4gzpg
"Hmm I assumed it was a vite 5 or nothing, I'll give it a go with her on the team",1UnitOfPost,93qsv,dilq7xa,That should be enough sd to get it to take at least once between now and the end even with a 4 vite dusa. She swings from a long way away.,dilpsh1,cloakingdevice,5dly1
"I've got 1x SD4 set and 4x SD3 sets available atm.

Starting to think I should wait for a high SD skill to come along and dump it on Druid just for this AD",1UnitOfPost,93qsv,dilpdg8,How much slow down do you have? Crests or otherwise.,dilowf0,cloakingdevice,5dly1
"Damn, best I can do is a Dusa vite 4 atm",1UnitOfPost,93qsv,dilonlq,"Yeah. I'm trying tonight without her though, hopefully I can get the slow to take.",diloh8r,cloakingdevice,5dly1
Is that a revit 5 Medusa?,1UnitOfPost,93qsv,dilnn1r,PD/Cupid/Druid/BT/Trixie/Dusa all with sd crests except Duke. ,dikneeo,cloakingdevice,5dly1
"I thought so too for a second, and turns out it still kinda works:

Robin Hood Prince of Thieves

Red

Unforgiven",1UnitOfPost,93qsv,di0doo6,I thought for a second you spelled Morgan Freeman like an idiot. Turns out the idiot is me.,di03fyk,Onlyusemifeet,10w777
Zoomed in Kodiaks lol,1UnitOfPost,93qsv,dhp7qg1,"I do wonder if this broadly indicates that clan players, who are presumably the more long term players, are more aggressive and may hit team mates faster?

Of course there's also the fact that Clan mechs tend to go faster in general making it slightly more difficult to avoid hitting team mates?",dhp6oh6,Zoeff,94d46
"Yep its the tits - even at 3/4 win rate you're probably at least matching public, most of the time it comes down to a single corner anyway which may as well be solo. This at least gives you control over fixing anything that causes a loss.

Not to mention dodging those wait times - now if only we could reduce/turn off the start timer in solo (don't really need 20s)...",1UnitOfPost,93qsv,dhp1rvj,"I tried this today... omg, so much better.   I succeeded 3/4 times (PD in middle somehow got out by himself and killed on #4).    Even if it was win rate wasnt as good, just not having to sit there for 10 minutes a pop waiting for 3 other people who are not afk makes it worth it.
",dhomtz0,jsreyn,7amob
"Yeah I can't Devo him yet but even at Evo with just crested scatter 4 I've got no regrets slotting him into LR, WG3, etc.

Welcome surprise in those modes as ultimately I wanted him to crack ID 6-1 but unfortunately Evo just isn't enough yet...",1UnitOfPost,93qsv,dhnw3fq,"Yea i think I'm going to switch to maxing those next. My hero bases and walls are maxed, since I don't normally use towers in WG.

GF is a beast in HBM type modes. Scatter is top 2 talent on him.",dhnvrca,Mr__Perfect_,14lpxh
"I did have DD in there before GF so only PK's scatter and was going ok, I'm just getting a feel for GF and a L4 scatter crest on him seems to be pretty good at having a scatter hero at both ends of the hero pads.

I started the solo journey about 2 months ago and have my Cannon Towers from 1 to 28 now (pads about the same but I already had them high lvl). The build times are short at least (expensive in terms of HB though when you get up there).",1UnitOfPost,93qsv,dhnvdm2,"Thanks for the info. That is a lot of maxed devos....but lots of scatter which i dont have.

Yes cannon towers do seem to be the go when solo. unfortunately mine are level 1. i guess i will get there eventually.",dhnuu3d,Mr__Perfect_,14lpxh
"I replied below with my setup, its a bit OTT than is required but going up to WG IV is not really an option.

Note no LN or HB (I have both but only recently so not ready), it's still doable it is just what success rate you are willing to accept. My current 4/5 wins is good enough, I often didn't get that in public games given all the terrible setups of some randoms so it works out.",1UnitOfPost,93qsv,dhnt8cl,"I would also like to know the answer to this. I've been trying to get WG2 done solo since i fail that in pubs sometimes because of idiots with SK/DD stalling the demon. And i also can't get runs done with my guild every day.

Would also be good to get a team which can solo WG3, so we know what to train towards. As a rule from what I've seen people solo WG3 with (when they carry me), LN and Heartbreaker seem pretty essential for it.",dhnipm3,Mr__Perfect_,14lpxh
"My Smurf has no Ghoul (subs in devo Druid) and can comfortably do WG II. It -can- do WG III but its pretty much 50/50 success rate so I often just do WG II instead as it is guaranteed returns.

Honestly one of the big differences I think between my main on WG III and my Smurf is that high scatter PK, without one on my smurf it is much harder to shutdown the final demon and therefore lose the run. It is worth it to invest in one high scatter hero (PK an obv choice) as they pay off in this mode as well as the more important HBM III when you get there.",1UnitOfPost,93qsv,dhnssrk,"Good to know, but I'm not nearly there yet. Just got my first devo (PD) today. Doable with just Druid in for Gholem, though? Still don't have one",dhnquk6,msx_asdf,mijgw
"Tell me about it, it's so much nicer an experience solo.

I'm currently running (wins about 80% of the time depending on spawns):

* 200EE SB
* 200EE Ghoul
* 200EE PD (zerk)
* 200EE Cupid
* 200EE PK (with 7/8 Scatter for the demons)
* 190E GF (he's new but I've been running him with scatter too)

I'm working on a new Mike atm as most of the time when i lose its because of an unlucky PD death and thus not doing enough DPS to finish the final demon.

Obviously that's a lot of maxxed devos (its pretty much my ID5-10 team so I invested heavily in them) but you probably don't need quite that crazy level if you have the right hero combos. My Smurf is similar but with more evos etc and can do WG II comfortably, not quite 50/50 on III yet tho.

Base setup is simply 6 pads surrounded by max Cannon Towers (Cannons are actually better for Solo as they clear all the minion waves really fast so your whole team can focus the demons).
",1UnitOfPost,93qsv,dhnj0ch,"What kind of heroes do you need for 3 solo? It's infuriating to try and join randoms between the weak tower bases as above, people that join and just sit still, etc",dhni0mt,msx_asdf,mijgw
"I'm with you, all this really made me realize in the end is how much the original music is essential to the feel of Neverending Story.",1UnitOfPost,93qsv,dhd43zd,"Great remix, really well put together. I really enjoyed that.... 


Unfortunately, I have to dock you all your points for not incorporating the theme song... you lose, good say sir.  ",dhcsj92,GRVrush2112,9b5ki
"Yeah co-wrote and produced - I have this feeling given it came out when M.Night was tanking hard that he wanted to do the film but kinda new if he directed it would get too much negative attention before it even aired. So he let John take the helm etc.

The opening shot with that music is such a great intro, really well done.",1UnitOfPost,93qsv,dh9ncep,True. I should of been more specific. Night wrote the story.  ,dh9b82j,Analtoast,87rok
"I had her crested scatter (Devo skill 8) and used her in place of vlad right up to AE. 

Probably important to note I had her alongside a PK with scatter 7/8 though so he is doing a lot of the heavy lifting scatter-wise. Also a devo SS DD, but no Ghoul only Druid so was hard mode a bit (finally got GH a week ago and now on AF straight away)",1UnitOfPost,93qsv,dgw3mns,I was trying HBM AA with scatter sk and i get to round 5 almost always? Think if i use TT and crest scatter? I might get it? She is devo skill 7 6 BW,dgvjjgm,gwisz,13fq2o
"Interesting idea, my smurf (SK but no Ghoul) is currently struggling to 3-flame 5-10 might be worth a shot",1UnitOfPost,93qsv,dgw3gsf,you could use champ to permastun those SKs in ID 5... I 3 flammed a couple of dungeons in ID 6 using Champ...,dgv2pis,cc_danny,zacq4
