child_body,child_screen_name,child_user_id,child_tweet_id,parent_body,parent_tweet_id,parent_screen_name,parent_user_id
"Well your game sucks. I found another to waste my time on. Between losing perfect skins, not being able to find them, and lack of time for grind required for simple rewards, I couldn't keep playing.",aaron0000123,lak1h,fl5xmrc,"That’s not what I’m talking about.  At level 460+, I know how my horses are supposed to behave.  This changed when they made a patch that “made horses easier to ride and not run into things.”  You can look at some more recent patch notes that talk about, “preventing horse stopping when next to a player.”

They fucked with the horses and it sucks.",fl0dlau,Redmanabirds,xc14t
Oh OK that makes more sense.,aaron0000123,lak1h,fl1kjaf,"What he did was steal a trailer and use it to run freight.  The freight was legal but the trailer was stolen.  As in he was authorized to move the freight.  

He probably figured no one would ever figure out he had stolen it.  But modern trailers have one or sometimes 2 gps units hidden on them. Then our truck has a GPS.  The owners probably gave the tracking info to the police and they literally just followed it on the computer.",fl11mw4,truckerslife,fn43d
I use the Arabian. Even though it easily gets scared of predator I never have to worry about it misstepping off the track. And I almost NEVER hit trees. It swerves to miss them 4/5 times. When you use the kentucky saddler or another cheap horse they tend to fall over rocks and hit oncoming vehicles more often.,aaron0000123,lak1h,fl0vdxy,Some examples for best/worst?,fl067u0,SavageTurtle22RDO,5sj5bu2h
Your horse handling and behavior changes based on breed.,aaron0000123,lak1h,fkzscv9,"My horse randomly decides to veer from side to side on roads now.  That and the persistent trot mode really killing me.

I can handle a lot of the bugs this game has to offer, but when the horse starts going, it’s easy for me to just play other games.",fkzj696,Redmanabirds,xc14t
My life hasn't changed except I am paying attention to the things I touch and washing my hands more often. I stay at home in my head anyway.,aaron0000123,lak1h,fkwbve0,We're gonna find out who the REAL introverts are real quick.,fkw9wc7,ProtonCanon,2kpldjkj
Weekly tutoring helped me the most in college. Also trying to be a week ahead. Read the next chapter before classes. You can get a good deal on student loans. The trick is paying them off asap.,aaron0000123,lak1h,fkq2vce,I’ve done my share of warehouse work that’s actually what most all of my jobs have been. That’s what I’m looking for and I’m waiting on a few call backs. I just need to be able to finish my degree but it’s too expensive and it’s only my associates. I just never had the money or the grades to get into a good enough school.,fknxuuz,WhoaItsCody,eyyjd
Didn't really bring the chicks. Just a better sense of balance than most.,aaron0000123,lak1h,fkpc4tf,That was my dream guy when I was 12.,fkofmzu,wino4eva,9hkds
But my first song was Back in black.,aaron0000123,lak1h,fkpc2fx,"""You got credentials for that swooshy hair?""         

""I can do a kickflip and play the riff from Smoke on the Water.""    

""Checks out. Move along.""",fkoe2v8,HighestHorse,qt9z3
I went to one festival and realized I would rather walk a half a mile to my tent than try to sleep listening to fucking riddim at 4am,aaron0000123,lak1h,fko6k83,"Reminds me of one year at a festival when we camped next to the fair ground rides because there was space (there was a reason for that). No matter how many drugs you take, listening to that shit 24/7 is like some Guantanamo bay levels of torture. 0/10 do not recommend, fuck those neighbors.",fklz7kf,ELTANK01982,timrf
This is why i started skateboarding and playing guitar. You can't have the swooshy hair without knowing these two basic skills.,aaron0000123,lak1h,fko4g4m,My worst fear was to be called a poser.,fko2tyt,wino4eva,9hkds
The pile is for mis-cuts. There is a conveyor behind those rolls,aaron0000123,lak1h,fko46mv,I was thinking same thing like why ain’t the pile growing lol,fknhfmz,fullbore420,2jysl4fc
While you are staying there get you a factory job or something. They usually pay well. It isnt impossible to get out if a rut. I smoke weed but buy upass and microwave it without the lid for 8 seconds then use the handwarmers. Stays temp for almost 2 hours. There is always a way man. Keep your head up and stay searching,aaron0000123,lak1h,fknx4na,I literally mean I have no money and was a day away from being homeless until my brother decided to let me stay here for a bit.,fknnwfb,WhoaItsCody,eyyjd
*Narp*,aaron0000123,lak1h,fklzt2r,Narp :(,fklyxvb,alabasterwilliams,hcocc
Yeah i have had one here and there. Nothing un-normal to me my sinuses are always clogged.,aaron0000123,lak1h,fkjhqe3,"I had the same symptoms on Monday. I had ate out at a crowded restaurant on Saturday night, stayed home Sunday, woke up Monday with a dry scratchy sore throat, same thing as you it felt like I hadn't drank water all night. The sore throat lasted through Tuesday. Then Wednesday-Thursday I had a runny/stuffy nose with a minor cough. Today I feel almost completely better. I think I just caught a regular cold and that's probably what happened to you too. There's definitely a common cold going around too in addition to this virus. Even Trump yesterday during his announcement it was obvious he was sick with a cold too, but he tested negative for coronavirus.

Edit: If you have a runny nose it's likely just a regular cold.",fkjdabw,michiganrag,3g6c1
Really cool troll comment I'm gonna steal it.,aaron0000123,lak1h,fkioin8,"What do you mean? Nothing here indicates that that’s the border or that this is even anywhere close to those countries. It could just as likely be in a far terrain that also half resembles Mt Everest which is where you can go if you instigate the inclination of willful ignorance in relation to a 1080p monitor. If you don’t have good evidence to back up your claim, then why are you commenting this false information here?? I just find this comment appalling, the comments section of this thread is appalling, the drugs killing our youth is appalling. You want to talk about the Canadian border? Well let me tell you a thing or two. People are to worried about the feelings of illegals. What about the feelings of parents who children die because of the drugs the cartels poison our populace with? No one seems to give a shit about that, they just seem to give a shit about a political agenda. I say build that fucking wall and make sure we build a higher one on the Canadian border. They build one for the Israeli border and it worked wonders. No more bombs going off in the middle of a family reunion or in the middle of an ice cream shop full of kids. Think about this.",fkio3g9,YouSeeWhereBradAt,1bsg2n51
His dad wasn't a nice person.,aaron0000123,lak1h,fkio0on,What is wrong with you,fkint0w,tofu_tot,130r5ifc
I feel like we are on the same side but the internet has taught us to argue about trivial shit. Yo mama can eat at my house anytime.,aaron0000123,lak1h,fkikztw,She worked two minimum  wage jobs...if you are going to have a family do what you have to to support them period,fkiksnb,Zombie-Koda,5cwxi4b6
"People do not understand that MAGA, for someone who doesn't support our president, is basically like rubbing the dogshit you stepped in in your face to make sure you knew it was dogshit.",aaron0000123,lak1h,fkikssb,My favorite is all the MAGA hats calling this socialism on FB. Like do they even know what that means.,fkiik1m,jojofroyo,7xf56
Your mom grew up in an age where you could work a minimun wage job and have enough to do those things.,aaron0000123,lak1h,fkikjl8,My mom had me and my two sisters so yes yes you can she worked two jobs and raised us,fkik342,Zombie-Koda,5cwxi4b6
Until you have to do the same....,aaron0000123,lak1h,fkik9xc,Its exactly  that simple,fkik5d9,Zombie-Koda,5cwxi4b6
"Companies can buy out other companies and form monopolies to raise prices all the time. That is what happened to the insulin drug market. This guy shouldn't be allowed to make much if a profit off of these products, but he legally can. The way the people on this post feel about his morals is crazy considering this happens everywhere all the time but hidden behind the name of a brand.",aaron0000123,lak1h,fkik80p,When do companies do this?,fkiiicf,vewfndr,36vfutl5
What about single moms with 3 kids? You can't really be any better at managing money than earning $280 a week feeding 4-5 people.,aaron0000123,lak1h,fkijt2m,Be better with money is how ...like i work hourly and am able to afford everything i need,fkihzjq,Zombie-Koda,5cwxi4b6
Capatlism is money over EVERYTHING. The second coming of Jesus could happen tomorrow and the rapture happen but a company would ask that their employees come in or risk being fired.,aaron0000123,lak1h,fki9pbz,"Stores are contributing to this madness by allowing it in the first place. They should have put a purchase limit on those items immediately. Clearly the stores were going to make a profit regardless judging by how many people need toilet paper. It's a hot ticket item regardless of a pandemic or not. Meaning, it sells regularly. Just like my bowel movements.",fkhk70l,EnclG4me,wut8r
You are someone I do not want writing policy and laws,aaron0000123,lak1h,fki897c,"We need this in the US.  Combining the questionnaire, test results and tracking with some machine learning (AI) is likely the only way to contain the virus.",fki3g06,dnbreaks,owh168q
Don't be friends with me! I sold a dimebag to my cousin 6 years ago. You never know when I might rob someone...,aaron0000123,lak1h,fki1p5g,It'd be nice if they had a drug offender registry.  Be nice to know which of my neighbors I should prioritize being friends with.,fki1hzr,ChrispyK,5n0xo
"I try to run to the center of a crater as soon as it is made and just hop explosion to explosion. Statistically speaking, they shouldn't hit two in the same spot.",aaron0000123,lak1h,fkhw9zm,"I still haven't been able to determine if it's better to stay put or try to run, if you're caught in the middle of an artillery strike in the open.

running usually does me in",fkhrn3x,chronico3d,48sd5rle
The game has been broken since launch though... How long do we give a game after release until it is fully playable and in its final form?,aaron0000123,lak1h,fkbl1it,"I gotta disagree with you about R* “not doing anything to fix it”.  This is a company that is currently rolling out minor to major fixes and updates to both of their games on a weekly basis.  Just because they don’t communicate that they do this doesn’t mean they aren’t doing it.  

Yes, the game needs fixing.  Will it happen overnight? Not likely.  Will it happen within a week? That’s the plan, but it doesn’t always work out that way with bug fixing.  It’s obvious they did something to try and fix the problems but if you know anything about programming you’ll know that for every bug fix you make you create 10 more bugs.  When GTAO started it was a buggy, awful mess and was that way for a couple years even.  It gradually got better, but it took them a lot of time to do it.  This game will be no different.

So understand that your entire role in this is to play and be patient or you can just quit playing and find something else that doesn’t irritate you as much.",fkbkczi,DoctorBadger101,eam0t
Go to the AA gun and get busy,aaron0000123,lak1h,fkbdvfo,I'm more bothered by being permanently spotted.,fkb4y42,Laphroaig_GB,3z5rxqx5
Use your ears.,aaron0000123,lak1h,fk8rxk4,Footstep tracking? What?,fk8fzp8,Qwikskoupa69,16lk1r
"The west side, yes",aaron0000123,lak1h,fk8gvry,"> Floribama is a real place here in the States.

Georgia?",fk8ep5v,BigOl5Head,4extl43v
"My uncle writes the newspaper every week to gargle his Fox News edumucashun and mentions something about ""Tides gonna roll tomorrow"". I imagine the tide is just a bunch of obese people on disability on their power scooters going to disrespect waitresses and cashiers after church before they go home and roll a bowl and drink a case of beer.",aaron0000123,lak1h,fk8gokw,"Nah, that's only if you give a fuck about UoA sports. But I can definitely see people here yelling that as they get arrested for public urination or some shit.",fk89n3m,TransientMovement,3bsrp8gt
"Meatloaf, cornbread, pinto beans, mashed potatoes, pork chops, macaroni casserole, chicken and dumplings, pecan pie. There is a complete meal for yuns.",aaron0000123,lak1h,fk8g8lt,"I'm not American but I've been messing around with some southern recipes lately. Thank you for naming the mayo sauce, I googled a recipe and it looks intense. If you wanna name any more southern things I should cook and eat that I probably don't know about, I'd really appreciate it.",fk8feen,harrypottermcgee,40flvgo0
It is. I live next door.,aaron0000123,lak1h,fk8fxji,"Backwards, rural, incest 

(Not saying this is actually true)",fk7smrr,olde_greg,g6ihj
I disagree. I understand that our lives could be incredibly worse without the wars that have been fought. It is like having the biggest bully as a brother. We are safe.,aaron0000123,lak1h,fk7uxdy,Wars have always been utterly pointless if you think about it...,fk7q6o0,garybusey42069,a8t6t
Professionals love having their feelings validated.,aaron0000123,lak1h,fk7u84u,"I work in HR. Someone blasts a naked photo out to a bunch of coworkers it's going to lead to a disciplinary result, if not outright termination. Way too much risk in someone complaining about sexual harassment. There's plenty of people out there who get off on non-consensual exhibitionism and this would fit that type of situation; it would be a serious discussion about next steps among leadership.",fk6wl9m,20sinnh,ehfojj3
I should have mentioned that as another main reason. A lot of Americans are afraid of muslims. It is just ignorance of the masses. The best thing to do it show kindness to everyone you meet. A lot of people remember you for the few nice things you do for them.,aaron0000123,lak1h,fk56dip,"It's fair to criticize her policy ideas, but there's no doubt in my mind that she gets as much attention as she does because she's a Muslim and a woman, that's what really riles up some people rather than her specific policies",fk4rlf8,lotusbloom74,9288k
"Brooklyn, NY?",aaron0000123,lak1h,fk562fc,"I pay 79.99 for 3 mb/s in Brooklyn through Verizon DSL , which is the only option in my building",fk4gfih,islanderre,30vttzpa
100 mb/s is the cheapest/only option.  Also the only decent provider.,aaron0000123,lak1h,fk4zceb,My package is like in the middle of all the ones offered. These are starting at 20 mb/s and for much cheaper.,fk4t3po,Zuggtmoy,gq5lv
You win. I should have known that.,aaron0000123,lak1h,fk4z1y4,"they're a Danish company, dummy",fk4vt0q,dat2ndRoundPickdoh,3omnhm6g
It doesn't take much these days... Let them fuck up paperwork one time.,aaron0000123,lak1h,fk4v6x3,"oh, i've never been in jail long enough to use the store.",fk4q5el,ZaphodXZaphod,6v6g1
Northwest Georgia mountains. I suppose we could get windstream. But they have THE worst customer service I have ever delt with.,aaron0000123,lak1h,fk4v4ct,"I pay 45/mo for 400/20 from Spectrum.

Do you live in the boonies or something?",fk4q9zb,ClearlyBanned22,sc7tr
You are implying that 6600000 reddit users will see your comment.,aaron0000123,lak1h,fk4rwxc,98% of redditors won't see this comment.,fk4p9cs,AdmiralDave,z6v9
Murica. It is $70 or no internet.,aaron0000123,lak1h,fk4owyz,"I'm paying 34 PLN (less than $10) for 50/15 mb/s here in Poland. Damn, hope our prices dont skyrocket like that anytime soon.",fk4otjz,Zuggtmoy,gq5lv
I meant the store soap. I was forunate to have a lil store money. The jail soap made my skin dry and peel. Head n shoulders is terrible for your scalp and they want to make you choose between that and whatever the fuck they're callin shampoo.,aaron0000123,lak1h,fk4osvg,"i've never been to a jail that had a brand-name soap. all prison labor brands, all the time!",fk4mb73,ZaphodXZaphod,6v6g1
They could have spent millions lobbying congress to legalize hemp...,aaron0000123,lak1h,fk4lmom,fun fact:LEGO invests hundreds of millions in R&D in the search for an oil-free alternative to ABS plastic.,fjzvjdl,dat2ndRoundPickdoh,3omnhm6g
Sorry dude. 3 isn't enough for things like gaming.,aaron0000123,lak1h,fk4l9td,"I pay 79.99 for 3 mb/s in Brooklyn through Verizon DSL , which is the only option in my building",fk4gfih,islanderre,30vttzpa
That's the best deal you can get.,aaron0000123,lak1h,fk4l5f1,"New customer to them a few months ago, 44.95/mo @ 200mb/s.

And I feel like that's not even a good deal. It's an ok deal but not great. Luckily it's just me as far as bandwidth is concerned.",fk4jnrp,Geldtron,d8uap
I have been playing since release and I am still upgrading my guns. Maybe I just suck.,aaron0000123,lak1h,fk4e4rd,"I got 30k from grinding during March break, I guess I’ll have to make do with shit tank customs and shittier gas masks",fk3y4kf,FactoidFinder,3prr2qqk
Yes,aaron0000123,lak1h,fk4e1c0,Question. Do these cost real money?,fk4bd5e,arandompeeper,5idj7sxj
I'm paying 74.99 for just internet through spectrum. 100 mb/s,aaron0000123,lak1h,fk4bvz2,"Oh yeah they throttle you. Xfinity offered me this when I signed up. Prices may have changed since.

Basic internet - $49.99: Which is too slow for streaming or gaming. 

High speed - $89.99: Enough to do what you want it to, but you still experience lags from time to time.

Blast - $95.99: Fast enough to do everything with no lag and it only costs a few dollars more than high speed right?

So basically they made it so your only option is to get the most expensive package. Because pretty much every household streams/games nowadays and what’s just a few more dollars to avoid the lag?

Edit; After all fees and taxes are counted in, my bill for just internet is right around $125 a month. And of course there’s no other provider in the area.",fk4aa1c,The-spaghetti-bandit,5mososcq
This is a statement.,aaron0000123,lak1h,fk2w44t,We live in a society,fk2ktyz,azuresegugio,351dflw7
*MURICA*,aaron0000123,lak1h,fk1v171,"I doubt they’re testing the public. Don’t test, then you get 0 cases.",fk1tj4c,buchlabum,1rrndi8q
I bought that fuckin game and didn't have internet. Without internet you can't change your origin status to *offline*. So I couldn't play in offline mode for months.,aaron0000123,lak1h,fk1dqx9,Oh what could of been.,fk05la5,thatsortofguy,mha3l
Yeah after about 3-4 people I didn't wanna break someone's little finger.,aaron0000123,lak1h,fk1b41z,"Those  were fucking wild. I tried one on myself once, and it hurt like a motherfucker...",fk16n91,TheShadyPowerPlayer,24ybm7wd
Don't mention simcity I'm gonna cry.,aaron0000123,lak1h,fjzttzd,"Keep reminding yourself!

They destroyed C&C, SIM city and dead space to name a few.",fjzqgeu,thatsortofguy,mha3l
Would love to see another star wars rpg like on the original xbox.,aaron0000123,lak1h,fjzhpwt,EA definitely don't do quantity with Star Wars. I hope that changes soon as I'd love more Star Wars games!,fjzf2ei,DittoDat,11kixb
Nicceee,aaron0000123,lak1h,fjyqs0b,Nice,fjym2pj,erect_asshole,4kmwdo1e
"I say go to the police because the longer you wait, the less likely they are to believe you. I know it sucks but our Justice system is far from perfect.",aaron0000123,lak1h,fjyqjjc,"While I agree with the emotional trauma/headfucking and that this is the ideal course of action, it may be a difficult route for OP. Police may mean job loss as retribution, which may make therapy prohibitively expensive.

Does anyone have any links for nonprofits for OP? They may be a great resource for support through the aftermath of the assault.

I’m not discouraging going to the police if OP is comfortable, just pointing out that additional resources may be needed

Edit: I found the national hotline with a multitude of resources. Hopefully they are helpful.

National Sexual Assault Hotline (24hrs): tel:1-800-656-4673

OP please call. They will be helpful with processing what you went through",fjyqf0r,Shutinneedout,3o68wtry
I would too if I had money.,aaron0000123,lak1h,fjy64v5,Having a degree does not denote intelligence though. Lest we forget that Bush Jr had a BA from Yale and a Master's from Harvard.,fjy5v1s,Dhaerrow,he101
ITS NOT OK YOU GUYS ARE FUCKING GROSS,aaron0000123,lak1h,fjy5mpx,You too. Maybe we'll meet in another thread. Until then 👋🏾,fjx1cp9,13Ferrari,5jdmnv6s
You are an absolute idiot for trying to use math as an argument for having sex with a relative. Please just do like the rest of us and at least try not to fuck up the gene pool.,aaron0000123,lak1h,fjwsjmq,"7.9 billion of those ill never meet, 7.96 I'll never speak to,  and 7.99999999 I won't get the chance to have sex with so 🤷🏾‍♂️ I'll take what I can get",fjwsd3a,13Ferrari,5jdmnv6s
That is gross. There are 8 billion people to choose from.,aaron0000123,lak1h,fjwrevz,"I never have but I gladly would.  Just the thrill of fucking someone who ""you're not supposed to""",fjwqomx,13Ferrari,5jdmnv6s
*Me neither*,aaron0000123,lak1h,fjwraah,I don't know what you're talking about,fjwnyvk,the_blessed_hermes,5uvtiwmz
"In order for this to work, you need another account to answer yourself.",aaron0000123,lak1h,fjwr7y8,"Wash hands, stay at home as much as possible, don't touch face, drink plenty of water. Don't Panic.",fjwqk0g,Littleluck_s,5tuuxulf
Yes,aaron0000123,lak1h,fjwpmq1,"Are there that many bots? Or do you mean not real in the sense that, while technically human, they're just mindless drones selling out for orange arrows and meaningless awards?",fjwouwl,the_blessed_hermes,5uvtiwmz
"I, too, was forced to take my shirt off and let an old man touch my back in the boys locker rooms in 6th grade.",aaron0000123,lak1h,fjwnmiv,You know the ways of the scoliosis,fjwnisc,thePHIL17,5jiyk90o
You love being right. But you aren't.,aaron0000123,lak1h,fjwnh3k,You are the moderator,fjwmzxw,thePHIL17,5jiyk90o
"Oh shit where? Should I hide? What are laws even, but one man's will to control another?",aaron0000123,lak1h,fjwmxwn,We have found the moderator,fjwmgra,thePHIL17,5jiyk90o
I'm gonna pop some tagssss,aaron0000123,lak1h,fjwlvpl,Wat,fjwgkp0,howdouhavegoodnames,41mrvqoa
I never said that... Once again you are reaching entirely too far and making a lot of assumptions. Go back to Facebook.,aaron0000123,lak1h,fjstkhl,"I'm not the one attacking someone for providing valid advise and screaming ""WE'RE ALL GONNA DIE"" like Chicken Little making it more likely that we'll not be able to respond to more dangerous viruses when they crop up.

Did they stop teaching *The Boy That Cried Wolf* when they stopped teaching Civics?",fjsslng,bonked_or_maybe_not,7qhz3
Might wanna get into sports with a reach like that.,aaron0000123,lak1h,fjsqhbg,"So, nothing short of literally welding people into their homes is good enough for you? Good lord, how have you survived the numerous flus in recent years?",fjsptap,bonked_or_maybe_not,7qhz3
"https://www.timesfreepress.com/news/local/story/2020/feb/08/summerville-water-crisis/515269/ I can't do anything but buy water by the gallon. Our county has neglected our water system and now it has chemicals from the local mill in it. Even though it isn't going to kill us, pregnant women and children are advised not to drink it. We have a sole comissioner who hasn't been spending our taxmoney wisely. The counties roads are crumbling. Except in front of the comissioner's house. Brand new road you could skate on.",aaron0000123,lak1h,fjrzkqj,Simple solution.... Don't buy bottled water. Every water bottling company and buyer is commiting crimes against locals and the environment. The whole idea of shipping water around the word is just fucking nuts.,fjqq8o5,Deadinsidesince70,3srly44z
"Do you want a trophy stating ""You are right"" because I'll go have one made if that is what it takes.",aaron0000123,lak1h,fjro212,"How is telling kids to wash their hands and to cough into their elbows dismissive? How is stating true facts dismissive? The flu has absolutely killed more people, that says nothing about action regarding covid 19. Sounds to me like they are just saying true things to try and stop people getting infected...

On an individual level, this is all we can do, you and I and our families. Avoid unnecessary contact with large groups of people, wash our hands and try not to cough at other people. What more do you want your superintendent to say? Quarantine all the kids, stop them learning? Cause mass panic over something that (although a concern) is not something to panic over?",fjrnuut,tiggerbiggo,7w6ja
They are just dismissing/downplaying it.,aaron0000123,lak1h,fjrn689,What would you rather they say? Teach kids not to wash their hands? Tell them to cough in people's faces? Should we just not say true things any more?,fjrmoel,tiggerbiggo,7w6ja
"No. I would have been the architect to build a tiny town. It would have, in fact, not been big enough for two of them.",aaron0000123,lak1h,fjrlfs5,"You're saying ""more cowboys would have fit if they were all miniature""?",fjppc5e,dharasty,uk4z6
I just learned this. I have also been here 5 years.,aaron0000123,lak1h,fjpniyg,It means original poster,fjpf8xj,scorpio1132,3ufjxfof
"WAIT, IT'S PROBABLY HAPPENING RIGHT NOW.",aaron0000123,lak1h,fjp04eb,That sounds more like a Wild Turkey on rocks party to me.,fjoz5jy,test6554,3cyya
We tried letting the banks fail.. Our government just takes our tax money and hands it to the criminals that caused it in the first place.,aaron0000123,lak1h,fjotu68,We need to press the reset button and just remove all Debt in the US. Theres always a big red button for these types of situations,fjombjx,Tico483,3bb1xa98
"Try the rural south. Occassionally we will get a few hundred people riding bicycles down the busiest roads in the county, but other than that the joggers go to the gym or stay home. Except my math teacher from 10th grade. *whew* GET IT MRS MARTIN.",aaron0000123,lak1h,fjotc5w,"I want to deny this but for the first time, I don't personally know any exceptions. I'm thinking of every US community I've lived in and damned if this isn't true.",fjnrdzg,JennyBeckman,8ji0w
No,aaron0000123,lak1h,fjora34,"0:05 Was he trying to yell ""Allahu Akbar""?",fjocl04,Nicholas7907,17dh4g
I guess the viewpoints change depending on how you view life after death. Which is why none of us can be the real judge as to what is right from wrong.,aaron0000123,lak1h,fjooq29,He did for seven decades,fjom95n,MacDerfus,p3awr
It is between him an whatever lies beyond death. Trust me when I say he *is* suffering. Probably has the entire time. If not then he will regret it soon enough.,aaron0000123,lak1h,fjom56d,I am happy there will be recognition of what he did and he will have to face it. But he got away with it.,fjoknzu,sock-nose,1owqd82f
He still has to face what he did in this life. He didn't get away.,aaron0000123,lak1h,fjohzur,"I mean he did this in 1945 and it's 2020, seems like he got away with it.",fjodv1d,sock-nose,1owqd82f
Yeah you should check the app permissions. Flashlight apps used to steal people's info and sell it.,aaron0000123,lak1h,fjobkes,My missus has an app that tells her when she should go to sleep. Winds me the fuck up,fjo5zkp,gasrovers,2p57a4ou
That's like asking why have sex when you're broke. You are more likely to have an unplanned pregnancy when you aren't financially prepared. Having a child requires a certain standard of living that we don't often meet when living without one.,aaron0000123,lak1h,fjoaxle,Why would you have a kid if you can't even support yourself?,fjnys8b,mjxii,4iza4
"I quit after a year of college because I couldn't even get enough loans to pay for it. My loans are almost paid off. I have always drove a cheap Honda that I pay cash for. My only bills are: Phone, internet, car insurance, and power. The water is shared with the property. Since this place will become a rental property when I leave I do not have rent. The problem is the two places that pay over $10 an hr and employee a decent amount of people are laying everyone off and slowly closing down. We are having a lot of problems with water quality, the roads are falling apart, and a lot of younger people are doing drugs and not even working(education problems all over). But we have this really cool newly renovated train depot and turntable that gives our town almost the opposing image of what it really is. There is a sole comissioner for 30,000 people and it is becoming a terrible place to live. You can't make enough by yourself in this town to hope to buy a house. Working out of county is the road to success. I haven't had health insurance a day in my life. Also never needed it(lucky).",aaron0000123,lak1h,fjoa0b2,"So do you not pay rent since you live in your parents property? Do you have student loans or car payments? If not, youre in a really good situation to invest and save a lot of money.",fjnym9q,Beach_pls,kqx2c
A LOT of people in northwest Georgia are doing what I did-buy a shed from lowes or home depot and turn it into a house. Sucks not having room for things like a nice couch or a kitchen table.,aaron0000123,lak1h,fjnxucq,This is what I fear. One incident and it can derail my life financially. I wish to not worry about this in the future.,fjnwrie,Cynaren,zkr5b
You reaaalllly aren't helping the case for better quality of life. One medical emergency or car wreck would put other people on the street in this position. Luckily I live in a tiny house on my parent's property. I also said per capita.. Lots of people make like 20k a year and have kids.,aaron0000123,lak1h,fjnuilq,And that's actually a decent wage.,fjnsyia,Drum_Stick_Ninja,iqyuo
I climbed the backside of the mountain and glitched out the greybeard quests by jumping all the way to their courtyard. I couldn't get the gate to open by shouting because I skipped lines of dialogue.,aaron0000123,lak1h,fjnu9fr,who also  used the horse to climb mountins in skyrim because it can walk 85\* + without problems ?,fjnfb20,justarandomjuser,5gkhyx02
You just changed the game..,aaron0000123,lak1h,fjntpxt,"There's a setting for that, you need to turn off Loadout Mirroring.",fjnqdv8,BleedingUranium,jjxkn
Que Orange County Chopper Meme.,aaron0000123,lak1h,fjnsqk6,"Why do I need arguments, to explain what disturbs me? It is like ""I NEED ARGUMENTS WHY YOU HATE RAISINS"". Also, you said that ""You are spotted"" should stay because of teamwork without voice/text chat. How the fuck it is supposed to work? No one knows that you are spotted except yourself and enemy watching at you. How it helps your teammates?",fjn4s5y,WEZHNOWECZ,5rdrmy0i
And plane spotting. Those are the worst.,aaron0000123,lak1h,fjnsj45,Isn’t it still just the scope and flares?,fjnm5fb,commander-rob,5q7qf6ew
"Used to be quite a stag like you, then I took an arrow to the rib",aaron0000123,lak1h,fjnrzq3,No lolly gagging,fjn25j8,thegroucho,y91gq
"*Laughs in $40,000 average annual income per capita*",aaron0000123,lak1h,fjnqo6w,the question was I wonder how wealthy ops parents are. In Alabama a 450k house might be expensive in relation to other houses in the area but you don’t need to be “wealthy” to buy a 450k home.,fjnpcle,Besieger13,11pdto
I blow and pick my nose in the shower every morning. It keeps my sinuses unclogged. I never have to blow my nose during the day.,aaron0000123,lak1h,fjnllh1,You *can* also blow your nose into your hands and then wash them.,fjndr5l,Kempeth,m2a51
Check your router. If you have had it for over a year call your service provider and tell them you game often and you need a new router. Threaten to go to another internet provider. They'll send it. I seen a major improvement in my connection speeds. My old router couldn't handle 50-100 mbs without stuttering.,aaron0000123,lak1h,fjkpua6,Still wish i could play the game without high ping and my internet is great,fjk397y,UnknownEdditor,49fe0sfl
If you gotta fart... Always think twice.,aaron0000123,lak1h,fjknytq,I'm still young... And I have always hated even pooping in public. I don't doubt though that my day will come,fjknli2,ismypenisokay,5usp22ss
🙄 OK just do whatever you want.,aaron0000123,lak1h,fjkm0ml,"You're confused thinking you come from any place of authority to govern me. We're suppose to be able to exchange ideas and values if we so choose. If anything, I think we're suppose to agree to disagree. Outside of that, nothing is owed.",fjki6fy,GreatBayTemple,u97le
I am just laying out what marriage is SUPPOSED to be. Maybe being raised in this world has got people confused.,aaron0000123,lak1h,fjkgwrl,Who tf are you to tell me what reason i need to get married?,fjkgpw1,GreatBayTemple,u97le
Aaron0000123,aaron0000123,lak1h,fjkgg56,Who are you,fjjdxwm,Roulbs,izcx8
If you are going to marry for a tax break you shouldn't get married.,aaron0000123,lak1h,fjkg67a,Its definitely for the tax break.,fjkehfk,GreatBayTemple,u97le
