child_body,child_screen_name,child_user_id,child_tweet_id,parent_body,parent_tweet_id,parent_screen_name,parent_user_id
Sir!?,Abchid,yduvz,fl3t05m,"Also, Aaron Burr, a raging bisexual",fl3m3d7,webbiejones,176hg7u4
"Quién dice que tienes que aprender la materia que te van a evaluar. Métete a páginas de cursos online, como Coursera o Khan academy, y haz alguno que te tinque. Te recomiendo revisar las secciones de programación porque por lo general no se ve nada de eso en el colegio y puede que seas buenx y no tengas idea",Abchid,yduvz,fkozbi5,Pero como se que estudiar (voy en tercero medio y no tengo idea de la materia),fkop5t3,alvaro34,54xrx8or
">Simple, para no darles un cheque en blanco 

¿Al pueblo?

>Y otra razón bastante más simple y personalmente mi preferida, para no hacerles caso a los imbeciles que la piden AKA los políticos, como por ejemplo, Navarro, Hertz, Quintana, Vallejo, Jackson, Boric, y todos los otros vagos

La razón de cabro chico. Ojalá no seas votante",Abchid,yduvz,fklx39v,"Simple, para no darles un cheque en blanco 

Y otra razón bastante más simple y personalmente mi preferida, para no hacerles caso a los imbeciles que la piden AKA los políticos, como por ejemplo, Navarro, Hertz, Quintana, Vallejo, Jackson, Boric, y todos los otros vagos",fkleq6i,soyundorito__,yxr1i5a
"Weon, cómo se te ocurre echarle la culpa a la gente de China porque a un weón se le ocurrió comerse un murciélago. Es como echarte la culpa de que Piñera se haya comido la pizza el 18o. Son weas total mente no relacionadas",Abchid,yduvz,fkh9uv1,"Quizas son tan estrictos porque se sienten culpables, cosa que en parte, si lo son.",fkg0x0x,kingdraven,e33ko
"Cualquiera que esté relacionado con la carrera médica de Allende lo sabría, cerebrito",Abchid,yduvz,fkc3knd,"""Existe la cura contra la homosexualidad"" -Salvador Allende

Un zurdo mogolico de /r/Chile llega a leer esto y le da un infarto.",fkc339k,juanme555,hd8yy
"Si piensas que está mal que le hayan quitado la ropa por robar un teléfono, dale, cosa tuya. Yo no dije nada, no emití ningún juicio, pero me alegra verte pensando algo, que a veces sí que te falta",Abchid,yduvz,fkbytzh,ay noo que alguien piense en el pobre delincuente! el es la verdadera victima!,fkbvvk3,maximun_vader,3rlk5
Y por robar el teléfono le sacaron la ropa?,Abchid,yduvz,fkbv69v,¿Qué ocurrió? Al flaite se le ocurrió robarle un celular a un adolescente... Justicia divina…,fkbia2n,AndresReyesDev,5n7m9tav
"Como siempre, sin argumentos y saliendo al tiro con violencia 😘",Abchid,yduvz,fk98fbp,"Fue aquí? No lo recuerdo por lo general me agarro con el otro troll, pero si queris una saca de chucha de verdad, avísame",fk98aet,Mak_27,3fe1f1rt
"Look, ir you truly cared or if it truly was a problem (people calling bullshit of your religion), there could be a social movement trying to protect the religion liberty that you have.

 Yes, I agree. Your point is completely sound, but it's clearly not the same. People aren't being bullied for being religious, or at least not massively to call the need for a law to protect your rights.",Abchid,yduvz,fk92rba,"You can tell me my religion and wrong and suggest I change it but you can’t force that. The same goes for being gay, you can tell them that their wrong and suggest they change their behavior but you can’t force it. You agree yes?",fk3q4dl,TheBlazingFire123,17amzd
"Amigo, usted no aprende. Aunque parece que desde que le saqué la chucha en un debate aquí y borraste todos los comentarios, parece que sí aprendiste a dar puros mensajes bien blancos y amarillos, sin mucho peso o algún mensaje, porque nadie te banca",Abchid,yduvz,fk929cs,"dignidad, dignidad, dignidad, quememos metros y saqueemos supermercados",fk7oz9k,Mak_27,3fe1f1rt
En volá cuando cierre Carabineros se junten como la u y el colo en las marchas,Abchid,yduvz,fk8x11l,"Habia un rayado que decia : ""pako perkin, no te alcanzo pa salir de cuarto medio...""

Y bueno, que yo sepa los anarkos que rayaron eso andan por ahi nomas poh....

van a terminar siendo amiguis",fk8jerd,ozzraven,3uyv2
"Because it's the same as telling people being gay is a sin. It's telling someone something about themselves, something fundamental to who they are as people is wrong, something they didn't choose or have the capability of changing. 

Take that last paragraph and, instead of thinking of homosexuality, think of someone's religion. Wouldn't you agree it's wrong and cruel to force someone to change who they are as a person?

If you don't get it by now, I doubt you will. There's absolutely nothing new in this comment. I will stop arguing because at this point, you just want to not understand just so you can defend your aweful religion",Abchid,yduvz,fk3p3gv,Sure but I don’t understand what that has to do with free speech,fk3n28j,TheBlazingFire123,17amzd
So it's okay if I just punch you once in a while?,Abchid,yduvz,fk3mxgg,It’s only harassment if they follow you around and constantly insult you.,fk3mv9b,TheBlazingFire123,17amzd
"Because it's harassment. Maybe an example might clear you up. 

How does beating the crap out you interfere with your rights? Are you going to ban freedom of movement? What's next? A ban on all forms of transportation?

Now, you might feel attacked right now, but hear me out. It's exactly the same as defending your ""right"" to harass someone using ""freedom of speech"" as an argument.",Abchid,yduvz,fk3msos,Ok but how does hate speech interfere with someone’s rights? What do you want to ban next? Thought police?,fk3jh0s,TheBlazingFire123,17amzd
">The Bible to my knowledge doesn't specifically address this, but the general consensus of the Bible seems to point to everyone being born straight.

Then it's wrong in another point.

>Based on the observation of animals

Animals can be gay too, you know?

>not that I believe we are animals

We are, by definition of what an animal is

>this would be the case for humans as well.

Are you even listening to yourself? You're trying to say that because animals can't be gay, humans, which you said aren't animals, can't be gay either. Make up your mind. 

>In the later verses of Roman's chapter 1, Paul addresses homosexuality in early churches! Specifically in verse 27.

Yes, it says it's wrong. What's your point?

>God created us

Since it's indemonstrable, it's just an opinion

>and told us how he wants our relationships to be.

And we should listen to a being, that we can't prove it exists, instead of letting people, that we know exist, live their lives in peace without being harassed by your church?",Abchid,yduvz,fk31ick,"Hey this'll be my last comment for tonight, just wanted to respond to the bit where you said that people didn't choose to be gay. The Bible to my knowledge doesn't specifically address this, but the general consensus of the Bible seems to point to everyone being born straight. Based on the observation of animals (not that I believe we are animals, but that's a totally different discussion) this would be the case for humans as well. It's the sin of the world that causes someone to turn to homosexuality, even if it's from a young age. In the later verses of Roman's chapter 1, Paul addresses homosexuality in early churches! Specifically in verse 27. God designed the relationship between a man and a woman to be beautiful and orderly and clean. Love is love, but God created us, and told us how he wants our relationships to be.",fk2ytcp,LyrikTech,o9aiz
You're just being stupid on purpose now,Abchid,yduvz,fk2xxnz,"Sounds like in Canada, all rights stop when certain sounds escape your mouth",fk2xcwv,knight_who_says_knee,iw5zc
"There's also the after care, which if not done, it could lead to psychological trauma, but you wouldn't know. You probably think of BDSM of just abusive relationships like in the 50 shades trilogy",Abchid,yduvz,fk2xrod,">>So you're going to ban BSDM next?
>
>A practice on which all parts must consent or it's rape?

So consent is all that is needed?",fk2x1os,TwoTriplets,okljeeu
"You probably started writing before I added my edit. My point still holds.

>However the old testament law of the bible were guidelines, in the new testament Jesus said

Sure, but you're getting stray from the discussion. OP said that there weren't passages on the Bible that were ilegal  and I pointed out the most clear one that I could think.

>Any pastor or Christian in general who says that they hate LGBT+ people do not follow the bible.

They would argue otherwise.

>we aren't to hate people that are gay, we are to hate the sin of being gay.

You're still saying that being gay is wrong, that lgbt people should be ashamed for something they didn't choose, but that's nothing new anyway. Remember the original sin? Yea, those were good times.

>And hey if you have literally any other arguments or questions I'll try my best to answer them.

Thank you. It's very kind of you.

>It's getting late here so it may be tomorrow morning but I'll get to them eventually!

Don't worry, take your time. Sleep well",Abchid,yduvz,fk2xj45,"Verses 1-6 talks about how a servant is to be released after his period of work is over, unless he loves working for his master so much he decide to stay in his position for life. This would be like signing a contract for a job with good benefits. The next 10 or so verses talks about punishments for being evil to servants and people in general. Verse 27 says that if a master were even to knock a tooth from his servant he would immediately be freed of his debt and free to go.

This is also the passage where we get the ""eye for an eye, tooth for a tooth"" saying. However the old testament law of the bible were guidelines, in the new testament Jesus said 

""Matthew 5:38-40 KJV
Ye have heard that it hath been said, An eye for an eye, and a tooth for a tooth: [39] But I say unto you, That ye resist not evil: but whosoever shall smite thee on thy right cheek, turn to him the other also. [40] And if any man will sue thee at the law, and take away thy coat, ag let him have thy cloke also."" 

According to the Bible we are to treat all people with love, as God treats us. Any pastor or Christian in general who says that they hate LGBT+ people do not follow the bible. I'm a Christian and I can say for certain that we aren't to hate people that are gay, we are to hate the sin of being gay. 

And hey if you have literally any other arguments or questions I'll try my best to answer them. It's getting late here so it may be tomorrow morning but I'll get to them eventually!


EDIT Oh and I forgot to answer the other part of your question about to wife and kids. That is only if the master gives a wife to the servant to have a child for him, this would probably be if the master was sterile and couldn't have children himself.",fk2we8m,LyrikTech,o9aiz
">So you're going to ban BSDM next?

A practice on which all parts must consent or it's rape?

>Video games are torture that rot your body and mind,

Source? And I mean a real one, not your Christian Facebook page",Abchid,yduvz,fk2wrcx,"So you're going to ban BSDM next? Video games are torture that rot your body and mind, they need to go next. It's for your own good.


It's not for you to decide what adults do with their bodies.",fk2v918,TwoTriplets,okljeeu
Come on. We all know all rights stops when you interfere with someone else,Abchid,yduvz,fk2whv6,What about free speech,fk2v314,TheBlazingFire123,17amzd
"If you feel so offended about not being able to talk shit on LGBTQ people, good. You should.",Abchid,yduvz,fk2vhod,...and in doing so they came down hard against religious beliefs. Pastors preach against homosexual behavior because the Bible teaches against homosexual behavior,fk2ojok,knight_who_says_knee,iw5zc
"How about the rest of Exodus 21 where it states the cases on which the servant can be freed? And how the wife and children of the servant are property of the master?

How's that not slavery again?

Edit: here are the passages in the KJV version, all from Exodus 21:

>2 If thou buy an Hebrew servant, six years he shall serve: and in the seventh he shall go out free for nothing

>4 If his master have given him a wife, and she have born him sons or daughters; the wife and her children shall be her master's, and he shall go out by himself.

>5 And if the servant shall plainly say, I love my master, my wife, and my children; I will not go out free:

>6 Then his master shall bring him unto the judges; he shall also bring him to the door, or unto the door post; and his master shall bore his ear through with an aul; and he shall serve him for ever.

Not calling them slaves doesn't change the fact that they are treated as property, which is precisely the definition of a slave",Abchid,yduvz,fk2v0ew,"You're using a modern ""Bible"" version, the original text (which has been directly preserved error free in the KJV"") uses the word ""servant"" or ""maid"" these would either be payed, or indentured servants. Every instance describing modern slavery in the Bible is indeed against it.",fk2uoun,LyrikTech,o9aiz
">There are literally no passages in the Bible that teach that slavery as we understand it today is ok.

>>When a man strikes his slave, male or female, with a rod, and he dies there and then, he must be avenged. But if he survives a day or two, he is not to be avenged, since he is the other’s property.

Exodus 21: 20.

How is this not slavery as we know it today?

>The issue here is that Canada is treading dangerous ground repressing freedom of expression.

Sure, but are you aware that laws aren't made on the fly? That, specially on social laws, there's a lot of debate prior to a new law. It doesn't matter if it's dangerous ground because it's not like the Congress could pass a law that accidentally banned something that wasn't demonstrably wrong.

>What happens when they repress speech that you believe in?

Then I should consider why they are banning it and read why it's a problem. Again, laws aren't made on the fly",Abchid,yduvz,fk2tqxy,"There are literally no passages in the Bible that teach that slavery as we understand it today is ok. So yes, strawman.

The issue here is that Canada is treading dangerous ground repressing freedom of expression. It goes both ways, you know. What happens when they repress speech that you believe in?",fk2spd1,knight_who_says_knee,iw5zc
"No, it's not. 

>there are LITERALLY passages of the Bible that would be ilegal for people to teach

You said it",Abchid,yduvz,fk2sgmv,Strawman,fk2sa2s,knight_who_says_knee,iw5zc
"
>there are literally passages of the Bible that it would be illegal for people to teach.

Like owning slaves? Yes, they are ilegal",Abchid,yduvz,fk2rnwr,">Conversion therapy is any practice designed to change a person’s sexual orientation to heterosexual, to change a person’s gender identity to one that matches the sex assigned at birth, or **to repress or reduce non-heterosexual sexual attraction or behaviors, according to the legislation.**

This sounds like a major punch to the face of religious freedom, if the article is portraying the legislation accurately. If true, there are literally passages of the Bible that it would be illegal for people to teach.",fk2ptke,knight_who_says_knee,iw5zc
"Have you watched ""Jesus Camp""? Or ""Kidnapped for Christ""?",Abchid,yduvz,fk2ra14,How is this torture?,fk2qtfw,GS455,qi6an
"Not just adults. If it did, why would they add ""and removing a minor from Canada""?",Abchid,yduvz,fk2qu7u,This law bans it for adults.,fk2pqan,TwoTriplets,okljeeu
"Seems like someone can't rebuttal.

Just because they aren't protected speech it means it isn't violence? If they have time and place restrictions, then you agree that those aren't okay? 

Could you make up your mind?",Abchid,yduvz,fk2o7x4,You're literally to stupid to argue with. Half of your own examples arent protected speech or they have time and place restrictions on them. A 10 year old could have come up with a stronger rebuttal,fk2nv7u,tcreelly,143vi3
"Are you aware that in most cases, we're talking about minors who are there because they are forced?",Abchid,yduvz,fk2nk59,That people should be able to control their own bodies.,fk2leb8,TwoTriplets,okljeeu
"Omg you're so dumb. First of all, do you believe that there's no such thing as ""psychological torture""? 

It seems I need to go on. Death threats are just speech, cat calling is just speech, being really loud in the middle of the night is just speech, gaslighting is just speech",Abchid,yduvz,fk2n7yh,"Speech isnt violence dipshit and what fucking world do you live in where speech is ""psychological torture""  you must be a massive cunt to be around",fk2mhma,tcreelly,143vi3
"Depends on how they define it, but it usually involves minors, so probably not. Also, if the man ""decides"" he doesn't want to be gay, there's nothing the Bible could do. He's either gay or he isn't. You can't force yourself to change your sexual preference. 

Also, what does even mean ""live as a gay man""? Because it sounds super homophobic",Abchid,yduvz,fk2mgoy,"Not sure I understand. If a gay man goes to a pastor, says that he no longer wants to live as a gay man, and the pastor tells him to believe the Bible and turn from his sin of homosexual practice, is that conversion therapy?",fk2ln0g,knight_who_says_knee,iw5zc
"Okay, I was referring to the child sexuality, not every urge. I thought it was obvious given the context",Abchid,yduvz,fk2loog,"> The pastor shouldn't recommend in any case that he or she should repress his or her feelings.

But this is what most pastors do *all the time*. A pastor's main job is to encourage people in his church to follow the Bible, which almost always involves repressing feelings and desires that are contrary to what the Bible teaches. Pastors teach against lying, sleeping around, gossiping, thieving....all things that people tend to have desires for; that's why they do those things.

I'm just trying to understand how you can practice the Christian religion if you can't tell people sometimes to repress their desires",fk2l8ey,knight_who_says_knee,iw5zc
"Bullying is just speech, psychological torture is just speech, conversion therapy is just speech. Do I need to go on?",Abchid,yduvz,fk2ljj7,Are you out of your mind? Why would you want to make someone criminally liable for their speech?,fk2l1yp,tcreelly,143vi3
"The pastor shouldn't recommend in any case that he or she should repress his or her feelings. If by any measure, the pastor suggest that the person should force themselves to be straight, then the pastor should be processed

Edit: apparently it wasn't obvious, but I'm referring to the child sexuality here:

>his or her feelings",Abchid,yduvz,fk2kaj1,"What would happen if a person went to talk to a pastor about same sex attraction, and the pastor recommended that they believe the Bible and Christian tenets of the faith? Is that illegal?",fk2dh8g,knight_who_says_knee,iw5zc
"(Ptss, amigo. Era un chiste. Todo el thread es talla)",Abchid,yduvz,fk2fs50,Wn  los que tienen plata nunca están satisfechos,fk2ercs,felipeosorio7410,21iwnwk8
"Damn, now I need this",Abchid,yduvz,fk2axwj,Well Casear probably would bully Jotaro and Polnareff in every ocassion.,fk2519b,AsocialCrus4der,3juz9tal
Le pagai a un wn que te administre y le pagai el mínimo,Abchid,yduvz,fk29n05,te complicarías la vida teniendo que administrar weas,fk1r2gt,Insania2014,4xn2sy0
"Igual se puede cancelar, o no?",Abchid,yduvz,fk294ah,Y yo cagué de hacer la preserva de FF VII remake. Ahora me va a salir a más de 50 Lucas seguro :'(,fk0yd8w,andrew4d3,rtwpd
"En volá es lavado de imagen no más y, como no tienen nada bueno que decir, la página rusa y esta polaca les prestaron su link",Abchid,yduvz,fk21xrm,"Siempre me salen esas weas de anuncios, una vez entré a uno y era una wea rusa, el de OP tiene link polaco, ¿que será?",fk2166m,evenebin,5kfcxrqg
Cómo va a robar Piñera si ya tiene plata,Abchid,yduvz,fk21s48,los empresario son buenos por que dan peguita.,fk1ujez,troopercl,kxb9o
">Literalmente la definición de feminismo.

Depende de la definición. Algunas son solo en reducir las desigualdades que sufre la mujer, ignorando los problemas de los hombres, como la tuición de los hijos o poder comportarse de forma más ""femenina"" sin que te miren raro.

>no debería impedir que sus pensamientos se alineen con el feminismo en gral, solo extremistas apoyan movimientos de derecha o izquierda al 100%

En general la gente en partidos políticos opina lo que el partido quiere que opines, sino no habría unanimidad en las votaciones en el congreso

>feminista y rechazar la libre elección del aborto.

No, porque ahora es parte de",Abchid,yduvz,fk191wh,"> No es lo mismo a feminismo.

Literalmente la definición de feminismo.

>Esa analogia es maliciosa. Implica el argumento pobre del patriarcado internalizado.

Bueno como somos parte de esta sociedad tal vez para ti o para mi sea difícil ver este patriarcado internalizado, quien sabe si existe a mi parecer es obvio que si existe, tal vez para alguien en el futuro esta conversación sea ridículamente nefasta.

>El movimiento feminista chileno es pro aborto entre muchas cosas. Tiene valores de izquierda. Esta mina es de derecha. ¿Porque tendria que identificarse como feminista, si no hay afinidad valorica?

Lo cual implica que no adhiere al movimiento feminista en cuanto a la politica que se está buscando, no debería impedir que sus pensamientos se alineen con el feminismo en gral, solo extremistas apoyan movimientos de derecha o izquierda al 100%, puedes ser de derecha y apoyar el aborto de la misma manera en que puedes ser feminista y rechazar la libre elección del aborto.",fk0zwrt,verycrafty,9cer2
"Pero no la ridiculizan por ser facha, es por estar en contra del movimiento.

Edit: que, fuera de webeo, es la misma idea de los violentistas de derecha que van a pegarle a la gente pro apruebo",Abchid,yduvz,fk17n6f,"> feminismo también defiende su derecho de ser facha

En la practica parece que no: la ridiculizan",fk0zb23,ozzraven,3uyv2
"No one forces you to leave your place. It's Sunday, so most don't work today.

And the estimates are for at least 1.2 million women",Abchid,yduvz,fjz20ut,"That’s a lot of people and seeing a movement like that puts a smile on my face. But so many women still had to work that day. That was suppose to be their day, not the day some other man forces them to work!!! Give them that day off haven’t they done enough?",fjy75sg,Bballproham,hkozt
Za warudo something something jentyoi,Abchid,yduvz,fjytfg1,Something something meat and potatoes.,fjxnv0u,kingarius1st,4wcunrlp
">viendo que ambos bandos tienen equipamiento para atacar/defenderse

Que no son ni cercanos en poder

>hay que ser muy wea para apoyar solo un mando en favor de tu postura política

Dilo de nuevo pero más lento. Absolutamente cualquier persona con opinión apoya  algún bando en favor de su postura política, weta.

Gracias por darme la razón, en todo caso, porque veo que no hay argumentos decentes",Abchid,yduvz,fjysycl,"viendo que ambos bandos tienen equipamiento para atacar/defenderse, hay que ser muy wea para apoyar solo un mando en favor de tu postura política. Felicidades, don wea",fjys36m,monchos1,2c69n9xc
"Los parlamentarios que pasen a ser parte de la convención constituyente mantendrían su sueldo actual, no se les sumaría el que recibieran los electos exclusivamente para la constitución. Además, esos parlamentarios dejarían su puesto en el congreso y cada partido pondría un representante en el puesto que dejó",Abchid,yduvz,fjylcfy,Es mejor no asumir nada. Trae mas problemas que nada por la dificultad de dejar un equilibrio tanto político como geográfico para no dejar a personas sin representación. Sin contar en la posible paga doble que no dudo que si pueden hacerlo lo harían. Sueldo parlamentario + sueldo constituyente,fjtqnce,mr-fm,wm6fsvv
Y a los derechos humanos de las ventanas rotas,Abchid,yduvz,fjyizly,Osea Carabineros de Chile está para proteger sólo a Carabineros de Chile,fjwmy6m,Gabo2oo,vfvdw
Am I wrong?,Abchid,yduvz,fjy6m12,enlighted centrism,fjxwgx3,Titankin_Shico,51525cmo
"No se ha reportado ninguno dónde los manifestantes hayan ido a agredir civiles. Si lo hubiera, seguramente todos los medios grandes lo hubieran cubierto para vandalizar todo el movimiento",Abchid,yduvz,fjxxmdy,no ha habido casos de violencia contra personas???,fjwskip,Nachho,kjlty
"En el vídeo se ve claro que el viejo le pega primero, no nos hagamos los weones tampoco. No defendamos al viejo solo por ser viejo tampoco, no sacas nada con pegarle a alguien en ningún caso",Abchid,yduvz,fjxvfov,"Como dije en los noticieros no explicaron la razón de porqué le pegó al viejo y en el video tampoco está claro. Ahora suponiendo que el viejo le pegó primero el wn tenía que hacerse a un lado nomas, no sacas nada devolviéndole los combos, pelear con un viejo es como pelear con un cabro chico, físicamente es muy superior a un señor que con suerte puede caminar.",fjxs7hv,T1student,1etd0jra
"Pero si el viejo le pegó primero, qué wea",Abchid,yduvz,fjxpq4k,"Según los noticieros no encontraron razones de porqué le pegó al viejito (la policía no lo detuvo), solo comentaron que fue en Rosario (Argentina) y la buena sacada de chucha que recibió por weon jajaja.",fjx9r4k,T1student,1etd0jra
¿Quieres que sea una guerra civil? ¿No prefieres resolver esto mediante el diálogo y la democracia?,Abchid,yduvz,fjw59zj,Estamos en una casi guerra civil. Elige tu bando,fjvn18z,3ravia,5qhbppcy
">los carabineros y los militares no son autómatas que pueden ser programados para seguir el protocolo incluso en circusntancias extremas,

Disculpa, ¿las torturas dentro de las comisarías son circunstancias extremas? ¿O las detenciones ilegales a transeúntes fuera de manifestaciones? 

Entiendo perfectamente tu punto, pero es una excusa de mierda para justificar el comportamiento de carabineros, que fue así desde el primer día, así que la excusa de que el cansancio les pasó la cuenta tampoco es válida.

>no me sorprendería que tengamos un pinochet 2.0

¿Y te parece bien? Porque da la impresión de que al menos un par de acá que eso es lo que quieren.",Abchid,yduvz,fjw36nc,"si tu y tu bando no entienden que los carabineros y los militares no son autómatas que pueden ser programados para seguir el protocolo incluso en circusntancias extremas, no me sorprendería que tengamos un pinochet 2.0",fjvo48e,ganooplusloonixx,4ersbqz
But he was wrong,Abchid,yduvz,fjvwerr,"Igual confío en que la situación no se va a poner TAN mala. Creo que cuando llegue a 900 o algo así los voy a vender y ya. Si igual no creo que dure para siempre el dólar a 800. 

*he said hopefully*",fju5jlb,thealterlion,3cn26t0o
"Oye pero fuera de webeo, la analogía está re buena.

Contexto pa los que no cachan: es de cazador x, el clan kuruta fue cazado hasta la extinción porque tienen ojos rojos y en el mercado negro tienen precio súper alto. El genei ryodan fueron los principales genocidas",Abchid,yduvz,fjvjyzg,"Tienes razon, todos los que le dieron la mano ahi son coleccionistas de ojos  


(sigamosle el juego al otaku, que parece que esta loco xD)",fjv565t,Finpla,3klrtx8o
"No, no da lo mismo el porqué. Ese es el punto. Que como institución evolucionaron al punto de que ahora defienden a la derecha y los grandes empresarios, y el pueblo de izquierda tiene sólo a los tribunales de justicia, que ninguno tiene acción inmediata",Abchid,yduvz,fjvinm5,"Da lo mismo el porqué, supone que es por una razón que simplemente no puedes entender (al igual que algunos carabineros no les cabe en la cabeza ninguna de tus justificaciones a la violencia contra ellos.",fjvgzyu,ganooplusloonixx,4ersbqz
No lo es? Aparte que es legítimo el derrumbar argumentos porque las analogías no son válidas o no tienen que ver,Abchid,yduvz,fjvg714,"Siempre escucho un ""es que esto es diferente"", la vieja confiable.",fjv7umi,kingdraven,e33ko
No deberían. Por eso mismo fue el golpe de estado en el 73. Las fuerzas armadas no deberían tener opinión política,Abchid,yduvz,fjvd9c2,"Bueno, lograron poner a la fuerza de la ley en su contra.

Ni que hubiera ley en todo caso, aquí en Chile cada uno se defiende solo. Los pacos apoyan al rechazo. Deal with it.",fjvaz2z,3ravia,5qhbppcy
Uff. Complicado igual dejar que reine la anarquía en un contexto de violencia. Es casi pedir que se maten y dudo que algún ente serio en un contexto que no sea de guerra lo avale,Abchid,yduvz,fjvbs6w,Va a ser diferente porque ahora la primera linea de derecha se unió a la partida. Si yo fuera paco entonces dejaría que ambas primeras lineas se sacaran la chucha entre ellos y despúes me llevaría detenido a los restos de lo que quede.,fjv6ve1,GouraudPalm,yzxmq
"Igual te estás abstrayendo demasiado. ¿Porqué me tratarías de nazi o pinochetista en mi trabajo? ¿Cuál es mi trabajo? ¿Porqué me agarrarías a piedrazos a la salida si a los carabineros solo le tiran piedras en las marchas?

Trata de armar la analogía de nuevo, porque no se me ocurre ningún ejemplo que no sea relacionado a algún ejército abusador",Abchid,yduvz,fjvbh6z,"Trata de hacer este ejercico mental.

Voy a tu trabajo, te trato de asesino, de hijo de puta, digo que eres defensor de pinochet y hitler y te agarro a piedrazos a la salida. Además mantengo este comportamiento constanemente a lo largo de 5 meses.

Luego voy a tu trabajo a pedir ayuda/atención. De verdad serías tan profesional de tratarme normalmente?",fjv72j1,ganooplusloonixx,4ersbqz
">De verdad crees que un carabinero va a ayudar a alguien del bando que los ha estado constantemente insultando y atacando físicamente?

Debería. Es su pega defender al pueblo de forma imparcial.

>Te recuerdo que los carabineros son humanos con sentimientos.

Te recuerdo que es su pega asegurar el orden público y durante el resto de las manifestaciones no tienen problemas en gasear a la gente pro apruebo, así que no pueden decir que se verían sobrepasados tampoco.

>Hasta el mismisimo spiderman le negó la ayuda al weon de la lucha que lo estafó.

¿De verdad vas a poner de ejemplo un cagazo ficticio pa justificar negligencia?",Abchid,yduvz,fjuzqro,"De verdad crees que un carabinero  va a ayudar a alguien del bando que los ha estado constantemente insultando y atacando físicamente?

Te recuerdo que los carabineros son humanos con sentimientos. Hasta el mismisimo spiderman le negó la ayuda al weon de la lucha que lo estafó.",fjuw30j,ganooplusloonixx,4ersbqz
"Weta, no estoy comparando la violencia de los fachos con los campos de concentración. Estoy mostrando la ridiculez de decir que existe algo como el derecho a manifestarse violentamente",Abchid,yduvz,fjujcu1,"Quien se acuerda cuando la gente comparaba el baila pasa con los nazis que hacian bailar a los judios y la gente les decia exagerados? Ahora estamos comparando una manifestacion violenta de fachos con campos de concentracion...

Dos caras de la misma moneda.",fjue994,Robot_Mc_Dong,40eme15q
Yo creo que a la mayoría del país le tiene chato,Abchid,yduvz,fjtwhqh,Para qué voy a ser tan obtuso. No significa que defienda la primera linea tampoco ni los pacos. Me tiene chato la violencia en general,fjtt1ht,Superman_Wacko,234lbwu1
Opina tú entonces. Explícate bien si crees que te están representando mal,Abchid,yduvz,fjtuzcm,"Cómo chucha me ""des-sesgo"" con comentarios como éste? 

Pta q la hacen difícil pa entender sus posturas wn y después alegan eco chamber y claro po si los q opinan distinto lo expresan de la peor manera que encuentran",fjtns99,Naldrek,jd43n
Si no tienen más referentes po. Cuándo hay visto a alguien inventado cosas cuando nunca ha estado en situación de necesidad.,Abchid,yduvz,fjtuh03,"Esta división de mierda ya está llegando a otro nivel, parece un alt right rally de gringolandia esto",fjtsu6e,MATRAKOSI,58e3icwb
"Yo creo que necesita mínimo un cambio drástico de directiva por alguien que, de partida, respete los derechos humanos",Abchid,yduvz,fjttu0u,No se cómo carabineros va a recuperar la confianza de la gente. En serio no sé.,fjspoj9,maximun_vader,3rlk5
"Claro seamos empáticos. Si igual, Auschwitz era la forma de manifestar la violencia del partido nacional socialista. Hay que respetar todas las opiniones, loco. Rechazo para reformar ✌🏼",Abchid,yduvz,fjtto7b,"Es su forma de expresar esa violencia, hay que ser más empáticos po', además cómo tan intolerante si todos quieren participar no hay que excluir a nadie.",fjtahrd,MinaDawngate,wleem
Manuel Rodríguez? Amplio? Cuál xd?,Abchid,yduvz,fjtspiz,Dónde chucha está el frente cuando hace falta?,fjtlced,Nagoyv,5ndauzus
Gracias por informarte.,Abchid,yduvz,fjtr6to,"Igual vi unos vídeos y encuentro que estan cgaados de la cabeza, se disfrazan de militar que chucha jajajajaja. pais culiao que ae vaya  a la chucha elijan la wea que quieran, no voy apoyar ni una mierda. Que se maten entre los monos",fjtr1wr,Superman_Wacko,234lbwu1
"Contaste a 6000 personas desde 20 metros? 

Además, no nos hagamos los weones tampoco, si todos sabemos que hay varios grupos violentistas pro rechazo que salen a puro pelear con civiles mientras Carabineros los escoltan.",Abchid,yduvz,fjtnamf,"Estuve a 20 metros.
Eran 6000 personas marchando y el del gas fue 1 ... Weones amarillistas 

Pero la izquierda tirando botellas de vidrio desde los edificios con eso podí matar alguien fácil.",fjt752p,Iperky14,10bc7k
"Bueno, fachito chupa rifles",Abchid,yduvz,fjtki17,Uta el wn lloron.,fjtfv0i,Superman_Wacko,234lbwu1
Porque hace tiempo está claro que son para defender a los fachos. Siempre han escoltado a las marchas pro rechazo,Abchid,yduvz,fjtazyd,y los pacos porq no hacen nada?,fjt4l74,Steliosdb,f2v9m
"Y los cascos de guerra, chalecos antibalas, protección de nudillos y codos? Aparte que está clarito cuál tiene más poder. No te vai a poner a comprar palos que encuentran en la calle con batones hechos para hacerle daño a la gente. 

Lo de las Molotov te creo, pero, de nuevo, es mucho más fácil atacar con gas pimienta que con una Molotov. Cualquier wéa puede rociar un spray, que más encima te deja incapacitado instantáneamente por varios minutos y con efecto instantáneo, a diferencia de las Molotov que si fueran tan buenas y fáciles de usar, no quedarían carros policiales.

Claramente no están al mismo nivel.",Abchid,yduvz,fjta8ej,"Armado de derecha: gas pimienta,  lumas.

Armado de izquierda: bombas molotov, piedras, palos.

Bueno.",fjt57bk,Ccirdan,mqldh
"Viste el vídeo? Están todos con protección de nudillos y varios andan con batones, weta",Abchid,yduvz,fjt7mad,Gas pimienta no es una arma,fjt5810,Superman_Wacko,234lbwu1
Que una alfombra,Abchid,yduvz,fjt35t0,"Tranquilo viejo, el nivel cognitivo de personas hijos de primos no es mas alta que una puerta",fjt2ur4,casanti00,z3btm
Castro chavistas norcoreanos,Abchid,yduvz,fjt32fx,los controlaba mentalmente con sus poderes castrochavistas,fjsyokf,certifiedddddd,xgonk
Haahhh!? Sacrilegio,Abchid,yduvz,fjrsd32,"No me gustan las empanadas con pasas, pero me salve respecto al pan de pascua con fruta confitada y que no me guste la palta",fjrog5o,Mezgal,16p63c
Chale :c malditos comunistas /s,Abchid,yduvz,fjpm6ar,Lo siento bajo la nueva constitucion te irias a la carcel de por vida,fjpm44z,bicoril,4ax6m793
"Si va a ser astronomía, creo que sí te va a ayudar porque es más probable que tengas que progamar más cosas y según yo es más cómodo un notebook porque lo puedes llevar a la u. Ahora, como suena a que entraste a plan común en la Chile, independientemente vas a tener que programar un poco. 

Otro tema importante es para qué usas tu computador, porque si lo ocupas para jugar regularmente quizás tengas que acostumbrarte a tener que jugar en menor fps y resolución, pero puede que este punto no signifique nada para ti.",Abchid,yduvz,fjphi10,"chuta te respondi mal, estoy entre astronomia e ing civil industrial",fjo7rkm,miscumVG,6vnghcy
Qué cosa?,Abchid,yduvz,fjp9roh,"Pero dije que no creo que sean todos, a lo que voy es que el número de los que sí son ""malos"" no es poco, o que no es de ignorar",fjp8tp1,Sicut-sideris,5u8hkm3s
"Busqué y lo que he encontrado hasta ahora es que entre un 10% y un 1.5% de las acusaciones en los países dónde hay estudios (USA, Canada, Escocia, Dinamarca, Reino Unido son los que he encontrado hasta ahora) son falsas.",Abchid,yduvz,fjp8uk9,"muchas funas deben ser reales, quizás mas de la mitad, pero no me creo eso de que el 0,0000001 sean falsas

(es una exageración lo del 0,000001, no es un dato)",fjp7pfc,Sicut-sideris,5u8hkm3s
">es que en ese caso tendría que tener encuestas y estudios para todo, y sería lo ideal

Estoy de acuerdo

>pero aún así puedo seguir opinando y todos lo hacemos generalmente sin fuentes para cualquier cosa

Está bien opinar, pero el expresar generalizaciones, especialmente sin ninguna prueba, es súper contraproducente.

>no confío ciegamente en las funas, a la gente en general la encuentro mentirosa, y se que un ""oprimido"" puede mentir para sacar provecho, aunque me tilden de machista o lo que sea por pensar así 

Estoy de acuerdo, pueden haber funas que sean falsas, pero yo tengo una visión más positiva de la gente y no pienso que mienten constantemente. Sin embargo, tampoco juzgo al funado sin conocerlo antes o escuchar su versión. 

>tampoco confío en ese argumento para el separatismo, me parece que el ""combustible"" para ello es mas soberbia camuflada de una petición razonable para poder ser justificada

Está bien. Es tu opinión.",Abchid,yduvz,fjp807w,"es que en ese caso tendría que tener encuestas y estudios para todo, y sería lo ideal, pero aún así puedo seguir opinando y todos lo hacemos generalmente sin fuentes para cualquier cosa, incluso te podría estar inventando todo, o tu inventando tu experiencia

para declaraciones mas serias si, estudios, fuentes

de todas formas es lo que yo lo observo desde mi círculo

no confío ciegamente en las funas, a la gente en general la encuentro mentirosa, y se que un ""oprimido"" puede mentir para sacar provecho, aunque me tilden de machista o lo que sea por pensar así 


tampoco confío en ese argumento para el separatismo, me parece que el ""combustible"" para ello es mas soberbia camuflada de una petición razonable para poder ser justificada


no estoy cerrado a cambiar mi percepción, pero confío en la mía y trato de no idealizar a la gente",fjp7ha9,Sicut-sideris,5u8hkm3s
"De nuevo estás diciendo que no tienes fuentes para lo que dices. 

Yo soy bi y no le tengo ningún resentimiento a la gente hetero. Tampoco tengo ningún amigx lgbt que le tenga resentimiento.

Lo de las políticas separatistas lo he escuchado más en temas feministas que en LGBT, así que puede que te estés confundiendo.

Aún así, encuentro justificado que lo pidan, porque no son raros los casos donde el abusador dice ser feminista en redes sociales hasta que sale a la luz que le pega a todas sus pololas.",Abchid,yduvz,fjp5ja5,"la estupidez de adoptar políticas separatistas y camuflar su resentimiento hacia los heterosexuales

no condeno 100% sentir resentimiento en sí, si no el de llevarlo a la política como un fundamento y convertirlo en algo moralmente aceptable

ese resentimiento no está explícito en ningún manifiesto o cosas similares (creo), pero se nota o se puede deducir y sospechar en la práctica 

no son todos los que son así, pero no son pocos tampoco",fjp4791,Sicut-sideris,5u8hkm3s
Qué cosa es lo que encuentras inmaduro?,Abchid,yduvz,fjp2r8x,"no, de hecho los defiendo, o los defendí en su momento, lo que pasa con el lgbt ahora tampoco le encuentro madurez",fjp1zn3,Sicut-sideris,5u8hkm3s
"Según tengo entendido, no",Abchid,yduvz,fjp2pfy,Habían pacos dentro de la estación en ese momento ?,fjp26j3,subotai01,102th0o
"Pero no van a dejar a los manifestantes encerrados dentro po, si esa wea es secuestro",Abchid,yduvz,fjoty9n,Pero obvio que van a cerrar si con gente manifestandose el metro no funciona :/,fjot6lj,FuchsiaPalette,4o621i8d
"Hoy cerraron varias estaciones de metro, algunas con manifestantes dentro. Es una predicción no más, pero siento que en la noche se va a poner como la noche del 18o",Abchid,yduvz,fjon1xc,"No se OP, donde viste eso que consideras volvió con todo?",fjomx5d,als3ful,7ll3c
"Bajó harto, por lo menos la frecuencia, durante el verano",Abchid,yduvz,fjomiwq,Alguna vez se fue ?,fjomdn6,AnarcoHuaso,5srkl8he
"Qué? Por qué homofóbico? Todos pueden ser culiados. Te creo falocentrista, pero no homofóbico. Inverbe",Abchid,yduvz,fjol7t5,"Solo puedes aseverar mi calidad de Pinochetista, no la de ql

De la misma forma, puedo atestiguar tu bajo nivel intelectual por lo básico de tu insulto homofóbico",fjoaklu,maximun_vader,3rlk5
"I thought it was the red bubble, since the one next to it is a bubble",Abchid,yduvz,fjnkrld,Lol I was quite sure it was about stone that killed Caesar (red with blood). Thanks for clearing that one!,fjni821,Mashi120,10piha
"Okay, no entendiste nada de lo que dije.

>No dije que la mayoria fuera de derecha. Lee mas detalladamente.

No, pero usas como argumento que salió Piñera 2 veces y yo te respondo que las elecciones fueron de menos de la mitad de la población y no ganó por tanto. Si el voto fuera obligatorio, puede que no hubiera ganado, sino, por qué no hubieron gobiernos de derecha antes de que fuera opcional?

>Pero eso si, si la representacion de la derecha fuera como la que se ve en la calle (nula)

La verdad es que son ruidosos cuando les tocan temas religiosos como el aborto y el matrimonio igualitario.

>la derecha tendria los miseros resultados del PC

Si te refieres a en presidenciales, te lo respondí en el primer punto, pero si es por resultados parlamentarios, te recuerdo que el sistema electoral está diseñado para que las coaliciones tengan al menos un representante en cada distrito a menos de que la diferencia sea del doble.

>Lo segundo es falso. La derecha ha sido la que ha impulsado la gran mayoria de la normativa comercial y economica que rige en Chile

A esto me refiero con que no leíste lo que dije. Yo nunca dije lo contrario. De hecho, se podría fácilmente interpretar eso mismo de lo que yo dije. 

>y por tanto no cree en que ""el mercado se regula solo y ya"".

Yo dije que la gente del sub pensaba eso, no la derecha política y sus parlamentarios.",Abchid,yduvz,fjnb4m5,"No dije que la mayoria fuera de derecha. Lee mas detalladamente. Pero eso si, si la representacion real de la derecha fuera como la que se ve en la calle (nula) entonces la derecha tendria los miseros resultados del PC (el vocal minority con muchas banderas pero 0.51% de los votos), y no en cambio a 2 de los 3 ultimos Presidentes. La calle miente; no muestra la representacion politica real.

Lo segundo es falso. La derecha ha sido la que ha impulsado la gran mayoria de la normativa comercial y economica que rige en Chile, y por tanto no cree en que ""el mercado se regula solo y ya"". La normativa sobre proteccion de la libre competencia (antimonopolios y otros), los limites y prohibiciones a las sociedades anonimas, las larguisimas regulaciones al mercado de capitales, el Codigo de Comercio, el Banco Central, las leyes de Renta y de IVA, etc. etc.; todos fueron creados en gobiernos de derecha. Lee un doing business in Chile y fijate en las fechas de la normativa. La izquierda siempre ha hablado mucho sobre el tema pero siempre ha hecho muy poco, y la lata es que la gente les cree el discurso.",fjn94n3,avensvvvvv,ewq11
"Quizás lo viste en propaganda de derecha para, precisamente, hacerte pensar que todas las luchas sociales llevan al comunismo",Abchid,yduvz,fjna2kc,"No tengo una fuente que lo diga así específicamente,solo lo que recuerdo de panfletos comunistas, tengo la misma información sobre que no es algo único del comunismo, pero que es ampliamente usado por el, y es usado como tal en los sucesos históricos más próximo a nuestros tiempos

Asumo que la gente debiese relacionarlo así, pero quizás me equivoco",fjlwuqy,Sicut-sideris,5u8hkm3s
"Decir que la mayoría en Chile es de derecha porque salió Piñera es súper iluso considerando que no ganó por mucho en segunda vuelta y no voto ni la mitad de la población.

>Pero fijense que en las discusiones politicas de alla nadie representa esas ideas, el 45.3% se queda callado, porque se ve ""feo"" representarlas.

No creo que sea eso, porque todos pueden votar a favor o en contra de cualquier opinión que se muestra. Una interpretación del tipo ""no son tan de derecha/extrema derecha"" tiene más sentido. Yo creo que la mayoría se dicen de derecha, pero no necesariamente la derecha en Chile, que es toda conservadora, siempre en contra de reformas sociales aunque no tengan efectos económicos, sino que simplemente creen que el mercado se regula solo y ya",Abchid,yduvz,fjn8kiz,"Se ve como de izquierda la cosa pero no lo es. No creo que haya una gran intervencion, mas que los izquierdistas que siempre tratan de apropiarse las causas sociales que son independientes de ellos. 

Primero porque aca es comun aparentar ser de ""los buenos"". En Chile para afuera del closet todos dicen ser de izquierda, pero dentro del closet por algo el Presidente de Chile es de derecha, y electo dos veces en las tres ultimas elecciones.

Por ejemplo tomemos r/Chile. Segun la encuesta de hace dos meses, cuando hay votacion secreta el 45.3% dice ser de centro o de derecha. Pero fijense que en las discusiones politicas de alla nadie representa esas ideas, el 45.3% se queda callado, porque se ve ""feo"" representarlas.

https://www.reddit.com/r/chile/comments/edslty/resultados_encuesta_rchile_2019/

Segundo porque en la calle esta es la protesta de los cabros chicos, y como ellos en general son de izquierda fuertona entonces eso es lo que se va a ver. Pero ojo, eso no es lo necesariamente representativo de como es el movimiento en si, sino que solo de quienes van a tirar piedras.

Sobre la edad, ese factor es un fuertisimo predictor en elecciones. Es un hecho que los cabros chicos son mas tirados pa la izquierda. Por ejemplo en Inglaterra se ha estudiado bien el tema.

https://www.theguardian.com/commentisfree/2015/nov/03/do-we-become-more-conservative-with-age-young-old-politics

Y sobre la representatividad, el movimiento es mucho mas grande que esos cabros chicos en la calle. En la calle podis ver cientos de banderas comunistas si queris, pero a la hora de los quibo Artes saca 0.51% (eleccion 2017). Que paso; no que todos se veian como comunistas? Al final esos que ves en la calle son los unicos votantes de ellos po xd, y no son una representacion de como es la cosa en Chile.

https://es.wikipedia.org/wiki/Elecci%C3%B3n_presidencial_de_Chile_de_2017",fjlyaq4,avensvvvvv,ewq11
You download them from the Apple store,Abchid,yduvz,fjm1v5h,But how will I get my nutrients???????????!!!!!!!!!!!,fjlwqoq,thelonelycerebellum,q0jq3tj
"Pero, por ejemplo, tienes algún problema con que el matrimonio sea entre dos personas y no entre un hombre y una mujer? O en aumentar las penas para delitos infundados en el machismo y la violencia contra la mujer? Con temas como la nacionalización del agua, entiendo que pueda ser preocupante el tema económico, pero igual hay que entender que cosas así no pasan de la noche a la mañana, incluso desde que es aprobado en el congreso y la ley es publicada.

Creo que en general tus miedos son injustificados, porque en Repúblicas, las únicas cosas que pueden cambiar de la noche a la mañana son los impuestos y ni esos llegan de sorpresa. El sistema legislativo es súper estable y está diseñado para que las leyes nuevas y los cambios a las actuales no sean ""porque sí""",Abchid,yduvz,fjlz5yp,">La diferencia con la gente de derecha, principalmente parlamentarios, es que constantemente reman en sentido contrario a demandas sociales, como la reducción de la jornada laboral, reducción de la dieta parlamentaria, nacionalizar el agua como en el resto del mundo, derechos LGBT y de la mujer, aborto y derechos indígenas


tienes razón en ello y lo comparto

de todas formas, para ser transparente, a mi personalmente me impacta menos esos temas porque soy mas metódico al momento de querer apoyar una propuesta así, quisiera que considerasen la economía y métodos para que al llevarlas a cabo, no colapsen o generen más problemas, pero no veo eso, solo observo gritos, no me gusta de quienes vienen, por ejemplo, no considero el feminismo actual/hegemónico como una postura con madurez y realmente imparcial, pero no estoy en contra del aborto, si no a favor, pero encuentro que los argumentos son incongruentes a veces y el origen ideológico o quizás, moral o filosófico de ellos, como la idolatría a ser ""revolucionario"", no me parecen, siento que es una caja de pandora donde aparecerán ideas nefastas",fjlybfo,Sicut-sideris,5u8hkm3s
"Como dije, creo que es porque históricamente la derecha se manda más cagadas y la gente ya les perdió tolerancia",Abchid,yduvz,fjlxnnw,"Disculpas de nuevo por aquí


Bueno si, tienes razón en eso del frente amplio, pero es que igual sigo notando una resistencia a difamar a representantes de izquierda a menos que hayan hecho algo terriblemente penca a ojos de los manifestantes",fjlxh5k,Sicut-sideris,5u8hkm3s
"

>hablas como si los cagazos y malas decisiones gubernamentales pertenecieran solo a la derecha, se te olvida los gobiernos de la concertación

Nunca dije que los gobiernos de izquierda en Chile nunca de hayan mandado cagás. No los defiendo. Ninguno fue mi primera opción al votar.

>Entonces, para ellos el tema es atacar a todos los políticos? o solo encontrarle hasta la hilacha mas chica a los políticos de derecha? 

Según yo, sí, porque, por ejemplo, cuando el frente amplio dijo que la derecha le metió letra chica en el grupo de leyes Anti barricadas, capuchas, saqueos, etc, también fue repudiado, incluso por páginas que ahora son pro apruebo.

La diferencia con la gente de derecha, principalmente parlamentarios, es que constantemente reman en sentido contrario a demandas sociales, como la reducción de la jornada laboral, reducción de la dieta parlamentaria, nacionalizar el agua como en el resto del mundo, derechos LGBT y de la mujer, aborto y derechos indígenas",Abchid,yduvz,fjlwfkz,"No es necesario que esté en chile, no hablo necesariamente de una protesta en las calles, uno de los medios principales para los activistas y afines son las redes sociales, y no ha habido una respuesta multitudinaria lo suficientemente masiva como para hacerse notar, a diferencia de constantemente desenterrar acciones corruptas de los políticos (que lo encuentro muy adecuado y que debieron de hacer con bachelet) u otros temas más urgentes como hablar sobre lo bacán que es mon laferte o hacer memes de ajíes para molestar a los fachos

Entonces, para ellos el tema es atacar a todos los políticos? o solo encontrarle hasta la hilacha mas chica a los políticos de derecha? 


hablas como si los cagazos y malas decisiones gubernamentales pertenecieran solo a la derecha, se te olvida los gobiernos de la concertación",fjlvlja,Sicut-sideris,5u8hkm3s
"Tienes alguna fuente para relacionar el puño en alto con el comunismo? Porque todo lo que he encontrado está relacionado con la lucha, resistencia y revolución, no con el comunismo en particular. 

A eso me refería con asociar el color rojo con el nazismo. Sí, seguramente en partes de la URSS se usó, pero no significa que haya sido común o significativo, además de que es un gesto tan sencillo que no se necesita mucho conocimiento histórico para poder imitarlo, a diferencia de la posición de las manos de Buda o la clásica de Baphomet.",Abchid,yduvz,fjlv9ce,"es muy distinto un color, que es algo super poco específico y de usos universales, a una simbología gráfica muy específica, es como si compararas el símbolo de los boys scouts, la esvástica o la bandera de los estados confederados, con sus colores

sigo manteniendo mi postura ante el símbolo, se sabe la relación que tiene con el comunismo, igual que la esvástica con los nazis, pocos se tomaran el tiempo de decir : ah, es que esa persona marchando por el rechazo puede que esté usando el símbolo budista",fjltyld,Sicut-sideris,5u8hkm3s
">estoy criticando la moral de estas personas, por decirlo así. No es que las dictaduras extranjeras tengan una relación directa

Ok. Está bien.

>el tema de la gente pro-apruebo, pro-estallido social, mmmmm depende, no es tan subjetivo (y no digo que todos sean iguales por si acaso) si por ejemplo, tomas en cuenta las redes sociales, estas dicen mucho, especialmente de los jóvenes quienes son los que mas la ocupan

O sea, yo estuve un tiempo en un grupo de facebook de ""Kast presidente 2022"", o algo así se llama, hasta que me echaron porque no les gustaba lo que opinaba, y esa es la impresión que me deja la gente pro rechazo: que son muy sensibles y con cualquier cosa se vuelven agresivos y cerrados a la discusión.

>Claramente si solamente tomas a reddit como única referencia para analizar el comportamiento de las personas, no vas a tener una visión amplia del tema y probablemente cometas muchos errores 

Como dije, mi visión de gente pro rechazo es tanto de reddit, como de entrevistas a gente en las calles y gente en facebook. Obviamente, para no pasar tanta rabia, también sigo páginas y estoy en grupos pro apruebo, donde también discuto a veces con puntos de vista que considero erróneos.

>Y deja de usar con esa actitud ""al choque"" conmigo que no te he dado razones para hacerlo

Lo siento. Es la costumbre de este grupo. En particular, tú pareces alguien muy razonable, así que me disculpo si te hice sentir mal. No fue a propósito ni mucho menos, personal.",Abchid,yduvz,fjlu9vl,"quiero ir por partes, y... ¿cómo que no toqué nada de lo que dijiste? pucha, ya te expliqué que relación encuentro entre las dictaduras ajenas a nuestro país, estoy criticando la moral de estas personas, por decirlo así. No es que las dictaduras extranjeras tengan una relación directa

el tema de la gente pro-apruebo, pro-estallido social, mmmmm depende, no es tan subjetivo (y no digo que todos sean iguales por si acaso) si por ejemplo, tomas en cuenta las redes sociales, estas dicen mucho, especialmente de los jóvenes quienes son los que mas la ocupan

Claramente si solamente tomas a reddit como única referencia para analizar el comportamiento de las personas, no vas a tener una visión amplia del tema y probablemente cometas muchos errores 

También hay que tener en cuenta tu entorno y vida cotidiana, tus amigos, la gente con quien trabajas y ver como se repiten ciertos patrones al escucharles discutir el tema

Desde ambas veredas, como vida ""exterior"" y virtual, vienen mis observaciones

Se que no tengo la información de todo el mundo, trato de usar palabras que indiquen ello y no generalizar tanto, pero es innegable encontrar ciertos patrones, y si quieres (quizás, no te conozco) encontrarle subjetividad de tal calibre a todo, tendríamos que discutir sobre muy, muy pocas cosas

Y deja de usar esa actitud ""al choque"" conmigo que no te he dado razones para hacerlo",fjlta20,Sicut-sideris,5u8hkm3s
"De partida, Bachelet ni siquiera está en Chile. Dónde protestarías?

 De nuevo, si ahora no se le reprocha tanto como te gustaría, es porque hay temas más urgentes, como la represión de carabineros. Eso no es solo negligencia de unos pocos en dar ciertos mensajes, es una decisión activa de comandantes de escuadra y de cabos de reprimir con violencia desmedida, de torturar y violar. 

Evidentemente no están al mismo nivel",Abchid,yduvz,fjltbb2,"Hay gente que reprocha a Bachelet por el tema del tsunami, pero no es lo suficientemente masivo",fjlhfz4,Sicut-sideris,5u8hkm3s
"Siento que ojeaste mi comentario y te pusiste a escribir, porque no tocas nada de lo que dije.

Decir que la gente pro apruebo es más sensible es súper subjetivo, porque yo perfectamente podría decir lo contrario y justificarme con que la gente de este sub parecen infantes cuando les ponen en duda su postura: te empiezan a insultar, a decir comunista, que no trabajas, que eres primera línea; como si fueran mentalmente incapaces de llevar una discusión. Según yo, eso es ser sensible, porque si te llegan a tocar a alguno de tus ídolos, saltan al tiro a reaccionar como cabros chicos.

De nuevo, el puño no es un símbolo comunista. Es como decir que el rojo es un color nazi",Abchid,yduvz,fjlk1mk,"Analizo tomando en cuenta lo sensitivo que es el general de personas afines al estallido

a esta sensibilidad me refiero con (ejemplificado de forma exagerada) todo lo que pinochet, militares, carabineros, colonizadores españoles, hayan ""tocado con la punta de la uña del dedo índice"" es relacionado a algo negativo

bajo la misma lógica de persona altamente sensitiva, es absurdo indignarse por un genocida y estar mencionando y relacionándose con otros genocidas como si nada, y eso es independiente de que sea genocida nacional

da igual que el puño no sea exclusivo del comunismo, reitero en lo que dije, teniendo en cuenta la sensitividad que tienen y la soltura tan simplista de relacionar una cosa con otra, para que vas a estar relacionándote con representaciones asociadas al comunismo si quieres protestar en contra del genocidio? es ilógico",fjlh3b1,Sicut-sideris,5u8hkm3s
