child_body,child_screen_name,child_user_id,child_tweet_id,parent_body,parent_tweet_id,parent_screen_name,parent_user_id
Chuck in some blood pressure monitors and a handful of nurses and now you have a health clinic with a roulette Table,aesthetic_cock,byrfxz2,fl86zjo,How long before Crown announces that it's... I don't know... a health centre with pokies in the waiting room?,fl6kfou,Chiron17,cg35d
"Look you aren’t wrong in that snakes as a whole get a worse reputation than they deserve. Especially with the whole “Australia is deadly” meme, most people will never encounter a wild snake and the ones they do will normally move on once disturbed",aesthetic_cock,byrfxz2,fl6ixs9,"Everything you've said is true... I'm not suggesting anyone do anything stupid with a snake :)

All I was trying to say earlier was that tiger snakes have a somewhat undeserved reputation as being really aggressive... apologies if what I've said / how I've said it has stepped on anyone's toes.",fl6ifpq,RandomPratt,5oipx
"I haven’t read studies don’t by University of Melbourne, just actual encounters with them.

And yeh they will avoid people, in the same way people avoid snakes. Despite us trying to avoid each other we stumble across each other from time to time and if you surprise one or vice versa that’s where the trouble starts.

And on paper it’s great to read that they do a dry bite before striking again with venom, but when you are out on property is that really a risk you can afford to take? You have to assume that every bite it does delivers venom",aesthetic_cock,byrfxz2,fl6i8db,"Link [here](https://biomedicalsciences.unimelb.edu.au/departments/pharmacology/engage/avru/discover/snakes/tiger-snakes-emnotechisem-sp.) from the University of Melbourne...

Tiger snakes have a perceived aggressive nature - but they are actually fairly docile most of the time.

They *do* get into defensive position (which looks aggressive) if they're cornered, but they don't go out of their way to attack people, preferring to keep their venom for actual prey.

But compared to a number of other Australian snakes (like the inland Taipan, Eastern Brown, etc), they are relatively non-aggressive, and will avoid confrontation with humans whenever and wherever possible.",fl6f3aq,RandomPratt,5oipx
I’m just going off personal experience.,aesthetic_cock,byrfxz2,fl6ds49,"Bullshit. They're not a particularly aggressive snake at all, contrary to popular belief.",fl6dlzj,RandomPratt,5oipx
You won’t see them very often in the suburbs. I come across them a bit on the farms but it’s not really a huge issue to stay out of each other’s way.,aesthetic_cock,byrfxz2,fl6albz,"WITHIN AN HOUR?!

I am NEVER moving to Australia",fl69dbb,camlop,apme5
"And super aggressive, most snakes are fine if you give them some room. A tiger will fuck your day just for the sake of it. Makes for a real shit combination",aesthetic_cock,byrfxz2,fl6aj47,"Wasn't sure since I'm American, but to confirm for others who are curious, yes these are venomous snakes. Highly venomous, apparently.",fl64b0j,36-kars-on_mars,54qmtnkm
"Having additional weight above or below makes no difference at all to stability, but does make landing easier I would imagine",aesthetic_cock,byrfxz2,fl5xmf4,"Interesting putting the mag on top like that, you'd think it would be less stable.",fjnctgy,risbia,a6vb8
"Then congratulations, you have used the same engineering practises that NASA use to correct problems on a rover that is on a different planet.",aesthetic_cock,byrfxz2,fl52ybp,"Just did that with a lawn mower yesterday. Ripped it, kicked it, called it a motherfucker.

I cackled like the Joker when it choked to life.",fl4ilf8,IncessantlyFlummoxed,vmkoics
"Ok yeah that’s fine, you can’t stand there and say you are anti gun and anti death penalty while also saying some people need to be shot. Pick a side.",aesthetic_cock,byrfxz2,fl3blns,"Racism is a blanket view of things based on very concrete views. 

I fell that there are certain people that waive their rights to humanity. And when they are found to be incontrovertibly guilty... Then I have concerns slip away. 

However it's so rare that a person is truly found guilty beyond a shadow of a doubt... That situations like the above are rare at best",fl39i1h,Dizzman1,vfu9cou
"No that works, you can even get screwdrivers designed to be hit with a hammer to free seized or damaged fixings. 
Hitting it with a hammer forces the driver down while also turning it a quarter rotation. Super handy tool to have around",aesthetic_cock,byrfxz2,fl2lft9,Sure. That's functional.,fl213kp,desrevermi,jyyafu
See how a tank gewehr goes with that soft flesh armour plating,aesthetic_cock,byrfxz2,fkzm3p8,"> The idea is that the protectors will take the bullet instead of the car.

Yeah but if someone fires from a Carl Gustaf at this, do you think the body of these people will slow down a 3.31"" caliber bullet...?

I know, I know. It's just the whole setup is moronic.",fkz95s5,chx_,cyduk
"I heard that the lightning stick he used in Ragnarok wasn’t even a prop, he bought it from home and vaporised a sound guy because he bought Jeff a diet cole when he wanted Coke Zero",aesthetic_cock,byrfxz2,fkyovv9,"Jeff Goldblum, uh, finds a way.",fkxi7ba,H-K_47,gljx5
"It’s all a game of Sim City, we are just at the point now where the player has got sick of building his city and wants to try out all the different disaster scenarios.",aesthetic_cock,byrfxz2,fkvttsv,"At this point it would not surprise me if a meteor was discovered in September to hit earth on December 31st. 

""Thank you for playing"" -2020",fktyo01,Big_Gulps_Welpp,2o0dl2wg
Procedural butthole generator,aesthetic_cock,byrfxz2,fkvbeki,"They probably just used a dynamic butthole generator plugin like SpeedHole or AnusGen 2020.

Edit: Holy shit. AnusGen is a real thing. (NSFW) https://www.renderotica.com/store/sku/45394_AnusGen-2",fkuddov,anormalgeek,g3wx4
"To think; A graphic artist had to sit down and think about what Idris Elbas butt hole would look like if he was a cat, and then actually go out and make it happen.",aesthetic_cock,byrfxz2,fkvbcf0,"Do you think that every butthole was designed specifically for each cat, so that they're all unique? Or did they all share the same CGI butthole?",fku3svw,napalmtitan,14bpv8
Time is a construct,aesthetic_cock,byrfxz2,fkvb1ie,Some reckless ass behavior right there,fkuxnqv,supadupachop,419kdc23
"Yeh sounds like they are talking about Brock Turner,the man that was convicted for rape because he raped a woman.",aesthetic_cock,byrfxz2,fkmotdj,Yall motherfuckers talkin about Convicted Rapist Brock Turner?,fkmoby4,Turkeybaconcheddar,2e0bhckv
"While in the bush looking for deer sign you can smell where a water hole is sometimes, even if the water isn’t particularly foul you can normally pick up on it.

Always seems like more than just smelling, I don’t doubt it’s a major part of it but it’s always more of a feeling you get from what are probably a bunch of subconscious cues.",aesthetic_cock,byrfxz2,fkmn9tz,"From a distance though? Like I meant how you smell a poop in the corner of your house if your old dog had an accident while you were gone. 
I've heard its like that.",fkmexhj,straight-lampin,izea4
"No gulag in plunder, just a 15 second resplendent delay. You parachute back in roughly above your squad. If your squad gets wiped you all deploy in a new location",aesthetic_cock,byrfxz2,fkm3en8,I keep dying to unfair gulag fights I don't like it. Should call it gulag zone instead cause that's where you go.,fkm3b50,EventuallyDone,3sda1jat
"The plunder game mode is actually amazing, IW hit the nail on the head with the Warzone update",aesthetic_cock,byrfxz2,fkm2w3s,"New COD bro, free to play and pretty fun actually. This is coming from a guy who hasn't bought a COD since MW2 back on the 360.

I'm on PS4 and in Australia, if you want to play together hit me up.",fkm18t0,woht24,8t8ylhr
The computers run on human flesh,aesthetic_cock,byrfxz2,fklz4lp,why would they kill 65 million just to run a simulation,fkkieuq,Amazingusernamethe,17ikvd
They don’t mate. Plenty of plumber mates I have despise “flushable” wipes as all they do is clog up sewerage.,aesthetic_cock,byrfxz2,fklgj0j,"They break up just like toilet paper and has been like that for a really long time.

Edit: not from AU. Guessing your drainage is a lot shittier then other countries. We have some super drains here in the US.",fkke78e,Y0STER,eljcm
Don’t tell me how to live my life.,aesthetic_cock,byrfxz2,fklge9s,Well yeah but your butthole is generally hidden from the world. You’re not going around rubbing your butthole on door handles or other people...,fkk4muj,NoAirCon,4f764ano
"My partner is 32 weeks pregnant, we don’t know what’s going to happen in the near future but it is concerning. Not shaping up to be a great time to have a baby",aesthetic_cock,byrfxz2,fkh0tor,I'm 37 weeks and trying not to panic as my hospital locks down and tightens restrictions. The worst timing to deliver a baby.,fkgrusv,shanagyal,lftlhao
Saw it a while ago on some Aussie shooting Facebook pages,aesthetic_cock,byrfxz2,fkgwas2,"All them bolt actions, this is definitely Canada.",fkgcllv,MUSHorDIE,qqo1wk6
"What’s insane is we make the toilet paper in Australia. There is no shortage of supply, it’s just a circle where we panic buy because everyone else is panic buying,",aesthetic_cock,byrfxz2,fkgw3ax,"It's not just Australia though which makes it all a bit weird. Also I went to the shops yesterday and there was bulk timtams, and shapes, canned food fruit and veg, milk, water etc. If you don't buy food you won't need toilet paper",fkg2nr7,RandomUser1076,f10pt
"Yo if she finds some hmu, shits getting fire round my joint. Gunna have to get the saber saw to some paper towel and cut it in half or something",aesthetic_cock,byrfxz2,fkafn4z,"My friend legit needs toilet paper in her apartment but can't find any in stores.

Thank you for all the replies. I told my friend and she said that she found toilet paper eventually, and that she doesn't think her landlord would approve of a bidet.",fka0bq9,MusicalPigeon,ju0m5a
M4/725 overkill,aesthetic_cock,byrfxz2,fkacfz3,"Welcome to the meta. That's why most games regularly tweak rules and stats, it disrupts the meta at least temporarily. It turns it into a cat and mouse where the community tries to find the current most optimal solution, propagates it, and then the rules change to break that solution and the cycle repeats.",fk81dyn,orclev,3y51q
"Yeh if you do manage to kill the demi god he has several million good pieces and 10,000 cheese wheels on him",aesthetic_cock,byrfxz2,fkabhxr,"Exactly! You only have to get lucky once to be set for life!

And what? Worst case scenario, you get killed? Then you aren't out here living in mud puddle, trying to scrape the coins together to afford a single leek to feed your gang. 

It's win/win, really.",fk6qxd1,PM_me_your_fantasyz,37f26wwf
"Not Australian are you? Public system you may have to wait an hour for hospital care unless it’s serious, I think coronavirus would be serious enough for instant attention.

Though here even the cheapest private health will give you instant attention and even better care than our public system has in regards to wait times and how nice your room is. Actual quality of care is amazing between both systems.",aesthetic_cock,byrfxz2,fk9zkeb,"Nah, it’s because he’s loaded.  You can get amazing medical care anywhere if you have enough money, which he most certainly has. I think he’s in a much better spot than the rest of us. You can bet he didn’t have to wait for hours in the emergency room coughing his lungs out to be seen. The average person will have to do that, no matter what system their country’s healthcare is based on.",fk9nleu,WelshLocks,5do0bido
Yeh. Mug the guy riding an undead horse that can make a dragon land by yelling at it enough,aesthetic_cock,byrfxz2,fk6nndc,"Do you have any idea how much dragon souls go for? 

Between that and your glowing weapons and armor, that bandit wearing fur shoes and holding an iron dagger thinks his ship finally came in.",fk6nf4r,PM_me_your_fantasyz,37f26wwf
"I’m in armour made from the bones of several dragons, riding an undead horse while holding the sword of a daedric demon and you think you are just gunna roll me?",aesthetic_cock,byrfxz2,fk6aost,"Alright, hand over your valuables or I'll gut you like a fish!",fk4w14o,Pollutantboy,13hjsa
I literally ate the soul of a dragon 10 seconds ago. You saw me do it and now you are trying to rob me?,aesthetic_cock,byrfxz2,fk5u0eq,"And archmage, dragon born, helped stop the civil war... Yet NOT a singel person knows it. Unless its quest related.",fk5i6y6,supe3rnova,e7yqm
"And the voices he does, like suck in some helium for Ellie’s voice and maybe a Christopher Nolan Batman impression for Joel?",aesthetic_cock,byrfxz2,fk3k1q2,Now I want a movie where Don Cheadle is just every character and you distinguish between them with the help of shitty wigs and fake mustaches,fk3bhos,Your_Name_is_Fuck,4qys645z
"Because toilet paper is a display of wealth. In the same way people would put their exotic super cars in the driveway when they have company coming over the rich now display their toilet paper around the house to show how much excess they have. My fruit bowl now has 4 rolls of triple ply in it.
 I’ve thrown out the the gold challices that once held pride position on my mantle above the fireplace in my great hall, now a stack of Kleenex double ply lines it.

Where my glass chandelier once hung now is several rolls of the best sorbent has to offer, dangling from the roof, showing all that enter that I am the epitomy of modern wealth.",aesthetic_cock,byrfxz2,fk3j5u7,"Seriously though, why do so many people take their tp out of the package, and display it as some kind of show of wealth in a whicker basket or in a pyramid on top of the toilet tank? Just keep the main roll stocked, and put the rest of that Charmin 30 pack in the linen closet like everyone else ffs!",fk346j0,dkasper51,1pkfx0a
Because they were fucking around,aesthetic_cock,byrfxz2,fk373k7,Makes sense. Just crazy how fast it happened to these guys. Like literally right off the start. Usually it happens at the highest point.,fk30nwt,matteh0087,2hish212
"“Sharon, how do reply on this fucking thing?”",aesthetic_cock,byrfxz2,fk1imep,"Now I want so badly to see a pic of Ozzy during his AMA with a pair of eyeglasses, leaning a tad too close to the screen and ""hunt and pecking"" every one of his replies.",fk0kxhe,ProjectShadow316,mqgp2
Completely agree,aesthetic_cock,byrfxz2,fk1bte8,"*Technically* the OP is dead on. Gunpowder isn't actually an umbrella term, even though it sounds like it should be. Gunpowder *is* ""black powder,"" and smokeless powder is something different.

That being said, that's stupid, and modern usage is transforming gunpowder into the umbrella term it obviously should be.",fk0oied,amalgam_reynolds,kimag
"He can’t copy DeadPool because he is too unpredictable, also DeadPool is completely cool with being shot and injured during a fight, so copying that style doesn’t work unless you are also essentially immortal.",aesthetic_cock,byrfxz2,fk0liyz,“Hey that’s my move?! Are you copying me?!”,fk0kssf,definitelyhooman,5gmd70p
"Exactly, both black powder and smokeless are types of gunpowder. Not sure where OP got the idea that smokeless isn’t a type of gunpowder.",aesthetic_cock,byrfxz2,fk0ifm3,"No, you are thinking of black powder. Gunpowder is still used to this day in modern bullets.
Edit: although it's called smokeless powder, it's just a modern version of gunpowder.",fk0fmrf,Ablazeknight91,33ostaj9
"Smokeless powder is still gunpowder in the same way that black powder is also gunpowder.

I reload and shoot both types and it’s common to use the terms smokeless and black powder to differentiate the two, but both are gun powder",aesthetic_cock,byrfxz2,fk0icto,"[Smokeless powders](https://en.m.wikipedia.org/wiki/Smokeless_powder); does the job of gunpowder without the big puff of black smoke after every shot, plus it's cheaper.

Edit: Added link to wiki page",fk0bdut,Awesomey326,28dvot
Even unattractive guys can pull. Dress nice. Be clean. And while confidence helps with ice breaking just being nice and somewhat outgoing will do you wonders bro.,aesthetic_cock,byrfxz2,fk09m21,"i have no idea how to flirt/i'm not attractive enough for others to initiate

edit: first gold, thanks kind stranger!",fjysq45,Glacecakes,3d7tpig9
“Just gunna squeeze passed ya mate”,aesthetic_cock,byrfxz2,fk066xn,"Humans just need to learn to give nature the good old Midwest ""ope, I'm just gonna scootch right past ya""",fk0438s,ctoatb,78try
"I made my money through gta businesses, heists are what I do for fun so I normally take the minimum cut for host and just have fun with it.",aesthetic_cock,byrfxz2,fk03iid,"I usually end up only getting one person to help me and I always split it 50%. It’s just gta money man, sure I’m broke in game but I’m having fun",fjyh4kw,MrSavagePanda,6dppux4
I’m genuinely curious to why you’ve only been able to eat steak 3 times in your life?,aesthetic_cock,byrfxz2,fjv8qpl,"I've only had the luxury of eating Steak 3 times in my life, twice medium-rare and once well-done, and sure, medium-rare was like very tasty, but the well done one wasn't bad either. Not as good, but it still tasted pretty good.",fjv5xat,darkdex52,9njbi
Found the guy that eats well done meat.,aesthetic_cock,byrfxz2,fju7mqj,"I think he acted like a snob.

When someone asks for a steak well done, it means cooked all the way through with no pink meat, not burned to a crisp.

Ramsey knows this, and instead of saying ""yes, that looks overcooked, I'm sorry about that, please next time bring it up at the time and we can replace it"", he goes off on a diatribe about how the ""proper"" way to cook steak is and that asking for it the wrong way excuses it coming out in an inedible form.",fju72m5,benowillock,5vkjl
"Shoelaces are made from nylon or something to that effect, it would just melt. And even if the jar did manage to somehow ignite it would just be a mason jar with some fire coming out, no pressure so no explosion.",aesthetic_cock,byrfxz2,fjtztyn,Would the fire even travel up the shoelace? Seems like it would just fizzle out.,fjsu898,tocilog,734tq
"How do you quantify value in those cases? Say I want to spread the message on how important it is to have 3 serves of bacon a day, infact I hold these values so close to my heart that I am prepared to spend 72 million dollars on an ad campaign to tell the world my important message.",aesthetic_cock,byrfxz2,fjqfz1p,"Ad for what? Theres no value for your money, so it voids the deal. You could just burn it, but again, no value.",fjpw096,SaxonLock,1npgnhn0
"Yep, these are the boys that are going to give us a new Australian Anthem one day",aesthetic_cock,byrfxz2,fjohds5,"This is not just an ""Australian band.""  
  
These are the authors of the classic aussie viral hit [smoko](https://youtu.be/j58V2vC9EPc)",fjmx869,mk44,61lp4
The Fulton system is real...,aesthetic_cock,byrfxz2,fjls1qt,LMAO! Go realism,fjjyj2e,HowDoIRun,16dwdh
Fix? You talk like it isn’t already working as intended,aesthetic_cock,byrfxz2,fjlhjt0,I really am surprised they've not fixed this yet! My best guess would be I only actually get 50-75% usage out of these tokens..............,fjkd6br,Om4r4n,2hcvjeb0
Found a good deal on a used Saab he just couldn’t pass up🤷‍♂️,aesthetic_cock,byrfxz2,fjjmom2,"Lol, what happened in 2000? Did Batman just turn up at a showroom and ask for a mid-range city car?",fjixpvi,InsideCopy,2c748d07
"Roid gut, see some of the massive guys with it, seems more common with HGH users",aesthetic_cock,byrfxz2,fjjmal2,Really though how is he fat and have ripped abs?,fjjkxlq,11fartbox,40hrk5tm
"That’s a small red, a big one can get on its tail and do some real damage with their legs.

They’ve also been known to lure a curious/ pursuing dog into dams and drown them",aesthetic_cock,byrfxz2,fjjllge,I never knew the Kangaroo's tail was so powerful that it uses it to jump-kick.,fjguav7,Barbasah,1wx2iu6j
I think it’s less of a check up and more to do with conditioning the animal to be fine with humans prodding around in its mouth for when it is a full sized human chopping size Hippo,aesthetic_cock,byrfxz2,fjj4grn,Can you imagine if you want to the dentist and they just rubbed your mouth with their bare fingers like this?,fjimash,maceymcr95,22bntii9
"Fuck that actually sounds really accurate, makes it easier to read",aesthetic_cock,byrfxz2,fjfwoli,"> StarWars.com: Tell us about the time a King Brown snake bit you…
> 
> 
> 
> Scott Loxley: I was in Queensland in the middle of bumfuck nowhere. You’d see plenty of dead snakes. I’d eaten about close to 30 of the cunts on that journey, and I saw a snake I thought was dead and it wasn’t until I got right beside him that I saw the fucker's head rear up, and thought, “Fuck me this cunt's Not dead!” So he’s come around and the cunt bit me on the back of my calf muscle. I realized it was a King Brown and those arseholes had the highest output of venom of any snake in the world — up to 150 mg per bite — and I thought, “I’m fucked.” I moved left, he’d move left. I moved right, he’d move right. It was a really aggressive cunt. So I moved around the trolley and was waiting for the hot sensation of the bite to kick in, and I looked around the back of the armor and realised his teeth didn’t penetrate the plastic. There were a lot of bite marks because the King Brown’s likely to bite you and grab on and chew as they pump venom into you. If it got me I'd be screwed, only thing I could’ve done is sit under a tree and go to sleep, and if I woke up in the morning then great, and if not, well, that’s the end of the walk! I was really fuckin lucky.



I'd say that's a bit closer to what was said, add in a few fuck me deads and a bogan or two if needed",fjf65up,Heavy-Balls,11p3y9
"No use, not designed for the abuse that they would be dealt. Even a decent 4wd can struggle when faced with something like the corrugated roads of old gunbarrel highway. Basically 1400km of dirt and dust with as much as 500km between fuel stops. You can’t even use it without several permits from
Aboriginal land offices.

It was called gun barrel because it is very straight and named a highway as a joke basically. An SUV would literally rattle itself to pieces within a day and it will take  atleast 4 days to cross it",aesthetic_cock,byrfxz2,fjed9xf,What about AWD medium or small SUVs?,fjczbx8,lizardjoel,74k65
Get into deep rut or hit a big hole that turns out to be deeper than you thought and you’ll want all the ground clearance you can get,aesthetic_cock,byrfxz2,fjecjzl,"Although there may be an issue with ground clearance at some points, but this won’t necessarily cause a problem if you’re brave enough.",fjcsbj1,NotEre2FuckSpiders,3hgxqw55
"TOMB RAIDER BUT ITS A DUDE.

There, I just showed you the script for the movie.",aesthetic_cock,byrfxz2,fje4uxn,Do you seriously think they’re going to be *faithful* to the games?,fjaso1f,sandiskplayer34,a1o9q
"While the fires have stopped, the rain has bought some bad flooding with it, better than fires I suppose atleast",aesthetic_cock,byrfxz2,fje1fah,That’s the catch 22 with rain. I remember how much we loved rain in Southern California.. but every heavy rain season brought with it some of the worst first seasons,fjdt9j8,TheJonathanDavid,w2778
"Yep, He did everything right and had no reason to think somebody could beat his quad 9s. It was just shit luck for him",aesthetic_cock,byrfxz2,fjcs3zx,"I loved seeing the guy with quad nines thinking they had the win sewn up (because typically you do with quads) and he threw down so hard when he went all-in. 

The sting of the loss will be brief anyway, that guy has a good story to tell for the rest of his life. Bad beats are just as fun to tell as good hands once you get far enough away from when they took place.",fjcn4gj,KuriboShoeMario,xm13z
Potential winnings. He’d only lose his buy in whatever that is minus any prize money if there was any depending on where he finished in the tournament,aesthetic_cock,byrfxz2,fjcrxlr,Is that the out of pocket loss or just the potential winnings he missed?,fjcr9bl,Drunken_Traveler,iw39ddp
"Its livible, but populations do better near a coast, that’s why the majority of the population is in Melbourne or Sydney. It’s just hard to get goods to the middle of Australia and with so little people there isn’t even much of a rail network. 

Things like road trains are more used instead.",aesthetic_cock,byrfxz2,fjcrm5m,Cause most of the middle of it is pretty damn unlivable,fjcr1fy,AzureJustice,qt5j7
"Depends on the track, some cars like say a Subaru Forester won’t be allowed on some tracks as it isn’t really a 4wd because it lacks a low range gear box.

Even the Volkswagen Amarok, a dual cab ute was restricted off some tracks as it didn’t have a low range gear box.

So you’d be fine as you have low range",aesthetic_cock,byrfxz2,fjcrgl0,"Wait, all wheel drives are restricted in Australia? Just curious. I m in Pennsylvania and my all wheel drive all the time (which sucks with gas mileage) can shift into 4 whl drive or 4 low at any time",fjcrctt,nikflip,1qf0srgr
"North Australia in the wet season is a while different thing. Not everyone has the right 4wd or supplies to
Do that sort of driving for those conditions.",aesthetic_cock,byrfxz2,fjcqez2,"I mean... paved roads? There are plenty of dirt tracks that are high quality and don't require 4x4s to drive on, but I appreciate the picture for karma lol",fjcmyzy,Commercial_Accident,34cgvy1d
There is nothing much out that way. Not even worth building rail system for most of it. Goods are shipped via road trains,aesthetic_cock,byrfxz2,fjcqctx,Is the road system is AUS really that bad?,fjcngjn,VegaTDM,hhivrz
And 300 million less people than the states. Similar land size as you but with only about 30 million people.,aesthetic_cock,byrfxz2,fjcq8sz,God damn,fjck8v1,drmcmahon,49a3754
"If you are prepared yes. You don’t want to travel to the outback unless you can be self sufficient for your trip. Remote parts won’t have you see another car for days on some roads. If you break down and don’t have enough supplies you can die.

Some tourists have underestimated the sheer size of Australia, flown to Sydney and rented a car thinking they can just pop down to Melbourne for a day or two and then head up north to see the outback.",aesthetic_cock,byrfxz2,fjcq5y1,Might be a dumb question but can you still drive out there and just like.... idk explore?,fjcn0q8,vicente8a,e6tyl
We only have about 300 million less people than the states,aesthetic_cock,byrfxz2,fjcq2fb,Australia is massive and nearly the same size as the main part of the US. They just don’t have very many people there to tell anyone about it.,fjcm39f,Rollover_Hazard,wb8nw
"Subaru’s aren’t 4wd, just AWD. Not appropriate for touring in Australia honestly.",aesthetic_cock,byrfxz2,fjcq0vc,I kindof assumed that all the roads in Australia were dirt.  And for that matter that everyone drove subarus.,fjcfwcf,Agent_216,1naxiga
"Fuck know, just is🤷‍♂️",aesthetic_cock,byrfxz2,fjcpzrg,Why’s it called that?,fjcpsw9,EternallyPissedOff,pspf3
"There is a reason the AWD cars are restricted to what off-road tracks they are allowed on in Australia, they do tend to struggle. You want a 4wd, solid axle is nice but IFS will do just fine too",aesthetic_cock,byrfxz2,fjcpz2j,"Most AWD cars would probably do just fine, Really doubt you need 4wd or especially anything with a solid axle",fjcov21,Benstockton,2vfntkr7
"Because you can die if it’s any longer than that, from suspension trauma. Learned that during harness training for my boom lift license",aesthetic_cock,byrfxz2,fjchbkr,Why 10 min?,fjcal16,No_Juan_4_You,co9qz
These puns are getting wheely bad,aesthetic_cock,byrfxz2,fj93ejb,I'm really tired of them myself.,fj8pj6i,Amaegith,ahwnn
"I’d assume because any sort of analysis like that could lead to the assumption that they are sympathetic to or even in agreement to the unabomber, not something any media agency would risk.",aesthetic_cock,byrfxz2,fj8vvy7,Wasn’t implying you did but the average citizen has been given that impression via media. More of an eye opener than the word manifesto leads one to believe. If we had real objective media analysis it would make for fascinating discussion...which will likely never happen,fj8033z,Rinse-Repeat,4uq3y
I never said it was deranged.,aesthetic_cock,byrfxz2,fj7zfoa,"Ever read his manifesto? it wasn’t deranged at all, not in that sense. You can see how ones worldview filters information and leads to insane conclusions.",fj7zdso,Rinse-Repeat,4uq3y
"Including getting him to write down an essay of his core beliefs and ideals, they then picked it apart and used it against him in an interview to challenge is morals and principles I guess.

He would later write an updated version; the unabomber manifesto",aesthetic_cock,byrfxz2,fj7e418,"Yeah, I think you're correct. One of his professors was the one conducting the stuff, right? They did some fucked up shit to him.",fj77401,nonboooks,4rcpdap5
There is a video out there of RDJ in character as Kirk Lazarus in character as Lincoln Osiris filmed in a documentary style of him at a hotel being fairly mentally unstable while at peak energy and intensity. Fucking surreal.,aesthetic_cock,byrfxz2,fj65xj8,"This is actually fascinating, I need to watch the extras on my Tropic Thunder DVD damn",fj3o0q9,LynchMaleIdeal,c1hdy
I think it’s just autists betting their student loans for tendies,aesthetic_cock,byrfxz2,fiz21ew,"Is it satire? Like, do they drop the whole pretense of ""WaLl StReEt iS aN iNdIcAtOr oF tHe eCoNoMy"" like the talking heads on TV say it is and just go ""rolling deep, bling bling bitches"" instead",fiytrgo,NothingJustLooking,6jfm8
"He didn’t for his ego, he actually thought what he was doing would have positive long term effects, he thought he was doing something for the greater good and was happy to die doing it. His plan was just flawed",aesthetic_cock,byrfxz2,fiwm6p1,"He was called the ""Mad Titan"" not the ""Seriously-Thought-This-Through-and-Totally-Not-Doing-This-For-My-Ego Titan"".",fiw5put,jr061898,avj2eic
"He’s called the mad titan, not the “rational plan titan” he plan isn’t perfect or very effective in terms of the goal he wanted to achieve but he wasn’t driven by anything rational, just obsession.",aesthetic_cock,byrfxz2,fiwm3w5,Might just be good proof that Thanos’s plan was more about his ego than it was fueled by altruism as he claims.,fivxx4q,Kurokaffe,phi2vl5
"That’s also why it backed down, the bear could have won that fight, but it wouldn’t be worth the injuries it would sustain, and it knows that",aesthetic_cock,byrfxz2,fivd8w0,Am I going crazy or did it look like that bear was actively keeping his head down so not to expose his face and eyes to damage?,fitvpo8,juicemang762,6m415x7
Being a fat cunt doesn’t count😂,aesthetic_cock,byrfxz2,fit4jya,"I'm 6'4"" and 240 so I'd eat you for lunch wiener face.",fit4gjs,BigOlDickSwangin,3tgm8j22
"As soon as Tom Cruise gets told they have to delay his stunt where he jumps from one moving plane to another he will leave filming for approximately 45 minutes while he finds and then kills Coronavirus. 

Nothing stops Tom Cruise from doing ridiculous stunts while filming Mission Impossible movies",aesthetic_cock,byrfxz2,fissu4r,Nothing can stop Tom cruise. Filming will resume shortly when he defeats the virus and unifies Italy,fio6nei,mg2012,b5r3u
"Watch Pumping Iron, gives a awesome insight into his training and what pushed him further every time",aesthetic_cock,byrfxz2,fis3g55,Hey quick question how did you keep motivation to continue bodybuilding after doing repetitive seeming  competitions? (Asking for me),fis2jyj,wildreggaeshark,2ynwdvvk
"Inspiration and motivation are fleeting and unreliable states of mind. Make your exercise habit and instead use discipline.

Can’t be fucked going for a run? That’s ok, still get up and get dressed and instead go for a 5 min walk around the block, keep the routine and keep moving.",aesthetic_cock,byrfxz2,fis3awc,Is Arnold a genie now? My first wish is some inspiration to finally get my running on tomorrow morning.,fis0qre,hstheay,w0ttu
"I’d say I’m pretty big, about 100kg (220lbs) at 6ft. I’m
Not a fighter though, with no real training I’d get squashed the same as anyone else, my only advantage is my weight over a smaller opponent but that would only get me so far",aesthetic_cock,byrfxz2,fioue12,"Well one of the most common ways to get good looking muscles for men is bulk training, steroids, and water/food fasts. 

That doesn't mean you're super strong or good at fighting. Take a look at the strongest men in the world.",fio0jak,GreatNegotiator,110kcb
"Cyclists are permitted to carry and deploy AT mines, caltrops and rearward facing flame throwers, though the added weight is a trade off.",aesthetic_cock,byrfxz2,fio3l7p,"Once there are 10 or fewer cyclists alive, the driver will pull a random automatic weapon from a large satchel and will fire upon them.",fin9g39,Fatalchemist,g6brh
"Without knowing how a Tesla is wired it’s probably just a patch cable from the led running lights, with how low the draw from reactor would be I doubt the car would even notice that extra load.",aesthetic_cock,byrfxz2,fimef9i,Is it actually lit up? That must be a lot more effort than it looks like?,fimbt95,PM_ME_YOUR_SCI-FI,15731m
"Seeing that scene from superman where he “transforms” from Clark Kent to superman by just changing his posture and voice shows how much he can change himself from something so simple

https://youtu.be/tNUu6Lf9mVU

Found the clip",aesthetic_cock,byrfxz2,fijjn76,"This is a really tired cliché. The citizens of Metropolis don't know everything the readers know. They're missing some key pieces of information that would be necessary for them to ask the question in the first place.

1. Superman doesn't wear a mask. He does regular interviews with the press, and other public appearances. He's pretty open about his origins. No one in Metropolis has any reason to think he even _has_ a secret identity. If pressed for his ""real"" identity in an interview, Superman will just say his name is Kal-El, and he comes from the planet Krypton. But where does he live when he's not fighting crime? The Fortress of Solitude, of course.

2. Clark Kent is a fucking nobody. Seriously, how many people could name random reporters from their local newspapers? The only people who could make the connection would be people who happen to know him personally, and he can easily respond to ""hey, you look like Superman"" with ""thanks, I get that a lot"".

3. Superman uses various acting and costuming tricks to distinguish the Clark Kent and Superman personas. Wearing layers of clothes to hide his physique, changing his posture, his speaking patterns, everything. So the only thing the two would have in common in most people's eyes would be the face, and ""huh, what a coincidence"" is a much more reasonable explanation than ""he's secretly Superman"".

4. Superman's appearance isn't actually that distinctive. He's just a generically handsome white dude; there are probably at least a dozen other people who kind of look like him. One of these people is Bruce Wayne; they've switched costumes on more than one occasion to fool people. Hell, in some continuities, people start intentionally copying his haircut, making it even less notable.",fijh8ie,Nulono,457pe
And just recently Seth McFarlane donated about 1 million dollars to help fund a new koala hospital to aid with the bush fire recovery and the huge amount of animals Australia zoo is now treating,aesthetic_cock,byrfxz2,fiiryom,"Australia Zoo has extended to 400 hectares or 1000 acres. On it, The Irwin's care for over 1000 animals and attract over 700,000 visitors annually. They have an on site clinic for animal recovery and rehabilitation and are spending their days educating people about Australian and international Fauna.",figjqle,Wizard_of_Ozzy,hf94m
In Australia we have “scarnon?” for what’s going on?,aesthetic_cock,byrfxz2,fidp6r9,"I'm more of a ""nah mean"" person myself, but this works too.",fic3mcb,Flynzo,12n6qv
I want Nic Cage trying to mop some floors while being harassed by demons trying to kill him and he’s just brushing them off while he scrubs a toilet,aesthetic_cock,byrfxz2,ficfe1b,This sounds extremely stupid. How can I buy advance tickets?,fib03py,innerearinfarction,833brut
"Nah 1-2 coordinated players focussed on the objective is enough to take the win. Especially in Domination where you can use cluster strikes as area denial for the other team, and while your own strike will kill you they are useful to call on a flag so your friend has an easier time capping it.",aesthetic_cock,byrfxz2,fi6j7xz,"On a 6 man team, you just need two guys running around getting kills and killstreaks, everyone else just play the objective. Works everytime.

Problem is, usually only like 2-3 guys wanna play the objective lol.",fi6cjcj,WetworkOrange,gnodb6
"Rail gun has a bit of an aggressive tone to it though, not very public friendly. How about “Orbital conflict resolution management system”",aesthetic_cock,byrfxz2,fi5sz3d,Sounds like an orbital rail gun. A sure fire way to eliminate the competition.,fi5sniu,aufrenchy,wuwomf
"Don’t worry bro I did that too, left when I was 15 years old to start work🙃",aesthetic_cock,byrfxz2,fi5eufe,"""you might as well quit school and take this job."" - My Father



I did.",fi4c7jv,Wrong_Answer_Willie,3hrhczzp
"Amazon satellites delivering packages via kinetic projectiles launched from orbit for near instant delivery.

Also useful for shipping a 24 foot long tungsten pole directly to their competition or to any small countries that dare defy the Amazon empire.",aesthetic_cock,byrfxz2,fi5dekl,"After they secure that monopoly, everything will go to shit. But by that point, they will have their HQ up in space while they watch Earth burn up its last resources.",fi4t2xj,aufrenchy,wuwomf
All I know is my gut says maybe,aesthetic_cock,byrfxz2,fi2sdg7,All evidence points to a 50/50 chance.,fi2odws,cosgyp,16oa92
Golf carts and throwing balls is all on the table,aesthetic_cock,byrfxz2,fhztpd6,And today's match up we have Tiger Woods with Mike Tyson vs Rory McIlroy and Floyd Mayweather.,fhz5nxo,StumpNuts,fngth
"I take it for granted in Australia, everything from emergency visits to my partner giving birth and the huge amount of care and attention that goes into that, all free.

Have any sort of concern about the pregnancy? Come to hospital and they will have a look no worries and it is actually encouraged to go if you have any sort of doubts.

Giving birth at 1am and you decide you want an epidural but there is no anaesthetist on site? One on call will come to the hospital immediately to perform it for you. Completely free.",aesthetic_cock,byrfxz2,fhzsppd,"Imagine wanting people to *be able to afford basic health care* and actually go to the doctor when something’s wrong with them, instead of just suffering through it because they know they can’t afford a hospital stay or ER visit😂",fhyw94k,thatlazydude,gl1u1
I LOVE SOME STANDARD PROTOCOL HUMOUR AT THE EXPENSE OF ANOTHER CONFIRMED HUMAN,aesthetic_cock,byrfxz2,fhx05f7,"THE RESEMBLANCE IS UNCANNY HAHA, WE HUMANS ARE SO ALIKE EACH OTHER",fhwqkqf,Hstrike,m1tkx
