child_body,child_screen_name,child_user_id,child_tweet_id,parent_body,parent_tweet_id,parent_screen_name,parent_user_id
"First bite - bravery
Second bite - stupidity",Banonogon,68tem,fl8auxk,Haha. He just jumped right in no questions asked. Bravery or stupidity?,fl7fpfv,MrSisterBlister,5d7uivj0
Your dentist’s name is... Crentist?,Banonogon,68tem,fkl74ah,"What an appropriate name for a landlord. ""Bruce Landlord"". It's like it was his destiny.",fkki4yu,JeremyTheMVP,743rq
"Bestest life hack: Do this, but don’t drain all the water. Leave a little bit, like maybe a teaspoon.",Banonogon,68tem,fk2vbez,"Alternate life hack: drain the water completely, pour the powder on dry noodles. It’s the only way to live.",fk2jua9,-P-M-A-,5abpu7d4
"You can never leave! And, uh... your rent goes up every month!",Banonogon,68tem,fjagt0l,"Shit, free housing? Who's tryna leave!",fja6mf4,UpTheIron,61m7b
Starring Sting,Banonogon,68tem,fhy223i,"“The Sting”

Edit: Thanks for my first Gold, kind stranger!",fhx2vsn,jambo_1983,3l03agso
/r/superbowl,Banonogon,68tem,fgjyo11,All owls are superb owls.,fgjjgoy,rgrwilcocanuhearme,g2h2i
"I had a game boy color as a kid, and one Christmas I started opening presents and one by one I found games for the gameboy advance. I thought my mom had screwed up and not payed close enough attention. I remember trying not to seem too upset even though I was pretty disappointed. Then I got to the last present, and it was a gameboy advance :)",Banonogon,68tem,fbhic5v,Essentially what it was like asking for video games growing up.,fbgiuoy,DerlethTully,701yf
/r/outside,Banonogon,68tem,faiyav5,"Outside, it's the latest craze that no one gets a choice to opt out!",faiv7vk,Haweraboy,e7nj6
Nobody’s getting in a huff over “the majority of Redditors.” The problem is with the people who DO care enough to complain about the song and/or want it banned. Those people have a responsibility to learn the facts before holding that position.,Banonogon,68tem,f8ejths,"The controversy surrounding that particular line is that present day listeners living in the era of “date rape drugs” can’t be expected to be familiar with increasingly obscure old-timey jokes about getting drunk. You can get upset and call people ignorant all you want, but language and culture change. If you like old movies and enjoy the song in its original context that’s great and no ones stopping you, but don’t go getting in a huff over the majority of redditors not knowing or caring who Esther Williams is.",f8eg7cr,brideofchuckydoll,60fw6ra
"A tiny bit sloppy? The insulation has been melted off the wire on the ends attached to the board, and the solder is a mess!

I don’t disagree that this method was a perfectly fine fix in a pinch, but it was not done well.",Banonogon,68tem,f89z7b7,A tiny bit sloppy but I don't see anything wrong here whatsoever.,f88tdm4,claytonfromillinois,bybnf
"Agreed. At my school we were required to co-op at companies during certain semesters, and when I started getting into mid-level classes where many of the students had done at least one co-op, there was a constant stream of students raising their hands to disagree with the professor and start their sentence with “Well, at my co-op we...” It drove me crazy.",Banonogon,68tem,f82n1gk,Tbh any student who tells personal anecdotes in any lecture is a dick.,f81q5dz,Mattock1987,32a3woqx
"My professors wouldn’t have batted an eye at 35%. They understood that Turnitin gives back percentages in that range sometimes for perfectly good papers. They were mostly concerned with higher percentages, or when entire chunks/paragraphs showed as direct copies.",Banonogon,68tem,f7bp5b8,Had to rewrite a paper in college because it was 35% similar to an amalgam of other papers. The teacher had been having all of his classes for 15 years write the same paper. How the hell do you avoid writing something somewhat like hundreds of other people on the same damn prompt?,f7bf5d6,JusticeRings,51k5f
"“It’s ok, scream all you want. Nobody can hear you because they’re listening to Kidz Bop.”",Banonogon,68tem,f6892q7,That is the scariest-looking person I’ve ever seen in years. Pennywise ain’t got shit on her.,f661kjf,AdrenIsTheDarkLord,9i1e7ok
Mine is always “The Codfather”,Banonogon,68tem,f66zd2l,"I named mine ""Infinity Rod"" and i have a back up called ""Ol' Reliable""",f66l4h6,LambDProVEVO,3i89xca3
That’s right. Human bean juice. Ha ha.,Banonogon,68tem,f5rt4lq,"What is this, bean juice?",f5rl841,VulvaSpud,1e0f5e1r
"I mean, technically just throwing bleach at someone would be a “chemical weapon” so that checks out.",Banonogon,68tem,f4gkybb,"You can make a chemical weapon from the cleaning aisle at the grocer — or so I’ve heard.

Edit: To my personal FBI agent, I got a gentleman’s C in chemistry. I’m not a threat.",f4ghe3y,Truculent_Raisins,10gcysoc
Reminds me of *Deathproof*,Banonogon,68tem,f0a2r7o,"Everyone's all like ""this is some serial killer shit"" but this just sounds like your average twelve year old who just saw their first Tarantino movie and wants to be super cool and edgy",f08hyno,FlyinBrian2001,117ja0
DIIINNNNSDAAAALE...,Banonogon,68tem,ezbwnmb,SPINY NORMAN,ezasc1q,davisdilf,16szgi
"Holy shit, thank you for letting me know there was a name for this. I’ve heard it so many places. I first noticed it when I was watching through the Indiana Jones series and noticed it in every single movie (at least the first 3, not sure about the last one). I never knew it had a name until now.",Banonogon,68tem,ey2pwhl,They need to record his laugh and reuse it in movies.  Like the Wilhelm scream.,ey2mzyf,Contrariwise2,vq09lhu
Sadly this was before hoppers,Banonogon,68tem,euau85j,You could have forgone the access tunnel entirely if you used hoppers that stored the loot in a chest in your main base,euabku8,bob_the_science_guy,11lus054
"I have never underestimated any of these things. In fact, I’ve never even estimated any of these things.",Banonogon,68tem,etp1msz,"People underestimate how sharp obsidian is, how strong rocks are, how damaging knives made of bones are and how fit people were in the Stone Age.",etosc6w,DoctorOfCompassion,4489l3wz
75-80 in what speed limit though? You realize there are places in the US with speed limit 80,Banonogon,68tem,esj46u5,"It's pretty common around where I live for people to ""go with the flow of traffic"" even if *everyone* is speeding.  I've driven in some areas where pretty much everyone around me was going 75-80.  People will even argue that cops will not pull you over because it is safer if everyone is just ""going with the flow.""

That is not true.  They can and will still pull people over.",esi89my,AssumeImNot,2dy23ccb
All of the dogs?,Banonogon,68tem,es9g5c5,"Should I be worried about my wife? I'm outside on the porch, watching my dogs, eating a popsicle. 

Edit: Jimminy Christmas...RIP my inbox.  And thanks for the extras.  I haven't gotten through my inbox yet to see who gave them to me...but thank you in advance.  

Edit 2: it seems based on these comments that a lot of people found their way into my home and spent time with my wife.  I was only outside for about 5 minutes, so that means that at least some of you are liars...",es953oq,Shenanigamii,3p7i9sf4
Escapations Subverted,Banonogon,68tem,eo1dbdh,The dog kind of forgot how to escape,eo1b4ua,Npoot,36obj3yd
"I’m not an expert, but I don’t think this is how AC works.",Banonogon,68tem,enye2lt,"Fun prank. Get a one pronged fork, and stick it in the negative side of the outlet and watch everyone's reaction.",enydgsv,the_thou_factor,ls115ap
It reminded me of the “Naked Gun” intro.,Banonogon,68tem,enuf4gx,"This reminded me of the ""Roseanne"" tv intro.

Definitely heard the saxophone playing that song in my ear during this.",entw8o2,eriF-,ccrv4
"No, you’re wrong. They stopped using the cylinder like a year ago. Now they just ask some guy named Planck how much a kg is.",Banonogon,68tem,enty14m,"You're all wrong. It's ""Brass Stacks"", referring to the stacks used as the international standard to define the fundamental unit of mass, the kg, before they moved to the platinum-iridium alloy cylinder used today.",entr3qm,puffy147,1o05xfqj
"Hmm, I guess you’ll have to make some other kind of special drill attachment for those.",Banonogon,68tem,eneoyy0,"Unless it’s a screw, then you’re out of luck ^/s",enegkpa,HauschkasFoot,dboyv
Steam,Banonogon,68tem,emzek3u,"Holy hell, what do you guys make??

Edit: the guy to whom the question was addressed already answered, you can all stop saying steam turbines now.",emzd1fb,mthchsnn,4qr67
The credible Bulk,Banonogon,68tem,emty0hl,what even was the point of Hulk Banner?,emtocuc,Comander-07,6qc7kgv
"What, do you expect them to put on a full-scale play just to educate your dumb 14-year-old ass?",Banonogon,68tem,em6o24g,Freshman English in a nutshell,em6lim2,goldninjaI,2gc90fw
Yup I’d link it if I weren’t so damn lazy.,Banonogon,68tem,elgq58g,That actually happened lmao,elgowke,crystal-rooster,1b6tiqc
Until someone asks him why he is Tony Hawk...,Banonogon,68tem,elgnzop,"the dude's 50 years old, worth $140 million, and still gets recognized even though he hasn't competed in almost 20 years. I'd say he's still doing pretty great.",elgjx6b,SgtSilverLining,ixynm
This went from 80 to 140 real quick,Banonogon,68tem,elbg41i,"Damn, selling cocaine is a 0 to you?",elaibl0,OhTenGeneral,7slci
"#”This is lake, so lame”",Banonogon,68tem,ekf7rp9,"#""This is like, so lame.""",ekecori,Supreme0verl0rd,1124vg
"I’m not an English major, but I’m taking a graphic memoir course to fulfill a requirement and I’ve ended up really liking it. Maus has been one of my favorites, with my favorite so far being Stitches.",Banonogon,68tem,ek834f4,"I study English Literature at uni and many courses have graphic books to study. We had the graphic novel 'Mauss' by Art Spiegelman last year and it was great. It's ridiculous to dismiss graphic novels. The book Mauss could do stuff that no ordinary novel do, using the image to allude to complex ideas like 'trauma' which are hard to describe merely in words.",ek72bmi,Blonguin,reved
Steak butter is really the bread and bread butter of cooking a great steak.,Banonogon,68tem,ej1swcd,butter that goes on steak,ej1cq43,ArcticShore,1vj1kx7h
...cover it all in a layer of clear hot glue.,Banonogon,68tem,eio1jv6,"The only possible use for this would be in an art room to hold paint brushes but even for that, there has to be a better way to get a cup where the crayon won’t start chipping.",eio19k9,BooRoWo,16mv1l
“I am aware of the effect I have on people when I die.”,Banonogon,68tem,eik0pg6,"TL;dr his friend Idris Elba died and that changes a man, mortal or not.",eijoitw,StuartHoggIsGod,10dcl0
Say next to my professor on a plane last week. Literally the seat right next to him.,Banonogon,68tem,eijzzyi,I ran into my professor in a supermarket and it was the most surreal experience. This guy who I thought as smart and who I depended on and who I had to run around after just so I could pass my semester was standing there in the vegetable section struggling to pick proper full peas. ,eiikdj9,poopellar,a2a1s
"“Damn, that’s a pretty flower. Here ya go, plant, have $5.”",Banonogon,68tem,ei8azc7,Do you tip for every source of entertainment in your life?,ei817na,JawTn1067,fzg0b
https://www.youtube.com/watch?v=kg12uhZu9_o&feature=youtu.be&t=1s,Banonogon,68tem,ehfkte6,"""FUCK OFF""

""NO YOU FUCK OFF""

""NO YOU FUCK OFF""

""FUCK YOU BUDDY""

""I'M NOT YOUR BUDDY, PAL""

""I'M NOT YOUR PAL, FRIEND""


""Understandable have a nice day""

""You too mate""",ehemc8i,HeroicLarvy,h88df
>Maryeet Antoinyeet ,Banonogon,68tem,egz7zck,">She says, just like Marie Antoinyeet.

",egz0r8z,Binary_Omlet,68m4s
"Yeah, because they shave instead of leaving it patchy.",Banonogon,68tem,egxhs1z,"""Genetic abomination"".

Some of the hottest dudes I know are bald, so that's flat wrong.",egxbw3e,Gummyvvyrm,14t63r
"When I worked for a medical device company, we had a similar rule. All measuring devices of any sort had to have a non-expired calibration sticker from the metrology department to be used for any sort of testing. Even if it was just a tape measure or a ruler, although the calibration stickers on those generally lasted a couple years.",Banonogon,68tem,eghpcff,"My work requires that all rulers in the building be tested, verified, logged, and labeled. You can be written up for using a ""non-compliant"" ruler.  Suddenly this ruler rule doesn't seem so silly.",eggyu6t,BubbyLimeux,8gg3598
"Mistook Curiosity for Opportunity, or sang yourself “Happy Birthday”?",Banonogon,68tem,egelgg3,"Is that the one that ""sings"" itself happy birthday?
Because if so, I did the same thing",egegyqy,cornflakehoarder,vepq1
"Came here looking for this reference. I’m too lazy to post the link, but everyone should search this on YouTube.",Banonogon,68tem,eei7ltl,Living in Ikea Heights ,eehw2gq,PM_WetFloor_signs,100d1p
"It looks like the cop slowed down to see why the truck was stopped in the middle of the road, and pulled the guy over for leaving his vehicle there while he went into the store.",Banonogon,68tem,edog1m3,How does the cop know he wasn’t just super excited to get back to his place to drink that he ran to his car and save time? ,edodpez,captainJmorgan,5w27r
"Forget about the end portal, the cactus is the real shit.",Banonogon,68tem,edbl24t,9 tall cactus?,edbhawh,TarmacFFS,m2cjm
/r/2meirl42meirl4meirl,Banonogon,68tem,ed4959i,I feel like April would be something more morbid like r/watchpeopledie,ed3miwv,hughbrown622,115ks15i
What a cute little REORE,Banonogon,68tem,ecynyvp,https://i.imgur.com/YAoflLL.gif,ecym06a,EnjoyTheUsernameGIF,1l09bgcn
"TBH, I needed it.",Banonogon,68tem,ecwmm4q,Thank you Mr. Joke Explainer.,ecw6z5a,Piyamakarro,sx5ay
"They’ll catch you and put you in a pot of boiling water until you die and then they’ll crack open your claws with a tool, like pliers, and they’ll suck out what little flesh you have with their mouths.",Banonogon,68tem,ecs0tu9,"A lobster. Because lobsters live for over 100 years, are blue-blooded like aristocrats and stay fertile all their lives. I also like the sea very much. I waterski and swim quite well since I was a teenager. ",ecrj2ez,MaiqTheLawyer,i6o63l9
You should wash them regardless of whether or not you peel them,Banonogon,68tem,ebgc687,I feel like scrubbing them is a lot more work than peeling,ebfuhhc,ButtLusting,n8bkv
"Lol, just giving you a hard time. I know what you mean and you’re right.",Banonogon,68tem,eb69s7h,"Of course there is. And I know that a statement with the quantifier ""for all"" is easily dismissed by a single ""there exists"" statement.

What I wanted to point out by making the claim as bold as it is, that calling universally appraised actors or movies ""underrated"" needs to stop. Sure, not a lot of your friends may have the same taste in entertainment as you do, but that doesn't mean everything you like is underrated.

I just don't like this sentiment of pretending something is lesser just for the purpose of drawing more attention.

Idk, I'm probably rambling. Maybe you'll get my point.",eb69m6t,FantomUnicorn,2e2xom7u
That’s a bold claim. I’m sure there’s at least ONE person out there who has underrated Christopher Reeves at some point in time.,Banonogon,68tem,eb66csu,No. Nobody underrated Christopher Reeve. ,eb3gbcf,FantomUnicorn,2e2xom7u
“Dark Matter Is Just a Bunch of Stars Covered in Black FlexSeal”. Go.,Banonogon,68tem,eajk5m5,Just abut anything space related,eaj44dm,Meretan94,2a5ckc1r
"*Bob Vance, Vance Refrigeration ",Banonogon,68tem,e7ru8gu,"I love how every time they have a new person cameo into the episodes, they act weird as hell in front of the camera. 

Examples: when pam interviews in Philly, when Michael brings his old boss by after someone poops in his office, bob vance, everyone at stamford, and more that I cant think of off the top of my head",e7ral2m,marimbawarrior,nan81
"My college library has 4 floors, with each being progressively quieter. On the bottom floor, you can be reasonably loud and talk in groups and stuff. The top floor is super-duper quiet.",Banonogon,68tem,e7l55wh,"One of the best things my local library did was make the Young Adult section be its own, sound-proofed room (with clear walls), and to have little soundproofed study rooms. It lets teens have fun in the library without adults yelling at them, and if you absolutely need to get a VERY quiet place to get work done, you can go into a smaller, sound-proofed rooms.

Edit: A word",e7km5lm,WickedZombie,100wg0
Ohhhhh,Banonogon,68tem,e6tikyv,"Clarification:
I asked a friend from school if she knows what the note is saying. She says ""the article like this"" refers to the printer and electronic devices in general. You must purchase an electronics disposal ticket to get rid of eletronic waste in Japan so, the office does not want people tossing them around. That's what they meant by ""it costs you money to do away with it."" ",e6tf19r,yosemite78atreddit,zq03skb
Absolute brewnit ,Banonogon,68tem,e6pbiua,Absolute unit.,e6or9l5,anotherrustypic,16sxq9
"It took me a while to understand that his wife was the Victoria’s Secret model, and that he did not, in fact, have a wife and a mistress cheering for him.",Banonogon,68tem,e69nm3j,"""32-year-old Dan Smith started off with a full-time scholarship at Michigan State, going pro at age 20. At the sidelines supporting him are his beautiful wife, a Victoria's Secret model, and their newborn baby.""

""Haha, baby? Suckers!"" I say to myself in my boxers, licking Cheetos off my fingers.",e690528,radiocomicsescapist,dcorkd
The universe,Banonogon,68tem,e645kmb,"""What is the biggest thing in the universe""",e63sj1p,fdf2002,10c39t
"Big gulps, huh? All right, well, see you later.",Banonogon,68tem,e62ltv9,Went for a B I G  S I P and got a B I G  D I P ,e61zn53,Jose-That-Cant-See,1rhxthc7
"A pool man, if you will.",Banonogon,68tem,e5zxx43,You seem like an overqualified pool boy.,e5zpq8w,werdnaegni,4alf1
"No, obviously they would want to distort the image to make people look fatter, in order to fat shame everyone and push their corporate agenda of making everyone super-skinny /s",Banonogon,68tem,e5kf7ps,"You know, if companies could, they would install mirrors that make you look slightly thinner and taller to get you to buy the product. Not the other way around...",e5kao2v,kittycleric,1v9csibf
"It depends if the atmosphere stops spinning as well... if it does, then that plane just got hit with a Mach 1 crosswind",Banonogon,68tem,e5kezvx,"Only in the chance they would want to find a runway which isn’t completely destroyed or an aircraft carrier which isn’t capsized. Otherwise, flying would be okay for a while ",e5k6t1l,mikebellman,37okl
"After the artist had been going for 23 hours, that dialog occurred, prompting him to realize he only actually had to record 12 hours worth. He then stopped what he was doing and started recording the shorter 12-hour clip to save time.",Banonogon,68tem,e5cnl0a,But it doesn’t apply...unfortunately.,e5c9n6h,CAPITALIZED_USERNAME,1ju51kcg
“Lots of planets have a North.”,Banonogon,68tem,e5bj3rg,"I saw an interview with Taika Waititi where he was asked why an alien would have a New Zealand accent, and he responded something like, ""well why would they be British or American?"" ",e5be3dg,A_Bear_Called_Barry,wdaduoc
"First off, Wade Boggs is very much alive.",Banonogon,68tem,e4kfkal,May he rest in peace,e4k8nwz,JamieHeffo,n8j7r
"After the text was displayed, it seemed to linger and zoom in on his face for an excessively long time. I was hoping it would continue until his mouth engulfed the entire screen.",Banonogon,68tem,e4jp6wu,"Yeah, I let it play through twice, thinking there’d be some more interesting trivia.",e4iwyu8,fecking_sensei,11tf0w
"I think what he is trying to get at is that it sounds akin to an employer having the option to just withhold a paycheck if he doesn’t end up using his employee’s work. However, I think this is a very different situation.",Banonogon,68tem,e4joz70,"I don't see how that's illegal. No one really gains in this situation as in most game shows the prize money is less than what they make from each episode. At most, it could lead to a lawsuit, but game shows aren't under any legal obligations to award prizes and it would be difficult to prove that they only canned the episode because they just didn't want to give the contestants the same prizes that they've given out in 100s of other episodes. I could potentially see this happen if a contestant does unusually well, but most game shows have insurance which cover the expenses of extraordinarily large prizes.",e4jf5cv,mucow,mi1hx
It’s at about 4:10,Banonogon,68tem,e4imvho,I don't think your timestamp worked. ,e4ilxfq,kadno,4jhnq
I’m convinced everyone in this thread is a plant and you had all these gifs ready ahead of time.,Banonogon,68tem,e4hsz2n,https://i.imgur.com/FkVBHBX.gif,e4hg0dg,EnjoyTheUsernameGIF,1l09bgcn
[A rant I found on this topic a while ago](https://motherfuckingwebsite.com),Banonogon,68tem,e4cm2ts,"web pages that didn't move, popup or rely on over 9000 external scripts that have to load before the page is usable. ",e4cebvh,x25e0,15yl4h
Is this a tide ad?,Banonogon,68tem,e48xc0i,Basically a meme created by an advertising company. You can tell because it isn't clever or funny at all but most likely perpetuated by paid commenters or morons trying to fit in. It reminds me of the bud light catch phrase that was cringey and unfunny in every way.,e48g1zb,gravgp2003,cjzod
What if Dr. Pepper is a woman and Mr. Pepper is her husband.,Banonogon,68tem,e45iyth,Mr. Pepper is his father's name,e44ri96,thebrownesteye,gdmf0
"Yeah, but she only wasted about 0.1 seconds doing it, so at that point ya might as well I guess. ",Banonogon,68tem,e45h724,"A normal cleat is a wrap around the bottom, one cross, and one loop. Anything over that is usually overkill",e44zzvo,legosail,p0ckp
[Imgur mirror](https://m.imgur.com/fFRPvQK),Banonogon,68tem,e44oc9w,[mirror](https://cdn.notonthehighstreet.com/system/product_images/images/001/468/596/original_oval-bevelled-ornate-wood-effect-mirror.jpg),e44f3nr,memy02,dv4h1
What a world we live in. Wild.,Banonogon,68tem,e42lk2w,Gold for that?,e42c6bl,Amiracle56,ezko8
1 IQ for each year of the plan,Banonogon,68tem,e3zdzfz,9000 IQ play.,e3z85v8,FullMetal96,12osxr
I like to think that that is just one specific one that he picked up and held on to so he could insult people in dragon language.,Banonogon,68tem,e3g5oq1,My only problem with the mod is the way it does this. It causes you to respond “***Bruniik*- Savages” and it feels really out of place considering your character knows like 12 total words in the dragon language over the course of the game ,e3ftj8t,MrMountainFace,7cyk2
So like 1 in 600 ish,Banonogon,68tem,e3g4v46,"There is an estimated 500,000 asl fluent people in the United States. So.... Whatever that math comes out to ",e3g4472,Adolf_-_Hipster,eznxd
"At my company they had a company do this for cyber security. The company sent progressively more obvious phishing emails to see how many responses each one would  get. They also had a guy bring flash drives to the building (he didn’t have a  badge to swipe but he managed to get someone to let him in). The flash drives had our company logo on them, and he set them out in the cafeteria with a sign saying they were free. They had a “virus” on them.",Banonogon,68tem,e3fzl8a,"There are groups that you can hire to test your security at your corporation by seeing how far they can get before they are stopped.

Depending on the contract that can go up to and include a good old fashioned B&E, smashed windows and all. That is the job I want.",e3flxdw,PM_ME_CATS_OR_BOOBS,176vd9
This is so sad Alexa play Danny Devito,Banonogon,68tem,e31d02d,"Create original comment [4]

Copy cliché despacito comment [210k]",e30llp5,Cameltoetem,z18ot
"Nope, Tide ad.",Banonogon,68tem,e2lhqpy,"Is this a bud light commercial?

Edit: my first gold! Thanks random citizen!",e2l4wy7,asrk790,tbsah
"Oh no, I’m not brave enough for politics.",Banonogon,68tem,e224m68,"first read ""NowThis Politics"" as ""Now This Is Politics""; /r/PrequelMemes has changed me",e21s6ua,RarePepePNG,16svmq
⊂༼ ◕_ ◕ ༽つ WHERE BAN ⊂༼ ◕_ ◕ ༽つ,Banonogon,68tem,e2219ze,"⊂༼ ◕_ ◕ ༽つ WHERE BAN ⊂༼ ◕_ ◕ ༽つ

",e21yws3,Theamazingfantastik,1q5q4xnz
It sounds like he does not have a numpad (since he said he only has one zero key). Is it possible to do alt codes without it?,Banonogon,68tem,e1y23nb,"You've probably heard this one before too, but Alt+48, make sure Num Lock is on.",e1y08dc,Sikthty,e7cxr
ON THE BRINK OF DESTRUCTION,Banonogon,68tem,e1uyw8n,IN A WORLD,e1ugluv,char-charmanda,110bfa
"Wait, so if I do 3 layers of SPF 100 do I get SPF one million?",Banonogon,68tem,e1uyum8,"Most people dont know how sunscreen works but spf 100 is equivalent to 2 layers of spf 10. For spf 100, it lets in (1/100) uv rays. 2 layers of spf 10 is (1/10) * (1/10). Of course, its more of a hassle to make sure the sunscreen is completely rubbed in to the skin and then apppy another layer especially if you are going to have to reapply, but its not worth it to buy expensive sunscreen",e1uf11q,dogonut,1639b2
And also there’s 3 of them?,Banonogon,68tem,e1qj5ou,Is one of them watching someone walk with purpose holding a machete over broken glass with no shoes?,e1pvfsx,riftshioku,h0hh6
I like how the “slits your mouth” box is yellow instead of red to indicate that it is the optimal outcome.,Banonogon,68tem,e19buxc,"I just googled it and found my favourite diagram on the internet:

[https://en.wikipedia.org/wiki/Kuchisake-onna#/media/File:Kuchisake-onna\_conversation\_diagram.svg](https://en.wikipedia.org/wiki/Kuchisake-onna#/media/File:Kuchisake-onna_conversation_diagram.svg)",e197sjm,dean-from-earth,12szxd
And these pictures are most likely out of order chronologically...,Banonogon,68tem,e0liruq,"The last one is the left hand not the right, REEEEEEE!",e0lb1m8,OriginalMintyMemes,1g21o4lh
You would be correct,Banonogon,68tem,e0fhwcz,You may be looking for /r/childrenfallingover,e0fhv86,Morpheeus543,kih28
And /r/childrenfalling,Banonogon,68tem,e0fhnjj,r/kidsarefuckingstupid,e0f7hw2,Dr-Vader,pmp9x
A hospital? What is it?,Banonogon,68tem,e0es1cs,This woman has got to go to a hospital ,e0einpw,yachster,n7q35
What’s a potato?,Banonogon,68tem,e07n9h3,What a potato.,e07lbqq,JorjEade,62hji
Don’t judge him by his dance moves. Judge him by the way he negligently fired a gun into a crowd.,Banonogon,68tem,e01n9rg,"\> a fairly douchy LoDo bar   


Judging by this guys dance moves, it looks like he was in the right place.",e01l6zz,Subverto_,jkubz
"Is that legal? The waiting, I mean. Especially now that there’s proof he knew about this on this date, wouldn’t not pursuing this until later be detrimental to his case?",Banonogon,68tem,dzs7apu,"But precedence aside, unless OP explicitly gave them permission to use it he should be suing them. But i reccomend you wait a while, because you’ll likely recieve a portion of whatever they made off the shirt as restitution and they’ll discontinue it as soon as you threaten them with legal action.",dzs3d6q,Scippio-dem-lines,7ibd88r
"I’ve wondered about this before... since it seems to retract the blade completely, why does it need to stop the blade as well, especially if that is a destructive process?",Banonogon,68tem,dzps0uu,totally wrecks your blade just fyi,dzpof1e,tehconqueror,je1k5
