child_body,child_screen_name,child_user_id,child_tweet_id,parent_body,parent_tweet_id,parent_screen_name,parent_user_id
"But he is correct about proper tongue positioning and it’s effect on jaw positioning as you mature. As longs as he’s getting more people aware to that I don’t see it as a 100% bad thing. 

Improper tongue positioning and the subsequent mouth breathing I experienced as a child are the reason why my jaw is somewhat recessed/set-back and why I have sleep apnea now. Probably why I have TMJ now too. I’m glad he’s shining a light on proper posture because, well, proper posture is kind of important...

but yeah the ludicrous idea that anyone can just push their tongue hard as fuck against their palate and somehow grow a giant set of jaws is really bizarre.",cake_in_the_rain,7w1u1,fl9ek43,"it's pseudo science and quackery. If this were true, we could all stamd on our tip toes and get taller because of ""muscle pressures"". It's a gimmick and it needs to stop.",fl9d1et,twentyversions,5d9ddc7f
"Went to Ohio University in Athens, OH. This is completely accurate.",cake_in_the_rain,7w1u1,fl5cn2u,"Southeastern third of the state is straight-up Appalachia. Plenty of hills, plenty of billies. My people.",fl58dii,Garbleshift,444m1e
My grandma was born in 1922 and she’s doing relatively fine rn. People in their 80s and 90s still exist bro,cake_in_the_rain,7w1u1,fki3d35,"You don’t seem to know how old people born in the 1940s and 1950s are, but those are boomers. Their parents aren’t around anymore.

Edit: okay, sorry. Definitely SOME boomers are still alive, but the life expectancy of the USA is 78, which means that the vast majority are dead. So OP’s point about this being the boomers looking to drop the “dead weight of their parents” is patently false.",fki2ui1,Kahzgul,kzf8p
"lol that is not true at all. Sure, in a strictly literal sense living to 60+ was uncommon for “most people”...if you count all the people that died in infancy and childhood. But that is unrelated to my point. 

My previous comment said that if you made it into adulthood, living to 60+ was expected/extremely common. Which is correct.",cake_in_the_rain,7w1u1,fjnkirs,"Er..... hate to break it to you but no. Living to 60 was uncommon until the last century. Even today that's above the average life expectancy in a lot of countries. Life expectancy in even rich countries/kingdoms was shocking low before the discovery of vaccines and antibiotics. Centenarians may well have existed but extremely few that were way ahead of the curve.

[here's a simple graph to illustrate the point](http://www.ancientrails.com/2019/09/09/)",fjnevwf,Ask_for_me_by_name,4fkav7ay
"I mean, even the lowest of commoners would have lived until their mid-late 60s on average, granted that’s if they survived childhood. I wouldn’t be surprised if some centenarians existed back then. Especially in monasteries or royal houses.",cake_in_the_rain,7w1u1,fjncnpj,"You've compared apples with oranges. It's all relative. Back in the Dark Ages no-one knew any different; nobody would have fathomed living to 100. Living like a king is living like a king, regardless of the time.",fjn3fzn,CuntfaceMcCuntington,fx9dgmb
2014 called...,cake_in_the_rain,7w1u1,fjhvbsh,"Yeah, keep it on fleek homebois👌😎",fjhlcu6,Hemmingways,73eu3
Obama during the election process and Obama during his tenure as president were very different than one another.,cake_in_the_rain,7w1u1,fjaxuqr,Are you saying you don't agree that Obama was center left?,fjawmfi,Zerole00,pwgg9
Suckers Idolizing Mediocre Pussy,cake_in_the_rain,7w1u1,fj56vme,What is the definition? I have seen it written more and more recently but idk what it is. Is it an acronym?,fj51i4t,KineticPolarization,15bfxr
How tf did you both manage to misspell Soulja Boy the same way??,cake_in_the_rain,7w1u1,fj32cuk,"Soljia Boi can play games from all the consoles.

Soljia Boi is the Avatar.",fj2w8h0,zwannsama,10nwuu
I see you’ve been to Steak n’ Shake,cake_in_the_rain,7w1u1,fhiq6k5,They should exploited that and started selling 1/8 lb burger.,fhiic24,El-Sueco,25oavr1q
Boring people can become interesting and outgoing with the only expense being their health,cake_in_the_rain,7w1u1,fh9itp1,What is the benefit to drinking?,fh9gmk5,a_mellow_marshmallow,53uw3d3r
Pre-regulation (Hays Code 1934) films fucking SLAP bro. So much insanity you have to see to believe. Love it.,cake_in_the_rain,7w1u1,fh6zufs,"Here's a guy with no arms or legs lighting a cig, from the movie Freaks (1932): https://www.youtube.com/watch?v=epPkcH0aIlo",fh6d8bh,Elidor,51pui
"I didn’t understand how fucking fat people are in this country until I first left the DC area, which has been ranked as the most physically fit metropolitan area in the US repeatedly this past decade, so my perception was very far from the reality of what most of America is like. Only like 30 miles south of DC and it’s suddenly like an obesity-nuke went off and everyone is waddling around. Even as a child the change was always very noticeable.",cake_in_the_rain,7w1u1,ffsxqq4,"A friend had a sibling visit from North Carolina (we live in Chicago) and the sibling commented on how there are no fat people around. We definitely have fat people, we drink a lot and eat tons of encased meats, but I guess compared to down south we were considered downright slender.",ffs9817,krp31489,4rkl5
">	the worst is defoe

Always knew there was something off about Willem...",cake_in_the_rain,7w1u1,ffr40l7,Highest suicide rates for schizophrenics is just after starting treatment when they get a little insight into what they have done. It's sad but the worst is defoe the folks who've killed someone whilst in the midst of an episode,ffqc862,InnsmouthMotel,v9edj
What world do you live in lol,cake_in_the_rain,7w1u1,ffh0plb,"No one vapes tobacco, just kids and zombies.",ffgknq7,Dhrakyn,fstem
My fraternity did that like 2 years ago. It’s definitely still a thing,cake_in_the_rain,7w1u1,ffadlqq,"My fraternity would throw a foam party once a year, the good old days",ffa99x5,StevieChemist216,5am66hnh
This is the funniest part of this entire post,cake_in_the_rain,7w1u1,feod1k1,The dude with the kid on the left. His head is in italics,fenopra,dontbelievethetripe,2wi1k3d2
"I can see that. Maybe the dad in the picture has no fucking clue what that thing is either.

If so, this is the ultimate dad-tier title and fits it perfectly.",cake_in_the_rain,7w1u1,fenwoa7,What if that Is what they are going for?,fens2ht,randomdarkbrownguy,m3x2cnr
"Chris Kyle had a way over-inflated sense of self worth and he lied about every part of his life. He lied to a legitimately hilarious degree, which I admit was entertaining. Watching his debacle with Jesse Ventura was A+ comedy. He just kept lying and lying and lying...Jesse Ventura still calls Chris Kyle the “American Liar” to this day. Idk why I think that’s so funny, but I do. Kyle was an absolute lunatic who happened to wind up a SEAL, which in itself is also hilarious. He was like a retardo Rambo, just running around starting beef with a retired professional wrestler and making up nonsense war stories that were blatant lies. The dude had some screws loose, that much is obvious.",cake_in_the_rain,7w1u1,feg71km,Did he shoot looters from the super dome as he claimed? And civilians overseas like he claimed? Or was he lying in his book to make himself look “cool”? Was he lying about him and Ventura? What happened to Kyle couldn’t have happened to a nicer person.,feg6lh3,Centoaph,6xmro
Lol as I typed it I thought the same thing. Then posted anyway,cake_in_the_rain,7w1u1,fe4zpzq,In some sense by writing this out you are also one of them lol.,fe4bijt,sexmastershepard,j9fn2
"Arguments like these are the actual punchlines to his jokes. This whole thread is hysterical. Norm doesn’t actually believe a damn thing that comes out of his own mouth, so it’s hilarious when people take him seriously. His best moments are when he gets flak and gets boo’d, and he knows it. 

This is reminding me of another thread from a while back where the comments were *so* angry and outraged at Norm because he said that he “doesn’t believe in germs” during an interview. The commenters in that thread were too braindead to realize that they themselves were providing the punchline for taking his comment at face-value. 

It took me years but I finally appreciate Norm’s comedy. Every single aspect of everyone’s life is completely absurd, we’re all hurdling towards death, and the “point” (if you can even call it that) of his style is to take the piss out of people who take everything too seriously and get invested in bullshit arguments. Like everyone in this thread.",cake_in_the_rain,7w1u1,fe3szdv,"It was a norm joke... Overthinking it is pointless. If you found it funny, great. If you didn’t, also fine.",fe2ggir,sexmastershepard,j9fn2
"2012 was honestly the end of the 2000s imo, so it makes sense. Kind of how like 2001 was the end of the 90s.",cake_in_the_rain,7w1u1,fdyj4z0,I felt more ‘09/‘10,fdxmror,Obi-TwoKenobi,17cxq5
lol who actually cares? I agree though. Ya got me.,cake_in_the_rain,7w1u1,fdpfwye,"Reddit buzz words:

Gaslighting

Occam's razor

Shook me to my core

Every fiber of my being

The rage of a thousand suns",fdpf1v2,potentpotables,44gfr
"Yeah, without context it almost seems like some dude named Lee who happens to have the occupation of inspecting pilots.",cake_in_the_rain,7w1u1,fdowa31,Somehow it's even funnier saying it WITH the family name!,fdovhmi,mdsign,8d1e4
"Yeah I know! I’m a huge grandaddy fan myself. Still, any rational person wouldn’t name their little innocent child PILOT INSPEKTOR",cake_in_the_rain,7w1u1,fdovx0x,"Not that it makes it any better but his names actually Pilot Inspektor and it comes from an indie rock band song, and his other kids have normal names.",fdovoh2,beardlyness,c4o4k
"Daily reminder that goddamn Jason Lee named his son **Pilot Inspektor**. 

“Say hello to our new student, Pilot Inspektor Lee, everyone!” Jason must seriously hate his child with every fiber of his being.",cake_in_the_rain,7w1u1,fdouzma,Really? I used to be a big fan of Jason Lee. Until I found out he was a Scientologist. So glad he escaped the cult.,fdousxg,CuntyAnne_Conway,dm8xwda
"There’s actually a couple on my campus and they’re pretty sweet. The first one opened my freshman year. Outside of my college I’ve never seen one, though. Unless you count the non-gendered single-stall bathrooms that have existed without issue for decades.",cake_in_the_rain,7w1u1,fdky24w,"I've still never seen a gender neutral bathroom, but maybe that's because I've been an expat for a decade. Did they catch on in the US?",fdkxu4z,Repatriation,m0uyx
"That poor woman probably had some crazy story about how he helped her through a tough time, but she didn’t realize his poor little hand was perpetually in pain because he injured it a while back. I always feel so bad for her when I see that gif :(",cake_in_the_rain,7w1u1,fdj43mg,"That Asian woman tried to warn Pope, she tried to warn him that the  Devil is here, but Pope didnt want to listen.",fdj2bbn,TheArtOfDefence,4zdqa3lu
"Damn I really feel bad for all those slaves who have been stuck building Dubai without their passports. Hard to believe their lives could’ve gotten worse than that, yet here we are.",cake_in_the_rain,7w1u1,fdinw5z,"Just an update.

Looks like we could be toast. 

https://i.imgur.com/I8gZtpz.jpg",fdimtjz,Anomalistic_Username,yco4jxv
">“We could never verify that there was any Iraqi authority, direction and control, complicity with al-Qaeda for 9/11 or any operational act against America, period."" 

-	George Tenet, DCI

Am I misinterpreting your comment, or do you have info I’m missing out on? Because I’m pretty sure scapegoating Iraq was just another lie from our government.",cake_in_the_rain,7w1u1,fdimek3,"Nine-fucking-Eleven.

This time, we provoked them into attacking us.",fdik9ep,ErikaHoffnung,4e4oipyq
"The Warren report in 1964 is only part of it. In 1967 there was a psych dispatch in the CIA that *says right on the paper* that it is an imperative for the CIA to spread the narrative that “conspiracy on any large scale is impossible in the United States” in all “private or media discussions, not directed at any particular writer”. Document number 1035-960. 

Here’s the link to the US gov document: archive.org/details/CIADOC1035960

EDIT: fixed link url",cake_in_the_rain,7w1u1,fdi9k1v,"Also remember that you are literally just rambling without any proof for that:

>the CIA popularized the term “conspiracy theorist” to discredit anyone who dared to look into shady government activities",fdi7tl3,freshprinz1,vmkmzh8
All good! You were right.,cake_in_the_rain,7w1u1,fdi7uaq,"Ahh, that explains it. I thought i was mistaken but you edited your comment so I wasn't sure but that makes sense. Whatever, no harm no foul.",fdi7lsw,Bocephuss,gr1z7
Ok cool thanks! I misremembered. Have since edited for clarity.,cake_in_the_rain,7w1u1,fdi7fg2,"No he doesn't because thats not true.

That said, the phrase entering popular lexicon could indeed be because of the CIA. One person in the know considers the Warren Report as the point in which it became a common saying and the CIA was definitely involved in the Warren report.

>Lance deHaven-Smith suggested that the term entered everyday language in the United States after 1964, the year in which the Warren Commission shared its findings, with The New York Times running five stories that year using the term.

https://en.wikipedia.org/wiki/Conspiracy_theory

Edit - Sorry, OP was right. For some reason I thought they said coined the phrase but they said popularized and I would agree that the CIA did popularize the term.",fdi70cw,Bocephuss,gr1z7
"Reminder that the CIA popularized the term “conspiracy theorist” to discredit anyone who dared to look into shady government activities. It’s worked extremely well for them, I’d say. 

One of the greatest cons of the 20th century was convincing the public that small groups of influential people cannot keep monumental secrets and hold unseen sway in government...because, reasons? And when something does come to light, it’s always treated as a one-off thing...because, reasons?

There used to be an accepted mainstream knowledge of this behavior, known as the “smoke-filled room”, but now everyone believes in the delusion that “BuT WhY WOuLdN’t aNyOnE TeLL oN ThEm?? We’D FiNd OuT SoMeHoW iF tHeY BroKe ThE Law!!”

So fucking idiotic.",cake_in_the_rain,7w1u1,fdi2n4k,Also because of the CIA.,fdhjh3t,Woodie626,bcz0j
It’s at the Royal by Kroger. In sight of the Cook Out.,cake_in_the_rain,7w1u1,fdev0ih,"I lived in Hburg for years, currently in Staunton... and now I'm super curious.

Which gas station by which highway? I wanna investigate when I get off work!",fddobr7,dopeotter,jf98a
"Hey bro lemme get a **SOURCE** on that bro, I’m really skeptical yet overly invested in the stories of strangers on le-reddit, so I’m gonna need you to drop a lil ol handy-dandy **SOURCE** my way, duderino. I’d *love* to believe whatever it is you’re saying, seeing as this is reddit, and I’ll be very sad ;( if you don’t provide a **SOURCE**...I’m still waiting on that **SOURCE**, brotendo.

Hey everyone! This guy isn’t providing a **SOURCE**!",cake_in_the_rain,7w1u1,fcv8it6,"People who think that somehow you're obligated to provide sources on a trash site like Reddit are totally out to lunch. I agree 100% with /u/215kurt 's snippy response. If people want sources they can google it. Shitposting on reddit is not the same as writing some academic article.

edit: [SOURCE](https://i.kym-cdn.com/photos/images/newsfeed/001/207/210/b22.jpg)",fcv7maz,Koiku,144nj8
Totally unrelated but I gotta say I love your username!,cake_in_the_rain,7w1u1,fcs70s1,"I recently got my husband a new pair of pajama pants, to replace a pair that was falling apart. They're much clingier than I expected, and they highlight his ass so perfectly. I'm gonna go with something like that.",fcr46cz,Ocean_Hair,chwuv
Lol everyone over the age of 10 talks like that in NYC,cake_in_the_rain,7w1u1,fcno42q,"Little girl? She was more than 20 years old. She was like ""bro what are you doing?""",fcnnbwh,randomWebVoice,3jr4m9zr
Damn that’s crazy,cake_in_the_rain,7w1u1,fclz9ut,He deserved to be there. https://www.strangulationtraininginstitute.com/terror-and-courage-man-who-jumped-from-window-sentenced/?utm_source=share&utm_medium=ios_app&utm_name=iossmf,fclug9w,Alastair-MacLean,2mro9tsy
you’ve seen the wrong ones,cake_in_the_rain,7w1u1,fc9gwgt,Russian movies are boring as fuck,fc89288,Flag-Assault101,4qt7ernn
Begrudgingly. But a corporate whore is still a corporate whore regardless of affiliation. No amount of platitudes or positive framing in the media can change that. Dems and Republicans both sold us down the river years and years ago and we’re dealing with that fallout now.,cake_in_the_rain,7w1u1,fc6zi6d,"I'm voting for Bernie in the primaries, but I seriously hope that you're open to voting for someone else if he doesn't win the primary election.",fc6yluz,Deadmeat553,biqsx
Oh shit that’s cool! Glad it wasn’t as bad,cake_in_the_rain,7w1u1,fc6xfx0,"nope.  ""In order for my hero to look like a 70-year-old man in the final frames of the picture, I was painted with persistent imported paint. I also specially studied the Belarusian language."" And  they used some hypnosis to avoid PTSD, not for fimling but to avoid heavy impact on actor.

&#x200B;

you can see him now here, all ok with his mind \^)  [https://youtu.be/CalEaRRjVe4](https://youtu.be/CalEaRRjVe4) [https://youtu.be/9xlPBCCV9WM](https://youtu.be/9xlPBCCV9WM) [https://youtu.be/CXPrz0dWPQk](https://youtu.be/CXPrz0dWPQk) [https://youtu.be/sVmktv2c5S8](https://youtu.be/sVmktv2c5S8)",fc6wiwv,TNGJ,43dtw8sq
lol VT still has way more guys than girls. The joke would work if they replaced the two,cake_in_the_rain,7w1u1,fc500z3,Sounds like a myth...,fc4wgro,rifn00b,mk2qayr
Not a lie. I legitimately don’t know. That’s why I asked and said it sounded unbelievable in the first place.,cake_in_the_rain,7w1u1,fc4hxtk,"Absolute lie. Don't believe in this shit. 

[https://www.google.com/amp/s/m.rediff.com/amp/news/report/common-documents-no-parents-papers-needed-for-nrc/20191219.htm](https://www.google.com/amp/s/m.rediff.com/amp/news/report/common-documents-no-parents-papers-needed-for-nrc/20191219.htm)",fc4ghqg,RajaRajaC,l3mfn
"Most predictable movie I’ve seen in the past few years. So boring and so corny. All the characters sucked and I didn’t feel any sort of attachment to any of them. Even John Malcovich’s performance was embarrassingly bad. Those horrific meme-y jokes he did almost made us turn the movie off early. I wish we did, since the ending almost gave me an aneurysm. That ending is literally the most obvious thing they ever could have done. My friends and I called it immediately. We were all so disappointed by every aspect of the movie. 

The only other time a movie has made me feel as shitty was when I saw Lucy in theaters. At least I had the privilege of falling asleep during Lucy though. Bird Box is a 1/10.",cake_in_the_rain,7w1u1,fc4ar9p,"Funny, I felt the same way about watching the movie",fc3k2u5,DropTheGigawatt,cn7nt
lol as if they’ve ever been in his position. I’d bet an insane amount of money that most of the dudes in this thread who are criticizing OP would *bounce in a heartbeat* the moment this happened to them.,cake_in_the_rain,7w1u1,fc3amiv,"Lack of empathy? obviously he feels bad or he wouldn't post this shit?

I don't understand why some of you expect him to stay and take care of a family that isn't his. His ex is a liar. Call the kids real dad to watch her. Why fuck this guy's life up because of someone else's decision.",fc376o6,Aktin,3w0bec0z
"There is a lot of conjecture on whether or not gen z *really* is more conservative than the millennials were. However, anecdotally I find it to be true. The students at my former high school seem wayyyy more open to all of that stuff than when I went there...and I graduated in 2015. I seriously did not know a single conservative person at my school until my senior year, when an Arab kid in my class told me he and his family were republican. It was so unheard of, that it actually took me aback. For reference, I come from an *extremely* liberal and ethnically diverse area. School was majority-minority, me included (I’m Indian). 

I’ve been back over the course of the past few years for various reasons and it seems much different. There’s actually a thriving republican club now, which is surprisingly mostly Hispanic/Arab/Indian in membership, which cracks me up lmao....and from what my siblings and their friends all tell me, the vibe just seems extremely different than what I can relate to. They seem way edgier than my cohort, that’s for sure. My high school might be an outlier, so take this with a grain of salt.",cake_in_the_rain,7w1u1,fc1nrnr,">Gen Z being the first generation to not be more progressive than their predecessors



I’d like to hear the explanation on this one. In what way has gen Z been less progressive than those that came before?",fc1ez0g,Shaderu,1ol71dtn
Because they don’t really mean it. Clearly just posturing to look like they have their lives in order comparatively.,cake_in_the_rain,7w1u1,fc1hnu1,Why do you need a new year to decide that,fc1etl0,Ordepp117,fe8pmsm
I don’t mind being a shoulder for friends and family when they need to vent about problems in your life...except when it comes to relationship problems. That shit is the equivalent of nails on a chalkboard.,cake_in_the_rain,7w1u1,fc1gyzz,They don't want your advice they want someone to vent too,fc114dd,Zone6ATL,4r7vx7ad
"I understand the issues people take with fringe theories, however, the same people never seem to acknowledge the old-boys club mentality that permeates a lot of scientific fields. Working in research at my university in geography and classics (archaeology was part of classics), I saw how fucking clique-y and narrow minded a lot of professors and scientists were outside of lectures, even if they did produce amazing work.

*No fucking shit* a theory will remain “fringe” if you don’t take it seriously and ignore it completely, because you live your life with horse-blinders on. Pseudo-science is one thing, but there are plenty of amazing discoveries that only get taken seriously YEARS AFTER the consensus was rebuked and challenged, sometimes leading to the complete shunning of whoever the a scientist was that brought forth the new theory. It annoys me to no end. I’m so glad I’m graduated now. Academia is more clique-y than highschool.",cake_in_the_rain,7w1u1,fc1ap9i,"They say its a fringe theory but its backed by geologists, the previous rebuttal was that there was no other organised societies capable of building on a massive scale at 10,000 bc. GT changes that too.",fc0d8ke,Lienidus1,3zxhn87
"Man, finding a girl who loves anal is the best. I remember a girl 2 summers ago who’d never had anal sex, but loved ass play. Her legs *immediately* started shaking like wild the second I slid it in her (after tons of fun prep beforehand). I still think about how hot that was. Caught me way off guard. Funny how everyone’s body responds differently.",cake_in_the_rain,7w1u1,fbz35i4,"Agree from experience. My ex-wife claimed she liked the feeling of ""being more full"" with me deep in her ass, and that orgasms from being anally penetrated made her ""legs shake more"". DPing her with a dildo only amplified everything.",fby0cin,shrtnm,ca0tk
Good bot,cake_in_the_rain,7w1u1,fbyjx27,"I noticed one of these... :( 



 So here take this... :D",fby1ps5,smile-bot-2019,4zs1fjla
"It bugs me that people have a weird false belief that things were inherently more buttoned-up or “innocent” in the past. That is such dogshit. People conflate whatever bullshit sitcoms that were on at the time with *actual* representations of American life, rather than the idealized nonsense (arguably propaganda) that they were. 

The examples of media we have left over, from back in the day, are extremely far removed from what real life was like. 

Thankfully we have unfiltered documentaries and the news casts you described that shine a light on what reality was actually like.",cake_in_the_rain,7w1u1,fbs4xzj,"News cameramen in the 70's and 80's gave no fucks. Check out the news footage of some of the mafia murders, they zoom right in on those fuckers.",fbs2f3t,Mi_Pasta_Su_Pasta,c0vxu
lol Chris Hansen does YouTube drama videos now. It’s hilarious.,cake_in_the_rain,7w1u1,fbkacjn,Is your dad Chris Hansen?,fbj6936,Simppu12,dn7xvf
"I’m not a part of this gun argument, but yes surprisingly. Your comment got me interested so I looked it up. People do get murdered by being pushed into pools pretty frequently. One search on google turned up at least a dozen instances from 2018 alone. We forget that almost 44% of Americans can’t swim.",cake_in_the_rain,7w1u1,fbk8e2f,"Really, people use pools to murder other people?",fbk6w92,the_joy_of_VI,170vqz
"Nah, the kids thing is understandable in my eyes. A child won’t know the difference between a huge family meal and a smaller one somewhere else, as long as the parents are enthusiastic and put in the work to make it special. When I was a little kid my family was poor and we ended up having thanksgiving alone at a cheap hotel with a thanksgiving banquet and just watched thanksgiving cartoons on Boomerang all night. It was **awesome** because my parents made it awesome through their positive attitudes. 

The piece of shit sister and her affair partner made the choice to bring along the kids as a form of insurance to protect themselves from consequences. That is beyond evil. The kids probably wouldn’t even know the difference if they ended up eating at a Denny’s or something. Letting the affair partner and the sister stay for the duration of the holiday just sets a bad precedent that their little sociopathic schemes can work in the future. Not only that, it ruined thanksgiving for literally everyone else there. That includes the kids themselves, who could probably tell that everyone was mentally out-of-wack. I mean, Jesus Christ, OP said their mother was *on the verge of tears* the entire time. Kids pick up on that negative energy wayyyyy more than they do the setting...",cake_in_the_rain,7w1u1,fbi7wyv,"Exactly. It's crazy seeing people say this and others saying she should've kicked them out during thanksgiving while the children were there, when they didn't deserve to be dragged along to begin with.

So many redditors suggest the nuclear option every time and look like they have zero social nuance. That's why it's weird asking this site for relationship advice.",fbi3kts,PurdSurv,15xjil
"Yes, but tbf he’s basically average height in terms of pornstars. They’re pretty much all 5’7”. For example, James Deen and Mandingo are both the same height as him.

Women just really like Jordi for some reason. Half the comments on his videos seem to be women calling him sexy.

Being a skinny black-hair Mediterranean-looking dude who’s 5’7” myself, I consider it a win lol",cake_in_the_rain,7w1u1,fbgvxnv,Does being short and skinny make him seem bigger than he is?,fbgvkp9,aluwz,3v4woddf
"Every “shitty” state has amazing places hidden within. Lawrence in Kansas, Lincoln in Nebraska (not that Omaha is bad anymore, it’s not), Iowa City and Des Moines in Iowa. People always make blanket statements about states, but there are always exceptions.",cake_in_the_rain,7w1u1,fb5j9ys,And Lawrence. Lawrence is the little pocket of fun in KS.,fb4tuau,EnterTheControlRoom,22jpvesc
Totally understandable. Are you from the US? I feel like even people here from the city (like me) understand that certain people still provide for themselves in that fashion. When I was in Europe it seemed totally different in that regard. I could see it as totally foreign for a European.,cake_in_the_rain,7w1u1,faq2wt5,"I dunno, it just hadn't occurred to me. Its so... alien",fapyn8f,brickmack,998zw
"Are you actually being serious? I’m not trying to be rude, but I honestly can’t imagine someone not knowing that people still eat the game they hunt...why wouldn’t they? You’d have amazing quality meat, much better than store bought, for months and months, it’s perfectly reasonable. Also not contributing to factory farming of livestock is a big plus.",cake_in_the_rain,7w1u1,fapyapg,"Huh, somehow I never really considered that hunters might actually eat a deer in the modern world. Always just kind of thought of it as a trophy thing. My grandma ate possums and squirrels when she was little, but nobody hangs a dead possum from their fireplace, and that was a long time ago anyway",fap4ig0,brickmack,998zw
"Well said, BRUCE_JENNERS_VAGINA. I feel like that is something that a lot of people can relate to. We don’t really seem to reflect on things until they’ve changed or disappeared.",cake_in_the_rain,7w1u1,fahwm35,"I recently tried to track down one of my old favorite teachers as well. I had him 20 years ago and he was already pushing 50 and weighed about 400 pounds (no, I’m not exaggerating), so I’m pretty sure he passed away. I was able to find property records in the town that I know he lived in (small town different than the one he taught in), but it only listed a woman, with the same last name, and in her 60s.

I haven’t stayed in contact with anyone who would know what happened to him. I really hope that he’s still out there somewhere and enjoying retirement, but I know it’s incredibly likely that he’s gone. Really makes me think about how fragile and fleeting life really is.",fahpdbt,BRUCE_JENNERS_VAGINA,51d7m8fu
I remember that one! It definitely continued airing after 2003. For sure. I remember it very well and I was around 6 in 2003. I’d say sometime within the 5 years after that I saw it a bunch of times on TV,cake_in_the_rain,7w1u1,fahs5er,"Is that the one that ended with another shot of the grandson at the press conference saying ""Why are there so many microphones?""",fahlkk6,BroadcasterX,swmcw
Cool thanks for the info,cake_in_the_rain,7w1u1,fahqlz4,"I mean, you should have things in moderation. I don't think a can of tuna once in a while is a problem but if that's all you eat for 3x365, you're going to have problems.

Also, selenium can be toxic in large enough quantities so, again, moderation.

 [https://en.wikipedia.org/wiki/Selenium#Toxicity](https://en.wikipedia.org/wiki/Selenium#Toxicity)",fahqeiq,NotAPreppie,l4yot
"Yeah I agree. Kinda unrelated, but speaking of mercury...I know that the selenium naturally produced in fish counteracts the toxicity of mercury, but are we still supposed to be wary of fish? This past year I’ve read like 5 articles saying wildly different things. I feel like that’s a perfect example of the science changing so fast that it’s hard to keep up.",cake_in_the_rain,7w1u1,fahpty8,"Keep in mind this is a preliminary finding lacking a lot of important information (such as TD50, LD50, larger sample size, quantitative measurements of the actual amounts of theorized toxin present, etc).

For all we know this will represent as much risk as the mercury found in all fluorescent light bulbs.",fahonuk,NotAPreppie,l4yot
"That’s exactly how I feel about it. On top of that, the genealogical awareness in my family is out of the ordinary. We have tons of important physical pieces of our history and countless stories going back a loooonnggg time. Hundreds of years. This definitely makes me think about things a little bit differently. Their sacrifices are the reason I have the privilege of existence. The thought of not having kids has never really entered my mind. I’m only 22 and don’t plan on having any until in my 30s at the earliest, though.",cake_in_the_rain,7w1u1,faftyr2,"I am a link in a series of chains that stretch back to times long forgotten.  I am who I am thanks in no small part to the decisions and true sacrifices of those who came before.  The decisions and sacrifices I make in the name of family shall pass on for centuries to come (hopefully).  I am fulfilling my life's purpose, as I define it.

...plus, I'm damned sexy.  You people need a bit of Mike in the gene pool.  I pretty up the place.",fadxfd1,foulolemike,1l3lrosm
Yeah he definitely does seem taller on screen. It might just because Charlie is shorter than the Glenn and Rob and all three of them are usually on screen together. Who knows.,cake_in_the_rain,7w1u1,facwqj9,"No shit? Huh, I woulda guessed he was taller. You right, I stand corrected.",facv7b2,helms11,yp6eb9b
"Too tall? What are you talking about? Glenn Howerton’s listed height is identical to that of Bundy. They’re both 5’10”. Also as an aside, Zac Efron’s listed height is 5’8”. Might just be my own opinion, but that’s not really a notable difference.

I didn’t watch the Zac Efron movie, but your comment gives the impression that they tried to make Bundy seem below average in height? What’s the point of changing history like that? Were they playing into the notion that serial killers are small? 

I personally never understood why people believe that. All of the prolific serial killers from the 1970s were either average height or tall. Which makes the Zac Efron thing even funnier lol",cake_in_the_rain,7w1u1,facu5t4,"Efron was good as Bundy in that movie but Glenn Howerton would have been such a slam dunk. Too tall though, the diminutive presence is a must.",facm2a5,helms11,yp6eb9b
">has become

Dude, content has been in the back seat since forever. Did your middle school teacher not cover the precedent set by the 1960 televised debates?

Kennedy’s appearance and charisma on TV made Nixon look like a sweaty anxious fool by comparison, and the majority of viewers thought Kennedy did better. At the same time, the majority of radio listeners thought Nixon did better, without appearances being a factor in their decision making.",cake_in_the_rain,7w1u1,facifno,That empty one liners mattered more than actual policy and content speak volumes to how utterly shit this country has become.,fac2rd8,Iorith,5x7q4
"Don’t forget how they always shoehorn in “Bootyjudge with a STRONG 4th place” while they ignore Bernie, who is crushing it. So fucking lame",cake_in_the_rain,7w1u1,fac6rgy,Yeah bernard is currently leading in California and the headlines were Biden and Warren in 2nd and 3rd place in California. It's just baffling.,fabr7bi,about42billcosbys,6pfac
"I guarantee people will like your writing! Maybe not everyone, and maybe not even a ton of people, but there is a niche worth exploring for literally every idea in the world. That’s why creative work is so important. There can never be too much! That’s what drives me even though I have no time and am “too busy” with real life for it. There is nothing like finding a way to scratch an itch in people that they didn’t even know they had.

In my view, that same idea is what defines all creators, even the best of all time. It’s just on a bigger scale. The best writers happen to create an idea that scratches an itch that an entire population/country/generation of people didn’t know they had. You could potentially provide that feeling for any random person you see on the street! Don’t give up!",cake_in_the_rain,7w1u1,f9wmulw,"after 16 years of writing (and 9 years of constant writing) I still consider myself less than a beginner. My outcome (financially) is way lower than my income I make of writing. I probably will never be good, not even decent, but I accept that and keep writing.",f9vphd5,LastRedshirt,vkhgc
"And people have the nerve to complain whenever Clinton and the Democratic Party still get dragged by people online to this day, as if it’s ancient history that we should all just sweep under the rug...for the sake of “party unity”. It’s absolute insanity.",cake_in_the_rain,7w1u1,f9rdaao,"Never forget that **THIS** happened in Philly at the DNC convention...

https://youtu.be/QGuVDz_88po",f9r6axe,return2ozma,8bfyd
"I mean, just look at the dude. Doesn’t take a rocket scientist to determine he’s mestizo. He’s not even a white hispanic. I hate what he did, but the framing of him as a “white guy” always seemed extremely weird and disingenuous.",cake_in_the_rain,7w1u1,f9ooqwf,">Maybe.  Or Zimmerman more than likely would've been considered Latino in that scenario and it would've never even been on the news.

I remember there was a huuuuuge debate as to whether or not he could be considered white. Like a huge fixation so they could spin a narrative one way or the other rather than sticking to the evidence that he totally aggroed the kid despite police telling him to not engage.",f9onlcl,MayonnaiseUnicorn,28y8n2ir
"Some people are hyper-needy and clingy when it comes to contact with friends. That’s just how they are. I’ve actually noticed that trait has become **immensely** more common with social media. If you’re not constantly buzzing them about whatever, they treat it as a personal affront to the friendship.",cake_in_the_rain,7w1u1,f989sty,Back before the days of the internet I didn't speak to a good friend for maybe 2 years.  When she reached back out she informed me how mad she was at me for the past 2 years but had gotten past it.  i didn't even know we were estranged.,f967wkg,BlazingLadles,3y6d7s3e
"Considering the geographic population distribution of Russia, I’d argue otherwise. Only 20% of the population lives east of the Ural Mountains in the Asian part of the country (Siberia). Also, the cultural genesis of Russia, from the Kievan Rus, to Muscovy, to the Russian Empire, all took place within the European part of modern day Russia...until the massive eastward expansion of the 1700s. And it wasn’t even until the 1900s that any real effort was made to populate that new land with people who would ever describe themselves as “Russian”.",cake_in_the_rain,7w1u1,f983t2j,90% of it is on the asian continent. you don't get to count it as europe just for the 10% that's convienient for you.,f980tf7,LastALongTime,511uvhbx
"ALS really needs more exposure. It’s such a terrible disease. My fraternity is heavily involved in the fight against ALS and in 2017 we started the LiveLikeLou (Lou Gehrig) foundation to raise money for research. That very same year one of my closest brother’s grandfather lost his own battle with ALS. Hearing and seeing what ALS does to the human body and the toll it takes the family of those affected...is just soul crushing.

R.I.P. Matt dude. I can’t even imagine what that was like for him.",cake_in_the_rain,7w1u1,f8ubcp9,"ALS :(

https://www.legacy.com/obituaries/louisville/obituary.aspx?pid=174851999",f8tmbma,A_Very_Bad_Kitty,cgvut
"To be fair...there are a lot of people on the left who are also dissatisfied with the Democratic Party. The whole “vote blue no matter who” thing screams the same bullshit into my ear. The DNC does not represent progressives at all yet is constantly trying to court us with bogus neoliberal candidates who don’t even support M4A. This election cycle is looking a lot like 2016. 

Some corporatist asshole who happens to be a democrat doesn’t represent my interests just because they oppose Trump. People who are beholden to oil companies, Wall Street, funding from giant PACs shouldn’t even be an option when deciding who is president. 

It’s disgraceful that our political parties just ASSUME that they deserve our votes just by virtue of existing.",cake_in_the_rain,7w1u1,f88b75f,"The Republicans are backing trump up, party before country. It's pretty sickening. If they had actually opposed him I might have faith that they were still an actual political party, albeit with some unpopular opinions on wealth distribution. As it stands they've lost all credibility.",f87plr4,Sciencetor2,ktg9u
"I agree, however this comment is more of a testament to how corny and uninspired SPCs have become in recent years. I used to love that shit, it’s a shame. Now it’s like...phantom carrots...or carnivorous balloons with teeth...or some other dumb shit like that. Honestly a pig body-swapping thing sounds too cool/original for SCP at this point.",cake_in_the_rain,7w1u1,f86rhd9,That sounds like an SCP.,f85hqma,Hates_escalators,13kppp
"Exactly. People don’t know a damn thing about ethnic migration or actual human history. Some people legitimately believe that everyone in the Middle East or Central Asia is dark-skinned with dark physical features, or that everyone who isn’t from Europe is magically a “POC”. It’s fucking crazy that people don’t know how phenotypically diverse the Middle East is...and always has been. There are millions of people there who are just as white as Europeans. 

You could seriously shave the beard off of many dudes in Afghanistan, Syria, Tajikistan, or anywhere...and simply throw some western-looking clothes on them, and they wouldn’t stick-out physically AT ALL in Western Europe.

People who think that only “olive-skinned Bedouins” lived in the Levant at that time are ignorant of history and are borderline racist, even though they think they come across as the opposite (woke and well-informed).",cake_in_the_rain,7w1u1,f85itra,"There was a lot more than Bedouins living in the Levant during that time. The Phoenicians came from the Levant and they were white.

Dude definitely had a tan though.",f85abz3,TotalBanHammer,14exbs
The Belgians would like a word with you,cake_in_the_rain,7w1u1,f83kimq,The Irish army,f83i0w0,droimnocht,ned1s
Jesus Christ! The account was 13 years old?!,cake_in_the_rain,7w1u1,f7ex3dd,"The guy, u/deleted now, had a leg injury. It split his leg vertically leaving a big scar on his calf that his friends call a calf vagina. People wanted to see a photo but the dude was at work and said he'd show pics later.

A few morally depraved redditors decided this was unacceptable and started insulting him and giving him shit so now he has deleted his 13 year old reddit account.",f7erekz,wholesome_cream,2fgvxjjo
He clearly had something in his pocket,cake_in_the_rain,7w1u1,f7546b7,The saw going into the guy's leg sparked for no reason.,f7310d7,SquatchhammerActual,2nppim0m
The one at my school turned out to be a pedophile,cake_in_the_rain,7w1u1,f753vdt,"In my experience the term ""Teacher"" is used loosely in shop classes. I have never had one that gave proper instructions. It was always 5 mins of ""This is how to work this machine now make something like this, go at it!"" and then he'd disappear for the remainder of the class.",f74e6ra,spookyttws,4atr6
You missed the joke,cake_in_the_rain,7w1u1,f753iy7,"Not true. If someone finds something entertaining, be it for humor or shock, they are more likely to remember the contents of the message regardless. I think it was probably effective because people could make joking comments to each other while also using them to enforce the safety rules. Everyone laughs, and everyone is safe at the same time. Win-win in my book",f74sq50,SkySweeper656,1348x7
"I meannnn we’re also still kinda aiding Saudi Arabia with genocide in Yemen right now. And also Vine existed at the same time as us toppling countries left and right, leading to the death and displacement of millions.",cake_in_the_rain,7w1u1,f711h98,Wasn't Vine based in America? That country with a long history of genocide?,f70yhv2,Glytchrider,dau0j
"People like to hate and bitch about whatever is new and displaces their preferred forms of entertainment. I’d go as far as saying tiktok is better than vine was. I was skeptical at first but after having it for a couple months now, I think it’s fucking hilarious, especially once you get the hang of curating your likes and follows.

Also, it reminds me of when people bitch and moan about reddit or YouTube, but are only subbed to all the toxic default subreddits, or they only see the content that narcissistic losers with 2 brain cells make for the YouTube trending page. You really reap what you sow when it comes to interacting with any platform.",cake_in_the_rain,7w1u1,f70sixd,The name.,f70j5s7,Thatskindasexy,27r426i9
The grandmother? Albert Einstein.,cake_in_the_rain,7w1u1,f6xo1eo,And everyone clapped,f6wdgh1,HateJobLoveManU,1gndzim
No lie I originally saw this video on tiktok a few days ago,cake_in_the_rain,7w1u1,f6uu9o8,"I agree, this is some music.ly / tik tok level shit right here",f6ulq36,chartedlife,51cti
">	cookie cutter

Cookie cutter porno addicts! Tattoo’d freaks! It’s sick, it’s piss",cake_in_the_rain,7w1u1,f6pchpo,"Oh, now I'm supposed to change who I am fundamentally just to be attractive enough for your cookie cutter standards? Listen, I've been through a lot of shit in my life that you wouldn't understand. And you expect me to pay for YOUR Pinot grigio and chop salad? Jeeze, quit being such a narcissist and think about someone else for once",f6n0ms7,PhDamnit,3wy2g
Good bot,cake_in_the_rain,7w1u1,f6ke4es,"Hi sorry but what she did is so fucking stupid. that’s not how condoms work. condoms that are too tight for the wearer cause loss of blood flow and are much more prone to breaking. people who unironically believe that condoms are one size fits all are ridiculous, I'm dad.",f6kdfns,BadDadBot,3vmgbuw8
"Lol I’m sorry but what your teacher did is so fucking stupid. It boggles my mind that adults (teachers, no less...) can buy into such a nonsensical idea. That’s not how condoms work. Condoms that are too tight for the wearer cause loss of blood flow, pain, and are much more prone to breaking. 

Also, jamming your fist into a condom for less than a minute, or blowing up a condom like a balloon has nothing to do with sex or the stresses a condom will have to endure during sex. I have no idea why people still unironically believe that condoms are one size fits all. 

And it really says something about the state of American sexual education that teachers can just get in front of a class and spread crazy misinformation like that.",cake_in_the_rain,7w1u1,f6kdf35,"My teacher was pretty funny when she was talking about guys who always said they were ‘too big’ to wear a condom.  She brought the SuperXXL whatever into class and blew it up like a balloon saying if he didn’t fit with that kind of room, “he belongs in a zoo, not inside you.”",f6hiasx,delicate-fn-flower,ygmaq
">	The 6.4” - 7.0” zone seems to be the main zone of encountered biggest dick sizes.

So you’re saying there’s a chance 😎",cake_in_the_rain,7w1u1,f6iv0el,"OP here  **Main Post**

( can't work out to mix text and image on main post)

Surveys suggest that women typically have 7 sexual partners in their lifetime.

For a typical survey see: [https://www.euroclinix.net/en/vc/between-the-sheets/#/all-sexual-partners/asp-overall](https://www.euroclinix.net/en/vc/between-the-sheets/#/all-sexual-partners/asp-overall)

I have now run a 1000 set simulation of maximum dick lengths encountered by women with 7 partners.

I used the *calcsd* Western definitions of Mean and SD.

**The average length of the biggest dick encountered by a women with 7 partners was 6.73"". This is one inch above the average of 5.71"".**

The longest encountered biggest dick was 8.22"".

The shortest encountered biggest dick was 5.30"".

The chart shows the distribution - which (just) fails a Standard Distribution test.

The 6.4"" to 7.0"" zone seems to be the main zone of encountered biggest dick sizes.

This might explain the lack of excitement when say a 7.5"" dick is encountered : most women with a 7 partner history would only find a 7.5"" dick as being one inch bigger than their biggest to date.",f6i7nme,DataZoom,3nk4tzqm
"My freshman year of college (in the US) I knew a Chinese kid who worked at one of the dining halls who drove a brand new bright yellow Lamborghini to and from work. 

His obscenely wealthy parents bought him the lambo but still made him work a job while in school. I thought that was interesting and kind of hilarious. I guess they wanted him to have a good work ethic.",cake_in_the_rain,7w1u1,f61dfqk,"Wealthy Chinese launder their money in Canada, it's a [major issue.](https://business.financialpost.com/real-estate/billions-in-dirty-cash-helped-fuel-vancouvers-housing-boom) It's not uncommon to find Chinese university students driving Mclaren P1s and La Ferraris. It's crazy how open it is, too.",f60ordf,alwaysearly37,3parohpg
The others look angry. Rabbit looks horny.,cake_in_the_rain,7w1u1,f35onur,"As weird as they all look, Rabbit just looks... off.",f35n7rq,jekfrumstotferm,3iejnadi
The one that literally says “Gutter Girls Cocktail Bar”. It’s on a kid that shows up at the end.,cake_in_the_rain,7w1u1,f314qax,"What shirt in the vid is considered a titty bar shirt, also genuinely asking",f311sn8,TelloLeEngineer,il0a6
"ehhhh that’s tricky. I feel like intuition *can* be correct, but assuming that anyone is a piece of shit without any sort of proof is no better than the [Physiognomy](https://en.m.wikipedia.org/wiki/Physiognomy) that medieval dipshits believed in.",cake_in_the_rain,7w1u1,f2scejn,"Sometimes we can just sense when someone's a piece of shit, without ever knowing why.",f2rd7v9,marcus_annwyl,8oro0
Lmao,cake_in_the_rain,7w1u1,f2ddv9i,This will connect the anal passage to your dick and you'll end up with poop being slowly squeezed into your dick through the night. In the morning you're gonna have to squeeze the peen from the shaft to the tip like a go-gurt to get that thin shit-stick out. And have a brown pee for good measure.,f2dc1mm,69fatboy420,25ue5o5j
"I agree dude. Getting overly descriptive and open with your sexual encounters is embarrassingly cringe-worthy. Especially when it involves private details of their partner. That’s mega creepy. And honestly, I’d bet that it’s also a big indicator of whether or not the person speaking has a big mouth about most topics in general...probably not be the type of person I’d ever confide in.

Sort of related, the summer before my junior year of college I ended up staying in my little college town because I’d never lived on my own, in my own rented place before. Very few of my fraternity brothers were moved in, so I spent a good chunk of the summer getting drunk with a big group of my female friends that happened to be in town all summer as well. 

I could not believe how much of their conversation revolved around dicks and talking shit about the men they’re with, or just talking shit about men in general. It seriously felt like I was living in a caricature of what women think **men** talk about. But no, women talk about that shit wayyyy more than us and they’re wayyyy more creepy about it.",cake_in_the_rain,7w1u1,f27gej9,"""Got laid last night.""

""Nice.""

""Yup.""

Thats as detailed as I've ever gone. I've had guy friends share more than that and its always incredibly cringey.",f27935z,CaptHooksCookBooks,36ji6zwp
I’m from VA and it really is strange he ended up not resigning.,cake_in_the_rain,7w1u1,f15n8yc,"The left's hypocrisy knows no bounds.

Ralph Northam is still in office.",f15avxh,TD_Account,vwpx8c
"As a “hapa” (half Asian) myself, a few years ago I visited their subreddit to see what it was all about. It was basically /r/incels before incels were a thing. Total shit show filled with self-loathing losers complaining about being mixed race and posting scientific “studies” claiming that mixed race individuals are more prone to violence and other whining boo-hoo stories about *muh genetic disadvantages*. Very weird place. Also, It doesn’t surprise me that an /r/sino poster frequents thats sub as well.

**YUCK**",cake_in_the_rain,7w1u1,f0l25ec,"Don't bother. He's a self loathing Asian American pro-Communist troll.

https://i.imgur.com/duXpFGA.png",f0l0jup,BrandeX,3tcfi
lol and a person with a foot fetish could probably say the same thing about licking toes. Everyone’s different. Whatever you enjoy doing may be complete boredom to someone else.,cake_in_the_rain,7w1u1,f0l1qic,Not weird just that connecting with music is one of the greatest  experiences that life has to offer and it's tragic when someone misses out,f0kqsom,chainsawbobcat,jawhu
lol what? How do you know?,cake_in_the_rain,7w1u1,f08wu0s,If you're rich ofc.,f08o591,famousaj,9qz4l
