child_body,child_screen_name,child_user_id,child_tweet_id,parent_body,parent_tweet_id,parent_screen_name,parent_user_id
If you weren’t bringing in an income before all this then why would you need an income now?,coke_and_coffee,1upwac8n,fl3pspo,"What about those of us who don't work?  Haven't had a job in 15 years.  I take care of my Mom. What happens to  me?  I cant file a tax return. Yet I'm about to be worse than broke. ???

Edit.  Nice to know that my future is not decided by votes on reddit.",fl2xvja,RowanEragon,2q3fkrvq
Well then you should save yourself some embarrassment and stop saying that.,coke_and_coffee,1upwac8n,fl3onrk,"I've been saying this for years now, America IS a third world country. It's just the most advanced one.",fl3gh2t,XarrenJhuud,2ibftddn
This is stupid.,coke_and_coffee,1upwac8n,fl3no33,"I'm from New York and couldn't be happier. Both myself, and my wife are capable of working from home. It's really nice to cut out that hour of commuting each day. Plus I'm saving money on gas! I'm also not paying for daycare because the kids are home.

I hope this quarantine lasts as long as possible.",fl3naqt,Nonversation-,5g46wfz4
HIV would like a word.,coke_and_coffee,1upwac8n,fl1brgj,It is not a coincidence. You only start to be contagious when your cells start producing the virus. You also start to feel the effects of that virus in that point. So if the symptoms are really agressive you're not a Trojan horse for long enough to spread anything,fl0gne4,capitainawesome,84j7k
"It’s just human nature. Yeah, you might be the 0.0001%, but I doubt it. *Everyone* likes to think they’d help the world if they were wealthy but, statistically, they wouldn’t. It just doesn’t happen. Sorry.",coke_and_coffee,1upwac8n,fl0pxm7,"And how would you know?  Do you want me to have my family text you and show you pictures of my minimalistic apartment?  

Also, if I wasn’t this way please tell me why I quit my job to pursue my passion.  Prior I was working for a company where I was about to get a huge promotion and pay raise.  However, the job was nothing I ever wanted to do.  I simply got it out of college and continued to climb the ladder.  Sure, I was making great money but felt dead inside.  Now, I’m only making enough money to pay bills but pursuing my passion!",fl0owph,windowcleaning1234,5kj5y2vr
Nah dog. You wouldn’t.,coke_and_coffee,1upwac8n,fl0eers,"Wrong.  If I had millions on top of millions I'd see it as an opportunity to help the world and do better for the greater good.  Would I purchase a crappy apartment and drive a 20 year old beater?  No.  However I wouldn't have 20 different sports cars just as a collection.  4 different houses in 4 different states and a private island. 

It's one thing to reward yourself, but most of the celebs live and flock their wonderful lifestyle way above their means.  For fucks sake, I guarantee you at least every celeb or every other celeb has a jewelry piece that is worth more than I would ever earn in my entire life.  You see stories about someone wearing a 500k necklace...",fkzs5iq,windowcleaning1234,5kj5y2vr
"Hard disagree. The disease is bad, yes, but sometimes the treatment can be worse. Grinding life to a halt is not a victimless activity. People will lose jobs and cars and homes and retirement funds. Life has to go on.",coke_and_coffee,1upwac8n,fl0e5ci,That's why the whole country is legally required to stay inside. Nobody is driving. It's quarantine. That's what we should be doing right now in the US too so we can avoid this exact scenario here. But we aren't.,fkyz0od,heartx3jess,8q1zt
I don’t buy that. Innovation in the US dwarfs those nations. Even on a per capita basis.,coke_and_coffee,1upwac8n,fkyowty,"I think a new approach to understanding their economy is Keynesian Libertarinism. In that Keynesian social economic policies lower the barrier to entry to market, thus making the business market more competitive and entrepreneurial overall.",fky5l72,jonmatifa,64wdo
"Ok... few issues. First, the modern world is so unlike past worlds that it’s just silly to even make the comparison in the first place. The US is not an empire, the entire world is interconnected, and technology has made the economy entirely unrecognizable in just the last twenty years. 

Second, even if you held the belief that “all empires are doomed to fall” why would you assume that it’s going to happen in the next few decades?",coke_and_coffee,1upwac8n,fky0fjd,"Things always went well for every major empire in history... until they didn’t. It’s not a question of if, but when.",fkxy5td,KetchupIsABeverage,12z1bj
Why are you paying so much for rent if it’s such a burden to you?,coke_and_coffee,1upwac8n,fkxtind,Obviously? Is this meant to be news to me?,fkxp2nr,MischiefofRats,134tpd
Why the fuck are people assuming the economy will collapse? 300 years of history shows that the US economy always recovers.,coke_and_coffee,1upwac8n,fkxtg43,"When people say this, I don't think it's because they don't know how to save, it's because they assume the economy will have collapsed to a point where those savings won't be enough anyway. Nobody is claiming it's hard to plan, it's just hard to see the point when you look a few decades down the road.",fkx3eaa,Considuous,5kuvq
Are there any currently popular apps or companies doing this? It’s an ancillary service for some Snapchat and facebook but it’s just not really that popular. Pretty sure even foursquare hasn’t been able to turn a profit.,coke_and_coffee,1upwac8n,fkx85cp,"> And the only real benefit for anyone is advertising.

That's not true at all. Geographically-linked messaging/social networking has plenty of appeal without any notion of advertising.",fkx5zoe,peenoid,fqngg
"> I make a point to let the guy who turned me down know how much I made every year.

Every year you go out of your way to rub it in his face that you made a *couple grand*? Geez, no wonder he didn’t want to work with you...",coke_and_coffee,1upwac8n,fkx59x1,"I had an app idea once.  I pitched it to a coder friend; he tried to shoot me down based on it being a ton of work and probably having been done before.

So I did some work and built a functional heart to the app, paid a real developer to re-code my algorithmic design to work with a real back-end, and to put the app up and support it.

He now mails me a check every year for a couple of grand with the tax documents detailing the revenues and his time investments to maintain, and I make a point to let the guy who turned me down know how much I made every year.

I think my return per hour of invested work in this is in the low 5 figures at this point, because all I do anymore is cash checks and fill out tax paperwork.

Not everyone with an idea is an idiot, but you need to separate out the idiots from the guys with ideas; a good first filter for that is generally checking to see if they understand the cost and scale of an app backend infrastructure, because everyone invariably has an idea that involves user accounts.",fkv1jl8,amalek0,w475y
"> We had two demographics in mind: whistleblowers and darknet criminals risking jail 

This is a market size of maybe a couple hundred people in the entire world.",coke_and_coffee,1upwac8n,fkx4k8n,"We had two demographics in mind: whistleblowers and darknet criminals risking jail (hence the bitcoin payments and the upper layers of service). We were aware that it would be usable for suicide letters but we are not targeting that.

The movie references is simply how you make people understand what this is. We call it just “dead hand messages” but nobody knows what dead hand switch is.",fkv3xul,Zhralok,24pl23io
Disney uses scents pretty extensively in a lot of their theme park attractions and in-park movies.,coke_and_coffee,1upwac8n,fkx3ymh,"Funny thing, Xbox tried that. They were going to have scent cartridges that would make games emit certain smells when entering certain areas. It flopped before it was even released because 

1. Development was too expensive
2. No developer wanted to waste time hiring scent engineers or invest development resources on scent design for their AAA games
3. Who would want to pay all that money to refill the scent cartridges
4. The second the internet learned about it, everyone laughed at it for how ridiculous it was

From the movie side of things, [Smell-O-Vision](https://en.wikipedia.org/wiki/Smell-O-Vision) was a thing. It was most notably used for the 1960 movie ""Scent of Mystery."" They would inject 30 different scents into the theater during different parts of the movie. The truly genius part of the movie was that it was a murder mystery, and the murder had a specific smell that would get injected every time they were on screen. So you could figure out who the killer was if you had a keen sense of smell, and paid really close attention. 

It didn't work because 

1. when the scents were dispersed, there was an audible hissing sound, which distracted viewers
2. Depending on where you were sitting, the scents would reach you sooner or later. So if you were in the balcony, the scent would reach you 1 or 2 scenes too late for it to mean anything.
3. Sometimes the scents weren't strong enough, so audience members would be loudly sniffing to try to smell the odors. 
4. The movie it was paired with kinda sucked.
5. Poor word of mouth and reviews meant that even after these problems got fixed, nobody cared.

If adding scents to media didn't work for video games, or movies, what the hell makes anyone think it will work for facetiming?",fkw8gmj,bennitori,byzyt
"3 centuries of cab companies? What timeline are you living in, bro?",coke_and_coffee,1upwac8n,fkx318a,"But that's really uber's whole paradigm, ""Everything that cab companies and cab company regulators have come up with in the last 3 centuries to be reasonable and non-exploitative: we're just gunna spend a couple billion dollars of other people's money to not do any of that because now there's so many underemployed young white people driving around in a car their parents bought them.""",fkuon0v,AndySipherBull,63k1r
I’ve seen this idea pop up several times over the last decade or so. The problem is that it’s too intrusive and requires too much effort by the user. And the only real benefit for anyone is advertising. Users won’t be attracted to a system that exists solely to serve them ads.,coke_and_coffee,1upwac8n,fkx2rro,"I had this idea some years ago as well, as I'm sure many others have. I actually started writing an app and called it ""Dead Drop,"" from spy vernacular, but didn't really work on it seriously.

It's amazing to me that no one's really done it. The idea would be that you'd get pinged as you walked around (if you wanted to) with messages left by other users tied to a geographical location, such as events, historical info, etc, and people could upvote or downvote them, etc, with the obvious monetization being ads and such. The messages wouldn't be permanent unless they crossed some threshold of attention/upvotes. I thought it was a really great idea but I also saw that a few companies tried to sort of do the idea and failed.

Not sure why it doesn't seem to work out, but in retrospect I'm glad I didn't pursue it seriously since there seems to be some lurking adoption problem. Maybe a big company can throw enough resources behind it to do it right.",fkuesk1,peenoid,fqngg
HTML/CSS is not the hard part. It’s the hosting and buying a domain and all that that really trips people up. I’m pretty tech savvy and even I can’t quite figure that stuff out.,coke_and_coffee,1upwac8n,fkx2824,Or just learn HTML/CSS real quick (it's a stupid easy language) and make a quick webpage.,fkurelv,techie96,kxinu
Huh? Those were all over the news. What do you mean Americans have no idea?,coke_and_coffee,1upwac8n,fkx04r7,To be fair Americans have no idea about Ebola or Zika.,fkwxxvc,MisterGregson,51wt4gjt
This is *not* a million dollar idea. You sound just like the person this thread was made about.,coke_and_coffee,1upwac8n,fkwa4od,"That's a sign that you don't understand capitalism.  The million dollars can come easily.  In the US alone, there are nearly 400 million people. That says nothing of places like China, Indonesia, India, Brazil...  if you can get even $1 per person, you could have a BILLION dollar idea even if it's worthless.  Just have to have the right idea.

Now consider this: It wouldn't have taken more than 1-2 days to make a ""toilet paper map"" app for cell phone, where people could continuously update on where people could purchase TP.  Or hand sanitizer.  It's really no different from every other super specific mapping application that already exists.  Spin up a DB on AWS or Heroku, and the hardest part is the delay getting into the Apple App Store.  Google won't delay very long.

You're welcome world. My million (or billion) dollar idea is even a step above that.",fku8810,letsgetrandy,94pl5
"I mean, you could just rob and steal your way to riches too.",coke_and_coffee,1upwac8n,fkw3b2g,"Just wondering, do you, as someone who doesn't pay bills, understand how people obtain money?",fkudin8,one_big_tomato,8dk7q
"There are, but they’re very rare.",coke_and_coffee,1upwac8n,fkvo1lu,There are no original ideas,fku83i5,informativebitching,15idxw
And the other problem is that you are not simply expressing your disgust about this fantasy piece. People in this thread are calling the man a “pervert” and a “pedophile”. That’s not right.,coke_and_coffee,1upwac8n,fkuqs5v,"Again, you misunderstand. I sadly believe you maybe simply cannot. No one is upset here. We are grossed out by gross writing. You yourself admit there is nothing wrong with feeling grossed out, so why are you so pressed that we’re discussing our feelings of being grossed out? It’s a gross passage and a gross fantasy. You have every right to disagree, but you have no right to dictate to anyone on how they can or cannot express themselves, especially in a place such as this. 

If you change the girls in this story to boys, I still feel grossed out. 

>There were four of them near the showers, all between 15 and 17, opposite the sinks. Two of them wore speedos and waited as the other two played under the shower like otters, chatting and laughing while splashing with each other: they were completely naked. The scene was indescribably masculine and erotic. He did not deserve such a thing. His cock was hard in his boxer shorts; with one hand, he took it out and pressed himself against the sink as he cleaned between his teeth with a toothpick. 

>One of the boys, slight and dark haired, stepped out of the shower, grabbed a towel and began to contentedly pat his young cock dry. A little redhead slipped off his swim trunks and took his place under the shower — his pubic hair was golden blonde. Bruno moaned a little, and was beginning to feel dizzy. In his head, he could imagine waking over, taking off his shorts, and waiting by the shower. He had every right to go and wait to take a shower. He imagined himself beside them, his cock hard, saying something like “is the water hot?”. The showers were 50cm apart; if he took a shower next to the redheaded boy, he might accidentally brush up against his prick.


That shit is simply gross to us. Sorry if you take offense, but I can’t help but feel you have some need to justify this fantasy on behalf of all men and that just isn’t necessary. You can justify all you want and it will never feel less gross to us here. It doesn’t make us prudes, that’s just you using ad hominem because your entire defense hinges on you believing being a prude must be the only way anyone could feel how we’re feeling. You’re wrong there.",fkum4ov,TrueJacksonVP,11higz
"> It’s a gross passage and a gross fantasy.

You keep saying this but you (and every other person here) have failed to articulate **why**. What kind of fantasy could a man write that *wouldn’t* be “gross” in your opinion?

What is it about that particular fantasy that is gross? The age of the women? The person I responded to said it would be gross even if they were 30. Is it the fact that it’s a non-sexual act? Again, I’ve already explained that that doesn’t matter for a male sexual fantasy. 

There is clearly some issue that y’all have here that you are incapable of explaining. Until you offer an actual explanation beyond “Ew, disgusting”, the the only conclusion I can draw is that you all are simply more prude than the average person. You find this “gross” simply because it involves some sort of risqué sexualization slightly beyond normal sex. 

Either that or you have some false preconception of a perverted ugly old man writing this and you are projecting that image into your opinion of the piece. Ugly old man = gross, ergo, his writing = gross.",coke_and_coffee,1upwac8n,fkuplzd,"Again, you misunderstand. I sadly believe you maybe simply cannot. No one is upset here. We are grossed out by gross writing. You yourself admit there is nothing wrong with feeling grossed out, so why are you so pressed that we’re discussing our feelings of being grossed out? It’s a gross passage and a gross fantasy. You have every right to disagree, but you have no right to dictate to anyone on how they can or cannot express themselves, especially in a place such as this. 

If you change the girls in this story to boys, I still feel grossed out. 

>There were four of them near the showers, all between 15 and 17, opposite the sinks. Two of them wore speedos and waited as the other two played under the shower like otters, chatting and laughing while splashing with each other: they were completely naked. The scene was indescribably masculine and erotic. He did not deserve such a thing. His cock was hard in his boxer shorts; with one hand, he took it out and pressed himself against the sink as he cleaned between his teeth with a toothpick. 

>One of the boys, slight and dark haired, stepped out of the shower, grabbed a towel and began to contentedly pat his young cock dry. A little redhead slipped off his swim trunks and took his place under the shower — his pubic hair was golden blonde. Bruno moaned a little, and was beginning to feel dizzy. In his head, he could imagine waking over, taking off his shorts, and waiting by the shower. He had every right to go and wait to take a shower. He imagined himself beside them, his cock hard, saying something like “is the water hot?”. The showers were 50cm apart; if he took a shower next to the redheaded boy, he might accidentally brush up against his prick.


That shit is simply gross to us. Sorry if you take offense, but I can’t help but feel you have some need to justify this fantasy on behalf of all men and that just isn’t necessary. You can justify all you want and it will never feel less gross to us here. It doesn’t make us prudes, that’s just you using ad hominem because your entire defense hinges on you believing being a prude must be the only way anyone could feel how we’re feeling. You’re wrong there.",fkum4ov,TrueJacksonVP,11higz
"> You’re misunderstanding the point altogether. Women bathing is not a sexual act. Teenage girls bathing is not a sexual act. The author has created a fantasy where the character is watching young girls do something innocuous and necessary (showering)

That doesn’t matter in a sexual fantasy. I don’t see how that somehow makes the fantasy any worse. Men get off on the naked female form. It doesn’t matter if it’s a “sexual act”. 

> while maintaining an erection and fantasizing further about hopefully “accidentally” touching a girl with his erect penis. 

Yes, it’s a fantasy. 

> We find this disgusting and gross.

Yes, that’s my entire point. You *do* have a different opinion and that opinion happens to be overly prudish compared to the general population. If you are disgusted by a man writing a sexual fantasy about naked teenage girls, then you need to stay away from the Internet at all costs, my friend. 

> Are you suggesting I try not to feel grossed out by men like the character and author because it’s simply in some men’s nature? 

It’s OK to be grossed out, but it’s not OK to call those men “gross” or “perverted” or “pedophiles”. Just like it’s OK for me to be grossed out by homosexual acts but it’s not OK to degrade homosexual men. 

> Having been on the receiving end of overt and unwanted sexual attention — that’s just not happening, friend.

Again, this did not actually happen. This is a fantasy. No “overt and unwanted” sexual attention was being directed to you or any other real person.",coke_and_coffee,1upwac8n,fkukt7l,"You’re misunderstanding the point altogether. Women bathing is not a sexual act. Teenage girls bathing is not a sexual act. The author has created a fantasy where the character is watching young girls do something innocuous and necessary (showering) while maintaining an erection and fantasizing further about hopefully “accidentally” touching a girl with his erect penis. We find this disgusting and gross. You disagree. It’s like perhaps different people with different life experience witness things differently and feel differently about them. Why are you surprised? There is no “rage” from me — I just think the passage is stupid and gross. The fact you believe I’m raging because I dislike something is just odd. 

Are you suggesting I try not to feel grossed out by men like the character and author because it’s simply in some men’s nature? Having been on the receiving end of overt and unwanted sexual attention — that’s just not happening, friend.",fkuingy,TrueJacksonVP,11higz
"I did not vote for Trump. But plenty of very good people *did*, simply because they believed that abortion is wrong. If you can’t understand that voting often involves difficult trade offs, then you’re beyond help.",coke_and_coffee,1upwac8n,fkuj5it,"You should delete your account for writing something so absurd.

If this is what you have to tell yourself to vote for a racist, rapist, traitor then you're beyond help.",fkuh2en,SardinesGivePower,fz8s3
"I find it ironic and fairly hilarious that someone who is part of a group who has historically been demonized for their sexual preferences would go on the Internet and demonize a man for his sexual fantasies. 

Like, how is a man even supposed to write a sexual fantasy without “objectifying” the women in the fantasy? I just don’t even get what the issue is. Men will literally jerk off to just a picture of a vagina if that’s all they have. Is that “objectifying” also?

I think you probably have very real and well-intentioned issues with the way men often deal with sex in our society, but raging about this particular piece is misplaced.",coke_and_coffee,1upwac8n,fkuhibz,"I don’t have to get used to it. I personally have no use for men sexually as I’m a lesbian. This kind of writing is basically ephebophilic and whatever your opinion is on that doesn’t change our opinions here. We find it gross. Is our opinion on a sub explicitly made for similar opinions invalid because you hold a different one? Nope. Am I prudish? Nope. My sex life has never been “vanilla” or prudish. That doesn’t mean I can’t form an opinion on objectification. Like it or leave it, ya know? You’re inviting yourself into a space guaranteed to ruffle your feathers — as demonstrated here.",fku72jl,TrueJacksonVP,11higz
"There is nothing wrong with being attracted to sexually mature girls. Every man, whether he is willing to admit it or not, has been attracted to girls in the range of 15-17 years old. This is biologically hardwired in the male brain. 

What I’ve said does not mean that it is OK for men to act on these attractions, but writing a fantasy about it hurts no one. It would do you well to learn how to separate fantasy from reality so that you can quit raging about imaginary issues on the Internet.",coke_and_coffee,1upwac8n,fkug4j9,"They are *children*, you fuck. Moreso, it's written in *3rd* person.",fkue6mh,biejje,17gjuk
"“Disgusting sexualization” is a subjective term. Like I said, the fact that you find a written fantasy of sexually mature teenage girls to be “disgusting” means that you are overly prudish.",coke_and_coffee,1upwac8n,fkudnue,Notice how I never said any of that? Disgusting sexualization of people is wrong and gross when ANY author does it. So fuck off snd stop trying to put words in my mouth :),fku9qoe,slunkyslip,2bb16umx
"And this comes back to my original comment, this sub is just a bunch of overly prude women who are grossed out by sexualization of almost any form that they haven’t explicitly invited. 

This man is writing a fantasy to be consumed by whoever desires this type of content. You are allowed to dislike it but that doesn’t make it “gross” and it doesn’t make the men (or women) who write or consume it “perverts” or “pedophiles”. 

I am turned off by homosexual erotica. I dislike it myself and I do not want to be sexually desired by other men. But do I go on the Internet and call homosexuals who write those things “perverts”? No. I let them be. They are not harming anyone. 

> And no, most of us dislike being seen as objects by anyone.

Get used to it. The entire act of sex, for males, is the process of objectifying. Men do not get aroused by picturing a woman as a thinking feeling human person. They get aroused by images of the female form. It’s as simple as that. But this doesn’t mean that women are primarily seen as sexual objects and it doesn’t mean that men are incapable of separating sexual desire from emotional connection.",coke_and_coffee,1upwac8n,fku46mi,"The difference is you aren’t authoring your thoughts. They’re yours to have and no one is even aware you’re having them unless you explicitly tell them. 

Of course some people are going to dislike this hypersexualization of women, especially since they are written to be teenaged here. I’m not sure why this is surprising. It was written, published, and people here find it gross. Hence the post. No one is coming after your private thoughts. 

And no, most of us dislike being seen as objects by *anyone*. The gross old man trope is prevalent and further upsetting imo because older age becomes synonymous with our fathers and grandfathers and it feels even stranger to be objectified by an adult you would associate with your parents. “Gross” doesn’t necessarily have anything to do with looks btw",fku1f6x,TrueJacksonVP,11higz
"> LMAO yes, words have meaning and underage is a legal term that means they are not to be touched by sick adult fucks.

Did you forget that the word I question the use of was not “underage” but “pedophilia”? You’re losing your grasp on this conversation. Try to keep up, honey. 

> So there shouldn’t be a legal line that absolutely cannot be crossed? 

Never said or implied anything like this. Stop trying to put words in my mouth.",coke_and_coffee,1upwac8n,fku0rpv,"LMAO yes, words have meaning and underage is a legal term that means they are not to be touched by sick adult fucks.

So there shouldn’t be a legal line that absolutely cannot be crossed? That is fucking ridiculous. Don’t be silly.",fktzzcl,WubFox,kvpvi
"You’re literally using the wrong word. This is not “splitting hairs”. Words have actual meanings. Learn them. 

“Underaged” is a subjective term. If these girls were 16, then suddenly all these issues go away? That’s fucking ridiculous. Don’t be silly.",coke_and_coffee,1upwac8n,fktwuhf,"We don't do the ""Pedophilia vs Ephebophilia,"" bullshit argument here. No one cares about your new vocab word.

This is sexualizing underaged girls, regardless of whatever exact term you want to use to split hairs.",fktvtfw,danni_shadow,25urkac2
"So it’s ok to be sexualized as long as the man doing the sexualization is young and attractive? It’s only when they’re old and “gross” that you dislike it? It seems to me that this has nothing to do with your distaste for sexualization it women and has everything to do with some kind of false image you’ve built up of a perverted ugly old man. That is what is bothering you, not the sexualization *per se.*

Regardless, these are fantasies. Why are you so bothered by what people do in the confines of their own mind? As a man, should I be bothered when homosexuals sexualize other men? Would such a preoccupation with the sexual disposition of other men not make me homophobic? What you are engaging in here is the exact same psychological game as homophobia.",coke_and_coffee,1upwac8n,fktw2a3,How dare women not like the fact that gross old men sexualize us and young girls? How could we possibly be so unreasonable and prudish,fktumsy,slunkyslip,2bb16umx
"You do understand that this did not actually happen, right? This is a work of fiction. Please tell me you at least understand that much.",coke_and_coffee,1upwac8n,fktvb70,"I mean yeah. Sexualization is like the inverse of sexuality. This post is a great example. Even if they were grown women, they’d be grown women going about their business and bathing; nothing sexual about it. The voyeuristic creep is violating their privacy and sexualizing them. This is not the same as being attracted to someone who is intentionally being sexual.",fkturxw,wozattacks,u3ibb
"It’s pretty ridiculous to, first of all, assume that a single scene from a book indicates that men *only* think of women as sexual objects. Is it possible, in your worldview, for men to have a multifarious opinion of women? And that sometimes women are sexual beings and other times they are not? And that men are capable of compartmentalizing and separating these two distinct aspects? Or are men just such simpleminded creatures that they can only have one unchanging viewpoint?

And second, it’s ridiculous to ascribe your diagnosis to *all* men. That is straight up sexist.",coke_and_coffee,1upwac8n,fktuhj3,Or we are disgusted that men think it’s ok to only see women and young children as sexual objects of desire instead of human.,fktt5p9,riotous486saturn,4kigjyy7
How is being attracted to sexually mature teenage girls “pedophilia”?,coke_and_coffee,1upwac8n,fktst2n,"Why does it feel like all the big names paedophiles running around, writing this shit and being protected because ""it's ""provocative"" art!"" are French?",fktopva,FrozenShoggoth,3kb8my42
I’ve come to the realization that this sub is just a circlejerk of overly prude women who can’t stand sexualization in any form. Y’all probably have trauma or something...,coke_and_coffee,1upwac8n,fkts1ca,"The truth is, and not many will agree, writing such vulgar language about woman /girl of any age is disgusting, regardless of whether she is 13 or 30, its still perverted and disgusting.",fktoh3x,Chummy_Chimchim,4a52mg9a
Voting for someone =/= condoning their actions.,coke_and_coffee,1upwac8n,fktpxv1,"Republicans have shown religion is irrelevant to them.  The President is a 3 times married, cheater, who paid for abortions.  So that's out.

Guns?  The most strict gun laws we've seen in modern times were under Reagan.  The only times guns were taken away were under Bush.  That's out.

Economy?  Market has done awful under 3/4 of the last Republicans and fine under the Democrats.  The one Republican that didn't tank the economy got voted out.

So I guess I'll go back to guns because that's the one you might be able to argue in modern times.  The thing is, guns are irrelevant if you're dead.

If someone is poor and/or in bad health and votes Republican then they're an idiot.  There's not any debate on this anymore.  Republicans just REFUSE to believe they've been on the wrong side all this time so they're committed to their own stupidity.",fkt0cf4,SardinesGivePower,fz8s3
"You need to understand how stupid and ignorant this comment is. This is like commenting on a hostage situation, after the fact, and saying, “See, he was capable of shooting the hostage, but he didn’t do it. So there wasn’t really a threat at all.”

Ever hear the saying “hindsight is 20/20”?",coke_and_coffee,1upwac8n,fkqmnnn,"Both sides used the exaggerated fear of global thermonuclear war to fuel the arms race. Both sides used propaganda to make the other side seem more aggressive than they were. That was my point. Neither USA nor CCCP were prepared or capable to go into a thermonuclear war, because both knew there was no winning such a war. Yes they had nukes, yes they were physically capable of actually sending them. But neither would - and neither did.",fkqlgid,cross-joint-lover,5jidc
"> Yes, because neither side was prepared or capable to go into a thermonuclear war. 

I’m not sure I understand what you’re trying to say. Both sides were absolutely *capable* of nuclear war and both sides took many steps to prepare for it including stationing missiles in Cuba and Turkey. Both sides implemented doctrine in the case of first strikes and both sides had a first strike policy. To claim that this was just a “brainwashing tool” is completely ignoring the reality of the situation and downplaying how close the world came to total annihilation. Are you sure you’re not some kind of Russian shill?",coke_and_coffee,1upwac8n,fkqkeal,"Yes, because neither side was prepared or capable to go into a thermonuclear war. The possibility of it, however, was a very real political / brainwashing tool. For both sides.",fkqi9wl,cross-joint-lover,5jidc
"Considering H1N1 in 2009 was far worse than coronavirus, no, it probably couldn’t have crashed any economy.",coke_and_coffee,1upwac8n,fkqi11l,"So does this mean that if previous events like Sub-Prime, Housing Bubble, 9-11, S&L Scam, etc hadn't happened, that Coronavirus wouldn't be able to crash the economy? Because to me it seems like Coronavirus would be able to crash any economy, no matter how sound its fundamentals were.",fkqhd5h,sanman,2cnlo
"Lol. At one point the USSR had nearly 50,000 nuclear missiles. Do you seriously consider the threat of thermonuclear warfare to be a “scarecrow”?",coke_and_coffee,1upwac8n,fkqhb9g,The USSR was a major scarecrow for the West at one point.,fkqh4p6,cross-joint-lover,5jidc
The USSR was a major threat at one point...,coke_and_coffee,1upwac8n,fkqgmsx,"Long time ago, they have been brainwashed to think of Russia (AKA Communism) as the literal worst thing that could happen to society. Never mind that CCCP / Russia has never been a threat to the US, this is about propaganda and what the boomer generation grew up hearing *constantly*. So brainwashed that even the word ""socialism"" can trigger them so hard, as if it's something they're not already living in.",fkqci9q,cross-joint-lover,5jidc
You’re an asshole.,coke_and_coffee,1upwac8n,fkp29j9,Then maybe please dont tell me how the bigger issue in this country is class when you haven't lived the experience of being not white in this country.,fkosdpb,gdex86,d1lhl
But there’s no other way to invest. You have to buy stock in companies. That’s literally what investing is...,coke_and_coffee,1upwac8n,fknl1hn,I think it is sad that so many Americans are pushed into the stock market as the only way to invest,fknjye9,amalagg,fu70d
I don’t think that’s what he was implying...,coke_and_coffee,1upwac8n,fkm2n97,2008 had nothing to do with corporate credit. Stupid comment,fklqzu9,missedthecue,z507c
Moving the goalposts a bit? That’s still not brain drain. And I think I’d like to see a citation. I’ve been hearing similar rhetoric for decades.,coke_and_coffee,1upwac8n,fkll9v4,ok? well that doesn't change how shit the high school and middle school systems are. And on top of that the population of the US is pretty high.,fklgl8x,HarshMyMello,imfkyoi
Lol k. America graduates more top scientists and engineers than any country.,coke_and_coffee,1upwac8n,fklb9gp,well they're obviously not being educated in America with its shit system,fkkkvsg,HarshMyMello,imfkyoi
"While I think you’re being pretty hyperbolic, I don’t disagree with what you’ve said. It’s just that that is not what “brain drain” means. Brain drain is where educated people leave the country. That is not happening. Educated people still flock to America regularly.",coke_and_coffee,1upwac8n,fkkb7yp,"We're falling behind in everything, our infrastructure is a joke, and more than half the country cries out for ""NORMAL"". What is normal? When everything was falling apart before, or the time it was barely held together before that? Or maybe when we were the manufacturing hub before two generations of people decided to pursue profits over people and progress? We're a nation of people so terrified of anything non-traditional that we've still got politicians fighting against women's bodily autonomy. This whole place is a joke, and if you don't see that; you've got the brain drain, too.",fkk7q8x,InkPudding,1ximzvcc
He wasn’t on to something that anyone else wasn’t also on to. So I guess you’re not *technically* wrong but it’s just kind of a pointless observation.,coke_and_coffee,1upwac8n,fkkb0c3,"> It’s easy to criticize. Anyone can do that and Marx was not the only one. 

Oh sure, but that doesn't mean he wasn't on to something.  You're moving the goal posts a bit.",fkk84lv,RogueJello,8gm7t
"I’m so glad I’m American and not one of those rEpuLSive SwEdES. Ew, disgusting Swedish.",coke_and_coffee,1upwac8n,fkk7i89,"That doesn't excuse assholes the fact that millionaires are exploiting the working class. 

I'm so fucking glad I'm Swedish and not a disgusting Yankee because here I know that no matter what i have real freedom and not a fake delusion of freedom.",fkjs19x,Tommpa11,1ew3zoji
America is not suffering from brain drain. Where did you get that idea?,coke_and_coffee,1upwac8n,fkk6rrz,Spoiler: we won't. Those of us with the means to do so will contribute to the brain drain America is suffering and immigrate to first world countries where we can be productive and be supported in our times of need.,fkjwr7n,0CaffeineJustAnxiety,5abwy3kh
"I feel for you there. But you are the exception to the rule. Most people with student debt are not in your situation. 

And did you miss the part where I said, “ If you really want to help young people, there are much better ways to do it than student loan forgiveness.”? The government can do a lot to help people like you that doesn’t require arbitrarily targeting only a subset of the population.",coke_and_coffee,1upwac8n,fkk4dp8,"I’m in my 30’s, left college 1 semester away from graduating after basically a nervous breakdown. I owe my school $10,000 so they won’t release my transcripts. I owe Navient $40,000. I went into default and can not qualify for a SBL or FHA loan because if you’ve ever defaulted on a gov loan you are excluded from those opportunities. So no degree, lots of debt, no bankruptcy protection.. I got a 1420 on my SAT and am looking at a future of waiting tables. You can stereotype all you want but your precious economy will eventually suffer when enough people feel like they have no future.",fkjdk8t,ParticlesWave,2u1mdkbo
That’s not “true capitalism”. True capitalism isn’t a real thing. This is just something you’ve made up.,coke_and_coffee,1upwac8n,fkk46kh,"One where the government doesn’t monkey around, essentially something that’s never been done, like true communism.",fkjd2iw,7even2wenty,kz6b8
It’s easy to criticize. Anyone can do that and Marx was not the only one. Except Marx’s critique was based on the idea that profit is “exploitation” because he subscribed to a labor theory of value. This theory is wrong so his entire thesis is wrong.,coke_and_coffee,1upwac8n,fkk45ek,Marx actually had a pretty good description of a number of the problems and pitfalls of capitalism.  The plan where most people think he had issues is with his proposed solution.,fkjc7u2,RogueJello,8gm7t
Marx’s entire thesis was founded on the Labor theory of value which has since been proven false countless times.,coke_and_coffee,1upwac8n,fkk4247,Great analysis.  Your ability to convey such deep meaning is incredibly profound.  Thanks for sharing,fkjb09q,sapatista,n21ksx1
No he wasn’t.,coke_and_coffee,1upwac8n,fkjao16,So Marx was onto something,fkiiuwj,sapatista,n21ksx1
What is “true capitalism”?,coke_and_coffee,1upwac8n,fkjacyk,If we had true capitalism there wouldn’t have been a trade war that caused manufacturing to cut slim right before a recession.,fkj4xgn,7even2wenty,kz6b8
That doesn’t make any sense. Why buy the hospital in the first place just to close it?,coke_and_coffee,1upwac8n,fkhoukz,And corporatized hospitals are buying up hospitals and closing them in rural areas because they aren't profitable enough.,fkhgzau,ColorClassic2,13tj1cud
"Lol, who is “overlooking” that part of history?",coke_and_coffee,1upwac8n,fkh99ni,It’s sad how people seem to overlook this part of history.,fkfo6ka,im-here-with-stupid,5us96zyb
You have a very naive and cartoonish view of politics.,coke_and_coffee,1upwac8n,fkh6xrm,"Does no one get how this works?

If she doesn't push free Coronavirus testing she will be politically rejected, if she doesn't push M4A, even if it's an infinitely better thing for fucking **everyone involved** she won't be.  Moderates only give a fuck about making changes when they will be politically hurt for *not* making changes.

The only difference between a Moderate and a Republican is that a Moderate Dem will say they care about you but never act in your interests, while a Republican will actively tell you to jump into a pit and die.",fkgpp7z,FoxyPajamas1029,4p4cwlzf
Takes longer to find a job the more educated you are. But it’s usually worth it if you enjoy your field and are good at it.,coke_and_coffee,1upwac8n,fkfkwdy,Was it hard to hunt for a gig with your PhD in ‘07? About to finish my BS and really didn’t want to go to grad school but now it’s looking like I’m going to have to ;(,fkf44nj,CytochromeCenis,53lbhpj2
You didn’t get your first job until you were 27?,coke_and_coffee,1upwac8n,fkfkpm1,"Here I am, pushing 40, dicking around on the internet most the day.  Snuck into my first job in 2007 before the great recession, survived layoffs every other year for the last 12 years.  I'm a cockroach, but some day I'll get squashed.",fkedfh1,Cyanomelas,23vptosj
"Even if you “knew” that stocks will drop, you still don’t know when they’ll go back up so you’ll miss your chance to buy back. **You can’t time the market** with any certainty beyond random chance. This has been proven time and time again. Even the “experts” can’t. Fundamentally, this is because markets are based on human psychology which is inherently unpredictable.",coke_and_coffee,1upwac8n,fkf1tlj,"Sure, but if you see that yesterday it dropped and you except it to drop more then you should sell. Of course it’s impossible to know with certainty how much it’ll drop or for how long, but I can pretty much tell you right now that it hasn’t stopped dropping yet.",fkeq4ry,OG-Pine,hpfls
How do you know it wasn’t coronavirus if you weren’t tested?,coke_and_coffee,1upwac8n,fkem9it,"I called in with an upper respiratory infection 3 days ago that turned out to just be a cold, but they wouldn't test me. If you're young you either have to of left the country recently, or prove that you were in contact with a confirmed case.",fkellx1,Ayalat,5xmp5
You’re missing the fact that nobody knows if or when a crash will happen. It’s easy to say in hindsight that you “knew” it was coming but people have been saying that for 10 years.,coke_and_coffee,1upwac8n,fkdvlhs,"If you truly believe that, then it’s still better to sell before the expected crash. You can just buy it back up when it starts to rise and make even more money. Selling before the crash gives a safety net of having money Incase the crash goes on for longer than you expected",fkdkq95,OG-Pine,hpfls
I'm not saying it's easy. But the entire foundation of America was built on people moving away from home for economic opportunity. It's kind of just a part of the modern world.,coke_and_coffee,1upwac8n,fkd60ip,"Because some people were born and raised in a city where they grew a career and a skill set and now its hard to find jobs for that skill set in any random cheap place. There are pros and cons to just quitting and moving wherever. It’s not easy to just leave everyone and everything you know, and go in blind to a place where you might end up not being able to do anything other than get a job in the service industry. So in that circumstance I’d be just as poorly off as I am now. The best way out for me, I’ve determined, is to climb a little higher until I can start saving enough to retire early. Or to at least move and have enough of a nest egg to spend time finding the right job. 

I see people say this all the time. “Why not move”. Like, what? How is that possible. I feel like people who are saying that must be so young and not actually have any life experience yet or something. They make it sound so easy like anyone can just up and move wherever they want at any time. It’s extremely difficult to start over from scratch somewhere especially when you’ve sunk years of your life into building up a career that you would be throwing away if you “just moved”.",fkchtn0,theLiteral_Opposite,14mmyh
"> The economy is how much value they can wring out of workers.

That’s definitionally false. I know he’s being hyperbolic but the economy is *not* “how much value they can wring out of workers”. It is simply the sum total of all goods and services. 

>Which means as the economy goes up you are literally giving more and getting less.

Since this follows the logic from his first statement, and his first statement is false, it is false by default. 

When an economy grows, that means *more* goods and services are being exchanged for the same amount of labor. This means you “give less and get more”. Precisely the opposite of what he claimed.",coke_and_coffee,1upwac8n,fkc1tvd,So.. Provide reasons then,fkbwo66,Geleemann,bst13
Why not move?,coke_and_coffee,1upwac8n,fkc0kzk,Depends where you live. NY-Metro area? Nope.,fkbydff,r_cub_94,waae3
"This is the problem with reddit. So many bad misinformed opinions in this site (especially when it comes to politics, economics, or science). And that’s because most users are just teenagers or in their early twenties. Young people just don’t know anything about the world but they’re armed to the teeth with arrogance.",coke_and_coffee,1upwac8n,fkbeqga,"I get it, it is cringy. but also... she's a literal teenager. thank fuck none of us were being interviewed for millions of people when we were teens... my edgy ass takes are slowly rotting away on Myspace, where they belong.",fkb2fil,rumblerosie,1033z1
"I want you to create a budget for a family making $50,000 a year. It’s very doable.",coke_and_coffee,1upwac8n,fkbc73q,"In my opinion the anxiety isn’t about “achievement” or comparison to others. The system is rigged so that unless you make several hundred thousand per year, you can’t actually own a home and support a family  and save for retirement, without just being In constant debt, which eats away at any wealth you have, to prevent you from actually accumulating wealth. People who make a simple 100k should be able to earn interest. Not pay it.  It’s set up to keep every paying interest and unable to accumulate anything, so that the billionaires collecting the interest can continue to expand their wealth exponentially at our expense. 

So, is my anxiety about wanting to “achieve” more, or would I just like to be able to support my family, but a home, and grow my net worth modestly but continuously over time and be able to retire at a reasonable age and enjoy my retirement? But I can’t do that even at 150 k gross (in nyc so everything is scaled higher but it’s the same problem everywhere). And I won’t be able to pay for my baby to go to college either and so she’ll  be stuck in debt and thus paying interest and prevented from growing her own wealth indefinitely too. Who wants to live like that?

THAT is what is stressful. Not the vague concept of lack of achievement. Why shouldn’t I be stressed about that?

The only way to be able to retire and support your family and get your kids good education and have good health care , and have a home, is to make it really far in a corporate career. Like several hundred grand. So you may call that “wanting to achieve” something but I call it wanting to get out of a life of servitude. this is the only way to do it. It fucking sucks. 

Back in the day as long as you could hold down a job you could support your family and build a nest egg. These days doing that will condemn you to a life Of poverty. And now I’m being told that stressing about it is just me being unreasonably obsessed with achievement and comparison to others? Are you fucking kidding?

Like seriously, this reads like it was written by the oligarchs , trying to convince the proletariat that they should be happy in their lives of poverty and servitude and stop comparing themselves to the oligarchs. What a crock of shit.",fkav7cn,theLiteral_Opposite,14mmyh
Bullshit. Ancient Egyptians didn’t have processed sugar but mummies are routinely found with devastating tooth cavities.,coke_and_coffee,1upwac8n,fkbbyou,This isn’t really how things worked before modern medicine. Without processed sugar tooth decay was uncommon and if you could make it to adulthood you had a decent chance of living to your 60s-70s.,fkaqzl9,bannullen,s1ypk
Nobody is claiming there is.,coke_and_coffee,1upwac8n,fkbbq7v,"That's only because we *achieved things together* 

There's no individual who just made that happen on their own",fkauw2x,gulagjammin,o8ef3av
"I am not a climate denier. I have performed scientific studies on climate mitigation for the DoE. It will be bad, but you are grossly exaggerating its effects. We will not run out of food and water.",coke_and_coffee,1upwac8n,fkb43rx,"https://www.nationalgeographic.com/environment/global-warming/global-warming-effects/

""Droughts in the Southwest and heat waves (periods of abnormally hot weather lasting days to weeks) everywhere are projected to become more intense, and cold waves less intense everywhere.

Summer temperatures are projected to continue rising, and a reduction of soil moisture, which exacerbates heat waves, is projected for much of the western and central U.S. in summer. By the end of this century, what have been once-in-20-year extreme heat days (one-day events) are projected to occur every two or three years over most of the nation.""

https://climate.nasa.gov/effects/

""Forests, farms, and cities will face troublesome new pests, heat waves, heavy downpours, and increased flooding. All those factors will damage or destroy agriculture and fisheries.""

https://www.nrdc.org/stories/global-warming-101

https://www.waterlogic.com/en-gb/resources/blog/the-impact-of-global-warming-on-water/

http://www.climatehotmap.org/global-warming-effects/food.html

If you think this is all just bullshit and not backed up by facts, simply check the references.",fkb2pnl,TryppySurfer,3kcoywwf
Why wouldn’t we have food or water in 50 years?,coke_and_coffee,1upwac8n,fkas5a4,"In fact, we have so many resources, the coral reefs are already dying out, the world is warming and there's nothing we can do about it anymore. Who needs resources if we won't have food or water in 50 years? Who gives a fuck about metal or oil at that point!",fkao53x,TryppySurfer,3kcoywwf
"Wow, you’re so wise and enlightened. Please teach us poor plebeians your wise ways.",coke_and_coffee,1upwac8n,fkas29e,"Haven't anyone of you people heard of Taoism before?   


This is literally the ideology behind it lol.   
Man I am so grateful I understood the world for a shitshow it is since I was 5 years old basically.   


Society never managed to sell me their bullshit ""life achievement"" propaganda.   


The point of life is to LIVE IT, you know... it is your only moment under the sun. And so many people wasting it trying to achieve something beyond themselves, some concept or idea or a thought of success...   


while not understanding they are wasting their life and endless possibilities of what life could be if they could just stop listening to their mind projecting the socially indoctrinated idea of what life is supposed to be.   


Work Buy Consume Die it is for most people.   
Or just ""mate and find love"" so you can give birth to a bunch of new consumers that the society will gladly ""raise"" for you because you are too busy working jobs and trying to be ""normal"" and do your obligations to your relationship, your kids, your job and everything else besides yourself lol.   


Plug out people, this shit ain't good for you.   


""It is not about daily increase but about daily decrease. Hack away the unessential.""",fkamua4,ExSqueezeIt,2k0g2beg
I think it’s the fact that there are actual outlines in places like the arms and fingers.,coke_and_coffee,1upwac8n,fkandgq,"Yeah something about it seems artificial, something about the lines to me.",fk9hoay,Metaman_JoRo,1598kk
"First, there are plenty of solutions to help low wage people. 

Second, implementing a new medical procedure does not involve the seizure of private property, dissolution of personal liberties, and the genocide of dissenters. So if you want to implement some new economic system, you’re gonna have to prove you can do it without doing those things.

Since you’re using a medical science analogy, I’ll retain that theme here. Doctors are intimately familiar with the phrase, “First, do no harm”. I suggest you learn what that phrase means and how it can also be applied in other areas of life.",coke_and_coffee,1upwac8n,fk89mjr,"At one point leeches/or bad science if you will were considered the best alternative for 99.99% of the people. So people still died, that's the point I'm making. 

We have tried nothing and we're all out of ideas man.",fk889ws,Notyourhero3,vixjz
"What? I’m sorry, I can’t figure out what point you’re trying to make...",coke_and_coffee,1upwac8n,fk87y1m,"AND? Before the advent of modern medicine, leeches were considered the same for those ""modern people""",fk86noc,Notyourhero3,vixjz
"> but that doesn't mean there's isn't a better option on the horizon. 

Unfortunately, until you can prove out an alternative concept, this argument should remain in the realm of academia. 

> Modern American brand capitalism has failed the working class. 

It has failed a subset of the low-skill working class. And besides the obvious (gain skills) there are plenty of potential solutions that fit within the existing system. 

> There is a class war because American capitalism facilitates theft from the working class by the elite.

I don’t agree that profit is theft (see: https://www.econlib.org/library/Enc/Profits.html) but regardless, there is *always* a class war. That is the entire history of mankind. You will never eliminate that unless we can eliminate human emotions.",coke_and_coffee,1upwac8n,fk7y1vj,"I understand that modern capitalism is probably better than anything that has come before it, but that doesn't mean there's isn't a better option on the horizon. Modern American brand capitalism has failed the working class. There is a class war because American capitalism facilitates theft from the working class by the elite. The working class is starting to think American capitalism isn't everything the elite hype it up to be.",fk7t70l,Unnecessary_Timeline,ovu8e
"> No person “makes”billions on their own, alone.

Never claimed they did. Nor does anyone else. 

> alone. They literally steal it from their workers and society.

They do not “steal” this wealth. You keep getting hung up on the preconceived attitude. It seems like you don’t understand the concept of “symbiosis”. Would you like me to explain that again?

> Workers, especially at low end jobs like Walmart, don’t have bargaining power because their very existence is often predicated on taking whatever employment is available. Company’s have been able to use that vulnerability to create wage slaves.

The solution to this, besides some non-intrusive governmental policies like an increase in the minimum wage, is to keep economic productivity and competition high. When low-skill workers gain skills, they have a better position to bargain with. Part of this solution requires fostering the correct cultural attitude that we commonly call the “American Spirit”.

Consider a hypothetical scenario: tomorrow, every low-skill worker suddenly becomes incredible skilled their craft. This would push up productivity, wages, and material wealth for everyone. *This* is the solution. Not government handouts. 

> Homelessness is not the only metric of poverty. People are having to bunk 4 and 5 people into houses to be able to afford rent, there are no more “starter homes” like their used to be. We have two generations that are overwhelmingly non-homeowners paying ridiculous rent prices because wealthy people wanted to buy up all the affordable housing and lease it back to them.

*Citations needed 

> Massive, massive taxes on the wealthy is the only solution to the problems we have.

I don’t deny the value of progressive taxation but there is such a thing as an excess of taxes. This has been shown to stall economics. You must be careful with taxation.",coke_and_coffee,1upwac8n,fk7uj42,"No person “makes”billions on their own, alone. They literally steal it from their workers and society. Their personal efforts would not have gotten them there without their workers and without the infrastructure paid for by others. Where does amazon get to without the public creation of the internet and federal highway system? We had amazon before amazon. It was called sears, and you could buy anything from their catalog and have it sent to you. 

Workers, especially at low end jobs like Walmart, don’t have bargaining power because their very existence is often predicated on taking whatever employment is available. Company’s have been able to use that vulnerability to create wage slaves. 

Homelessness is not the only metric of poverty. People are having to bunk 4 and 5 people into houses to be able to afford rent, there are no more “starter homes” like their used to be. We have two generations that are overwhelmingly non-homeowners paying ridiculous rent prices because wealthy people wanted to buy up all the affordable housing and lease it back to them. 

Massive, massive taxes on the wealthy is the only solution to the problems we have. We live in an oligarchy, that shouldn’t be so.",fk7dp4a,landback2,2j284axa
"I have never claimed that capitalism is without its own problems. But the way to solve these issues is not to vilify the system and its adherents but to elect common sense politicians who will implement policy aimed at these issues. All you get by vilifying capitalists is a continued and growing discontent and class warfare by entrenched powers. 

Never forget that *there is no better alternative*. Life was much worse for 99.9% of people before modern capitalism.",coke_and_coffee,1upwac8n,fk7ra1p,"Produced so much good? Good like:

* Causing the 2008 crash
* Inflating the housing market so much that owning a home is out of reach for the majority of millenials 
* Inflating rent from an average of 35% of income to nearly 50% of income 
* Inflating the price of college so much that many will be in student debt for the rest of the lives, just because they wanted a career
* Buying out the banks that fucked us and continue to fuck us 
* Stagnating working class wages for 40+ years
* Price gouging sick and dying people via privatized healthcare
* No federally mandated sick or vacation or paternity or maternity time, unlike almost every other industrialized western nation 
* Destroying our climate in the name of corporate profit

So yeah, I will continue to vilify this system this this is the kind of ""good"" it will continue to give me.",fk7q70f,Unnecessary_Timeline,ovu8e
"This statement shows you don’t know what you’re talking about. First, money is an abstract concept and therefore can be infinite if we want it to be. But money is a representation of assets, not an asset in itself.  So that has no bearing on this discussion.

As for infinite resources, no the Earth does not have infinite resources. But it has a HUGE amount of resources. Far more than we will ever use in the next 10 generations. And, since the earth is not a closed system, resources can be renewable. There is also the possibility of using resources *not* from Earth.

In any practical economic sense, resource availability is infinite.",coke_and_coffee,1upwac8n,fk7nmmw,"Oh right, I forgot the earth has infinite money and resources.",fk7ma5t,Dr_Identity,977t7
"> It is theft. The wealth the company “created” was wealth stolen from their workers through substandard wages and working conditions

A firm extracts value from its workers in the same way that a worker extracts value from a firm. It is a symbiotic relationship. A worker’s labor *has no intrinsic value* without the existence of the firm. The discrepancy between the value a worker provides and his wages is the “fee” that he must pay to even *be able to provide that value in the first place.*

> it was created by accumulating assets until 3 people can own the same worth as 150,000,000 of their fellow countrymen.

No, it wasn’t. Again, that wealth did not exist before the companies those men created existed. Rent-seeking and unearned income does exist and is a problem, but that is not what we are talking about here. The founders of large companies are not wealthy because they “took” that wealth from workers, they are wealthy because they provided a good or service that others valued and voluntarily paid for. The workers of the companies were then given a chance to exchange some of their labor capacity for capital. An amazon warehouse worker moving boxes around all day creates no inherent value with his labor unless Amazon first existed to find a way to create value with that labor.  

> The guy manning the cash register at Walmart deserves to have a decent living in exchange for his labor. So does the person at the gas station. So does the cook at McDonald’s.

I agree. But this does not mean that these companies are “stealing” from their workers. It simply means that workers in these industries have been incapable of bargaining for higher wages. This is due to a complex combination of market conditions, cultural attitudes, and government policy. 

> I have zero sympathy for anyone losing their asses off while they defend a system that allows millions to live harsh lives because others want to accumulate wealth in amounts normally reserved for entire nations.

Inequality is often a side effect of a prosperous growing economy. Supporting a system which enables inequality is not defending inequality *per se*, it is simply defending a system which has created unprecedented wealth for a huge number of people and raised the standard of living for all citizens. For perspective, consider the fact that are approximately 40 millionaires in the US for every 1 homeless person. If that’s not a hallmark of a successful system, then you have your head in the clouds. Or you’ve been propagandized to the extent that you believe in utopian fantasies. 

> Again, the market could hit zero, absolutely zero, and it wouldn’t effect me in the slightest.

The market cannot “hit zero”. That’s literally impossible. But yes, whether you believe it or not, it will *affect* you.",coke_and_coffee,1upwac8n,fk7cxji,"It is theft. The wealth the company “created” was wealth stolen from their workers through substandard wages and working conditions, it was “created” by companies using existing infrastructure that was publicly funded and then refusing the pay for the upkeep of it and buying politicians to make that so, it was created by accumulating assets until 3 people can own the same worth as 150,000,000 of their fellow countrymen. 


“Labor is prior to, and independent of, capital. Capital is only the fruit of labor, and could never have existed if labor had not first existed. Labor is the superior of capital, and deserves much the higher consideration.”


The guy manning the cash register at Walmart deserves to have a decent living in exchange for his labor. So does the person at the gas station. So does the cook at McDonald’s. 

I have zero sympathy for anyone losing their asses off while they defend a system that allows millions to live harsh lives because others want to accumulate wealth in amounts normally reserved for entire nations. 

Again, the market could hit zero, absolutely zero, and it wouldn’t effect me in the slightest.",fk7agav,landback2,2j284axa
This is just 100% not true. The fact that you have upvotes shows how ignorant people can be that they believe nonsense like this...,coke_and_coffee,1upwac8n,fk77us4,The economy is how much value they can wring out of workers. Which means as the economy goes up you are literally giving more and getting less.,fk4jg88,Disagreeable_upvote,3aj01ux5
Infinite growth *is* possible. There is no reason we can’t have infinite growth.,coke_and_coffee,1upwac8n,fk755fs,"At this point, markets crashing are a natural reorientation of the economy after years of exploitative capitalism. Infinite growth and profits are not possible, you have to reach a breaking point eventually.",fk4kz2v,Dr_Identity,977t7
"I just don’t think that’s the reality. Prudent retirement investing involves allocating into safer assets as you near retirement. This crash has only a minimal impact on retirement funds. Not to mention the fact that, even if you wanted to retire tomorrow, you would not need to cash out your entire portfolio. Retirees have many years to wait it out and have their portfolios recover.",coke_and_coffee,1upwac8n,fk751eo,"The point is, there are millions of average Americans who aren't 37, and used 401k and investments for their retirement and this hits then hard. 

To not care about rich people losing money is one thing, but to say you don't care at all is just a lack of humanity for others who this week negatively impact.",fk61z1u,DonutOlympian,48h3gwp2
"You have an incorrect (though increasingly popular) view of the stock market that it has been funded through “theft”. This is wrong. The value of a company’s stock is directly correlated to how much wealth that company has **created**, not stolen. That is what economic progress *is*; it is the creation of new wealth into the world. If all wealth were just stolen assets, then the stock market would never return gains in excess of inflation (the supply of money), but it does. This is because companies *create* wealth by figuring out new ways to do more with fewer resources. 

You need to drop your cynical attitude ASAP. Not only is it wrong, it’s dangerous and counterproductive.",coke_and_coffee,1upwac8n,fk74tsa,"I literally don’t care about the market, at all. It’s literally funded by the theft of the people who actually worked for their money only for it to go to other hands. 

If we had a fully funded social security system that guaranteed you a decent quality of life, what kind of need would you have for your 401k?",fk6077q,landback2,2j284axa
"> watching **capitalists** freak out out as the line on a bar chart that has little impact on my day ruins theirs.

It’s not good when people like you begin referring to average people as “capitalists”. Why would you attempt to vilify a system which has produced so much good for you and your generation?",coke_and_coffee,1upwac8n,fk74h2b,"My friends and I were literally giddy with excitement as we watched the markets crash yesterday. It really depends on how old you are. We're all younger millennials, mid/late 20s. We don't own homes, have little or no retirement, no investments, no capital whatsoever. 

For us a market crash means lower interest rates, lower home, car, gas, food, and travel prices (meaning we might actually be able to take a vacation!), and more. 

I understand that for middle aged or older people a market crash can be a lot most stressful due to retirement investments or home/capital value. But for those of us with no fucking capital that will probably never retire and work til we die; well excuse the fuck out of us as we take one small pleasure watching capitalists freak out out as the line on a bar chart that has little impact on my day *ruins* theirs.",fk4bupq,Unnecessary_Timeline,ovu8e
This is dumb. A stable and loving nuclear family is the best social structure we have for raising children.,coke_and_coffee,1upwac8n,fk74bty,"Marriage doesn't really make sense with the legal framework that surrounds it. Chances are you're not going to spend the rest of your life with the same person, because they won't be the same person forever. They'll change, you'll change. So why get into a legal binding contract that pretends you will be together forever? Kids, and taxes, probably.",fk4rs0s,heres-a-game,4sg7tdxi
It can be rationally argued that many economies have been really slowed down by a top-heavy age demographic. Greece and Japan come to mind.,coke_and_coffee,1upwac8n,fk5q59k,"> , having a large number of old people die would be the best possible thing. 

I *really* doubt that. Like - *really* doubt it. It would at best be neutral .",fk5jtc9,ArkyBeagle,r4aik
People seem to forget sometimes that the US is not actually an authoritarian monolith.,coke_and_coffee,1upwac8n,fk5pvzm,"Maybe as a nation US is not doing much, but there have been a lot of measures taken at the local, corporate and personal level. They all help.

In my county all gatherings over 1000 people (conventions, sporting events etc) have been cancelled.

All large employers for which people can work from home are making their employees work from home.

Universities switched to online only classes.

Schools made sporting events kid and coach only, no spectators.

Children are required to use hand sanitizer when entering a classroom and wipe down their desks with cleaner when they leave a classroom.

Individuals are adapting as well. My cousin is getting married this weekend and the most elderly and at risk people who would have been attending are no longer attending.",fk4p5y7,noirknight,7v1y9
The chances are pretty much zero. Natural genetic variance in human beings pretty much ensures no virus can reach that kind of lethality.,coke_and_coffee,1upwac8n,fk4mxbi,"what are the chances that this actually happens? a virus that randomly mutates and kill us all... 0,001%?",fk3dhel,fjnnels,al19y
"It would “un-cripple” a subset of a generation. Specifically, a subset which is primed to already make more money over its lifetime than the rest of the generation and which has a proven track record of poor financial decision-making. It’s an ass backwards idea for a subsidy. 

If you really want to help young people, there are much better ways to do it than student loan forgiveness.",coke_and_coffee,1upwac8n,fk3sb1g,"Student debt forgiveness would un-cripple an entire generation, people should be turning out in waves for this",fk30iet,ParticlesWave,2u1mdkbo
"Wow, you are clearly of superior knowledge and alarmingly insightful.",coke_and_coffee,1upwac8n,fk1j69j,Can't call it an argument when you're just saying stupid nonsense.,fk1fz6y,dude21862004,4t17e
"> I see this sort of thing on here quite a bit, are you lot just ignorant of history and how things work or what?

Yes. Reddit is mostly teenagers and young people. It’s a double whammy because this means they’re usually fairly poor and also naive. The perfect storm for ignorant anti-capitalist and anti-intellectual attitudes.",coke_and_coffee,1upwac8n,fk1gljc,"
>How are we different?

Fuedal Lord:  
Gets pissed at peasant you for amy reason sends soldiers onto *his* land in front of *his* castle or keep and village and instantly kicks your ass to the curb just because he's having a bad day or doesn't like your face.  
  
Bank:  
You voluntarily borrow money from them to buy *your own* home and put it up as collateral.  
Bank can't throw you out as long as you're paying your payments, and if you're having trouble they often have temporary deferrment programs where you can skip a payment or two because they don't want to deal with foreclosing on your house. They can't send in some soldiers to give you the boot. They generally can't even try to kick you out untill you've been stiffing them on your voluntarily acquired debt for *6 months* and once the foreclosure process starts that often takes another month before they can get you served with notice and even a little more to get the courts to send in law enforcement to actually remove you.     
  
I see this sort of thing on here quite a bit, are you lot just ignorant of history and how things work or what?",fk0z1ew,RetreadRoadRocket,3gs5h47v
"Damn, good point. You really got me stumped with that argument.",coke_and_coffee,1upwac8n,fk1fhiz,"You are 1,000% wrong. Sorry.",fk1f7i3,dude21862004,4t17e
Ok.,coke_and_coffee,1upwac8n,fk1dtuw,"> But you can’t do that

Nah, just not going to bother. I don't owe you the information buddy. It's kind of like saying ""the sky is always green, actually"". Nobody is going to link you the wikipedia page for the sky to prove you wrong, just shake their head.",fk1d003,viper459,6upbk
"The resources of the Earth are not finite in any practical sense. There are more resources available than we could ever hope to exhaust. Couple that fact with the fact that the Earth is not a closed system (we have can obtain energy from the sun, mine asteroids, etc.) and resources are practically infinite. Also, even with finite resources, we continually find ways to *do more with less*. That is the entire history of human progress.",coke_and_coffee,1upwac8n,fk1dmn0,"Um, finite means ""limited"" and infinite means ""**without limit**."" So, no, you can't have unlimited growth with a limited resource. I mean, if you have 5,000,000,000 oranges then sure, it'll take a while to sell them, but you *will* eventually run out. Or the price will go too high, no one will buy them, and it'll be functionally the same thing.

tl;dr We're fucked.",fk1buxy,dude21862004,4t17e
"> I think you're the one confused. If you think our current capitalist system isn't being run by the 1% at the top, i have bad news for you.

I never stated this, and this has nothing to do with the things I did say. You were (quite clearly) confused about the differences in terms used to describe governmental and economic systems. 

> y'all really have to show your whole ass with this bullshit propaganda huh? Go a google search, read a book sometime. You might learn some things about places that aren't the soviet union.

People like you always say this “do your own research” bullshit and yet fail to actually just produce a shred of evidence. It’s a bit like the attitude of flat-earthers. If you really do know what you’re talking about, it would take you no time at all to simply say, “Have you considered the economy of X country, which was communist but was not run by authoritarian leaders?” But you can’t do that.",coke_and_coffee,1upwac8n,fk1cvoq,"I think you're the one confused. If you think our current capitalist system *isn't* being run by the 1% at the top, i have bad news for you.

> historically, have all been authoritarian)

y'all really have to show your whole ass with this bullshit propaganda huh? Go a google search, read a book sometime. You might learn some things about places that aren't the soviet union.",fk1b16b,viper459,6upbk
"No, you have your terms confused. Authoritarianism refers to the operation of governments, not economies. Communism requires a centrally planned economy regardless of its style of government (which, historically, have *all* been authoritarian). It is this central-planning aspect that reduces the number of points of failure and increases systemic risk. Capitalist economies, while still not perfect, decentralize the risk of failure.",coke_and_coffee,1upwac8n,fk19m3o,"That's not communism, that's authoritarianism. Ironically, it's the exact same problem that many capitalist states today are facing.",fk18h1d,viper459,6upbk
