child_body,child_screen_name,child_user_id,child_tweet_id,parent_body,parent_tweet_id,parent_screen_name,parent_user_id
"OK.  Pro tip.  Here's how I do it when I go backpacking.  

I don't use toilet paper.  I use river stones.  Get the ones that are about 1"" in diameter.  

They fit right in there.  They're smooth so you won't get hurt.  Just use multiple to scrape everything off.

Then wash with soap.

This is actually a FAR superior way than using toilet paper.  It's a bit like a bidet in that you're MUCH cleaner but you don't get swamp ass this way.

When you're hiking 15 miles a day you need to have EVERYTHING clean down there and only soap really does that.",dangercat415,15cier,fkiz37m,I'm in Hawaii and we have no toilet paper anywhere...,fkgey0j,__the_alchemist__,qlpe4fp
You can tell him that he has a small penis - that you heard someone saying that in a porn film.  Keep saying it .  If it asks you to stop tell him you will in exchange for him to stop making comments that annoy you,dangercat415,15cier,fkhumco,"Ask him if he would like to stop having sex.

Because he's killing your sex drive. 

A woman making noises during sex is hot as fuck, take it as a compliment even if he doesn't see it as one. No one wants to fuck something that doesn't make a sound - it's no fun, not enjoyable",fkg0fc1,LectricFox,4dnlajxu
Dude. The guy is a comedian... I'm sure it was all part of some elaborate improv,dangercat415,15cier,fjbopub,Hugo Boss used forced labour to provide uniforms to the Nazis.,fj9h9bh,soberyogini,f5pblid
The alternative is human experimentation... Without any tests prior to being used in humans the default and defacto is in fact humans being the test subjects.,dangercat415,15cier,fjblgpu,"I dont think we have a viable way to bypass animal testing for many medical or scientific experiments.
What is the alternative currently?",fjaimub,zeezero,forvx
Republicans can only win when they turn democrats into monsters.,dangercat415,15cier,fjbhoeo,Jr. Is an idiot.,fja0xua,canuckcowgirl,ahcmfw8
"The Germans has good material too. I'm an amateur wwii historical and went through some of the German panzer manuals and they have jokes and pictures of sexy girls in them to get your average wehrmacht soldier to actually read them.

These videos did literally save lives.",dangercat415,15cier,fj90hkx,This was a really well-done video.,fj8acrr,niceguybadboy,sbge2
The time for revolution was 20 years ago... Not now.,dangercat415,15cier,fj8drj6,"Pete’s entire campaign is built off of stopping progressive candidates while simultaneously finding nefarious opportunities to leach progressive voters. Anything it takes to stay afloat. 

The time for political revolution is now, not 4 or 8 years from now.

EDIT: Damn...I didn't mean to hurt Pete's feelings THIS Bad!",fj7mvak,WolfieZee,ha78e
The earth fights back,dangercat415,15cier,fj85b9i,"So the Earth gets a few days of fresh air :)

I wonder how this would show in figures a week from now?",fj793a8,magnusvalentines,4du9z4i8
They can be when they are poor and don't have access to an education,dangercat415,15cier,fj7s4us,If you've ever wondered by governments around the world don't tell the public everything - here's your answer. The public can be incredibly stupid.,fj6b2za,DontWakeTheInsomniac,wqhu2
Dems should do the same thing to them and force them to change the law... Lock down the government.,dangercat415,15cier,fj4i16k,Pretty much. Can’t even change these rules without all the lawmakers present.,fj3vgm8,thanksforthecatch,15k12m3f
I think this might have crossed a line to me... I mean a this point trumps has crossed the line from being grossly ignorant actively malignant... It feels like he's actually trying to kill me...,dangercat415,15cier,fj2tg7o,"I can now say, with certainty, that Trump is the most irresponsible, ignorant person on the planet.",fj28sqt,wwarnout,a1pjw
Not even Putin is evil enough to want to spread Coronavirus though. That's just cartoon evil which doesn't exist in reality.,dangercat415,15cier,fj0jovf,"When you realize that Trump is on Russia’s side, you soon realize that the administration is not inept, it is merely sabotaging the country for Putin’s benefit.",fj0hp5k,ReadItWithSarcasm,14jm5b
My Samsung TV is a huge piece of junk. I hate it.,dangercat415,15cier,fixzzza,"Having already been a fan of Samsung, specifically for their TVs, for years (still haven’t replaced my 71” 1080P DLP a $5k+ purchase back around 2006) I have to say no phone has ever tempted me more to drop Apple iPhones than the S20 Ultra has. If the iPhone 12 pro/max isn’t at least close, it may be time to make this beast my next favorite gadget.",fixfl9l,Caje_,3gwxu46q
A modern phone could last 4 to 6 years. I get that the original vendor might not want to support it but we need laws about prematurely obsolete products,dangercat415,15cier,fixzxh6,Yeah Bad software support grinds my gears,fixmk5l,thunderFD,be3mc
I'd love to see this result in a general strike.,dangercat415,15cier,fixsrly,">""The Democrats might be able to stop Sanders, but in doing so they would destroy their party's own electoral prospects,"" Robinson added. ""It would be a completely reckless and irrational maneuver, and every sensible Democrat should oppose it.""

Democrats need to be unified with this, this is not an acceptable move to pull, if bernie has a clear plurality it's his nomination.

edit: to clarify this I feel the same for any candidate who would get the clear plurality minus Bloomberg",fix6zt4,Bernie-Standards,3ayruxcz
No. It's far far more evil than that. They actually make your kid sick too.,dangercat415,15cier,fixnsma,"What are anti-vaccine people going to say after the whole corona virus thing? Nothing cuz they dead.

All jokes aside the fallout from a post modern medicine pandemic will impact anti vaccine culture exponentially.

Edit: I was joking. Also, somebody point to me the research that shows it being a 2% death rate. And if you say Trump or one of his stooges you are as dumb as an anti-vaxxer.",fixd5w4,subduedReality,faj37pt
If he runs as an independent I sware to god.  We need to reboot our voting system in the democratic party first. Start at the grass roots,dangercat415,15cier,fiw9lbe,He doesn't even want to be the president. He just doesn't want Bernie to win. He's a party pooper.,fiupbw0,jalaaaal,5plybx5h
I stood in line all night to hear scotus in 2005 and some asshole went around offering 1k to cut in line,dangercat415,15cier,fiuas67,"This is why Warren got booed for asking Bloomberg to disclose tax information.  

It may as well have been a room full of Republican donors.",fitrl1b,letdogsvote,3zmim
The fact that we are close close of a repeat of 2016.... It honestly is mind blowing. America is a broken democracy......,dangercat415,15cier,fitutdp,Sending money to Bernie. This cannot be an election between two jerks.,fismhr7,Onoudidnt,4q191
It's also against everything we know about viral infection. Almost certainly complete bullshit,dangercat415,15cier,fiqkzug,I have literally never gotten a legit source when I ask if anyone has a source for this claim,fiqh9xi,james___bondage,53bnz0g5
Science is literally not based on humility. It's biased on what's called the scientific method which is the neither humility or arrogance but objective evidence,dangercat415,15cier,fipjiqr,">	“Science is entirely based on intellectual humility and it is important that we keep questioning the narrative that it out there instead of promoting it, and these days climate change science really isn’t science at all.”

You just can’t make this shit up. If you follow this line of reasoning, there is *no truth in the world*. This is gaslighting at its very fundamental building blocks.

Apparently the point of the scientific method is to never come to any conclusions and always reject the overwhelming findings of your research, guys!!  Who’d a thunk it?!?",fioksoi,CaptainCortez,94evq
