child_body,child_screen_name,child_user_id,child_tweet_id,parent_body,parent_tweet_id,parent_screen_name,parent_user_id
"In baby yodas defense wasn’t he still like 80 years old or something?

We also don’t know how much of there species know about the force intuitively. Hasn’t every member of the yoda species we know of been force sensitive ?",defnothacking,kbeg9vq,fjkfdw4,"But if Baby Yoda force heals, it’s fine right?                         (Just for the record this is sarcastic)",fjjvi5j,an-existing-being,4bsx4kdm
But are either of them firing explosive shells or can throw psychic powers from a distance blowing up whatever they hit.,defnothacking,kbeg9vq,fjfw1mx,But Buzz and woody are like huge,fjfptrz,Memo-to-the-Extremo-,35n1589h
Ah. If they fall back though and you started the turn in combat you could pile in into them though then? But the pile in move is like 3 inches and fall back is a full move so you are unlikely to make it to them I would think.,defnothacking,kbeg9vq,fj9tbm1,"You cannot Fall Back into combat.  So you can chase them, but not into combat - only a charge (or pile-in, or consolidate) can actually get you into combat.  The rules for Fall Back say you must end up more than 1"" away from any enemy models.",fj95q9q,DoctorNightscream,138nyp
If he can also fall back couldn’t you just chase the other model and if you have >= movement they will just be in combat again. Or can you not do that?,defnothacking,kbeg9vq,fj95n42,"Show that player the Designer's Commentary, it answers this specifically:

"" Q: If a model Falls Back from one of my models, can my model declare a charge against them when it is my turn to act in that phase?

A: No. Your model was within 1"" of an enemy model at the beginning of the phase, so it can only remain stationary or Fall Back (but this move doesn’t have to be ‘backwards’).""",fj7k13m,DoctorNightscream,138nyp
That’s featherly. Not furry.,defnothacking,kbeg9vq,fiwo8df,[On the other hand...](https://www.games-workshop.com/en-NZ/Tzaangors-AoS),fiwbpgb,Joachas,jaesm
For real. I take offense at being called a furry being a 1k sons player.,defnothacking,kbeg9vq,fiwo6kg,I think Tzeentch would be conspiracy theories or social media manipulation. Or malware. Or Russian hackers. Furries avoidable.,fiw9uki,TehWRYYYYY,5k58f
I disagree on unit types. I think some factions could use more. I’m hoping to get more options with the next expansion.,defnothacking,kbeg9vq,fit8zdy,"Maybe new terrain expansions and campaign rules. I feel like we have enough unit types for most factions, but not enough support for expanded gameplay elements.",finfznt,ryosan0,6ja8m
Seemed like in general which is what I meant. But even in a vs I would give 1k sons an advantage for the same reasons. Grey knights just doesn’t have as big a tool box. But they do counter us pretty well in the psychic phase from what I’ve seen in bat reps.,defnothacking,kbeg9vq,fir4k3n,"Yeah 1k sons has a more flexible list.

Is OP asking who would win of those two or which is better in general?",fir44ts,radian_,danap
"Not OP, but... You can get experience through a campaign and some of your specialist models can get experience and get access to more tactics and passive abilities. You can also lose people in the campaign and they may need time to recover or get killed off completely. I haven't played a campaign yet as I enjoy doing the matched play, but it looks really fun if that's your thing.",defnothacking,kbeg9vq,fhgjo4h,If you don't mind answering one more question. I have a friend that's interested in going in with me so obviously we'll mostly be playing together the most. How does the campaign system in Kill Team work? Do you gain anything from game to game if you win?,fhgjb5s,MrSchop,mgz403p
I was wondering if the terminator would be worth getting. I have been reading a little on what other people do and it seems some people like using it and some people say it is isn't quite worth it's points. Can you run 2 sorcerers without term armor to cut down on points and get that second psybolt another way?,defnothacking,kbeg9vq,fewadj1,"Welcome to the warp! Couple of thoughts to offer.

Tzangors shooting is a waste. Tzangor Blades gives you one extra attack in melee and -1 AP conpared to the chainsword and is a much better way to use them efficiently but YMMV.

The Icon is spotty for use but good plan hooking it to a unit that's going to need to get close anyway to use the flamer.

Think of what you've got in that Start Collecting box in terms of a 20 unit Command Roster instead of just one 100 or 125 point team. What you'll find is the need to go with more bodies against certain opponents (so more tzangors and fewer marines) or you'll need more punch at range against others (so more marines and fewer tzangors).

If you settle on a core of Specialists (and consider that Twistbray for Leader to roll the Sorcerer as Combat with the Autocannon Demolitions in support) then you'll find it easier to slide that ratio of tzangors to marines battle to battle. After that, identifying a couple of your guys as Rule of Cool won't impact the rest of your list since you'll never field all 20 models at once in Kill Team...even at 200 points.

One looking ahead tip...you'll want the Terminator Sorcerer for the second Psybolt. You don't need to be in a hurry for it but you WILL want it eventually. He'll be expensive but that will make the ratio math easier so don't sweat arming one or two of your guys ""wrong"" because they're not wrong just highly situational. Besides...all is dust. As long as chaos is served, your task is complete.",fevzt35,GraverobberTX,r7ixo
Thank you again. I just finished modeling all my marines. On to my tzaangors now!,defnothacking,kbeg9vq,fewa22s,"Make them all melee. Their value is in tying up other models. And their melee weapons get -1 AP. But as I said. 8 melee, 1 Twistbray, 1 Brayhorn. Of those 8 melee, you get two great blades and 1 mutant. These you can use as if they are your regular melee but, as specialists. This let's you keep track more easily. I'm not sure if you can make that many melee or if one has to be a banner or not. I did it because I plan to use them in 40k as well.",few6jpl,Radeisth,54vckegn
"The box comes with 10 tzaangors. I was thinking to do all melee with 1 option for a twist bray. Which is basically a squad leader for them right? And the brayhorn gives +1 advance so im not sure who that would be best to go on. Same with the icon for the marines. Im thinking of putting it on a warpflamer. With kill team being so small i dont think ill ever get a ton of models on the field so of the remaining 9 Tzaangors after making 1 into a twist bray and maybe 8 if i throw the brayhorn on someone who isnt the twist bray. I could do 5 melee and 3 with pistols for when i want to be able to make a roster with guys that have pistol for when it might be a better list for a certain matchup. Or, should i just make them all melee cause there BS sucks and just use them as my cannon fodder and point grabbers anyways.",defnothacking,kbeg9vq,fevou41,"You have to remember that you are limited on points. So 1 aspiring sorc, 1 soulreaper cannon, and an even split of bolt guns and flamers is a pretty good setup. Then make your Tzaangors melee x 7 or 8. You want a Twist Ray and a Horn. You can just follow the blades instructions. Okay the two great blades and mutant as regular blades. They help keep track of specialists. Won't ba able to use Ahriman yet but he's a good model for every other game mode so keep him safe for now. It's a fairly short list of models to buy to graduate to playable in regular 40k if you have a competitive Kill Team list.",fevmm1m,Radeisth,54vckegn
I think you’re confusing all orcs with fel magic corrupted orcs. Orcs before the corruption were very friendly with nature. That’s why they developed shamans. With beating the corruption orc ne alliance kinda makes sense. Also in BC expansion the rexxar race would of been a perfect addition for horde instead. Half orc ogre. Moknathal or something tribe if I recall.,defnothacking,kbeg9vq,f0s236z,"Orcs killed Cenarius, they're brutes that like magic and dark, twisted powers. They destroy forests, they hate nature. They always leave behind a mess where ever they go. They're like trolls but without the redeeming factors like not being into slavery or only being hostile with cause. 

Night elf culture is the exact opposite of orcish culture. Just since they both wear loincloth and live on the same continent doesn't mean they fit together. The other reason you mention that night elves fit the horde is ""since they should forgive orcs for killing their demigod"". Err... 

No, come on. Just no.",f0rz4ay,Knubbsal,dzioy
