child_body,child_screen_name,child_user_id,child_tweet_id,parent_body,parent_tweet_id,parent_screen_name,parent_user_id
"Yea, there is that.",Etherenzi,4d9bak0y,flem3qc,"Pretty sure the person who tied OP up without consent and pressured them into a ""relationship"" is an asshole. Poly is about respect and care, not coercion",flelyhm,isapika,7brw8
r/Subsithoughtifellfor,Etherenzi,4d9bak0y,fldu03o,r/UnexpectedAvengers,fldty4k,Etherenzi,4d9bak0y
r/UnexpectedAvengers,Etherenzi,4d9bak0y,fldty4k,I understood that reference,fldtwiw,Fogggerr,4e3u3hid
I hate so much about the things that you choose to be.,Etherenzi,4d9bak0y,fldtvrp,I hate you,fldtu3w,Fogggerr,4e3u3hid
"Honestly, every time I try to do something fun or exciting, you make it not that way.",Etherenzi,4d9bak0y,fldtphr,Why do you act the way that you do,fldtne6,Fogggerr,4e3u3hid
"Yes, King?",Etherenzi,4d9bak0y,fldterh,Bruh,fldtdbv,Fogggerr,4e3u3hid
Issa joke,Etherenzi,4d9bak0y,flayyic,Dude it’s not that hard to get High honour,flayuc0,hemlo86,mvv97pk
There are other kinds of players?,Etherenzi,4d9bak0y,flaxbw3,Low honour players be like:,flawd1p,hemlo86,mvv97pk
Username checks out,Etherenzi,4d9bak0y,fl2xjsf,this was literally me last night with my window open,fl2xinz,MangledGenitals,5mgy1wsq
To signify emotion used.,Etherenzi,4d9bak0y,fl2p2j4,Why did you type out a stutter,fl2or17,Fogggerr,4e3u3hid
issa joke,Etherenzi,4d9bak0y,fl1d5or,i literally did.. lmao learn how to read,fl1d3x7,SakkSweat,2un1u6r8
Absolutely do not know the credibility of it but I read on this site somewhere that something something sociopaths don't know how to smile so they mirror what they see other people do and that's why all these people look weird.,Etherenzi,4d9bak0y,fl1b4u6,"Why do these people look like fucking robots? Like, their eyes.

Zuckerberg has the same eyes. Lots of other politicians I've noticed. It's like a glazed, blank, 1000 yard stare. Have they seen something? Maybe souls exist, and they don't have them? Seriously though.",fl128gz,Standardly,4c9hc
Speak for yourself,Etherenzi,4d9bak0y,fl1ajsb,aint nobody ever sat they dirty ass on my phone and proceeded to leave shit on it,fl17bjw,SakkSweat,2un1u6r8
I make sure to bury my face in it every chance I get.,Etherenzi,4d9bak0y,fkzh2hr,Such a majestic floof,fkzgwh8,Murdius13,12d8woyg
"Sometimes we just don't get closure and we have to accept that.

I recommend checking out some beliefs of Stoicism because they've helped me through some similar situations.",Etherenzi,4d9bak0y,fkyh23w,"Very insightful and thank you.

I mostly want closure or a reason why. There are so many unanswered questions in life. Why does this get to be one of them?",fkygj7b,DarlazMIRS,16bsqu
"We all want enemies bc we can fight them, blame others, deflect. Sometimes things just don't go together anymore and it's no one's fault and that's when we feel the worst bc we don't have anything to blame the falling outs on. So we turn inward and we begin hating ourselves.

And happy cake day.",Etherenzi,4d9bak0y,fkyftdh,It should be someones fault though. We were so close and it just ended. There should have been a fight or something.,fkyfi43,DarlazMIRS,16bsqu
I use an Xbox one controller. Keyboard and mouse are odd when switching from controller.,Etherenzi,4d9bak0y,fkyctmv,Idk how y'all can play on PC using a freaking keyboard while sitting at a desk. But to each their own.,fkycqt6,GlumCauliflower9,2on7wjo4
"T-thank you, stranger. Is just an amalgamation meant to sound vaguely Italian.",Etherenzi,4d9bak0y,fkyawjc,"Just making sure, I like your username btw",fky97gw,StarriiDreams,4j0u7j6y
"That's a you problem, bud. There are *many* legitimate grievances against Rockstar and this is not one. This is a case of you thinking you're entitled to a *treasure map*, which is usually $100 and some gold - every day past day 28. No, my dude.",Etherenzi,4d9bak0y,fkw6z61,"If I am going to be forced to log in every fucking day to maintain the benefits, then yes.  Yes, I do.  Now that I know it's a one time deal though, I can stop feeling like my hobby is a fucking job just because Rockstar has some ""need"" for me to log into their game every fucking day.",fkw6rui,Vertisce,r0ekb
Uh... You sound massively entitled. You *expect* a treasure map every single day after 28 days?,Etherenzi,4d9bak0y,fkw6mhv,Yes.  It's a shit tactic on their part.  Having to reset the entire thing and start over with another 28 days of making a video game into a job is fucking stupid.,fkw6ivc,Vertisce,r0ekb
Don't stop dancing.,Etherenzi,4d9bak0y,fkvunyl,Just don't fucking dance.,fkvkeis,Qzy,5f6u2
"Okay but wait. Do you, as a human person, not agree that the most logical thing to do during a pandemic is to stay at home away from other people?",Etherenzi,4d9bak0y,fkvbne4,Outside in a pool full of chlorine. Doesn't get much safer than that. All the idiots standing around cheering some security guard that violates her freedom because some idiot politicians think keeping everyone cooped up inside and shutting down businesses is a good idea. Bunch of fools.,fkv9rww,Gurthee,11ajlk
"Yeehaw

*sad cowboy noises*",Etherenzi,4d9bak0y,fkv5fdu,"Yup, this issue has been ""fixed"" 3 times though. 

Nevermind, at least we can look forward to a free double action revolver next week alongside 7 free bullets.",fkv5dcx,kstokes2019,310jx8pd
I just want to be able to hunt for a few hours and come away with more than 2 deers.,Etherenzi,4d9bak0y,fkv59df,"Very true haha, the people with hundreds of hours into the game generally have the same opinion.

I stopped playing for a while, i can't take another infinite loading screen.

The conversations i have had with their support system made me fully lose any bit of faith i had in them, they are incompetent.",fkv562w,kstokes2019,310jx8pd
"Shhhh quiet. If you say anything disparaging about Rockstar, sycophants will come to tell you you're complaining just to complain.",Etherenzi,4d9bak0y,fkv507y,"Yet another thing that was supposedly ""fixed""

I'm sure they are releasing patch notes without doing anything just to try to shut people up",fkv4tmi,kstokes2019,310jx8pd
^ this is correct.,Etherenzi,4d9bak0y,fkuqzhs,Diaper was from other Phillip (H.),fkuquej,MiG31_Foxhound,63o1s
Can confirm.,Etherenzi,4d9bak0y,fksgton,It’s what we do best! 👍🏻,fksdcjs,kilcrath,m3rli7g
You need to exit the game and reload it. Changing sessions doesn't matter in this instance.,Etherenzi,4d9bak0y,fks71bl,It's a crew session and they keep appearing even though I joined new sessions again and again,fks6t44,j-m_h,5n8tvqsq
Did you yada yada over sex? You can't yada yada over sex.,Etherenzi,4d9bak0y,fks4ev4,"Old Reddit story. Guy broke his arms, his mom jerked him off, yada yada.",fks1zx8,PKMNTrainerMark,10y8to
Boom mic operator*,Etherenzi,4d9bak0y,fkryso1,Brian the camera crew guy?,fkryj5g,sisterfister69696967,4kr5rnk3
This is it. This is OPs logic. They feel out of the loop and like they're losing control so they exploded. Please don't use children to stick it to your partner.,Etherenzi,4d9bak0y,fkrypg5,"YTA

Children are not chess pieces.  Your daughter is old enough to go where she pleases",fkrvwlt,justhereforpics1776,5ck1lnyo
Because this is the correct answer.,Etherenzi,4d9bak0y,fkrgpa2,I tried r/relationshipadvice already. Literally no help whatsoever except I was told to just move on,fkrgiwa,DefaultDylan,543amnlj
[Makes you not trust yourself.](https://en.m.wikipedia.org/wiki/Impostor_syndrome),Etherenzi,4d9bak0y,fkr673z,Imposter syndrome?,fkr5lqe,jjfutz,58dpqda8
Ty for the information.,Etherenzi,4d9bak0y,fko2rm3,"Slightly faster shooting and reload, holds 6 vs pump's 5. Pump is more accurate but I only use shotguns when it's close enough for the difference to be irrelevant. And it's still plenty accurate with slugs imo.",fko2pq5,Rectal_Fungi,kqnxc
">Repeating shotgun > pump

Why this decision for you?",Etherenzi,4d9bak0y,fko047r,"Repeating shotgun > pump


Lancaster > Litchfield imo. Better accuracy (faster reticle reduction) is more important to me than damage when aiming for the head.
Haven't used the pistols online, only revolvers. Give the Navy a shot.",fkny72i,Rectal_Fungi,kqnxc
"That's on you and that's fine. All's I'm saying is that I wish I was less combative with my mom when I was younger, wish I did more things to make her life happier / easier.",Etherenzi,4d9bak0y,fknuc0r,I refuse,fknu672,NakotaDark,55mouec7
How would you describe the SO lying about the lingerie bc OP was already shown it previously?,Etherenzi,4d9bak0y,fkm1h4j,"I wouldn't describe anyone's behaviour in this story as ""suspicious"".

EDIT:  🤣😂🤣😂🤣😂🤣😂",fkm1b39,dfghjkjhgfdsaASDFGHJ,131z47
We don't know. We're not OP.,Etherenzi,4d9bak0y,fklzmfy,Suspicious or annoyed?,fklzkgo,randoman99,22p3tw2a
"Holup.

Why a mfer getting fidgety ain't more suspicious than someone reacting to their reaction? Gtfoutta here 😂",Etherenzi,4d9bak0y,fklyaq4,"If that's enough evidence for you, then you have trust issues.",fkly566,dfghjkjhgfdsaASDFGHJ,131z47
">He doesn’t have anything to come clean about

Acting suspicious when your SO looks through your phone is uh. Evidence enough imo",Etherenzi,4d9bak0y,fklx931,He doesn’t have anything to come clean about.  The fact that she’s saying he does is the manipulation.,fklx5l5,randoman99,22p3tw2a
I do not resist; the tummy is fair game.,Etherenzi,4d9bak0y,fkjdbdn,She is the cutest pussy cat! How can you resist scrubbing that tummy?,fkjd9i3,HoneyBugaboo,3ifeqg5y
It's difficult sometimes for me but I've got other factors outside of ADHD that make it so.,Etherenzi,4d9bak0y,fkimc3r,How do you feel empathy effects you? Does it come naturally or do you have to consciously think about how someone else fees,fkim6jv,ThrowawayHelp172,5cs4a05r
I had a lot of fun with the game. I do regret supporting Todd Howard but.,Etherenzi,4d9bak0y,fkfglqk,The real mistake was buying Fallout 76 in the first place.,fkfekoe,lumi_x815,17e1jq
"Agreed. But I don't think Roy was an asshole as much as Pam and Roy just weren't compatible.

Leaving her at the game is pretty bad, though, I'll give y'all that.",Etherenzi,4d9bak0y,fkfe9fm,Two people can be wrong at the same time 🙌,fkf9kmh,Soylent_Hero,80ejb
"> ""Nobody knows better than me""

Clearly she's experienced in the nuances of affairs and marriage. She foreshadowed their relationship issues.

Edit: but I also believe you're wrong on the timeline. The Florida trip happened after Pan and Jim had their fight about whether he likes Kathy or not, didn't it?",Etherenzi,4d9bak0y,fkeu02a,"This was pre any of Pam and Jim's problems.  She specifically calls her friend to say that she is going to try to sleep with Jim and says their marriage isn't good, but she has literally no proof of that.  Her intentions are pretty bad right from the beginning, not to help Jim or Pam, but just to make Jim cheat.  Jim never wanted Pam to cheat.  More than anything, he was getting her out of a terrible relationship. So a random girl trying to sleep with a married man vs. a best friend who has seen a terrible relationship unfold for years? There is a huge difference",fketnd4,Ava-Jeanne,290grl2h
To erase mistakes.,Etherenzi,4d9bak0y,fketddg,"Daaamn, that's a lot! What's the eraser for?",fkeswuu,DangitBobby_022202,5h8pqqs0
"Nah, she doesn't even deserve the garbage bag Bethesda gave out. H*ck em.",Etherenzi,4d9bak0y,fkef7xx,"What he wants to point is that the original bag was garbage and the whole clown party following it. That said I agree, free stuff isn't really the most upsetting thing...",fkeeiqv,Korooo,j9h1g
I don't think it would have. It was an ... Interesting break up. Instead I threw out thousands of dollars of her shit she stored in my SUV.,Etherenzi,4d9bak0y,fke661q,"U should have let the bag with her, it would be more punishing",fke4gnj,JFernandoR99,5hkhlwvd
Tbh I loved playing it with my ex. Post apocalyptic genre was our jam and I was a cowboy in power armor so that's all I cared about lol. But remove the social aspect from it and factor in the *endless game breaking bugs* and it definitely lost its novelty quickly.,Etherenzi,4d9bak0y,fke5za7,"We got 76 and played it together. Didn’t make that dumpster fire any better, sadly.",fke4hmg,Ticklemykelmo,r33oamm
"I agree, Roy wasn't an asshole.",Etherenzi,4d9bak0y,fkdua0u,Roy aint an asshole,fkdqyl7,_tonystank_,2lvvirsk
*Shhh*,Etherenzi,4d9bak0y,fkdu7gh,Except when a new building is built nearby and they go for an update run,fkdqc8w,Orsina1,4tf61l82
*She'd be a six in New York but she's a seven in Scranton.*,Etherenzi,4d9bak0y,fkdoc4m,I don’t even live in Scranton and she’s fine as fuck,fkd0kdh,_Wado3000,dayvg
"Yes, but don't lay blame solely on the people. The media does it's fair share in misinformating the voters into being apathetic.",Etherenzi,4d9bak0y,fkdo3hk,"As depressing as /r/conservative is, what's more depressing is that those people are not responsible for Biden's lead.

Voter apathy and ignorance is what's killing us. People care more about Instagram and reality TV than they do about voting.",fkdn41c,Jeremiah_Johansson,5isf2ejt
">Roy being an asshole to Pam

He ain't the one who cheated 🙃",Etherenzi,4d9bak0y,fkdnrmi,"Exactly Jim & Pam we’re married. Marriage is very sacred. Not only were they married but they have kids. Pam & Roy we’re engaged, no kids & no attachments to each other. That’s why it was so easy for Pam to leave on top of Roy being an asshole to Pam.",fkdm4y0,jasmine7098,4ut6zrcf
">She said the marriage wasn’t good

We don't know what she knew or didn't know. If she said it, it's clear the writers were conveying to the audience that she did know they were having issues.",Etherenzi,4d9bak0y,fkdl9x2,"I think the issue is that Jim knew Pam was unhappy and that Roy was clearly treating her like shit, while Cathy was just messing up a happy marriage. She said the marriage wasn’t good, but she had no proof of that",fkdjpkn,Ava-Jeanne,290grl2h
"This, honestly. Have you or a friend call in anonymous tip with his address. I've done it before for a friend's neighbor that kept their dogs outside (iirc during hurricanes).",Etherenzi,4d9bak0y,fkdku2e,Ya. Report him to the SPCA.,fkdkc01,NewHere1212,hismdq
"Yea, middle school is too young. Definitely sit her down and explain, super chill and calmly, that it is a detriment to brain development until her 20s.",Etherenzi,4d9bak0y,fkdk5rr,"the problem is she’s just started at a new private middle school, and she had been talking about being stressed but i didn’t realize how she was smoking.",fkdhmr7,nichasbigdick,5lgpwbt4
"Been on Adderall for a few months. Before that was Adzenys a bit, before that Adderall, before that Strattera.",Etherenzi,4d9bak0y,fkd7x1i,What do you take? How long have you been on them?,fkcbg04,PlsFuckOffThankyou,4yi3r5rs
nice,Etherenzi,4d9bak0y,fkc1rbk,nice,fkc1ohs,iAmH3r3ToH3lp,1ik0gg82
To be fair this is my first pass so I have no frame of reference. If this was a bad pass then there's nowhere to go but up and now I'm excited! Lol,Etherenzi,4d9bak0y,fkbtktt,"Patriotism aside (Though you're right, that is a sweet poncho)",fkbrxzd,blitz450,3ru6xj98
Actually it is because language is dynamic 🙃,Etherenzi,4d9bak0y,fkbp5g2,Not how it works buddy,fkbp0s4,Ailyana,jrjvx
"Yup. I'm a fan of irony.

[You can Google this yourself so you find a source you trust.](https://www.google.com/amp/s/www.spiked-online.com/2019/11/13/the-real-meaning-of-ok-boomer/amp/)",Etherenzi,4d9bak0y,fkbos5g,"Oh, and I thought you said goodbye? You’re back!",fkbooyz,36045777123808,5kzzlvhh
"No, I just don't see the point in humoring a throwaway account who makes such a poor straw man argument like that. Generally when people say what you say they will not listen so.",Etherenzi,4d9bak0y,fkbojit,"Nice, you lose the argument, so you just leave.",fkbo69p,36045777123808,5kzzlvhh
"Uh... Okay, you're willfully ignorant. Goodbye.",Etherenzi,4d9bak0y,fkbnou1,"Riiight...just like “I identify as black, therefore I’m black” 🙄",fkbngf8,36045777123808,5kzzlvhh
"Tbh Boomer is a state of mind now, not just the age group.",Etherenzi,4d9bak0y,fkbjdtn,Yta- not only for calling her that but not even knowing what a boomer is. A boomer is your parents. Your sister is millennial.,fkbh2dj,Ailyana,jrjvx
"Yeah, sounds like shitty Rockstar bugs. Sorry :(",Etherenzi,4d9bak0y,fkba289,"No, I looked all over the map and the only thing that had markers were the towns and my camp, nothing else was marked.",fkb9qyw,jedjames92,8d01phs
This. She's gaslighting you meaning she has no qualms about ramping it up. OP should definitely reconsider their relationship if that's how she treats him. NTA.,Etherenzi,4d9bak0y,fkb539h,"NTA - She is gaslighting you and honestly you should reconsider your relationship with her.   No good partner would force their SO to hurt themselves in any way/shape/form be it physical, financial, or educational, for selfish reasons.",fkb4c8i,Saywihee,d36609m
Thank you for the info!,Etherenzi,4d9bak0y,fkb21r0,"**66,650 chips** for all 54 cards, i.e. **$66,650** once you trade them in.",fkb20mi,GrunzJr,169e0v
And then I get off work. Please happen at the open!,Etherenzi,4d9bak0y,fkaah17,20% and they shut it down for the day,fk9nekf,Asconce,360gnmjg
"Has little to do with strong will.

If she cared about the cat she wouldn't have put it in that situation. The cat is a pawn to the mother, manipulators will use whatever they can.",Etherenzi,4d9bak0y,fka465f,thinking you're not strong-willed enough to say no to someone doesn't is not an excuse to give their cat to the humane society without that person's consent.,fka3u0p,disregardable,afek0ps
Do you not have experience with manipulators?,Etherenzi,4d9bak0y,fka3qmi,"what exactly do you think she can do to ""push her boundaries""?

You hand the cat to her, tell her she and the cat aren't welcome, and shut the door.",fka3odp,disregardable,afek0ps
You know for a fact that the mother won't try to get her way and push boundaries even though she's displayed doing so already?,Etherenzi,4d9bak0y,fka3lt3,"A: she won't, she's not retarded, so turning in the cat is just being spiteful

B: in that case the correct thing to do is consult local law, not give away property which isn't yours.",fka35x0,disregardable,afek0ps
And when she doesn't listen and refuses to remove the cat?,Etherenzi,4d9bak0y,fka32sy,"sure, but it's not his cat.

the correct thing to do is to tell her to get the cat off the property, not turn it into a shelter as if he has the authority to do so.",fka2y17,disregardable,afek0ps
Guesssss I'm saving up for a second LeMat lol,Etherenzi,4d9bak0y,fk9xd78,"Meet in the middle, duel lemats!",fk9wx2v,WestDawg85,3d6z7cf2
"Navy in main hand sawed off in offhand as a plan B, B for boom?",Etherenzi,4d9bak0y,fk9vilx,I go with one of each...it's been working for me for about a month.,fk9t9gx,Chuckalphageous,4kuwdczh
How-doo partner.,Etherenzi,4d9bak0y,fk9vg2a,"*waves hands aggressively!* 

**HERE**",fk9t8h5,Zebra-Tux,4yxwizln
I do love the LeMat. Hella versatility is very appealing.,Etherenzi,4d9bak0y,fk9smod,"I like the LeMats, but dual Navy revolvers work well also, especially for seeking headshots.  LeMats are great for laying down a ton of raw firepower.",fk9rwtf,Whaaazzuuuup,15c8xw
12 shots vs 4 shots is super off-putting to me. I'm not great with ammo management lol,Etherenzi,4d9bak0y,fk9sjan,"I think range would be the only issue, that's the reason I went with the dual navy's.",fk9rrcw,crawls84,l4daz1z
Ty but I got it 2 months ago :P,Etherenzi,4d9bak0y,fk90vcz,"No need to recheck waypoint. They aren't spawned, checked the spot for the hand and machete on multiple videos with nothing.",fk90rlc,kabobles,ldo9gq3
"2 months is def long enough. It's he generally accepted rule of the internet that one month is an acceptable time frame to post spoilers. NTA.

What show?",Etherenzi,4d9bak0y,fk8ywpx,Last episode hs been out for 2 weeks. The episode I'm talking about has been out for 2 months,fk8yshh,TDIfan241,89e8m
Local government is literally the most important form of government.,Etherenzi,4d9bak0y,fk8h2p6,I wouldnt say I'm important its local government shit no one who doesnt pay attention to that isnt going to know who tf my parents are.,fk8gkgu,amiriggt,5ozqgvhi
"Oh hella, I'm PC. I'll have to do that when I get home. Thank you for the tip, FC!",Etherenzi,4d9bak0y,fk8dlrm,"Yep.  Go to your controller settings and set aim lock to ""free aim"".  You'll get put into a session where everyone has same settings\*.  Not sure if it works that way on console...  Anyhow, look up jutchcassidy.  All I do is flat cap.

&#x200B;

\*Modders can cheat unfortunately",fk8d38t,JCMillner,pz4mydt
Are there actually free aim lobbies? I'd love to get in on that.,Etherenzi,4d9bak0y,fk8crms,pc free aim,fk8cg4w,JCMillner,pz4mydt
^,Etherenzi,4d9bak0y,fk834uq,"NTA. She’s angry at her cheating husband but it’s easier to take it out on you. You were smart to have kept the messages anonymous, both her and her husband sound like the crazy type who will track you down for revenge.",fk81rja,sour_lemons,7f3s4
"I've literally never watched a rd or gta YouTube video. I'm sorry that you're unable to comprehend how someone can come to the conclusion that a TRIPLE A STUDIO SHOULD DO BETTER.

✌️

Edit: I take that back. I watched a 50 second video once showcasing where the treasure chests were in one location.",Etherenzi,4d9bak0y,fk7vl9o,"Lol... with a response like that after what i've said. I'm guessing you're done trying to have a conversation. You're too lost in YouTube land man. Wake up.

Take care bud.",fk7vgnf,Flight96,g56en
"hIgH qUaLiTy

Yea, that's why everyone's been getting kicked from servers constantly 😂",Etherenzi,4d9bak0y,fk7uz1d,"You literally sound like a copy paste political talking point from some youtuber who makes a meager living off badmouthing video games...

Listen, you can criticize all you want, i don't mind. But don't try to run with a BS narrative that one of the most expensive, high quality game titles thats ever been created has just been dropped, spit on and forgotten about 'CuZ GTAO is BETTUr'. Its just not true dude. You know it as a gamer just like the rest of us here know it.

I complain about shit too lol..i'm NOT the one to ever tell gamers to stop complaining. We're the reason any of this shit ever gets better. Because of complaining. So no, i'm not gonna go after you about that.",fk7u4qz,Flight96,g56en
"Absolutely. If there aren't more players in RDO spending more money than those in GTAO, they're not going to give a shit about RDO.",Etherenzi,4d9bak0y,fk7ustp,"I agree with you. That being said, GTAO will always make more money than RDO its just a fact. No amount of content or bug fixing is going to magically reverse monetary intake for RDO. Companies dont look at player loyalty numbers or social postings, they look at the bottom line and thats cold , hard cash. Any person would do the same. If you are selling products A and B and see that product A is bringing in steady revenue ( putting bread on your table ) vs product B that has very slow sales, you are going to pay more attention to your stock of product A.",fk7uf9s,mperezstoney,kdme6
"Okay.

How about a AAA studio acts like it and releases a game without bugs? Because sycophants like you don't hold them responsible for their *literally* game breaking bugs. It's not a sin to criticize something you enjoy, holy fuck, get that through y'all's heads. You dismiss every single valid complaint because you're... Saving face? Sucking cock? Idno, whatever you're doing with Rockstar. Get tf off your praise horse and act like a rational consumer.

I'm just so sick of people saying ""no, you're just complaining"" when there's a valid reason to complain. Jfc.",Etherenzi,4d9bak0y,fk7tlrk,Lol what a hilarious comparison to make considering the difference in how long each game has been around. How about you run your master stat check again after RDO has actually had even half the time GTAO has had in development.,fk7ta3u,Flight96,g56en
I admire your optimism but I think it's misplaced.,Etherenzi,4d9bak0y,fk7ssnv,RDO is still in it's early stages. But it'll get there once the bugs are patched and content for online is more ample.,fk7spsk,HorsingAround90,1c7zja19
A personal opinion that's backed up by the stats of RDO vs GTAO.,Etherenzi,4d9bak0y,fk7sl9l,Personal opinion.,fk7s80w,HorsingAround90,1c7zja19
I agree but *a lot* of people play gtao so they can drive their irl cars around.,Etherenzi,4d9bak0y,fk7sit3,Horses>cars,fk7sg35,HorsingAround90,1c7zja19
">This game is going to grow into something bigger just as GTA V online.

I'm sorry but no. The genre doesn't lend to that type of growth. Way more people are interested in modern and cars bc it's easier for them to self insert. I'm sure we've more or less reached peak player numbers for online.",Etherenzi,4d9bak0y,fk7s5hc,The game seems still very much alive to me. We are probably on the precipice of a new update with content.  And Rockstar just released multiple patches trying to fix errors. This game is going to grow into something bigger just as GTA V online. I just hope it's not outlandish. I hate GTA O for adding flying motorbikes with rockets attached. Griefers city...,fk7rv72,HorsingAround90,1c7zja19
Don't be pressured to vote party lines. You need to vote in alignment with what your ideals are.,Etherenzi,4d9bak0y,fk7k2vb,Just once in my lifetime I'd love to vote for someone I like as opposed to voting against someone I hate,fk608yl,ZenMonkey47,7ufgd
"If I can ask, why does she have the right to abuse him over not doing what she wants? Where does body autonomy come into play?",Etherenzi,4d9bak0y,fk7a23s,"YTA because it hurts! It scratches and scrapes the skin. How long would it take to shave? Seriously, it hurts.",fk6lqep,cautiousoptimzm,szbm3ms
Yuuuup.,Etherenzi,4d9bak0y,fk6ni23,"NTA, not by a long shot. Boy these comments disgust me but I’m not really sure I’m surprised. It’s yet again indicative of the fact that a set of rules that this sub lives by (your body your choice and all that bulljive) only applies to one portion of the population but anyways I digress. 

> its only hair its no big deal

You’re absolutely correct, it’s not a big deal. Surely if she reeeeally cared about you and supporting you through this tough time of yours then it wouldn’t be a problem whatsoever.

> She didn’t even respond to that but she says that it doesn’t take much to make her happy, and the fact that I won’t do this simple thing for her means that I don’t care for her happiness

She’s gaslighting you, my dude.",fk6m6hm,the___wzrd,50kmqa1w
"You're willfully ignorant, then. Goodbye.",Etherenzi,4d9bak0y,fk652yl,the kind of person that won’t spit and cough on me? I’m all for people like them,fk63qmk,knocks9,ypdlz
"Yea, tbh if someone yelled *around* me as a toddler, I'd get upset. Just because it's not directed at them, they could still be very frightened.",Etherenzi,4d9bak0y,fk5tirm,"It has nothing to do with being bad or taboo or causing the kid to be bad. It further frightens the child and teaches it is okay to fly off the handle. News flash, it’s not and no one responds positively when you do it.",fk5s3wy,arbio,9jhuqp2
Ty!,Etherenzi,4d9bak0y,fk5o026,"Shooting it more than once, regardless of ammo, will still decrease its rating. I don’t think you can lasso a dying animal, only full dead.",fk5nw34,Migs5000,xe9d0
Shows what kind of person you are. I feel sorry for you.,Etherenzi,4d9bak0y,fk5k29y,"Let me clarify the counter-point.

This pig is treating her fellow man with more disregard than most people show towards animals. I think this is worse than a significant portion of actual murders. It's a crime against **the species**

(Aka ""all of us."")


I'm against death penalty in 99% of cases. In one like this, I think her head should be displayed in public as warning to others.

Too far? Maybe don't endanger your entire species intentionally, and you'll be looked at better than vermin.",fk5jg6n,willreignsomnipotent,9fhrz
"No, but the joint in the parking lot was those two workers'.",Etherenzi,4d9bak0y,fk5ff5h,Is testing positive for caprese salad a firable offense?,fk5cxyw,greatwalrus,b9x9r
"I logged in and before the game loaded I got the ""an error in Rockstars side"" disconnect screen.

Hooooly shit, fucking fix your games, man :/",Etherenzi,4d9bak0y,fk5bp87,">Rockstar is saying they're fixing things

FTFY. I'll believe it when I experience these fixes.",fk4xl13,Etherenzi,4d9bak0y
