child_body,child_screen_name,child_user_id,child_tweet_id,parent_body,parent_tweet_id,parent_screen_name,parent_user_id
"This applies at all times, but you gotta be an extra big piece of shit right now. Sorry, Karen. My manager doesn’t know when we are getting the crackers Caleb likes.",golden_rhino,aj7fs,fl5e61d,"If you are rude to retail/service industry workers, you are the lowest low scum.",fl58swb,Zet_x,c0qrn
"I dunno if they need to be held accountable or not because no big decision can’t be made easily, but we can’t say that we didn’t know what was coming. We had a six-eight week preview from other parts of the world and did nothing except tell people to wash their hands and don’t wear a mask. 

I think that they have been reactive because nobody gets mad about that. If they were proactive, we would have minimized infections, and then had a bunch of dummies saying, “See. It wasn’t a big deal. What a waste of money.”",golden_rhino,aj7fs,fl5cvb3,"I don't think they've failed us, they were later than I would have preferred, but nobody understood just how bad this was for a good while. It's a bit lame to make political hay over an unprecedented disaster. I can't find calls from any CPC or NDP ministers for drastic measures in January or February. Nobody knows much about the situation even now.",fl59fzv,-now-or-never-,43mf6fw6
"I don’t know if it was a publicity stunt per se, but these are people who thrive on attention. Self isolation is probably messing with their mental health. I know. Boo hoo for the poor rich people, but I believe they are struggling in their own way. 

Having said that, part of me thinks god forbid you not be the centre of attention for five fucking minutes.",golden_rhino,aj7fs,fl4hk9w,"I happen to agree with you largely, but here's my best effort to CYV (and, in a way, my own).

I see nothing that makes me think this wasn't done purely out of the goodness of their hearts. I know some people claim it was a publicity stunt, but absent any real evidence of that I prefer to give people the benefit of the doubt. So, for me, they meant well. They intended to help people in whatever way they could.

Given that motivation, I don't think anyone should just STFU. Moreover, I think the positive intentions cancel out any feelings of them being out of touch. 

Plus, what HARM could it do? Are people going to go out and form large groups because of this? No, in fact, it might get a few people to stay in for a while to emulate their heroes.

So, given good intentions, and given no harm, and given possible GOOD, I think giving them a pass for being tone-deaf (in multiple ways!) is probably the right thing to do, and certainly them just shutting up isn't the right thing to say.",fl406dm,fzammetti,6q4oi
"It was nothing earth shattering. We could have figured it out ourselves by googling it. The doctors all seem to either have missed it, or didn’t think it was worthy of testing. 

I’m not advocating for the naturopath industry. I think it is mostly quackery. We decided to see one because if nothing else, this was a person who has dealt with thousands of people like us, so they may have had an idea we hadn’t thought of.",golden_rhino,aj7fs,fl44xxn,I am curious to know what the abnormal blood test was.....,fl44l48,nonsensicalcriticism,5vjl3wke
It’s shit like this that made me force my students to say “ahoy” when I take attendance.,golden_rhino,aj7fs,fl37lqz,"I'm that kid who said ""absent"" instead of ""here"".",fl133za,killing0strike,blc3vny
Gonna be a lot of healthcare workers with PTSD when this is done. I hope they get taken care of properly.,golden_rhino,aj7fs,fl36uok,"Not really a surprise all things considered. They are over worked, undermanned, their ICU beds and ventilators are used up, and they are at the point where they have to let people die based on who can survive and what age they are at. 

Do not be surprised if these numbers keep growing. Horrible situation but this is their reality now and it could be ours if we dont take social distancing seriously and stop going out en masse.

Europe is heading towards this, America is as well and seeing all those idiots on Spring break pretty much made it certain it will. 

Regions like Africa, South and Central America worry me the most. They dont have the funding, personnel, nor the resources to fight off the virus for long. Once the hospitals in these regions start being overwhelmed I wouldnt be surprised of the bodies start piling up. This will happen in April.",fl1bh1o,imperator89,14iksv
"My wife went to a naturopath who specializes in fertility when she was having trouble getting pregnant. We both though it was semi quackery, but figured it couldn’t hurt to get the opinion of someone whose worked with thousands of people having the same troubles. 

She did bloodwork on my wife, and found an issue that four different doctors did not find. When we brought it to our doctor, who we considered the final authority on all things medical, he agreed with what the naturopath found. 

I always thought they were all hucksters, and maybe it was just a case of a blind squirrel finding a nut, but I have upgraded naturopaths from quacks to maybe helpful in certain contexts.",golden_rhino,aj7fs,fl35bsp,"> I think it's because the scope of actual evidence-based solutions the profession can offer is slim

And, anything they can offer that is evidence  based can also be offered by an actual doctor.

They are a niche that has been carved out for people with an instinctive distrust of the medical system, and unfortunately many naturopaths abuse that by charging these folks a ton of money for mostly rubbish.

I have no doubt that many people enjoy the experience - having an unbusy and privately paid ""doctor"" who'll indulge your complaints to the fullest can be attractive in a busy healthcare system, but it's not an excuse to allow charlatans to continue to practice with the title ""doctor""",fl2i9k1,CaptainCanuck93,1vi5k67
"I always went into job interviews hoping to get a job, and not to make myself look like a squeaky wheel. If you are highly skilled and specialized, sure, ask away. People applying for call centre work don’t have such luxuries.",golden_rhino,aj7fs,fl1v83e,"Somebody made a comment a few days back about how if they are ever in a job interview for any position in the future, they'll always ask ""how did your company respond to the covid pandemic?"" It's the perfect question because it gets to the heart of whether or not the company actually values its employees, and if they're willing to risk your health/safety to make a quick buck.",fl0u873,Duncanconstruction,6kqxk
"I also have no resources at home. Shit, I left my laptop at school.",golden_rhino,aj7fs,fl1miwy,Except they have not spoken or consulted with teachers at all.,fl1dm0c,Bendthenbreak,5bdoifcf
"Gotcha. Good luck to you. I’m a former fabricator, and I know how tough your job is at the best of times. Hope you stay safe.",golden_rhino,aj7fs,fl1gkjd,We build mainly for new construction and products take many years to wear out anything that’s needs to be in place for the service chain is already in use,fl1c8cf,Barnicalboy1,hg425n7
That’s still two weeks times four courses. It’s a two month commitment in an accelerated environment. I’ve taught those courses. The kids are burned out after one.,golden_rhino,aj7fs,fl1ghgt,"As I mentioned, there is already a credit recovery system set up that could let them catch up at a later date. It's only really critical for grade 12 students that are hoping to enter post-secondary for the fall.",fl1dl6q,northernontario1,4ldzpxud
"Elementary isn’t that big a problem. Devote September to a catch up from the previous grade, and then start the new grade curriculum in October. 

I don’t know what the hell to do about second semester credits in high school though. Do you just give everyone a credit? Do you offer online courses? Does the infrastructure even exist for that?",golden_rhino,aj7fs,fl1c0p9,"Here is a solution that I think would work in the event that the school year is lost:

**Elementary:** Provide learning materials and encourage parents to utilize them. Advance students to the next grade in the fall and support teachers in helping to fill in any gaps (possibly through adding extra teachers, making sure that class sizes remain small). They'll catch up quickly

**9-11:** Don't worry too much about it. Offer a ""credit recovery"" type program for the credits that students were in where they have the opportunity to earn .5 credit through completing outstanding credit expectations. Most students will still be on track to graduate even in spite of this. They can choose to catch up through night school/summer school or even by sticking around for grade 13 as many students already do.

**Grade 12 potential grads:** Offer online learning through their home schools based on individual needs in order to ensure that their graduation requirements are met. They can continue in courses that they have already been in or start new ones. Home schools will provide technology support including home internet connectivity if they do not currently have access. 

Bam, problems solved.",fl1812q,northernontario1,4ldzpxud
"The good students will do it, struggling students will not, which will put them even further behind come September.",golden_rhino,aj7fs,fl1bpei,"Yes, pay is for the 194 days of work. That still leaves 12 weeks of the school year left after these next two weeks. It just sounds like their plan is to add more to the website they've provided to parents and students, as opposed to having educators continue with their class through online learning. I'm hoping for the latter and I'm sure parents would be as well. I don't see much buy in from students in my class being told to just go to this website and do some stuff that they see fit. More will feel like the work is valuable and feel like they actually have to do it if it's coming from me and continuing what we've been doing in class, even if they're not physically in class.",fl1bfab,Billybobby2087,55nldkfd
The whole reduced store hours thing has less to do with keeping people safe and more to do with saving money.,golden_rhino,aj7fs,fl1bj7z,"Staples. 

At the beginning of the year they changed how associate sick time worked. It used to be that your sick days would carry over into the new year but they have changed it to sick time resets and has to be earned throughout the year. Salaried managers start the year with 8 days. Associates start with 0 and have not accrued enough this year. Many associates are forced to come in while sick or have no pay. 

They have also reduced store hours and effectively gotten rid of a lot of part timer shifts to cater to full time employees, and have not offered any compensation to these part timers. 

To top it off we are still being told to push warranties and services on all customers and are being held accountable for our measurables.",fl1azwo,BootlegST,72cgb
"I know you are putting yourself at risk, but that sounds pretty important for the service chain. It sucks that your coworkers are idiots though.",golden_rhino,aj7fs,fl1bf11,It’s a company the public doesn’t deal with but NORDOCK a large welding shop in Bowmanville we make loading dock of transport trucks “ everything as normal” and most of the people here are talking this VERY lightly,fl17jvi,Barnicalboy1,hg425n7
For now.,golden_rhino,aj7fs,fkzth5t,Full-time teachers are still being paid full-time wages at least but I can't say the same for substitute teachers and university professors,fkyxo48,hopeisagoodthing,8rxtj
"I have 4-6 weeks of everything my family could possibly need. It’s more than enough, but I feel so helpless. The more I have, the safer I feel I am keeping my family.",golden_rhino,aj7fs,fkyi1kn,"Honestly there ain't nothing wrong with having a bit extra. I live in a small condo so not a lot of room, but I have like 6 cans of chick peas/beans. People would make fun of me but look who is laughing now. Each of those cans is dinner for a week (with rice and spices).",fkyejqy,justhangingout111,44vmaqkd
I’m down for people having a little skin in the game. 5-10% would be a reasonable compromise.,golden_rhino,aj7fs,fkxz047,I've heard so many people complain that we shouldn't do it because they already paid their loans and it's not fair,fkxjclv,mattreyu,c2tuf
"Elizabeth May seems nice. I wouldn’t let her run my company picnic, but she seems nice.",golden_rhino,aj7fs,fkxs0f8,Is there any party leader that isn't a douchey blowhard?,fkvwbk2,sadacal,b7otb
The extroverts will kill us all!,golden_rhino,aj7fs,fkxjdog,"I'm sorry but I don't have sympathy for anyone whining about social distancing. It sucks yes, but it's necessary to prevent the thousands of trips to ICUs that don't exist. 

The MOH is right.",fkw2xvy,squirrelduke,260u2jhw
Is this comment too extrovert for me to understand?,golden_rhino,aj7fs,fkxh99p,Seriously. We can't even invite friends over for coffee anymore? We're just supposed to be literally by ourselves for the next eight weeks? It's not gonna happen.,fkwg3l9,Onesharpman,p3675
"I bought some stuff we don’t particularly like, but the shelves were picked clean and I wanted to have a decent supply in case we got sick. I hope I won’t need to use it and be able to pass it on to a food bank.",golden_rhino,aj7fs,fkw1a76,What about donating it instead?,fku2i8o,TheIpcTa,ekb8i
"Policy, homey.",golden_rhino,aj7fs,fkvq7wi,Fair answer. On which aspect will you base your vote?,fkvpym5,DocJawbone,62c72
"I generally find most people to be nice. Shit, I even thought that when I worked retail.",golden_rhino,aj7fs,fkvq2rv,"You know the saying right? 

If you run into an asshole in the morning, you ran into an asshole. If you run into assholes all day, you're the asshole.",fkvpyxn,kushari,3both
Quicker than humans according to the movie Elf.,golden_rhino,aj7fs,fkuxnpr,Are ~~elves~~ elfs known to be quick?,fkuwthz,David-Puddy,avczm
"I have a few quibbles with the job he’s done as PM, but overall, I am happy with his performance.",golden_rhino,aj7fs,fkuxm3r,To be frank I'm of the mindset that a political purging is necessary in many Western nations; Canada included. Rather than having individuals who only have self-interest in mind we'd have patriots in service to their nation. This unfortunately is not realistic; so Trudeau while having a privileged upbringing like many politicians is far from the best; he's still decent especially considering our present alternatives. I live in extremist Alberta and am presently watching the UCP drive the province into the ground while the Liberal party is actively trying to repair the damaged oil economy despite the plethora of far fight bigots I see on a day to day basis treating him like the anti-christ.,fkuwuvt,Artorius_Princeps,5lzzf6za
"I was kidding around. Honestly, I think he’s a blowhard because he has a shit eating grin after he gives one of his glib virtue signalling non answers to a question. 
I think he’s a douchebag because he acts like many of the privileged people I’ve encountered in my life. To be fair, he shares this trait with most politicians, except maybe Andrea Horvath.",golden_rhino,aj7fs,fkuvkfa,Sigh; so your basis for disliking someone is you not liking the way they look.,fkuv2rj,Artorius_Princeps,5lzzf6za
There’s no real metric. It could just be that he was cursed with resting smug face.,golden_rhino,aj7fs,fkuocsh,"Uh, how do you think Trudeau is a douchey blowhard? Moreso than any other politician at least.",fkuo0cf,Artorius_Princeps,5lzzf6za
"I’ve found used syringes in bottles, roaches in boxes, and my favourite, an active wasp nest in a case of empties.",golden_rhino,aj7fs,fkunru8,"It will make a difference for the employees of the beerstore. Return bottles have been in peoples mouths. They're gross at the best of times, let alone now.",fku7h2u,outtastudy,iz5l8
"That’s a great way of putting it. I don’t think he’s a bad person. I feel the same way about Cristiano Ronaldo. He seems douchey af, but from what I understand, he is a kind and caring person who does tons of charity work.",golden_rhino,aj7fs,fkuh00z,He just looks fake.  His whole life has been a photo-op.  I get the impression that he’s good person who would have benefited from having worked aT Loblaw’s/McDonald’s in high school,fkugplv,frenCHcanadianZorro,3ryzthfg
His ornery nature makes him quick as an elf.,golden_rhino,aj7fs,fkugi9g,"> pharmacist is an asshole, but he’s good at his job.

Honestly, how it takes pharmacists 20 minutes to grab a box of birth control off the shelf is entirely beyond me.",fkugabi,_somethingsgonewrong,1u74ho87
"I think I’m allowed to dislike him and think he’s doing a good job. 

I think he is a fine PM, but I also think he’s a douchey blowhard. 

I also think my pharmacist is an asshole, but he’s good at his job.",golden_rhino,aj7fs,fkuf6ix,"You have to realize, for a lot of people it's totally personal with Trudeau. Actual policies don't really matter.",fku7v9z,KingRabbit_,2c26gkk1
"You yell flu, people look around, huh? What? But you yell COVID....",golden_rhino,aj7fs,fkszn33,Y’all remember the mayor from Jaws?,fksf0u3,P44Haynes,2bdu5yib
I’d like to welcome y’all to the Eminem show.,golden_rhino,aj7fs,fksz1yl,I'd probably kill them both lol,fksb6ye,bagingospringo,3d865l51
"Man, I loved working in a warehouse. If it paid better, I would have made it a career.",golden_rhino,aj7fs,fksq9i2,"I wish there was a way to send them a case of beer or something.

People like to look down at warehouse jobs but we can now see how important it is to our daily lives.",fkoo8hb,Laxxium,4c9bj
"I have a six week supply of everything I need. I’m pretty sure stores will have stuff eventually, but it’s not pretty right now. Also, I want to leave home as little as possible for the next little while.",golden_rhino,aj7fs,fks31rf,"I am so sad that we have gotten to this point.....People that are raiding the shelves need to have a good long look at themselves.  There is NO food shortages, no toilet paper shortage and yet idiots are hording like it's the apocalypse.   It's events like this that remind me just how fucked we are if shit ever really hits the fan, because people are greedy and only think of themselves.  To be clear, I know everyone isn't like this, but clearly enough are.  All of the stores in my city that I have been to look like a war-zone.",fkqz0zp,MogRules,4uubx
"My Uber guy apologized for wearing a mask. Apparently, some people had words for him. 

Jesus, dude, don’t apologize for doing me the honour of allowing me to stay home and enjoy some food.",golden_rhino,aj7fs,fkrvbt4,"Im a pharmacist who had multiple patients get upset with me wearing a fitted N95. I get it, seeing me is making them confront the reality that this problem can no longer be ignored, but when are they gonna start realizing that themselves? It's exhausting enough to argue with every other moron about how it isn't a problem. I almost wish 15 days from now came sooner, sure there will be 3000 dead people, but atleast I won't have to deal with idiots talking out of their ass when they can't avoid this anymore.",fkpmof0,saphris350,4qolbrza
"They could keep a skeleton crew to deal with technical issues only. Customer service can wait. 

This would lead to less people being at work, and allow those who are there to sit far from each other. As it is, they are pretty much shoulder to shoulder, unless the Creekbank call centre had a major redesign in the last 15 years.",golden_rhino,aj7fs,fkruzda,"Do you want your internet, tv and mobiles to all be out of service in these times?",fkqsa3m,B46iDX2s7vo9FJ9,29sefh9i
"I mean, I could use some right now. Went to five places today. No dice.",golden_rhino,aj7fs,fkruefv,What the fuck is it with people and toilet paper? It's like this is a highly organized troll.,fkr111b,someconstant,47t9lqz
"Cans really sucked, but we didn’t get too many, and I refused to count them. I’d ask the customer how many, and if it sounded reasonable, I’d take their word for it.",golden_rhino,aj7fs,fkppxd2,"For me it was the cans. Being handed a garbage bag of wet cans, that has the backwash of a hundred different people swirling together in a puddle at the bottom, plus soggy cigarette butts and whatever other garbage was piled on top of the cans before they were fished out of the trash.

I worked for 5 years and ended up with a pretty thick skin for grossness.",fkppqur,BearlyBear,acdng
"I loved working at the Beer Store when we only took beer empties. Once we started taking liquor and wine bottles, it became hell on earth. 

The noise, the smell, and worst of all, suddenly there were a bunch of Karens in the store, and they had opinions.",golden_rhino,aj7fs,fkpoz9x,"They are. And before this was ever a thing its been mandatory for all staff handling empties in the back to wear gloves, eye protection, and ear protection. But when you are dumping the small bin full of cans into the big that goes on the truck, and that spill back runs down your arm... glad I got a new job awhile back",fkpc7ab,BearlyBear,acdng
She will be fine. Dumb blowhard are the way they are because they’ve had such an incredible run of luck that none of their stupid decisions have ever bitten them in the ass.,golden_rhino,aj7fs,fkpnu8z,"Lmao I know someone who just took a trip to the Caribbean a couple days ago. She keeps showing off pictures of her trip on her Instagram story and keeps saying that people are overreacting.  

She literally looks so stupid right now.",fko8kck,FeelThisMoment,dvl0v
I thought that yesterday. He may just have a cold though. They still exist.,golden_rhino,aj7fs,fko67al,Anyone else think he sounds sick?,fko5ks4,ThrillHo3340,csa6a
I’m assuming he’s doing important prime minister shit. I’ll be pissed if he comes out wearing a lobster bib.,golden_rhino,aj7fs,fko4wnw,"so when you don't want people to panic, the last thing you do is leave them hanging for an extended period of time....

what else is there to do but to sit and speculate about everything and get more amped up. how many of you are sitting here searching random stuff about the virus and reading other related articles.

this is how you stoke fear not calm it.",fko4hq7,Nogrim6,6h30iqw
"He forgot, and will be all awkward when he goes out to grab the paper.",golden_rhino,aj7fs,fko4rmk,The podium is literally right in front of his doorstep.,fko4o32,CoffeeBeanK9,5i72q2je
His job is likely a little more complicated than all of ours.,golden_rhino,aj7fs,fko451j,imagine if you came in 22 minutes late to work,fko3rjw,pretend2,hnmmxx3
"I would have taken the last two weeks off unpaid if I knew I wouldn’t get shit canned. 
We are not wealthy, but were willing to scale back to essentials only and take on some debt to keep our family safe. 
I know that some people don’t even have that option, but I’m surely not the only person with a line of credit they aren’t afraid to use until this all blows over.",golden_rhino,aj7fs,fknycef,Was anyone actually worried about losing their job over COVID 19?  That’s not the vibe I get.  What people are worried about is how they are going to pay their bills while the province spends the next few weeks essentially shut down.  What is the plan for that Doug?...??,fknu3p9,Buchaven,f9z0v
That’s about an average weekend for my wife.,golden_rhino,aj7fs,fkhg5f0,My local supermarket limits to 5 packs of toilet roll per person. The largest they sell is packs of 24. That's 120 toilet rolls. We don't use that much in our flat for a whole year.,fkgzg94,mattjstyles,12rng6
"Yeah. Not a fan of the guy, but he is a dad, and he is the Prime Minister. I think the biggest hater would still be shook if the leader of our country got COVID.",golden_rhino,aj7fs,fkdc98f,"Christ, what a fucking news day.

Regardless of how you feel about his politics, Trudeau deserves some love today. This has to be stressful for anyone",fkcz1bd,ZineZ,5qiif
I dunno how good all the teachers in Ontario essentially teaching online courses will look considering online courses are a huge sticking point in negotiations.,golden_rhino,aj7fs,fkcwb8c,"Theoretically they might, since it isn't technically part of my job description and communicating with students outside of classroom hours would be on a voluntary basis. 

Basically if the admin asked us to we wouldn't have to do it, but should be able to without too much pushback. I've been running an afterschool club with no issues since the strike started, so I should be fine.",fkci1te,Commissar_Sae,uiuxv
I think the government caved and they are using the Corona news to cover it up.,golden_rhino,aj7fs,fkcprry,Kinda selling out their public school counterparts if they aren’t able to come to a deal,fkcc3fn,jovijovi99,xacdc
"No. They only extend the school year if they feel that there wasn’t a reasonable amount of time to cover curriculum. 

From what I remember, they start worrying about such things at around 20 lost school days. The 20 days also includes strikes, snow days, etc...",golden_rhino,aj7fs,fkcn0db,So does the school year get extended by 2 weeks?,fkccovn,ObliviousIdiot_,405iez1x
I’m assuming my son’s daycare will also be closed soon. Do you still pay in this situation?,golden_rhino,aj7fs,fkcmln4,"My daughters daycare is in a school, closed for the next three weeks. Guess my 3 year old is going to enjoy coming to work with me. I’m lucky tho I own my own business so I can do that but my brothers kid is 10 months old him and his wife are both considered essential workers, literally has no idea what he’s going to do as he’s in the same boat with daycare closed.

I’m not saying this shouldn’t have happened, just sharing what a lot of families are going to go through in the next few months.",fkc93kc,peteygooze,uf6l7
"Good time to settle and give in to the demands of the unions. 
Caving would be a publicity nightmare, but Corona is taking all the headlines, so contract details would be a blip on the radar.",golden_rhino,aj7fs,fkcmd18,I bet they are all settled within 5 days.  It's entirely possible they don't reopen in 3 weeks.  We could even lose the year.,fkci2g1,MonsieurLeDrole,frp3y
I think government caved. Great time to do it when nobody cares about who won the education war of 2020.,golden_rhino,aj7fs,fkc7xh1,"If that's the case, I sincerely hope the members vote against it. That deal would be a massive fuck you to young teachers, the students, and all the other unions. Lets just hope Lecce thinks closing schools for two weeks across the province saves enough money to actually make a good deal.",fkc53ck,lechuck333,3iqu9
"You will do it because you are a virologist and we all need your help. Bend, but don’t break.",golden_rhino,aj7fs,fk9ve2c,"I would kill myself in like 2 days from the stress of moral choises they have to take. They are tough people .

Viroligist in training says hi, its gonna be a hell of a year.",fk8uj04,MAPRage,12utgjh2
Only now?,golden_rhino,aj7fs,fk9v3cq,He looks like a fuckin fool now,fk9l133,scallywaggs,y7jxg
They kinda have to now that the NBA did. A player getting sick in the next couple of weeks would be a really bad look for the league.,golden_rhino,aj7fs,fk9u5vt,I'd be surprised if they don't suspend tomorrow.,fk9n7bg,Hockeystyle,6btxc
"I generally have a “the smart people will figure it out” mentality towards things, but this is different. The smart people are telling me that maybe there isn’t anyone smart enough for this thing.",golden_rhino,aj7fs,fk9n8ga,"It was called sensationalist or fear-mongering when scientists started to project the outcome, first in Wuhan, then in Italy. People still don't want to hear it. 

I don't think it's a distrust in scientists, it's that normalcy bias, a belief that someone, scientists, will somehow just fix it and make it go away.

They, in fact, have an irrational expectation for science and scientists, a fantasy even.",fk8ww0o,beaucephus,6lg3m
"I know it’s an anecdote, and it doesn’t matter to anyone but my family, but my dad recently sold his house because he couldn’t afford to keep it with his pension. He was heartbroken because he bought that home with my mom. 

Her decorations were all over the house, and he maintained her flower garden for years after she died. 

 He sold the house because it was important to both of my parents that they didn’t leave their homeland for nothing. They wanted to ensure that their hard work would benefit future generations. 

He wasn’t being greedy. He just wanted to spend the last days of his life where he could “feel” his wife’s presence. It’s all very sad.",golden_rhino,aj7fs,fk5lk4c,"By aging in place, you mean staying put in a four bedroom house right next to the high school while the young families buy a house 50km away? How is that a good thing?",fk46cuv,Euler007,cgjk7
"As a current schoolteacher, you’d have to come up with a whopper of a tale to surprise me at how nutty some parents are.",golden_rhino,aj7fs,fk318hu,"As a former daycare teacher I would bet good money that a parent pitched a fit over their child being put in the ""wrong"" pull up and so to avoid future grief they created that system. 

In my experience this is usually (not always but about 90% of the time) a parent of a boy who is under the impression that wearing pink or other more feminine items will somehow make their child gay- which sadly some parents view as being one of the worst things that could happen to their child.",fk0fyma,CrimsonPorpoise,3cdwz7bo
Vinegar is a great substitute for fabric softener. I’d imagine it would work to give the lungs a little more bounce.,golden_rhino,aj7fs,fk27zjj,"Dont use dryer sheets, whatever you do.",fk1oryl,lurkinandwurkin,4x8fouly
"I just switched to elementary from high school, and my son started daycare. I’ve been sick since September. Good times.",golden_rhino,aj7fs,fjzw4h8,"When I was teaching elementary school, as soon as I got home, the clothes came off and were out directly into a “school laundry” bin and I took a shower.  

I did t even get so much as a head cold for about three years.  I started this routine during the H1N1 flu season.",fjwov5y,knitterofknowledge,6s8vj
At least give me 20 seasons. Let me retire with my first batch of youth players.,golden_rhino,aj7fs,fjzs6m1,They should make career mode never ending ...,fjx9ou3,Joshjones_ybb,3cjvxm5m
I teach middle school. My entire recess duty is watching girls practicing their Tik Tok moves. It’s cringe as fuck.,golden_rhino,aj7fs,fjz8xh2,I’m surprised the parents of the tiktok kids aren’t embarrassed first cause I would be lol.,fjyq44d,Nanaimolover,4ngbx85c
"I can’t think of a single thing the government has done to either make this problem better or worse. From what I’ve seen, they’ve decided to take a wait and see what happens approach.",golden_rhino,aj7fs,fjy8cph,"On the basis of 0.00000158333333 of Canadians being infected, they are doing a great job",fjxq9x6,33coaster,21kdvlb3
"I feel like the hospitals near me can’t cope on a Wednesday afternoon in July, and that’s without Corona.",golden_rhino,aj7fs,fjsmujw,How could we? We are already over capacity with too few staff. Even a few hundred cases will greatly slow the system. Make it a few hundred thousand and we effectively shut down the entire Canadian healthcare system.,fjrf6cd,heymodsredditisdying,532gkd78
"I also work in a school, and I’ve learned that being a shitty parent goes across racial and socio-economic lines. 

Some kids have a junkie mom, some kids have a mom who would be great if she didn’t have to work so damn much, and some kids have the upper middle class mom who will raise hell if her little baby is ever held accountable for his actions. 

I fear for the kids of all three types.",golden_rhino,aj7fs,fjskznf,"Ha. Ha. Ha. I work in schools. You need a license to drive a car. The people who should be having kids aren’t and the ones who really shouldn’t have 4 baby mamas or kids with 6 different dudes. 

And we’re the ones supporting all of them.",fjrvgcv,Careless_Agent,5smzfh3g
"I dunno. I’m not a fan of Brown, but he isn’t dumb and he’s not an absolute lunatic.",golden_rhino,aj7fs,fjsch10,"Patrick Brown's Conservatives would be acting the same way. Doug Ford isn't the Conservative Party. He's just their ugly little goon that they didn't want as leader in the first place. 

All the shit they're doing would have happened under Patrick Brown. Conservatives can't govern because their ideology is to abandon the people they're responsible to protect.",fjpvp2x,JonoLith,4o4tk
"I think he may have meant “soldier” as towing the line to keep his brother and family safe. I would do the same, and I’m whiter than Tom Petty. 

It’s by no means scientific, but I’ve worked with a lot of kids in gangs, and I don’t get a gang vibe from this kid.",golden_rhino,aj7fs,fjs0sxj,Soldier for his brother ? Give me a break. By all accounts he was a good kid and doing well in school. Not everybody in TCHC is part of a gang,fjr7m44,kobeintheclutch,jbpzt
"I had a student come at me with a knife. When I hit him to defend myself, he was shocked and yelled that I wasn’t allowed to touch him. Sorry, bud. Once you come at me with a weapon, I’m not your teacher anymore. I’m a citizen defending himself. 

He couldn’t wrap his head around there being a physical and legal consequence for his actions. He had a 16 year run of slaps on the wrist for abhorrent behaviour. What else could we expect him to think?

Good news is that our school did great work with this kid, and he is now a regular old tax paying citizen who is raising his daughter after he fought to get her from junkie mom. He makes more money than me working in the trades. I’m very proud of him.",golden_rhino,aj7fs,fjs06mk,"When you let some people run wild and do nothing to stop them, why wouldn't they keep on doing it when they can get away with it again and again? Even if they're caught its not like they're going to face any serious punishment anyways.

Our justice system IS A JOKE and far too many people will jump at the chance to make excuses for their behavior rather than ever holding them accountable.",fjpyyyo,RockOn878,5dt2u5s3
"Wouldn’t it be fair to say that someone who puts a gun in someone’s face is a thug? If that isn’t a thug, then what is?",golden_rhino,aj7fs,fjrz2hx,"What's with the language like ""put them down"" people use when talking about criminals?

Is it meant to imply they're animals? Because it ain't so subtle. Let me guess, you're going to call them ""thugs"" or ""sewer rats"" next...",fjrx9ef,thedrivingcat,4d1rj
"I keep waiting for Bieber to stop being a lunatic and actually want to make good music. He’s a punchline right now, but there’s no doubting the kid is talented.",golden_rhino,aj7fs,fjppy0c,She’s better than Justin Bieber/any kardashian imo,fjpjqig,SCP-004,3kyrhsyr
And his parents have a real nice marriage.,golden_rhino,aj7fs,fjpn70n,and clarence lives at home with both parents,fjosi2d,youknowjusthere,nloabuh
Every student at my school sent him one.,golden_rhino,aj7fs,fjnwa5t,I love this. I’d like to know all the places that cards came from too 😊,fjn7m34,Midsomer3,3sly2fcj
Within 25kms or so. Does it take that into account?,golden_rhino,aj7fs,fjltd2u,Are you close to where it took place?,fjlrxih,nicklebackstolemydog,58y3of6b
I got three with Rogers.,golden_rhino,aj7fs,fjlrs3a,Holy shit! Who is your cell phone provider? I'm with Rogers and I got 1. Edit.... The kid was taken because of a 4 million dollar coke debt!!!!!! Are you fucking kidding me!!!!!,fjlfw7j,nicklebackstolemydog,58y3of6b
"Look at those greedy teachers wanting to make sure they have a stable job to pay their mortgages and shit. Back in my day, your boss could fire you on a whim and we all liked it.",golden_rhino,aj7fs,fjlmdde,"Like with any union the biggest issues are compensation and job security.

OSSTF the other day even admitted that job security was its major issue:

> .@osstf president Harvey Bischof says ""well over 1,000"" high school teachers will still be lost after @Sflecce's ""amateur-hour move"" today. Likens it to a ""hand grenade."" ""This is not a proposal; this is a press conference."" #onpoli #onted

https://twitter.com/robertbenzie/status/1234948593796210688",fjkhw06,Peekman,4au6z
"It didn’t need to be changed, and there are obvious issues with them, but as much as I want to hate them, I think they are kinda nice looking.",golden_rhino,aj7fs,fjlm3ta,Can we take a moment to talk about just how un-ontarian these plates are? No public consultation on the design - its just tacky PC blue. I'd be all for a redesign if it was actually a design that represented ontario.,fjjrlu9,t0m0hawk,5ubig
"I dunno. If OECTA can get them to agree to status quo on everything except the 2%, I wouldn’t call that nothing. 

I doubt they can get that, but it would be a huge victory for all the unions. It then comes down to whether or not it’s worth fighting for the extra 1%.",golden_rhino,aj7fs,fjez4pq,"So, etfo, osstf, and aefo, continue losing money while striking, OECTA sits back and does nothing? OECTA is legally required to do what's best for it's members but I will still be pissed if they settle again like in 2014.",fjem932,FastestCamel,140xup
"My wife went through five of them. We have since had a beautiful boy, but I still have nightmares and carry the grief with me daily. It’s hard mourning someone who never was.",golden_rhino,aj7fs,fjesn0h,"Children, people telling you to have kids, or miscarriages?

Cause either way that's rough, I'm sorry, I feel for you, and I have nightmares about all 3 (though I'm a dude, so it's a bit different of a perspective).

E: OP has since changed her comment. I feel for her. No one should go through that kind of loss.",fje9sjw,Xiaxs,efh1a
"Could be strategic. We fight for class sizes you fight for salary, and we all me too into the sunset together.",golden_rhino,aj7fs,fjedsp5,OECTA will accept a 1% increase with a 'me too' clause. So much for solidarity with the other unions.,fjebdcd,FastestCamel,140xup
Class sizes mostly.,golden_rhino,aj7fs,fjedi7h,What is the sticking point? And why the hell is the unions running our public servants?,fjecy6g,slingbladde,f9u7v
"There are a lot of parents who don’t know what the hell goes on in school. Some are new to the country, so don’t have the language skills to advocate for their kids. Some don’t have the literacy/communication skills to do it. There is also the small percentage who don’t really care. 

I would bet money that the GPA will be higher in E Learning classes. Make them “bird” courses so the government can trumpet how great they are. The contracts will likely go to credit mills that are already established anyway.",golden_rhino,aj7fs,fjebgf1,"e-learning isn't objectively bad. Opt-out is kind of ok. Though it should be opt-out from students, not parents.",fje9kbo,MajorasShoe,3j8kkcwc
This is great news for teachers who had the foresight to have an uncle who is a principal or works at the board office.,golden_rhino,aj7fs,fjeasly,Revocation of seniority-based hiring practises.,fje99qo,sigbox,6opz2
The unions would settle for pre OPC numbers. This is a pretend compromise based on an increase to the class sizes they brought in. Their base will gobble it up though. Hurr durr greedy teachers.,golden_rhino,aj7fs,fjea7a1,This is a cop out. They want to make it seem like they are compromising. When the reality is they are not making education better. They are resetting it to what it was like before the OPC took power,fje9qku,getwokegobroke,1xxpyp22
"You used to get 15 apples per month. 

The government says this is ridiculous and gives you 10 apples per month instead. 

After much arguing, they agree to give you 13 apples per month. 

Do they really have the right to say they are giving you more apples and you are just being greedy for wanting 15 apples?",golden_rhino,aj7fs,fje9xyn,"And Lecce backs down on class sizes AND e-learning.  If the unions were truly OK with a 1% raise and no new money for benefits, then we should have a deal today, right?",fje8e1f,develop99,13g11r
"I dunno. I used to dress like a hobo, and I thought that my mom liked controlling me, or was worried about how it reflected on her. 

After she passed away, her ragging on me about haircuts, shaving, and dressing horribly came up in conversation. My aunt told me that she just wanted me to look nice, and that she wanted the world to see me the way she did. 

To this day, if I haven’t shaved in a few days I can hear my mother’s voice, but it makes me happy.",golden_rhino,aj7fs,fjahgmu,I don't understand why parents care so much about how their kids look. It's really not their concern.,fj9moqs,SeymourPant,wdnpvam
"Chromebooks are great for the classroom, and pretty cheap too.",golden_rhino,aj7fs,fjaep4d,"Coming from a School district that gave every kids iPads, it's a terrible thing. Yea it sounds nice, but they are a huge distraction, and even when the teacher does lock the iPads, you can still restart them, and just play games on them. Also you cant access a lot of websites that need a desktop browser, and the chargers break, which the student has to pay for. Have fun typing on an iPad, it sucks to write papers on them. And worst of all you cant print from them. It would have been a better idea to just buy the kids laptops, or buy better lunch food, or increase the size of the student parking lots.",fjaamlx,Juicyjackson,gszx9
"We use ours under his winter clothes. Sure I don’t like the message, but a free shirt is a free shirt.",golden_rhino,aj7fs,fj9470a,"We've got a few of those. I smile, say thank you, then give them to goodwill lol",fj5oq4x,mibishibi,176j2f
He might get a pass if he’s British. It doesn’t have the same oomf it has here.,golden_rhino,aj7fs,fj942a7,Does he actually call you a cunt? It sounds like he has 0 respect for you and that is not ok.,fj6r3sn,not-just-a-dog-mom,1nnmjbxl
Yup. Same in Canada.,golden_rhino,aj7fs,fj93vey,"Just wanted to add, for non-American redditors, this may not apply to your country, so I would recommend double checking. For example, in Australia the straps should be at shoulder height or above, but never lower.",fj7mqzf,kaernto,2ha1emvw
"I have the same chord since lightning cables were introduced. My wife goes through one every 6 months. The product could be better, but some people treat stuff with absolute disdain.",golden_rhino,aj7fs,fj7vjfm,"Downvote me but I’ve never broken one of these in my 7 years owning an iPhone, started with the 4 and have a Xs now. These cables are not of highest quality by any means, but abusing the fuck out of stuff does tend to break things.

Edit: a word",fj7bmpz,ShyGift,570x186e
I don’t think anyone thinks the beer is connected to the virus. I could see someone who is super anxious about the virus not buying the beer though because they don’t want to be reminded of it.,golden_rhino,aj7fs,fj7414z,"Take this with a grain of salt. The people who did this survey didn't ask ""Would you stop drinking Corona beer because of the Coronavirus?"" So most people probably just said they don't like the taste of Corona beer. But I heard there was 2% of people who did say it was because of the Coronavirus which is still stupid...",fj6r0w6,Better_Green_Man,3c36fqcl
I always thought the bird remembered him from the seventies.,golden_rhino,aj7fs,fj2pjn9,"> The bird that cried “Hurley” was one and never explained. 

It didn't need to be explained; birds as augurs of the future, messengers of the gods etc. goes back to Greek & Egyptian lore.  In its ""DNA"" LOST isn't science fiction, even though it wears a sci-fi skin.  Things that seem weird or unexplainable as sci-fi make perfect sense as lore (like the Taweret statue, or the carving of Smokey and Anubis underneath the Temple.)",fih6spj,stef_bee,f8yb7
Isn’t that what happened with the trucking industry?,golden_rhino,aj7fs,fiz2e5g,"Imagine people doing the same thing when applying for a job.

Job posting: $50K salary

Applicant 1: ""I'll do it for $40K!""

Applicant 2: ""Oh yeah?? I'll do $35K""

Applicant 3: ""I'll do $28K!""",fivne44,lazertankpew,3ik4rnbe
"If this woman told me this story in person, I would vehemently agree with her, and do whatever I could to make her feel better. 

She is in hell right now. The thought of something happening to my son takes my breath away. To actually have the worst happen is unimaginable. This poor woman.",golden_rhino,aj7fs,fiyjru4,"I don't know. I can see why you would want to believe it.


One one hand you suffocated your child. You actually killed your child through negligence.

On the other hand, a mysterious substance you were 'tricked' into giving your child by trusted medical professionals killed them. You were completely without blame.


The second option is untrue in every way but its much easier to live with yourself than the first. In their mind by clinging to the antivax movement absolves them of blame on their childs death. It's pitiful and sad. But its no excuse to try and convince people to be antivax because that just means you can be the contributor in another child death by negligence (or possibly more).",fixqdmc,Quailpower,12irbb
I saw a peer reviewed photo with scary text on Facebook. It convinced me.,golden_rhino,aj7fs,fivkp8z,"Vaccines are pure evil. They put poison in them and kill our children or give them the genetic disability of autism. I don't have any proof, but it's true!",fiuh31r,SpiderGlitch22,3u7gy0zf
My parents were both white Europeans and were considered an interracial couple by their families. Times done changed.,golden_rhino,aj7fs,filidpv,I'm Latino and my wife is Jewish/Canadian. I forget all the time that we're an interracial couple and that 50 years ago we would have faced hell just trying to live a normal life.,fil2cct,zaphod_beeble_bro,h0wld
"Just today we bought two of the huge boxes of pampers because they were on sale. That came out to about $75. A lot of people gotta spend $20 a week for a lot less pampers. 

Something as simple as being able to afford to stock up on sale items is part of the poor tax.",golden_rhino,aj7fs,fhzf2dv,"That's funny. When I brought up ""poor tax"" I was basically attacked and told it wasn't real.  It is VERY MUCH real.",fhxy6vy,bycomparison,11rf17iu
I’ve stopped using Davies. He’s so good that he’s pretty much a cheat code.,golden_rhino,aj7fs,fhwlj4y,"Alphonso Davies, you can play him in midfield and WB and striker to if you tell him to get wide",fhvytrj,_joejoe32,2bxvbyts
