child_body,child_screen_name,child_user_id,child_tweet_id,parent_body,parent_tweet_id,parent_screen_name,parent_user_id
"El Salvador is much much smaller than the us and less complicated when it comes to jurisdictions and red tapes in-between federal, state and local. Things take time and much much more money and much much more man power",GrabEmbytheMAGA,j7o37vq,fl76a43,"I mean, regardless of where the money came from, they still did it.  It's not like the US government never had the funding or authority to take similar measures, there's just no political will to do it.  Plus 45 million is a drop in the bucket in terms of the US budget.",fl73vs6,I_am_the_night,5lwzj
Must be nice to do it at the dime of the rest of the world that have them money. Good ol foreign aid supporting this. # thanksAmerica,GrabEmbytheMAGA,j7o37vq,fl732oq,"Sure, El Salvador is a notoriously corrupt country that has serious and widespread problems with both poverty and crime. And they *still* managed to enact more proactive measures to both combat the spread of the virus and alleviate the negative economic and social impacts on the population than the US has (at least at the federal level).",fl70bi6,I_am_the_night,5lwzj
It needed to happen when China was attempting to suppress the severity of it within their own borders. China needs to pay a heavy price in what they have caused.,GrabEmbytheMAGA,j7o37vq,fl53cho,We needed to start this lockdown two weeks ago too.,fl488rh,hildebrand_rarity,13f0vt
Welcome to Reddit,GrabEmbytheMAGA,j7o37vq,fl3wvkg,A bunch of entitled college kids decided for us,fl2eawr,LockedOutOfMyShit,6fy5tco
"Imagine wanting to give the government more power, control and money after describing it as such",GrabEmbytheMAGA,j7o37vq,fl2clkb,Imagine having to rely on billionaires to step up when the government spectacularly fails at their job of keeping the people safe,fl0z1r2,Th3_Wolflord,1kbdu4vi
" 1. This sub isn't ""funny"", it is about failing. Look at the description and rules
 1. minuscule? They are spending millions in dollars and countless man-hours to help... there is never enough for Marxists
 1. a twitter poster has failed at all 5 of her points, and each one is proven wrong. It is about the corona virus and misinformation.

 1. there is no back and forth, because the poster absolutely failed on the first attempt

 1. why are you defending misinformation?",GrabEmbytheMAGA,j7o37vq,fl0lrsm,"Here’s my problems with this post:

1. It’s not funny
2. Some of the amounts cited are minuscule compared to the income of these individuals
3. Either way, this is too blatantly political for this sub
4. It’s not a back and forth in which someone has a comeuppance. It’s an infographic type jawn manufactured for this sub
5. Why is OP even defending billionaires in the first place? If you feel like they’re an oppressed class who really needs our understanding in these trying times.... yea, no.",fl0kpbb,doctorlongghost,anu6i
"Why would we make rules that don't exist in the first place? The vote is blind to all creed and color. We don't have any laws, rules or restrictions that grant specific races a vote that is worth more than the other. Just a location. Please reframe from being a racist",GrabEmbytheMAGA,j7o37vq,fkzs3oa,"> Why does race have anything to do with it?

So your fine if we change the rules so that PoC votes count for more? Its okay because its mostly white people who count for more now so thats just fine and dandy with the magat crew, how would you feel about the opposite?",fkzrw41,Shemzu,agsv4
"Why does race have anything to do with it?


The micro economies, specialties and jobs are what makes up different counties. Race has nothing to do with that. 

That's why having 84%of the counties (2600) vote is a better snap shot of the voice of America than 16% of the counties (500).   huge difference",GrabEmbytheMAGA,j7o37vq,fkzg665,"> That is a better snap shot of what America

What does race have to do with it? Look at the states whose votes count for more, primarily white/republican dominated areas. so yeah its a better snap shot of america so long as you consider white to be worth more when it comes to votes. I dont. I think 1 vote should be 1 vote. You apparently think white republicans should count for more.",fkzbppm,Shemzu,agsv4
"You are a racist. What does race have to do with anything?

He won 84% of the counties in America. That is a better snap shot of what America is than  the 3 million from LA county",GrabEmbytheMAGA,j7o37vq,fkzbia0,"> America has never been full democracy.

No shit captain obvious.

>A higher amount of variety of different voices that represent various amounts of people

Thats a very odd way to say certain white dominated states have votes that count for more than everyone else.",fkz8n3n,Shemzu,agsv4
"A higher amount of variety of different voices that represent various amounts of people than just a few cities


If you want a full representation, then go to ancient Greece. That worked well. America has never been full democracy. Open up a book.",GrabEmbytheMAGA,j7o37vq,fkz5all,"> more voices represented

How are more voices represented by less votes? Trump lost by 3 million votes, that is the will of the people. Yes I want a representation of all voices, which you cannot get when some peoples votes count for more than others (curiously the states with the highest value votes also have the highest ratio of white people hmmm)",fkyzvwt,Shemzu,agsv4
"Overall Trump won approximately 2,600 counties to Clinton’s 500, or about 84% of the geographic United States.

https://upload.wikimedia.org/wikipedia/commons/thumb/4/49/2016_Nationwide_US_presidential_county_map_shaded_by_vote_share.svg/1280px-2016_Nationwide_US_presidential_county_map_shaded_by_vote_share.svg.png

the real will of the people. more voices represented. more communities. more economies. Don't you want a representation of all voices or just a few cities?

Americans of all shapes and sizes, needs and wants, chose the President. You can live in an alternative universe if you want.",GrabEmbytheMAGA,j7o37vq,fkyxzw1,">You know, something that makes some peoples votes count for more than others. 

ftfy

>With that logic, Obama took office without the people's will. He didn't even have the popular vote against Hillary

Now you are comparing a primary to a general election, which is not the same at all, but lets go ahead and see. 

https://www.factcheck.org/2008/06/clinton-and-the-popular-vote/

oopps. looks like you are wrong or lying. Obama had more votes in every state he was on the ballot. 

Now lets go back to the last few republican presidents who ACTUALLY took office against the will of the people.",fkycs7b,Shemzu,agsv4
"You are living in an alternative universe. 

With that logic, Obama took office without the people's will. He didn't even have the popular vote against Hillary. He was a fraud since the beginning with your logic being used. 

But some people understand nation is a republic and not full democracy. You know, something that gives voice to the minority and not the mob",GrabEmbytheMAGA,j7o37vq,fky84gc,"I'm saying those numbers show obama's policies were working, why does trump get credit for what happened before he took office against the peoples will?",fky7170,Shemzu,agsv4
it is just a made-up scenario that has been typed up and then submitted here.,GrabEmbytheMAGA,j7o37vq,fky35uk,"Look on the bright side, he could have said something more upsetting like wedding ring, IPhone, hamster. It really could have been worse!",fkxj0r7,cloeyzoeylala,5ty3hxqw
"CCP has done far worse to their own people than getting a few thousand of their own sick for the sake of power. 

They managed to put the whole world on a standstill for just a ""minor"" amount of their own casualties. So, no, it is not stupid to consider this is as biological warfare. Writing is off because you don't want to come off as ""racist"" is complacency and what lead us to be in this situation in the first place",GrabEmbytheMAGA,j7o37vq,fky1uz7,"Trained epidemiologists will probably forget where this massive viral outbreak originated unless we insist on calling it The Chinese Virus? Come on, man, you know that's silly. 

China sucks and they handled the onset negligently to no one's surprise, but we don't have to be stupid and say China is engaging in biological warfare by crippling themselves along with everyone else.

I don't really have a point here, but I just think it's a weird distinction to cling on to. No one thinks AIDS should be called African AIDS.",fkxlphd,IntersnetSpaceships,ccw3a
"policies from 2008-2012 did have impacts for what happened in 2014.

or are you saying that Trump didn't inherit ""Obama's economy""

you cant have your cake and eat it too",GrabEmbytheMAGA,j7o37vq,fky0q7p,So your theory is that policies enacted in 08-09 had 0 impact until 2014. You are an imbecile.,fkxvna7,Shemzu,agsv4
"Calling it the Chinese virus or the wuhan virus gives us a point of reference incase it mutates into a new strand. 

It also keeps a reminder that China is to answer for their lack of actions and deceit to the world.

They knew about it, tried to hide it for as long as possible, pressured other countries to keep flights going. They single handily could of shut their flights down and contained it in their country. They didn't. They spread it on purpose. Biological warfare masked as ""oopsie, we all have it now""",GrabEmbytheMAGA,j7o37vq,fkxjk7r,"Insisting on referring to it as ""the Chinese virus"" like that means anything is pretty childish at this point. It's country of origin is largely irrelevant now that it's everywhere. 

That being said, saying that you're being racist for acknowledging that it originated from China is absurd.",fkxfhys,IntersnetSpaceships,ccw3a
and in 2012...his policies from 2008 -2012 affected his 2012-21016 presidency. That is when the year 2014 happened. You are something special,GrabEmbytheMAGA,j7o37vq,fkxbq4s,"> look at what happens in 2014

obama was elected in 2008 idiot.",fkwgttr,Shemzu,agsv4
"> Your first link proves my point, obama did a great job and numbers look good. 

no, there is already a decline from years before that was from bush, look at what happens in 2014 when his policies come into play.

https://en.wikipedia.org/wiki/2014_American_immigration_crisis#/media/File:SWBorderCrossing-NonMexicans-Chart.png

the second is a compilation of all the data. It is literally an excel sheet full of data from contracts that media wont cover.

you are sending a fake replica video that has already been debunked. You are really trying to spread misinformation. You and you team are way better then any russians. good job.",GrabEmbytheMAGA,j7o37vq,fkwgl95,"Your first link proves my point, obama did a great job and numbers look good. 

Your second link is just a bullshit (stolen) frog meme. so here is a link for you about trumps great wall

https://www.businessinsider.com/8-year-old-climbs-replica-of-trump-wall-in-seconds-2019-10

being outdone by a child in seconds. Great use of tax dollars. Idiot.",fkwf4o2,Shemzu,agsv4
"[very porous](https://en.wikipedia.org/wiki/2014_American_immigration_crisis#/media/File:SWBorderCrossing-NonMexicans-Chart.png)

[being fixed as we speak](https://i.redd.it/25bx1yo4ntf41.png)

where are you living? mars?",GrabEmbytheMAGA,j7o37vq,fkwevq7,"> the southern border was very porous.

No.

>Getting fixed as we speak.

Also false.

You seem to have trouble saying anything true. Almost like your allergic to being honest.",fkwecmq,Shemzu,agsv4
the southern border was very porous. Getting fixed as we speak. And this pandemic shows even more dangers to open borders and the free flow of people without any checks,GrabEmbytheMAGA,j7o37vq,fkwdyfo,"Yes, which has nothing to do with 'real time open borders experiment' which the US doesnt have anyway.",fkw5p3j,Shemzu,agsv4
Are countries not closing their borders at the moment to limit the spread??,GrabEmbytheMAGA,j7o37vq,fkvzjnu,How is it that literally nothing you say is true? Does it take alot of effort to be wrong so much?,fkvkqwc,Shemzu,agsv4
"chickenpox parties aren't just for anti-vaxxers...


but I swear, the only time I hear about anti-vaxxers is only from when people are hating on anti-vaxxers. So I guess all of South America and Africa, Reddit is hating on.",GrabEmbytheMAGA,j7o37vq,fkvivqr,"Ohhhhhh, noooooo.  This just gave me a terrible thought. Are there people out there trying to get a ""little"" bit of COVID right now kind of like anti-vaxxer's  chicken pox parties?",fkuimbg,Shawnmrose1,1cwg0p4w
"this is a great real-time open borders experiment, on for the world to watch",GrabEmbytheMAGA,j7o37vq,fkvgr80,There’s a pandemic and Trump voters are still concerned with the wall. That perfectly embodies their idiocy.,fkv4u3d,iamthedayman21,4gq0ajpu
There is muscle under all that fat(weight) he carried around.,GrabEmbytheMAGA,j7o37vq,fktwt9k,"it's not just the weight loss, and to be fair hitting the gym frequently, and eating a very low caloric intake totally doable, I'm more surprised about the amount of muscle is put on in only a year and a quarter.",fktwmvd,familydude213,jf122oo
"cant say jokes that are so timely any more. ""too soon"" is now a real thing  for god admins",GrabEmbytheMAGA,j7o37vq,fkt1bak,This is so clearly a joke. I can't believe something like this would cause an indefinite ban.,fksg9yt,bareneth,116rhc
anyone that is not liberal or pro bernie != T_D,GrabEmbytheMAGA,j7o37vq,fkqv3hn,"Wrong. T-d oozes out of the sub everywhere, all the time.",fkqsetu,Thoughtofajoke,1spq6bsj
"You couldn't even see TD unless you:

1. typed it into the shitty Reddit search engine

1. clicked on it

1. read the warning

1. say yes to the warning

1. and then finally arrive at TD

There was no way it could even hit front page. So you had to go way out of your way, just to be annoyed and report them. What a life",GrabEmbytheMAGA,j7o37vq,fkqlh7m,This sub has surpassed t-d as the most annoying subreddit. Congratulations.,fkpaym2,Thoughtofajoke,1spq6bsj
But that is not how you get reddit karmas,GrabEmbytheMAGA,j7o37vq,fkp96gw,Any CNC operator worth his weight can do the same job. Doesn't have to be in Japan.,fkoan3h,tyderian25,3thaxyn4
"Most people would consider ""fuck"" as an obscenity unless you are between the ages 14-16, and then even then it's fairly known not to say it. You wouldn't say it in an interview. Don't be so dense. It seems that Reddit is full of teens and the articles are written by a teen that can't control their emotions.",GrabEmbytheMAGA,j7o37vq,fkou4ef,"Because there is no reason to avoid obscenities.  
And there are plenty of reasons to utilize them for empathis.

Besides,what counts as an obscenity varies so much between people, it's up to the reader to remind themselves not to force their standards on others.",fko91mt,Bad_Bi_Badger,2tro9nef
[Aaaaaktually](https://i.imgur.com/IV0JiGw.png),GrabEmbytheMAGA,j7o37vq,fknj4se,Now you will expierience the full power of democratic socialism.,fkmg958,Krishnoff,286fojov
"Muslims have been more horrible than anyone to their own Muslim population.


Downvote statistically proven facts... Reddit be Reddit",GrabEmbytheMAGA,j7o37vq,fknhztu,I assume he said that prior to Iran becoming an epicenter?   China certainly has been horrible to their Muslim population.,fknd1ow,mdjak1,g87uw
The coalition the Chancellor has is a desperate attempt at maintaining power. Hitler would have a tear.,GrabEmbytheMAGA,j7o37vq,fknfcnc,"Your argument is coalitions are bad? As in, two party system is better?",fkmdcky,GoliathWasInnocent,umvl89b
"and let's see if they all die like you are suggesting; you are apart of creating a mass hysteria.

> This is the biggest world-wide crisis since WW2, maybe since the Spanish Flu.

how many people have died? goodness you are fearmongering and spreading misinformation.",GrabEmbytheMAGA,j7o37vq,fkkuaqo,"Remember it in 2 weeks when the US has about 200,000 confirmed cases and in 4 weeks when it is more than 2 million, unless they stop even testing in the first place like Iran. People thought the same 2 weeks ago when we in Europe has a few hundred cases in total. Now thousands are dead already and we see measures taken not seen outside of war times to prevent it climbing to millions. Fear mongering? This is the biggest world-wide crisis since WW2, maybe since the Spanish Flu.",fkkrdf4,Ranessin,87lf4
"Best case scenario is losing several million people? 

That is a bit of fear mongering hysteria. Don't be foolish",GrabEmbytheMAGA,j7o37vq,fkkqpjr,Potentially 0.5-3.4 % with a healthcare system able to cope (Wuhan) or 10 % if not (Northern Italy). Take your guess where the USA falls and imagine losing several million people in the best case scenario.,fkkq04y,Ranessin,87lf4
"""Anyone who thinks differently than me is wrong and thinks backwards!""

2024 will be another Republican win is imminent if this behavior and sense of superiority is kept up.",GrabEmbytheMAGA,j7o37vq,fkic9xo,">Every wedding I've been to, the baby or child is escorted outside the ceremony until the crying is handled. That is a very common and simple thing to do.

Except they've already disrupted the ceremony.  The whole point of not having them there is to avoid disruption.  


> attacking my username because I call out actions shows you have no  argument besides trying to mob rule by getting others to downvote  because drumph orange. 

Nah, plenty of arguments.  Just pointing out that it makes sense with your backwards way of thinking and ""logic"".",fki4qnd,Haboob_AZ,sobg5
"You now need to go to the filter and select ""by view"" if you are searching now. Or it will give recommendations to the 70+ tv channels they want you to pay for.",GrabEmbytheMAGA,j7o37vq,fkg8no2,YouTube video recommendations.,fkea6z2,WantAllMyGarmonbozia,2wsf92gs
"> make having a period worth it

who are you proposing this to? What is stopping you now?",GrabEmbytheMAGA,j7o37vq,fkg5qud,changing what? Just like I can’t wait to change my tampon so I can eat it!,fkg5jkx,CyberpunkElectra,44p6epqt
who is changing this? very curious,GrabEmbytheMAGA,j7o37vq,fkg5f2n,make having a period worth it if I could eat a snack every 4-10 hours. I would also reabsorb the blood.,fkg576q,CyberpunkElectra,44p6epqt
"easy there, fella",GrabEmbytheMAGA,j7o37vq,fkg5368,they should make them edible. Yum.,fkg4r12,CyberpunkElectra,44p6epqt
throw away my bloody tampon YOU BIGOT!,GrabEmbytheMAGA,j7o37vq,fkg4nzw,"Nobody carries around a purse and carrying used tampons around doesn’t sound very hygienic for anyone, including the community. You don’t even touch it. It’s not entitlement, it’s just basic needs. Or you can have it stinking up your kitchen trash can. And sexist? This is why sexism against men is considered a joke to a lot of people when it’s a legitimate issue.",fkfksry,CyberpunkElectra,44p6epqt
"Every wedding I've been to, the baby or child is escorted outside the ceremony until the crying is handled. That is a very common and simple thing to do.


attacking my username because I call out actions shows you have no argument besides trying to mob rule by getting others to downvote because drumph orange.",GrabEmbytheMAGA,j7o37vq,fke6c4d,"> a baby has little impact on what is going on between you, your (future) husband and family.

Untrue.  They cry, scream, etc. in the middle of the ceremony and such.  They have a huge impact and can absolutely ruin their special day.  


> Teenagers and the AITA White Knights in here will say NTA because you are a girl and you are being ""brave"" and ""strong"" but really you are simply being a narcissistic jerk. 

Username checks out.",fke5zie,Haboob_AZ,sobg5
"*sorry guys,  ReBurnInator decided he thinks this is not trashy and has no humor even though is matches the top post. He says this is a ""rage post"". I think he doesn't want another Charlie Hebo on his hands.*


""Utah Jazz star mocks the coronavirus and touches every mic at the press conference to show he's unafraid. 30 hours later tests positive for coronavirus causing the NBA to suspend the season:""

https://www.reddit.com/r/trashy/comments/fhj0kq/utah_jazz_star_mocks_the_coronavirus_and_touches/

it is 78k upvotes, did you say the same there?",GrabEmbytheMAGA,j7o37vq,fkcx1en,Not trashy just unlucky,fkcwt87,RedditMakeUsHappy,3algo4c
Most are traveling about for spring break activities. That's probably a common sense action,GrabEmbytheMAGA,j7o37vq,fkb1791,Many are being told to not come back after spring break,fkb11gw,Skipper2399,iwg85
"Reddit tweaks their algorithms over and over. They curate what you see and what you don't see. There is hardly anything authentic that hits the front page that Reddit doesn't allow. Reddit is completely different than what it used to be. You used to get breaking news, sometimes before major news outlets would even be reporting. Not anymore.",GrabEmbytheMAGA,j7o37vq,fka37d9,And then Reddit forgot... as usual. These circlejerks are so annoying and predictable.,fk9j08i,SirawesomesauceIII,7woxq
"doesnt stop bernouts from calling trump supporters russian bots, and never called him a bot. The user is a chinese communist sympathizer.",GrabEmbytheMAGA,j7o37vq,fk9sd3z,Wew lad that's a lot of baggage. At least look at the man's post history before you call him a bot.,fk9n35v,Tracker007,6tz53
"But you and your commie sympathizers will be all over Tencent when they tell Activision and Blizzard what to do...

you don't think the $120 million invested into Reddit doesn't give them some form of access or control? They don't get to scrape meta data for those users from HK subreddit? They aren't the ones actually doing controlled release of what information you actually see? 


Chinese sympathizer bot found. Not just Russian bots.",GrabEmbytheMAGA,j7o37vq,fk9minb,Reddit hasn't taken anything down. This was the top upvoted post on many subs a few months ago. Stop karma whoring.,fk959fo,Sorrythisusernamei,2fx1sz84
"He got his daughter this internship, an act of of the President. He has been more closely and recently been linked with this monster than any sitting president or politician. It's a big move to have your family so closely associated with him, he had final say on the matter.",GrabEmbytheMAGA,j7o37vq,fk8m7qm,"Again ,you say there are questions about his presidency. What does that have to do with his child, now years later?",fk8jd2b,On_two_wheels,178ub8
"You are saying having the last name Obama and her father had nothing to do with her getting an internship WITH Harvey Weinstein? The active blindness is bewildering.

The time is not gone, it was the LAST presidency. a few years ago.",GrabEmbytheMAGA,j7o37vq,fk8g7zm,"...but what you posted has nothing to with obama, but instead his daughter.  You're just taking any chance to drag on the guy. What question about his presidency could you have that is related to his daughter's internship?
I agree he did some greasy shit like not closing Gitmo or allowing the military to drone strike civilians, but the time is gone, your Lord and saviour is in charge and you can let it go now.",fk83sfn,On_two_wheels,178ub8
Why do you keep saying enough? Do you not like talking about uncomfortable topics?,GrabEmbytheMAGA,j7o37vq,fk82qcc,They are the same people who will vote Biden in 2020. The man literally SMELLS children. Enough.,fk81rky,OWO-FurryPornAlt-OWO,usaqjnd
They knew about it and still wanted to be associated with the man because of their plans to pivot for power and status in the Hollywood industry.,GrabEmbytheMAGA,j7o37vq,fk82mmn,"Okay, I'll bite.  What are you proposing this means?   I actually haven't heard of any conspiracy surrounding any Obama-Weinstein link.  Do you think the Obama administration is responsible for Weinstein getting away with rape for so long or something?  I truly don't know what this image is supposed to imply.",fk81fps,elegantjihad,4t8w1
"Just proving my point, why even be associated with this man?",GrabEmbytheMAGA,j7o37vq,fk81hja,What the actual fuck are going on about?  Enough.,fk80w4r,ProlyonToilet,1vzydhdj
"No one is mad, but people have questions about his presidency and some choices made by him, but they all get deflected away with ""he isn't president anymore"", ""you are a racist"", or ""nice whhaaaaaaaataboutism""

If President Obama is to thank for our current economy, and being the previous president, then he is still on the table for being discussed.",GrabEmbytheMAGA,j7o37vq,fk80sst,"TIL people are still mad about Obama's existence, *years* after he's not in charge anymore.",fk7zqbw,On_two_wheels,178ub8
admins are tweaking algorithms again,GrabEmbytheMAGA,j7o37vq,fk7kfkp,Where the fuck are all the comments?,fk7an02,liiinusch,b21f7
"What character are they cosplaying from a show, game, comic book, etc?

I think you need to do more research",GrabEmbytheMAGA,j7o37vq,fk7dc5w,Actually the furry fandom isn’t about pretending to be something you aren’t. It’s literally just cosplay.,fk6t6t1,prumkinporn,4dyepwr0
"Yes, and that is a scientifically proven wrong statement",GrabEmbytheMAGA,j7o37vq,fk7d8bb,"To be clear, that statement was meant to imply two things:
1. Human behavior and physiology is not affected by gender
2. In other species, behavior and physiology is affected by gender",fk71xcu,secret314159,2gwvcs9g
"It's not fun, just like you",GrabEmbytheMAGA,j7o37vq,fk6c4zr,Fun fact. Loki is Odin's blood brother and not Thor's. He is also mother to Odin's ~~six~~ eight legged horse slepinir.,fk5cwbp,JungleDoper,4sqrzcfn
"[One machete crime every 90 minutes on Britain's streets as police try to deal with thugs carrying out murders, rapes and burglaries](https://www.dailymail.co.uk/news/article-5609593/One-machete-attack-90-minutes-UK-streets.html)

first, google result...

and that isn't going into the rise in stabbings from another googling

seems pretty common, no?",GrabEmbytheMAGA,j7o37vq,fk5pjfo,It's not.,fk5hsme,Phillyfuk,14pk2ule
"> gender affects behavior and physiology more than in humans

do you have evidence of this?

As there are countless reports and ages of research arguing the opposite.",GrabEmbytheMAGA,j7o37vq,fk5oyrw,"It’s just information, really. And in other species, gender affects behavior and physiology more than in humans. Maybe the gender is relevant to a biologist, because of normal Bonobo behaviors.",fk5gfnv,secret314159,2gwvcs9g
"the future customers in the community find a random Chinese only speaking family and give them funding to create a random Chinese restaurant filled with only Chinese speaking cooks and staff. Where do you think the seed money to  raise that restaurant comes from?

https://www.cdc.gov/coronavirus/2019-ncov/about/transmission.html

**Spread from contact with contaminated surfaces or objects**

> It may be possible that a person can get COVID-19 by touching a surface or object that has the virus on it and then touching their own mouth, nose, or possibly their eyes, but this is not thought to be the main way the virus spreads.

and what is wrong with the statistics I brought forward in that comment?",GrabEmbytheMAGA,j7o37vq,fk5ccpg,"The username and [post history](http://reddit.com/r/funny/comments/ffq23g/what_we_do_at_school/fk1vq8h) pretty much give away your bullshit, pal.

Restaurants are funded by customers, and I have enough common sense to know most of these customers and owners are likely to be Americans who haven't been overseas lately. 

Shipped supplies also won't carry the virus far since it dies on hard surfaces. It's transmitted through personal contact.",fk5b713,Jerbits,npw0q
If that common there? Wtf,GrabEmbytheMAGA,j7o37vq,fk59icw,People that don't have access to guns - this was in the UK!,fk53f2a,IWannaSlapDaBooty,11iy83
"and statistically not even their ancestors. A lot of Americans have roots established from the early 1900's. Also, Slave owners only made up 1%. Shiiiit, there was more slavery everywhere else in the world, looking at the Ottomans. Americans stopped slavery. So strange to hold such a grudge. Weak grudge with no base.",GrabEmbytheMAGA,j7o37vq,fk50pc1,Yes revenge against someone for what their ancestors did.,fk4xzz2,SmileCat666,54nm2ls
a real life hug with arms,GrabEmbytheMAGA,j7o37vq,fk4x4zo,Do you need a hug?,fk4wp8v,nopointinlife1234,q0dh4
But their special stat states their lion fur guards them against arrows... Lies,GrabEmbytheMAGA,j7o37vq,fk4e8xl,"I agree. I play High Elves often and never can find a use for White Lions.

They aren’t heavy infantry, they aren’t really anti-infantry, they aren’t tanky, they aren’t a fast unit. So what are they? A mediocre, expensive, front line unit without shields? 

A cool looking unit, but the way they are now they add nothing tactically to the HE roster. I agree with other commenters, just make them elite, they will never work as a core unit.",fk1svg1,TitaniaDoyle,14o085mn
"You can just say post nowadays, people are confident that you aren't reading a post in the newspaper about this",GrabEmbytheMAGA,j7o37vq,fk4e1cg,"Hey, can I ask, how in the heck do you get warp fuel?

I saw an internet post about how they nerfed the chances last year, and I can't frickin get any!

How do you do it? At this rate, I can't even buy doomrockets, let alone upgrade anything in the workshop.",fk2vej4,nopointinlife1234,q0dh4
"Why not ask that about American shows, movies, universities, diversity hiring, affirmative action quotas also? 

12% of the population is black American, 14% at most. 


0.06% of the population is trans, ~4 percent LGBT, yet it's pushed into 80% of what we watch and see in ads.


I'm simply asking, because I've been conditioned to make sure we have colored diversity and it just wasn't right to see a group of black girls together without an Asian or white friend. I was concerned",GrabEmbytheMAGA,j7o37vq,fk1vq8h,">Are they not allowed to play with other people? 

Stop asking stupid fucken questions. 

Rather ask ""where is this place?"". Someone will tell you its in South Africa. Once you know that, then you can deduce that there's nothing statistically odd about a group of black girls together. 

Pretend its the most internationally diverse university in South Korea. Many people from all over the world. Would it be odd to you if you saw 8 Korean girls walking together at that university?",fk1tsnb,JoburgBBC,1w4z2r5z
Trevor Noah would like to have a word with you. SA is perfect.,GrabEmbytheMAGA,j7o37vq,fk1eue6,Because this is in South Africa and well it has quite a past you know,fk1d22d,DaddyNo6969,1x9gh5v2
"Yeah, they were probably straight from University and believe that trans persons make up more than 0.06% of the population and they are being strong ""allies""",GrabEmbytheMAGA,j7o37vq,fk0kqza,"They’re new people (at least to OP’s team) who are trying to change a work environment to something no one else seems to want. It’s stupid, the current work environment (at least in emails) doesn’t seem to be hostile. But they want to change it for what reason? So they know if they’re speaking to a man or woman? If in OP’s work gender has no relevance then it shouldn’t be stated.",fk09698,jaysoprob_2012,bqw321z
"in communist gay only america, we tell you what colors to like and your wife will have a dick or you will be labeled transphoebic!",GrabEmbytheMAGA,j7o37vq,fjvgdn0,Can people just not like colours now?,fjrkgh8,thegraveyardcat,hl5jn6i
it's a joke,GrabEmbytheMAGA,j7o37vq,fjvd98i,It's Berkeley,fjvarso,MtHoodSasquatch,5o6guvmv
" I am sure there will be many on reddit that will describe it as the  following:

* From *2016-2020*, we have had an administration weak on China and has allowed it. 

* From *2008-2016*, we had an administration that was brave and vocal enough to take on China (knowing it would bring temporary economic struggles); and bring to the forefront the problems we are facing by being so reliant on China. 

* From *2001-2008*, we again had an administration that allowed it. Very weak on China.

[Open Secrets on 2019-2020 lobbying](https://www.opensecrets.org/industries/indus.php?ind=H04) may help you make an informed opinion on the matter

[Top 20 recipients](https://www.opensecrets.org/industries/recips.php?cycle=2020&ind=H04) of big pharma.",GrabEmbytheMAGA,j7o37vq,fjt0492,Who's fault is that? Which politicians allowed this to happen?,fjsx725,lucipherius,bvumu
" I am sure there will be many on reddit that will describe it as the  following:

* From *2016-2020*, we have had an administration weak on China and has allowed it. 

* From *2008-2016*, we had an administration that was brave and vocal enough to take on China (knowing it would bring temporary economic struggles); and bring to the forefront the problems we are facing by being so reliant on China. 

* From *2001-2008*, we again had an administration that allowed it. Very weak on China.",GrabEmbytheMAGA,j7o37vq,fjsx570,Who the fuck let that happen?,fjsoc45,Cyril94,srek1pp
"Not creating big monopoly on medical industry in the first place, vote out the politicians that take in big pharma money. The answers might surprise you",GrabEmbytheMAGA,j7o37vq,fjsnkox,"I mean, how else is big pharma going to get a 10,000% markup on their medicine other than exploiting cheap labor and tax loop holes?",fjskvfh,Exitbuddy1,taj28
"> Last year, China accounted for 95 percent of U.S. imports of ibuprofen, 91 percent of U.S. imports of hydrocortisone, 70 percent of U.S. imports of acetaminophen, 40 to 45 percent of U.S. imports of penicillin and 40 percent of U.S. imports of heparin, according to Commerce Department data.

[source](https://www.politico.com/news/2019/12/20/policymakers-worry-china-drug-exports-088126)",GrabEmbytheMAGA,j7o37vq,fjsgb3t,">80 percent of Active Pharmaceutical Ingredients are produced abroad, the majority in China and India

It does not clearly say what percent is from China directly. And it isn't just the US that is dependent on China and India. 80% of all active ingredients are produced abroad (outside of US). So if they wanted to source meds from elsewhere, there would still be a shortage.

The overall issue of ingredients source ties back to an announcement India made last week that they will be halting exports of these ingredients to ensure that they don't run into a shortage issue.",fjsfx8v,islandz,dojbk
"they can price gauge or even halt the export of antibiotics.

the coronavirus is actually Chinese in origin, as are most outbreaks. Should be labeled as the Chinese Corona Virus. 

How did we allow the Chinese to have such a majority of our antibiotics? How long did they have this for?",GrabEmbytheMAGA,j7o37vq,fjsdekt,How?,fjsciyv,rowtahdpaw,2plgbveo
"why? to cause financial damages? That is a bit extreme and uncalled for. There are trashcans around, find them. if you are too in•com•pe•tent to find a trash can, then carry that in your hygiene ziplock until you do find one. Don't be ashamed. Don't tell everyman to go buy an extra trash can because you are so entitled to it. the very definition of ENTITLEMENT!",GrabEmbytheMAGA,j7o37vq,fjrkj1t,I hope every female who uses the bathroom at your house flushes their sanitary items down your toilet despite what they may be.,fjrk0do,Jonesyiam,9agtgmn
"Well, that is a bit too far brotha. Use the restroom but don't expect special treatment because you have a vagina is all I'm saying. Figure that shit out, don't tell all men to go buy a trashcan. How entitled.",GrabEmbytheMAGA,j7o37vq,fjreicm,"I mean, don't bother allowing people to use your bathroom at all.  Make them hit the gas station down the street with their natural body functions.",fjrd6kl,cfisi79,3pavg
"The blanketed every military husband/spouse as an abusive acholic and that the military will do this to people, she said this based on one instance of which was a personal one and didn't even explain to her SIL the context. So yes, she is the asshole in this instance.",GrabEmbytheMAGA,j7o37vq,fjplvfh,"She literally gave her opinion based on her experience. If you think that's being an asshole, then okay then bud",fjplh76,SparePartsSally,3vlkiywe
"She didn't give an honest one, she gave a blanketed term without explaining anything to her SIL. That in itself is asshole material.",GrabEmbytheMAGA,j7o37vq,fjpkceg,"What point are you trying to make? You say it's not for everyone, but also seem to think it's unfair that OP gave an honest description of her experience and let SIL know that it's hard and not for everyone. 
You're right, there are a lot of resources, but you don't truly know or understand until you've been through it. There are also a lot of resources about grief and losing a loved one, but you never know how much it sucks until it happens to you. 
You're also right in that it is not for everyone. SIL asked for an opinion and received one. It's not unfair. The military has the highest divorce rate of any career path and there is a reason for that. It's hard. It can really suck. And just reading through available resources doesn't prepare you for how much it can suck. OP was just being honest about her situation.",fjphqc2,SparePartsSally,3vlkiywe
"She didn't marry someone already in the military, they both made that decision and plan. There are so many resources out there for knowing how difficult it is to be a spouse to someone in the military. I believe it's unfare to tell the SIL that she couldn't handle it because she had a bad time. She also lays out the groundwork that all military spouses are abusive and alcoholic. Very unfair characteristic as there are countless more that are not and countless military spouses that are strong and hold the family together. It's not for everyone.",GrabEmbytheMAGA,j7o37vq,fjpgzt7,"She is, but I think she means being married to someone in the military is something someone who isn't would never understand. My husband is also in Navy. My life is just about 100% dictated by the military. If I were just a regular civilian, it wouldn't be.",fjpcl7q,SparePartsSally,3vlkiywe
"What about blackpeopletwitter, always using the n slur and talking down on other races

What about fragilewhiteredditors, it's targeted harassment of one single race and usually it's not even redditors they are highlighting, just targeted bullying?",GrabEmbytheMAGA,j7o37vq,fjnsh8o,racist sub got banned,fjno6s3,Steam_W0rks,21jby3aa
"he would need to win the democratic primary, then the presidency, then get enough votes to pass anything. Highly unlikely the first step is even accomplished.",GrabEmbytheMAGA,j7o37vq,fjnm7t5,What if they leave before he implements that law?,fjnanhk,gpu1512,no06eov
"https://www.vox.com/2019/7/20/20700841/bernie-sanders-minimum-wage-staff-pay

the internet is great isn't it? 

I was a Warren staffer, hated it and then moved unto Bernie's campaign. We don't make minimum wage with the hours calculated in, sorry honey.",GrabEmbytheMAGA,j7o37vq,fjl6rw1,"Lol, you have no idea what you are talking about. Practically every Democratic presidential candidate is paying every single staff member a minimum of $15 per hour. I actually work on campaigns and I have friends working for Sanders, but you can keep lying on Reddit to try and convince me if you'd like",fjl1e0c,im_an_actual_dog,c5bp8
"I would ask you to take notes anyday, what are top post any given day.

I'll give you a hint, it'll be political and it will be anti Trump. 

Reddit is a political congregate of news

You are willfully being blind",GrabEmbytheMAGA,j7o37vq,fjkwc4e,"Most people don’t use reddit for news lol. Get your head out of your ass. Trump dominated media coverage. https://cyber.harvard.edu/publications/2017/08/mediacloud

Take a look at that.",fjktmeg,excitedburrit0,3wjazx4n
"Because your argument is weak at best. You made a statement that is parroted without any statistics to back it up. However, when presented with a similar argument with millions of users on a platform, you now decline to make a statement on it. 

Has Reddit been advertising for Trump the past 3 years since his name has been on the front page everyday?",GrabEmbytheMAGA,j7o37vq,fjkhy6f,"Trump gained popularity in large part due to media covering him when he wasn't as well-known. I'm not saying anything else here, and I would agree that his campaign was a financial success. I don't really know why you're picking a fight with me",fjkgygo,Alto_y_Guapo,tpwxe
"https://www.opensecrets.org/overview/

or you really don't like the fact that democrats spend your money  and still lose at about twice the cost of a republican",GrabEmbytheMAGA,j7o37vq,fjke5e4,"Lmao imagine getting your “statistics” from an imgur link. I’m really fascinated by this; either you aren’t an idiot and you realize these stats are misleading and you are sharing them in bad faith, or you are a complete mouth breather who actually thinks this qualifies as a legitimate source. Either way not very good looks for you",fjkdnf8,zeusisbuddha,49ngj
"oh, here we go with this lie. So you think Reddit has been giving advertisement to Trump for 4 years? The front page has had his name on it EVERY DAY and it is NEVER good. Please, share your thoughts on this.",GrabEmbytheMAGA,j7o37vq,fjkdh1j,Trump had a big benefit of getting free advertising from the news,fjk8ama,Alto_y_Guapo,tpwxe
"the search bar is a universal tool that you seem unable to figure out

https://www.opensecrets.org/overview/",GrabEmbytheMAGA,j7o37vq,fjk5o0f,"Because the OP did source the statement. 

I clicked on the link you provided. None of the information in the meme you posted is on that page. Drill down and actually show me where I can find the information you purported to find. I want to know more.",fjk578m,new-man2,h0b2j
"https://www.opensecrets.org/

funny how there is no sources for OP post but you demand one for this. hmmmmmmmm",GrabEmbytheMAGA,j7o37vq,fjk480z,"There is so much wrong with this data that it is difficult to know where to begin. However, the most glaring thing to me is...

What is the source for this data?

What time period is this covering?

This is the sort of ""meme level"" trash that should be ignored until it is better sourced.

EDIT:  the OP fof the original post did indeed source the info. Here it is: https://reddit.com/r/dataisbeautiful/comments/fdttbg/oc_bloombergs_campaign_expenditures_compared_to/fjjpab1/",fjk3or8,new-man2,h0b2j
"[Act Blue](https://i.redd.it/df3am5t239k41.png) is a way for DNC to pool in money past maximum donations allowed and then divy the money off into ""small donations"". 

It isn't even authorized by a candidate or committee. 


Also, take note on how they ""verify"" you are of age to vote and are a US citizen. Just a trust system; an ""i promise"".

 It is a scam that needs to be investigated.

Grassroots donation is a load of bull. They have big donors using scripts to donate multitudes of times and everything is all pooled together anyways so that ACT Blue can manipulate and curate the data to the needs of the DNC.

Sanders doesn't even pay his staff $15/hr. Get your head out of the sand.",GrabEmbytheMAGA,j7o37vq,fjk3yts,"Pretty biased message there. It's funny how Beto is used as an example of being ""bought"". When his campaign was famous for getting grassroots support and being funded by small donors. The race was also well known because he was an underdog by a massive margin, so it's not a huge shock that he lost. It would have been a huge upset had he won, in fact. On top of that, Dems run very different campaigns than Republicans. Democrats use a lot more direct voter outreach like door knocking which costs a lot of money and requires a large amount of staff. Plus Democrats pretty much always have to pay their staff a minimum of $15 an hour or they look like hypocrites for wanting to raise the minimum wage but paying their staff pennies. That all being said, Hillary's campaign was still horribly run.",fjk2vda,im_an_actual_dog,c5bp8
"OP didnt mess up, they did this on purpose as a part of buzzing the whole lot of the hair off. OP is liar.

/r/KarmaCourt",GrabEmbytheMAGA,j7o37vq,fjk0chx,Big emphasize on the try part. How do you fuck up that bad?,fjja6oy,FlIMPIN_PINGSPONGS,1jzqdm6t
"according to the rules, the Democrats have two choices, (normal) is to donate all the money earned to the DNC primary winner or (unusual) save it for their next campaign. 

All the money earned will go to the primary winner. That is why they had 20+ candidates in order to collect as much money as possible",GrabEmbytheMAGA,j7o37vq,fjjzcn6,"1. everyone already knows hillary is corrupt, that’s why she lost 2016 and isn’t running this year, regardless of party. and when you’re running as a billionaire it’s easier to not need money from pacs and such since you’ve got more money than anyone ever needs

2. cruz was the incumbent so already didn’t need to put as much money into the race, and beto was trying to turn a red state to vote blue which means he would need to spend a lot more, and even your own image mentions that he didn’t take money from pacs unlike cruz 

3. the last graph is comparing 4 repubs to 28 dems and if you multiply the repubs spending number by 7 you get higher than the dems

i’m not even a fan of either party but these stats just had too many issues to not point them out",fjjz3l7,binb5213,4jfqdn38
"[Similar to this one](https://i.imgur.com/MqEXSE4.png) message being, Democrats aren't good with money.",GrabEmbytheMAGA,j7o37vq,fjjyike,"Yep, it's just a political message packaged as a chart",fjjvz12,desiAbsurdist,9mvo1aj
"Open Secrets has a good compilation of info. 

[I put together a comparison quick view of Democrats and the Republicans](https://i.imgur.com/MqEXSE4.png)",GrabEmbytheMAGA,j7o37vq,fjjyg45,"[Source](https://www.axios.com/mike-bloomberg-super-tuesday-bust-16a35376-95f7-425e-a5c1-bc78249c6553.html) for Bloomberg's campaign expenditure.

American Samoa GDP is from the World Bank.

Done in excel.",fjjpab1,JoeFalchetto,jws2v
[It is crazy how much Democrats spend](https://i.imgur.com/MqEXSE4.png) comparatively and still lose. But we should give them more money and let them be in charge of it.,GrabEmbytheMAGA,j7o37vq,fjjybkq,I am loving all the data coming out about this. Apparently he spent like $230k per hour running for president?,fjjs0kc,counselthedevil,4da00zjd
[Should probably look at the actual stats then](https://i.imgur.com/MqEXSE4.png) Look at how much money is in Democratic Politics compared to Replicans',GrabEmbytheMAGA,j7o37vq,fjjy85a,"That because trump’s whole campaign back then was ‘drain the swamp’ to get corruption money out of politics. Turns out he was a lieing sack of shit, but that’s not the point right now. That’s mostly why he was elected, because he lied to all of us. We wanted change and he was a wild card promising things that sounded good. Oh if we could go back and warn ourselves..",fjjxgar,DougTheBugg,bjrg0
[If you look at the stats](https://i.imgur.com/MqEXSE4.png) Hillary and the Democrats are the ones really endorsed by the billionaires.,GrabEmbytheMAGA,j7o37vq,fjjy4pw,Thats why trump is endorsed by the billionaires he is cutting the taxes for,fjjwkiw,Carlosmedrano,lzqr3
"better go hide, the bernie bros will be coming for you! 

[Act Blue](https://i.redd.it/df3am5t239k41.png) is a way for DNC to pool in money past maximum donations allowed and then divy the money off into ""small donations"". It isn't even authorized by a candidate or committee. Also, take note on how they ""verify"" you are of age to vote and are a US citizen. Just a trust system. An ""i promise"". It is a scam that needs to be investigated.",GrabEmbytheMAGA,j7o37vq,fjjxxfz,"So the conclusion there seems to be, why would anyone give 2800 dollars to a politician? I never get US politics.",fjjvuja,res1ghtNL,2qp44uo1
"A nipple or boob displayed at work... If you don't understand that, I don't even know",GrabEmbytheMAGA,j7o37vq,fjjwjtm,how is this nsfw,fjjmymp,Aok9999,2otflta7
Gib me money so Biden debates me... Imagine being that mentally ill,GrabEmbytheMAGA,j7o37vq,fjip7jw,I am once again asking for your support,fjiovsf,Tucker4prez_2024,3ergyjhn
make it two:  begging for it also,GrabEmbytheMAGA,j7o37vq,fjiouiy,Dems are good at one thing only: spending money that's not theirs.,fjiorgd,Tucker4prez_2024,3ergyjhn
"Yeah, that ex-wife deserves more than half the money he made! She worked harder for it than him.",GrabEmbytheMAGA,j7o37vq,fjguw8i,"That, along with the island in the Bahamas, and (I’m pretty sure) his divorce. That’s why he does any and every shitty movie that comes across his desk.

Edit: that being said, shitty movie or not, I still watch them. And I can’t wait for the one coming up where he’s playing a caricature of himself, similar to Jean-Claude Van Johnson.",fjggb11,Baduke,ec07o
