child_body,child_screen_name,child_user_id,child_tweet_id,parent_body,parent_tweet_id,parent_screen_name,parent_user_id
"FUCK YOU LADY, THAT'S WHAT STAIRS ARE FOR!",Gulrakruk,e1fpi,fkd226m,schadenfreude?,fkd0ibt,auxin4plants,4nkhi
"I had something similar happen except it was one game. I played Horizon for the first time a month ago, and as much as I loved it, I didn't like being on the struggle bus playing it on hard. I realized I had nothing to prove and dropped it to easy because I only really care about exploring and goofing off.

It made the game instantly better. Some people love the challenge and feel superior because they can beat shit on the hardest difficulty. I love looking like a badass from the get-go.",Gulrakruk,e1fpi,fkcuwpi,"I’m actually experiencing this with Nioh - I played the first one, it was difficult but I stuck with it and was able to beat the game, really enjoyed it. Now 3 years later, I’ve tried the various betas of Nioh 2 and I just can’t see myself wanting to sit down at night and bash my head against the wall in the form of super difficult bosses. It’s like my tastes have changed in those few years.",fkc11df,JRockPSU,4byex
You should look at his comments that he clearly posts in between tendies.,Gulrakruk,e1fpi,fk9uajn,"Woah there, I think you need to calm down",fk8wznt,JetFuelAndSteelBeams,mmj7g
Irreparable hearing loss from a gunfire at point blank?,Gulrakruk,e1fpi,fk911yc,"> could I aim a gun at you without consequence?

I have seen multiple people in this sub say yes, and even that you could pull the trigger and face no consequences if you miss, ""because what actual physical harm have you caused?""",fk8bzxf,NovaDeez,4j3nt
"No problem, BigPeenMcQueen. With your big ol' peen you'd have better luck with a Pringles can, a plastic bag, and some of that cumtube lube that those women who put fake horse peens up their hoo-has. Be careful though.",Gulrakruk,e1fpi,fjxur3g,Hmmm thanks for the information,fjxu9ps,BigPeenMcQueen,38ev8td8
I think the more accurate implication is that child rapists are more likely to be Republicans.,Gulrakruk,e1fpi,fjxokaz,"They implied it, though. It wouldn't be fair to ignore that.",fjxma8u,jtbrinkmann,o0t7i
"🎵HIS NAME WAS YODA, HE WAS A MUP-PET🎵",Gulrakruk,e1fpi,fjxm2s1,🎵 MUSIC AND BLASTERS AND OLD JEDI MASTERS 🎶,fjxktpb,fartmachiner,a6rqm
"Cool, your school showed propaganda that was pushed by big tobacco years ago claiming that. The big ol' problem with your argument is that diacetyl is what causes the popcorn lung. Here's the fun part; NO B&M VAPE STORE NOR ANY ONLINE STORE PUTS DIACETYL IN THEIR JUICE. Period. They literally advertise that it isn't in the juice. I'm sure there were in the past when vaping was starting up and small hobbyists were doing this all DIY, but every since the popcorn lung thing (which is at least a 4 year old argument at this point).

Source: 5 years of vaping, and 5 years of hearing this shit over and over.",Gulrakruk,e1fpi,fjwl30e,"Vaping is known to cause popcorn lung. My school showed sources (I think either the FDA or CDC was one of them?) in a presentation about the negatives of vaping.
Edit: Comments have proven that this is wrong.",fjw6jse,minestraightdown,3c95z7re
"Don't call yourself a libertarian, You make the ones who actually are look worse.",Gulrakruk,e1fpi,fjq1zx7,"I lived in San Francisco for 7 years. I’m not a republican. I’m more of a libertarian. I think gay people should protect their weed plants with guns. I’m all for civil liberty. But Jesus Christ I wish everyone would just pay their taxes, mind their own business and stop being such sensitive little pricks. I made a perfectly cogent point about the lgbtq movement. At this point they are just making it up as they go along and a lot of it encourages mentally ill behavior. Suicide rates among transgender people are astronomical. Because once you cut your own cock off and you still don’t feel comfortable in your own suicide seems like an obvious choice. The fact that people encourage it while being completely blind to these facts is abhorrent.",fjpjupt,AsianAnalParty,btjsb
"I'm not even rural, I live in the part of South Carolina with the highest population. That's what worse.",Gulrakruk,e1fpi,fjq0w46,"As someone in the rural south, yeah no, i know this to be a thing.",fjpyisc,Pancakes_Plz,68rcnr
"Because to conservatives (take with a grain of salt I mean my family and my personal experience), Basic societal competence comes from church and parents. You learn about everything you need to know from those two sources and that's it. You go to school to learn all the things that need to be applied for a career, but how to vote isn't one of those things. It's like sex ed in the south. They think the parents should teach it, and that if the school teaches it, it HAS to be the way they believe.

Social competence doesn't matter to incompetent people.",Gulrakruk,e1fpi,fjpxxta,One has to wonder why preparing a child for basic societal competence doesn't have a higher priority.,fjpxnid,Pancakes_Plz,68rcnr
"I would say you can keep it, but that's communism.

that'll be $5.99, you socialist.",Gulrakruk,e1fpi,fjpwndp,"> spoopy Bernard

My new favorite phrase lol",fjpwcav,seanarturo,aw78s
"Oh no, that's all terrible for my family. Do you have any idea how far America would fall if the government did that to them? They would be living in fear that the next day the big spoopy Bernard would come in and tax them 90 percent. Do they make millions? Hell no, But hey they would have free healthcare, which to them means that if they get sick, all the welfare queens and illegals would be getting treated while they suffered.

As for schooling, my mom is a elementary school music teacher and she approves of what her wonderful government is doing. They send my little sister to a public school because common core is conditioning kids into becoming communists. Their education is important because there is no seperation of church and state and those two things need to be taught together. 

And less pollution? Everyone knows that as long as it looks pretty where you live, there isn't any pollution. And even if there is, who cares? Just scoop it up and burn it. It won't produce global warming because god told them it wasn't real. He flooded the earth and promised to never do it again, so global warming has to be false. 

Get out of here with your rational logic, thinking they would win. They would be fucking miserable.

Which is a win for me.",Gulrakruk,e1fpi,fjpw3s1,"They would get better healthcare, better education, and a less polluted world.

That means they would also win.",fjps99w,seanarturo,aw78s
I took a goverment/economics class senior year and they didn't even teach us this here in South Carolina.,Gulrakruk,e1fpi,fjpt8si,We have Civics classes across the country. They are in 7th grade though so many kids don't retain that information through to voting age. It's sad.,fjpmbrb,Fastbird33,cewe4
"I lived outside Atlanta as a kid and rode on them a lot for fun.

Now whenever I travel there, I use them for getting around because It's so much easier. Would probably suck to live with though.",Gulrakruk,e1fpi,fjpqoeb,"Lol

MARTA is great if you live next to a station and you want to go to the other 3 stations in town that are next to something. Otherwise, it’s useless.",fjpinxh,boomclapclap,j2r2g
"He really is. If I'm sitting in my computer chair he will sleep on my arm regardless of if I'm doing anything and in bed he cuddles up around my arm wanting scratches.

He's a needy little thing and I love him.",Gulrakruk,e1fpi,fjpkp8i,He looks crazy happy to be your kitty.,fjpk983,know-one-home,3xuhrx7s
Hey you are almost completely right except for it was the crack epidemic instead of heroin unless there was something I missed.,Gulrakruk,e1fpi,fjpgij1,"It’s from a dubious claim that “black people make up 13% of the population but commit 50% of the violent crime”. What that ignores is that the police are more likely to arrest black people for things white people might get off with a warning for, and that the US government is on record as having planted heroin in black neighbourhoods to escalate gang wars. Like that’s not even a conspiracy theory there’s straight up documents saying they did that.",fjoafcp,Jtd47,51qzut
"I usually just browse all and checked it every week or so. I think it got really bad in the last 2 months. at first there were a bunch of ""N word"" posts, but the comments just got worse and worse to the point where they talk about not caring if trans people die and outright just copy and pasting the actual ""n word"" over and over. 

You can easily call it a parody, or satire or whatever you want, but when you are being so satirical you have 200 downvotes and nobody can tell you apart from the people that are obvious shitheads, you might be a problem.",Gulrakruk,e1fpi,fjpg4as,When did it shift? I only caught the front page memes that were highly upvoted so there is a selection bias. Part of the joke was saying “n word” (not actually saying nigger) as a tongue and cheek joke. But apparently it shifted from being ironic to actually racist. When did that happen?,fjo3tg0,duffmanhb,44qlk
"I just sat here for 2 hours going down the rabbit hole that was that webcomic, and some external stuff, a few AmAs and stuff.

What in the literal fuck.",Gulrakruk,e1fpi,fjg9mlm,"Anyone interested in seeing just how absolutely mental and messed-up conversion therapy is, check out the free webcomic *Joe vs Elan School*. It is an absolutely true story that can be easily verified. **Warning, this webcomic is no joke**. 

**[The first chapter explains how these places initially get the kids, many times by kicking down their bedroom doors in the middle of the night and kidnapping them](https://elan.school/rude-awakening/)**. Because once the parents, school, or state signs you up for it, this is now somehow legal.

Apparently, the leadership of these places also sees this as a good way to ""prepare them"" for the completely messed-up behavior-modification programs that they will soon be chucked into. Seriously, if you think you know, you don't. This is the kind of stuff you would expect to happen to political prisoners in North Korea.

It is eye-opening and horrifying that this stuff was, and still is, allowed to happen to kids, even as young as 12 and 13. And for-profit.",fjfhu8u,Wampirehunter,5j06l0yk
"I appreciate your honesty.

Much unlike your father, I am proud.",Gulrakruk,e1fpi,fj0pwkh,"I mean, I started playing Overwatch because of some awesome Tracer porn",fj0ngcx,brickmack,998zw
"Well now it's my current wow name.

Cuz I stole it. And I'm unoriginal.",Gulrakruk,e1fpi,fj05i27,thats his old wow name or something,fibyen3,Nikkibuh2,2ir3lj5x
BOAT JODIE WANTS YOU OFF.,Gulrakruk,e1fpi,fiz06cz,"Hinckley did nothing wrong. 


except for the weird jodie foster obsession.",fixvma2,Coruscant_Tourist,13comr
How do you type with such tiny arms?,Gulrakruk,e1fpi,fimgnef,"The movie actually subverts the white savior trope. 

Miguel and Tulio are completely ignorant of the Native’s customs, and the film takes great care to establish that the only reason the Natives of El Dorado believe they’re gods is because their arrival happened to coincide with a prophecy; not just because they’re white.

Also, the only reason Miguel and Tulio get as far as they do is because they have the assistance of a Native woman named Chell (she is still sexualized to a kinda problematic extent, though apparently this was Dreamworks throwing shade at Disney for their very disrespectful depiction of Pocahontas). While Chell eventually does end up with Tulio, she has a lot of agency doing so, and her and Tulio are depicted as equal partners in their relationship. She even risks her life to save him in the climax. So while it is a little problematic that a relatively sexualized Native character ends up with one of the white leads, I ultimately think that Chell and Tulio’s relationship gets a pass due to the fact that neither one has any real power over the other, and their romance is a mutual decision brought about by a genuine liking for one another. Plus, I think that interracial relationships are a good thing, and it’s always nice to see interracial couples getting representation from a film genre and industry that has historically been kinda hesitant to depict them.

The people of El Dorado are never depicted as Noble Savages or barbarians; and the acts of human sacrifice are inventions of their high priest and not an intrinsic part of their culture they need to be ‘saved’ from.

Also, eventually both the high priest and the chief of the city see through them. The City Chief decides to keep it from the public because he has taken a genuine liking to Miguel and Tulio, and because Miguel and Tulio help him depose the corrupt high priest (Who the movie establishes is deliberately twisting the laws of the local religion to siege power, and that the people of El Dorado are genuinely repulsed by his actions and attempts to instate human sacrifice)

It ends with Miguel, Tulio, and Chell all embarking on a new adventure together.

The movie is not without its problems, but it does manage to avoid a white man’s burden narrative. In fact, it almost seems to be a direct criticism of Pocahontas at times, and takes quite a few stabs at Disney’s whitewashed presentation of Native history.

And again, it’s nice to see an interracial couple depicted respectfully, which this film does well.",fil8c5g,an_actual_T_rex,156gl0
OH... HI RODDDD!,Gulrakruk,e1fpi,fimgidf,I was Rod in a production of that. I hadn’t listened to the recording in so long that I forgot he was in that song. I was so happy to be singing about porn in front of my family and strangers.,fikzh6m,SensualEnema,ea0zt
That poor space whale.,Gulrakruk,e1fpi,fim3len,Doctor Who did an episode with GB in space. Everyone country took their own ship. But Britain got lucky because they procrastinated and didn't leave til after everyone else did and they had to enslave the last space whale in order to put the country on top of it and ride it through space.,filxdv6,toby_ornautobey,343gmxr6
"You could not have worded yourself better.

Unlike your father, I am proud.",Gulrakruk,e1fpi,fim3adn,Where do you defecate and do laundry,fim0yse,redthunda69,4f6lr
"You just so happened to forget the most important bit of PT.

Oliver is very hot.",Gulrakruk,e1fpi,fijjglz,"*psst*

Come closer.

C’mon, I don’t bite. Not that hard, anyway.

I wouldn’t be helping you out if I thought you genuinely were hopeless.

Are you ready? Alright.

Flailing around trying to prove that you haven’t been lied to by telling people attempting to correct you doesn’t magically net you a civil, calm discussion, and acting like it’s they’re fault that you stepped up to plate only to trip up on your oversized clown shoes. You only have a handful of options here, and I don’t think any of them will sit well with you:

- Accept that an economics class teaches you gold-plated game theory and very little else, and especially not about worker’s rights. I can attest that most points brought against you are backed up by either a study or observing countries where the changes described have been around for decades.

- Instead of whatever the fuck your original statement was, phrase your question into how we do things in a way that’s non-combative, and don’t edit out of anger just because you’re losing. I made that last mistake not terribly long ago myself, and taking offense to being mocked only begets more mocking.

- Go somewhere else to pick it up the knowledge of how we tick instead of shoving a hand in the beehive. r/BreadTube is a good general source of our general beliefs, and I’d personally recommend  a channel covered by them named PhilosophyTube, who has a wealth of other videos that are generally apolitical by comparison (while his Jimquisition spoof is probably most accurate to the problem at hand, he has videos on, say, the philosophical stances on how time works, or explanations of Kant).",fij7038,CueDramaticMusic,ykf5b
"The giveaway is that he mentioned Shoe, who is a youtube that is fairly popular in the ""Anti-swj"" crowd (pretty funny considering she's a big Bernie Sanders supporter). They are the type of people who label themselves anti-feminists, were a big part of gamergate and who probably could have gotten swayed to vote for Trump. I got out of that part of the internet pre-Trump as I got older, so I kinda know the headspace the guy is probably in.

One of the big things about being in this crowd is that they are fueled by outrage. And one of the biggest things is and person that isn't white saying all white people are the evil, another is that feminists want to kill all the men. These are said by people on twitter and tumblr by people who aren't taken seriously anyway, only getting a few retweets and likes, usually people who are mad at some perceived injustice or whatever the reason is. If you don't follow the ""anti-sjw"" crowd, you will probably not see this kinda shit often. 

It should also be mentioned that this exact unpopular opinion of gender double standards when it comes to teachers and students is one that is incredibly common and is incredibly popular. I don't know a single person that would say that if this happened it wouldn't be ok, and I only really associate with people on the left. So it's more of the same putting fairly popular opinions on a sub that's dedicated to posting unpopular ones.

TL;DR: OP is probably a teenager fueled by outrage culture on twitter and youtube and thinks that the people on the internet represent the entirety of the people on the left. Also politics, because it infects everything.

Edit: fixed a sentence in the tl;dr",Gulrakruk,e1fpi,fijh7u2,Not disagreeing with your point but I’m curious as to why race is emphasized in your second hypothetical scenario and not your first,fijb6qu,apark4,1llrm8o5
"He probably transferred in the later years of high school. My best friend went to the same Christian school from k-9 and spent the last 3 in public because all of his friends went there. Which is good, because it socialized him. Now he is the coolest guy I know.",Gulrakruk,e1fpi,fij8mc7,"If he went to a private Christian school, how did you have a class with him? Did you also go to said school?",fij6m9j,tripleHpotter,d3ngfgh
It's the only one they will ever need.,Gulrakruk,e1fpi,fiixwow,I wonder if he sent out a motherfucking invitation?,fihpjgm,Mackem101,a1g3t
"Look up the southern strategy in the Nixon era.

https://en.wikipedia.org/wiki/Southern_strategy",Gulrakruk,e1fpi,fiis19n,"When did they switch, name the president or date",fiik404,activiss,39mtwl1u
"I think my favorite little surprise is that Watsky is so high up there. He's just out there makin' music whether we're listening to him or not and he is pretty high up on the list too.

And I was surprised to see NF so low. I've literally never listened to him, but all the hype I hear around him is how he is a great lyricist. He may be, but it may not be varied? idk.",Gulrakruk,e1fpi,fiioidg,"I've looked at this list a few times since it was released and I still find surprises   

Like I didn't expect DOOM to be as far up there but it makes sense, and I didn't think DMX had so few, but it's heralded as a top NY emcee of all time.

Edit: Shit, going over it again, I would have assumed NF would be higher... Yachty has a higher vocab than NF, thats wild",fieh6yv,DrunkUncleJay,12vetgt4
">You came here illegally, broke our laws, then no healthcare for you. 

Would almost be a good argument if they didn't pay taxes at all. However, considering they contribute here, until we make it illegal for them to get jobs as opposed to just hunting them down and kicking them out, they can use the system for all I care.

>Apache helicopter

Here is where you lose everyone. This dogshit meme is old and shows you don't really have any intention on debating in good faith.",Gulrakruk,e1fpi,fiima1h,"I'm confused though, most of the left is saying we should stay out of the middle east and stop being the world police. Shouldn't we stop being the world healthcare-provider too? It's not our job to provide for everyone, we'd be bankrupt. You're a citizen, you pay taxes, here's some healthcare. You came here illegally, broke our laws, then no healthcare for you. 

Also paying for sex changes doesn't sit well with most Americans, that's a fact. If I say I want to identify as an Apache helicopter, are you gonna pay for me to get rotors attached? I'm a human and I want it, so please pay for it.",fiiinbd,kekest_toppest,5h37rc0i
"Well, compare anything Hopsin has made to anything Kendrick has made. It's pretty simple. Hopsin is basically the ""guy that stands out and tells it like it is and isn't afraid to go against the grain of hiphop"", which is utterly cringy. He has a few fun tracks here and there, but he is probably the most overrated rapper out there that is mostly promoted by his 14-18 white demographic who buys into his fake woke bullshit (basically the black Lil Dicky). Compare Ill Mind 5 to Backseat Freestyle, one is about how different he is and how he knows all the answers to the worlds problems but nobody will listen to me (side note: how terrible is that second verse like god damn r/niceguys eats shit like that up). The other is a brag rap that is everything that people who hate MaInStReAm RaP shit on, but they miss the context of the album; that it's all from the perspective of nostalgia and being a 16 year old kid having fun freestyling in the backseat.

It is also bar for bar a better song than ill mind 5. 

Here's Hop.
>Girls, stop actin' like you want a guy

>With traits like Romeo — bitch, that's a fuckin' lie!

>You always talk about how every man's fake and you can't take it

>And you want somethin' real — shut up, tramp, save it!

This one is Kenny.
>I've got 25 lighters on my dresser, yessir

>Put fire to that ass, body cast on a stretcher

>And her body got that ass that a ruler couldn't measure

>And it make me cum fast, but I never get embarrassed

So if we're going for rhyming style, give it to Kendrick. He is pulling off multiple rhyme schemes in 4 bars.

Hop goes with the typical AABB, not bad for the first EP or a few ill minds, but 5? Have you learned nothing, Hop?

If we're going for content, also gotta give it to Kendrick. His is invoking nostalgia for a time he will never relive. Hopsin is basically throwing his opinion down your ear canals for a few minutes. 


Kendrick Lamar wrote Good Kid Madd City which is objectively better than anything Hopsin has ever put out there. It actually manages to tell a story, that even though is cliche, is pretty unique considering the motif of the car that is on the front of the album. It also manages to discuss politics and social situations in a way that feels well thought out, as opposed to Hopsin telling the world how great he is. One talks, the other shows. I think Kendrick can be overhyped, I don't think DAMN was that good, and I did all that without even mentioning TPAB.

I Need Help still slaps tho, I'll give Hopsin that.",Gulrakruk,e1fpi,fidmo4p,Please provide counter-arguments,fidih42,Rmanolescu,sc044
You should get out of that bubble and listen to better rap music then. It's very easy to do it.,Gulrakruk,e1fpi,fid6y1t,"I mean what really is the reason to listen to some random dude in a monotone, droning voice trying to diss someone while rhyming? Yo mama jokes with beats basically. I don't need that shit in my life. I prefer to listen to skilled musicians.",ficqt8d,bratoutofhells,21huh8tc
"Hey fun fact. That dude has been updating that list over the years, so you should check it out.

https://pudding.cool/projects/vocabulary/index.html

I'm not shitting on your or anything, I just love checking this list out every few months.",Gulrakruk,e1fpi,fid6cx3,[These rappers ](https://mashable.com/2014/05/05/rapper-vocabulary-chart/) have a larger vocabulary than Shakespeare.,ficn9hb,saturnchick,19lopmk
">Hopsin

>K.Dot is overrated.

lmao.",Gulrakruk,e1fpi,fid5qga,"Aesop Rock, Immortal Technique, Astronautalis, Grieves, Hopsin. 

Name one smart thing Lil Wayne said. Kendrick is overrated.",ficpw4e,Rmanolescu,sc044
"Close, the correct answer was these two shows AND The Drew Carey Show.",Gulrakruk,e1fpi,fi3368u,This and Frasier are the two best-written sitcoms ever,fi1n2qe,no_morelurking,n9jai
"He is the best filling for a purr-ito, hence why I have so dang many pictures of him.",Gulrakruk,e1fpi,fi2ibd6,Purr-ito,fi2i6pm,StarLightDot,3e0f7y1p
"Jus' remember, don't go ninjy'n anything ain't worth ninjy'n.",Gulrakruk,e1fpi,fi2hwhr,"Now don't go-a karate kickin and a judy chopping. Next thing ya know, der goes yer leg",fi2ga5w,Melloverture,4vemo
"Excuse me sir, the correct pronunciation is A-JUDY-CHOP.

This message was brought to you by Diamond Dave's Ninjy School.",Gulrakruk,e1fpi,fi2ag38,"""Judo chopped""",fi21fku,drones4thepoor,gdhon
People all moved on to Kia Souls.,Gulrakruk,e1fpi,fhk7f88,"What happened to all of them?  Five years ago they were everywhere, and now i never see them.",fhk54ch,DingleberryDiorama,2y13z0ni
That joke is very tone deaf. Make something more appropriate.,Gulrakruk,e1fpi,fhk6a50,"Well that's why you're deaf, silly! You've got your ears in the wrong place!",fhk5zpr,Bootyhole_sniffer,ce8z0
It's what it looks like when you turn it off.,Gulrakruk,e1fpi,fhk64vq,u/gifreversingbot i am just curious,fhjhbpb,lexanderc,cwf2ntz
"When you're not around he is wishing he was on a boat made out of Jodie Foster.

EDIT: You know, as soon as I posted that, I realized that not too many people watched the show I was referencing.

https://youtu.be/khtc5MXPEwo?t=749",Gulrakruk,e1fpi,fhjt0bn,yeah some old guy told me i look like jodie foster and she was on the wall of every teenage boys bedroom back in his day,fhjfc2i,GanondorfCanGetit,31c2z2lc
You just changed nobodies world because we have all been doing this for 20 years.,Gulrakruk,e1fpi,fhjgy8j,"Wendy's frosty and a large fries.  

Dip the fries in your frosty. 

I just changed your world.  

Enjoy.",fhi8gm8,dirk_frog,bdjb6
"No spoilers but IMO it's the best ending to any show I've ever watched period. I'm pretty biased, though.",Gulrakruk,e1fpi,fhjew73,What?!  Omg! I thought it was next week!To Netflix!,fhjdfxo,WillaBerble,ns9aq
"You already said it but in case people didn't know.

He played Oswald on The Drew Carey Show. Which is one of the best characters in one of the best sitcoms ever.",Gulrakruk,e1fpi,fhhgqjl,">The actor who plays Judah

I know this is the BoJack sub but have some god damnn respect, this is Diedrich Bader.

He played Oswald on the Drew Carey show, Hoss Delgado in The Grim Adventures of Billy and Mandy, and even goddamn Batman in the Brave and the Bold.


Dude is a legend and is more then just ""The actor who plays Judah"" (which he was awesome as)",fhhc2vw,Gooflactus,599qn
Conservative?,Gulrakruk,e1fpi,fhgefj5,You know how facebook moms are,fhf92un,HingleMcCr1ngleberry,22o7ulcq
Afaik they see each other for 2 week intervals every 6 or so months. They got that long distance locked down.,Gulrakruk,e1fpi,fh7rm1i,">see each other every year twice and have been together for almost a decade.

Unless that's like twice a year for a couple of months at least, that sounds insane",fh7r63s,ikwtif,eabiw
"Yo apparently everyone in SC here is volunteering, so I got Spartanburg/Greenville covered.",Gulrakruk,e1fpi,fh7gpie,"I’ve got a hug for you, if you’re ever in Charleston, SC",fh63q3c,jblank84,34dp5x1
"Hey how do I say ""Come get a load of this guy"" I have an idea for an international sperm bank.",Gulrakruk,e1fpi,fh7etyj,"이 멍청이는 신경 쓰지 마세요 is the right phrase. You said ""look at the fool please""",fh7cjde,EnglishMajorBTW,4nalzru2
"American taking a guess.

Does that mean ""and that's the truth""?",Gulrakruk,e1fpi,fh7epo7,"Different languages, different idioms.
If a german says ""...and thats the yellow of the egg."" Americans wont understand what he menas.",fh7cq79,Bob_Alloy,brt4u
"You really think that all illegal immigrants don't pay taxes? They pay billions of dollars every year. Of course there are some that are not going to pay any and work under the table, but don't tell me you don't know a single person who has ever worked under the table who is a citizen. There are quite a few illegal immigrants who work where I do, and they are making the same money and paying the same in taxes. What's more is that they can't even use any of the benefits of the taxes they are paying into. If you are gonna have an opinion on something, do some research instead of gargling conservative balls.",Gulrakruk,e1fpi,fh77hvn,"So I will just say it in very simple terms and also I will shorten it a bunch. They are the exact same ting except for one major difference. Taxes. They are not forced to by law to pay taxes to the government because technically they are not citizens. The issue with this is regular citizens taxes with rise because of the left thinking it is a right for illegal immigrants to have the same government funded stuff as legal citizens, for example a very left wing idea that illegal immigrant children should have free education. And who is going to pay for that? The average citizen. That’s the only difference but it is a big one especially applied on a bigger scale and not just an individual. But now I am going to be labeled as a raciest idiot who obv knows nothing and just can’t understand what it would be like fucking other people up",fh6vjgq,WolfsniperYT,27pq526q
SCOTT BAIOOOOOOOOOOOOOOOOOOOOOO,Gulrakruk,e1fpi,fh74fww,What about Scott Baio?,fh6x81z,Cobra-_-Commander,2nccqc2p
"What's even funnier is not only do you not understand sarcasm through text, you attack it like you are somehow better.",Gulrakruk,e1fpi,fh6in1j,"omg you suck shit at every facet of your meaningless life, end it.
lol @ you thinking youre a smartass...
...some more emoticons should win your pointless argument yeah thatll do",fh4xve7,moria0,596m5sil
"Wow that's total discrimination. White people are mistreated because of fictional characters.

Might as well open a sperm bank, because everyone needs to come get a load of this guy.",Gulrakruk,e1fpi,fh6iipv,"Easy example is they can turn any fictional character from white to black (Nick Fury, Gordon, Mary Jane, Valkyrie, etc) but they will NEVER do the opposite and make a black character white (black panther, blade).",fh4pomy,Darth_Vorador,yfs5z
It wouldn't be nearly as good but I think Bernie Mac could have done a great job in the role. Not to the caliber of Jackson though.,Gulrakruk,e1fpi,fh5y7pm,All of his roles in Tarantino films. Imagine someone else in his role from Django,fh5s3gc,manism,4rh8t
https://www.youtube.com/watch?v=9zYT5hQR4Q4,Gulrakruk,e1fpi,fh5xuhe,"Wasn't that supposed to be Chris Farley originally?

The Google machine tells me he voiced nearly all the lines before he died.",fh5iird,stupidlyugly,4ason
"It may not be his best, but I really love that movie.",Gulrakruk,e1fpi,fh5vhpa,"  

[Sidney Young](https://www.imdb.com/name/nm0670408/?ref_=tt_trv_qu): What's the greatest film ever made? 

[Alison Olsen](https://www.imdb.com/name/nm0000379/?ref_=tt_trv_qu): It's hard to say. I mean, I personally love La Dolce Vita... 

[Sidney Young](https://www.imdb.com/name/nm0670408/?ref_=tt_trv_qu): \[Imitates game show buzzer\] Incorrect! 

[Sidney Young](https://www.imdb.com/name/nm0670408/?ref_=tt_trv_qu): \[Continues, dead pan\] Con Air. 

[Alison Olsen](https://www.imdb.com/name/nm0000379/?ref_=tt_trv_qu): \[a bit perplexed\] I beg your pardon? 

[Sidney Young](https://www.imdb.com/name/nm0670408/?ref_=tt_trv_qu): Con Air, right? It's got everything, hasn't it? You know, you've got  Malkovich for your acting chops, you got Nicky Cage for your action,  Steve Buscemi for your comedy, John Cusack for the gays. Right? It's  like a smorgasbord, isn't it?",fh3eor3,CorpseeaterVZ,heq1l
"Stay strong. I have some friends who met in wow, One is in the US and one is in NZ and they see each other every year twice and have been together for almost a decade. That shit can work.",Gulrakruk,e1fpi,fh5uj25,"i met my gf online, playing a game, was just using the in game chat, she added me, i thought it was a guy, talking for a while in game having a genuine good laugh just connected with this person, she asked if i had discord, added her, she was like please dont be a creep i dont add guys (just uses it to keep on contact with college friends) i thought it was weird thing to say (she didnt mention she used it for college friends, so just thought she never talked to other people on it) but whatever, asked if i wanted to webcam chat i said sure and thats when i realize shes actually a really attractive woman and i couldnt talk at all i was frozen not knowing what to say. we have been together for a year met each other twice (month stay there and she stayed here for a month) talk every waking moment, neither of us go out to drink or anything so 7 days a week we just talk and watch movies until she finished her course and then we haven't decided whos going to try migrate country. So it can happen but rare.",fh519s9,ixlHD,ar7e1
https://giphy.com/gifs/golden-girls-blanche-devereaux-QgfDrL9Rd3lV6,Gulrakruk,e1fpi,fgl13zx,He talks about some [pretty sexy stuff](https://www.youtube.com/watch?v=STFAzuCxAXE) every so often.,fgky82c,Rammite,a9rny
Crush of the century right there.,Gulrakruk,e1fpi,fgkuysv,"A fact that bothers me incessantly.

[Thank the lord that Brian David Gilbert is here to save the day.](https://www.youtube.com/watch?v=Q-25c8Rsobw)",fgjsb7f,Rammite,a9rny
Kung Pow is an actual goldmine of quotes that I never stop making and people never get.,Gulrakruk,e1fpi,fgi9ij1,"The movies ""Hot Rod"" and ""Kung Pow""",fgh7h8w,LoveScore,f3la7
He was almost correct up until that last sentence. 28k is what someone would be making post taxes.,Gulrakruk,e1fpi,fgi20t5,"What math class did you take? 

(15x40)52=31200",fghyqrn,p80builder,3rmq4tqt
Benadryl Caughtacold is my new favorite name.,Gulrakruk,e1fpi,fghgq0l,"Agree. I cannot even imagine how they cast Will Ferrell as Holmes. After being graced with such actors as RDJ, Benadryl Caughtacold and even Johnny Lee Miller playing the enigmatic character, who in there right mind thought Ferrell could pull that off? It was a huge disservice to the Doyle's character and his fans.

I was actually looking forward to another take on Sherlock but had my reservations. Watched approx. 10 min before walking out, and that was me giving it 5 more minutes than I needed. First time I've ever walked out on a film.",fghfi8a,Mojothewonderdog,10tvtw
"What's even crazier is just how well known the 2 main characters are in the VO world from movies 2-7.

The guy is fucking JoJo.",Gulrakruk,e1fpi,fghfthe, [https://en.wikipedia.org/wiki/Alpha\_and\_Omega\_(film\_series)](https://en.wikipedia.org/wiki/Alpha_and_Omega_(film_series)),fggokfh,madogvelkor,8dwnq
"Hey you're in the wrong sub, you can find Disturbed and Five Finger Death Punch elsewhere.",Gulrakruk,e1fpi,fg38t8y,Soyboy music.,fg37zm7,homelessjedi06,a4phy
"Oh my God, I scrolled down and you got even worse.

Do me a favor. Get down off that cross, use that wood to build a bridge, and get the fuck over it. You care too much about what other people are doing and you look stupid.",Gulrakruk,e1fpi,fg2vj5v,"Language is being obfuscated by slang and bullshit.  It's depressing.  I wish more people spoke in the real world like people speak in books.  I hate how stupid the world is becoming.  So many vapid dimwits running around trying to be influencers in social media.  So many people that only care what the vapid dimwits are saying.

&#x200B;

Edit: Your downvotes only serve to illustrate my point.",fg13dn8,vanzir,9hpjb
"Man, you must be so fun at parties.",Gulrakruk,e1fpi,fg2vh2l,It's an unpopular opinion.  I don't mind being unpopular.  I prefer it that way.  I would rather not be surrounded by the moronic masses.,fg13mno,vanzir,9hpjb
"I used to be Punk/Ska/Metal and then crossed over into hip-hop mostly.

And I had no idea KB will be collabing with Idles. Holy fuck that's sick.",Gulrakruk,e1fpi,fg2fgge,"Kenny beats working on their next release too 

Used to be a punk kid and now I'm kind of into hip-hop? I guess? Not my all time favorite genre but definitely into it, so the collab is going to be tight (I know Kenny won't actually throw like 808s on an idles album but the influence will be there)",fg2epx8,meme__creep,1204ru
Man I love this comic.,Gulrakruk,e1fpi,fg1zzgj,Same energy: https://i.kym-cdn.com/photos/images/original/001/330/819/e47.png,fg19j2t,ItsLegitimateSalvage,2rhjvk1c
"I say this everytime I see their name on reddit.

Joy as an Act of Resistance is one of the best albums period.",Gulrakruk,e1fpi,fg1zwhk,Big up IDLES an absolutely important and fun band.,fg1o81y,roryr6,97hxu
"JIMBO AND BOBBY ON TWO.

I liked their skits when I was a kid, but man now... Cringe.",Gulrakruk,e1fpi,ffzhk7k,"Mine had two annoying unfunny rednecks (The Big Show with John Boy and Billy) and two annoying unfunny bigots (Walton and Johnson). Granted, I live in the deep south.",ffy2pbt,blaqsupaman,h2p54
Idles is the best thing to happen in a decade.,Gulrakruk,e1fpi,ffzhdwa,"Absolutely, that's what I believe. I can name a dozen more ""underground"" modern acts that completely embody the classic spirit of rock music. Honestly, rock music going back to clubs, theaters and garages was the best thing that could happen to rock. Stadium rock killed the genre, and bands like King Gizzard, Ty Segall, Thee Oh Sees, Parquet Courts, Mac DeMarco, Idles, Algiers, Young Fathers, and many more represent a much needed indie revival. It's bands like these, that have inspired people in their 20s to pick up an instrument and play music again.",ffxw4fp,koreanwizard,exg5u
"wait, hol' up. What in the fuck is FuckJerry?",Gulrakruk,e1fpi,ffptr29,"Who is it that you think sold out here? Isaiah Mustafa has been the face of Old Spice for years now and Dude With A Sign works for FuckJerry/ Jerry Media, which is a huge advertising firm. 

Neither were ever widely known for anything other than things related to advertising (although Mustafa played in the NFL for a bit). 

Personally I think it’s an interesting branding move for both of them.",ffp8a75,jamiro_,2ee7vypm
"Man I was in the same boat as you, except Kohls was for clearance only. I got everything else from goodwill.

And they are close to that. I just went to their website and put together one outfit that was about 130 with no sales. And that's just underwear, pants, a hoodie and a shirt.

You can call it 115 without the underwear, but being in theater, I saw a ton of dudes in boxers and I saw a ton of hollister boxers. It is weird, but that was actually a thing in my school, cool underwear.",Gulrakruk,e1fpi,ffptk61,"Were those Hollister outfits $150 a pop? It's totally possible I just don't remember it because I never got that shit. Family was not wealthy enough for that kind of spending, I got hoodies from Kohls and that was enough.",ffpqumx,ChillFactory,bjz66
"I went to one. I live in upstate SC and the town I lived in is a suburb of one of the bigger cities here. They currently have

3 elementary schools that are k-3.

a 4-5 building.

they had a 6th grade building when I went to school, but closed it and moved over to the jr. high building.

a 7-8 school.

a 9th grade campus 2 miles from the high school.

and a 10-12 high school that has been expanded on since I have graduated and I'm pretty sure they built a new school entirely. It's ridiculous how many people live in such a small are.

And I went to one of the smaller ""big"" schools.",Gulrakruk,e1fpi,ffpptuy,Is there any reason? I mean I feel like it ends up costing more to run all these separate buildings rather than just one big one,ffpnkpn,JabbaDaHut05,1rss0sy4
"These days? How old are you? I was in high school over a decade ago and it was still the same thing. It was like that with the explosive rise of mall ""prep"" brands from when I was a teenager. Hollister blew the fuck up and everyone had to have it, same with A&F, Aeropostle and American Eagle.

These things don't change.",Gulrakruk,e1fpi,ffpp2r5,"I don't blame the kids, they're just trying to fit in. Parents out there throwing away $150 on their kids shoes when they are just gonna trash or outgrow them, it's a waste. Fitting in is more expensive these days, smh",ffpo3zk,ChillFactory,bjz66
This place usually attracts a certain group of people. And those people don't really give a shit about gay people.,Gulrakruk,e1fpi,ffpnwti,"no clue why this is being downvoted, this is the biggest and most relevant objection to chick fil a. they actively funded the “kill the gays” bill in uganda. fuck chick fil a, just eat at popeyes instead",ffpgnqr,Dachyshun,2i6rtu19
"I think that all of that is very interesting, however I think my questions went misunderstood.

I meant from the workers stand point. Would coal gasification or turning coal into gasoline be something that could add to the 20 year estimate? Or are people in coal mining towns in the middle of nowhere in WV or KY even more fucked? It seems that the only job prospects in those kinds of towns are the mines or the stores that people sell shit to the miners. I've seen a lot of small towns in those areas where those kinds of jobs are the only kind they can get and they either can't afford/won't move to other places.

Are they just going to die?",Gulrakruk,e1fpi,ffpluoc,"great question! I'd be happy to answer that for you, the operators know how much coal is left, they do all sorts of research before they start mining and there is an ""estimate"" of the reserves, surveys on how much of an environmental/ecological impact the mine will have etc. Long wall mines are around 20yrs if they don't ""run"" more coal annually then they estimated, realistically you see 14-20. a normal room and pillar mine can see upwards of 40 years. it's all in how the mine operators want to run things.

letting the coal ""run out"" is a much better outcome economically speaking for the workers and area combined, than just shutting down coal mines and switching to something else.

I personally think it'd be worthwhile to research the process of coal gasification or turning coal into gasoline and eventually ween ourselves off fossil fuels in general. I don't think we are totally done mining, but we might be in the traditional sense of men and machinery underground together.

China has a ton of coal and they are the ones responsible for MOST of the polution, our clean coal is very clean with the use of scrubbers which are already set up across the country, the Obama administration tried to implement a 1% emission standard which is almost impossible to attain. your car puts out around 3.5%.. 1.5-2.5% is the normal for power plants, depending on the sulfur content. I believe wholeheartedly, Obama WAS doing this to kill coal and to send our country into a downward spiral from an economical crash.",ffpisjt,digndeep90,3bn4l011
"I have a question since you are an ex coal miner. 

There is only a finite amount of coal in the world, and America doesn't have mines for all of it. What would you guys do when those coal sources just... run out? I'm not trying to be shitty or divisive or anything, but studies show there are roughly 150 years of coal left and less if there was a push for the clean coal iniative.",Gulrakruk,e1fpi,ffpb6wu,"fair enough, however as an EX coal miner and knowing how the job loss has affected our local economy, I cannot say that a ""cleaner energy"" source with nothing to replace the miners good paying ($120k/yr with no degree) jobs in coal areas is a good idea. that and nursing is all that makes up our area. take away the coal jobs and everyone loses. I saw the signs that it was dying out, and got out in September, currently going to school for welding.",ffp771j,digndeep90,3bn4l011
"Oh no, it's one hundred percent that they mean liberals. Do you not remember all the garbage they talked about during Obama? I heard for years that he was the antichrist. Before him, it was Oprah for some reason. Now it's probably Hil-dawg or AOC.

It's not that they hate liberals because they think they are communists, it's because they think they are EVIL communists.",Gulrakruk,e1fpi,ffp63hl,"Or ""god forbid"" a liberal.",ffoiffy,walkstofar,14haq2
"I wasn't even born when that song came out and I remember people singing it that way in middle school. It's awesome how some things can travel like that, especially pre-widespread internet.",Gulrakruk,e1fpi,ffp5261,"I was in 4th grade when this came out. We used to  change the lyrics to 

“We’re gonna walk down to Kmart to buy some shoes. They only cost a dollar.” 

For some reason this was hysterical.",ffob2st,PoopAndSunshine,9i40a
"It's just so bad. 

So many of his tracks are so bad.

But I just love him.",Gulrakruk,e1fpi,ffoqs1j,IM MORE CRAZY THAN A SHORT LADY TRYNA GIVE BIRTH TO 84 BABIES,ffoo2g7,AidenLenhart,3yvu3nli
Oh you sly son of a bitch.,Gulrakruk,e1fpi,ffm9gvf,"To be fair to the English language, the GOP also wants money out of politics.",ffm96k7,amolin,3k50b
His polka medleys are some of my favorite music ever. Especially Polkamon,Gulrakruk,e1fpi,ffl31v9,"He's best known for parodying specific songs, but he also writes a lot of original music in the style of other musicians, and does it really freaking well.",ffkhtlz,candygram4mongo,40fkv
That's awesome. I really liked the duet he did with Darci Lynn. Hope you guys have a great time.,Gulrakruk,e1fpi,ffko2uy,"Also, Terry Fator at Mirage

My husband is dying to see Piff. Getting him tix for his bday next month.",ffklq9o,ksboyd20,9qtsa
Piff the Magic Dragon would like a word from you.,Gulrakruk,e1fpi,ffkeknn,"Understandable, but Tapeface was probably the best guy ever to be on that show.",ffjo0y0,Markster94,fd7de
"MY BRETHREN. I do the same thing.

I also grab where the glasses fold with my middle finger and thumb and push them up too far and then wrinkly my nose to slide them down into the correct position.",Gulrakruk,e1fpi,ffk1562,I didn’t say you look beautiful doing it,ffjt3kf,dannyboy6657,i659d1b
This sub has gotten worse with people from TD since it got quarantined. You mentioned something that could possibly be damning to Trump. Them downvotes were bound to happen.,Gulrakruk,e1fpi,ffjw1t4,I was just sitting here expecting to have to dispel a bunch of bullshit but apparently a misleading red flag law title is more interesting. Kind of amazed at the lack of downvotes though.,ffjr19d,Based_news,dxw897q
"He is legend is another kinda tough one if you aren't open to how radical their change has been. Their first album is kinda my personal holy Grail of post hardcore punk and really seemed to be a big influence around where I live. Next album is fucking dirty southern metal riffs all over the place. And then they kinda go in a completely different direction after that. Hard rock straight into weird blues psychedelic rock and their newest album is closest to the second with that grimy riff feel.

Also Obzen is one of the greatest metal albums out there.",Gulrakruk,e1fpi,ffib4nl,"Haha, no judgement! 95% of what I listen to is metal but most people would give me odd looks if they heard some of my guilty pleasure music. But my philosophy has always been, good music is good music, regardless of genre. 

I’ve tried getting into He Is Legend. There’s a couple of songs from them I dig but they just haven’t hooked me yet. But you never know when something will finally grab your attention. I knew some songs from Gojira and Meshuggah 15 years ago but never got into them. Now I’d put them both in my top ten favorite bands. 

Interested to know what you think of Low Teens! And I’ll dive into Coheed some more. I actually have had a Spotify playlist started with some songs of theirs that caught my attention; a couple off Year of the Black Rainbow, a couple from The Color Before the Sun, and actually the title track from No World for Tomorrow.",ffi8xmk,malfurian,qhuhv
"Dude don't apologize for music passion, been there. 

Coheed is one of those bands that take for fucking ever to get into so I get that part. If you're gonna give it a go, go with No World For Tomorrow or their new album for super anthemic intense music. I'm definitely gonna be listening to Low Teens on my way to work though, you sold me there.
 
And my criminally underrated band is (don't you fucking laugh) Barenaked Ladies.

Edit: to stay on topic of genres, other favorite underrated band is He Is Legend.",Gulrakruk,e1fpi,ffi2blj,"Haha, yeah sorry... I get passionate about music. 

I can’t speak to Coheed. Aside from a handful of songs I’m not really familiar with them (though I do own Good Apollo). And I’ll say this as someone who discovered Mastodon from Crack the Skye and think it’s an amazing album... Low Teens is a fucking masterpiece. Everyone was on their A game here, probably buoyed by the best drummer they’ve used to date, Daniel Davison. I think their technical skill and Keith’s lyrics, especially on Low Teens, are unmatched. 

But saying all this, it’s hard to compare these two bands. I love Mastodon for what they do; I love ETID for what they do. They’re both unique and amazing musicians. 

If you were a fan of ETID and haven’t listened to Low Teens yet (or Ex Lives), please check them out. 

Who’s your criminally underrated band?",ffi0j50,malfurian,qhuhv
"Oh fuck, that seems better than what I do.

Which is the exact same thing except I kill 'em as soon as they are infected.",Gulrakruk,e1fpi,ffhozij,"Yeah, if you get it to transmit via water vapor (after air and water transmission), and the only symptom is coughing, it spreads very quickly thru the hotter regions. Getting it to Greenland is the trick, harder to spread there if you don’t have cold resistance, and if Greenland closes down before you get there, you’re SOL, can’t get 100% infection. Basically, you want to get everyone on earth infected with a disease that isn’t worse than a head cold, they won’t start working on a cure until the symptoms get worse. When you’ve got everyone on Earth infected, then start spending your points economically (you probably won’t be able to earn many more points at this stage) to get to the deadliest symptoms. By then, when they start working on a cure, it’s too late and you can go “BOOM!”, total organ shutdown.",ffho4wl,Jorge_Palindrome,10zzld
"Oooook. I appreciate your love for underrated music, hell, my favorite band ever is criminally underrated. 

But question. As killer as they are, what brings them to the caliber of Mastodon or Coheed? I say this a bit reluctantly, but I was fairly involved in the whole Southerncore scene a decade ago and dug the shit out of this band, but like...

Have they really written something better than Crack The Skye or the Good Apollo albums?",Gulrakruk,e1fpi,ffhma3h,"Almost went to that show...

Man, to me they’re the most underrated/“unknown” band. I say unknown in the sense that by musical skill and writing ability, I feel that should’ve been a show they headlined, not opened. I say underrated cause I feel like most people don’t really know about them. But yeah, they’ve done nothing but top themselves every album. Like with each one I’m thinking ok, it can’t get better than this. This is amazing. And then the next release comes out and fucking a, it tops what I thought was the pinnacle.",ffhlzd7,malfurian,qhuhv
Yo I saw them with Coheed and Cambria and Mastodon last year and they fucking delivered as the opener. I hadn't seen them since like Gutter Phenomenon era and they just fucking killed it.,Gulrakruk,e1fpi,ffhk4n1,"I could think of more if I was trying harder but I'll just drop one of my favorite bands here if you're unfamiliar... Every Time I Die. They're a mix of thrash, groove, southern, hardcore, all metal. Most of their songs are a mix of the above or some are more typical of the one genre. 

You did ask for songs however, so the two best groove metal songs from ETID that come to mind are It Remembers and Revival Mode. If you're interested in these I can definitely pick my brain and musical catalogue more and give you more suggestions!",ffhe37y,malfurian,qhuhv
Dude Pissed off and Mad About it is a fucking banger.,Gulrakruk,e1fpi,ffhk2zk,"Texas Hippie Coalition has a good chunk of songs that have a similar feel. They're from the same area of Texas and heavily influenced by Pantera. But the songs are pretty hit or miss. I would suggest the Peacemaker album, it's their best imo.",ffh7h6k,iSlacker,8q0te
"Originally it was made as the ""Anti-Woodstock"", basing booking on artistry rather than popularity. You can easily argue that it's geared towards young people, as most festivals (outside of a few) usually are. However, saying that a festival designed for young people who care about music and a festival designed for people to be seen and as part of an ""in group"" is pretty disingenuous. Which is stupid because there are still really good groups playing this year.

The price of the tickets have gone up 10 fold in 20 years. That should say something about it.",Gulrakruk,e1fpi,ffhahpp,"No it's not. It's young people. Different young people, but it's young people. They change the Bud Light ads every so often too.",ffh9jly,drot525,y81uk
"Well of course it's not good, but it is entertaining. It's just weird that you seem rather unwilling to try any new music.",Gulrakruk,e1fpi,ffh2xho,"> as opposed to being some gatekeepy crotchety old man in some mid 20's-30's body.

lol you're not wrong, but that's okay. 

re: Backstreet Boys, pop is fun to listen to, but it's not good music.",ffh1l6i,zapatas_blood,12r8nf5j
"Dude, you're like /r/im14andthisisdeep except you are a real person.

I bet you thought you were hot shit when you were a kid because you listened to Zeppelin and Pantera and the normies all like The Backstreet Boys.

If you really liked music, you would appreciate it, new and old, as opposed to being some gatekeepy crotchety old man in some mid 20's-30's body.",Gulrakruk,e1fpi,ffh0y35,There's very few 90s bands that got better in the 2000s... the best 90s bands didn't make it out of the 90s because their singers killed themselves.,ffh0qs1,zapatas_blood,12r8nf5j
"Dude, you can talk shit all you want to people who think you sound like a moron saying anything new is yuppie hipster music.

Feel free, but genres that were around in the 90s have gotten better in the last 20 years (Hell, some of the bands have gotten better) and you're either unwilling to try something new because of some elite superiority or you just have boring taste in music.",Gulrakruk,e1fpi,ffh099q,ok zoomer have fun at your overpriced hipster bullshit show in the desert,ffgmxvk,zapatas_blood,12r8nf5j
