child_body,child_screen_name,child_user_id,child_tweet_id,parent_body,parent_tweet_id,parent_screen_name,parent_user_id
"Nice, thanks",H_is_for_Human,dot61,fl8j55f,"The image is on lung window, and the fluid density is much lighter-colored than that left lateral shadowing along the heart that I assume you were considering as an effusion. If that were fluid, it would be the same color as the heart or very close to it.",fl8bkat,Wohowudothat,4wiqd
Tone doesn't necessarily transfer well thru text. No need to worry!,H_is_for_Human,dot61,fl7reb9,"Hey I'd like to reach out to you, I'm concerned about you, the structure of what you said to me suggests you may be in a dark place; I know now may not be so easy but I'd like you to try and seek help for whatever it is you are going through.",fl7p6dn,adventures_in_dysl,4s8dnzxk
"Yeah, although is there a way to tell for sure?",H_is_for_Human,dot61,fl62v24,motion artifact,fl624wb,topIRMD,12xjdp
Small pericardial effusion also maybe - agree that not clear from CT that he would need MICU for oxygenation / ventilation,H_is_for_Human,dot61,fl5x3pd,"Definitely scary for about 5 reasons- young, health care exposure, multiple treatment ‘failures’, icu care with not a crazy (to this surgeon) CT scan",fl5lsq0,surgeon_michael,izae0
How much longer? is it proportional?,H_is_for_Human,dot61,fl5ebbo,"Sourdough takes a week or two to get from scratch in the event it grows successfully. And the first few bakes will result in inedible bricks lol. Though, this would be a great time to start learning! 

A better strategy if you cannot get your hands on more dry yeast is to use miniscule amounts of yeast (around 0.1-0.2% bakers percentage) and do much longer ferments. You get a better flavor with longer ferments anyways. You do have to plan accordingly though.",fl5dn0r,pizza_n00b,9eslueh
"Not sure - didn't make it, just sharing it. They say they partnered with CDC to develop this, so it's probably trustworthy.",H_is_for_Human,dot61,fl2ng01,"Makes you wonder then what the crucial variable is in the algorithm; essentially what is being weighted most heavily in deriving the 2 x 2 outcome: isolate +/-, test +/-",fl2m7v3,Justiceforallhobos,6q1xp
"I got reasonable recommendations running through a few scenarios:

60+ with fever, cough +/- muscle aches, with known exposure --> isolate and test

40+ with fever, cough, fatigue, without known exposure, with HTN / DM --> isolate and test if there is testing capacity",H_is_for_Human,dot61,fl2luvg,"Ran through it multiple times; unless you endorse essentially every physiological/somatic feature and have multiple comorbid vulnerabilities, it seems to spit out ""don't test yet""...",fl2lmad,Justiceforallhobos,6q1xp
Some media doesn't lie because their customers aren't idiots,H_is_for_Human,dot61,fl2fy1n,"Interchange it for literally any media outlet.  

That's how stupid you sound",fl2fhhf,OpSecAccount,byai2
Fox news does not claim to check their facts,H_is_for_Human,dot61,fl2eu69,"I know of another fact checking website as well. It's called foxnews.com. You can't say its biased, because they themselves claim to be fact checking everything they say. 

See how stupid you sound?",fl2dyvs,OpSecAccount,byai2
"Not just height. You need to match ideal body weight (as calculated by height) as well as resistance or compliance. Finally, you can't wean one if they are getting better and the other's aren't. It is wildly suboptimal.",H_is_for_Human,dot61,fl22w0x,It's possible to use a regular ventilator for up to 4 people.  The ER doc in the Vegas shooting did it and one of the doctors that did the research on it posted a YouTube video on how to do it during the covid19 crisis. They just have to be people with roughly equal lung size (determined by height) since they can only use one vent setting for all 4 people.,fl11u76,seestor,5eb2f96v
"I don't think we've seen much evidence that dogs can get SARS-CoV-2, regardless of vaccination status.",H_is_for_Human,dot61,fl1g9uv,"Follow-up question, because of what you said

All of my dogs are already vaccinated. Will their current DAPP vaccinations protect against the novel covid 19?",fl1g4l9,acekingqueenjack,gzr1z
"Migraines are typically caused by temporarily dilated blood vessels in the brain. As the vessels return to normal the symptoms go away.

Here's a good resource: 

 [https://americanmigrainefoundation.org/resource-library/understanding-ocular-migraine/](https://americanmigrainefoundation.org/resource-library/understanding-ocular-migraine/)",H_is_for_Human,dot61,fl1eak1,This is the first time i experienced this. From what i can tell its not serious. What are the causes of this?,fl1diqk,Johnzzqwf,40jamdga
Imagine thinking a fact checking website is biased against your team.,H_is_for_Human,dot61,fl1al4i,If you actually think snopes is left-wing that's just proving what a thick motherfucker you are.,fl18nig,NoLightLeftHere,5fzxvinc
"He constitutionally has to take it, he just donates it immediately",H_is_for_Human,dot61,fl19jhi,"> If i am reading the STOCK act correctly. It also only applies to people who are getting paid by the government. 

Could this be why Trump refuses to take a paycheck from the US Government?",fl191d9,Bennyscrap,gws6r
It's not a bad thing if it doesn't hurt,H_is_for_Human,dot61,fl0xmr2,"I tried pressing it, still doesn't hurt. :(",fl0xcts,2947291929,5zc6r0yi
"Pain from bruising is usually caused by either residual inflammation from the injury that also caused the bruise, or pressure on the skin surrounding the bruise by extra fluid within the bruise. If neither of those are present, you can still having bruising that just doesn't hurt.",H_is_for_Human,dot61,fl0wkdb,But why isn't it painful?,fl0vl53,2947291929,5zc6r0yi
"Ok - it's probably just an injury that was minor or you just don't remember, like bumping into something.

If you notice further unexplained bruising or other bleeding, you should talk to your doctor.",H_is_for_Human,dot61,fl0uq40,No for all questions,fl0uetw,2947291929,5zc6r0yi
Any other bruising or easy bleeding? heavier period than normal? nosebleeds? bleeding from gums?,H_is_for_Human,dot61,fl0tuev,"Nope. Been working at sort of customer service job, not much moving around. Got a shock while changing out of my uniform today.",fl0tk80,2947291929,5zc6r0yi
">Please be as detailed as possible in your submissions. The more information we have the more we can help. It is mandatory to include: age and sex (please write as \[age\]\[sex\], e.g. 18M), height, weight, race, primary complaint, duration, any existing medical issues, current medications and doses, and whether you drink, smoke, and/or use recreational drugs. For all other visible issues, particularly dermatological, a photograph is not required, but always helpful.  
>  
>For photos, include a link.",H_is_for_Human,dot61,fl0rihe,What information? It is near my left leg joints...,fl0rg2m,2947291929,5zc6r0yi
"Lol no

To clarify this doesn't come anywhere near the abilities of even out of date ventilators.",H_is_for_Human,dot61,fkysq4o,Sooooo... a ventilator.,fkynj7y,TrauMedic,81as7
"Just make it known that the government will buy the next x number of a certain thing made. Extras can go into the stockpile for next time. 

I.e. the federal government will buy a minimum of 250,000 vents or 500 million 95s",H_is_for_Human,dot61,fkymmys,"To be fair, the federal gov't should coordinate who makes what. The last thing we need is everybody making ventilators and nobody making gloves, swabs, etc...

They should do it soon.

Like today...",fkyag10,ShillAudition,zrs00
This is not proven,H_is_for_Human,dot61,fkylvr5,Antibodies for this virus die off quickly. The same thing happened with SARS which is one reason a vaccine has not been created for SARS yet. There have been multiple COVID19 cases where people have caught the virus twice.,fkykghc,zzyul,d9wye
Even more logically - if I wait till much later maybe there will be a vaccine and I never have to get it,H_is_for_Human,dot61,fkylum9,"More logically, ""If I'm gonna get it, I better get it later, so there's a chance treatment has improved by the time it hits me.""",fky7tt9,cheesefondue,58t7x
"Well, to the first point, you can connect the bag to the ETT directly.

2 is of course correct",H_is_for_Human,dot61,fkyjwuc,"You’re absolutely right on all points. 

Source: I’m a people mechanic.",fkyhqa8,Graigori,15azgm79
"Yes - we were 4 deep for jeopardy / air call, so even if someone had to be out for a week or so it usually was fine.

There was a memorable time in PGY-2 when two different residents went skiing during a vacation week and were supposed to be on together in MICU. One broke their radius, the other their tib + fib. Both disqualified from MICU because they couldn't do CPR or run to a code. Our PD sent an e-mail saying no one else could ski for the rest of the year.",H_is_for_Human,dot61,fkxt0k5,"Right, that's what I recall. I was given x weeks of vacation (maybe it was 3) and then when we were sick we just told our attending/senior resident/chief and we stayed home but there was no official process. And those sick days weren't deducted from our allotted vacation, though I understand these are very different times where residents may be taking extended leaves.",fkxribl,StrongChemical,2c6zqnsb
It's not discretionary though - at least at my program it was your three vacation weeks assigned at the beginning of the year.,H_is_for_Human,dot61,fkxqta1,Thank you. Not sure why people downvote for simple questions. I don't remember that from residency.,fkxqd9x,StrongChemical,2c6zqnsb
"Even with two paralyzed patients, you'd have to pretty closely match the resistance and compliance and resulting pressures / volumes. This would be tough to pull off in practice.",H_is_for_Human,dot61,fkun1h7,Its being investigated if using a T will allow this for ARDS. Too early to say,fkumg6v,The_Endless_Waltz,35qhfiwm
Not in ARDS in the vast majority of cases.,H_is_for_Human,dot61,fkum7h5,Not ideally but its been done,fkukfna,The_Endless_Waltz,35qhfiwm
99.5-99.0% of us.,H_is_for_Human,dot61,fkulvc6,Right as long as we have access to a ventilator everything will be fine for like 99.9% of us.,fkujr4x,nerdywithchildren,8wz3n
"Yep - lost a lot of respect for Birx now that she's parroting ""we had to wait for accurate tests, international tests have too high of a false positive""

The most important part of testing is that a positive asymptomatic person might actually take quarantine seriously. The entire country is now trying to stay at home, who cares if 10s or hundreds had to do this a little earlier. 

She compared it to importance of not having false positive HIV tests which is totally different because we have treatments for HIV.",H_is_for_Human,dot61,fktsl8l,"Who cares if its faulty. The goal of the US govt is to allow private companies to profit, so they rejected all kits and all protocols that are being used by everyone else.

Now they are lying about it.",fkrvj9v,ECrispy,8z7kt
It might be both actually.,H_is_for_Human,dot61,fksx3y5,"Ah, I see. I haven't used the product and haven't worked respiratory therapy in years. I saw PEEP settings on the valve in [this image](https://cdn.gelestatic.it/businessinsider/it/2020/03/valvole-1.jpg) and assumed the round part (edit: the mouth insert on the face mask) was for air entrainment.",fksttky,Klarthy,6gghr
"It's not the peep valve it's the venturi flow ""limiter""

And I agree theres no way these things cost $11,000. I've opened multiple bags of them just to show med students how they work.",H_is_for_Human,dot61,fksmdxw,"I am unconvinced that the ""list price"" is anywhere in the stratosphere that the actual sale price is. No hospital is going to pay $11,000 for what looks to be a cheapo PEEP valve (or a venturi component) with an oxygen intake. The product is (or is extremely similar to) [this product](https://www.intersurgical.com/products/critical-care/starmed-ventumask-basic-with-venturi-flow-driver-for-cpap-therapy) for anyone curious. Still extremely shit on the company's part.",fksf6hi,Klarthy,6gghr
Yep - the point we are at with confirmed tests is the point the infection was at weeks ago.,H_is_for_Human,dot61,fkrmmww,What if we are already at 20K+ due to limited testing?,fkq1n9t,nviii,4z4r1
"If they leave they can't come back.

Zombie apocalypse rules.",H_is_for_Human,dot61,fkrm5st,"Ahh I didn't know about this website, thank you! Even now I've shared this with them and they're like ""well...""",fkrithb,xEstie,5yqib
In internal med we asked every patient on admission and transfer to higher level of care and with any significant decompensation.,H_is_for_Human,dot61,fkr36hc,"Pgy3 here. Our standard practice is to ask every admitted patient code status. Some of the most unexpected things happen to ""stable"" patients",fkqgxzt,heunggongzai,2uk371l
Public school?,H_is_for_Human,dot61,fkpvhqy,"Yeah, but either that or not be able to afford college.

Plus you can test out of classes for $100 and that helped a TON",fkpcvo1,reesenobles1,13m3rp
Most nursing shifts are 12 hours. 3 days / week at 12 hrs / shift is is probably the most common schedule.,H_is_for_Human,dot61,fkpuh0d,"12 hour shift seems like a bad idea though (unless it's because they are low on PPE), because you're going to start getting tired and making mistakes.

And when it comes to this situation you don't want people making mistakes.

They should split it into 2 shifts, I'm sure some out of work folks would be interested, and a second shift would mean a second position",fkprjav,per_os,itzuf
Basically. I wouldn't characterize this as a vaccine. But a human anti-C19 ab could serve as an adjunct to prevent or treat early infection. This is how we use it with tetanus or rabies.,H_is_for_Human,dot61,fkov17k,Okay so My understand one year through my masters is there are multiple ways to generate a vaccine and treatment. So while it is true that a vaccine is being made this sort of breakthrough is better oriented toward treatment. So for the elderly and immunodeficient they can be treated with these antibody so the patients immune system can help fight off the virus.,fkou2xh,thebigpeon,ybx0b
Lol if it was 5 tesla it would be gaining mass from all the metal stuff nearby that would be stuck to it,H_is_for_Human,dot61,fko9n3k,So. A mass of 5000 millitesla - why not just write 5 tesla? We should go back to 140 characters to prevent such nonsense. Wait...,fko8jly,van_dell,dhxy7
There's a version that doesn't require installation. As long as you can run a .exe,H_is_for_Human,dot61,fko8xtk,"Haha! I wish I could download applications to my computer, but it's totally locked down. I can't even write a fully powered excel macro even though I'm an *analyst* and you'd think that's something that you'd want me to be able to do.

Luckily my job isn't like that, they're happy as long as I meet my production standards and keep proactive with problem hunting. My father in law's employer, though... His supervisor calls him if he's not glued to his computer.",fko7y8f,paczkinearme,2kz5zlh5
"Download autohotkey, write or find a script that moves your mouse to 0,0 and back to where it was every 60 seconds. 100% employee uptime.",H_is_for_Human,dot61,fko7aa4,"<sends IM> WHY ARE YOU GRAY ON SKYPE?

<calls desk phone, leaves voicemail> WHY ARE YOU GRAY ON SKYPE??

<calls cell phone> WHY ARE YOU GRAY ON SKYPE? PLEASE RETURN TO YOUR WORKSTATION.

Jesus Christ sorry, I didn't realize that I was required to *eat lunch* at my desk and agitate my mouse the entire day.",fko3ala,paczkinearme,2kz5zlh5
"To the second question, yes, same ventilators.",H_is_for_Human,dot61,fko6j25,"Trump: Uh, did you guys check on Amazon yet?   Can you use any of the ventilators we use for the regular flu?",fko5zps,MarqNiffler,1fznxmnf
"I've also made my home a coronavirus free zone and two family members are staying with me for the duration. One doesn't work and the two of us that do are able to do everything remotely. They keep wanting to go outside for dumb reasons, like ""I need my Starbucks"" and I'm like ""we have two months worth of coffee here, make a pot""",H_is_for_Human,dot61,fko3ecs,"Agreed, but it's surprisingly common. Most people have a hard time objectively determining ""necessary"" vs ""optional"" when it comes to trips.

Even I'm guilty of it. We built a decontamination room and entryway in my house and yet we *still* went to the grocery store for totally unnecessary pizza rolls yesterday.",fko2lls,i_am_not_mike_fiore,74870
"A strategy working for us (a small group of 5 people that share an open office) is to do as much as you can remotely and stagger office visits if you must be on site (i.e to access software licenses or databases not available remotely). So I'll text the group ""hey can I have the office from 2-4pm today?"" And people will say sure, or ""I'm here until 3 but you can come after"". 

Then wipe down any surface you touch before and after you use it.",H_is_for_Human,dot61,fko33up,"Hey bro, illness spread doesn’t discriminate based on why you’re meeting other people. 

If it’s something that can be done over the phone/internet, why not do that instead?",fko1w15,whadisabout,5ad0w8x
"No you are making a false assumption that all 4 of the people they treated would not have improved without treatment.

It's very simple.

They have 4 people they treated. 3 got better. 75%.

You can't say whether this treatment is effective unless you match these 4 people to other people like them that didn't get the treatment. If you did that, you would see that 3-4 out of 4 would get better based on the averages we are seeing.

So to prove the treatment works, you need to setup a placebo controlled randomized trial with maybe 100-200 people.

Placebo group you expect to match the mortality rates we are seeing (3.4% if general population, maybe 15-20% of 80+ year olds).

Treatment group will either have more deaths, the same deaths, or less deaths. If the mortality rate is only 5% in a group of 80+ year olds that would be an effective treatment. If the mortality rate stays 15-20% in a group of 80+ year olds its not doing anything.",H_is_for_Human,dot61,fkny5b5,">Where are you getting the information that the 75% chance is on top of the 80%?

Mathematics. Simple and easy mathematics gives me that information.

Going by your logic, treatment *will kill 5 people* who receive it. That's not how it works.",fknrf0a,Camzure,3me0evih
At the very least a matched case series.,H_is_for_Human,dot61,fknis2w,"With a proper study, with controlled variables, and test groups. Sick people are not guinea pigs.",fkn9485,boon4376,4w4sw
"In Chicago, we have over 40 presumed positive, waiting for tests",H_is_for_Human,dot61,fkm0e1z,This number will skyrocket in the next 48 to 72 hours. I work at a major hospital in Mass and we're just waiting for the tests to come back for the presumptive cases. We have at least 20 in our facility alone.,fklxhed,YourDadsLeftBall,3lgrk71p
Especially with all the sleep and good nutritious foods.that are typical of being cooped up in the hospital for 80+ hrs a week.,H_is_for_Human,dot61,fklxtiu,"Good thing a lot of important doctors aren’t over 40 and definitely in perfect, uncompromised health.",fklt6ji,ClassicT4,lwwtjp0
"Yes, I don't mean to demean my former colleagues either. It's an important and underfunded system.",H_is_for_Human,dot61,fklu4jn,"Thank you for putting in time to service our vets medical care. To be clear, my statement is not a statement against the front line workers - they have been mostly really good. It is just that there are so many vets and so few doctors and nurses that getting in for anything can take ages as it is. I just can't image them supporting the vets medical needs while trying to support the publics as well. The system would not hold up to that.

I sat in the Denver VA's ER for 5 hours just to be seen with mild chest pains a couple months ago because they were super backed up with flu patients. No way could they handle a public health crisis. They dont have the manpower.",fkltmue,KorgRue,3j3im
As a doctor that's worked in a VA. Yep.,H_is_for_Human,dot61,fklt044,As a vet that uses the VA for all my healthcare - we are doomed if we get to the point of having to rely on the VA to pick up the slack.,fklkqxl,KorgRue,3j3im
"Where are you getting the information that the 75% chance is on top of the 80%?

The article said they had 4 patients. They treates them and 3 got better. That's 75%. You cannot make the claim that those 4 would have died without treatment. You can't disprove the null hypothesis.",H_is_for_Human,dot61,fkl4awk,"Dude this is simply not how percentage works. The 75% chance with meds is added to the 80% chances surviving without, not separate from it. 

This means people who wouldn't have survived without treatment could potentialy escape death with meds. And with treatment, some could recover faster, therefore freeing up ICUs faster and allowing more people to get treatement overall.

But of course, no treatment is 100% effective.",fkkyydt,Gentlegiant2,kzxiv
"No. You need to make a comparison between what no treatment looks like a and what treatment looks like. 

If I give no treatment to 100 people over 80. 80 will survive. 

If I give a fake treatment (sugar water) to 100 people over 80. 80 will survive.

Treatments can't show a 75% cure rate. Doing nothing has an 80% cure rate. 

Treatments that are 75% effective need to take 3 people out of 4 that would have died and save them. They need to show cure rates of 95% to be 75% effective. 

Treating 4 patients selected at random and 3 of them getting better does not disprove the null hypothesis.",H_is_for_Human,dot61,fkktl8x,"Man.. I know percentages are hard, but that's NOT how it works. If you treat those 100 people, thats a 75% MORE chance those 100 patients will survive, so if 80 survives anyway and you give them this treatment, that means 86 (roughly speaking) are going to survive.",fkksd45,golimaaar,idasd
"That is how it works. 

The death rates in the over 80 population are about 20%.

If you take 100 people over 80 and do nothing for them, 80 will survive.

If you use this hypothetical treatment that keeps 75% of people who take it alive on 100 people over 80, then 75 of them will survive.

I.e. its not a treatment.",H_is_for_Human,dot61,fkkrp8j,"I dont think thats the way it works. If we can help 75% of the SERIOUS cases, thats a huuuuuuuuuuuge help.",fkkqo5n,golimaaar,idasd
Wishing her and your family and everyone else the best. We'll get through this.,H_is_for_Human,dot61,fkkqafe,No she said she won’t I told her not to. I told her it’s not worth it. She cried for a good hour last night because she’s so scared of everything going on. She told me that if this keeps happening she’s actually considering lying that she’s sick so she can self quarantine but idk if that’s possible until you actually get tested and what will that do? I think that will only allow you to stay home for 2 weeks then it’s back to work. She said she’ll look into all of this today. I told her to try to be patient that maybe this week there will be some changes in NY due to the amount of people being outraged at what’s happening here.,fkkpztr,manana5050,5bceu4m4
"What percentage do you expect to recover without treatment? 

Maybe 80% even in the worst hit populations. 

A 75% cure rate doesn't mean anything if you expect 80% to recover regardless. 

Now if you had 90% cure rates in people over 80 or 99% cure rates in people over 60, that would be a big deal.",H_is_for_Human,dot61,fkkpwwg,If this true it could be big.,fkkpcxq,LetTheRiotsDrop,a0zhm
She should not go into their file. Not a good time to be fired.,H_is_for_Human,dot61,fkkp072,"My sister is a nurse in NY and she called me crying last night that they don’t even have masks. She is afraid to go to work every day. A patient also died after one of their doctors told them they didn’t have the virus and didn’t need testing on a Tuesday and they passed away on a Thursday. She’s too afraid to go in their file to see the reason of their death because supposedly it’s tracked who checks whose file. She says they’re all psycho and they’re all going to get them sick eventually. I also think I’m sick and when I went to the urgent care they refused to test me because I’m 28 and only “old people get it” and I don’t meet the criteria to get tested. Instead they told me I have a lung infection, they sent meds to my pharmacy and told me to stay home for three days. It’s ridiculous.",fkkn1jz,manana5050,5bceu4m4
Everyone should get it every year.,H_is_for_Human,dot61,fkko6xl,Yep we have exactly that I get it every year,fkkd7ir,fetzen13,13oz1q
3.6 FPS. Not great. Not terrible.,H_is_for_Human,dot61,fkkn6lz,....but still can’t play crisis 3 at acceptable frame rates.,fkke7g9,UBIQZ,4k18bh50
Our hospital pulled all the med students back. They aren't allowed to do anything with respiratory patients.,H_is_for_Human,dot61,fkkmww0,Well this is a good time to get nursing school students and med students real world experience outta the gates. People will step up and take on the challenge.,fkkgmul,TheRealOzone,151xpr
Website was supposed to help people get tested in large numbers.,H_is_for_Human,dot61,fkkm2rd,"I don’t even know why anybody cares about this, it’s no substitute for testing and medical treatment.￼",fkkhlan,IReadTheWholeArticle,5un4benx
Whataboutism. Come up with something new.,H_is_for_Human,dot61,fkklga6,"At least hes trying, did you see obama do anything about swine flu?",fkkk3qa,President_Coolidge,59nmg2dn
If you are restrained without a component pouch and gagged?,H_is_for_Human,dot61,fkj5oe8,"With omniscience, I can cast 9th level spells, I pretty know all spells so I could wish myself to death or pass through objects like rope",fkj4h0u,Doozeyer,n5wkg60
Well practically anything can affect the microbiome. If a physician thinks you should be taking the medication i certainly wouldn't stop it for this test.,H_is_for_Human,dot61,fki0qa9,"Microbiome / personalized food recommendations. I have struggled with chronic eczema, trying to relieve that if it’s associated with food sensitivities, or gut issue

Recently I started a daily JAK inhibitor for this condition",fkhyqrb,SweetnSaltyAlmond,3eg7lkfo
"We've fired people who have been stealing n95s from supply rooms.

Also changed all the door codes.",H_is_for_Human,dot61,fkhyz0j,"My wife has to reuse her N95 masks if they can't get any more supplies. She is a surgical tech and the hospital requisition manager and part of the response task force so they can stay up on all of the recommendations and so she can get the supplies. The masks are impossible to obtain right now! People are stealing the masks they had at the entrance, the hand sanitizer, and the Kleenex too.",fkh1vq2,Scottlikessports,3xafduzl
What's the test for? But probably not.,H_is_for_Human,dot61,fkhymo9,Is a stool test affected by JAK inhibitors?,fke6fg1,SweetnSaltyAlmond,3eg7lkfo
Not intentionally. But sometimes we are wrong.,H_is_for_Human,dot61,fkhyj7k,"Doctor's, would you ever tell a person's family you think their loved one will make it, even if you can't be sure? Do you worry about giving false hope? Do you have any colleagues who are guilty of doing this?",fkgfq6p,privatepirate66,1qw4dzdz
Yes but it's unlikely.,H_is_for_Human,dot61,fkhydum,"general curiosity question- can a person have the flu at the same time as coronoavirus?

Seems like the protocol is testing for flu, if person tests negative then test for coronavirus. If positive for flu don’t test for corona. But can’t a person have both or are the chances really low?",fk11stp,LaterTomorrowSoon,3kw5qj6b
It's starting. Too late but it's starting.,H_is_for_Human,dot61,fkhy3px,Unless the US is hiding a mass testing campaign I don’t think the CDC even really knows how many people have it in the US.,fkhuvzd,DropsOfLiquid,20hkvv3k
"Not worried about beds. Beds is easy compared to icu beds and staffing and PPE and ventilators.

University hospitals will turn the evacuated dorms into beds. Hotels can become beds. Office space in hospitals can become beds. ORs and post op recovery areas can become beds.",H_is_for_Human,dot61,fkhxx2s,"What makes you think the US will not hit hospital bed saturation so quickly when Italy has more beds per citizen than the US? See: https://en.wikipedia.org/wiki/List_of_OECD_countries_by_hospital_beds

Also Italy has not reached saturation but parts of Italy have. What makes you so confident the situation in the north western states in the US is so different?",fkhwndm,SeenItAllHeardItAll,5yzh4
Supposedly that was already relaxed a few days ago,H_is_for_Human,dot61,fkhxj06,"So, I'm guessing the FAA (or whatever acronym it is) is going to relax this rule, but the theory is this:

Airlines have to ""buy"" routes/gates. If they don't use the route or gate, it goes up for auction. Airline solution: Use the route/gate. (You cannot park a plane at a gate ad infinitum).",fkhwzd6,altCognito,3tizx
"They have to be repurchased in 1 or 3 months. It's a short term loan, the money isn't spent.",H_is_for_Human,dot61,fkgk1ry,"The Fed isnt Gov't?why does it have a .Gov website and is the central bank for our country... printing the dollars everyone uses. 

It's convoluted for sure but they're Gov't.

  It's also convoluted,  but saying that buying 1.3 trillion back in bonds is not dumping that money into the market is silly

Edit: drunk mobile doesnt flow smoothly",fkgjwkh,handifap,9zruk
"""There's a website""",H_is_for_Human,dot61,fkgjgzb,"> I can't stand Pence.

The entire government told us nothing but lies. 

""It's just like the flu."" 

""Everyone should just go back to work, it will pass."" 

""it's ok for seniors to travel on planes."" 

""It's just going to go away.""

""If you want to get tested, just ask your doctor. ""

The adage says to not ascribe to evil what stupidity can explain, but what's the difference if the outcome is the same?",fkfgiwg,Intensive,6jgam
"""There will be a website""",H_is_for_Human,dot61,fkg79lb,"All talk, no action. Banking on the fact that majority of the herd doesn't ask or fact check. Same deal with ""everyone who needs a test can get a test"". It's disgusting",fkfw3j1,Klinky_von_Tankerman,534ccpzd
"They offered to do it, presumably they know their limits. Or they are lying as a PR move.",H_is_for_Human,dot61,fkepx40,"Since you're telling me they can double speeds without running into problems, I'm guessing you're a Comcast network engineer, then? Tell me of this insight you have into their network infrastructure.",fkepswe,Slevin97,3nw78flm
"But if they can double speeds without running into those problems, it still suggests that the motive behind the low speeds are profit, not network capabilities.",H_is_for_Human,dot61,fkea27m,"Yeah, that's how it is supposed to work. Networks aren't designed to run even close to maximum throughput at all times. If your LAN was 95% congested with data and then you sit down to watch Netflix what kind of experience do you think that'll be. 

They don't pick these numbers out of the air. They're calculated based on a business model and balanced to what their network infrastructure can handle across a wide area (network), and the amount of congestion complaints they can support.",fke4kje,Slevin97,3nw78flm
"Ok but if you can double speeds for everyone, that sort of implies you aren't using all the throughput available to you.",H_is_for_Human,dot61,fkdcosw,It's not arbitrary. It's a contract to use a certain capability of their network. Total bandwidth is still finite.,fkcwzpx,Slevin97,3nw78flm
It also highlights how arbitrary these caps / limits are,H_is_for_Human,dot61,fkcmuxh,"That’s a super dope move.

At the same time, it highlights the need for internet in the 21st century in terms of the ability to send/receive information and how important that is in times of crisis.

Which brings me to this question: while moves like Medicare For All are being made to increase access to healthcare for all citizens, what moves are being made to bring widespread internet to all citizens? If any exists, that is",fkcj3sr,Schveen15,67hnx
Well OP may have violated her lease by letting him live there without being added to the lease.,H_is_for_Human,dot61,fkc4wrg,Does this apply if they aren’t on a lease and don’t pay rent? He sounds more like a guest than a tenant.,fkc4kom,MiddleFroggy,uc20d07
Agreed,H_is_for_Human,dot61,fkbdsnb,I wish she would go ahead and ban large events. Our venue is pretending like 1800 people in a hotel ballroom is a good idea. Literally have their head in the sand as a method for salvaging business. Instead theyre hurting our relationship with the brand forever.,fkbcnar,travelinghigh,15yk0l
 It can take months for those to resolve even in typical pneumonia.,H_is_for_Human,dot61,fkb8sah,Its confusing because it says that one patient had ground-glass opacities then later says there was no change. I can't tell if that persisted,fkb82x8,evanc3,i1qyq
People are mostly not intubated and on ventilators at home.,H_is_for_Human,dot61,fkaxpp5,few normal people know it. it could be implemented at home in addition to at hospitals.,fkaq7ve,greyuniwave,3rx725zq
Why do doctors get vaccines?,H_is_for_Human,dot61,fk9meuf,"Lol, there’s plenty of supporting evidence.  You just refuse to hear it.

Again, I don’t know what’s true but I certainly don’t assume that I know the truth about anything scientific because science has changed over history.",fk9f4xl,alwaysrightusually,4s2r2haf
With methacholine challenge?,H_is_for_Human,dot61,fk8nwj6,Oops forgot to include that one. Yes! I had that one last month and also came back as normal.,fk8now3,kennni_,5uloxzkg
"Unfortunately we dont have testing thats feasible to say ""are you shedding virus today?""

Once you have a positive result on an antibody test you do have to assume you are capable of transmitting the virus.

The problem with it as a screening test is that the false positive rate is high, up to 15%.",H_is_for_Human,dot61,fk4dnq2,"Right, but if you are currently infected, you could be viral shedding at unknown times so you never really know when exactly you are “currently capable of spreading it to others”. You should assume that it is possible you are shedding the virus occasionally and therefore should proceed as if you have it. 

All these people saying if you test positive, you were “only exposed and don’t actually have it” are incorrect. You can’t tell people that. People who are in denial about having it in the first place will just accept that as the truth and go on having sex with people like nothing ever happened. That is how the virus spreads!",fk439dn,Throwawayfhsv,2cyjdhdk
"They tend to be lower image quality however, so it's important to ask the ordering physician if open is acceptable for what they need.",H_is_for_Human,dot61,fk41d8t,"> I have a message in to my surgeon about open MRI, which the technician suggested I look into. Anyone tried that, was it better?

I've done both, and open is much less uncomfortable.",fk3z26u,HuckChaser,ry888
"Serum HSV testing is not performed routinely for a reason, namely because it doesn't answer the right question. 

It shows if you've been exposed, not if you are currently capable of spreading it to others.

Edit: to clarify no feasible testing exists to see if people are shedding on a day to day basis.

Antibody testing is not recommended by the cdc outside of specific populations.",H_is_for_Human,dot61,fk3zs85,"Have you ever gotten an HSV blood test, or asked partners to get one? It’s not included in standard STD panels. If not, you’ve been gambling this whole time. Most people who have it are asymptomatic and haven’t been tested for it.",fk3wthj,Throwawayfhsv,2cyjdhdk
There's a limit to oxygen diffusion. Tissue thicker than that limit will need its own blood supply.,H_is_for_Human,dot61,fk23wlz,"Im aware lungs are living tissue, but so are blood vessels, and capillaries, yet i dont see capillaries feeding capillaries, or we would be in a never ending loop of feeding the feeder.",fk1synx,Vulvox,9bz8o
Agree with all of this.,H_is_for_Human,dot61,fk0p2nw,They have a little bit of emphasis in physical medicine dealing with muscle/movements. They are able to do everything an MD can. They went to med school. They can do any of the same residencies MDs can. I would trust a DO the same way I would an MD,fjzsuwl,bth724412,262batm8
"I think this is the right answer. 

Take the converse. If an author wrote truly wonderful, heart warming, inspiring things, that made readers better people for having read their words, that wouldn't excuse being a rapist or an abuser.

So the books aren't bad, just because the writer is.

Of course, writers certainly may include problematic opinions or portrayals in their books, and these should be recognized.",H_is_for_Human,dot61,fjzhmug,I just separate the two things,fjzf2sb,djspookychar,11zn3x
Did Atwood do something?,H_is_for_Human,dot61,fjzh91r,"It kind of depends for me. I don’t really know what Mark Twain and Charles Dickens got up to, but those were different times. Things were very different. As far as Margaret Atwood, I feel like I have to judge her very harshly because she should know better.",fjzgpdm,tubulerz1,2suo5ama
"NAL - she likely has some rights as an adult tenant. If she doesn't want to leave they probably need to give her some notice. She should use that time to get a job and save some money and find a place to live.

Depending on the jurisdiction, her parents may be obligated to keep providing a place to live, food, etc. Until she finishes high school.",H_is_for_Human,dot61,fjzg8pt,"Sure. She's an adult. She can move out. They can't take her stuff or ground her, but they don't have to continue giving her the privilege of living there and certainly aren't responsible to financially support her anymore.",fjzaod0,nikapo,7mjjl
"Incorrect on a few levels. 

At safe doses in people that don't abuse alcohol it doesn't destroy your liver. 

It's an effective anti-pyretic and analgesic.",H_is_for_Human,dot61,fjyjzrf,"Tylenol isnt a pain reliever. Its a anti-pytetic... litterally, an anti-fever medication. Tylenol is good for 5 year olds with a fever. Otherwise,  its junk. All it will do is destroy your liver.",fjyjl1h,Shulkman,yqn8o
"There's not good evidence that 800 of ibuprofen is any better than 400.

Taking 500mg of tylenol and 400mg of ibuprofen twice a day is a good option.",H_is_for_Human,dot61,fjyg33u,"As someone with chronic pain I hope this  works as promised and hit the market quick.

Can no longer get hydrocodone prescriptions and am stuck popping Motrin 800's for seemingly no reason. Really just feel like I'm immense pain and also slowly poisoning myself. Doesn't seem to follow the ""Do No Harm"" oath but what do I know.

God help us if this new formulation makes people feel good I'm their brain chemistry though. Schedule II you go.",fjyarid,PopWhatMagnitude,8c1fa
"Think of it as the dose taken within 24 hours. 

25mg XR is the same as 12.5mg twice per day because the dose within 24 hours is still 25.",H_is_for_Human,dot61,fjwjzx8,"Thank you. Isn’t the 25mg extended release keeping 25mg in me at all times? So I can’t just go straight to that right? Because it’s not the same as 12.5 twice a day?

Also the reason I take it is for tachycardia, chest pain, and heart palpitations associated with my anxiety. I have an increased adrenaline production that they don’t know why I have. (It’s not an adrenal tumor). I have tried nearly every SSRI and SNRI on the market as well as many other meds with off label use for anxiety (tried over 20 meds all together) and so far this beta blocker has helped the most.",fjvbt48,Blackhole28,v64rx
I don't trust the patient to remember and giving the wrong one could be fatal. So no it doesn't save time.,H_is_for_Human,dot61,fjo8xdz,"Does it save time if the patient can tell you what blood type they are, or do you just always give O- and test later. I’ve got a patch with my blood type on my chest rig and I’ve always wondered if you guys care about that.",fjnw4lq,ATF_Dogshoot_Squad,2qe01qvb
In the US at least that would be aspartame or sucralose.,H_is_for_Human,dot61,fjngj9g,So no study on Saccharin the number one non sugar sweetener? Why is saccharin always left out? Because it is not metabolized by the body in any way so has no bad side effects?,fjnf64j,GWtech,3y4xy
Normal kidneys don't need your help to balance pH,H_is_for_Human,dot61,fjmgee5,"When they say high ph I think they mean around 7.6 so the body doesn’t have to as much work to balance our ph lvl. 

But yea it’s a word salad with buzz words",fjlwbw3,The_Weeb_Sleeve,16re4i
What do you think antacids are?,H_is_for_Human,dot61,fjmgbj7,Though I can't imagine getting your stomach neutralized is very pleasant or healthy.,fjlxd21,Massive_Kestrel,22nerw94
Luckily it doesn't matter at all,H_is_for_Human,dot61,fjmg9xe,"Most bottled water and tap water is on the acid side of the pH scale.

https://ionizers.org/bottledwaterph.php",fjmdej3,oatmealparty,1de02168
Do you feel like you weigh 22lbs?,H_is_for_Human,dot61,fjmfj5k,"“Suppose you were kidnapped and held prisoner by space invaders in a completely isolated room, with nothing but a watch and a pair of shoes (including shoelaces of known length). Explain how you might determine whether this room is on earth or on the moon.” - Cutnell & Johnson Physics Textbook (9th edition)",fjmbdl5,kudoki,123cmwpb
"CPD has put temporary barriers up at heavy traffic times, like the air show.",H_is_for_Human,dot61,fjmbltz,"If you've ever walked/biked down the path or just driven past it on a nice Saturday morning, there's way more people using it than a random sidewalk. There's also a lot more obstacles on a sidewalk versus the totally open lakefront path. After the [2017 NYC truck attack](https://en.wikipedia.org/wiki/2017_New_York_City_truck_attack) I thought they'd beef up the barriers along the lake. He was able to go an entire mile before crashing - try going a mile on the sidewalk on Michigan Ave.",fjkqywu,mattred33,3lke6
