child_body,child_screen_name,child_user_id,child_tweet_id,parent_body,parent_tweet_id,parent_screen_name,parent_user_id
This should be the top comment.,Halftone-KoolAid,9eavqii,fkvwsgy,"Problem with this test is that its sensitivity is only 33%. Good thing is that its specificity is 93%.
In plain English this means it does NOT detect the virus in 2/3 cases where it is present but IF the test is positive it's 93% certain that the subject has the virus.

Source (German): https://m.faz.net/aktuell/gesellschaft/gesundheit/coronavirus/virologe-hendrik-streeck-ueber-corona-neue-symptome-entdeckt-16681450.html?utm_source=pocket-newtab",fkurrsr,crz0r,zbbc0
The intermediary species theory is debunked. There is no known cause as of this time. Fyi,Halftone-KoolAid,9eavqii,fkfecbr,"Joe Rogan had Michael Osterholm on and he said they have the ability to date a virus to its jump from animals to human so Im guessing the Nov 17, 2019 is probably the one.",fke6gt1,ImSmartIWantRespect,clw1g
GDP's a really shit metric to use for the average citizen.,Halftone-KoolAid,9eavqii,fkbqetg,"That is only one way to look at income, but you do you boo boo.",fkbnppp,Box_of_Rain_1776,1zs3gwp1
Why did they fucking remove this fucking post??? I'm stuffy as fuck and could use this tip. Fucking Reddit is getting shitty fr,Halftone-KoolAid,9eavqii,fjp9qe4,"I just tried it with a fully clogged nose, holycrap it worked.

Any scientific reason as to why please ?",fjore0p,Bryght7,db2au
Did they ever figure out how they started?,Halftone-KoolAid,9eavqii,fjefkjk,"Finally, it’s over...",fjd46l3,The_Foresaken_Mind,10fq31
"Nothing is ""free"" it's just taxpayer funded now.",Halftone-KoolAid,9eavqii,fj0ig5c,I wander if the shuttle to the airport will be free as well.,fj019k6,carpenterio,qbyzk
Me too thx,Halftone-KoolAid,9eavqii,fiwcp6m,Commenting so I can watch later,fiv93ag,Capnthomas,8i9kf
Agreed. That's fucking gross. I'd fire the disgusting creature that did this.,Halftone-KoolAid,9eavqii,fino6ql,"I still don't get who would leave a prepared dish on the desk at work after lunch with plans on eating it the next day, without having it refrigerated overnight....",fin1tyt,BroncoResurrection,12xlzj
https://youtu.be/JTurSi0LhJs,Halftone-KoolAid,9eavqii,fi5qje9,\^ Goes triple for any interface with law enforcement,fi5ax5i,onetimerone,lzdde
"In 2017 his adjusted gross income was $1,131,925 though. How is he one of the smallfolk with that kind of income?",Halftone-KoolAid,9eavqii,fi1nt3z,You can’t end greed.  You can only take money away from the greedy.,fi0l0hm,Killzin87,5ap8meph
Well that makes it A Ok then right?,Halftone-KoolAid,9eavqii,fhwhds7,They actually ended that policy more than two years ago. This tweet is just old.,fhw7ct7,Brainsonastick,uxk4s
r/killthecameraman,Halftone-KoolAid,9eavqii,fh9v0ii,https://youtu.be/0k1pExbn5Us - not what I was expecting tbh...,fh922yl,Burnbabyburnnn,drjwv83
"This story and your reaction to it are exactly why I'm starting to question my own faith in the groups I align with politically. He is NOT being fired, he is being transferred with all his normal status, benefits, etc. Why do you think he is being fired? You don't even realize you arguing for something that is patently not true.",Halftone-KoolAid,9eavqii,fgzoih2,"No, in fact people get fired all the time for something trivial when the thing they did isn’t a fire able offense. The thing is, if you can prove it was for a non-fireable offense, it’s a lawsuit. Trump just didn’t really hide why he fired them. Granted, if it came to a lawsuit it’s not hard to make up something not related to testifying. But to any rational observer outside of a court of law, the most likely reason for these firings is for testifying.",fgv9v9e,iismitch55,7v0xf
So do you somehow believe he has a lifetime pass to that position simply because he testified *against* his boss? That makes literally zero sense. How is this surprising in any way to anyone?,Halftone-KoolAid,9eavqii,fgv9eoy,"In this case, you’d be answering a legal subpoena, and if you were fired for that, you’d have a fat lawsuit on your hands. This is a legal matter and isn’t comparable to internal company issues.",fguz0vg,iismitch55,7v0xf
"Every job I've ever had, I'd be removed if I did my best to undermine the boss. Just saying.",Halftone-KoolAid,9eavqii,fguyhfs,"No, Sondland’s crime was testifying at all. Trump told all his people not to testify and in mob boss fashion, he’s doling out consequences.",fgurm1s,iismitch55,7v0xf
"He reportedly got a contract for 50 mil a year recently, so I'm thinking he can afford it.",Halftone-KoolAid,9eavqii,fgj3bnr,He *does* pride himself on not paying for health insurance,fgiuhbg,1nspectorMamba,phex3
"Ben Shapiro, the Jewish Nazi lol",Halftone-KoolAid,9eavqii,fffyr17,Eh. He seems to like Ben Shapiro and the likes. He’s a nice personality but he’s pretty misguided. I guess we will see,fffqzer,SpecialityToS,z0ig8
Politics.,Halftone-KoolAid,9eavqii,ff297jj,"Seriously, what could be the motivation for this?",ff1zr9y,feelgood12321,4nsk0hbd
I find it odd that there are 2 people in this photo and we only ask that about one of them.,Halftone-KoolAid,9eavqii,fdmgfyz,So when we going after Ghislaine Maxwell?,fdm8fhq,idunnomanwtvisgood,g5vpksg
"Lol no, you don't. Well maybe you did, but no one else did.",Halftone-KoolAid,9eavqii,fcxhgcd,"~~When in ccw training in the states to get your~~ when I got license to carry, I got trained to shoot then after the target is down you literally have to do what the dude is doing. 

Pull the gun close to you in a ready position then look around for potential threats.


Edit: correction this is not the standard apparently. In my ccw class we were taught how to shoot and position our gun after taking down a target.",fcxblzl,ZarcLovesDix,qsx65
Boost for Android is best,Halftone-KoolAid,9eavqii,fc0dhdu,"I didn't use the official App aside from a few months after it's launch.

At that time picture previews were way to big, a fuck ton off ad space, really not enough content on the screen for my taste

I personally use Reddit is fun, can't complain. Feel free to try it out!",fc07js4,niler1994,iakaj
What does his racism have to do with the saying? Am I missing something?,Halftone-KoolAid,9eavqii,fbcvfrd,"Different people treasure different things. ""If everyone liked vanilla, there wouldn't be chocolate.""- my racist grandpa",fbc7s2i,bookluvr83,142itk
"I didn't say either of those things tho, I just said ""Snopes is dogshit, 💩 lok"" are you saying it's not? Cuz it is, dogshit",Halftone-KoolAid,9eavqii,fbckzzd,"So, you're saying time didn't go down as described? Or it flat out didn't happen, is that correct?",fbavf6t,Lupusvorax,zs2g3
So we should stop using Google then.,Halftone-KoolAid,9eavqii,fbcibpf,"Well yeah this is what happens when you write rules.... People find loopholes for the rule.

So next rule will be. You are not permitted to donate to a charity you are involved in. Next year.... Now the charity is in his wife|brother|sister|cousin|son|daughter name...

Until people wake up and hold some people as ""socially"" accountable (eg you refuse to deal with that person because of their greed) we will not every fix this problem.",fbbrd58,mistralol,4ly91
Snopes is dogshit 💩 lok,Halftone-KoolAid,9eavqii,fbaulmz,"Snopes summed it up best

>The study was designed to generate a controversial result. Participants didn’t come up with the idea to make Santa gender neutral: it was offered to them. The question wasn’t: ‘What would you do to modernise Santa?’, or even ‘What gender should Santa be?’

>The question fed participants gender neutral as an answer. That’s a kind of bias that real studies, conducted by companies that aren’t just trying to mine some outrage, would have worked on eliminating. And it’s a kind of bias that GraphicSpring had a vested interest in not eliminating. They wanted an attention-grabbing result that would piss off boomers already convinced of the evils of PC culture, and they got it.

>In other words, the results of a viral survey designed by a company that specializes in making business cards and flyers probably was not intended to accurately measure public opinion.",fbafhrb,Lupusvorax,zs2g3
"Wtf are you talking about, I just cut beat from my FFL squad",Halftone-KoolAid,9eavqii,fb9l0pc,IDK Brady is still doing ok with Julian Edleman and literally no one else.,fb9f3gu,InferiousX,4tmiz
What is this left trigger you speak of? You mean left click? Aim assist is cheating with a hack tho,Halftone-KoolAid,9eavqii,fb6ev33,"Quickscoping is a maneuver used when you're in close proximity though, as no one quickscope snipes across the map on the regular. That's just silly.

At that point, using the auto-aim from hitting the left trigger means that when you use this with shotguns, that's also sniping.",fb6bhzz,Demoth,fmwzs
I would love to have voter id,Halftone-KoolAid,9eavqii,fah0zvx,"The far right will say the same thing. The fact is that the far right has blocked every attempt at strengthening our election security solely so that this will happen. I expect the far right and the rich will make some major power grabs, again, either way.",fagyp5v,POOP_TRAIN_CONDUCTOR,bsbrq
"In other words, lies. If your boyfriend went out alone, and didn't let you know he was going to the strip club, and neglected to tell you he got a bj from a stripper, would that be described as inaccuracies and omissions, or a lie? Lol your mental gymnastics don't change what it is.",Halftone-KoolAid,9eavqii,fadxu8m,Inaccuracies and omissions.,facrgjh,accountabilitycounts,pj8rp
Inaccuracies and omissions... What do you call it in plain language?,Halftone-KoolAid,9eavqii,facr3uz,"It does not say they lied, and you are missing the point.",fachiao,accountabilitycounts,pj8rp
"I don't know where you are getting that from my posts. I said that lying to get FISA approval is wrong. 

If the FBI thought the campaign was compromised, they should have warned them. Just like Feinstein and the Chinese staffer. They didn't open an investigation into her, they let her know that she had a spy in her midst so she could remove him. Instead, for Trump, warrants to spy. Abuse of power scares me. Regardless of their target.",Halftone-KoolAid,9eavqii,faceld1,"the Russian mafia blew up the cell phones of a presidential candidate, and you don't think the feds should have followed up on that?",faccbk5,johnwalkersbeard,ejbpa
So you read that and it didn't seem even a little over the line? Lying to get warrants doesn't cross that line to you?,Halftone-KoolAid,9eavqii,faccwcj,"IOW: It doesn't say just that.

Funny, I thought maybe you had something I hadn't read already. 

*Yawn.*",fac3xzb,accountabilitycounts,pj8rp
"Your sarcasm sucks, I'm registered as an independent, a lifelong dead head, and a believer in decriminalized marijuana. I'm not a Trump supporter. I do believe in the role of law in modern society, and this misuse of govt agencies power scares the shit out of me. It should scare you too.",Halftone-KoolAid,9eavqii,facaydg,"as a card carrying member of antifa, I too agree that Donald Trump has literally done nothing wrong",fac4rcc,johnwalkersbeard,ejbpa
"Pg 413:
As a result of the 17 significant inaccuracies and omissions we identified, relevant information was not shared with, and consequently not considered by, important Department decision makers and the court, and the FISA applications made it appear as though the evidence supporting probable cause was stronger than was actually the case. We also found basic, fundamental, and serious errors during the completion of the FBl's factual accuracy reviews, known as the Woods Procedures, which are designed to ensure that FISA applications contain a full and accurate presentation of the facts.
We are deeply concerned that so many basic and fundamental errors were made by three separate, hand-picked investigative teams; on one of the most sensitive FBI investigations; after the matter had been briefed to the highest levels within the FBI; even though the information sought through use of FISA authority related so closely to an ongoing presidential campaign; and even though those involved with the investigation knew that their actions were likely to be subjected to close scrutiny. We believe this circumstance reflects a failure not just by those who prepared the FISA applications, but also by the managers and supervisors in the Crossfire Hurricane chain of command, including FBI senior officials who were briefed as the investigation progressed.
**In the preparation of the FISA applications to surveil Carter Page, the Crossfire Hurricane team failed to comply with FBI policies, and in so doing fell short of what is rightfully expected from a premier law enforcement agency entrusted with such an intrusive surveillance tool.** In light of the significant concerns identified with the Carter Page FISA applications and the other issues described in this report, the OIG today initiated an audit that will further examine the FBI's compliance with the Woods Procedures in FISA applications that target U.S. persons in both counterintelligence and counterterrorism investigations.",Halftone-KoolAid,9eavqii,fac39ak,Where does it say just that?,fac06fa,accountabilitycounts,pj8rp
"I am a centrist, but I agree that the report confirms just that. The sad thing is that most won't read it, they just see these headlines and take it as the final word. Read it for yourself and decide maybe?",Halftone-KoolAid,9eavqii,fabypoq,you mean the same report that also confirmed they basically lied when starting the entire thing? that's some interesting spin in the title you got there.,fabxy9r,MrHandsss,ky02c
Clip lol,Halftone-KoolAid,9eavqii,faah6s6,"Yeah cause PC users using their mouse scroll wheel to unload the full FAL clip in under 1 second, was totally fair right ?",faa7g91,katiehillsbongwater,4xah9a5v
5?,Halftone-KoolAid,9eavqii,f9o7zll,"Most likely a Fake Account or they are Air Pistols.

Regardless, the 5 rules of using and owning a Firearm should be followed.",f9n6rbr,Stan464,i4jit
Positive coverage you meant to say.,Halftone-KoolAid,9eavqii,f904eyg,The sad thing is that it’s 2019 and a presidential candidate’s campaign still lives and dies with how much coverage a privately-owned news corporation decides to give them.,f8yx0f4,enz1ey,6g86r
Yeah that headline is fucked up and divisive. I hate it so much.,Halftone-KoolAid,9eavqii,f8xe8h8,Plot twist: she didn't make a mistake. She did it because she loves people and wishes the best to everyone.,f8x5jro,khandoras,2jsyzoel
"There is a long history of the Raiders being the most penalized team, going back decades. One theory is that the uniform is psychologically influencing the refs. Black is worn by bad guys. The pirate logo. Plus the bad ass reputation of the players etc.

I think it more likely that Al was a PITA for a long time, the ""maverick"" owner, the successful outsider, means negative bias is baked into the team on a league level. IDK why, but it's fact.

Yeah. Fuck the refs. You got my upvote for sure.",Halftone-KoolAid,9eavqii,f6vl49y,Shit's rigged.,f6v9sz5,Phullonrapyst,l1742
r/suicidebywords,Halftone-KoolAid,9eavqii,f4clalw,Win-win if you ask me.,f4bxcvv,mariaheam,vff76
And yet everyone ate it up and celebrated that Kaepernick ad at the time lol,Halftone-KoolAid,9eavqii,f3a4jfn,"Wow, who would've guessed Corporate wokeness was a crock of shit all along?",f39oqfo,MistaCreepz,14dsk3
"That's a silly line of thought tbh. Literally thousands and thousands of striker fired pistols carried every day without issue. I can think of very, very few examples. You need more training imo.",Halftone-KoolAid,9eavqii,f1lhfki,"I understand that many will disagree, but ultimately my concern is an accidental discharge either due to a screw-up on my part such as catching the trigger on something on the draw or a mechanical failure. Both are unlikely but I'd rather not take the risk if I don't have to. I guess ultimately, I'm someone who favors the heavier trigger pull.",f1f59ec,morris9597,1rdzh2uh
No that's sleepy Joe,Halftone-KoolAid,9eavqii,f0yxj6e,">There's an old Mexican saying that says...  
>  
>....  
>  
>I forgot how it goes.

George Dubya is that you?",f0ysysy,DanceInYourTangles,dwydj
Right there with you. Signed Raider fan,Halftone-KoolAid,9eavqii,f0xovwu,"When your ex gets a super fucking hot significant other and you feel like absolute shit.. then they get dumped 

That’s the exact feeling I feel",f0xm0k7,she-Bro,711ju
*magazine,Halftone-KoolAid,9eavqii,f0nnsf7,"Exactly, and dont pull out your gun until youve decided to shoot it.  pulling out a gun will not de-escalate a situation so make ur mind up before it comes out and if it does, unload the whole clip.",f0nm799,TacoBellionaire,25nqho1d
"I have no control over the circumstances after the attack on our civilian citizens. Again, what does that have to do with my statement? Nothing.",Halftone-KoolAid,9eavqii,ezvgqdf,"Which is why we went after Saddam and are chums with
Saudi Arabia? Hmm",ezvgc9b,kittenpantzen,8wgmi
"Wtf does that have to do with anything I said? 

Response to an attack is justifiable in every single situation from the victim of aggression, even on an individual basis. A sovereign nation is no different.",Halftone-KoolAid,9eavqii,ezvfudl,[And the resulting wars killed hundreds of thousands](https://watson.brown.edu/costsofwar/files/cow/imce/papers/2018/Human%20Costs%2C%20Nov%208%202018%20CoW.pdf).,ezvf626,petit_bleu,m2vp1
"That's why it pisses me off so bad to hear that fucking ""some people did some things"" line. 

Like, bitch you said what? Thousands fucking DIED for some religious bullshit, show some respect ffs.",Halftone-KoolAid,9eavqii,ezveggg,"Reading shit like this makes it feel like it *was* yesterday. All that emotion comes front and center. I talked with my director at work about that today; that trauma never truly healed for anyone. And shit, even though I'm a NY native, I lived 1500 miles away at the time. My uncle retired from his job in the north tower a few weeks prior. Remembering that makes those ""numbers"" actual people real fucking fast.

When the subject comes up, especially around the anniversary, the immense tragedy is still a tangible change in atmosphere. If you lived it and were old enough to ""get it"", it's just always going to be there. It's still impossible to really process.",ezv9rcc,ReeferPotston,5cdcvhk
"I love DC but The Snake, Blanda, Lamonica, Plunkett, Flores, Gannon... He's got a lot to do still to be the GOAT.",Halftone-KoolAid,9eavqii,ezt6iqg,God I love this fucking guy. He loves this city and team just like we do. When it is all said and done for his career DC will be the best QB in franchise history.,ezsmaat,HylianKush8,i5901
Zero qb hits! Let alone sacks 😍,Halftone-KoolAid,9eavqii,ezt46mi,0 sacks on Carr is the most impressive stat from that game,ezsi0gw,skolasa,la57y
The good old GD are the exception,Halftone-KoolAid,9eavqii,ezp8z0u,"Okay but this one time I was playing a Grateful Dead song at the pump and this dude who was outside working said ""Nice.""",ezp6561,UpliftingPessimist,1stjnyni
"Lol yeah and accidentally screen shotting the totally normal conversation with girl AND accidentally attaching it to a text for your homie... totally normal, duh. Happens all the time.",Halftone-KoolAid,9eavqii,eyxkj09,Bruh convos like this are normal as shit have you never talked to a girl before?,eyxcjeg,DamianLillard0,j83zp
"If Trump is not smart and is just lucky, them he is the luckiest man in the history of the world. I don't like what he says often times, but to attribute all of his success to luck is insane. Beautiful women, money, tv show, POTUS. Crazy lucky I guess.",Halftone-KoolAid,9eavqii,eyqlwte,"The guy just copied an existing product, Amazon.

He got stupidly rich from it, because surprise suprise, Amazon had already proven the business model.

Just because you're rich, doesn't make you smart, see : Donald Trump.",eyqd8b2,EmperorWinnieXiPooh,2iv1jips
Reno is now Eastern California so the talent level is increased.,Halftone-KoolAid,9eavqii,eyoj9ss,Yeah but it’s Nevada puss. I’d still double bag it if I were him.,eynetxy,SaveOurBolts,11cno4
"You dropped this

 /s",Halftone-KoolAid,9eavqii,eyju9bw,Because far-right people are garbage who are infuriated by people existing without their permission.,eyjmodx,ReplyingToFuckwits,1377f5
"The list which the OP admitted to simply copying and pasting is so full of misrepresentations and flat out lies that cognitive dissonance is not applicable. Just because part of list is accurate does not mean the whole list is. You are wrong in your characterization of me as ""one of them"" and wrong to think of ANYONE that way.

You are blinded by your foolish adherence to one ideology. I truly work hard to stay in the middle and not make rash decisions based on any preconceived notions. Try to use your brain instead of your emotions to make decisions.",Halftone-KoolAid,9eavqii,exm2umc,"Cognitive dissonance is a hell of a drug. 

So, you see an entire list of dozens of right wing terrorists attacks, so your response is to find a couple you don't agree with in order to throw out the entire thing and maintain your feeling that both sides are the same, it's fucking pathetic. Face it, you are the baddies.",exhxcwg,DisruptRoutine,13mls1
"Vegas? A bank robbery? Lol you are grasping at straws with most of these you know that right hahaha. And to deny the ideology of the Dayton shooter is simply disingenuous. Like I said not taking sides, but you have to admit there is violence on both sides unless you are willfully ignorant.",Halftone-KoolAid,9eavqii,excignd,"Let’s compare the two shall we? 

Number of Right Wing Terrorist Attacks in the United States that claimed at least one or more lives.

1.	⁠2019 El Paso Mall Shooting
2.	⁠2019 Gilroy Festival Shooting
3.	⁠2019 Poway Synagogue Shooting
4.	⁠2018 Florida Yoga Studio
5.	⁠2018 Pittsburg Synagogue Shooting
6.	⁠2018 Florida School Shooting
7.	⁠2017 Las Vegas shooting [NOTE1]
8.	⁠2017 Charlottsville Nazi/Trump Rally
9.	⁠2017 Portland Train Stabbing
10.	⁠2017 Timothy Caughman Stabbing
11.	⁠2017 Austins Bar and Grill Olathe, KS Shooting
12.	⁠2015 Colorado Planned Parenthood Shooting
13.	⁠2015 Lafayette Shooting
14.	⁠2015 Charleston Church Shooting
15.	⁠2015 Florida Police Ambush
16.	⁠2014 Las Vegas Police Ambush
17.	⁠2014 Kansas Jewish Center Shooting
18.	⁠2014 Blooming Grove Police Shooting
19.	⁠2014 Forsyth County Courthouse Shooting
20.	⁠2013 Los Angeles International Airport Shooting
21.	⁠2013 Alabama Bunker Hostage Crisis
22.	⁠2012 Tri-State Killing Spree
23.	⁠2012 St. John’s Parish Police Ambush
24.	⁠2012 Sikh Temple Shooting
25.	⁠2011 Pacific Northwest Killing Rampage
26.	⁠2011 FEAR Militia
27.	⁠2011 Tucson (Gabby Giffords) Shooting
28.	⁠2010 West Memphis Police Shootings
29.	⁠2010 Carlisle, PA Murder
30.	⁠2010 Austin, TX Plane Attack
31.	⁠2010 Florida Sovereign Citizen Police Ambush
32.	⁠2009 Ft. Walton, FL Shooting
33.	⁠2009 Minutemen American Defense Hispanic Slayings
34.	⁠2009 Okaloosa County, FL Police Gun Range Attacks
35.	⁠2009 Brockton, MA Black Targeted Shooting Rampage
36.	⁠2009 Pittsburgh Police Shootings
37.	⁠2009 Holocaust Museum Shooting
38.	⁠2009 George Tiller Assassination
39.	⁠2008 Knoxville, TN Church Shooting
40.	⁠2004 Tulsa OK, Bank Robbery
41.	⁠2003 Abbeville, SC right-of-way Standoff
42.	⁠2002 Massillon, OH anti-government Shootout
43.	⁠2001 Dallas Anti-Arab Revenge Shootings

Before 9/11 but after the 1993 World Trade Center bombing.

1.	⁠2000 Pittsburgh, PA Racially Motivated Spree Killing
2.	⁠1999 Fort Worth, TX SYATP Shooting
3.	⁠1999 Los Angeles Jewish Community Center Shooting
4.	⁠1999 Midwest Murder Spree
5.	⁠1999 Redding, CA Arson Attacks & Anti-Gay Murders
6.	⁠1998 Barnett Slepian Assassination
7.	⁠1998 Cortez, CO Watertruck Shootout
8.	⁠1998 Birmingham, Alabama Planned Parenthood Bombing
9.	⁠1997 Army of God Attacks
10.	⁠1997 Aryan People’s Republic Six State Terror Wave
11.	⁠1996 Spokane Phineas Priests Bombing Campaign
12.	⁠1996 Atlanta Centennial Olympic Park Bombing
13.	⁠1996 Jackson, MS Larry Shoemake Murder Spree
14.	⁠1996 Aryan Republican Army FBI Shootout
15.	⁠1995 Palo Verde Amtrak Derailment
16.	⁠1995 Oklahoma City Bombing
17.	⁠1994 Boston, MA Planned Parenthood Shooting
18.	⁠1994 Lubrock, TX Nazi-Youth Race War Murders
19.	⁠1994 John Britton Assassination
20.	⁠1993 Pensacola, FL Women’s Medical Clinic Shooting

Total: 425 Dead

 Number of Left Wing Terrorist Attacks in the United States that claimed at least one or more lives.

...

Before 9/11 but after the 1993 World Trade Center bombing.

1.	⁠I dunno, the last Unabomber attack, 1995? (/e)

Total: 1 Dead

 [1] *Vegas gunman is suspected of being led to terrorism by right-wing conspiracy theories, based on multiple eye-witness accounts and newly found documents [Source]. However, the Las Vegas police have closed the case with no motive found [Source], so take that particular line-item how you'd like.

Also: My findings/thoughts on the Dallas & Baton Rouge cop killers and why they aren't ""left wing"" for those interested.

Edit: the Dayton Ohio shooting was a personal attack, the guy killed his sister, it had nothing to do with “anti fascists” like the idiots are trying to claim.",ex8cu37,dbcaliman,yj9d1
And the Dayton shooter was motivated politically. The Philly cop shooter was a black Muslim a couple days ago. Was he also alt-right whatever that even means? Please be rational and understand extremism exists in all of the ideological spectrum.,Halftone-KoolAid,9eavqii,ex89y6l,"Wow, you found one shooter who happens to have leftist political leanings that had nothing to do with shooting. 

There is a big difference between someone following a certain political ideology and using that ideology as a motivation for the attack.

But you know that.  You just can't handle the truth that you belong to violent group of genetically stunted inbreds.",ex74x3x,DisruptRoutine,13mls1
Scalise? Ngo? I'm not taking sides just pointing out there are violent acts on both sides. Be objective.,Halftone-KoolAid,9eavqii,ex89em5,"Wow, you found one shooter who happens to have leftist political leanings that had nothing to do with shooting. 

There is a big difference between someone following a certain political ideology and using that ideology as a motivation for the attack.

But you know that.  You just can't handle the truth that you belong to violent group of genetically stunted inbreds.",ex74x3x,DisruptRoutine,13mls1
Just like the Dayton shooter. Right? The violence from the left is just as damnable as that from the right. Violence is violence,Halftone-KoolAid,9eavqii,ex6yxix,"Yeah! These guys are way worse than lunatic alt-right mass shooters.

Largest /s of all time.

(you're a cunt)",ex6xk3v,I_SHIT_ON_CATS,4v5ay
"For those that don't know, what did he do to get banned?",Halftone-KoolAid,9eavqii,ewsk67p,For those who don't know he is considered the best CSGO player in the world.,ewrpyp3,DICKENSSS,40h6exbb
Clips...,Halftone-KoolAid,9eavqii,ewnhly3,"Yup. They would be like ""why does somebody need all these military assault weapons and all the clips and bullets? Must be an extremist!""
And I agree, very nice storage area here.",ewmvhzz,SineWavess,45wvdfk3
"And this entire sub, buys right into it.",Halftone-KoolAid,9eavqii,ewllciz,"I made a comment a few weeks ago about how what's happening in our politics might be some long game done by the Russians after the fall of the USSR. Another reddit user linked me a wiki article about [this Russian book, *Foundations of Geopolitics*](https://en.wikipedia.org/wiki/Foundations_of_Geopolitics) published in 1997. 

For those who do not want to click it: 

> The book emphasizes that Russia must spread Anti-Americanism everywhere: ""the main 'scapegoat' will be precisely the U.S.""

> Russia should use its special services within the borders of the United States to fuel instability and separatism, for instance, provoke ""Afro-American racists"". Russia should ""introduce geopolitical disorder into internal American activity, encouraging all kinds of separatism and ethnic, social and racial conflicts, actively supporting all dissident movements – extremist, racist, and sectarian groups, thus destabilizing internal political processes in the U.S. It would also make sense simultaneously to support isolationist tendencies in American politics""

As you said. It's working.",ewlko8l,AFlockOfTySegalls,32p7wg4b
Upvote equals racism. You heard it here first.,Halftone-KoolAid,9eavqii,ewiadf3,Is that an upvote on his right eyebrow?,ewhpgw0,RockyToadKarma,36nwer5h
This is brutal and honest. You should get a fucking Pulitzer for this post.,Halftone-KoolAid,9eavqii,ewh5y66,"We thought this world would be in a lot better shape by now. Then some of our peers had kids, lost IQ points in the process, and turned into law and order, racist, Clinton voting POSs in a misdirected attempt to protect their children and property values. They were on a mission to child-proof the constitution and obliterate everyone's rights, especially brown people. 'What about the children' was their war cry and progressivism died every time that phrase was uttered.",ewgw7kw,cogentat,68i4w
- Robert Mueller,Halftone-KoolAid,9eavqii,eunelq1,"""just because someone is not facing charges or is declared not guilty after trial, does not mean that they didn't actually commit the crime""",eumzocl,FirstEvolutionist,4l61j
Under rated comment.,Halftone-KoolAid,9eavqii,etpxw7m,"""Lake-Bottom Booze you make the rockin' world go round!""",etpwy1z,Soddington,8hukb
"Clips are what civies use in their hair, this is called a magazine.",Halftone-KoolAid,9eavqii,ethhl22,"“Get 20 EKIAs with the last three in the clip of the reliable shotgun in quadrant F7 while ziplining, after throwing 3 disruptor round hop-ups, which increase shield damage for the Alternator and the RE-45, off the map in quadrant A5, while wearing a Level 1 Brainbowl, Level 2 Kevlar and a Level 3 Last Stand perk, at the exact moment when the colonel says “Ring”, or Romeo India November Golf, the timer includes the numbers 6 and 9 (haha, nice) and your squad consists of either a medic and a grenadier or a tank and a scout on a Tuesday, accounting for Greenwich Mean Time.”",ethbcdb,Gumfondle,14srfc
Agreed. The course was fun but kinda need until that whole. Robert Trent Jones I think.,Halftone-KoolAid,9eavqii,et71cz0,"Ok course, but great hole!",et6liwg,mattythedaddy,97wkz
"And some joined to serve their country come good times or bad, with no motivation beyond that. Honor and tradition and service are very admirable reasons to join.

And OP we call it Independence Day. The 4th of July is just the date.",Halftone-KoolAid,9eavqii,esvd18i,"Also not everyone who joined believed these ppl. Some wanted to pay for college, some wanted to kill, and some just didnt know what to do with their lives, joined, then oh sit its war time happened",esta3wz,klone_free,13zubu3d
You can course on the internet now. Feel free!!!,Halftone-KoolAid,9eavqii,erxn9gc,"tap titans 2.

2+ years. every fu...ing day",erxffm2,bfpires,167nuk
Yeet Cannon 9,Halftone-KoolAid,9eavqii,eru14pp,Huh...yeet,ertyy8f,BrandonOR,h59hm
"But didn't it already end and there are literally no differences? I really want to understand this issue, but I honestly see no difference so far? Please help me understand.",Halftone-KoolAid,9eavqii,erf2xhf,"As long as his 10 internet billionaire bros say no, it ain’t gonna happen.",ereo0f1,zoot_boy,2vumgxtq
Klay,Halftone-KoolAid,9eavqii,er78iw2,Game 6 Clay no less.,er73skt,Bad_Decision_Penguin,7a06z
Other countries too. I think.,Halftone-KoolAid,9eavqii,eqz6lhw,No he is not injured very much. Its a pretty safe red bull festival and it's called Flugtag german for fly day or flying day,eqxy4em,XDmonFML,sxeox1i
Sup,Halftone-KoolAid,9eavqii,eqv94xh,"""OH YEAH!"" -- Koolaid Guy",equqj3a,Sandscarab,sz549
"Listen, you fantastically retarded motherfucker. I'm going to try and explain this so you can understand it.

You cannot control an entire country and its people with tanks, jets, battleships and drones or any of these things that you so stupidly believe trumps citizen ownership of firearms.

A fighter jet, tank, drone, battleship or whatever cannot stand on street corners. And enforce ""no assembly"" edicts. A fighter jet cannot kick down your door at 3AM and search your house for contraband.

None of these things can maintain the needed police state to completely subjugate and enslave the people of a nation. Those weapons are for decimating, flattening and glassing large areas and many people at once and fighting other state militaries. The government does not want to kill all of its people and blow up its own infrastructure. These are the very things they need to be tyrannical assholes in the first place. If they decided to turn everything outside of Washington D.C. into glowing green glass they would be the absolute rulers of a big, worthless, radioactive pile of shit.

Police are needed to maintain a police state, boots on the ground. And no matter how many police you have on the ground they will always be vastly outnumbered by civilians which is why in a police state it is vital that your police have automatic weapons while the people have nothing but their limp dicks.

BUT when every random pedestrian could have a Glock in their waistband and every random homeowner an AR-15 all of that goes out the fucking window because now the police are out numbered and face the reality of bullets coming back at them.

If you want living examples of this look at every insurgency the the U.S. military has tried to destroy. They're all still kicking with nothing but AK-47s, pick up trucks and improvised explosives because these big scary military monsters you keep alluding to are all but fucking useless for dealing with them.

Dumb. Fuck.",Halftone-KoolAid,9eavqii,epxt9f1,Have fun with your AR-15 vs missile-equipped drone fight.,epxph7v,ChiIIerr,bq4wl
Or Vietnam,Halftone-KoolAid,9eavqii,epxsqj7,Tell that to Afghanistan.,epxoeem,MotherfuckingMonster,aeli1
I think you might want to add that hat now. I'd buy one too.,Halftone-KoolAid,9eavqii,epv4vgo,Nope we sell other hats though on the website,epuvgn8,DJSkate,2kig3smf
Tagged for later. Ty.,Halftone-KoolAid,9eavqii,eonqx48, [https://letsenhance.io/](https://letsenhance.io/)  seems to do exactly what you're asking for.,eomt8m4,Kraawken,3dyoxkz8
We are Groot,Halftone-KoolAid,9eavqii,eo36i91,We are real bois,eo2m9um,yaboyguzy,casuv
What's funny is that California is actually 50th lol. Alabama is like 43rd. Haha,Halftone-KoolAid,9eavqii,eo24iw1,"I think there were some really nice infographics in r/dataisbeautiful showing correlation in levels of education and intelligence with political and social standings, guess who likes ""pro-life"" bullshit",eo1tpea,sassydodo,qds2a3i
"I can't wait to see Notch at the celebration, an amazing community, an amazing creation. Thank you Notch!",Halftone-KoolAid,9eavqii,enwozdq,Happy birthday Minecraft! You will always hold a special place in our hearts,enw74ec,9_Ghastly_9,paout2n
I understood that reference.,Halftone-KoolAid,9eavqii,emrrcsk,"Yeah, but he's too busy stealing 40 cakes. That's as many as four tens. And that's terrible.",emrqag1,1mikeg,8uw5u
Bye Felicia.,Halftone-KoolAid,9eavqii,emfq7fd,"For someone who thinks other should get over themselves, you sure are prickly. That obliviousness is why I didn’t think you would get the original, and each subsequent message pounds the proof home.

Edit; But I myself continue to argue with you, so I’m also an idiot. So I’ll say adieu and spare us both.",emfntin,_onward_and_upward_,101nz2
"Fucking get over yourself, you are a self important douche canoe.

Pound Sand!",Halftone-KoolAid,9eavqii,emfmv9q,"Ah, the ubiquitous “joke.” lol 

Cheers!",emfjsc3,_onward_and_upward_,101nz2
"WTF are you talking about? You cat's? Y'all? I don't belong to whatever group you want me to. You just make massive assumptions and attack huh? Whatever though, if you didn't get the joke, it has nothing to do with me. Get over yourself and learn to laugh a little bit. Fucking grumpy bastard.",Halftone-KoolAid,9eavqii,emfiqfp,"You cats always come out swinging, then hide behind some sort of fake propriety and virtue signaling of your own. It’d be clever if it weren’t overplayed and conspicuous.

Edit: Also; for a generalized group that has trouble with “snowflakes” and being overly-sensitive, y’all as a general rule are pretty insecure and touchy about how other people live.",emfgzth,_onward_and_upward_,101nz2
That's nice of you to respect my low iq and not lord your terribly high iq over me. You are a good person and I wish I were more like you and less like me.,Halftone-KoolAid,9eavqii,emfgmcl,I’d reply with r/signalyourvirtue but I don’t think you would get it.,emfft84,_onward_and_upward_,101nz2
That's the most circular logic I have seen yet. Well done!,Halftone-KoolAid,9eavqii,emczmi2,"If the pensioner could access a gun, the criminals could access it even more easily. 

If he criminal is going into a house where the owner might have a gun, he would have had a gun instead of a screwdriver. 

This is more likely to end in a dead pensioner that if there is limited access to guns.",emcv72t,whatsupskip,af743
"I am aware... you seem... less so.

I used a line from a video game. Cuz you know, it's funny.

And the rifle hanging from his neck is not a garand. But you do you boo boo.",Halftone-KoolAid,9eavqii,emcpjpd,A clip is also what is used to load a lot of weapons like the M1 garand and some magazines.,emcl4gx,itsjustchad,chp1i
"""Clips are what civies use in their hair... this is called a magazine.""

--Bangalore",Halftone-KoolAid,9eavqii,emckqgs,If this was Borderlands that would DEFINITELY be the clip for the missile,emcjays,Hotpocket1515,16dqvd46
So you are advocating for control of speech then? American values you say?,Halftone-KoolAid,9eavqii,eljuly1,"Simply

How do you destroy a nation of freedoms?

Poisoin the well.

If a nation is free to talk about anything, ensure what they talk about divides them.",eljsgyw,Qtarthis,30rhrkcr
"Context does matter. It's will fully ignored in this case, folks have chosen their side. Facts on either one be damned.",Halftone-KoolAid,9eavqii,eljj3d9,His next statement is him talking about how independent councils ruin presidencies and there is nothing he can do about it. Maybe you should read the report before spreading out of context quotes. It is the same exact thing that the Republicans are doing to Omar and it needs to stop,eli3hc0,197197197,2dvha6si
"That sounds a bit like ""we need to pass the bill to find out what's in it"".


Our system of law is not designed to prove innocence, you can't put a man on trial to ""see if he's guilty or not"".",Halftone-KoolAid,9eavqii,eljic80,"In my opinion anyone who genuinely wants to know if he is guilty or not should support an impeachment hearing where he can testify and actually prove if he’s completely exonerated. Those that fear he might have committed criminal acts, of which obstruction seems the most obvious, would not be in favor of impeachment because even though all it means is the truth will come out, they’re afraid that truth could show his guilt.",elipp6o,Evil_Bananas,d7dsq
But it's the religion of peace tho,Halftone-KoolAid,9eavqii,elf382t,With so many explosions happening at once it makes me think it happened *because* it's Easter Sunday and the churches would be full :/,elercb1,CottonCandyLollipops,pi8zs
"https://www.mrctv.org/blog/flashback-obama-lost-popular-vote-2008-primary

Learn to google, you sound like an idiot when you say shit that's just simply incorrect as if it's fact. Don't be a douche bag.",Halftone-KoolAid,9eavqii,el0v6ke,"He didn’t, but whatever helps you sleep at night.",ekzu21m,slyfoxninja,8x4jb
Yes he absolutely did.,Halftone-KoolAid,9eavqii,ekztxx8,No he absolutely did not.,ekyzm1n,slyfoxninja,8x4jb
"Obama lost the popular vote too, FYI.",Halftone-KoolAid,9eavqii,ekx5pv6,I mean the majority of voting Americans didn't elect him because he lost by about 3 million votes.,ekwwrjn,slyfoxninja,8x4jb
"I love boobs. Big ones, small ones, cue-balls in tube socks... all boobs are good boobs.",Halftone-KoolAid,9eavqii,ek2pbsl,"When I was young, I fell asleep after a shower on my bed naked. My older sister saw me and made fun of my boobs. I always thought I had saggy boobs.

I just started dating again after a long break and when a man finally gets to see my boobs he is blown away. They all think they are great. And my flat ass too. They love it. I make them send the compliments in a text so I can screenshot it and send it to my sister. 

Your boobs are great because they are boobs! Men love the lady bits so much. If one complains, dump him! There are 100s more just waiting for a chance to motorboat you. 

",ek2jiad,fortunado09,14db4w
Clips are what civies put in their hair. THIS is a magazine.,Halftone-KoolAid,9eavqii,ejwjkjv,"Because light ammo weapons don't burn through ammo like an lmg does right

R301 with a purple mag is 28 bullets and clears a clip in like 1.5 seconds ",ejwgjgf,whomad1215,5l009
