child_body,child_screen_name,child_user_id,child_tweet_id,parent_body,parent_tweet_id,parent_screen_name,parent_user_id
"Here's an even better question to ask: how in the world would they have kept the USSR quiet?

So, the Soviets won the space race, then allowed the US to falsely claim that they landed on the moon? 

It makes absolutely no sense.",heroic_stoic,wwo8tbr,fl9kpqj,"My favorite point that I like to make is: how did they get several hundreds of thousands of people who were involved in the manufacturing process to lie?  Like the people who built the rocket to a specification to hold enough fuel to get to the Moon, were they all in on it, were they all somehow lied to but went to the trouble of building and launching a rocket that big only to pretend to launch it?  How would that even work?  Hundreds of career mathematicians working the trajectories and thousands of top level engineers working to meet specifications specifically to go that distance, were they all in on it?  In 50 some odd years not a single person has come forward and said, yeah we all just pretended to be working.",fl85cmc,TheHumanParacite,bnpey
"That reminds me of the Y2K scare. 

An enormous amount of money went into preventative measures. When everything ended up being okay, a lot of people viewed the ordeal as a joke. I remember seeing people angered that they ""wasted our tax dollars.""",heroic_stoic,wwo8tbr,fl9ee58,"Work in IT. I hope it goes better than our field. We try to tell people that if everything seems normal then that means we are doing our job. Years go by without outages, we spend money investing in improvements... then board/CEO tries to cut our budget with the logic “nothing ever happens, why is their budget so big??”

Edit: thanks for the gold! And as posted below, thanks to all IT and support/infrastructure services during these trying times. There are a lot of fields that go unnoticed and if we all take a moment to realize our field of view is actually really tiny, we will definitely appreciate others more!",fl8m85p,mtspsu258,17d3ga
"It's irritating to always see this narrative posted on Reddit. It isn't true.

Gary Webb purchased a .38 revolver and shot himself twice. You see, reality isn't like a movie or video game. It's not uncommon for someone to be shot in the head and remain conscious. Not only was the revolver of low caliber, but it was also loaded with standard full-metal jackets.

>He was forced to resign, disgraced, blacklisted, divorced

And you think that might not have had something to do with his death? He killed himself because the government ruined him. There is not one shred of evidence that suggests he was murdered.

You don't need to peddle conspiracy theories to make the United States look bad. The simple truth of the matter is that they made him feel that his life was not worth living-- perhaps that's even worse than murder?",heroic_stoic,wwo8tbr,fl873lv,"The silencing, embarrassing, and killing of Gary Webb.

Gary Webb was an investigative journalist who proved that the CIA was selling massive amounts of drugs (particularly cocaine) to (typically black) poor neighborhoods all over the US. This was in order to fund an overthrow of the Nicaraguan government by US-friendly terrorists during the 90's.

He was forced to resign, disgraced, blacklisted, divorced, and found dead with two bullets through his head in 2004. It was ruled a suicide despite the facts he owned no guns, and it being *two bullets through the head in a suicide*.",fl7pvq2,Lenin101,16jvbx
"If that's the case, I could probably throw together a decent folding machine.

I have an old i7-2600k and plenty of ram just sitting around. I'll just need to find a compatible motherboard with onboard graphics.",heroic_stoic,wwo8tbr,fl6yark,"For folding CPUs are going to get it done faster most of the time. You can absolutley fold with whatever hardware you have, dont listen to the stigma of you need good hardware to fold.",fl5imb0,noobguy57,1b1zqgj
"This is rather dark; but with global economic depression being a certainty, perhaps the Japanese government is intentionally dragging their feet? 

The largest issue that Japan faces is long-term economic sustainability due to their low birthrate and lengthy lifespans. They may see the virus as a ""solution"" rather than a problem. They could choose short-term suffering in order to prosper in the long-term...

I hope I'm wrong. Be safe.",heroic_stoic,wwo8tbr,fktm9ih,"Each day it's getting worse in every single country in the world. I live in Japan and do you know what's on the news? A panel of news anchors talking to medical professionals asking ""Comparing Japan to other countries, aren't THEY overreacting?""",fktcf7v,BeardedGlass,4dlw0xt
"That would be the intelligent thing to do, but jeez-- if the economy crashes, how is he going to get re-elected? And if the virus ended up not affecting adversely Canada, then he would be chastised for overreacting. 

Jesus Christ... Politicians can't even put aside party politics during a global emergency. I'm absolutely disgusted by how our government's pragmaticlly valuing the lives of Canadians. 

Every sociopathic politician in North America: ""Hmm. How many people should I let die in order for me not to too look bad. A thousand? Two thousand? Hey! Someone bring me a team of ethicists!""",heroic_stoic,wwo8tbr,fkno0fj,Close the border to personal travel! We need to flatten the curve NOW!,fknhibu,BrianBlandess,i2t2l
"You're looking at this the wrong way.

The fact of the matter is that the world's economy is going to suffer terribly. It's possible that this may be the start of a depression similar to that of the 1930s. But do you know what would devastate our economy even more? People dying.

The economy doesn't matter right now. We need to protect our populace. If we lose too much of our population, then we're looking at a situation that could take a generation or two to recover. 

This is going to hurt us. We're going to suffer immensely due to brainwashed Americans fearing socialized healthcare. Thanks, McCarthy.",heroic_stoic,wwo8tbr,fkf1q7o,"People who wonder where the ripples after this is over will stop, that's who.

Canadian or American, that's a valid question: How will this get paid in the end?  We can defer payments and rent and utility bills for weeks or months... but sooner or later, we're looking at a massive cratering of the economies of a lot of nations.

I have grave concerns about the long term outlook of the U.S. and the Canadian, even the Mexican, economies.  We're screwed.",fkf03o3,ladyofthelathe,1ag829hd
"The same thing happened when my old boy passed away. We decided to place the urn within the display cabinet. My other three pups moped around him during the day and slept beside him at night. 

It's been almost two years now, and they still sleep next to him. They shuffle between my bed and the cabinet during the night. Two on my bed; one next to the cabinet. 

My old pup raised the other three-- he was their father and friend. We miss that good boy.",heroic_stoic,wwo8tbr,fk2tbbq,"Because dogs, and animals in general, are a lot smarter than people want to give them credit for. For the most part, they understand pain and suffering, and in a limited capacity, they understand death. When one of my parents dogs died and was cremated, their other dog was lethargic and sappy for a week. She nested/made a bed right next to the deceased dog’s ashes. They grew up together and did everything together, and she realized she wasn’t “there” when they brought that thing home. 

I don’t see why you people think dogs are just these derpy idiots all the time. They’re much smarter than you want to give them credit for.",fk2pdif,capnslapaho,5te4a
"I've noticed this as well. I've found that it can be avoided by ""double checking"" PI.

The PI shown at the top of the screen tends to get glitched for some unknown reason. The proper number will always be shown in the tuning window.",heroic_stoic,wwo8tbr,fjghojf,This happens when I save a tune. It will actually be in one class when I save and share the tune but then when you apply it the PI changes. Not sure why this happens but it has happened since the game was released.,fjg972z,PTG-Jamie,1dipsvqr
"I have! There are numerous Christian denominations. Some are organized and some are interpersonal. One could argue that the persecution of homosexuals is in fact a heretical act.

At the end of the day, scripture relies solely on interpretation. That is why the schisms occurred and why we witnessed the Catholic church persecute anyone who went against their interpretation. This persecution is what famously lead to Jan Hus being burned at the stake and the Hussites (lead by the legendary Jan Žižka) slaughtering the invading Catholic crusaders.

Here are two examples of passages that a Christian may hypothetically refer to:

>Luke 10:30-37  
>  
>Then Jesus answered and said: “A certain *man* went down from Jerusalem to Jericho, and fell among \[[a](https://www.biblegateway.com/passage/?search=Luke+10%3A30-37&version=NKJV#fen-NKJV-25394a)\]thieves, who stripped him of his clothing, wounded *him,* and departed, leaving *him* half dead.  31 Now by chance a certain priest came down that road. And when he saw him, he passed by on the other side.  32 Likewise a Levite, when he arrived at the place, came and looked, and passed by on the other side.  33 But a certain Samaritan, as he journeyed, came where he was. And when he saw him, he had compassion.  34 So he went to *him*  and bandaged his wounds, pouring on oil and wine; and he set him on his  own animal, brought him to an inn, and took care of him.  35 On the next day, \[[b](https://www.biblegateway.com/passage/?search=Luke+10%3A30-37&version=NKJV#fen-NKJV-25399b)\]when he departed, he took out two denarii, gave *them* to the innkeeper, and said to him, ‘Take care of him; and whatever more you spend, when I come again, I will repay you.’  36 So which of these three do you think was neighbor to him who fell among the thieves?”  
>  
>37 And he said, “He who showed mercy on him.”  
>  
>Then Jesus said to him, “Go and do likewise.”

&#x200B;

>Matthew 5:43-48  
>  
>43 “You have heard that it was said, ‘You shall love your neighbor and hate your enemy.’  44 \[[a](https://www.biblegateway.com/passage/?search=Matthew+5%3A43-48&version=NKJV#fen-NKJV-23279a)\]But I say to you, love your enemies, bless those who curse you, do good to those who hate you, and pray for those who spitefully use you and persecute you,  45 that you may be sons of your Father in heaven; for He makes His sun rise on the evil and on the good, and sends rain on the just and on the unjust.  46 For if you love those who love you, what reward have you? Do not even the tax collectors do the same?  47 And if you greet your \[[b](https://www.biblegateway.com/passage/?search=Matthew+5%3A43-48&version=NKJV#fen-NKJV-23282b)\]brethren only, what do you do more *than others?* Do not even the \[[c](https://www.biblegateway.com/passage/?search=Matthew+5%3A43-48&version=NKJV#fen-NKJV-23282c)\]tax collectors do so?  48 Therefore you shall be perfect, just as your Father in heaven is perfect.",heroic_stoic,wwo8tbr,fjae2ul,Have you ever read the Bible?,fja9yp5,W3NDY15AN3RD,31ay082b
"It sounds like the developers might've been taking a contract regarding restoration, only to later realize that the project is impractical or flat-out impossible. 

Unfortunately, not everything can be restored. Sometimes you can do things like use bricks from the original structure, but the Douglas family might be reluctant to allow it to be demolished.",heroic_stoic,wwo8tbr,fja8t1x,The developers keep dropping out for some unknown reason,fja3t9k,Ayy_2_Brute,14d4p9
"Haha. Isn't it funny? The police are well-armed, but ill-equipped to help us. They are given less rules of engagement than the military while being paid twice as much as a raw recruit.

Something is wrong with this world of ours. I don't know what the definition of a police state is, but it sounds like we're living in one...",heroic_stoic,wwo8tbr,fiqkqzo,"You could argue that on top of racial discrimination, police forces are often uniformed and ill equipped to deal with people with mental health issues.",fiqj8vp,SmashB101,ndqnxjr
">Uh....did this make headlines?

It was probably mentioned in my local newspaper. I heard that videos of the shooting were being passed around on Facebook. 

>A person with a knife can score a hit before a trained officer can deploy their sidearm and fire. It's called the 21 Foot Rule

To be honest, I doubt the ""21 Foot Rule"" applies to senior citizens.",heroic_stoic,wwo8tbr,fiqarx7,"Uh....did this make headlines?

Were any of them trained and equipped with a tazer?

Firearms are specifically for the self defence of the officer and when it comes to a knife, it's useless still in its holster. A person with a knife can score a hit before a trained officer can deploy their sidearm and fire. It's called the 21 Foot Rule",fiqa1r8,ouyin2000,8x7yh
"Well, aren't you condescending? 

Everything I stated is based upon the common consensus of historians and religious scholars. You see, I actually spend time researching the history of Islam. 

I do not make assumptions about the history of Islam based solely upon scripture. You want to know how arrogant you're behaving? It would be like if a Muslim used the Bible to try to understand the history of the Christian world. They would say the same things as you. Based on the words of the Bible, they'd believe that Queens cannot rule in a Christiandom. 

Now, either do some research and get back to me-- or go stroke your ego elsewhere.",heroic_stoic,wwo8tbr,fipyvub,"Is that English for ""I cannot support my statements so I piss off with my tail between my legs""?",fipxroi,Vienna1683,a0yif
"I'm going to go out on a limb and guess that you're Austrian. 

Your English is rather good, but your reading comprehension could use a bit more work. 

For example:

>You should know that a woman can never be Caliph. Do you think that fair?

The first sentence sounded rhetorical in nature, so I therefore disregarded it and focused on answering whether or not it was fair.  There's no reason to continue this conversation if the language barrier is going to prevent us from coming to a mutual understanding.",heroic_stoic,wwo8tbr,fiptw2r,"> Why does scripture matter to you more than historical precedent?

Because that is what Islam is based on. Quran, hadith and interpretation by consent of the scholars.

>Well, no; 

Maybe learn a bit more about Islam before making broad statements about it? That is pretty fundamental.

>but the same could be said for virtually every head of religion...

And who believes this is a good thing except for the followers of those religions?",fipq40e,Vienna1683,a0yif
"It's good to see that the women of the Apollo program are finally being recognized.

[Check out this small infographic to learn the names of the others.](https://i.imgur.com/OqEcaVx.png)

The infographic is well done, but leaves out one crucial woman: Grace Hopper. Although not employed by NASA, her brilliance as a programmer is what made the moon landings feasible.",heroic_stoic,wwo8tbr,finhd56,"Men would not fly without her checking the computer's math.

This woman was more than a legend.  She's more important to the history of manned spaceflight than we give her credit for.",finb9t1,DroolingSlothCarpet,16nm7l
">>And stay in your houses, and do not display yourselves like that of the times of ignorance…” [al-Ahzaab 33:33]. These positions also require perfect wisdom, reason and alertness, and the testimony of a man has been made equal to that of two women, the reason for which Allaah has explained in the aayah (interpretation of the meaning): “… so that if one of them (two women) errs, the other can remind her…” [al-Baqarah 2:282].

Again, I don't understand. Why does scripture matter to you more than historical precedent? It's clear that Caliph Al-Mustansir Billah thought she was worthy enough to disregard the guidelines set by the Quran. Contrary to popular opinion, Islam was rather lenient in 1067. It wouldn't be ""radicalized"" until the 14th century. 

>You should know that a woman can never be Caliph. Do you think that fair?

Well, no; but the same could be said for virtually every head of religion... 


Religion has excluded women from positions of leadership since the eradication of paganism. To act as if that's something wholly unique to the Quran is erroneous.",heroic_stoic,wwo8tbr,fin520d,"https://islamqa.info/en/answers/3285/ruling-on-appointing-women-to-positions-of-high-public-office

>“And stay in your houses, and do not display yourselves like that of the times of ignorance…” [al-Ahzaab 33:33]. These positions also require perfect wisdom, reason and alertness, and the testimony of a man has been made equal to that of two women, the reason for which Allaah has explained in the aayah (interpretation of the meaning): “… so that if one of them (two women) errs, the other can remind her…” [al-Baqarah 2:282].

and

>“No people who appoint a woman as their leader will ever prosper.” (Reported by al-Bukhaari, 13/53).

You should know that a woman can never be Caliph. Do you think that fair?",fin0yxy,Vienna1683,a0yif
"Too many people misunderstand this. We need to stop using the phrase ""toxic masculinity.""

Toxic masculinity is not about masculinity itself being toxic. It's about a person having a harmful perception of masculinity.

For example: if you've seen That 70s Show, Red's character exemplifies toxic masculinity. He treats his son harshly in order to make him ""more manly,"" while constantly spoiling his daughter solely due to her being a girl. He has many other toxic ideas surrounding masculinity, but the treatment of his children is probably the most notable.",heroic_stoic,wwo8tbr,fimrc3e,"With modern America - female empowerment and view of masculinity as toxic, good luck ever being a man in this type of situation where a woman rapes you. This thread is proof enough that 99% of the time the man will not be believed.",fimigbs,skippwiggins,jb7v9
"I'm sure you're all aware of the Fermi Paradox. Now, Imagine if crony capitalism *is* the Great Filter.

Billions of worlds, just like ours-- doomed to fail solely due to selfishness. How... sombering. Perhaps greed itself can be called a force of nature.",heroic_stoic,wwo8tbr,fhw4j3o,"Imagine dooming your species and the entire planet for a few decades of profit.


A part of me wants to believe these idiots probably thought science will catch up and we'll be able to fix it somehow or colonize another planet. But it's 2020 and we don't even have flying cars. We fucked.",fhvxqnj,ezone2kil,9icdf
"In the distant past, church was a necessity. At the time, the common man could not read. The organization of religion was necessary in order to spread the word of God; but today, if I were to snap my fingers, and every church in the world were to vanish...

If that happened, I'm willing to bet that over half of the world's Christian population would never again read a page of scripture. From what I've seen, most people don't seem to care about it in a religious sense. Church has become a pedantic ritual that people treat as though it were a club.",heroic_stoic,wwo8tbr,fhj6tl9,"One of my coworkers is damning of my brother being gay and my allowing it. I asked her once if she read the bible ever. And my answer was no, she just attended church.

So i am not surprised at all when the religous dont know a majority of their own scripture.",fhily8f,Stehlik-Alit,yns4a
"It's surprising how many people are unaware of this. 

If you're in trouble with the law, you shouldn't speak to anyone but your lawyer. Everything you say to your lawyer is confidential. Anything you say outside of his office can be used against you in court.",heroic_stoic,wwo8tbr,fhfoxnq,Posting stuff on reddit and not going straight to a lawyer,fhez49d,going_there,nif1yri
"I'll give the civil war series a shot.

Thanks for convincing me.",heroic_stoic,wwo8tbr,fgp89ce,I think what you’ll miss out on by doing this is an in depth look at the lives of those living the subject of the docuseries. The way they use personal correspondence is incredible— especially in the Civil War series.,fgp64l1,do_u_like_dudez,oj9s345
"It's difficult.

For example, I've tried to fact check H. G. Wells' books ""The Outline of History,"" but it was nearly impossible to do as a mere student of history.

It's far more practical to look at the common academic consensus than to meticulously comb through fact and fiction.",heroic_stoic,wwo8tbr,fgnp3ef,Seems thorough enough to me. I’d check it out and then decide for yourself.,fgmr9va,do_u_like_dudez,oj9s345
"Isn't Ken Burns rather controversial for perpetuating myths and omitting details?

I was interested in watching his series, but I've avoided them ever since hearing about his issues regarding bias.",heroic_stoic,wwo8tbr,fgmi7dq,The west and his ww2 series are also awesome. Safe to say if you see “Ken Burns” just watch the damn thing,fgm529b,do_u_like_dudez,oj9s345
"That must be it. I turned them off when I first started playing because I found that they often got in the way during Forzathon Live events.

I suppose I'll need to turn them back on. Thanks for your help.",heroic_stoic,wwo8tbr,ff6ktaf,"The Player Name Indicators (the little boxes above the cars where a player's gamertag is visible) are colour coded - the square on the left of it where their level would normally be is a solid red or blue, and the whole indicator has a red/blue outline - you should be able to tell friend from foe at a distance.  You might have this setting turned off in the HUD and Display Settings.  Having never turned it off I don't know whether it would stay hidden in Playground Games or display automatically.",ff6jxl0,DaddyBee42,8nzbjk
"You're right. That's what I'm trying to say. They've corrupted something that has existed for many, many years. 

Today, if you are to say that you're ""anti-fascist,"" people believe that you're siding with a bunch of hoodie donning cowards. But my family has identified as such as far back as my great-grandparents.",heroic_stoic,wwo8tbr,ff2zszo,"> The movement has existed for a hundred years, yet people are acting as if the whole concept is null due to the actions of a few.

And even then: what ""actions"", specifically?

I have yet to have *anyone* point me to any specific, concrete example of Antifa as a movement or 'organization' doing anything super-objectionable.",ff2yfgp,Kawauso98,16xwct
">""Hey, did you hear that Greta Thunberg has ties to Antifa?"".

Isn't it weird how a concept like anti-fascism is being spun as a bad thing? The movement has existed for a hundred years, yet people are acting as if the whole concept is null due to the actions of a few.

My great-grandfather was an anti-fascist, and so was my Nana. As a Canadian, he volunteered to fight as soon as war was declared. She, on the other hand, was a Scottish woman whose family would be killed during the Blitz. She fought fascism by caring for its victims as a nurse.

To be anti-fascist is within our blood, and was once a part of our national identity. 

What the hell happened? Why is everyone forgetting this?",heroic_stoic,wwo8tbr,fexw6s7,"You just described my department to a ""T"".

Everyone is so annoyed with the one con's constant bs conversation starters ""Hey, did you hear that Greta Thunberg has ties to Antifa?"". ""I can't believe people keep dragging Trump into everything"" -in relation to the downed aircraft. ""It's just a hat guys"" when someone walked through our department wearing a MAGA hat... in Ottawa....

We've all steered so far away from the way he thinks. Farther than we would have normally.",fesu1xu,Amsterdom,5qx5w
"Ah, thanks for the info. I appreciate it.",heroic_stoic,wwo8tbr,fekqohm,"Just an FYI - the Obama deportation figures are inflated, as they include the number of people turned away at the border, in addition to official deportations. 

https://www.latimes.com/nation/la-na-obama-deportations-20140402-story.html",fekkawd,WHARGARBEEES,5xt0d
"Is it even comparable? 

I mean, Trump has probably been golfing for longer than Obama's even been alive. At the very least, he should be ""decent"" at it.",heroic_stoic,wwo8tbr,fe58wdg,"Neither are professional-tier golfers. But from what I’ve read, Trump is actually good for an amateur.  Obama, not so much.

Edit: as OP pointed out Trump has [been known](https://www.cnn.com/2019/05/17/politics/donald-trump-golf/index.html) to cheat at golf [A LOT](https://www.golf.com/news/features/2019/04/02/how-why-president-trump-cheats-golf-playing-tiger-woods/), so that arguably exempts him from being called 'good' at it at all, even if his non-cheating game is above average for men his age",fe3npc7,ResplendentShade,1y5tnhwq
"It may have been intended as a method of poisoning. Or perhaps it was designed to be a concealable lock pick? I'm not an expert on locks, but it looks like it'd be an ideal tool for 19th-century espionage.

Maybe it belonged to a spy working as a courtesan? Like a... Spanish Mata Hari.",heroic_stoic,wwo8tbr,fdrrndd,You're probably right. I can't see it penetrating anything other than soft flesh and thin fabric. Maybe a tool for an assassin?,fdq9vl6,JubeltheBear,4s001
"""Never attribute to malice that which can be adequately explained by stupidity.""

We Canadians know that Trudeau isn't racist. He's simply an idiot. 

Honestly, he most likely thought it was okay because he was doing ""brown face"" instead of black face.",heroic_stoic,wwo8tbr,fdqeiwv,"Does anyone actually give a fuck? He apologized and said he didn’t believe at the time it was racist, but that he now realizes his mistake. I think that’s a perfectly fine apology/explanation. 

You can have the right intentions while still making missteps. I’d rather have a guy who once wore blackface, realizes his error, and came clean, than someone who just pays lip service to a movement to score political points.",fdps5q8,CountCuriousness,163qpb
"Unfortunately, that isn't true.

For example: historically, American war criminals have used the ""following orders"" defense and were acquitted.

The best example of this is perhaps the My Lai Massacre. In 1968, 300+ civilians (including children) were killed by American soldiers. I believe the commanding officer was imprisoned (via house arrest) for a few years, but then received a pardon from Richard Nixon.

Also, all of the high-ranking officers responsible for ""covering up"" the massacre were acquitted.

This wasn't the first or last time that America disregarded the legal precedence set by the Nuremberg trials. The unfortunate truth of the matter is that when you're the strongest nation in the world, the rules do not apply to you...",heroic_stoic,wwo8tbr,fdn0jsp,"Are you actually not aware that ""just following orders"" is not a valid legal defense?",fdmz1q6,Toparov,kz9bb
"EVIL MINDS THAT PLOT DESTRUCTION

SORCERERS OF DEATH'S CONSTRUCTION",heroic_stoic,wwo8tbr,fdmwmd4,JUST LIKE WITCHES AT BLACK MASSES,fdmklut,JacP123,pos5p
"I couldn't help but be reminded of this [scene.](https://youtu.be/HFVuAW9q1SQ?t=9)

You don't fuck with Jean-Luc!",heroic_stoic,wwo8tbr,fdmw0w0,This reminds me of my best friend’s neighbors who had life size Star Trek cut-outs their house. One day their house alarm gets tripped when they were out of town so the police arrive to check things out. Well through the frosted glass window by the front door the police see a person holding a gun. They then proceed to have a multiple hour stand-off with a cardboard cut-out of Jean-Luc Picard holding a phaser.,fdmestq,PersnicketyHazelnuts,4y5bd7vg
"You may not need to look that far. It is entirely possible that the Earth has been home to advanced prehuman civilizations.

It may sound crazy, but 4.5 billion years is an unfathomably long time. Within those billions of years, other civilizations may have risen and fallen due to their negligence regarding the planets climate. 

We will never know...",heroic_stoic,wwo8tbr,fdht2x9,"It really makes you wonder if humanity will really last very long. At this point, we're bound to snuff ourselves out like the flame of a candle. I wonder if there are any other civilisations out in the universe that have met the same fate.",fdhm5x3,Superman19986,xp6hz
"No, I don't. Because based upon what I've read about the subject, there is not a single credible conspiracy theory surrounding the events of 9/11.",heroic_stoic,wwo8tbr,fdhc01n,"Do you believe the official conspiracy theory of 9/11? Because, by definition, that is a conspiracy theory.",fdh04l9,plentyoffishes,nay95
"I didn't intend to imply that all Kennedy theories are sensible. My intention was to say that some of them are.

I've not heard of a single 9/11 or Area-51 conspiracy theory that is based in fact. They are largely baseless and lack any foundation in reality.",heroic_stoic,wwo8tbr,fdgjn6v,"Why do you think the Kennedy theories are okay but the 911 theories are ignorant, idiotic? Aren't you doing exactly what you're accusing 911 conspiracy theorists of doing?",fdg1xhp,plentyoffishes,nay95
">Do you mind listing a couple of these conspiracy theories?

Sure thing. Firstly, what do you mean? Are you talking about the ones surrounding JFK's assassination? 

Edit: If so, then the most popular ""realistic"" theory is that there was more than one shooter. The primary reason this is a possibility is due to the audio analysis of the Zapruder film. Upon secondary analysis, I believe it was discovered that besides the three shots depicted hitting Kennedy, there were an additional three sounds in the recording that may have been gunshots. 

As a result, the secondary investigation could not conclusively state that Oswald acted independently. There are a few other plausible theories, but this is probably the most critical of them.",heroic_stoic,wwo8tbr,fdfk72f,"I agree with you to an extent.

I find that the realistic conspiracy theories feed into the feeling of helplessness that a lot of these guys have. The belief in 9/11 conspiracies supports the belief in the government being a barrier to these individuals flourishing.

The fantasy conspiracy theories seem to reinforce the notion that once again, governments are just puppet masters that are exerting their will on us by hiding fantastical revelations that will bring us to the next level and allow us to be the best we can be.

Do you mind listing a couple of these conspiracy theories? I used to be super into them until I started working with the government and realized governments are pretty damn inept. For instance, 9/11 didn't happen because it was planned by some deep state but simply a disbelief that extreme attacks could happen. Most analysts would have never ever believed that 3 planes could be simultaneously hijacked and used as missiles.",fdfionk,livinglavidaloca69,2230eceh
"That's awesome! I have some anime wallpapers in my collection that might look good in Wallpaper Engine. 

If you're interested, I uploaded a handful of them [here](https://imgur.com/a/cqki2lh).",heroic_stoic,wwo8tbr,fdfjj7a,"Wallpaper - [From this set of vectorised wallpapers](https://www.reddit.com/r/FLCL/comments/324u6p/flcl_vectorised_wallpapers_round_7_1920x1080/?utm_source=share&utm_medium=web2x) \- [Added ember effects in Wallpaper Engine](https://steamcommunity.com/sharedfiles/filedetails/?id=1961947223)

Taskbar - [Transluscent Taskbar](https://www.deviantart.com/arkenthera/art/TranslucentTaskbar-1-2-656402039)

Time & Weather - [Zaro](https://www.deviantart.com/hiphopium/art/Zaro-803288580)

Visualizer - [Fountain of Colors](https://www.deviantart.com/alatsombath/art/Fountain-of-Colors-desktop-music-visualizer-518894563)

Am not actually in the Beverly Hills",fdeo4uj,AnalyzeCube,1vhnv2nh
"I heard it was all done by one person.

Some kid named Kyle...",heroic_stoic,wwo8tbr,fdff19j,Ok but 911conspiracy.biz said the government did it.,fdferp4,leroyyrogers,ct8bp
"I disagree.

There are two types of conspiracy theories: those based in reality, and those based in fantasy (or desire). Not every conspiracy theory should be looked upon with the same level of incredulity. There's an enormous difference between say... the conspiracies surrounding the assassination of John F. Kennedy compared to those of 9/11 and Area-51. 

At least the former side has some valid points based in reality. The other is based upon ignorance, idiocy and desire (e.g. the ""I want to believe"" types). The latter of these two are the ones you're describing.",heroic_stoic,wwo8tbr,fdfemwo,Conspiracies occur when people need to find a justification for shitty things that have happened to them. I know it's anecdotal but every single conspiracy theorist I know believes that their chosen conspiracy theory is the reason for why they're unsuccesful/unhappy/lonely.,fdfcdbu,livinglavidaloca69,2230eceh
"I mean, why not?

It isn't as though they would chat about the incident every Thanksgiving. Historically, such things would be treated as though they never happened.",heroic_stoic,wwo8tbr,fdfcpdp,And they hid it for generations?,fdfbo0h,thenysizzler,3gxaak5y
"That's one of the good things about Moore's law coming to an end. We've become far too focused on raw power.

It sort of reminds me of the development of the internal combustion engine. We hit a brick wall, and in order to get more out of our engines, we had to find ways to make them more efficient. These engines eventually contained the same raw power, but were now able to draw more energy out that power.

On one side, we have a 1908 Ford Model T-- on the other, a 2020 Bugatti Chiron.

I wonder if we'll be as successful with optimization as we were with the ICE. We can only hope, right?",heroic_stoic,wwo8tbr,fdf7q5u,If the article is right why dont they convince ubisoft and the likes to actually optimize their games instead of just demanding more specs? DOOM 2016 can be run on a 2200g/vega 8 meanwhile more modern titles require latest hardware for a minimal improvement in aesthetics,fdec6ek,iiRein,d7p4dzs
Would it be possible that there is an unknown lineage due to a birth out of wedlock?,heroic_stoic,wwo8tbr,fdf5q87,"The only living relatives are on Lincoln's mother's side...Nancy Hanks Lincoln. One of those verified relatives is the actor, Tom Hanks. But the (paternal) lineage of Abraham Lincoln ended with the passing of his great-grandson...Robert Todd Lincoln Beckwith.",fdeu66q,1865,76tkj
"What do you mean? You're not making sense.

Democracy is a system of governance, and Socialism is an economic system. There have been Democratic-Socialist countries in the past-- those being Chile and Peru. Chile was overthrown by an American backed coup, while I believe the Peruvians were overthrown by a Soviet sponsored coup. 

Also, you're incorrect about socialism restricting humans. That would be Authoritarianism, which is a dictatorial system of governance. 

You should learn more about these topics. The government relies on ignorance to enforce the status quo. Enlighten yourself, and remove the blindfold placed upon you by McCarthyism.",heroic_stoic,wwo8tbr,fdf4zge,"But we're a democratic nation, not a socialist one

Human brings have always strived for more, that's how we got to where we are today, and socialism restricts humans. It doesn't let them be free to be who they are",fdey9r0,KingAnidem,3u0h6t2s
"I absolutely agree with what you're saying. On paper, it does look peculiar.

But a statistical anomaly is not necessarily a falsity. An anomaly should be undoubtedly scrutinized, but not discounted as a possibility.",heroic_stoic,wwo8tbr,fde0yxp,"But is you look through the height differences can vary by an inch between places, so a 2 inch jump is not that surprising.  Placements for age are grouped a lot tighter together giving it a much tighter distribution.  Calment is a much more significant outlier than for height.",fddxy4h,justin107d,j6tpz
"That may be true, but its no reason to suspect that Calment (122) and Knauss (119) were younger than they claimed. 

For example; without vaccination, you're almost certain to die from rabies. Only fourteen people are known to have survived the disease without aid. 

In reality, there are often exceptions to the norm... and sometimes, miraculously so.

Edit: On second thought, a better comparison would perhaps be the list of the tallest people in history. When looking at the list, we can see Robert Wadlow (8'11) and John Rogan (8'9) are the outliers. But we *know* they stood that tall.",heroic_stoic,wwo8tbr,fdcwymc,"I had a discussion in this topic with an actuary.  Supposedly she out lived the next oldest by about 2 years and then that person out lived the next highest by about a year, then all the results are days apart as if there is a wall to become 118.


[list from Wikipedia](https://en.m.wikipedia.org/wiki/List_of_the_verified_oldest_people)",fdcmghk,justin107d,j6tpz
"Apparently, our facial features changed over time. I was simply wondering to what degree-- and how recent these changes were.",heroic_stoic,wwo8tbr,fdck572,"I think that if you compared 10 white people from the US to ten white people from different European countries, you’d get as much of a difference. Take ten African Americans and compare them to ten African-Africans from different countries. Compare Thai people to Vietnamese to Korean to people from Guam.

I don’t really think could describe a “typical” “modern human “ face.",fdcjs1m,haf_ded_zebra,3vnj8ie3
"What? Why would you ever think that I even sided with him? 

All I did was speak the truth. You're explicitly not supposed to draw a gun on someone who already has one aimed at you. 

I literally just said what experts advise, and people are jumping on me for it. Kill the messenger, I suppose.",heroic_stoic,wwo8tbr,fdce85w,Why would you ever side with a criminal robbing people and causing PTSD and all sorts of issues instead of empathizing with a victim? And why assume he hasnt done that? You just go around pointing guns at people and living a merry life? People that do that aren't nice people. They're obviously willing to kill.,fdcdryh,billion_dollar_ideas,cvczc
"No, it isn't. Unless you know that someone is coming for your life, you're not supposed to escalate the situation. 

This isn't my opinion. This is what you're supposed to do according to the experts.",heroic_stoic,wwo8tbr,fdcdtwu,Chances are they woulda killed him anyway. It’s a gamble one way or another.,fdcc2a6,DisparityByDesign,9v1m4
"I believe I remember reading that our facial features evolved at an increasing rate over time.

Would there be any discernable difference between the faces of our ancestors compared to present man? And if so, did the discovery of agriculture play an important part in it?",heroic_stoic,wwo8tbr,fdcd3te,"No they wouldn't be discernably different with the naked eye. We might find some 'old' pieces of DNA in their genome, but since 10 000 years is basically nothing evolutionary speaking, that won't make any difference in a practical or psychological sense.

Homo sapiens now isn't much different from homo sapiens 10 000 years ago.


Source: am archaeologist.",fd8ya63,Vlinder_88,31955258
"You're absolutely right. You should never draw a weapon when you already have a gun pointed at you. 

A car isn't worth your life. If that gun was real, he would've been dead.",heroic_stoic,wwo8tbr,fdc8tme,"The guy actually got pretty lucky, if the robber had a real gun, he could've easily shot him as he was grabbing his gun. He clearly had a jump on what he was reaching for.",fdbzz6u,stachetok,ee2pu2q
"From what I've read, it looks like their conclusion is rather unsubstantiated.

The reason people seem to have to doubt her age is due to her being an ""outlier."" It appears that there is no evidence supporting their speculative claim. 

The only way we'll truly find out is if her body is exhumed, and that is not going to happen. Not anytime soon, and certainly not without some solid proof.",heroic_stoic,wwo8tbr,fdc6r8c,"To add to this answer, there's an increasingly popular theory that that French woman was never 122 years old, but around 90 instead, and she changed her identity to her mother's when she died in order to avoid some costs. A Russian team was investigating the issue and concluded this was true, which infuriated the French.",fdbwsjs,Jandromon,1x8evn
"Are you perhaps suggesting that it may be cheaper to prevent catastrophic disasters than re-build entire cities?

That's a bold strategy, Cotton. Let's see if it pays off for them.",heroic_stoic,wwo8tbr,fdac1qq,"Let's pick the ""country is an apocalyptic firestorm"" battle.

Here's a crazy idea: it might be cheaper to not have shit burn to the ground.",fd9mqk8,astrawnomore,8rbs3
"Well, it's a good thing I wasn't talking about military veterans. I was talking about combat veterans. War veterans. Those who carry the weight. 

You know, like the family and friends that I've seen die from overdoses and suicides. 

I apologize for being so misleading.",heroic_stoic,wwo8tbr,fd5u4v1,"Spoken like someone that has only read about the military. There are far more non-combat jobs that provide job training, possibly a security clearance, and preferential treatment in the civilian job market. I’m not saying it’s all roses, but it’s very misleading to say that all veterans will have PTSD and chronic pain. In fact, the overwhelming majority won’t.",fd5o0p6,PrdBlkMan,2fwt1m6q
"Salvation? 

That seems like an odd word to use. I'm sure they'll be overjoyed with their newly acquired PTS & chronic pain. Hell, just keep them suffering, and the poor will get rid of themselves! 

*pop*

One less hungry mouth on the welfare.",heroic_stoic,wwo8tbr,fd5j70k,That's because the military is salvation for poor kids. You can recognize the situation is fucked but the institution that saves you - that's something else.,fd5hg65,bookwench,4jg8i
"You're not wrong, but they have typically sponsored terrorism against the western presence within the Middle-East.

This act may have lead to them shifting their efforts to support terrorism domestically. Although the future cannot be predicted, it isn't a stretch to posit that this action may have instigated a retalitory attack comparable (or greater) to that of 9/11.",heroic_stoic,wwo8tbr,fczce7r,So? The Iranian government has been sponsoring terrorism against the US for literally decades already.,fcz99dg,BeefyBelisarius,3qjn9gzc
"It isn't. Not yet, anyways...

In many ways, Section 2 has been benefitial for us. But in recent years, the government has become increasingly overzealous. These actions are likely due to our politicians catering to parents (and other potential voters, of course). 

So, in other words, politicians are throwing people under the bus in order to secure votes. They've literally created a victimless crime in an effort to secure power. 

It's truly worrying. They've hijacked the principals of our nation and have started to use them against the populace. I wonder; who will they set their sights on when they run out of ""villains?""",heroic_stoic,wwo8tbr,fcy0bih,"That, precisely, is the troubling thing. What if it is a crime?",fcxnih3,conventionistG,3zcam
That sounds interesting. Does the mod attempt to re-imagine content cut from the original release?,heroic_stoic,wwo8tbr,fcx6jwc,"Revision strongly overhauls and expands the original levels. Fun to vary things up, but IMO best to save that for a second or third playthrough.",fcvnmby,1080Pizza,cpjt0
">* Gamers should try to reference talking points they've heard about trans people from Ben Shapiro, Jordan Peterson, and/or from JRE.

I've recently started listening/watching the JRE. I loved his interviews with Brian Cox and John Carmack.

Is Rogan truly as vitriolic as Shapiro and Peterson? I've yet to hear him say anything overtly offensive.",heroic_stoic,wwo8tbr,fcvl2ie,"Probably should add:

* Gamers must reference obligatory combat helicopter joke, at least once during any interaction with a suspect trans person.
* Gamers should try to reference talking points they've heard about trans people from Ben Shapiro, Jordan Peterson, and/or from JRE.
* Gamers can also cite vitriol from former Johns Hopkins doctor who has long been debunked.
* A 6th grade education is the only minimum requirement to cite biology as a reason why trans people are not real.
* Deflect any claims of trans men as 'butch lesbos' whose mom you fucked.
* Ignore non-binary identities as all video games are build on binary code, therefore, if gaming can't exist without a binary, neither can human beings.
* If you really want to irk a person with trans, initiate every exchange you have with a trans by saying, *""I'm not transphobic but...""* and insert the most anti-trans thing you can think of.
* When all else fails, sing that Aerosmith song your Boomer grandparents use to mock your 'gay' uncle.",fcv5d53,2Eyed,9b5gh
"Well, you're conveniently ignoring the backlash they faced for speaking up. 

Also, Nanjing?

late edit: To be more specific; it's been recognized by individuals. Some of whom worked for the government, and were prompty thrown under the bus by their peers. The Japanse government (as a whole) has still not formally apologized for their genocidal actions in WW2.",heroic_stoic,wwo8tbr,fbtqzh4,"https://en.m.wikipedia.org/wiki/List_of_war_apology_statements_issued_by_Japan

How many times do Japanese political and military representatives have to apologize before you'll consider this part of history ""acknowledged?""",fbte2ed,chikachoko,4j5j6gj6
"To be fair, Japan still refuses to acknowledge the war crimes they committed against China. 

Their idiotic lack of remorse has fueled Chinese nationalism since WW2 ended.",heroic_stoic,wwo8tbr,fbtbdxr,Today’s Japanese are not responsible.,fbt3180,MrNuoo,7ylhk
"I don't understand why people are opposed to further socialization of our health services. Poor dental hygiene can affect your overall health; therefore placing an unnecessary burden upon our current model. 

We're carrying the burden regardless, so we should focus on a utilarian model. We'll initially sustain a financial hit, but our longterm healthcare costs will decrease.",heroic_stoic,wwo8tbr,faeh1bh,"> I’d rather pay for good dental care than socialize it

So the people who can't afford it should just pound salt I guess.",fae9mcr,shrimp-heaven-when,26vmreuj
"I checked out his review videos, and they're great! I've only tried out his Datsun tune, but it is exceptionally well done.",heroic_stoic,wwo8tbr,fadtzis,Same with HokiHoshi.,fac4mgh,ferruccio63,m3vai
"Thanks! I'll be sure to check out your tunes. So far, I've only test driven your Legacy RS. 

It goes pretty good!",heroic_stoic,wwo8tbr,fadtplk,"I in the majority of my tunes try to stay within the confines of originality,and minimal swaps. 

I AM L393ND 90",fadks3t,KarlDavies90,104t4m
I'll check his tunes out. Thanks for the recommendation!,heroic_stoic,wwo8tbr,fac7zi9,Ptg Jamie.,fabt05d,SteffenStrange666,4t56lawh
Thank you for the recommendation. I'll check his channel out!,heroic_stoic,wwo8tbr,fac7w84,"STEVIO2175 from Youtube often tries to keep his tunes within the spirit of the car.  They are fun to drive, but not as competitive as others who go full conversion...",fabxet4,SeanFrank,64bvj
"Ridiculous? How so? 

It's a logical philosophical belief. It's merely an ideological reflection of Heidegger's [Geworfenheit](https://www.wikiwand.com/en/Thrownness).",heroic_stoic,wwo8tbr,f9yujq2,"That's a ridiculous viewpoint, but I remember making a lot of excuses for not seeking treatment when I was depressed and they probably sounded just as circular.",f9xpxso,AldenDi,vh0hr
"Northern flying squirrel? That must be Rocky! 

I wonder where Bullwinkle went?",heroic_stoic,wwo8tbr,f9ylw7w,"> The fifth species of squirrel I think there might be is the northern flying squirrel, but I'm not sure if I just saw a tiny squirrel launching itself off a tree or if that was one of them.

> Any way, back to the point of the story

No, wait, go back! I wanna hear more about the flying squirrel!",f9xw13s,TimeZarg,7qcap
"Modern day? What do you mean? 

Taking advantage of the vulnerable has been a fundamental part of Capitalism since its inception.",heroic_stoic,wwo8tbr,f9ydxer,">it's just taking complete advantage of the economically vulnerable for the convenience of the well-off.

That is the most apt description of modern day capitalism, i legitimately could not have said it better myself.",f9y300y,Fuhgly,h8vpp
"I don't remember much from the movies, but I remember the video games being quite good!",heroic_stoic,wwo8tbr,f9ycln3,This series is still one of my favorite from him.  Anyone who doesn't like it can kick rocks.,f9wrmwb,EmperorKyoka,r7a83
"Oh, I thought that people might've been misinterpreting your post. 

Nevermind, then. There is no use in interacting with someone who has no intent to listen.",heroic_stoic,wwo8tbr,f9hjmsi,">	To answer your question; yes, they did.

As evidenced by...?",f9h7ere,cryo,321gp
"To answer your question; yes, they did.

China has been surreptitously carrying out kidnappings and assassinations within Hong Kong for many years. But they've now decided to make the process much more efficient. If they can rely on the state of Hong Kong to arrest and extradite dissenters, then they will have an easier means of controlling the populace.",heroic_stoic,wwo8tbr,f9h2b9h,"> Do nothing and get tortured.

Really? I mean, did Hong Kong people get tortured on a regular basis before?",f9gh2ks,cryo,321gp
"To be honest; my first thought is that they might enjoy it. It could even perhaps be therapeutic to them.

These guys know that they're good at soldiering, and now they've taken it upon themselves to continue their profession in a different manner. They've liberated themselves as soldiers, and are now capable of an important choice. They can choose their enemies.

Will their humanitarian efforts make the PTS disappear? Certainly not. But it gives them purpose, and I must imagine it is far easier to kill the enemy you know than the enemy you don't.",heroic_stoic,wwo8tbr,f9ehcxn,"That is extremely incorrect.  Precluding sociopaths who don't experience emotion there is overwhelming evidence that everyone in combat situations is affected by the trauma of it.  Nobody is just fine with watching someone else's head explode, even if they're desensitized to it. Do some research on the topic and you'll realize how wrong you are.  There is a massive amount of research available on warfare related PTSD and trauma.",f9eb0mr,especiallysix,1sqda03c
You motherfucker. 😏,heroic_stoic,wwo8tbr,f9857ms,I'm listening.,f9756tl,GiveToOedipus,25m8svl2
"Jail, Jyle, Gaol & Carchar.

So many ways to spell it!",heroic_stoic,wwo8tbr,f95ihfp,Gaol?,f95c9uu,surreysmith,wkvjd
"Perhaps the UK public is unable to spell the word ""Pinocchio..."" 

But I'm willing to bet that they can surely spell ""Jail.""",heroic_stoic,wwo8tbr,f95bsbs,"English speaking people can't spell complicated Italian words / names?

Spell Subrahmanyan Chandrasekhar, motherfucker!",f953ahh,RedEdition,15ct8h
Yup!,heroic_stoic,wwo8tbr,f92pbg2,"Oops, I thought you were using it in terms of 'cross to bear'. So we're actually on the same side of this?",f92ock6,alesserbro,3kjevfg6
"I'm not attacking you. You have a cross next to your comment-- indicating it as ""controversial.""

Also, semantics are important. The underlying ambiguity of language makes clarification important.",heroic_stoic,wwo8tbr,f92np8z,"'Carrying that cross'?

It's almost a semantic issue. I included 'Statutory' as he's a Prince. That doesn't diminish what he did in anyway, I'm really not sure why you're attacking me and what you're trying to convey.",f92lzel,alesserbro,3kjevfg6
">He's a ~~statutory~~ rapist due to trafficking. 

There's a difference. It might be why you're carrying that cross.",heroic_stoic,wwo8tbr,f92lj29,"> Now there is actual reason like defending a pedophile. 

Fucks sake. He's not a pedo. He's a statutory rapist due to trafficking. She was 17 at the time. The problem is that she was trafficked, not that she was 17.

There are many valid reasons to criticise him, can we stick to them as they're severe enough to not be muddied by untrue claims.",f92k6ed,alesserbro,3kjevfg6
"Eighteen? 

I'm not an expert on international law, but isn't sixteen the norm amongst first-world countries?",heroic_stoic,wwo8tbr,f92l37g,"At least here in the states, many people think its 18 because that's how most states work. Not defending above commentor, just saying why people at least in the U.S. are so thick headed to jump to pedophilia, when it was other bad things like you said above.",f92kn8b,Arrowkill,eyu33
Secret tunnel?,heroic_stoic,wwo8tbr,f8ysxn4,"Once you reach the tip of the peak you can only go down...

Down into my bumhole",f8yk80e,DubbethTheLastest,46uljjp3
"

>Right now we're in a world where the rest of Canada is still completely reliant on fossil fuels, but we'd prefer to import petroleum from US fracking operations and refineries rather than support oil sands.

Yes, because fracking is far less devastating to our environment. There's nothing wrong with relying on our trade partners for ""cleaner"" oil. 

I'm not a fan of the Trans Mountain expansion project, but I'm able to comprehend the necessity of it. We live in a large, cold country-- and the most viable way of keeping our citizens warm is by constructing pipelines. 

Alberta's oil sands are not necessary for our country's wellbeing. Their continued existence is only actively endangering Canada's future.",heroic_stoic,wwo8tbr,f8cxwan,"Prepare itself for what though? For a world of net-zero carbon emissions? The rest of us haven't prepared for that at all. We're dragging our heels exactly as much as they are.

Right now we're in a world where the rest of Canada is still completely reliant on fossil fuels, but we'd prefer to import petroleum from US fracking operations and refineries rather than support oil sands.

You think natural gas is that much cleaner? Wait til you find out how much methane it leaks into the atmosphere. Oh wait, nobody's really sure!",f8cb03q,TheGreatOpinionsGuy,9bgp1wu
"Alberta had plenty of time to prepare itself for this. They chose short-term growth over long-term sustainability. 

The truth is that Albertans are upset because they've realized that they must pay the Pied Piper. They didn't think that they'd be the ones to feel the economic repercussions. 

>BC is investing heavily into natural gas projects that'll be leaking methane for the next 20+ years. 

If you think that's bad, wait until you hear how much worse oil sands are...",heroic_stoic,wwo8tbr,f8a01oz,"I guess what I'm wondering is, what sacrifices is the rest of Canada making to get there? BC is investing heavily into natural gas projects that'll be leaking methane for the next 20+ years. Auto makers are selling more trucks and SUVs than ever before. We'll offer tax credits for people to buy electric but definitely not dragging anyone away from their F150.

I'm not pro-oil sands but I can see why Albertans feel a little picked on!",f89tq49,TheGreatOpinionsGuy,9bgp1wu
"But that's not true. 

It's incredibly ironic to see Gervais discussing science as though it were a religion. 

The path of science isn't linear, and it is certainly not definitive. To say otherwise is to miss the point of science entirely.",heroic_stoic,wwo8tbr,f850f7f,"Ricky Gervais had a great line on Colbert last time. You could destroy all the science texts in the world and in 1000 years they would be back exactly the same,  religious texts not so much.",f83kb0k,captvirgilhilts,39xsu
"It'd be great for protesters in open carry states.

Example:

1. *Police start using excessive force*
2. *The order goes out over the loudspeaker.* ""Initiate order: MADlads!""
3. *Every protestor simultaneously flips their backpack to reveal an ar-15 on their chest.*
4. *Police flee when they see that the protestors are not only armed, but also have bigger guns than them.*
5. *The second amendment works as intended?*

Mutually assured destruction saves the day!",heroic_stoic,wwo8tbr,f833ugu,...umm. I'm having trouble picturing this product being used by anyone but mass murderers.,f82ch9i,Jacollinsver,8tltw
"I wonder; is this how they are most typically used? 

I don't know the maximum range of these BFGs, but they wouldn't look out of place atop a tripod.",heroic_stoic,wwo8tbr,f6xso2m,"Certainly looks like he is holding it in an awkward fashion, but I think that's on him, if he wrapped his left hand around that bottom rail, I would say it looks manageable.",f6x5vre,Tbyrd13,yjcuk
We need an answer. Time to head over to r/askoujia!,heroic_stoic,wwo8tbr,f6wzrth,"...

Nah, cant seem to hear their rebuttle.",f6wyorz,mrducky78,79rxc
"I checked it out. Unfortunately, the subreddit appears to be rather inactive.",heroic_stoic,wwo8tbr,f6kit09,"Yep, it does! But I'm sure you've found that out already.",f6k5bqt,fedfan101,3vbptme
"Does r/rallyporn exist? If not, it sure as hell should.",heroic_stoic,wwo8tbr,f6jfdax,Now this is car porn,f6jcne0,pharaonblanc,27a2dmz0
"I'm not sure if you're aware, but you can place individual channels on the whitelist.",heroic_stoic,wwo8tbr,f56e2bv,"I used to use adblockers, but I like to feel like I'm supporting the channels I like, without having to actually give them money because im broke/cheap as fuck. 
I use youtube vance on my phone tho for shit i don't care about.",f560fpk,dizzyhobo,16i5qd
I'll do it for a klondike bar.,heroic_stoic,wwo8tbr,f4zt1ys,I'll do it for tree fiddy,f4zml7z,bobsagetscumgun,s4sc7
Aquaerotic asphyxiation. ( ͡° ͜ʖ ͡°),heroic_stoic,wwo8tbr,f4zsppu,Diver ecrotic aphixation.,f4z9l1t,Wannabkate,7dj0f
">She said ""it's not that simple."" 

Matter over mind; money over morality.

I recall the words of a wise man:

>Money

>It's a hit

>Don't give me that do goody good bullshit

- Pinkus Floydicus",heroic_stoic,wwo8tbr,f4wa90r,"I have a colleague I get along quite well with due to a shared love of Taiwan - me because I had lived there when I was younger, her because her whole family has heritage there for about a generation. 

Recently Hong Kong came up and some of us at work were talking about going to a support protest and she got upset. Said ""it's not that simple."" I was shocked and asked how she could feel that way as someone who loves Taiwan - China *is* the common enemy, how could she doubt that? Turns out her and her (very rich) family are pro KMT, and in her words ""we understand how economically important China is for us."" I asked ""doesnt morality trump money?"" She said ""it's not that simple."" 

I finally had a glimpse into the mindset of the rare pro KMT young person.",f4vb77u,komali_2,3gaeu
Thanks!,heroic_stoic,wwo8tbr,f4gptqa,Inshallah for Haj and Allahu Akbar when you call a call a jihad,f4gn2y1,Lerzid,1vpm0bnr
"If they're worried about the modern implication, they'll probably try to avoid a direct translation. I can imagine them using something along the lines of, ""The Lord wills it!""

Regardless, the exclusion of the latin phrase is a non-issue. I'm certain someone will mod it in on the day of release.",heroic_stoic,wwo8tbr,f4aim7d,"Like one commenter suggested, they'll likely use ""God wills it"" instead.",f49vrvt,getoutofheretaffer,7i9kl
"So... uh...

Any luck in that rabbit hole?",heroic_stoic,wwo8tbr,f41t4vp,"Great, now I'm down the rabbit hole",f37ugn9,Spacin007,v92de
It's also pretty fun to have a drifting party on that big frozen lake!,heroic_stoic,wwo8tbr,f41sw69,I like winter to race offroad with Touareg and Porshe jeep,f412iz3,brus_li,tj6rw
"How difficult did you find the Lamborghini Cup? I'm a relatively new player. I started in the Summer season, and I was using the rental Veneno. I had to give up. Though I'm fairly certain the issues I faced weren't due to my limited choice of vehicle. I noticed that most of my teammates had their own modified Lamorghinis-- so they should've been able to pick up the slack. 

I can't tell whether it was a difficult event or if the players I matched with forgot to tune their Lambos for winter. I noticed that barely anyone used snow tires. If I was able to modify the Veneno, I think I'd make that a priority. I found myself being (accidentally) sabotaged by my team more often than not.",heroic_stoic,wwo8tbr,f41s3lh,"I usually hate winter, and this week has been a bitch with the seasonal challenges 🤬 ,but strangely I'm kinda sad to see it go today. Be spring time I get home from work...😕",f41052g,VictorE79,44fwxajb
"I didn't intend to say that this particular sarcophagus was created by such means. This one looks elaborate, and was most likely created for someone who got by relatively well. 

It's likely that the kitten contained within died naturally, but it can't be said definitively without properly examining the mummified remains.",heroic_stoic,wwo8tbr,f3mo0tm,But why buy it on black market then go to the trouble and expense to seal it this way?,f3mjoid,saffronique1,3y3on8pj
Gaynstalicious?,heroic_stoic,wwo8tbr,f3d4ons,-ngsta,f3cqbaq,JPEGexport,2zmjxgjc
