child_body,child_screen_name,child_user_id,child_tweet_id,parent_body,parent_tweet_id,parent_screen_name,parent_user_id
Probably a south Indian.,i-am-froot,4dihqt3r,fl7ra0u,wait you're verified are you black and desi at the same time?,fl7kdnr,sammyTF_,77a4urx
Yeah. He's at least 50.,i-am-froot,4dihqt3r,fkw13ld,Must be the secret to long life because he doesn't look 14.,fkvptpt,Pporkbutt,1095cd
Yes please. Let's get that empowerment flowing.,i-am-froot,4dihqt3r,fkhfnvo,Requesting reboot of this gif with all female cast,fkh1g5s,passthepass2,1aixnsr8
LMFAO,i-am-froot,4dihqt3r,fkf98k1,"*Banjo music stops*


*starts again*",fkehztz,mustard_tiger2112,4onz3s3a
It's okay honey. It's gonna bee all good.,i-am-froot,4dihqt3r,fk8nb3l,This sub makes me wanna die,fk7zp16,Comrade_Dyatlov_,43zo4s5y
WHAT THE FUCK,i-am-froot,4dihqt3r,fk7sc4c,"Here, you can eat [pussy](https://youtu.be/KfsW93y9KH0) in public and no one will question you",fk73yqa,awkward_guy92,4vo133q9
Someone needs to report this video to the cops with the licence plate number so this piece of shit can rot in hell with his driving rights suspended.,i-am-froot,4dihqt3r,fjp4tds,"Fuck you, Illinois plate BM37958. From all of us.",fjoyvu6,sofiavisitor,jyv34
Just wank to Aunt Jemima.,i-am-froot,4dihqt3r,fjgs6sx,Usually SO or family members,fjgmfw4,haydenchampion,17ea7r
Poo baby. LMAO,i-am-froot,4dihqt3r,fjgro16,But what if you made a poo-baby? You ever think about that?,fjgnq63,WitnessMeIRL,p8c4gz
Yup. Too early for that shit.,i-am-froot,4dihqt3r,fjgrggg,"just gonna save that for later, thanks very much",fjgmegu,yashqasw,55mrzse7
And lips.,i-am-froot,4dihqt3r,fjdvvdh,He be splitting them cheeks,fjdcx8d,DJ_N30N,bpahbwj
Found the Trumpanzee,i-am-froot,4dihqt3r,fjaui37,It's pretty obvious with someone like Rian Johnson. White people = bad.,fjaigfj,mason240,8wyg3
"In any case, she deserves it",i-am-froot,4dihqt3r,fj71fsc,"It’s good that it is not confirmed that she was bullying anyone.

Sources say she was likely having her head shaved because her mother found out she was having sex and/or sharing nude photos of herself online. The video has been circulating around for the last 6 years with different click bait titles.

https://www.snopes.com/fact-check/mom-shaves-daughters-head/

Edit:

I am incredibly saddened by the number of “she deserves it either way!” sort of comments coming in because women are to be abused for having a sexuality. 

Also just to clarify, the “ bullying someone with cancer” didn’t appear until a year after it had first been posted online. With the new click bait title, it then made headlines in 2016 on tabloid sites. Most sites that report on this or have written pieces are not very reputable in general so I can’t take anything I find as fact.

I imagine next year it will be reposted with the title

“ mom shaves daughters head for kicking cancer patient’s puppy, slapping a kitten across the face, and sexting a boy she’s dating”",fj6acrx,EncourageDistraction,55aykxca
"Help me step bro, my dress came off.",i-am-froot,4dihqt3r,fj6kaew,She’s his sister,fj68jso,Bulok,99tif
"The food has added taurine and all other required supplements in it. I'm not a dumbfuck. 
If you're wondering the brand is vecado. Look up the ingredients yourself",i-am-froot,4dihqt3r,fj4zj3y,"She's slowly going blind from the lack of taurine. 

Cats are obligate carnivores, they actually cannot break down plant proteins for essential nutrients.",fj4yylh,PerkPrincess,dfpj2
"Ripe or raw, no shit is cool.",i-am-froot,4dihqt3r,fj1vqff,Y’all.... r*pe shit ain’t cool.,fj1eoat,tora_uma,1vke44bx
Happy Cake day Step daddy.,i-am-froot,4dihqt3r,fixuji6,"Also, why does your astrophysicist's daughter call u dad?",fixenvz,WatertotheTree,158t06
*Step Uncle,i-am-froot,4dihqt3r,fitvwqf,Then my uncle's comes out and says I can help with the second part,fitnfkz,idkanymorewashere,5qgb5hdu
I was expecting xkcd when I read Relevant.,i-am-froot,4dihqt3r,fitvrq4,[Relevant](https://www.youtube.com/watch?v=jVhlJNJopOQ),fitrn8x,DANIEL_PLAINVlEW,3xvr4uhb
"Yeah, the hover event should just load a different image.",i-am-froot,4dihqt3r,fitvg19,.,fitq8sw,grocket,5p9j8
Because calling men uncultured is hip and cool while calling women perfect angels is woke and empowering.,i-am-froot,4dihqt3r,fitv23m,Why do people always make it sound like men are uncultured animals. They sell that shit for men too. You should be using a face scrub prior to shaving if you don't want get razor bumps. Not all men buy the 5 in 1 shampoo and motor oil.,fitmnki,MediocrePenisNumber6,1n52fute
"This comment is so good, it deserves its own post.",i-am-froot,4dihqt3r,firmi2v,"This is Sparta?

Now that the popularity of this thread has died down I just wanted to thank all those that guilded my comments, much appreciated!",fir6z93,edcuation,4ucy9qy7
Stupid Bot.,i-am-froot,4dihqt3r,fidyrli,"**Hi OP! To help people understand what exactly has aged like milk, please reply to this comment with any further infomation, context and explanation.**

*Make sure your post is not reposted from [this album](https://imgur.com/a/31166zy) or else you will be banned!*

*Please remember to join our [Discord](https://discord.gg/AJycEha).


*I am a bot, and this action was performed automatically. Please [contact the moderators of this subreddit](/message/compose/?to=/r/agedlikemilk) if you have any questions or concerns.*",fidxs5f,AutoModerator,6l4z3
You would have done that anyway with your furious masturbation session,i-am-froot,4dihqt3r,fiax3hp,"I live in a cheap japanese apartment with thin walls, thank you for waking up my neighbours",fiaqcet,dimrrkkk,1dqvpl1o
Yeah if you die while you're away,i-am-froot,4dihqt3r,fi8ck09,Doesn't this start to eat up your ram after a while?,fi8bcwa,Choreboy,3dwkq
Do we both have the same wife?,i-am-froot,4dihqt3r,fi859nc,"Makes me laugh. She’s so goofy, but only with me and that makes me happiest of all because not only is she my wife, but I get yet another side of her that few see. I count myself very lucky to have someone feel so comfortable and protected around me to legitimately just be themselves and I get the proof when we are around other people - she is still herself, but not like she is with me. It’s one of the many things I love that may seem kinda out there, but I’ve been reflecting on that for a while now.",fi6qkep,tvia901,4dv1wj32
Smort!,i-am-froot,4dihqt3r,fi84id8,"I'm going to be OK, the doctors said I'm bleeding internally, that's where the blood is supposed to be!

99!",fi7omsi,APater6076,qrwru
At this point he is the one who needs to go in rice.,i-am-froot,4dihqt3r,fi4owyl,He might need to put it in rice.,fi43r6q,jillybean41,4v76cwpt
Why are you getting downvoted? You were obviously kidding.,i-am-froot,4dihqt3r,fi290eo,tHeRe Is No HeLiUm DuMbAsS,fi1qe3s,weazleboi,52susbp3
If only redditors were smart enough to understand that subtlety.,i-am-froot,4dihqt3r,fhxe873,"This is hardly aged like milk. It's not a grand claim that turned out to be hilariously wrong, it's just a cynical educated guess.",fhxcw79,eifersucht12a,563q1
Yes and I learnt the word today as well.,i-am-froot,4dihqt3r,fhpxo02,"Ohhhh is she a polydactyl kitty?! She is so pretty!

I have no real tips other than love her and let her love you. My husband and I have 2 cats of 10+ years and they're just so much of a part of our lives i can't think of what someone would have to change for one. But I'm happy to offer advice if you have any questions! Even if that sounds contradicting hahaaha",fhpwpz7,BlizzardWolf,9wv69
Why is that so?,i-am-froot,4dihqt3r,fhpskb5,Serious tip: more than one litterbox,fhprcsv,evilsubs2,7pxap
Ok,i-am-froot,4dihqt3r,fhegb1y,Haha thanks 😊,fhedmct,Asmor,812lr
"r/tHaThAPpEnNED

Edited to avoid getting downvoted by people who don't get a joke. Smh",i-am-froot,4dihqt3r,fgjxf57,"Mine says ""choke on it fatty""",fgjso86,fishsticks40,dzgs8
Or just another independent feminist woman.,i-am-froot,4dihqt3r,fgdkxo6,"Senior citizen, student driver or drunk person........",fgcqz9r,glassycruze,nouckov
F,i-am-froot,4dihqt3r,fgbklsu,f in ethiopia stands for food,fg8o3kz,pleaselaughnow,4urn90rb
"Oh no. That made me sad. :'(
He looks like such a sweet dude.",i-am-froot,4dihqt3r,ffxxp20,[of course! ](https://imgur.com/gallery/UaXVVXE)  He died back in September and I can’t bring myself to throw out his bed or find another dog worthy enough to gift it to.,ffxxjzz,whats_she_up_to,23c84634
It's 2020. Anything is possible.,i-am-froot,4dihqt3r,ffcvzy0,Not your everyday sentence,ffc2x6k,Saltyspaceballs,54mxa04y
LMFAO,i-am-froot,4dihqt3r,ff0gspi,"Centaur as OP meant it 

[https://i.imgur.com/oEt6VNV.jpg](https://i.imgur.com/oEt6VNV.jpg)",fezsqqt,tim3k,7prjp
You must be a dentist.,i-am-froot,4dihqt3r,fdweyar,I just wanna throw out that I’ve processed at least that many hours of oral videos and I’m no scientist,fdvs5ja,cctreez,3qxesbh7
Link please.  I'm almost always seated near the wings and I always feel like the wings would snap anytime. That video would alleviate that fear.,i-am-froot,4dihqt3r,fdkpxp0,"Losing a wing requires conditions that would be pretty un survivable anyway. The z-axis flexibility on those is nuts... Also one of my favorite videos to watch.

Edit
Thanks /u/konukaame for posting this vid below.

https://www.youtube.com/watch?v=--LTYRTKV_A",fdkpryb,DJOMaul,aginj
Ok so basically it's the Bojack Horseman of sci-fi. Will try it out.,i-am-froot,4dihqt3r,fc8dlzc,It takes a while to get into. Season 1 is a lot of world building and it’s pretty slow. I definitely understand if you aren’t able to push through it. But man season 2 picks waaaay the fuck up. Season 3 is straight masterpiece. And Season 4 is veteran GoT quality TV. That amazon money really put then in their groove. It’s now my favorite show on TV.,fc7w8zt,l0calher0,b7gb8
So basically most American weddings?,i-am-froot,4dihqt3r,fc8dhvd,Files for divorce 45 min after the wedding!,fc7r3nu,HomerMadNowFite,1rr6elxw
Ohh lord,i-am-froot,4dihqt3r,fc7s1hq,"i’m pretty sure it’s 000, at least it was when i lived there",fc7eqvp,declanaussie,wcn3h
Same here. It was just too dense and I had a hard time understanding what was going on. Couldn't keep me interested past ep 3,i-am-froot,4dihqt3r,fc7qpme,"I couldn't get through the second episode.  I didn't care for the cinematography, effects, or portrayals of some of the characters.",fc7kdo7,pumpcup,sk9u3
Well you guys are obviously too tired. Donut try too hard.,i-am-froot,4dihqt3r,fbu6w9f,I thought it was a tire.,fbtsunr,LazyNovelSilkWorm,2h1slm98
r/nocontext,i-am-froot,4dihqt3r,fbnz3q9,I swear I’m calling HR if you come back to work with a dirty dick,fbm0xtf,Chopsdixs,d0suf
That's definitely how Shakespeare would end his play.,i-am-froot,4dihqt3r,fbm74bp,Even if it did you probably couldn't find it anyway,fbm0exh,EndsLikeShakespeare,9g1bh
LMFAO,i-am-froot,4dihqt3r,fbhf2ay,Amazon when you order same day shipping at 11:59 p.m,fbhbugd,UnseenCapybara,30a3srjl
r/nocontext,i-am-froot,4dihqt3r,fbhe6az,Tans. I like me a milky lady. Creamy like bailey's from a shoe.,fbgxaus,tteabag2591,6s9f5e9
It used to be good when did did videos weekly. Then they started churning out crap with several videos a day and the quality went to shit.,i-am-froot,4dihqt3r,f9irs2e,"""*Welcome to WatchMojo.com and today we're counting down our picks for...*""",f9i8295,ZackZack996,mk7skid
"Yes, I remember that comment. Holy shit.",i-am-froot,4dihqt3r,f8tpfjv,"The previous time this question was asked, someone replied 'sucking the caviar straight outta the fish cunt' and I laughed myself straight into an asthma attack",f8t996h,Nandikepandi,2kvs2olg
Ruined my pants.,i-am-froot,4dihqt3r,f8e0obr,Sultry walk before she started ruined it...,f8dv1qd,lazarustls,3py39lsj
White people,i-am-froot,4dihqt3r,f7x3wt1,Who tf goes camping in winter in the first place.,f7wyptp,melvinator_121,444248ya
Yes,i-am-froot,4dihqt3r,f6r7fa2,what came first the crane or the crane,f6r1421,shaanc,iu8rq4o
scripted asians.,i-am-froot,4dihqt3r,f6mu2n6,Who brings a brush and a mug around and not bag. /s,f6mgbn2,tommy96814,q5hgd
Wow. Link?,i-am-froot,4dihqt3r,f5b5pop,i posted a pic of my.black mouth cur this morning,f5a9mvw,eggplanthedgehog,4my96rqt
LMFAO,i-am-froot,4dihqt3r,f58pbrg,"And here I was, thinking it was hentai",f58kflt,AlesTA_1,3w3l0c7w
This is a such a novel sentence. Wish there was a sub for comments like this one.,i-am-froot,4dihqt3r,f4u6vmw,Jerk off Hitler's dad so the load carrying Hitler won't become Hitler,f4txekq,EUOS_the_cat,4m6jubwd
Agree,i-am-froot,4dihqt3r,f3xjh64,"Do you **Agree** or **Disagree** with this opinion?

Please reply to this comment with either '*agree*' or '*disagree*'.

Because your vote is now personal, we wish to afford some anonymity to users, and so your votes will be automatically hidden by the AutoModerator, but they will still be counted.

#**Do not vote on your own submission, it will not be counted.**

Current Votes:

Total Votes|
:--|
95|",f3wst83,UnpopularOpinionMods,3myo4c5f
They're 17 and 18? In Dog years?,i-am-froot,4dihqt3r,f3x3qm1,[Is this them?](https://www.youtube.com/watch?v=rrNbLBS1D2Q),f3x1qgg,sajmonides,9v5xa
"It's surprising how my brain filled in 'be'. I didn't even notice it until I read your comment.
Makes me feel what else my brain has been filling all the time.",i-am-froot,4dihqt3r,f3uklsj,Could it a cat ?,f3u6hrp,miked221976,4o4rabr5
It's Relay for Reddit. One of the best apps for Reddit man. What app do you use?,i-am-froot,4dihqt3r,f3ui9fs,TIH whatever app you're using,f3tzwe5,DeusVult1776,sbctg
You can upload it from the app.,i-am-froot,4dihqt3r,f3s9bvz,Is there a way for me to post a pic in reply?,f3rypnv,eggplanthedgehog,4my96rqt
Meanwhile reddit cannot handle the truth so they're downvoting you.,i-am-froot,4dihqt3r,f3s9783,"People are saying it's fine because it's just a skit, but I bet if the same skit is done with reverse genders it'll get pointed out as inappropriate and it doesn't matter that it's a joke.       
       
Downvote all you want, it doesn't change the fact that it happens. Tell me exactly which part of my statement is incorrect",f3qu2jp,AgVargr,x5wmp
NO MEANS NO. *gets triggered and explodes*,i-am-froot,4dihqt3r,f3rc4om,"People are saying it's fine because it's just a skit, but I bet if the same skit is done with reverse genders it'll get pointed out as inappropriate and it doesn't matter that it's a joke.       
       
Downvote all you want, it doesn't change the fact that it happens. Tell me exactly which part of my statement is incorrect",f3qu2jp,AgVargr,x5wmp
He's 7. A sweet and gentle Blackmouth cur.,i-am-froot,4dihqt3r,f3qu3x0,Hoy cow! How old is your dog? I have his twin!,f3qmx3b,eggplanthedgehog,4my96rqt
"""I am a male feminist so that I can score some pussy""",i-am-froot,4dihqt3r,f3qabol,Haha misogyny so funny guys 😂😂🤣 why won’t women talk to me 😢😢,f3q8gdu,Nickstar17,8mrvs
Very.,i-am-froot,4dihqt3r,f3g4ihr,Can you imagine how hungry he's going to be after that?,f3eueyl,RealRobc2582,2x99sb7k
Two,i-am-froot,4dihqt3r,f36hq8p,One,f36e60s,pieftw,4klje
r/woooosh,i-am-froot,4dihqt3r,f2k6v13,"The name 'Adolph' is actually (or was) a common name, until Hitler tarnished it. Being named 'Adolph' doesn't automatically mean you are named after Hitler, it just is a name that may be in the family for centuries. True, not a very well thought out move to call your child that after WW2. It really isn't a wise decision at all.

If you wish to compare names with bad references, then a name like 'John' would be a bad one to have in England for example. As it would refer to a toilet. You can probably find a lot of names that are not entirely wise to use depending on perspective. That just doesn't mean the name would be a bad one on it's own, it's the association with that name that makes it good/bad/neutral",f2jio4e,Mechwarrior94,baokz
r/nocontext,i-am-froot,4dihqt3r,f27417k,"""Hey could yall stop playing with my tits backthere?""",f26hjaa,KINGxOFxHELL,12gkqk
Maybe coz his scandal was called WaterGate.,i-am-froot,4dihqt3r,f1kbxug,"can some explain: ""...Richard Nixon and a large pool of water. He kept diving in and surfacing empty handed over and over and over, such was his fate in Hell.""

I mean, that is just chilling in a swimming pool, right?",f1jycl6,please-enlighten-me,hfo8a
**Sombre violin music plays in the background**,i-am-froot,4dihqt3r,f1ciqyw,On the day my daughter is to be married.,f1cberv,load_more_comets,5l5e5
Thank you. I laughed out loud and now I'm in hell.,i-am-froot,4dihqt3r,f1bbhyb,Crash me outside how bout dat,f1b38ss,hitting_mices,347eopbw
Froot!,i-am-froot,4dihqt3r,f19phy6,What are you going to name her after your getaway?,f19h42i,basickdesign,d4d77
"How about a tight hug. I love them too. As much as they have been maligned, they are one of the most lovable dogs.",i-am-froot,4dihqt3r,f19ezgh,"If you do, give her a head pat for me. Absolutely love pitties ;-; .",f19eax8,AzureKiryu,t30dd
Sigh. *unzips*,i-am-froot,4dihqt3r,f10u7y1,they also have hotter male characters: _shrek_,f10b3dx,shalicai,4f5cghje
Username checks out.,i-am-froot,4dihqt3r,f10txvl,"That's not technically a race condition. To be a race condition two events must conflict and they cannot be ordered by a happens-before relation which is not the case here. An analogy of a race condition would be both parties simultaneously say ""Knock Knock"" and ""Who's there?"" independently so that none can hear each other. Or if you are pushing the door (that opens both ways) to get out of a room and another person is trying to come in by pushing the door too so you both lock each other out.",f10iy62,random_cynic,34rhaxhw
Only Americans. I know people who have English as their 3rd language and still know the difference between them.,i-am-froot,4dihqt3r,f0ytq8d,I still don't get how 90% of native English speakers get this wrong all the time.,f0yc87c,MasatoWolff,plgbb5a
"if(activationDate.getYear()>=2){
   for(;;){
      new Thread(()-> Thread.sleep(2000));
   }
}",i-am-froot,4dihqt3r,f0ys1zm,"after i've updated my iphone to ios13 and getting a great speed improvement, i was asking myself if Apple actually uses this trick

That's so efficient x)",f0yoj13,_Adamatt,38e015r5
That was a very satisfying read.,i-am-froot,4dihqt3r,f0yo4zb,"For everybody who doesn't know this gem yet:

https://thedailywtf.com/articles/The-Speedup-Loop",f0yjxah,3X0S,1421ze
Just like every chiropractor I've visited.,i-am-froot,4dihqt3r,f0exk6o,"Why isn’t the post still fixed??

Bad chiropractor",f0d79xi,WasirRumi,35yn0v1a
"All I have gotten are emails from recruiters asking me to interview for a position even though my profile clearly shows that I just started a new job. I also have turned off my job seeking preference but they don't seem to care about it at all.
Sorry Patrick, I'm not leaving my job that I started 3 months ago just because you have a very interesting opportunity with a F500 client.",i-am-froot,4dihqt3r,f0e15zy,"In my field, LinkedIn is the second most helpful source of job offers, next to my personal network.

A lot of people just don't understand how to use LinkedIn.",f0dzh00,DietDrDoomsdayPreppr,449wzabo
The bikes are okay in quality. The only benefit is that the bike share stations are right at the park entrance,i-am-froot,4dihqt3r,f09hpyg,Great spot for a bike for sure! How are those rental bikes? Always wondered how they were...,f09f0ea,dinger74,138c5i
I usually take it for 90 mins. $8 in overage + $3,i-am-froot,4dihqt3r,f09hn3b,But how much did you pay in overage fees by taking a Bike Share out there?,f09gdld,nl6374,idzx2
Yup. But only at my home. Not in a public restroom unless I gotta poop too.,i-am-froot,4dihqt3r,ezxwt1o,Sitting to pee,ezxuivw,Johnnie0,ugl0m
Udemy is the best source. Search for the Angular course by Maximilian. He's a great instructor.,i-am-froot,4dihqt3r,ezuji1n,Got some tips for someone learning Angular? I've a really hard time :/,ezue38i,Realjsh010,4asj3l
v2+,i-am-froot,4dihqt3r,ezt8eh4,which version of Angular did you work?,ezt7h6r,theAlphaActual,dbjlkwu
That's what you gotta do. How else are you gonna keep generating 5+ years of experience with JS frameworks that were released less than 3 yrs ago and started being adopted 1yr ago.,i-am-froot,4dihqt3r,ezt1l8n,"Same here bro, all i did was writing react in my frontend skill of the cv and landed my first React jobs. It wont be hard to get started with until u reach sth like asynchronous loading or ssr but if u have enough time i sure u will firgue out everything tho....",ezt0tuj,d_t_s1997,5w8oo80
r/suicidebywords,i-am-froot,4dihqt3r,ezszmxt,Ladies if you're looking for a way to disappoint your father I'll be right over here.,ezsupvi,FightMeYouBitch,tr9z7e0
I did exactly that. I had worked on Angular before. So I answered all the react questions in the interview just replacing what I did in Angular with the word react and also threw words like Redux and HOC here and there. I started my new job yesterday. I only sat through the Udemy course by Maximilian for a week. Once you know one JS framework It's not hard to fake knowing others tbh. :),i-am-froot,4dihqt3r,ezsz3zq,Watched a couple tutorials. Just gonna put it down in my CV... Don't mind me. :>,ezsvspp,HiMyNameIsWaffy,6rdme
That's how much he spent to graduate from college and buy a house.,i-am-froot,4dihqt3r,ez7zl3n,Wouldn't be surprised if you were born in 1934 lmao,ez7u6i6,VayneIsMyMain,plfst
"It depends from place to place. My ID shows 2015 but I haven't had any issues using it everywhere. Most of the time the employees don't give a fuck as they're already overworked and too tired to give a shit about it.

The last time I didn't even have my ID card. The employee asked me to show my phone with the university email configured and she accepted it.",i-am-froot,4dihqt3r,ez7yq08,"Don't some places check the date of the Student ID? like the semester year may be ""2019-2020"". Im just asking because i'd hate to walk into Chick-Fil-A with a 2015-2016 high school ID as a 2509 year old man",ez7pq4p,DreGotWangs,b7ea9iz
r/nocontext,i-am-froot,4dihqt3r,ez1kecx,"Cock is on the bottom.

When he fans to the crowd, he just doesn’t display his cock with the rest of the deck, and even if he showed just the tip, many cards have at least some white. 

Watch his ring finger from 36-37. He pushes his cock up to the tip of the guy’s finger rather than waiting for his cock to get grabbed. 

Slight of hand, and also potentially a Freudian moment.",ez1eogz,not_your_attorney,c744t
Yes thank you. I was too lazy to Google his name.,i-am-froot,4dihqt3r,eyc7yx2,I read it in Ron Howard's voice.,eyc633u,SinisterKid,4e90m
I read that in the narrator's voice from Arrested Development,i-am-froot,4dihqt3r,eyc1i87,It was death.,eybhwph,GreenCoffeeMug,yoh45
r/TIHI,i-am-froot,4dihqt3r,ex6ugn2,"Thanks, i hate it",ex6u9o2,WaltIsBald,347v0ofm
Came here to say that. My American colleagues MMS me pictures sometimes like it's 2005.,i-am-froot,4dihqt3r,ex6ty46,"I have noticed, that a lot of Americans don't use WhatsApp, which really surprised me, because everyone in Germany uses it.",ex6tm08,Cubismn,1ofixn4m
UK?,i-am-froot,4dihqt3r,ex6jx2a,Shit teeth,ex6joff,TerribleGuest,zcdwi1s
Me too. The dog is pretty hot.,i-am-froot,4dihqt3r,ex0ivod,I have the weirdest boner right now,ewywoc7,monsterbucket,40drb
