child_body,child_screen_name,child_user_id,child_tweet_id,parent_body,parent_tweet_id,parent_screen_name,parent_user_id
"Charge is always a good ability, so long as your team isn't totally brain dead",Ihavealpacas,125noa,flbrcpq,Charge plus mystic flare is pretty good and somewhat feasible to get,flbr5f0,pellaxi,2vxo7661
They don't fuck around in and around court,Ihavealpacas,125noa,flbac1l,I would say calm and professional.,flb94bo,ThatRaggedyMan,c3269
A^A^A^A^A^A^A^A^A^A^A^A^A^A^A^A^A^A^A^A^A^A^A^A^A^A^A^A^A^A^,Ihavealpacas,125noa,flawykp,"I like how the flesh golem clearly is screaming super crazy and then on top goes a mask to show ""silenced""",fl8qg0j,Bigblueme8288,13rbz49m
He was so cold and casual about it........,Ihavealpacas,125noa,flasylx,More than twice just tells people you're probably not really going to do it.,flaq4bj,robywar,1qir
!garliccoin,Ihavealpacas,125noa,flad6w4,And this where my reddit noob status comes in as I get the feeling this means something but have no idea what!,flac1ho,walkthelands,4jxf9sfb
At least he's aware of his feelings and reactions. r/emotionallyawareinsanepeoplefacebook,Ihavealpacas,125noa,flaabck,He shot his monitor when his spellchecker threatened him.,fla8qv2,rgloque21,fxotq
I've got some garlic coins that I could toss in,Ihavealpacas,125noa,flaa6y5,payment in exposure only though,fla8bgd,walkthelands,4jxf9sfb
">Maybe someone should keep you off the internet so you stop embarrassing yourself.

That's not how the internet works",Ihavealpacas,125noa,fl7zjtx,You realize there was a televised Democratic debate on March 15th right? Maybe someone should keep you off the internet so you stop embarrassing yourself.,fl7ze8r,itsajaguar,15it8o
Biden isn't allowed to talk anymore.,Ihavealpacas,125noa,fl7vg5q,Where's Joe Biden?  Why isn't Cuomo the candidate?  At least he's talking about the crisis.,fl7v5l3,marvelmon,fko1e
F,Ihavealpacas,125noa,fl4hq6a,"I'm married and stuck at home with my wife and toddler. Trust me, sex ain't even on the radar right now",fl3spyh,Shas_Erra,13rtp5
Let the GOP die,Ihavealpacas,125noa,fl47lpt,The saving grace is that most of them are in the proper demographic to expire.,fl45gd2,aberta_picker,452k3e2l
We're aware,Ihavealpacas,125noa,fl41rp1,Legit think the us will be hit one of the hardest their response has been garbage. Im sorry friends but your leadership sucks.,fl41oag,imersial,1731qw
Darwin would like a word,Ihavealpacas,125noa,fl39h5t,Ain't no fixing stupid.,fl30i66,Sabeo_FF,cuvv5
"Make salsa. It will elevate beans and rice to dankitude. Tomatoes(roma are nice),cilantro, garlic. Onions, jalapenos, lemon and salt.",Ihavealpacas,125noa,fl39d3w,"Shit man, the battle is real. I'm down to all the cheap stuff I bought. I guess I'll be eating like a poor homeless person for a couple months 😅",fl2juba,dieselprogro,kyacco2
Daaaad Lu ann asked if we could ride dirt bikes with Buckley to the mega low mart,Ihavealpacas,125noa,fl1wbno,mmhmm,fl1vrgw,blugoony,1te1jmxh
They have to act like its not work though.,Ihavealpacas,125noa,fl1p3r0,"Oh, so less work?",fl1nfh0,coachz1212,74wk4
The cute guy from that 70s show,Ihavealpacas,125noa,fl1jh51,Who the hell is Steve Jobs?,fl13lmq,MerylStreepAMA,38tn1tf8
There is a was a line item that mentioned you could go outside and exercise. That was on the original announcement.,Ihavealpacas,125noa,fl1gkc7,As long as you’re staying away from anyone else I don’t see an issue.,fl1eodz,strongfoam,ulh2y
Just reboot your major.,Ihavealpacas,125noa,fkzq5rj,"I’m hoping to go into IT, I’m majoring in the wrong thing lol",fkzos0l,Dr_Calc23,17ta32fg
Did you rage quit in my pub last week?,Ihavealpacas,125noa,fkyj2o0,"thats so insensitive 

i've been cleaning public bathrooms with my mouth 

first responder after someone takes a shit",fkyif50,Sia-Voush,2shf1vw4
Lets see if our Great General Zoidberg has any ideas.,Ihavealpacas,125noa,fkxjluj,🦀Sarge! They're boiling us alive!!! We're delicious!!!🦀,fkxjeu3,ryecrow,rolwp
"Hello FBI, I brought you one.",Ihavealpacas,125noa,fkwn3ft,Ill take one.,fkwmths,Tomhap,dg6n3
"Heat up your pan real hot, add oil, add leftovers, get everything sizzling, add eggs, salt, sauce. Yum",Ihavealpacas,125noa,fkwcsr7,"Good advice! I also grew up with the 3-day leftover rule, but as an adult, I'll often eat leftovers up to a week after I prepare them (depending on the meal, of course). I find that soups, pasta, etc. tend to keep well, and if it smells fine and tastes fine then I will eat it. Of course, these kinds of meals tend to also freeze well, which is always an option!",fkwbi9f,aubreythez,i2gc5
Insecuretrons ASSEMBLE,Ihavealpacas,125noa,fkwb4rm,Congratulations! You are now a transformer,fkwafoy,IfItsTasty,14r81s
Im in NA so i have first world blinders on.,Ihavealpacas,125noa,fkwb2tw,you mean SEA and latin america. chinese dota players are a minority,fkw5uci,randomkidlol,bg4iz
That's a deep question. Do you have telco experience. How do you like frustrating underpaying jobs?,Ihavealpacas,125noa,fkw7huw,can I have a job sir,fkvxlwc,10100010notarobot,5d5cnxx0
Baby,Ihavealpacas,125noa,fkvue45,Ice,fkupmnk,Art_of_warts,3qina5yq
And the Chinese.,Ihavealpacas,125noa,fkvq3si,"Say what you want about russian, thanks to them Dota is doing just fine 😅",fkv5ha6,Valui420,4tv3r9uv
I've been programming phones all day :(,Ihavealpacas,125noa,fkvpzto,"> ""essential services"" workers

The real heroes!",fkvhizm,zenDice,bg4oe
This doesn't work with the sexy tractor song.,Ihavealpacas,125noa,fkvpr4s,Well.. guess you're a liberal now.,fkvmw66,RectalSpawn,e2eqh1c
I blew offf my dongg,Ihavealpacas,125noa,fkvclyu,...i think my tractors sexy,fkv228s,BattleDickDave,5tm5aht5
Spirit airlines!,Ihavealpacas,125noa,fkt73hy,"Any airline stocks that you know won’t go bankrupt are perfect.

As after the pandemic ends, the stocks with boost right back up because airplanes are something that will always be used.

Making sure it is a company big enough that it won’t go bankrupt is also important so your stock doesn’t get wasted.

Ex, Westjet, A.A, etc.",fkt6mir,Bahia03,5d6iwrvh
"Your able to get older faster, but your lifespan doesn't change, only your appearance.",Ihavealpacas,125noa,fkt6va6,Time manipulation!,fkt6qx4,RossTheChihuahua,2svcfz94
This is your teenage daughter with trump *grabs cat tail,Ihavealpacas,125noa,fkpzbvp,"Ah, no way.  More like orange fungus sludge.  People like it because it gets them high--even as it fries their brain.

Someone should really do an ad campaign.

""This is your brain.""  ""This is your brain on Trump.""  Of course, the frying egg would need to be orange with bits of green mold--and strongly smelling of sulfur even through the television or web browser.",fkpx3yh,Lognipo,5mh0yaax
Fuck you ObiWan I gotta pay Jabba rent money,Ihavealpacas,125noa,fkpj2jd,👋 you don’t want to sell thoughts death sticks. You do want to go home and rethink your life. 👋,fkpaa7j,MicAndy88,4i4qx007
I want to rethink my life....,Ihavealpacas,125noa,fkpizy7,👋 you don’t want to sell thoughts death sticks. You do want to go home and rethink your life. 👋,fkpaa7j,MicAndy88,4i4qx007
Have you tried dabbing?,Ihavealpacas,125noa,fkp6s7v,"When I first started smoking, first 6 months or so, I literally knew nothing about it, I just paid for it, ground it up and smoked it.

I asked my buddy, what all the powder in the bottom of my grinder was, he told me it was kief and to put it in a blunt... So I did...... All of it, 6 months worth.

I still had a pretty low tolerance and I rolled a king-size blunt that in hindsight was probably 50% kief. 

Bro, it took me a good hour to move after smoking it. Literally sat there with music on starting into space.

To this day, 4-5 years later I haven't been that high again.",fkokyy2,killerkebab1499,ahzb4
How does one fart from their peenis?,Ihavealpacas,125noa,fkomvga,It’s a fact.  Just because it is repeated to you a lot doesn’t automatically mean it’s a bot.,fkol6q9,PeeFarts,btc8f
I killed all the younglings before they could vote... What have I done!!!!!!,Ihavealpacas,125noa,fkoifmi,WELL THEN YOU ARE LOST!,fkog1xt,HelloItsGod,m4vbm
FROM MY PERSPECTIVE THE BERNIE BROS ARE EVIL!,Ihavealpacas,125noa,fkofdip,Not from a moderate.,fko2ojd,rainbow_banana,95c2p
"Sorry, this is what TRUE PATRIOTISM LOOKS LIKE 
!!!!

MAGAAAAAA!!!! /s",Ihavealpacas,125noa,fkoatip,Ew ew ew ew ew ew,fko9xbj,Chaos_insergent,48dgl2g7
Is this the standard DNC bot line?,Ihavealpacas,125noa,fko51dm,So the youth not turning out whatsoever doesn’t receive any of the blame from you? Can we be realistic and admit that the youth turnout was pathetic and the blame rests on those people - not mainstream media.,fknzwfe,PeeFarts,btc8f
"We're setting ourselves for Trump 2020 by putting biden as the frontrunner. The DNC put him there because its easy to rig your own election. Harder to rig the general election although the GOP are pretty good at it.

Plenty of dirt on him and those creepy videos of him.",Ihavealpacas,125noa,fko4b72,"I am wary about the best chance (should bernie make it to my state, I'm voting for him), because it does not really come across like sanders is a strong candidate. He struggled to win more than 50% of the vote when the pool was crowded and he cannot beat biden. If I told you a boxer could beat Muhammed Ali in his prime while failing to win many fights at a lower level circut and winning those he won by close decisions, you would tell me that my boxer has not a chance.",fko0bf0,tlk742,afgam
Laughs in Gore 2000,Ihavealpacas,125noa,fknzrrv,"While true, every vote still matters to the total National vote.",fknznyv,MyAntibody,3jtb9w1p
She lost,Ihavealpacas,125noa,fknznkr,I'd prefer a giant douche,fknxglm,magoosauce,9trm4
"Thanks to the mainstream media and the DNC, our best chance of beating Trump is now going to lose to Biden and now we have a Yuuuge issue with Biden challenging Trump to a dick slapping fight in the back alley.",Ihavealpacas,125noa,fknzh2a,Well some of us have already voted and live in reality where Bernie has no shot.,fknyrhg,Notsdlog,7dbrk
Doesn't really matter who we vote for Potus in CA. Its going blue to be blue no matter what.,Ihavealpacas,125noa,fknzbtn,"And for Trump.  I voted Bernie here in California, but should Biden win the nomination, he’s getting my vote in November.  Blue Wave no matter what.",fknycr1,MyAntibody,3jtb9w1p
"Yes I ordered avacado toast with a piece of shit, not the shit covered Doritos",Ihavealpacas,125noa,fknz6l3,Hey wait I didn’t order the Cheeto Turd Burrito.,fknwr53,GozerDGozerian,1exe5oa
Ill take the shit sandwich with avacado please,Ihavealpacas,125noa,fknvj5g,You forgot the “/s”,fknvbox,AlaskanPotatoSlap,7swwe
"I think they also police based on a checklist of ""do I allow this?"" if not then they insert their will till all is well.",Ihavealpacas,125noa,fkihfbd,"Our Pyr boy does this with our kids. He monitors them very closely even if it looks like he's not paying attention. If they get too aggressive or too rough with their play, he just walks right* into the mix and they switch their attention to loving on him instead of fighting with each other.



He does not allow running in the house either. He'll bowl one of them over if they're zipping through the house faster than he likes.



We had a shepherd mix a few years ago that did the same thing. She was an expert at tripping people that were going faster than she permitted. This herding behavior is bred deep inside their DNA and it's just natural to their breeds.



Our Pyr boi comes from 2 working ranch dog parents and he's perfectly at home keeping the peace in the backyard or lying (on the couch)* on his back with his hairy doggie dong exposed to attract the belly rubs. And he has absolutely no clue how big he is. He can knock stuff off the top of the fridge, he'll sit directly ON someone on the couch, and then stare in a confused manner while the sit victim scrambles to get out from underneath his small car sized body lol. I love this breed oh so much. And don't even get me started on the stubbornness that's also built in to this breed so they can be free thinkers and make their own decisions while working. So he may or may not do what we ask depending on his want-to* factor at the given time. Have never seen a dog that didn't have the 'I'm here to please my master and I love it when my master is pleased' mentality that most breeds do. He simply doesn't care if what you're asking him to do isn't on* his checklist of things to accomplish that day. So interesting to watch.",fki5ryk,muckrak3r,630m5
Pros play the hero so we'll see it,Ihavealpacas,125noa,fki8j77,"i don't care if nobody plays this hero, i want this in game",fkh9ziw,snabriel_snarsch,3vuub7il
Only need 1 square yo dry your bum,Ihavealpacas,125noa,fki8a4x,"I've been telling everyone this. I've been a bidet user for 10+ years, and a costco pack of TP lasts easily 4 months in a house of 4.",fki7s52,breastmilkmacnchz,42p2ipnn
Giants non psychopathic killer cats,Ihavealpacas,125noa,fkfhcug,So they're just enormous cats?,fkfcud8,TheWayToGod,7vp9b
"Hard to tell a shit post from a troll from a russian bot these days. 

I miss the 90s",Ihavealpacas,125noa,fkf9kw4,"OP seems to be mocking the original post, but hasn't done a very good job of making that clear...",fkf6c0k,throwawaydodah12,4wkxqy38
The GOP koolaid drinkers are posting a lot today,Ihavealpacas,125noa,fkf7v1p,"Yes, the linear nature of time has a liberal bias.

H1N1 is final figures. Covid-19 is still a developing situation.",fkf77bt,tea-drinker,baz79
"Like you cant get out of bed, but you know you need to, but there is a ton of resistance and you feel equal amounts guilt and sadness for staying. To cope with this feeling you stay in bed.",Ihavealpacas,125noa,fkf1xxr,What are the physical symptoms like?,fkf1qh7,redpatchedsox,2tq7zta4
Communist lol. You conservative idiots and your fucking communism. He supports a communist dictator. Putin. Go fuck yourself.,Ihavealpacas,125noa,fkesgsv,"strong immigration policy, best military in the entire world, 1st and 2nd amendment, not a communist...",fkefjkr,NumberOneSingedEUW,15ygqr
20% cd reduction makes her an ok caster,Ihavealpacas,125noa,fkeaifi,I consider it to be literally impossible to play brood without webs in AD. Her movement speed is just so bad. So bad.,fkdt1oz,DrQuint,7dwjn
This is not cool in Bird culture.,Ihavealpacas,125noa,fkditlw,"He was a cool bird general, now he just looks like some lame vampire.",fkd2e7d,gameboy350,aqhiz
Plus you can pick it 3rd or 4th.,Ihavealpacas,125noa,fkdin3b,firefly is a real fun one to get too. love randomly having that one,fkctnp8,RedGuyNoPants,t4h9i
Crys in spider.,Ihavealpacas,125noa,fkdilkw,imagine a build so powerful it even makes weaver useful,fkctr02,RedGuyNoPants,t4h9i
CARRRRLL,Ihavealpacas,125noa,fkdfsln,">what they're like when a human isn't around.

Pure evil?",fkd9ov5,FunkadelicJiveTurkey,tfz1e
I just sit around and play dota all day -iceiceice,Ihavealpacas,125noa,fkd7b27,you really think he would do that? this guy is a PROFESSIONAL ATHLETE,fkcrlbq,KDawG888,yildj
ITS ME OR DOTA!!!!!! -former fiance,Ihavealpacas,125noa,fkd76zd,"Lol what a casual, I called off my wedding over a battle cup!

/s... not really...",fkd64p6,abaram,dfgg7
Take care of your shit and don't play to avoid life. Play dota to rest from a long day of work instead. Its more rewarding and less depressing.,Ihavealpacas,125noa,fkd62qy,Same here its just my mum instead gf.,fkcuv6h,Pippooo9,23r4ka5z
"Lowish once you have the setup. Alpacas need a secure space to sleep in at night ideally connected to a large fenced off area with yummy grass.

Alpacas are skiddish, the best way to meet an alpaca is to try and give them a kiss. They don't have hands just a really long neck. So if you try to pet them they are gonna insta nope the fuck out of there. If you offer your face forward they may smell your face, hence a kiss. 

The best way to hang out with alpacas is to be in their space for an extended period of time until they get used to you. After that you'll get to actually see what they're like when a human isn't around.",Ihavealpacas,125noa,fkd5ju9,How high maintenance is a pet alpaca? And how do you spend time with them?,fkcz3fm,TheWayToGod,7vp9b
She's not a gamer and that's fine. I just play for reasonable times and take care of my shit before I play.,Ihavealpacas,125noa,fkcu5n6,"Just gotta make the wife play with you. 
At least, that's what I did...",fkcsnam,WolfR7,y5yxb
He's my mini bear. I've gotten my wife to call him Roshan now.,Ihavealpacas,125noa,fkcshoc,"> Great Pyrenees

Real-life Giant Alpha Wolf btw.",fkcrw4u,Vento_of_the_Front,mteu1
Single player games are easier,Ihavealpacas,125noa,fkcsf4t,"Had to quit dota because of this.

Was playing too much and the GF was none too happy about it.",fkcrl8b,TrashCarryPlayer,ugwc9
It started with alpacas then cats then chickens then dog then goats. They are all pets. Except the chickens I guess. They provide delicious eggs.,Ihavealpacas,125noa,fkcscxp,Probably just living in the american countryside. Lots of people get livestock for pets/food.,fkcr9uo,tesnakeinurboot,7g4mj
To shove a pineapple into the red sea,Ihavealpacas,125noa,fkcs91r,No no thats not turning both cheeks. Its spreading both cheeks like Moses spread the red sea,fkcmwwx,Internet_Goon,sjnbe
His estranged uncle does.,Ihavealpacas,125noa,fkclhvc,"To be fair, even Jesus doesn't want anything to do with Mike Pence.",fkckyzd,c_bender,zh55g
"Its cool bro. Gj setting boundaries with your gaming time. It's important to have time to play a game and relax.

I probably just have more emergencies than you. In fact I know I do. 6 chickens, 2 goats, 2 cats, 4 alpacas with a baby on the way and one Great Pyrenees that likes to bite old ladies. They create events that interrupt dota.",Ihavealpacas,125noa,fkcldl6,"Sure my gf can be mad if I play more than I told her I would, but she would never make me leave my game lol. I don't fuck with her when shes doing her stuff so she respect me when im in my zone. This has nothing to do with signle or in relationship but has more to do how you deal with stuff in your relastionship lol.",fkcewdo,Dav5152,bygz0
You sound single,Ihavealpacas,125noa,fkbxes5,Not stopping the game unless there is an immediate emergency,fkbviit,wildwill921,ztxnh
V for Vendetta is looking highly relevant,Ihavealpacas,125noa,fkbx2sm,Jesus Christ. That it even sounds plausible is sickening... When did reality get so fascy?,fkbtfwj,EmperorDunne,3mbl5kfz
"That's why I preface my defense of essential oils with ""it's not a replacement for western medical treatment"". Sadly I have to say this shit otherwise everyone freaks out...
I miss the 90s.",Ihavealpacas,125noa,fkbl278,"Yeah, but some people treat it like a flu shot",fkbj0zz,Jakiesmemes,3gdtqzze
First thing I did was buy 100$ of organic beans and rice. Now im pooping 3 times a day...,Ihavealpacas,125noa,fkbj6gv,"Beans and rice.  

Forget the toilet paper.   In a pinch you can use rags and wash them.  Not pleasant but it gets the job done.  

Beans and rice are dry goods, and while uninspiring, will keep you alive quite a long time.  

* Buy 60 lbs each of beans and rice. 

* Go to home depot or lowe's and get 5 gallon buckets - be sure you get the kind that's food safe and has a gasket seal.  You want this air tight. 

* Go on Amazon and buy oxygen absorbers.  You know those packets in food that say ""do not eat""?  Yeah, those.  

You should have enough to fill up two buckets of each.   Chuck the absorbers on top and store in a cool dry place.  You should be good for about 25 years of storage.  You can even eat them after that, but the texture will suffer.

Total cost of the above if you shop smart = 100 bucks.

I'd also get a few bottles of multivitamins.",fkbi9ej,LearnedButt,86iinu
JEEEZE... Now I'm gonna have to stop peeing on people....,Ihavealpacas,125noa,fk9n7rk,"People need not lose their shit about it, just *actually* take basic precautions we have all heard since childhood, wash your hands, cover your mouth when you cough, don't pee on people.",fk9go3z,CombatWombat65,3qve24z8
Try rebooting it,Ihavealpacas,125noa,fk8f50m,i am lick face but no pp now why,fk8bsvq,ChimaekIsDelish,78p8ov5
Because they are dead,Ihavealpacas,125noa,fk8bg8b,People would finally stfu about Coronavirus,fk8at98,Fittetryne666,qil25sx
Dota 2,Ihavealpacas,125noa,fk8b1u2,Video games.,fk8axs2,Keeperie,5rvsuboj
Now i have pp on my face,Ihavealpacas,125noa,fk8aw9t,Touch your pp instead,fk8arc1,8_______D,4vtggd2u
Mr robot did it best.,Ihavealpacas,125noa,fk7veue,Hacking scenes are the best. They never just show someone typing lines of code. It's mythical creatures fighting each other or some other nonsense.,fk7umph,Onewondershow,qlska
"DON'T let me downnnnnnn, DON'T let me downnnnnnn,

BECAUSE IM HAVING A GOOD TIME!",Ihavealpacas,125noa,fk7uo1x,They've really been on a roll...with the letdowns.,fk7rsql,Guywithquestions88,rpe65
Sand that feels like fat,Ihavealpacas,125noa,fk7r120,Like 2 bags of sand,fk7qmly,Shakefoot,twytt
Lol.link.me some techies porn plz,Ihavealpacas,125noa,fk6krjw,"Sir, I believe the subforum you want for fucking techies is /r/dota2smut",fk5vzwt,ravingrabbits,na0cq
"good 2nd or 3rd pick, great 4th pick.",Ihavealpacas,125noa,fk6ja5s,Waveform has really low range without talent iirc,fk6cuy7,Luxon31,fpi8n
Im still looking for the gay frogs,Ihavealpacas,125noa,fk5obgo,Some people just got their priorities set right,fk5o0m3,ramplay,1hllvyn0
Maybe its the next level strat to steal the trump base away. Try to appeal to the Trump base by outdoing the stupid incoherent shit trump does.,Ihavealpacas,125noa,fk58rk8,This is worse than 2016 Hillary had a few moments like this during the election it feels like there is a new Biden one every other day.,fk5832y,69_JordanSpieth_69,57wnbvi2
This video looks fake,Ihavealpacas,125noa,fk4su9y,"They’re not fake, and if they were she wouldn’t be wearing loose clothing to hide them",fk4s4zo,what_no_ice,w5llab9
Fake fake tiddies,Ihavealpacas,125noa,fk4s0z3,Tiddies?,fk4rv5o,137free,3fabiy6p
That had 12 alpacas.,Ihavealpacas,125noa,fk4fvia,I once knew a man from Nantucket...,fk2gld5,zeniiz,b2dwg
Pass the Kush!,Ihavealpacas,125noa,fk2yo9y,"I came here to say this, so instead I will upvote you!",fk1die6,spirituallyinsane,4905z
Being preyed upon by a gaggle of women can be fun,Ihavealpacas,125noa,fk2kh8x,Nashville was the bachelorette capital of the country. I remember going out one night and saw 30 bachelorette parties,fk2e02g,I0waNative,1c9y1x4o
IM FARTING^ALL^MY^FEEEE^LAAAAAAN^ZZZZZ,Ihavealpacas,125noa,fk24od3,"DONT STOP

BELIEVIN'",fk1vnz7,Phthalo_Bleu,kqnga
Every bar district has them.,Ihavealpacas,125noa,fk1xkzj,"I used to live in Nashville. All the music, Nashville Predators and the CMTs were all on 1 road and pretty kickass for a night out.

Biggest downside were all the bachelorette parties and 'woo girls'",fk1x3me,I0waNative,1c9y1x4o
Im ready,Ihavealpacas,125noa,fk1ox3l,Santa Cruz is not ready.,fk1nkfm,wilplatypus,i52k6
Check out being a vegan and living on beans rice and kale.,Ihavealpacas,125noa,fk1h70a,Ngl - food - just isnt that amazing,fk1gh6k,WildBobbyMiller,rhv2gn4
More that Biden is a major liability vs Trump and its massively irresponsible to try and elect him.,Ihavealpacas,125noa,fk150r9,"Now is there any thing that we can do about the “pro-sanders” subs out there? With the constant attacks on Biden and “my guy or no one” mentality, they’ve become nothing but cannons for the trump reelection campaign.

EDIT: serves me right for writing from my phone first thing in the morning. I should have clarified, I voted for Bernie in the primary and I’m touched by the folks on this thread who said “I didn’t vote for your guy in the primary, but if he makes it to the general I sure as hell will”. I’m in that camp: Trump must be defeated.

What’s really concerning me is that subs like OurPresident and JusticeDemocrats, etc, have really turned into a feed frenzy for the Trump campaign. If I was a Trumpette or Russia bot, I would just having a field day in there convincing Bernie supporters that Biden is worse than Trump and no one should vote for him. Though I haven’t seen an analysis, I’m willing to say that no one in those groups is a Biden supporter, or a supporter of anyone other than Bernie. So what’s the purpose of those groups?

Karl Rove taught us painfully that a candidate’s strength is a candidate’s weakness. Trump and Putin took that lesson and put it on steroids in 2016. Now in 2020 it’s been amped up by over a billion dollars in funding. Bernie’s strength was his dedicated supporters, but that strength is now being turned into an army for the Trump campaign.",fk0zjw1,Sturnella2017,32div9ya
>All I got was get high and stand under a bay tree while looking at the stop sign.,Ihavealpacas,125noa,fjv71iw,"You're in. Let's meet up at the Northeast corner of High and Bay on Monday morning. Bring a sign on a stick, so I can recognize you.

That's where all the recruits have been meeting.",fjv5zzq,mp17y,5swqyr2a
">More than 2, but less than 4.",Ihavealpacas,125noa,fjv5hex,Maybe. How many zombie/pandemic/post-apocalyptic films have you watched within the past 5 years?,fjv4eg1,mp17y,5swqyr2a
