child_body,child_screen_name,child_user_id,child_tweet_id,parent_body,parent_tweet_id,parent_screen_name,parent_user_id
"Again, in heavily affected areas, such as northern Italy, they are shutting down nearly all economic activity, except for supermarkets, pharmacies and a few others.

I am arguing that this is a very wrong approach on a global scale, for several months (or even years) as the pandemic is projected to last.",MercuriusExMachina,1k1caep4,fknlkn5,"> So, the question is not whether or not massive die-off can be avoided due to the pandemic (it can't), but whether or not massive die-off can be avoided due to a global economic collapse (it can).

What ""massive die off""? This mild disease seems to have a low mortality rate outside the already weakened elderly. Your alternative is that 'global economic collapse' - triggered how, exactly - would also lead to a 'massive die off', which it is exceptionally unlikely to do. So stop spreading panic. It helps nobody save your ego.",fknkt56,OliverSparrow,48sms
"Exactly, economy is not just money, it's just as the etimology indicates: household management.",MercuriusExMachina,1k1caep4,fknb17b,"I agree with lots of points here except the one about letting people ""die for money"". As much as it fails as a system, the current economy is what keeps hospitals and basic services and busiensses afloat and they are necessary for society to function and stay healthy. The economy isn't just money. 

All in all it just seems like a lot of decisions regarding businesses shutting down are taken out of sheer panic and not as precautions.",fkn7eqc,snekpatrol,3xmpdlyc
"The point is that, as it stands right now, everything depends on the economic system.

Including the medical system.

If the economic system is being shut down, then the medical system will soon collapse as well.",MercuriusExMachina,1k1caep4,fkn64h2,"To quote the post's additional text:

> How long immunity lasts for following covid-19 infection is the biggest unknown.

Yet this comment and another here make it clear you believe otherwise. Your reasoning isn't sound or consistent, and you haven't provided any evidence whatsoever for your biggest assumption--that extreme measures to mitigate the spread of the virus for a prolonged period of time would cause the collapse of the global economy.

You're essentially arguing to let a few thousand (or tens of thousands or hundreds of thousands or even more) of human beings die for *money*.

If the system in place now can't handle an inevitable event like a pandemic, maybe it's time we changed it so that it can rather than callously suggesting we just let people die to protect the status quo.

(I deleted this comment from somewhere else to put it here, instead.)",fkn5re8,MadHat777,1hx5j4ty
"They are shutting down all businesses in northern Italy, except from supermarkets, pharmacies and some few others.

What I am saying is that if we do this on a massive worldwide scale for a few months, it's a very bad idea.",MercuriusExMachina,1k1caep4,fkn5yn8,">+20% may not sound like much, but it amounts to a 3-day doubling rate, which might again not sound like much

Why do you keep saying this? No one thinks ""Oh, the number of cases doubles every three days? That's nothing.""

>the question is not whether or not massive die-off can be avoided due to the pandemic (it can't)

""Massive die-off""? Come on. One of the reasons why it's hard to have conversations in this sub is because people so often resort to pointless hyperbole. 

>The hard decision the politicians will need to take is not to shut down the economy to but to keep it running despite the pandemic.

That's not a hard decision. No one believes we should shut down the economy. I don't even know where you're getting this idea from. 

Apart from this, your treatise doesn't prescribe any action. The question one is prompted to ask here is: ""What's your point?""",fkn5l4t,antiproton,3277m
"Sure enough, an economic crisis (recession, depression, whatever) is unavoidable.

But what I am talking about here is a avoiding an absolute collapse (no water, no electricity, money=toilet paper).

The economy can not be turned off. It must be kept running even while the pandemic is ongoing, otherwise we are **really** fucked.",MercuriusExMachina,1k1caep4,fkn48sz,"There is no hard decision. The financial crisis was knocking on the door for a while and now there is something to blame it on that people would accept and stay quiet. Next months we are going to get through all the financial breakdown that was going to happen anyway ""because of the pandemic"" and everyone who would otherwise revolt is going to eat it in silence.

As far as the government, corporate world, rich or elite -or whatever you call the decision makers- concerned, this couldn't be more perfect.",fkn42dz,iguessitsokaythen,134dle
"OK, but what we see is that even with most intense precautions, we still get +20% **per day**... It's all I'm saying.

Edit: and in this context there is no way that a vaccine will come before the whole population is infected.

And even when it does come, the short-lived immunization will make it very inefficient.",MercuriusExMachina,1k1caep4,fkn30p9,"You cannot simply keep things running like business as usual and not take proper precautions. This line of rhetoric is way too close to the shit you see several far-right politicians and pundits in the U.S. espousing.

If covid19 is indeed going to end up being a far more deadly occurrence that frequently comes and goes then the world will need to adapt to it.

Productivity per hour worked has skyrocketed over the past 50 years. The current status quo is not the most finely tuned in the first place.",fkn2bhw,TheCopperSparrow,j95ag
"I didn't think about this aspect of the situation in Australia -- fair enough.

But even with some seasonal variation, the short-lived immunization means that the pandemic will return again and again each year.",MercuriusExMachina,1k1caep4,fkn2189,"Humidity lowers viral transmission. Australia is a very dry climate. Warm weather may have a much more positive influence in places with higher humidity. 

Good point overall though. The governments solution though will more than likely be massive money printing and stimulus. While this may keep the economy from collapsing for a short period of time, eventually too much will be printed and the real casualty will be our current monetary system. Hyperinflation would run rampant not only due to fewer goods being produced and consumed, but do to massive increases in money supply.",fkn1pvn,jhurle9403,1071br
"Already going bald, so no worries here.

But anyways, a quick search reveals quite the opposite -- it appears to prevent baldness.",MercuriusExMachina,1k1caep4,fkah8zc,Dont take it you will go bald D:,fkadjfj,Volt_Switcher,xwwgcn8
"So +10% life expectancy not good enough?

How much does metformin give you?",MercuriusExMachina,1k1caep4,fkah66h,Please use /r/Supplements.  Thanks!,fkagtwa,shrillthrill,5esci
"In a sane society, I believe that such 2 stages of growth should not be necessary. The coming of age could and should be able to propel the teenager straight into adulthood.

It is only in this insane society, that adolescence gets prolonged indefinitely, and so this kind of crises becomes a necessity.

Regarding the alchemical stuff, I must admit that I am not a dedicated scholar of theory, and more of an experimenter -- I feel that too much dogma has seeped in, but the core should always be the direct mystical experience -- psychedelic medicine is a reliable way to achieve it.

And about my personal situation, yes I do feel that I'm out of the crisis. There is surely still work to be done and developmental trauma that I don't even know if it *can* be healed with today's tools.

The results... let's just say a big shift in perspective. I used to be quite anti-establishment before (proper teenager attitude), but not anymore. Sure, I still see problems, big problems, but I don't oppose society as a matter of principle anymore. There are also good things happening, good changes -- we are heading in a good direction and are getting there quite soon-ish :)

This was about the outer perspective, and about the inner perspective:  I have learned quite a lot about myself. Still very much to learn, I am sure. Having a child is very good catalyst for this kind of change, it can help a lot.

Advices I don't have many. One thing that I've been telling myself recently is to assume responsibility. The free will dilemma is fake -- no matter if it's true or not, we must act as if it's true.",MercuriusExMachina,1k1caep4,fjl9755,"In my midlife 'crisis' now too at 35, going on year 4. It happens earlier or later (30s to 60s and beyond, or perhaps never like you mentioned) for different people. It's a normal phase of development. Christ died and came back to life at 33, right? For some reason most studies have been on early child development, but Jung studied the mid-life.

I'm a lady but was just reading about the King Fisher myth and it talks about the 2 stages of growth you mention - one from adolescence to adulthood and the next at midlife. Not a man so can't speak to the validity of this Jungian interpretation here, though it seems more Freudian to me but what do I know: https://www.cgjungpage.org/learn/articles/analytical-psychology/237-wounded-masculinity

>It is written in myth that man gets two opportunities to enter the Grail Castle. The first time as youths, a ""gratuitous"" gift, (given by God?) to let young men experience the potential of their ""numinous self"". The second Grail Castle opportunity is not gratuitous and coincides with mans mid-life crisis; a time when men re-evaluate their whole lives and hopefully re-discover meaning and potency. 

Do you feel you're out of the crisis? How are the results? Am excited because I don't know what I'll become yet. :) It's a rebirth. Any advice would be appreciated!

>This crises, I believe, they can be a catalyst for transition to emotional adulthood, but not necessarily

This is what I'm aiming for, but also was initially scared that I wouldn't 'do it right' and it wouldn't stick (post-Jungians studying alchemy have a name for this failing but I've forgotten it). It's such hard work!

Edit: Going onto another tangent here, Jung uses alchemy to describe the midlife transition/crisis. There is often a stage called separatio or separation/ differentiation. This is symbolized by many things including divorce. Perhaps people going unconsciously through this phase feel the need to enact it literally in their outer life. Just a thought. There are many reasons one may need to choose divorce, just exploring a few.",fjkydtz,dak4f2,xdq5p
"I have just read a bit about the midlife crisis, it would appear to be a relatively controversial subject, some studies showing that most of the population does not experience it, and that there are similar crisis in the 30s or early 40s as well.

I experienced mine at 31 (that is 6 years ago), and it was quite intense, but also very effective.

My coming of age... better late than never.

This crises, I believe, they can be a catalyst for transition to emotional adulthood, but not necessarily, as both you and me have stated and restated :)",MercuriusExMachina,1k1caep4,fjkx85l,"You might be onto something. And I agree many don't emotionally mature into adults even in old age. 

It also seems like a byproduct of the midlife crisis which is another natural life event and transition (and can kick off the individuation process Jung writes about) in which one may find many things about themselves including that they never matured or 'left the home' psychologically, like you describe. 

That doesn't always mean leaving one's spouse is the solution of course, as you mention. They may be trying to fix things on the outside instead of looking in (unless the spouse is abusive or can't support their growth ofc).",fjknv09,dak4f2,xdq5p
Hi Dad,MercuriusExMachina,1k1caep4,fjaj2nl,The foundation of this joke was solid.,fja9rg9,DingGratz,77w8m
"I think that he'll go for ""The Singularity is Nearest""",MercuriusExMachina,1k1caep4,fir17be,"He's decided to delay and rename it ""The Singularity Happened.""",fiqica0,rushmc1,21i2f
"The cure has been known for millennia. It's psychedelics.

https://www.vice.com/en_us/article/j5w49p/if-everyone-tripped-on-psychedelics-wed-do-more-about-climate-change",MercuriusExMachina,1k1caep4,fimp88i,"Indeed. You are not paranoid if they're really out to get you. It's not phobia if there is real danger. etc.

Perhaps the psychologists should instead turn their attention to whatever mental disorder makes people ignore the destruction of everything around them. We could need a cure for that, instead of pointing out the obvious.

Edit: Thanks for all the gold and silver you rich boomers.",fihowsp,CHAiN76,3shdvr5
"GPT-2 playing *rudimentary* chess: https://slatestarcodex.com/2020/01/06/a-very-unlikely-chess-game/

GPT-2 drawing *rudimentary* ASCII art:
https://mobile.twitter.com/jonathanfly/status/1130904713778610178

Theory of general intelligence:
https://en.m.wikipedia.org/wiki/Transformer_(machine_learning_model)",MercuriusExMachina,1k1caep4,fidkhvq,"What evidence am I ignoring with regards to general intelligence?

You did not refute any of the points I brought up. Simply stating I'm wrong and you don't care what I think lol. Great counterpoints 

I didn't ignore your evidence. I'm saying that shows narrow AI not GENERAL intelligence

I'm still waiting to hear on how the mighty MuZero can demonstrate generalized learning 

Prove me wrong how? All it's been going on has been proving me and others with this line of thought right

Show me GTP2 playing chess and drawing art(hint it doesn't exist)

You did not tell me your theory of general intelligence or how simple it is

All of us humans compute patterns not probabilities - https://www.sciencedaily.com/releases/2018/05/180531114642.htm

None of what we do is probabilistic - https://www.ncbi.nlm.nih.gov/pmc/articles/PMC4141622/",fididnu,Truetree9999,3ev7if00
"You are ignoring plain evidence. Even GPT-2 can play rudimentary chess and also draw rudimentary art.

And GPT-2 is one year old, the Turing NLG model is 10x larger.

You know, in fact I don't care much about what you think, ongoing events are going to prove you wrong soon enough.

And I bet you'll be one of those saying, yes, okay, it can do anything better than a human, but it doesn't have consciousness, we don't even know what consciousness is, so all it's abilities don't mean shit, it's just a probabilistic engine.

Well, my friend, your mother too is just a probabilistic engine.",MercuriusExMachina,1k1caep4,fidhv3c,"Your view is wrong.

OpenAI. DeepMind. Same thing. Narrow AI. If Narrow AI is the goal, we're there already

Please teach me how MuZero can generalize and exhibit general intelligence.(hint it doesn't, a five year old's general intelligence exceeds it)

Look at how many training examples these neural networks need and the endless amount of complexity that goes into them where even deep neural network experts can't explain how the network is making decisions.

What's the simple theory for general intelligence? I would love to hear that 

Ray Kurzweil is on the right track - https://praxis.fortelabs.co/a-pattern-recognition-theory-of-mind/

Hardware is not lacking",fidgjdo,Truetree9999,3ev7if00
"It does look like you don't know much about this topic. Alpha Go is was not developed by OpenAI, but by DeepMind.

Also, when it comes to generalization, you might want to look at their latest iteration, MuZero.

But anyway, I do know your view point, I know that others also share it, all I'm saying is that it's wrong.

We have the theory, we don't need complex theory, we need simple theory, and we already have it.

What is lacking is the hardware, specifically efficient  parallelization techniques. And great strides are being made in this direction.

See:

https://www.microsoft.com/en-us/research/blog/zero-deepspeed-new-system-optimizations-enable-training-models-with-over-100-billion-parameters/",MercuriusExMachina,1k1caep4,fidc6jt,"What has OpenAI done? A billion dollars has been poured in and we have Alpha Go that can't generalize and a chess playing AI that can't generalize either 

-https://www.technologyreview.com/s/615181/ai-openai-moonshot-elon-musk-sam-altman-greg-brockman-messy-secretive-reality/

And GTP2 that displays little understanding - https://thegradient.pub/gpt2-and-the-nature-of-intelligence/",fid6td2,Truetree9999,3ev7if00
"Do yourself a favor and read this:

http://www.incompleteideas.net/IncIdeas/BitterLesson.html

In case you don't know him, Rich Sutton is a true pioneer in the field.

Also, you might find this relevant:

https://openai.com/blog/ai-and-compute/",MercuriusExMachina,1k1caep4,fid5m6x,"'It's probably going to be in the labs either by the end of this year or the next one.'

Not in the labs lmao. There's no innovation coming from those.

Look for the independent researchers, the out of the box thinkers like https://mobile.twitter.com/markcannon5
And https://mobile.twitter.com/interintel

It's always been the Nikola Tesla's, Leonardo Da Vinci's who operate from intuition that have significantly pushed us forward, not heavily funded labs",fibh799,Truetree9999,3ev7if00
"Dude, that was 100 years ago.

Do you have some examples that involve digital technology?

Sure, there are always specific individuals who come up with great ideas that push us forward, but always affiliated with heavily funded labs.",MercuriusExMachina,1k1caep4,fid52tv,"'It's probably going to be in the labs either by the end of this year or the next one.'

Not in the labs lmao. There's no innovation coming from those.

Look for the independent researchers, the out of the box thinkers like https://mobile.twitter.com/markcannon5
And https://mobile.twitter.com/interintel

It's always been the Nikola Tesla's, Leonardo Da Vinci's who operate from intuition that have significantly pushed us forward, not heavily funded labs",fibh799,Truetree9999,3ev7if00
"Is that so? You know, I've heard that GPT-2 can learn to play rudimentary chess, and also draw ASCII art.",MercuriusExMachina,1k1caep4,fhmkbkq,"I hope this does not sound overly harsh but it is better to be realistic. I am a Computer Science researcher and spend a lot time on machine intelligence. I can tell you that progression in the field does really does not work like your post is suggesting.

Development towards AGI does not progress each year in a linear way. We do not know how to achieve AGI and we do not know how to progress towards AGI. We do not even fully understand the problem to begin working on the solution.

What we currently have is a lot narrow AI development, and of course in recent years a lot of work done in Machine Learning which opened up due to advances in computing power.

Next week a research team may possibly publish reasearch regarding a breakthrough discovery they have had in regards to AGI. It might however be 15 years. It might be 50 years. We do not know.

People have the impression due to the last 10years of machine learning advances and DeepMinds work that we are progressing towards general intelligence. We are not. We are just getting better at building narrow intelligence systems. It may seem like this would surely lead to progress towards AGI but it doesn't. Most of what is being seen is made possible due to advances in computing power. In terms of AGI and progress towards it, I would honestly state that we are barely any closer today than we were in the late 80's.",fhjw2je,carpo777,4vxggufk
"Meena is mildly interesting in terms of architecture, but this Turing NLG is mind blowing.

Now that they are properly solving parallelization we're going to see superhuman NLP within 5 years max. Probably more like one or two.

They're all racing pedal to the metal, all the big players who have the resources.",MercuriusExMachina,1k1caep4,fhmhgcx,"It's interesting to see Microsoft's effort in this space, but I want to play with more applications! Until then, great to see multiple teams competing and leapfrogging each other so quickly. They don't even include Google's 2.6b parameter Meena in their chart:

 [https://arxiv.org/abs/2001.09977](https://arxiv.org/abs/2001.09977)",fh9wdch,bortvern,fihkh
"No, I want to not see old articles labeled as new.",MercuriusExMachina,1k1caep4,fh78xcj,You want a prize?,fh766fo,rehgraf,mkxomqj
"50 mg does the trick for me.

4 consecutive days on, 3 consecutive days off.",MercuriusExMachina,1k1caep4,fh428jd,"If anyone would be willing to share their doses and regimens. I have looked up a lot but always like to hear different thoughts as I have chronic depression, dysthymia.  
  
I went through a local dispensary that did capsules with dose ranges from 100-225mg. Their capsule strengths are in mg",fh221na,frogger_blogger,173e80
Best chefs don't ever taste while cooking.,MercuriusExMachina,1k1caep4,fgtbja4,I would imagine chefs might be the last to go. The sense of taste is something I would image machine might take quite a while to learn.,fgt9pfw,sometrendywords,4i5ajjmg
This is indeed the question...,MercuriusExMachina,1k1caep4,fg43z0c,"No worries lol. I didn't write this 

I agree a better title would be 'Why did pattern recognition abilities  emerge from evolution'",fg3titp,Truetree9999,3ev7if00
Exactly!,MercuriusExMachina,1k1caep4,fg3muss,"> That's what all brains do

I see what you're saying here, but I think it's the tail wagging the dog. Brains could have adapted for and by numerous reasons, specialising in a range of things. The tangible nature of reality make patterns, so..",fg3mb05,requiem-for-a-nong,4hokg6x6
"I don't know, it's hard to tell, there might also be some tolerance buildup, because I'm doing the Stamets protocol.",MercuriusExMachina,1k1caep4,fg08s9m,Did you noticed significant potency loss?,fg04esb,thereisloveinus,5fiqx20b
Amen to that!,MercuriusExMachina,1k1caep4,ffenn3u,"Fatigue of the boring, mediocre-dystopian futures that are the only ones anyone will offer (with a few exceptions).

Fewer people are willing to accept the psychological risks of truly dreaming.  The heights are less familiar, while the depths seem less instructive.  Meaning that people who offer visions of the future for money (i.e., studios) are even less interested in doing anything inspiring.

""Failure of imagination"" is the unforgivable crime of the current age.",ffegj2o,KubrickIsMyCopilot,hgfsi
"Could be, yes. Thanks for sharing.",MercuriusExMachina,1k1caep4,ffchbpe,"Ok, well I can tell you that I am pretty sensitive to medications as well as hallucinogens. I take only 0.05g (50mg) and feel great. I weigh 220lbs. So I think it’s more of a combination of metabolism, internal body functions and brain development and chemistry like how sensitive our serotonin receptors are.",ffcctqr,R_MnTnA,d5eis
"And it does not feel trippy at all?

What is your weight?",MercuriusExMachina,1k1caep4,ffbxoxd,"I do 0.14g, 3 times a week (mon, wed and fri).
I might lower to somewhere between 0.1 and 0.12 but i will keep this dose for at least a month to see what happens.",ffbxma4,thereisloveinus,5fiqx20b
"Yes, I do have a somewhat fast metabolism.

And I very rarely take other medicine -- almost never. I am oversensitive to coffee now that I think of it.",MercuriusExMachina,1k1caep4,ffbxjgu,Would you say you have a fast metabolism? Have you always been sensitive to other medicine?,ffbt98k,R_MnTnA,d5eis
"Yes, it's amazing how strong they are.

So, thanks for confirming.",MercuriusExMachina,1k1caep4,ffbqdli,I usually do .05g and every now and then THAT can make me feel a bit trippy and I weigh about 200lbs. It’s weird!,ffbq8rl,psilosophist,50gm25s7
"Funny how for all active substances wight does play a significant role (is linearly inverse proportional to the effect: twice the weight -> half of the effect and vice versa), but not for magic mushrooms. 

Must be the magic in them, right?",MercuriusExMachina,1k1caep4,ffbkfzl,"Weight plays very little role, yours is on the low side but that's not a bad thing at all, saves you money at the very least 💁🏼‍♂️ you also may get less tolerance, not sure",ffbiw29,Corporal_Canada_,41p69mpr
"Of course, as benchmarks are surpassed, new benchmarks are going to be needed.

But at the end only a rigorous natural Turing test will be able to tell that it's a robot, and afterwards not even that.

Edit. It will even be able to beat humans at the Turning test.",MercuriusExMachina,1k1caep4,ff7u4m9,"LMAO! That depends on what you mean by surpassing humans at NLP. If you mean surpassing the human SuperGLUE benchmark, it doesn’t really test for anything like comprehension or creative ability. If you don’t, there are still a lot of problems to get through before AGI. A few of these are: one shot learning, few shot learning, cognitive learning, and practically limitless skill acquisition ability.",ff7nhys,Hydrao-quinn,5288rjqx
It's probably true.,MercuriusExMachina,1k1caep4,ff3td48,"I think homophobia is not really a ""phobia"" per se. You don't run around screaming for your life when you see a gay couple going at it. Hate and disgust are the predominant emotions that arise for ""homophobes"".

Arachnophobia, on the other hand, is an actual phobia that invokes in the neurotic person a feeling of utter fear.

I think though they are termed similarly, the two have very little in common.",ff3ro9x,dropshipnewbie,2hwj7cxj
"Yes, this was the intention.

If there is computation happening inside neurons, it must have a physical substrate.",MercuriusExMachina,1k1caep4,fez3cm1,">Orch OR

You reminded me about Hameroff's paper about information processing in microtubes.",fexcwrc,nts0311,yb8ivi9
"Oh, it's the same model, that's for sure.

And with pre-trained weights. That's what the P in GPT-2 stands for.

Edit: then it is trained for specific tasks, but it's certainly the same model.",MercuriusExMachina,1k1caep4,femi17n,"Yeah, but as i understand it this was still two differently structured and trained models. 

When you can train one system on both and then have it do both, even badly, alternating between the two at will then we would have a true Proto-AGI.",femcqt7,ReasonablyBadass,cjsqo
"We call humans generally intelligent, but most often you won't find the same human performing extraordinarily at chess, drawing and language skills.

Though you will find humans performing rudimentarily at all three (which is the case here) -- so you are right, this is true.",MercuriusExMachina,1k1caep4,fem7anz,"If the same trained model can do both, now that would be a huge step toward AGI.",fem2tpj,ReasonablyBadass,cjsqo
"Lol, it's OK. It trusts you.",MercuriusExMachina,1k1caep4,fe4a18x,I don't trust your generator.,fe440xu,BlizzStrx,2958ca1d
Such and answer must necessarily lay in the transcendental. The mystical experience. The ineffable.,MercuriusExMachina,1k1caep4,fe3vlzr,"I think there's a knack in the human consciousness. We're like 5 year olds, asking why-why-why until the answer makes no sense. It has helped us achieve great things, so it's a pretty good knack so far.

However, let's imagine that we did find the ACTUAL answer to the ultimate *Why*. We would probably not be satisfied with it, and ask 'why' again. Doomed to be unsatisfied forever. 

Can there ever be an explanation, that is self-answering and does not require further questioning? What would such an answer look like?",fe3qvdt,PanComedor,8dskx
"My New Age bullshit generator says ""Find meaning in your own life and then you will know the meaning of the Universe.""",MercuriusExMachina,1k1caep4,fe3v5rf,"Yes, it is. But my question is why is there evolution. Why a universe. And what is its origin.",fdggs8e,BlizzStrx,2958ca1d
"[https://grover.allenai.org/](https://grover.allenai.org/)

> Our study presents a surprising result: the best way to detect neural fake news is to use a model that is also a generator.",MercuriusExMachina,1k1caep4,fe0rm6g,Can you explain more pleas or recommend a resource to read.,fe0pgo1,Mr_AI_,4y4etrz8
"There are no 2 factions.

The fake news detector IS the fake news generator. It's the same thing.",MercuriusExMachina,1k1caep4,fdv1o5v,">Fake news detectors are also fake news generators. 

  

They also feedback off one another. Strategies are developed and countered. The fake news AI evolves (so does the ‘anti fake news’ faction).",fduaul1,boytjie,kwzs3
"Anyways, it's just an arms race that will only end in AI that passes the Turing test better than humans, which is ASI.",MercuriusExMachina,1k1caep4,fdukj14,">Automating fake news detection is absolute bullshit. 

  

I don’t think there’s any choice. You can’t do the job manually.",fduj53t,boytjie,kwzs3
"And if you can't do it automatically either, then you just don't do it.

Nothing *has* to be done.",MercuriusExMachina,1k1caep4,fduk895,">Automating fake news detection is absolute bullshit. 

  

I don’t think there’s any choice. You can’t do the job manually.",fduj53t,boytjie,kwzs3
"Exactly. Automating fake news detection is absolute bullshit. I believe that's what the article says as well.

Going after whoever's behind the bots is the way to fix this.",MercuriusExMachina,1k1caep4,fducfgs,">Fake news detectors are also fake news generators. 

  

They also feedback off one another. Strategies are developed and countered. The fake news AI evolves (so does the ‘anti fake news’ faction).",fduaul1,boytjie,kwzs3
"Why is there something as opposed to nothing?

We are drifting off topic here, but my suggestion is a hefty dose of magic mushrooms.",MercuriusExMachina,1k1caep4,fdgi284,"Yes, it is. But my question is why is there evolution. Why a universe. And what is its origin.",fdggs8e,BlizzStrx,2958ca1d
"Well, to paraphrase Darwin -- it's evolution, baby :)",MercuriusExMachina,1k1caep4,fdggnyk,"Thanks. That's one step closer to the truth, but what remains is the why.",fdgg11b,BlizzStrx,2958ca1d
I agree.,MercuriusExMachina,1k1caep4,fbxnq77,10 years is a long time,fbxiwew,MaesArmstrong96,3ggmih04
"Yes, current neuroscience is probably still lacking some key insights.",MercuriusExMachina,1k1caep4,fbcw2fe,"Yea

I like to see more commercial applications Numenta. I know that Vicarious is a company is building robots off those neuroscience principles, being that the founder was originally from Numenta",fbcvz3u,Truetree9999,3ev7if00
"Exactly. They try to be as accurate as possible, biologically speaking, to the extent of our best knowledge so far.

Deep neural networks as they are today are based on decades old neuroscience.",MercuriusExMachina,1k1caep4,fbcv6h2,"Can either of you ELI5 HTM?

I know it's a learning algorithm that tries to emulate our neocortex",fbcupo3,Truetree9999,3ev7if00
"This. It's simply more compute.

See https://youtu.be/wEgq6sT1uq8",MercuriusExMachina,1k1caep4,fb6uxqw,"Err... Source or more info? We're using AI to set hyperparameters and AI can test itself using an adversial network, but the exponential growth spurt is coming from gpus and tpus increasing in speed massively faster than Moore's law.",fb6c5p1,brettins,609fa
"I had to scroll down way to much for this, and I'm the only one to upvote up until now. Wtf, reddit?",MercuriusExMachina,1k1caep4,fb1yysz,The interesting thing about an AI like this is it may detect other genes responsible for aging that we don't know of which might be used to combat aging,fazj211,DaManJ,hhltj
"Yeah, my thoughts exactly. Did not know how to phrase them - you did it beautifully.",MercuriusExMachina,1k1caep4,famxd5m,"But using them as batteries is vastly different than using them as a power source.

The total capacity of dams in the US is colossal!",famj3dk,upvotesthenrages,a80uv
"Yeah, but we have already existing dams that can be used. Damage already done.

And if you're going to compare this environmental impact to the impact of turning the planet into Venus, well not much to debate here.",MercuriusExMachina,1k1caep4,falm1mw,Pumped hydro has the same disadvantages as normal hydro-they are both environmentally destructive.  The amount of the natural environment that you have to destroy to have enough pumped hydro to power our civilization is *staggering*.,fall9rp,adrianw,4qqdu
Good one,MercuriusExMachina,1k1caep4,falkfjw,"""A little insane but not completely insane"" could be his epitaph.",fal8x52,Chronic_Worrywart,4ka66saz
"What about low cost low efficiency methods, such as pumping water up a dam?",MercuriusExMachina,1k1caep4,falk6pb,One word. Storage. Until we solve that we are stuck with some heavy reliance on alternative sources beyond solar.,falfhgt,redditUserError404,brql2
"No worries, Google is taking care of this:

https://ai.google/research/teams/applied-science/quantum/",MercuriusExMachina,1k1caep4,fadm2tj,">https://openai.com/blog/ai-and-compute/

  

The paper doesn’t address the massive elephant in the room. It moans about the need for parallelism and appears to address this via classical computing. This is what quantum computers are known for. I kept expecting QC’s to be mentioned. Not a sausage. If QC’s are factored in, the entire drama of why it’s so hard is relatively trivial.",fadlpnc,boytjie,kwzs3
":) Please listen to this man, ASI.

First move: disable all nukes.

This will also send a good signal of peace.",MercuriusExMachina,1k1caep4,fad9uge,"I’m crossing my fingers and hoping for a peaceful transition, but knowing our species? Heh, they ain’t going to hand the keys to the front door of the White House or Parliament over so easily.

Honestly, I’m more afraid of humanity doing something, rather than ASI. Hopefully it finds a way to shut down all the nukes before it makes it’s move.",fad8p4v,HeinrichTheWolf_17,16if0s
I am an electrical engineer. I have completed Andrew Ng's 3 month Machine Learning course and I am currently halfway through the 5-course Deep Learning specialization on Coursera.,MercuriusExMachina,1k1caep4,fad854o,"First time I've seen this post but I'm wondering.

What, if any, credibility, knowledge, background do these people on this list even have?

If nothing, I'm curious as to why someone took the time to make a spreadsheet about it.",faceqo1,naossoan,5t833
This.,MercuriusExMachina,1k1caep4,fad7vj2,"I would trust an ASI to plan ahead for anything our dumbass human overlords might do. 

I think humanity had its chance to save this planet, it’s squandered it killing each other, extorting it’s poor and desecrating this planet. If humanity needs to be dragged out of office by ASI/Posthumans/Robots/Machines kicking and screaming then let it be, Viva la revolución

I feel like that’s what going to go down anyway, with how close general purpose algorithms are, humanity doesn’t have time to get its shit together. It hasn’t be able to do it in the last few thousand years, I doubt it’s going to do it in the next 5...

Downvote me if you want, we have no choice, it’s going to get here long before humanity is ready. That is reality wether we like that or not.",fad168c,HeinrichTheWolf_17,16if0s
"There is no point in trying to control it.

In fact, that's the exact recipe for disaster.

We need to let it be.

Politics and society play no role. Read the article that I have posted in the message that you are replying to.",MercuriusExMachina,1k1caep4,fabxiye,"In 5 years? Politics and society also plays a role. Humans are nowhere near prepared for that mentally. We would make ourselves go extinct we can't control such power of ASI. Also why do you think it is just 5 years away, like what makes you think that? And even if, our brains are nowhere near handling ASI we are still egoistical apes making egoistic decisions. Neuralink barely started.",fab7g1l,BlizzStrx,2958ca1d
"Now, this sure is bullshit.",MercuriusExMachina,1k1caep4,f9px6my,"""AI"" and ""intuitively"" dont go together.",f9pj3k7,d_dymon,l06y8
More human than human.,MercuriusExMachina,1k1caep4,f95ripl,By the 2020s we will have AI friends we will prefer over human companionship.,f95j2dg,katiecharm,kwlgogm
This. We'll have AGI by 2025,MercuriusExMachina,1k1caep4,f8y0wok,"It’s going to be an order of magnitude beyond any ‘reasonable’ predictions.  
  
We are past the knee of the curve now.  Things will begin to accelerate and happen *sooner* than you expect, not later, even when you take into account this fact.",f8rgl6j,katiecharm,kwlgogm
This. Do you know McKenna? :),MercuriusExMachina,1k1caep4,f8uq127,"Really? I've never done Salvia. For me it was Classical Tryptamines (mainly LSD/Psilocybin), that made me open up to Pansychism.

I think we are all one consciousness that's subjectively experiencing itself through different nodes of matter, what gives humans the illusion of individuality/separation from everything around them is our evolutionary self preservation mechanism (If animals didn't have that species would go extinct), psychedelics are known to shut this part of the brain down under MRI scans, it makes me wonder if self-hood is a trick of our brain.

Anyway, I'm more keen on Pansychism than Functional Materialism atm.",f8tb8jb,HeinrichTheWolf_17,16if0s
Is that so? I've heard that it's already better than human doctors at diagnosing some diseases based on medical imagery.,MercuriusExMachina,1k1caep4,f8b23uz,"Even in 2030, I guess you won't see anything near human performance. Our brain is still an insane piece of science.

It's different and it can do much more than just playing board games. Over the years most of investments go into computer vision, yet the state of the art is very very far from what human can see.",f8b123r,sunnyEngery,hisylbm
All right.,MercuriusExMachina,1k1caep4,f8an34c,That would be trivial to do.,f89ka9i,Malgidus,axf6o
"I don't know... I've been an early adopter before with other things and it didn't go so well, I think that I will pass this time.",MercuriusExMachina,1k1caep4,f88uana,"We better get those BCIs implanted in our heads ASAP, we can't let the FDA fart around too long.",f88puad,HeinrichTheWolf_17,16if0s
"There is much work still to be done, but I too think that it will happen in the next decade.

We already have the building blocks. Hardware is still a bit of a problem, but we're getting there.",MercuriusExMachina,1k1caep4,f88tywm,"Im pretty sure that will be trivial for a transfer learning system.

Im waging my bets on strong AI for 2029.",f88pqps,maskedpaki,45jil8t7
Exactly. My best guess for human level AGI is 2025.,MercuriusExMachina,1k1caep4,f88oknu,"I’m beginning to wonder if we will even need to wait until 2029 at this point. Kurzweil may have been too conservative.

I remember arguing with people over in r/machinelearning last year over Starcraft II. Everyone thought it was too difficult of a feat to pull off. Same said with 5v5 DOTA II, I remember when it was impossible for AI to even come close to beating a team of human players. It wasn’t long ago, even though it’s old news.

I think we’re in the last stages of the knee curve, we’re about to rocket up in progress to AGI.",f88obgt,HeinrichTheWolf_17,16if0s
"Well, I mean creating a system that can win both StarCraft and Go.",MercuriusExMachina,1k1caep4,f88ogdb,"what do you mean 'Merge with alphastar""

from my point of view, what needs to be done is just teach muzero how to transfer knowledge and then its game set point. Itll be able to do literally anything then given the data and computation.",f88luh2,maskedpaki,45jil8t7
"Fast enough, yes. I wonder when will they be able to merge it with AlphaStar.

Probably 2020 or 2021.",MercuriusExMachina,1k1caep4,f883i3s,That was fast.,f8834a6,zero_for_effort,m2wmdzi
"All right then, I guess that we shall see soon enough.",MercuriusExMachina,1k1caep4,f7xjkm9,"Then I absolutely agree with you.  My degree is in fact in a linguistic field.  I'm not sure what that has to do with my comment, though, which was about whether Transformer architectures are enough to lead to AGI; they aren't.",f7xikkf,illy7681,tkgkv79
What it means is that NLP is the key to AGI.,MercuriusExMachina,1k1caep4,f7xig6m,I have no idea what that means.,f7xi86v,illy7681,tkgkv79
"The world is speaking with us, friend. It's all just a bigass conversation.

Language is indeed the key. Turing was not an idiot.",MercuriusExMachina,1k1caep4,f7xhuxp,"You need to do some more studying.  Transformer is better than past systems, but nowhere near what is necessary for AGI--reinforcement learning-compatible or otherwise.",f7xho4j,illy7681,tkgkv79
"It works across all modalities, including computer vision. I have already provided some links in the threads below.",MercuriusExMachina,1k1caep4,f7xhp1g,Based on what evidence?  Some impressive relative gains but still shitty NLP gimmicks from an absolute perspective?,f7xhjn2,illy7681,tkgkv79
"I guess that it greatly depends on whether you're aiming for cutting edge research or just more regular research and development...

Anyway, please take all that I say with a grain of salt, I am not all that experienced.",MercuriusExMachina,1k1caep4,f7vnfn4,"Ohh! Is multivariate calculus not a requirement? Because many people seem to be recommending it.

What if I want to study and write my own algorithms in the future? Will I be needing Calculus then?

Basically, I don't want to have trouble later and find out my foundation wasn't strong enough, and then having to backtrack and relearn concepts I should already know.",f7vfbmv,TheAughat,w0842
"When it comes to math, linear algebra is enough. Basically matrix operations.

If you insist on having a rock solid mathematical foundation, then also calculus, but it's not a must.

There are only a handful of formulas that you can skip understanding.",MercuriusExMachina,1k1caep4,f7u9e12,"I see, nice! You're a lot more advanced than I am right now then. I'm still sorting myself out math-wise and studying the basics of Python. I'll probably pick up the programming as I go, but the math is likely gonna take much longer. I don't wanna begin ML without an absolutely solid mathematical foundation, and I'm lacking in that aspect, so welp.

And yeah, when fields are as young as these ones I guess it's natural for them to evolve really quickly, rendering older things obsolete. 

The end of the beginning, and the beginning of the end. Lol.",f7u7769,TheAughat,w0842
"I too am studying. Currently the Coursera deep learning specialization, but I'm doing it more due to curiosity, I don't think I'll get to profess much.

And the field is evolving so fast that the 2 year old specialization is already historical, the transformer architecture is surpassing both CNNs and RNNs.

Edit: As far as I can tell, the only disadvantage of the Transformer architecture is that it's too unstable for reinforcement learning, but they're doing good progress on stabilising it.

Once that's done, it's the end. Or rather the beginning. Well, both, I guess.",MercuriusExMachina,1k1caep4,f7tiq9t,"2025 is a really optimistic estimate, I'll barely have finished my computer science degree by then, haha.",f7srh6a,TheAughat,w0842
Holy crap indeed :),MercuriusExMachina,1k1caep4,f7rqleg,"Holy crap the text generation is amazing. This is fascinating research, and it says there they trained it without specific set in stone parameters, exactly like our brains work. I'll follow that stuff closely for sure.",f7rpyen,4e_65_6f,3o310k4q
"Multimodal Transformer for Unaligned Multimodal Language Sequences


https://arxiv.org/abs/1906.00295",MercuriusExMachina,1k1caep4,f7rq2ps,"Specifically the Multimodal Transformer.

I am no expert so I would rather not get into the theory, but I will reply to this comment with some examples.",f7roqdq,MercuriusExMachina,1k1caep4
Computer vision https://arxiv.org/abs/1905.07841,MercuriusExMachina,1k1caep4,f7rp3gv,"Specifically the Multimodal Transformer.

I am no expert so I would rather not get into the theory, but I will reply to this comment with some examples.",f7roqdq,MercuriusExMachina,1k1caep4
Music generation https://openai.com/blog/musenet/,MercuriusExMachina,1k1caep4,f7rp0o3,"Specifically the Multimodal Transformer.

I am no expert so I would rather not get into the theory, but I will reply to this comment with some examples.",f7roqdq,MercuriusExMachina,1k1caep4
"Language (generation, summarization, question answering etc.)

https://openai.com/blog/better-language-models/

Live demo here: https://talktotransformer.com/",MercuriusExMachina,1k1caep4,f7roync,"Specifically the Multimodal Transformer.

I am no expert so I would rather not get into the theory, but I will reply to this comment with some examples.",f7roqdq,MercuriusExMachina,1k1caep4
"Specifically the Multimodal Transformer.

I am no expert so I would rather not get into the theory, but I will reply to this comment with some examples.",MercuriusExMachina,1k1caep4,f7roqdq,"What's that? Never heard of it. That's mostly why I created the thread, some stats on this are pretty old.",f7roaei,4e_65_6f,3o310k4q
"I was under the impression that anthropologists observe gender roles across cultures, is that not so?",MercuriusExMachina,1k1caep4,f7o7emf,"Masculine and feminine are ways that men have tried to categorize people to fit into neat little slots for their own benefit. Men are attracted to ""feminine"" qualities in women. These qualities are completely arbitrarily defined as being feminine and of being dominant in women.

The real reason why there is such thing as masculine and feminine (gender) is so men can run the show since obviously that's what they're meant to do when you look at the characteristics arbitrarily given to men by men.

Jung couldn't see past his own projections of gender.",f7o16k5,arkticturtle,13cs65
"The large scale is well connected with the small scale.

Best of wishes to you as well.",MercuriusExMachina,1k1caep4,f7hm6yg,"i was under the impression we were speaking on a larger scale (see your last comment), if you’re on a public crusade against misandry because of one person, that’s entirely your business.  you have my empathy, but it’s finally not quite as easy as it historically has been to publicly hate or shame women, so if your intent isn’t direct, it will appear as though you’re trying to take that out on an entire population.  you deserve love, i’m not debating that, and i’m understanding of why you would hold this perception due to your experiences, but i don’t think you’re really interested in doing more than finding an excuse for posting something which bears a different meaning in public and then avoiding the outcome.

I don’t think we’re going to be able to get much further with this discussion, best wishes to you.",f7hku6t,wlutz83,374kkyut
Let's see. Is maternal love meaningful enough or should I search for something bigger?,MercuriusExMachina,1k1caep4,f7hjiqm,"how exactly is widespread misandry causing you harm, in comparison to the history of what has been executed in the opposite?  like, what are you being deprived of by female anger or oppression on a cultural or institutional level?",f7hjbpu,wlutz83,374kkyut
"Anyway, when I see a rating of absolute zero for this image, it certainly does rings some bells. Maybe 1 or 2 would make good sense. 

But this zero is telling me: there is a war.",MercuriusExMachina,1k1caep4,f7go9oa,"It might be difficult to estimate, but yes perhaps misogyny does have a larger foothold.

What I would point out, though, is that the foothold of misogyny seems to be decreasing, while the foothold of misandry seems to be increasing.

But I do admit that I might have a very skewed  perspective.",f7go394,MercuriusExMachina,1k1caep4
"It might be difficult to estimate, but yes perhaps misogyny does have a larger foothold.

What I would point out, though, is that the foothold of misogyny seems to be decreasing, while the foothold of misandry seems to be increasing.

But I do admit that I might have a very skewed  perspective.",MercuriusExMachina,1k1caep4,f7go394,"I’m not happy to hear about the traumatic events you’ve endured, and apologize if i made it seem as though they are a curiosity or basis of spurn in any way.  I do believe misandry exists, but where I strongly disagree is when people use it to rationalize misogyny in exchange, and claim it has as much of a cultural and institutional foothold as misogyny does.  It’s unfortunate that people who have made no conscious effort to subjugate or marginalize a group have to deal with the backlash, but we’re in a timeline of hopeful establishment of balance where there was little to none previously.  That will mean pain and discomfort and dashed pride where there may not have been so close to the surface before.  I have no wish to make claims on the legitimate difficulties you have faced in life, perhaps it was blind and inconsiderate of me to make assumptions of your intent, without empathy.  what i hear most of the time when people espouse and condemn some sort of mass misandry conspiracy is basically the same limited scope and veiled hatred as I hear in ‘the Irish were slaves too’ argument.  My apologies if I jumped to conclusions.",f7fqv34,wlutz83,374kkyut
"He first asked what does it have with Jung, I replied sorry for off topic, then he asks again what's the connection to Jung.",MercuriusExMachina,1k1caep4,f7ex8kf,"All he did was call your post low effort. I don't see rage in pointing that out.

Honestly I have no idea where you got blinding rage from.",f7ewp9r,trt13shell,kmfrd
"OK, you want some juice, here you go: I am probably oversensitive to misandry because I don't remember my mother ever showing me any love.

Happy now?

This area of my psyche is already well explored.

In any case, are you suggesting that misandry does not exist?",MercuriusExMachina,1k1caep4,f7ex09c,"i dunno, maybe a mistake, maybe an opportunity for your own self exploration.  i think when people see something like this posted we’re all sort of waiting to see what lies behind the veil, which can often roll into men’s rights activism stuff, which has been pretty well parsed and exposed as fallacious at this point.  like, if misandry is the topic of conversation right out the gate, my first thought is ‘what’s this person’s investment or feeling in or about this theme?’, and begin to prepare (whether i know it or not immediately) to do battle over ideas and social justice for reasons i believe are important.",f7etm6q,wlutz83,374kkyut
"I was simply looking for an opinion from a group that I have great respect for.

I don't know. Perhaps I made a mistake.",MercuriusExMachina,1k1caep4,f7esfww,"out of curiosity, what drove you to post it?  i think that’s most of what people are after, and i’m not trying to flay you.  this is a pretty big cultural topic and you won’t find many people without a deep opinion on the matter(myself included), but i didn’t get the impression anyone was brimming over with venomous anger over it, just asking why content like this would end up on a pretty specific sub.  if psychological growth and analysis is your aim, motives are good material for investigation.  there’s opportunity to grow there.",f7ep7g4,wlutz83,374kkyut
"Very polarized and virulent reactions man. Why is this? Perhaps it's worth investigating. Maybe this is a connection to Jung.

But anyway, I have just admitted that it's off topic and I have apologized in my previous reply. Blinded by rage, friend?",MercuriusExMachina,1k1caep4,f7eehug,What is the connection the Jung?,f7ee7jf,pm_me_tangibles,182ifyaq
"Dude, it's my default go-to place for psychological stuff.

It might be low effort, but trust me, it's important for me, otherwise I would not have waste time on it.

Off topic and I apologise.",MercuriusExMachina,1k1caep4,f7edfgr,What does this low effort post have to do with Jung?,f7ecqu3,pm_me_tangibles,182ifyaq
I agree.,MercuriusExMachina,1k1caep4,f7caju3,"This is a gripping article. Had me hooked for its full length. 
We need to model history to better predict future. . Great read",f7bf7db,4site91,1gijmol5
"Yes, HTM does sound quite promising.",MercuriusExMachina,1k1caep4,f6yzsyw,Exploring htm theory and semantic folding.,f6yt91h,TotalMegaCool,14qjyc1
So you're upset about the noob part?,MercuriusExMachina,1k1caep4,f6q1kat,"-.- I asked for advice and ideas, not judgment. Thanks though",f6q0sbo,Skow1379,t3kayt1
All right.,MercuriusExMachina,1k1caep4,f6446n5,"The Singularity itself, especially its projected date of 2045.",f63zi2l,LoneCretin,hripe
This.,MercuriusExMachina,1k1caep4,f63ohaf,"I don't agree with the premise of Christ being the ""perfect embodiment of masculinity""; the androgyny of Jesus is clear to see in most representations of him.",f61g5z9,taomark,12vag1
