child_body,child_screen_name,child_user_id,child_tweet_id,parent_body,parent_tweet_id,parent_screen_name,parent_user_id
"Ah yes, remember The Warriors fondly!",MushHuskies,2zcm8xp9,fkc4jhi,"Think of it as a suburban companion piece to ""The Warriors,"" which also was released in 1979.",fk43jxq,zsreport,avobu
I concur.,MushHuskies,2zcm8xp9,fjdqrbr,That would be a big mistake. We don’t need another Fox News pick in the White House.,fjbhu6d,HelpersWannaHelp,u2325m
"Yes but with the constant barrage of lies from this administration , how does one separate the chaff from the wheat.  I’m to the point that I’m completely ignoring what comes out as “news” from the White House.",MushHuskies,2zcm8xp9,fjbgsfl,"the people in charge need to tell the truth during events like these, and we don't have anybody in charge capable of that",fjbbsqh,SILVAAABR,5e9dl98j
"Thanks, I’ll post there!",MushHuskies,2zcm8xp9,fdmlu1z,Go to r/diyautobody,fdm0c4x,slapshot2742,36sqdy30
"Yeah I drive that section of road as well and you’re right with all your points. I do see see tourists, especially those in mustangs and Camaros living their NASCAR dream.  And then they’re are the gawker tourists which I don’t really mind as I’d rather they drove what’s comfortable to them.  The main problem is our infrastructure has not kept pace with our explosive growth and two lane roads with no passing lanes or decent, marked pullouts is going to increasingly contribute to speeders and dumbshits.  And let’s not even start on mass transit options!",MushHuskies,2zcm8xp9,fd4v9jh,"Shooots......drive highway 11 from kona to ocean view at rush hour......its not the tourists driving twice the speed limit passing on blind corners like madmen and you wont ever see one cop. We have a lack of enforcement issue here and a lot of people that think their '99 honda is a race car. Simply not enough officers for the population and let's be honest, outside of an entire familly getting killed in a head on this island is not going to enforce this stuff, heck, we just gave the guy who hit the fire chief head on passing on a blind corner no passing zone almost twice the speed limit and decapitated him some really harsh.....probation.",fczez6q,fern420,4zu3a
"Thanks, I will.",MushHuskies,2zcm8xp9,fd4to2q,"Hey come take a gaze at r/workbenches 

They are not all mobile (many are) but if you're building a workbench inspiration never hurts.",fcz8g1i,tjdux,17ah62
"Thank you, that will work nicely!",MushHuskies,2zcm8xp9,fd4t5er,"Yep, here it is: https://imgur.com/a/y0NzQzT

Steve Ramsey's basic mobile workbench with a couple very slight changes.",fcykuag,Bonez916,8kxtd
"Honestly I don’t know about the tourism side of things.  It appears to be a revolving door, lots of help wanted ads pretty much year round.  Give the resorts a shot, one never knows!  If it’s meant to be you’ll find a way to survive even if it’s not your first choice in industry.",MushHuskies,2zcm8xp9,fd4shqg,"Do you feel like this is true even in the tourism industy tho? My family and friends on the island all work Kona side for different hotels, and I’m thinking I’ll end up the same but in the business side of things. My background is marketing and business development. While there’s not tons of openings everyday, they pop up and I’m super qualified with a degree and years of experience.",fcbk5sn,OLP190,1z346tot
"Truer words were never spoken. Real sex never matches up to the vids, yet IMHO it’s better especially if there’s a connection. Also don’t worry about the size of body parts, sex is very accommodating.",MushHuskies,2zcm8xp9,fcscvtm,Sex is sex and porn is porn.,fcs6fa5,Doc211221,49eajfir
They’ve a much better naming scheme than us yanks.  Who in the hell wants to serve aboard a Ronnie Reagan or Bush?  Such intellectual nabobs.  Maybe call a fleet tug that but a capital ship?  Never.,MushHuskies,2zcm8xp9,f3fv4ze,Man the Royal Navy has got some dope names for their ships,f3f2ft9,hotredpepper1,1af4qtwe
I never thought of aircraft basing.  Good point and thanks for chiming in!,MushHuskies,2zcm8xp9,f29ahcq,"I'm an aviation broker, and the insurance companies have pretty much the same attitude. Let them know where they aircraft is primarily based and you can use pretty much whatever address you want on the policy so long as it's US based.",f27yzk2,morris9597,1rdzh2uh
Thanks for the info!,MushHuskies,2zcm8xp9,f29afou,"As far as registration, I’m not sure what Nevadas requirement on that is, but policy wise as long as you have a NV policy (where its located for six months of the year or more) it doesnt matter where your mailing address is. My company insures LOTS of rvs and this is a common situation.",f27w50y,Mandalorian_Pride,xecn4
"Hmm, I’m not seeing that.  Will check again.",MushHuskies,2zcm8xp9,f27opdk,I see option for 3 discs at at time. $15.99/ month,f1x59oi,ethanvyce,7v7rw
Thanks.  Did you have to call them to arrange that?,MushHuskies,2zcm8xp9,f27olgx,"Currently, I'm getting 4 DVDs at a time.  That plus the streaming costs about $36 a month.

Hope that helps.",f1yaz7z,LocusPoint77,134x9x
"Nope, it’s USA wide.",MushHuskies,2zcm8xp9,f1wvnrf,"I was unaware they still did this - 

Is the disc dervice only in some parts of the US?",f1wq0pd,Cripyon,459b4wqo
Yep they still do it although I understand it’s down to about 2 million subscribers.  I don’t know if that’s USA or worldwide.,MushHuskies,2zcm8xp9,f1wvm4u,"I was unaware they still did this - 

Is the disc dervice only in some parts of the US?",f1wq0pd,Cripyon,459b4wqo
What type of roof design holds up best to hurricane winds?,MushHuskies,2zcm8xp9,eyqwn1z,"Gable roofs have a pretty high failure rate in high winds compared to other methods of construction, the flat end allows high pressure to form at the point with the lowest tensile strength and basically peel it up from the end.",eyqksgh,DAKSouth,1awzurhg
A classic example of the Swiss Cheese model. All the holes lined up just so.,MushHuskies,2zcm8xp9,eyqvvja,"It's not really that simple as placing the blame on just the captain. The first officer was reportedly the one who gave the directions that inadvertently made the ship strike the iceberg. The very itself was difficult to see, since the waters were extremely still and there was no moon. It's really, REALLY dark in the middle of the north Atlantic ocean when there's no light but starlight and what came from the ship itself. 
There were communication issues between the relay station on the Titanic and the bridge, so messages from other ships in the area that were warning of ice didn't all make it to the captain and others in charge. Aship as big as the Titanic can't adjust its course very fast, not like smaller boats, and from when the berg was spotted - combined with judgment errors and communication delays - it was too late to correct and it hit the ice. Plus, the crew was under a lot of pressure to make the journey quickly, which made them less cautious. That, and the fact that the ship was widely thought to be ""unsinkable"" led to further lapses in caution. The damage and design of the ship led to more flooding than she could handle. There were a lot of mistakes by various people under pressure from the high social and financial stakes (like in the story of this yacht) that it can't be attributed to just the captain. 

Part of the reason the Titanic disaster became a disaster is also because the ship had far too few lifeboats for everyone to get into and be saved, so a lot of people died because they went into the water instead of on a boat. They died from cold incapacitation and drowning with nothing to rescue them. There was also no PA system to roust the passengers, meaning it took a lot longer to get people awake and ready to abandon ship. There were nearby ships that eventually came to the rescue, but when the decision to abandon ship was made, the Titanic's location was reported incorrectly, and - again - it's really hard to see the aftermath of a shipwreck when it's bloody dark outside. The first ship to arrive, the Carpathia, arrived an hour and a half after the Titanic sank, and that was only because her captain had pushed the ship to its limits to get to the wreck. There was a ship much closer to the Titanic - the Californian - but her captain didn't take the requests for help as seriously as he should have, and so the ship arrived far to late to be of any assistance beyond plucking bodies from the sea.

As always with any disaster on the scale of the Titanic, there are dozens if not hundreds of reasons why they happened and why so many people died. Had there been enough lifeboats, had people in and off the ship taken the dears of sinking seriously, had communication been better, had the crew not been under so much time pressure, had they not been so over confident in the durability of the ship.....all of these things could have made a difference and the maiden voyage of the Titanic would have been a small line in history books. It's always a confluence of errors and accidents and - sometimes - criminal negligence (see also: the Costa Concordia shipwreck in 2012) on behalf of not just the captain/crew, but the management company and executives, trying to save money and time. While there are likely things that Captain Smith of the Titanic could have done better, placing blame solely on him is wrong and does a disservice to future crew and passengers of cruise ships. Safety regulations are written in blood, after all, and not understanding everything that went wrong means it's harder to prevent happening again.

And in the case of a small yacht, yeah, the owner of the ship definitely should have listened to the far more experienced captain instead of insisting they leave. The owner is, quite honestly, much more to blame than the captain, who quite likely did the best he could under the difficult circumstances.",eypf5ov,peachdoxie,9nwgv
I want to see how she deals with his stalker shit on a town hall Q&A.  I hope she has a great quip in mind. Never understood why Hillary never called him out for that creepiness.,MushHuskies,2zcm8xp9,eyd1ulv,"To win you're going to have to do both. 

You're going to have to play Trump's game, policy alone will only get you so far.  She's going to have to be personable, tough, but not bitchy/scolding.   This is going to be a boxing match, not a street fight.  She is going to need an increased dem turnout and a surpressed GOP turn out.  She'll do that by being the smartest in the room, and not taking his shit.",eyckqam,2018Blunami,18pc8zjn
"It’s not even close to a total, it’s just cosmetic and unsightly.  Since it’s so old and we only use it 2-3 months a year to haul our camper, I’m just gonna deal.  I just checked blue book and it’s not worth selling or trading in.  It’s a Toyota and at 94k it’s just broken in.",MushHuskies,2zcm8xp9,ewqpjg8,If its a total I would very likely keep it.,ewpfcdm,buddahmunk,weikrux
"My vehicle is insured in Nevada.  I got in contact with my insurance company and they’ve informed me since its weather related  there would be no increase in premiums and apparently for a real vehicle accident, if it’s my fault, I have accident forgiveness at any rate.",MushHuskies,2zcm8xp9,ewqpdtg,Thanks for the insight there.   You may receive an increase on it but it would for everyone in your area or state.  I think your concern. sounds like would it be a surcharge increase and it should not.   What state are you in?,ewpbjjr,DocX--,3qmwiprg
"Yeah, I think I’m just gonna submit and see what happens.",MushHuskies,2zcm8xp9,ewp87p9,Comp claims *generally* dont affect premiums.,ewp7kl5,Appygirl58,1j8rbnai
My concern was an increase in premiums.,MushHuskies,2zcm8xp9,ewp818f,It’s just a comp claim it will do little to you other than your deductible.  I doubt it would total.  What your real concern?,ewp7nrg,DocX--,3qmwiprg
"If more gun violence was directed at politicians and their families, there would be instant legislation and bans.  But as long as its just the rubes being shot, meh.",MushHuskies,2zcm8xp9,evzqu9r,"As long as Republicans hold the Senate, there won’t be any gun safety legislation.  They don’t believe in it.",evzh5u2,julesk,6eqne
Here is a great resource for those so interested.  www.firelookout.org,MushHuskies,2zcm8xp9,eohwnn7,"They still have those? I recently read A River Runs Through It and Other Stories, where the author talked about being a fire lookout, but that was maybe 100 years ago. It sounded awesome.",el3bnlu,DuffBude,xl55p
"Yes they do although more and more are being replaced by automation.  My wife was a lookout back in the 90’s and fire lookouts have been a great joy of mine to hike to, restore, and/or fill in temporarily so the regular lookout can get a much needed day off.  There are many, many lookouts still standing in our national forests with the majority of them concentrated out west.  There are still jobs to be had, especially those located in wildernesses.  And for those that just want to spend a nite, there are lookouts that have been restored and are rented out per nite.",MushHuskies,2zcm8xp9,eohwl6s,"They still have those? I recently read A River Runs Through It and Other Stories, where the author talked about being a fire lookout, but that was maybe 100 years ago. It sounded awesome.",el3bnlu,DuffBude,xl55p
"You have a built in vise too, your knees!",MushHuskies,2zcm8xp9,em7n01t,Note the vise,em6w8j5,cereusundulatus,h3edq
That’s only on the planet Dune.,MushHuskies,2zcm8xp9,egirfa7,You have to walk with out rhythm,egimk1b,ActualWhiterabbit,10p98110
