child_body,child_screen_name,child_user_id,child_tweet_id,parent_body,parent_tweet_id,parent_screen_name,parent_user_id
"Roasting aside, we got a lot of shit in common dude",Ogreblack,3p7s26l0,flc14cg,"OP's Bio:

---

>28 year old, lifelong freethinker. I've enjoyed skateboarding(street) since I was a kid. I still play CounterStrike Source. My favorite music genre is EDM, with Seven Lions at the forefront. I've experienced alot of paranormal and unexplainable things, which has led me to not be so quick to assume or believe, anything. I love wolves; have a few tattoos of them and they're integrated into alot of shit I own. I think politics are 100% rigged; I will watch the news and read between the lines just to get a feel for what's really going on. My voice has always been really deep, pitched somewhere between Denzel Washington and the Allstate guy. I've been staying pretty cool as we approach martial law; I'll give a shout out to my good friend, LSD, for the support. I'm also probably the last person on Earth who listens to t.A.T.u. Fuck you guys!!

---
If you think this bio helped you roast, upvote this comment. If you think it doesn’t, downvote it. If you’re not sure, leave it to others to decide.",fl3womq,roastbot,ojlrq
"Yeah it was very transactional but still a great shared experience, nice girl",Ogreblack,3p7s26l0,fl8dh7q,"Sounds like she was looking for a one night stand.  By telling you she's a lesbian, she keeps you from pursuing something more.",fl8abaw,almostadaddy,z8ru7
"Luckily today I woke up feeling close to 100% again, no virus here!",Ogreblack,3p7s26l0,fl83jn4,Yikes idk if I'd be lol'ing about that... but it does take 2-14 days to show symptoms so maybe it wasn't her or maybe it's not the virus who shall not be named lol just keep an eye on your symptoms and temp. Don't take tylenol unless you see it hit >103. Fever is the body's way of killing viruses and infections! Wishing you health and wellness friend!,fl60t75,HippiePanda1207,570jncax
This post is a direct result of the opposite happening,Ogreblack,3p7s26l0,fl7dbfj,This post and replies are the reason why men keep hitting on lesbians even though they have state they are lesbian because men would brlieve there is alittle chance the lesbians still want men.,fl6nd0t,zurichtime,dr643
Well you have a kind and gentle soul.,Ogreblack,3p7s26l0,fl6aldx,"4 days of intoxication might bring your temp up a bit! Idk why your last comment got so many downvotes... I thought it was funny in an ironic kind of way lol 

*""Alright party's over! Everyone get back to their designated self isolation corners! Stop breathing on me Jerry!""*",fl6ah69,HippiePanda1207,570jncax
Hit me with those sweet sweet germs,Ogreblack,3p7s26l0,fl6a2ke,reply here for it,fl63tg6,Xploiter_RBLX,131lez9s
"Haha no I’m in Los Angeles but I’m from Toledo, OH",Ogreblack,3p7s26l0,fl66tv4,I think I know this girl... are you in Ohio?,fl5gmr5,justasickbastard,155bc3
"Yeah, the quarantine party is over haha",Ogreblack,3p7s26l0,fl658xn,"Damn bro, a bender can be some good times, but 4 days? Fuckin up your immune system for sure.",fl64w32,snekbork,13z3bo
I love this story haha,Ogreblack,3p7s26l0,fl64bkh,"Pretty sure this girl was bi, but she was in a same sex phase when we met (the second time).  I just like telling the story too.

I met this girl at a club one night with her friend, go home with them both thinking that I was going to get with at least one of them.  Turns out she had a boyfriend and they were in a long distance relationship, so I tried in vain for a couple more hours to make something happen and then got sent along my merry way.

Fast forward a year or two, I'm in another club (same one?) and I see some girl eyeing me hard.  After a few back and forths she comes up to me and asks if name is X.  Turns out it's the same girl and she visiting town.  I fully expect this to end the same way as before but she tells me to come along as the group leaves.  As we're walking to one of the girls' place, she leans over and tells me that I've earned a reward for dealing with her last time.

I won't get into details here, but we had our fun and ended up naked, talking on the fire escape.  She tells me that she's been dating women but ""sometimes you need the real thing"" :)

I never saw her again, but every time I drive by that building, I look up at the fire escape and give it a chuckle",fl634qu,lezsee,qdnc7
Solid advice,Ogreblack,3p7s26l0,fl648e0,"who cares if shes lesbian or not, you still got your pp wet, move on the the next bitch. more fish in the ocean throw that hoe back into the ocean before she spoils your tendies",fl629th,kamikaze850,3rg4sa5e
No it was more her just being like “hey I don’t do this but I wanted to with you”,Ogreblack,3p7s26l0,fl646lu,"So during sex she's like ""yup I am definitely a lesbian and definitely don't like guys",fl61xvu,ocyries,6iwbc
"Thank you for the instructions, I’m hoping it’s just a little bit of fatigue since my roommates and I have been at home drunk for 4 days straight",Ogreblack,3p7s26l0,fl643gd,Yikes idk if I'd be lol'ing about that... but it does take 2-14 days to show symptoms so maybe it wasn't her or maybe it's not the virus who shall not be named lol just keep an eye on your symptoms and temp. Don't take tylenol unless you see it hit >103. Fever is the body's way of killing viruses and infections! Wishing you health and wellness friend!,fl60t75,HippiePanda1207,570jncax
I honestly woke up with a fever this morning lol,Ogreblack,3p7s26l0,fl5zmvd,Hopefully he didn't get fucked twice!,fl5w0mt,HippiePanda1207,570jncax
"Haha, I doubt she’d be down for that",Ogreblack,3p7s26l0,fl5zlk7,I'm still so confused... we need her to do an AMA. The internet has questions.,fl5yhj0,Dat_Harass,jsosz
"Lol no, she was a lesbian before we had sex. She randomly admitted it during, which is what confused me.",Ogreblack,3p7s26l0,fl5x7se,Like she made up her mind just then or had prior knowledge... were you the last straw?,fl5x5fi,Dat_Harass,jsosz
"Interestingly, I’ve heard of lesbians getting back at each other by having sex with a man. It seems to be regarded as particularly offensive",Ogreblack,3p7s26l0,fl5sry3,"I had a female friend that identified as ""lesbian"" but she only engaged in sex with me as either a way to get back at her on again off again female lover or in hopes that I would give her money to pay a bill of hers. I put an end to this exchange (not because I caught on that she traded her ass for bill payments) when she broke into tears mid stroke and asks me if a text she got from her lesbian lover REALLY meant they were breaking up.",fl5s73l,randum626,olhfm
"She didn’t really do much except when she was getting close, both times she would start working her pelvis to that last bit over the line. She did go down on me but didn’t seem like she knew what to do. She seemed to have an idea of what she imagined she’d like a man to fuck her like though. Tried a bunch of different positions.",Ogreblack,3p7s26l0,fl5r8je,"Was she good at it with ""a guy""?",fl5qv6s,ButtercupsUncle,g5ge5
I’ve often wondered maybe it’s because I have kind of a “pretty” face that maybe lesbians are more inclined to forget I have a penis. There have been a couple other instances that a lesbian made out with me or talked about the idea of having sex with me not being completely repulsive.,Ogreblack,3p7s26l0,fl5qyot,When i was 19 i had a friend who was lesbian but told me id be the only guy shed fuck. Never did it tho. Made out and played and sucked on her huge i mean huge tits.,fl5pnwg,PatchezOHoulihan,11d3qc
"Now, that would be a confusing experience for a 19 year old virgin. Was it just once?",Ogreblack,3p7s26l0,fl5qs7o,"My first time was when I got drunk off my ass in my apartment with a 30 year old lesbian who told me I was the first guy she'd banged since she was 16. Weird time for me, the 19 year old virgin. Pretty sure I peed in her, hope she didn't get a UTI",fl5p7m1,migmatitic,10m2kcxm
"She was a lesbian before this haha. If I changed her sexuality, it is that she likes the D now. If it was a 10 min thing, I would think that but we did multiple rounds for an hour +",Ogreblack,3p7s26l0,fl5kome,"I’ve heard of men turning women to lesbianism, but it’s usually many bad men over time. You win, I guess.",fl5kc9a,fanTACHEtic,12ufu3
Haha and I was definitely drunk in Corona Extra last night,Ogreblack,3p7s26l0,fl5jpvm,So much for social distancing...,fl5j4jq,Vizionary0wl,4ykmf98v
Seems kind of like this was the scenario with my experience,Ogreblack,3p7s26l0,fl5io9b,"She didn’t tell me she was a lesbian at first. I like to be the first one to give oral, so I ate her out, and gave her a nice rimming until she came. Now after that was the awkward part. She wanted to return the favour so she gave me a blowjob. A few minutes in her mouth, I knew she havent done it before. She went on sucking me until I came (which didnt take long haha). Afterwards she told me “well thanks for giving me a taste. I think I’ll stick with pussy for a while.”",fl5i176,potentbabymaker,3z369to3
"Oh fuck, you caught me",Ogreblack,3p7s26l0,fl5gsko,The real question is why weren't you self isolating?!,fl5fak2,SatishBBanger,13g3oa
Haha thank you for sharing. I will treasure this reply,Ogreblack,3p7s26l0,fl5c9p0,"I had sex with a bartender girl who said she was a lesbian. I didn't really believe it it until we started doing it and I could feel like she never explored the male territory or knew what to do. We ended up doing cocaine and after regular sex she went into 'put it in my ass' mode moaning unlike any other woman I've been with before her. 

I still think about her sometimes.",fl4mjcf,MedicinalCum,5hu98dvq
"It’s just that I didn’t know her orientation until during, which through me off when during sex she says “I usually only have sex with girls”",Ogreblack,3p7s26l0,fl5br4e,Maybe she was on the fence with her sexuality and a night with you allowed her the courage to leap fully.,fl5b5f6,KerikSumia,16neo3
"Nah, she said she hasn’t had sex with a man in years but she wanted to with me. We both climaxed, can’t imagine it was too bad of an experience for her",Ogreblack,3p7s26l0,fl5bmw0,Maybe she was on the fence with her sexuality and a night with you allowed her the courage to leap fully.,fl5b5f6,KerikSumia,16neo3
"Yeah, it doesn’t make much sense to me.",Ogreblack,3p7s26l0,fl4m8l0,Not really but a gay friend of mine and a lesbians friend of mine once got super drunk together and decided to try out fucking with the opposite sex but he didn't get it up when she undressed and she tried to blow him but was extremely grossed out by his dick so they laughed for like half an hour about their extremely retarded idea of getting two people to fuck that definetley aren't attracted to each other and chilled though the night. So I don't get how a lesbian would fuck a man on purpose and then say this.,fl4kuct,Haesperea,o9ti0
Humans are animals too. We tend to forget. There are some “people” in the world that are no different than a rabid coyote.,Ogreblack,3p7s26l0,fl1ddis,"That’s a dumb thing to say.

This is why humans are trash, not why all cats should be indoor cats, which is just dumb to think.",fl1d12o,smooshmooth,1sa37z26
"Whoops, even better though. All of European fights just have a different feel",Ogreblack,3p7s26l0,fkzkimp,This is from Australia,fkzkggb,Shworn,2sv8uw32
Beat me to it,Ogreblack,3p7s26l0,fkzfeog,Women saying that feminism is for equality when all they do is put men down,fkzdm0a,Everythings-taken174,4mex7wgg
"Feminism tries to define masculinity on the terms of femininity.
It’s more patronizing and suppressive because it says clearly, we are perfect the way we are as women but men need to change because our masculinity somehow is a bad thing.
It’s only bad on your terms and with your various theories that blame “the patriarchy” for EVERY SINGLE PROBLEM in the world.

I think a lot of men are sick of being told what they should be and how they should act, what’s good for them and what isn’t.

Men can decide for themselves.",Ogreblack,3p7s26l0,fkw0ypy,"That’s kinda actually part of the issue with toxic masculinity. There’s some sort of belief that it’s “unmanly” to be a victim, so it’s hard for men to come out and say “I was a victim”. And when they do they don’t get the same empathy cause they are male. I think considering the positions and opportunities that men have over women, in a way, men are being oppressed but really only from a system that they created. I don’t think women are really responsible for it. That being said. Anyone who honestly cares about gender equality does care about this issue. However I think that issue is a smaller part of toxic masculinity. Because it’s toxic that being a victim is “non-masculine”. I also don’t think women are told to be apathetic to men. If no one cared about being Masculine or not it wouldn’t be a problem.",fkvv301,somemule42,3gvgi1kq
"I really don’t subscribe to those feminist theories on men and women. It’s really more cultish than rational or provable.

It’s a belief system. A hypothesis. One that conveniently placed men at the cause of all problems and woman always in the place of the victim.
Just like you just stated there, proving it’s impossible for you all to see yourself as anything but innocent victims.",Ogreblack,3p7s26l0,fkw03en,"That’s kinda actually part of the issue with toxic masculinity. There’s some sort of belief that it’s “unmanly” to be a victim, so it’s hard for men to come out and say “I was a victim”. And when they do they don’t get the same empathy cause they are male. I think considering the positions and opportunities that men have over women, in a way, men are being oppressed but really only from a system that they created. I don’t think women are really responsible for it. That being said. Anyone who honestly cares about gender equality does care about this issue. However I think that issue is a smaller part of toxic masculinity. Because it’s toxic that being a victim is “non-masculine”. I also don’t think women are told to be apathetic to men. If no one cared about being Masculine or not it wouldn’t be a problem.",fkvv301,somemule42,3gvgi1kq
"Somehow you have managed to attempt to gaslight me, make a broad (completely idiot) statement about how sexism benefits men (considering that the legal systems favor women to the point they can literally stab men, post selfies, brag about assaulting men, and never get jail time).

But yeah, go off sis",Ogreblack,3p7s26l0,fkvolkv,"Bro wtf.

Like who ever said anything about feeling inferior to men? Are you ok?

And also, it isn’t as hard to be a dude in the U.S as it is a woman, Men benefit from sexism because it means theirs a gap in the opportunities of men and women. Thus, it’s easier to be a man than woman.",fkvo0t4,somemule42,3gvgi1kq
Do you work for buzzfeed news? You should.,Ogreblack,3p7s26l0,fkvoa5h,"Bro wtf.

Like who ever said anything about feeling inferior to men? Are you ok?

And also, it isn’t as hard to be a dude in the U.S as it is a woman, Men benefit from sexism because it means theirs a gap in the opportunities of men and women. Thus, it’s easier to be a man than woman.",fkvo0t4,somemule42,3gvgi1kq
"I disagree. I think society as a whole is more empathetic towards women. And humans exploit what they can. It happens constantly. Either way, I’m not anti-woman but if I was, it would be a direct result of how apathetic women are told to be to men.",Ogreblack,3p7s26l0,fkvo6tq,"A lot times people on the internet get heated about stuff that would really be more simple to argue if we just didn’t scream at each other virtually, however. I think your missing a few points. For one I think it’s worth considering that guys and girls act very similarly in a lot of ways most the time. Our society has given us roles to follow, and society’s influence does mold us, but I feel that ultimately personality wise, there really isn’t much separating a guy and girl. I’m only saying this because if a sizable chunk of women end up “playing victim” means that there is some form of inequality. Women aren’t genetically predisposed to “play victim”.

Sexism is an issue in the U.S and probably the world over as well. And it is true that women are often the victims of it.

Also, the thing about morality is that ultimately it is subjective, and sometimes you need to know when to not care what other’s think. But when a lot of people call you a bad person. It may be worth spending some time considering their point. You may have to ask them why they think that way, and they may not want to answer. But you have to be considerate if others.",fkvnnnx,somemule42,3gvgi1kq
"It’d be way different if you were saying “x happened and this is why it’s wrong”. You’re saying x happened to you, and here is why I think you’re a piece of shit for it even mentioning that it happens”",Ogreblack,3p7s26l0,fkvlmcf,"Wow, its almost like you, how do I phrase this...


>can’t claim victimhood, so they [you] go straight to minimizing and ridicule. Haha classic move, cool person!

Couldn't have put it better myself.",fkvktij,PM_ME_UR_HALFSMOKE,5qidqd3s
"See the difference here is that you’re not making any claim. You began this little thing by going out of your way to try and push your narrative on somebody. It’s like you can’t see past your own prejudice so much to the point that if you even admitted you were wrong a little bit, you would crumble into a pile of mixed pieces.",Ogreblack,3p7s26l0,fkvl50u,"Wow, its almost like you, how do I phrase this...


>can’t claim victimhood, so they [you] go straight to minimizing and ridicule. Haha classic move, cool person!

Couldn't have put it better myself.",fkvktij,PM_ME_UR_HALFSMOKE,5qidqd3s
"And yes, attempting to bully a person into accepting your point of view is exactly what you’re doing. I’m not spewing the recycled garbage that fits the narrative that you subscribe to, so you do mental gymnastics to label you right, me wrong, you good, me bad. So then you don’t have to think about the morals of how you treat a person that doesn’t share your opinion.

It really is a sick mindset for a person to be in. So intolerant. So autonomous.",Ogreblack,3p7s26l0,fkvgo35,"Ah yes, that magical fantasy world where telling someone to stop being an asshole is ""bullying""


You've really got yourself twisted up in knots just to secure that victim narrative, huh?",fkvfs4h,PM_ME_UR_HALFSMOKE,5qidqd3s
"The great irony that evades you is just because you decide I’m an asshole doesn’t mean you are justified. Literally anybody can make up a reason why somebody else “deserves” a treatment. From my point of view, you are disgusting. Does that mean I’m justified in saying you’re a bag of tiny Trump dicks? No.",Ogreblack,3p7s26l0,fkvgcbk,"Ah yes, that magical fantasy world where telling someone to stop being an asshole is ""bullying""


You've really got yourself twisted up in knots just to secure that victim narrative, huh?",fkvfs4h,PM_ME_UR_HALFSMOKE,5qidqd3s
Pp stonks are up,Ogreblack,3p7s26l0,fkv3r54,Haha. I got a big pp tho.,fkv3og1,throwaway_203_,4sqy3sk5
"You can’t come up with a convoluted way to justify hateful behavior and then call it “over simplistic” when somebody says it’s still prejudice and hatred.

No rational human being would follow you down this rabbit hole where you attempt to make something wrong seem right.",Ogreblack,3p7s26l0,fkv29gx,And the oversimplification continues,fkv1xvg,WritingOnCoattails,1o5ke2e
"Dude, your dad is a virgin shut up",Ogreblack,3p7s26l0,fkv1tw6,Well then your parents aren’t too smart.,fkv1rli,throwaway_203_,4sqy3sk5
"Yeah, we’ve been wiping our asses with our imagination over here, you lepton",Ogreblack,3p7s26l0,fkv0mda,Thanks for calling my parents idiots. What an ass you are 😂😂😂 need toilet paper? Haha,fkv0jxb,throwaway_203_,4sqy3sk5
"I don’t think you are denying that you like to try and bully people, but only groups that you can easily get away with being prejudiced against.",Ogreblack,3p7s26l0,fkuybzf,"Ah, and look how fast it took for *you* to become the victim. Poor you, the victim of a general hashtag, how *do* you find the strength to carry on?",fkux60b,PM_ME_UR_HALFSMOKE,5qidqd3s
"Here it is, the work around to try and justify hatred but only hatred towards certain groups.",Ogreblack,3p7s26l0,fkuy8po,"People who make these comparisons don’t understand how it’s a false equivalence. It’s not as apples to apples as most assume. And that is a fair misunderstanding.

But the idea is that when addressing a race/class/sex that functions as the “default” of our society, these generic blanket statements are used to call attention that we are part of a system that benefits them.

When you read the first one, even if you agree that it’s unfair statement, you probably didn’t cringe as much as the thought of someone saying the same about minorities. That’s because

1. There is a history of oppression
2. They are still affected by said oppression

For the most part, we collectively know that we are equals, but we still have an implicit bias that we constantly have to address in ourselves. We also know that lack of opportunities in the past means there’s a gap of financial opportunities and stability in the present and even future. For example, Black people affected by red-lining May not have been able to accumulate wealth through property as many middle class white Americans may have done.

If you make a statement “minorities are trash” it has a more visceral and negative effect because many minorities have felt like trash and have been made to feel like trash. We’ve seen so many representations of white men however that we’re more likely to empathize. Hence why the college football star gets slap on the wrist for being such a great citizen when accused of sexual assault (as a very basic example). We don’t lock our doors when some white dude in a hoodie jogs by. 

A blanket statement about folks with certain privileged status cannot be compared with blanket statements made about minorities, because the impact is never the same. 

Yes things are changing, sure we can discuss how productive/unproductive it is to make those statements regardless of the harm/impact. But let’s not pretend like it is the exact same thing. It’s disingenuous. Sexism/racism is discrimination but not all discrimination is sexism/racism. For there to be either, there needs to be an imbalance of power, where the victim of discrimination has little or no power.",fkux11i,WritingOnCoattails,1o5ke2e
"I wish I was triggered. Wish I was an MRA too. But alas, I’m just a normal dude telling a dog that I know it is a dog.",Ogreblack,3p7s26l0,fkuxpv8,My favorite thing in the world is to trigger MRAs 😂,fkuxhhh,the-willow-witch,4h5pxt0v
"Haha, it’s so lovely to openly spout hatred and apathy at people isn’t it? Must relieve a lot of your stress.",Ogreblack,3p7s26l0,fkuxksj,"Ah, and look how fast it took for *you* to become the victim. Poor you, the victim of a general hashtag, how *do* you find the strength to carry on?",fkux60b,PM_ME_UR_HALFSMOKE,5qidqd3s
"It’s almost like you feel so inferior to men that you have to go out of your way to disprove anything positive about us. The way you smoothly slide those little hints of guilt and hatred in there, mmmmm so masterful at your craft.",Ogreblack,3p7s26l0,fkuxc3h,It’s sooooooooo hard,fkuwzco,the-willow-witch,4h5pxt0v
"I like how your entire reply is just a subtle way to vent hatred toward a group of people but you’ve compressed it into just 3 words, truly inspiring. So brave. So stunning.",Ogreblack,3p7s26l0,fkuwx33,So so hard,fkuwq7r,the-willow-witch,4h5pxt0v
Neither is gloating about misandry. Only one is considered a “good look” though. Nice the urban slang to give your disapproval that extra zing really worked!,Ogreblack,3p7s26l0,fkuwean,Gloating about misogyny isn't a good look...,fkuw6qb,PM_ME_UR_HALFSMOKE,5qidqd3s
"Haha, yes there it is, that good old apathy towards fellow humans.",Ogreblack,3p7s26l0,fkuw81y,It’s so hard to be a man,fkuw4it,the-willow-witch,4h5pxt0v
"All that collective apathy towards men and mental gymnastics ya’ll use to justify your shitty behavior will one day bite you in the ass, cool person.",Ogreblack,3p7s26l0,fkuue2u,Poor men. I hope they get a break some day,fkuth04,Butterfly_Queef,w7rw1z5
"Ah women. The professional victim gender. It actually upsets them when they can’t claim victimhood, so they go straight to minimizing and ridicule. Haha classic move, cool person!",Ogreblack,3p7s26l0,fkutypv,Poor men. I hope they get a break some day,fkuth04,Butterfly_Queef,w7rw1z5
"Thank you for sharing, I got goosebumps on the first female vocal refrain and crescendo. I’ll be watching the entitle musical next.",Ogreblack,3p7s26l0,fktpcgk,Here comes the Arm - The Protomen. Never fails to give me goosebumps and shed a few tears.,fktok02,poiolliop,15k94233
Listening now.,Ogreblack,3p7s26l0,fktozg7,Here comes the Arm - The Protomen. Never fails to give me goosebumps and shed a few tears.,fktok02,poiolliop,15k94233
"The lyrics from this Radiohead song are haunting. Each verse, an excerpt into the depth of the soul, shattering.
Thank you so much again for sharing.",Ogreblack,3p7s26l0,fktoeqa,2 different songs. Just forgot to format,fktmjaf,ZenTempus,9k9bw
Thank you for sharing,Ogreblack,3p7s26l0,fktnrjs,Thanks for replying and taking the time to listen to the song.,fktn2ok,glasgowbound,14tss5
"On repeat now, thank you for sharing my friend.",Ogreblack,3p7s26l0,fktnpxc,2 different songs. Just forgot to format,fktmjaf,ZenTempus,9k9bw
"Sorry about that, I thought you were trolling, listening now",Ogreblack,3p7s26l0,fktnhsc,2 different songs. Just forgot to format,fktmjaf,ZenTempus,9k9bw
"Can’t find it, link?",Ogreblack,3p7s26l0,fktn5on,"Not every time but I have teared up at the Goo Goo dolls, I'm still here.

Edit: another one slightly more embarrassing is avril lavigne, when you're gone. but that's just the video",fktn320,45131010,3yff6zfc
I’m going to give it a listen now.,Ogreblack,3p7s26l0,fktn414,"Not every time but I have teared up at the Goo Goo dolls, I'm still here.

Edit: another one slightly more embarrassing is avril lavigne, when you're gone. but that's just the video",fktn320,45131010,3yff6zfc
I want to see if we can truly connect through the music as people.,Ogreblack,3p7s26l0,fktn34w,Thanks. Maybe it's cause I listened to it at a really rough point in my life and I alway associate it with that,fktmswx,glasgowbound,14tss5
"I’m half way through now, and I can definitely feel the soul in the song. I think we try to connect a lot by referencing music to try and translate a feeling and I want to see if I the feeling is in the music or just in the correlation of memory to it.
Thank you for sharing.",Ogreblack,3p7s26l0,fktn08b,Thanks. Maybe it's cause I listened to it at a really rough point in my life and I alway associate it with that,fktmswx,glasgowbound,14tss5
Giving it a listen right now.,Ogreblack,3p7s26l0,fktmnyo,November Rain by GnR breaks me down completely no matter what walls I've put up,fktmls2,glasgowbound,14tss5
"Hey, just between us, I know there’s a song that makes ya cry.
If you post it, I’ll listen to it.",Ogreblack,3p7s26l0,fktmmeh,2 different songs. Just forgot to format,fktmjaf,ZenTempus,9k9bw
"I know Radiohead and I know FF7 but can’t seem to find this song. Would you post a link?

But of course it doesn’t exist, it’s just three generic, often parodied, sappy references.

But if you have the link, I’mma fuck wit chu",Ogreblack,3p7s26l0,fktmgoq,"Exit music (for a film) Radiohead. 
https://youtu.be/50rlHVe6g9Q

Aeris's theme
https://youtu.be/fIqKWLkm2-g",fktm55x,ZenTempus,9k9bw
"Gents, to be candid I don’t tend to seek out erections in my media. I do see that there is a strange lack or erections in all of the sex in American tv.
We are kind of a prudish society and are just now accepting topless women on tv in that last couple decades.",Ogreblack,3p7s26l0,fktm8oi,"If you're American, try downloading the European versions.

You get censored as much as China sometimes and have no idea about it.",fktlj4e,ScruffyRoundTheEdge,3x7l1kbw
Rich criminals just buy their way out,Ogreblack,3p7s26l0,fkp4noh,"Very true, but most pedophiles and sex offenders have jobs and money. They are just like everyone else, but immensely terrible.

The pedophile in my neighborhood was very rich.",fkp3bze,anthrolooker,urlwbbz
This is a cringe turducken,Ogreblack,3p7s26l0,fkohkg3,"So it's a screenshot of a Facebook post, which is screenshotting a twitter post",fknuz7j,lyingcorn,21v4kjyw
The system generally prefers to pursuer employed criminals. You can’t extort fees and fines from somebody with no money.,Ogreblack,3p7s26l0,fko9we8,"I grew up with a sex offender in my neighborhood. He moved into a house surrounded by children, mostly young boys which was his issue. He broke 9 terms (serious ones, not petty shit) of his probation. When we reported it to his probation officer, he said he would not do anything, laughed and told us to go home.

The sex offender never reported living there to his probation officer, he never told any neighbors he had moved in (someone started to have concerns about him and a lawyer in the neighborhood looked it up in arrests and court case database. The sex offender even had many aliases), sex offender was unemployed, was living next to 4 properties with young kids, and was caught countless times trying to talk young boys into coming over to his house, and lived too close to 3 separate schools. And despite all of this, he still lives there. The families with kids just had to move away for safety. Of course having a registered sex offender next door really hurts your property value though.

You’d think people in charge of that man’s probation would want to protect kids, but no. That responsibility falls on our shoulders.",fkn4d1m,anthrolooker,urlwbbz
Watching big booty niggas turn my dick to rock,Ogreblack,3p7s26l0,fkl332u,"I don't suck one cock, nigga I suck the block",fkjfe46,ItsAndwew,o6etodz
"Because it really is satisfying to see a person get beat up after acting so privileged and bullying another person as though it is their birthright. It’s not that people like seeing girls beat up, it’s that their behavior prior is so obnoxious that it’s palatable when you see them get the unfiltered response that a man would get.",Ogreblack,3p7s26l0,fkf91os,"Never understood why people in thjs sub and r/fightporn are so obsessed with girls getting beat up and then recycling the same “equality jokes” lol it’s so tired. 

“Equal rights, equal lefts” 
“These hands are rated E for everyone”

Every single time lol",fjs3rrp,Thirtysixx,nbyr5
Women never think it’s okay for men to hit them until it’s their male that’s being hit by a woman.,Ogreblack,3p7s26l0,fkf8cxp,"My son is autistic and a girl had been bullying him and his friends at school. She started getting physical with him and was throwing things at him in the play ground. Teachers told her to leave but she came back and covered him in water. He lost his shit and kicked her in the head from a standing position (he’s a tall lad). 
While I do not advocate violence at all, in this instance I feel he was defending himself. School agreed. Strangely the bully has left him alone since then....... who knew!",fjqt0kw,MrsAEK,1e375sm0
"Naw, she didn’t need to spit in his face. You can’t expect a person to react rationally or benevolently after they get violated like that.",Ogreblack,3p7s26l0,fkf6yiu,I'll just say homeboy probably didn't need the wind up.,fjxv19d,Kylebeast420,aqhyh
"I’ll always be a student but won’t always be broke. Thanks friend, a good life to you.",Ogreblack,3p7s26l0,fka4w9u,Someday I hope you become not a broke college student. Good luck.,fka4u5n,starwreck1992,3eswgbdt
"This is the positivity reddit needs, if I wasn’t a broke student you would be getting some gold",Ogreblack,3p7s26l0,fka4n5x,Probably almost as much as yours my guy.,fka2jgn,starwreck1992,3eswgbdt
Lil Mac all the way! Get’s so much hate because his air game is whack but dominates the ground game,Ogreblack,3p7s26l0,fk5orpv,LIL MAC!!!! Catch you with that dash dance,fk5oh6b,BeerAndBadTattoos,qxui5
"Screw you, you knife nipple bastard!",Ogreblack,3p7s26l0,fk3ckj5,Fuck you! The pinch and twist People will reign supreme!!,fk36x6p,fgcem13,4nfb0e6p
This is late-game knowledge.,Ogreblack,3p7s26l0,fk3cij7,Not true. Two fingers draw the skin taut while a third scratches with the nail.,fk2es20,chopstyks,bghpr
Badum tssss,Ogreblack,3p7s26l0,fjzctod,Point being?,fjzaxvf,FisherKing13,8l4pi
"I don’t believe humor has a particular box of funny or not funny, but my personal line is human trafficking.

Like lining humans up to traffic.",Ogreblack,3p7s26l0,fjzagu3,"Probably a former isis wife, making her way home to mom and dad.",fjz80nw,FisherKing13,8l4pi
I do understand now how it was not an optimal idea. Thank you for spending the time to resolve it.,Ogreblack,3p7s26l0,fjyufaw,"> Fair enough. It was not my intention. I just wanted to see if there was any support for such thing.

There's support , though not from me because I favour free speech except in extreme cases like CP.

But you clearly understand why we don't allow posts about it, so thanks.",fjyuck5,goodmod,1koi4knp
Fair enough. It was not my intention. I just wanted to see if there was any support for such thing.,Ogreblack,3p7s26l0,fjyu2mk,"This post has been removed by another moderator.

We remove posts calling for the banning of other subreddits. This is because others want to ban r/MensRights. Starting conflicts with other subreddits would be unwise.

r/againstmensrights has existed for almost as long as our own sub. It has not yet managed to do any noticeable harm.",fjytyvj,goodmod,1koi4knp
"Eat a dick, good luck.",Ogreblack,3p7s26l0,fjysk0a,"God, you're really a woman, aren't you? Such a tantrum you throw that you have to make four different replies. ""And another thing!""

So here's what's going to happen. I want to be perfectly clear because you're stupid. After I hit reply I'm going to report your ass for attempted brigading-- not to the mods here, but directly to Reddit administration. Then I'm going to block you because (and this is important) you're fucking stupid. 

So take your whopping *ten month old account* and your *blatant refusal to follow the rules of Reddit* and above all, your *childish and womanly offense at everything,* and please enjoy having your account removed when Reddit gets around to hammering you. 

*When* it happens, which probably won't be for a couple weeks so you'll have time to think you got say with it, please remember that I *tried* to help you but you were too busy throwing a temper tantrum to be helped by someone older, smarter, and definitely better looking. 

PS: Shut the fuck up.",fjysgei,SirKolbath,qg5w9
"Once again, help or shut the fuck up? Two option, shit mouth.
If this is breaking Reddit’s rules I’ll figure something else out.
But I don’t need some half assed wanna be Internet A-male telling new what the fuck to do.

Stupid bitch.

And I’ll gatekeep your punk ass.",Ogreblack,3p7s26l0,fjys90d,"Because I'm pretty sure you're a fucking idiot you can't read and didn't notice that I didn't say anything of the kind. 

Strawman arguments are [intellectually dishonest debate tactics](https://johntreed.com/blogs/john-t-reed-s-news-blog/60887299-intellectually-honest-and-intellectually-dishonest-debate-tactics). Grow up. I was very clear in what I said. 

What's my point in being here? I don't have to justify myself to you or to any other overly-emotional and fragile woman who loses her shit because someone said something they disagree with. I'm here because I choose to be. 

>	Also you should probably check all that misogynist bullshit you say, cause that makes it harder for the rest of us.

Guess what, tard? You don't get to gatekeep anything. You certainly don't get to define misogyny, but I can tell you that moderating a subreddit where we hold women accountable is not it.",fjyrxsm,SirKolbath,qg5w9
"And you eat, sir, may eat the dick.",Ogreblack,3p7s26l0,fjyrx5f,"How about you eat a bag of salty assholes? No, I didn't ""let feminists shut me down."" I choose not to argue with people whose minds are nailed shut. 

Let me put this another way because you're fucking stupid. *What you are advocating is brigading. It is against the Reddit terms of service and will give them an excuse to shut down this subreddit!*

So no, you stupid fuck, I will not ""shut the fuck up"" while your retarded ass breaks the rules and gets one of the places I choose to participate shut down because you are such a goddamn snowflake that you get offended that someone else has a sub you don't like. You sound *exactly* like them. 

You *choose* to be offended by the existence of other subs. Quit seeking reasons to be offended and work on yourself, dumbass.",fjyrmqe,SirKolbath,qg5w9
"Wrong, I’m offended by them shutting down our sub that had a right to be here. Pull the dick out of your ass and get serious instead of wanking around looking for a place to bitch and act holier than thou.
If you wanna be left alone, maybe MGTOW is where you won’t find people standing up to feminist bullshit they shove down our throats.",Ogreblack,3p7s26l0,fjyrvs7,"How about you eat a bag of salty assholes? No, I didn't ""let feminists shut me down."" I choose not to argue with people whose minds are nailed shut. 

Let me put this another way because you're fucking stupid. *What you are advocating is brigading. It is against the Reddit terms of service and will give them an excuse to shut down this subreddit!*

So no, you stupid fuck, I will not ""shut the fuck up"" while your retarded ass breaks the rules and gets one of the places I choose to participate shut down because you are such a goddamn snowflake that you get offended that someone else has a sub you don't like. You sound *exactly* like them. 

You *choose* to be offended by the existence of other subs. Quit seeking reasons to be offended and work on yourself, dumbass.",fjyrmqe,SirKolbath,qg5w9
"Because I’m pretty sure this sub is about Men’s rights, you’re telling us to just put up with whatever treatment now. What’s your point of being here? To have somewhere to bitch about woman? That’s fun and all but I’m here as a part of a community that doesn’t believe in discrimination. Also you should probably check all that misogynist bullshit you say, cause that makes it harder for the rest of us.",Ogreblack,3p7s26l0,fjyrlqe,"While the hypocrisy annoys me, I don't get why you people give such a shit what goes on in other subreddits. If you don't like what they have to say, stay the fuck out of them. You're not going to find me wasting my time at /Feminism because I already know those cunts hate me because I have a penis and I have zero reason to go experience it firsthand. You don't find me fucking around harassing the morons in the /Socialism subreddit, either. You guys swan dive into septic tanks and then act surprised when you come out covered in shit. What the hell were you expecting, free blowjobs?

I can't go a solid *week* enjoying Reddit because people who think like this feel it necessary to invade the subreddits in which I choose to participate. From dealing with brigading from assholes at /AgainstHateSubreddits who openly feel harassment and cyber bullying is excused by their bullshit accusations of ""Hate sub!!!!"" and finger pointing, to the fact that at least once a day some chick wanders in *here* to demand we justify our beliefs to her, what part of ""Leave me the fuck alone and I'll leave you alone,"" is too much to ask for?

Reddit is a company that thrives on hypocrisy. We already know that. Antagonizing them and trying to start a feud from one sub to another is just going to piss off everyone involved. If you don't like what they have to say in those subs, quit going to them. (It's also borderline brigading, which is against the Reddit TOS and can give them an excuse to shut *this* sub down as well.)

On top of that, Reddit has a block feature. If you see something that offends you, [you did it to yourself](https://i.imgur.com/cZ6ygZz.jpg).

I agree with you, that sub shouldn't exist. But it does and the people who participate there are assholes. Would you rather have them wasting their time *there*, or would you rather they spread out and infected every other sub on Reddit? As long as they're cunting around in that sewer, just put the manhole cover back on it and ignore it. Otherwise they're just going to start shitting up subs like this one and frankly I am not interested in dealing with it.

Edit: Having seen the emotional outbursts and open threats of violence from this moron, before leaping up to follow his lead and commit a Reddit TOS infraction that could get this subreddit shut down, perhaps everyone else in this thread should consider walking away and letting him get his own stupid self thrown off Reddit withojt joining him.",fjyqg77,SirKolbath,qg5w9
"The point is, they went out of their fucking way to get our pages shut down and I’m sick of it. So either help or stfu. Not body cares how frustrated you are because you let feminists shut you down so now you don’t even try. Some of us refuse to keep getting shut down unfairly and completely biased.

Thanks for the input.",Ogreblack,3p7s26l0,fjyr4do,"While the hypocrisy annoys me, I don't get why you people give such a shit what goes on in other subreddits. If you don't like what they have to say, stay the fuck out of them. You're not going to find me wasting my time at /Feminism because I already know those cunts hate me because I have a penis and I have zero reason to go experience it firsthand. You don't find me fucking around harassing the morons in the /Socialism subreddit, either. You guys swan dive into septic tanks and then act surprised when you come out covered in shit. What the hell were you expecting, free blowjobs?

I can't go a solid *week* enjoying Reddit because people who think like this feel it necessary to invade the subreddits in which I choose to participate. From dealing with brigading from assholes at /AgainstHateSubreddits who openly feel harassment and cyber bullying is excused by their bullshit accusations of ""Hate sub!!!!"" and finger pointing, to the fact that at least once a day some chick wanders in *here* to demand we justify our beliefs to her, what part of ""Leave me the fuck alone and I'll leave you alone,"" is too much to ask for?

Reddit is a company that thrives on hypocrisy. We already know that. Antagonizing them and trying to start a feud from one sub to another is just going to piss off everyone involved. If you don't like what they have to say in those subs, quit going to them. (It's also borderline brigading, which is against the Reddit TOS and can give them an excuse to shut *this* sub down as well.)

On top of that, Reddit has a block feature. If you see something that offends you, [you did it to yourself](https://i.imgur.com/cZ6ygZz.jpg).

I agree with you, that sub shouldn't exist. But it does and the people who participate there are assholes. Would you rather have them wasting their time *there*, or would you rather they spread out and infected every other sub on Reddit? As long as they're cunting around in that sewer, just put the manhole cover back on it and ignore it. Otherwise they're just going to start shitting up subs like this one and frankly I am not interested in dealing with it.

Edit: Having seen the emotional outbursts and open threats of violence from this moron, before leaping up to follow his lead and commit a Reddit TOS infraction that could get this subreddit shut down, perhaps everyone else in this thread should consider walking away and letting him get his own stupid self thrown off Reddit withojt joining him.",fjyqg77,SirKolbath,qg5w9
"People who view activism as a cute like weekend hobby that you can hashtag post and virtue signal...are the worst.

Ya’ll just care to look like you’re doing the right thing on IG more than actually doing the right thing.",Ogreblack,3p7s26l0,fjyools,"Brainwashed? You’re fucking ridiculous. You don’t know what I think about favoritism or discrimination, neither of which I support. What you are describing...IS FUCKING FEMINISM.",fjyls37,serendipindy,dn0ihp
"Lmao what a fucking joke. Okay how bout this statement then “MRA’s don’t promote violence against women. Misogynists do.” 

Fems use that BS circular logic to try and justify themselves but will make sure to define anything “not feminist” as discriminatory. It’s the most childish logic ever. “I call myself this word (which I have defined as always good) and so that means you can never say a feminist is anything bad because if they are bad, they are not a feminist.”

Is a priest that touches kids not a priest? Cause I’m pretty sure when you look up priest in the dictionary, it doesn’t say “Never can be a pedophile because he believes in children’s rights”

Whenever they do something bad, it’s not a reflection on feminism as a whole but when they do something good every feminist contributes to it. Right, not buying it.",Ogreblack,3p7s26l0,fjynlum,Feminists don’t rationalize violence against anyone. Misandrists do.,fjyanav,serendipindy,dn0ihp
"You’ve said nothing but repeat the phrases you’ve been instructed to repeat and it really set you off when you didn’t have a preprogrammed response to ideas about misandry being an issue for feminists to deal with.

You’re like an NPC. No worst, like a parrot with diarrhea.",Ogreblack,3p7s26l0,fjymjku,"LOL! OK, clown. You don’t know a single fucking thing about me.",fjylzgo,serendipindy,dn0ihp
"Some people don’t have enough depth to their beliefs that it’s kind of easy to peg them.

Ooooh or maybe you’re starting to see how much of a drone you are and that’s what made you upset.

Calm down, dude",Ogreblack,3p7s26l0,fjym93m,"LOL! OK, clown. You don’t know a single fucking thing about me.",fjylzgo,serendipindy,dn0ihp
"Riiiiight. On with you, now. Go find a way to think for yourself.",Ogreblack,3p7s26l0,fjylygx,"Brainwashed? You’re fucking ridiculous. You don’t know what I think about favoritism or discrimination, neither of which I support. What you are describing...IS FUCKING FEMINISM.",fjyls37,serendipindy,dn0ihp
"And of course you won’t try and do something about the people who turned feminism toxic because you’re a fucking coward. You do what the rest of the crowd does and makes excuses for not standing up against misandry. You’re brainwashed to only have a problem with misogyny.

Useless, fake ideologist.",Ogreblack,3p7s26l0,fjykvyq,I've been pretty restrained. Every ounce of your posts is full of ridiculous stereotypes and made-up b******* about all the misogynistic feminists that you know. But I loled at you and now you're offended. Okay.,fjykdta,serendipindy,dn0ihp
"Oh you’ve been restrained?? Oh noooo please don’t say something mean, I have no idea what I’d do since your mad as fuck that you got called out for being part of a sexist agenda.

Move on with that basic bitch shit, you commented on my post pushing your little bullshit ideology.",Ogreblack,3p7s26l0,fjyklxa,I've been pretty restrained. Every ounce of your posts is full of ridiculous stereotypes and made-up b******* about all the misogynistic feminists that you know. But I loled at you and now you're offended. Okay.,fjykdta,serendipindy,dn0ihp
"It’s equality without disclaimers or putting one person’s right over another. It’s being against favoritism and discrimination, standing up for the rights of others even if they disagree with you.

Kind of a new concept for you since you’re brainwashed but you’ll catch on I’m sure.",Ogreblack,3p7s26l0,fjykcq1,Actual equality. Tell us all what “actual equality” is.,fjyk6hu,serendipindy,dn0ihp
#believeallwoman right sis?,Ogreblack,3p7s26l0,fjyjy3f,We’re done. I don’t have magical power over other feminists. We aren’t a coven where I have some mystical ability to bring women in for “reprimanding.” LOL I’m not responsible for your generalizations and neither is feminism. Your perception that females side with females no matter what just isn’t founded. It’s dumb and childish. Women discriminate against men? Where did anyone ever make a claim that feminism is perfect? Women discriminating against men has nothing to do with feminism - that’s a woman being an asshole with whatever power she has. I’m not a blind zealot who defends women no matter what. Move on and grow up.,fjyjke7,serendipindy,dn0ihp
"And classically since you cannot debate, you move on to insults, minimizing and a childish “LOL” just to give it a little snark.

Yeah, the future is female. Feminism is a dying movement anyways. Maybe jump over to actual equality?",Ogreblack,3p7s26l0,fjyjsck,We’re done. I don’t have magical power over other feminists. We aren’t a coven where I have some mystical ability to bring women in for “reprimanding.” LOL I’m not responsible for your generalizations and neither is feminism. Your perception that females side with females no matter what just isn’t founded. It’s dumb and childish. Women discriminate against men? Where did anyone ever make a claim that feminism is perfect? Women discriminating against men has nothing to do with feminism - that’s a woman being an asshole with whatever power she has. I’m not a blind zealot who defends women no matter what. Move on and grow up.,fjyjke7,serendipindy,dn0ihp
"We have waaay more members than AMR, could do this",Ogreblack,3p7s26l0,fjyji0d,Wont happen. Reddit is lost to this idea that women are Angel's who never do wrong and if they do its cause a man was mean to them first.,fjyj98h,maxtorrz,5j0sos92
Well sounds like we have work to do.,Ogreblack,3p7s26l0,fjyjcdl,Wont happen. Reddit is lost to this idea that women are Angel's who never do wrong and if they do its cause a man was mean to them first.,fjyj98h,maxtorrz,5j0sos92
