child_body,child_screen_name,child_user_id,child_tweet_id,parent_body,parent_tweet_id,parent_screen_name,parent_user_id
Shut up,papermaker83,12ok1qrs,fl27o73,Underrated comment,fl1thh8,agwells2016,746ib
"You can vote in advance, so that's just an excuse. Otherwise unemployed people would be over representated...",papermaker83,12ok1qrs,fkyrdn5,A lot of young voters couldn't get time off to vote as well!.,fkyjpm4,Cradleofwealth,59atldxu
"No, ignorant people don't vote, make of that what you will, but it's the truth.",papermaker83,12ok1qrs,fkyr2no,"Also sadly, reasonable people don’t vote.",fky6le5,covidinsemen,5m0zqrr6
EVERYTHING about religion is historically wrong.,papermaker83,12ok1qrs,fkxud4a,"No offense but you know you are historically wrong, right? By your interpretation of Islam, Muhammad did not practice Islam. 

There is an entire section in the Quran on how to conduct war. Call out Islamophobes for being hateful bigots. Thats fine. But you gotta take off your rose tinted glasses.",fkxocs8,flying87,aegcf
"Sorry, but I'm missing your point.",papermaker83,12ok1qrs,fkqk6qq,"""And ***that*** is why taxes are a good thing, and why we need to raise them for the betterment of society!! Now won't you agree with me here little Johnny?""",fkq934g,K33M_5T4R,1512qz
Twas prolly a jokeeeee,papermaker83,12ok1qrs,fknjps7,How do you cough into the *outside* of your elbow?,fkngwrq,SurreptitiousSyrup,146wox
I hope you don't have a license.,papermaker83,12ok1qrs,fkeiaa9,"The cyclist is in the wrong here.  You don't just fly into the road at a crosswalk, you wait until it's safe.  He went into the road when the volvo driver was too close and wasn't going to be able to stop on time even if he spotted him.  The white vehicle stopped hard and the cyclist never even looked to his left to check if it was safe.",fkeanvs,Mentalseppuku,58um4
"No, but you sure got the ball of bullshit rolling. Stop spreading these lies.",papermaker83,12ok1qrs,fkae1p5,Didn’t she also molest her little sister?,fk9ovor,skreeth,11ohh9
"The penis doesn't stand out perpendicularly from the body, but at an angle. This requires trig.",papermaker83,12ok1qrs,fk8yww8,I can’t imagine how much buffer two inches can get you.,fk85jdy,slimpickensok,gzvxk
"Of course, but my statement goes for EVERYONE who made the decision to join the fighting forces. It's not a game.",papermaker83,12ok1qrs,fk8ydja,Clearly it wasnt just about him,fk8y3w7,cheetah_2,3vf3m7bn
"I'm the type with a constantly big stock of supplies at home, and I would share with my neighbours in a heart beat, so your theory is debunked.

Also: the people without a stock are DEFINITELY not going to share, am I right!",papermaker83,12ok1qrs,fk8wd20,"Do you reeeeally think the type of person who’s panicking, hoarding toilet paper and diapers is the type thats going to share?",fk89zv4,anjroow,2afli36h
The people who don't have any stuff will share?,papermaker83,12ok1qrs,fk8vv10,No they won’t but others hopefully will,fk8ioah,Landielou12,43qkwzk0
"We'll compared to 100000 it is almost nothing. I'm not saying his point is relevant, but your point is neither.",papermaker83,12ok1qrs,fk8u8t5,31 human beings are dead. Totally a hoax.,fk7dazr,jupchurch97,2tpc82
"Actually, there are emojis for pretty much any possible situation you can Imagine, but snobs on reddit don't like them apparently

👎🙄😬😄😜🤪🧐🥺☺️😓🤬😤🤠😇🙊🤓👻🔥👅🦾🦶👂💀👏🦵👋🤙👊👌🤸🧎🧘⛹️🧛🏄🏇🧙🧑👱👨‍❤️‍💋‍👨👭🕺🧑‍🤝‍🧑🕺👭",papermaker83,12ok1qrs,fk4rqrl,This is why /s is a thing,fk4frhm,mrfluffles300,2o9cfpzv
How would we all get by without you?,papermaker83,12ok1qrs,fk3hb8a,"#NEVER
DO YOUR BEST.
#QUIT",fk2ty5g,Joey-Drew1927,3k6lrb9f
To me it would be an extra effort making this on a computer vs pen & paper,papermaker83,12ok1qrs,fk3bbpq,I like that someone has gone to the extra effort to make this and take a photo rather than just creating the image on a computer. I have no idea why that makes a difference but it does.,fk2yf7e,smileedude,ai8hv
"Plus, sitting down is actually better for everyone. You empty the bladder to a higher degree and less cleaning.",papermaker83,12ok1qrs,fk0f1d1,"We have a 16month old with a very baby safe bedroom.  It has a babygate on the door he cant open. He sleeps in his room all by himself and is fine when he wakes up in the morning for about 15min untill he remembers if he goes to the baby gate and cries one of us will come get him.  We still would not put him in there alone to go shower or take a dump.  He would raise holy hell being left alone like that. At that age they freak out real fast if thier caregiver is out of site for eveen 30 seconds sometimes. It takes more work to get them calmed back down again than it does to take them in the bathroom with you.  Its also a good way to start getting them started on potty training. It helps them not fear the potty and see how mommy daddy use the bathroom.  Ours is a little boy, I (male) try to make sure i sit down and pee if i have him with so i dont confuse him with standing.  Its gonna take a while till he learns to aim so sitting is gonna be the way he does it for a while once he starts using the big boy potty.",fk0do9o,everythingistaken435,1s52zg5y
"Yeah, that person needs to think twice about how to treat small children. You can't lock them in their bedroom simply because you want some alone time.",papermaker83,12ok1qrs,fk0esrg,"Firstly, who the fuck has locks on their children's bedroom door and secondly, an unsupervised toddler could manage to kill themselves in an empty room. Plus that's also a good way to give them abandonment issues and anxiety.

Do your future kids a favour, don't have any.",fk0cdme,Sly1969,9syo2
"Yeah, why wouldn't it be alright to be naked in front of your kid? Do people think their kids will be traumatized from seeing a naked adult? If anything, I think it's good they learn that people look different.",papermaker83,12ok1qrs,fk0enox,"From my experience with my 3yo, they don’t exactly like feeling *confined*

We don’t mind ours being around us using the bathroom or occasionally seeing someone briefly hop out of the shower. Showing a child that something like that should be hidden all the time isn’t healthy in my opinion. But to be able to explain when things are appropriate and when they aren’t. Kids are more able to understand those concepts than people give them credit for.",fk0byhr,jajorda2,5lgyx
"No, they simply let her know that she was a homophobe, which is usually a good thing to point out. Don't you think?",papermaker83,12ok1qrs,fjux2wi,"she was bullied into taking her own life by a bunch of idiotic fucking cunts online who should all die in car fires

https://www.rollingstone.com/culture/culture-features/death-of-a-porn-star-201939/",fjtc3kk,machine667,6hkah
Source or bullcrap.,papermaker83,12ok1qrs,fjemebg,"Just FYI on anyone covering or tearing down racist posters, be careful because they hide razor blades in them sometimes

Edit: [This](https://mobil.stern.de/panorama/stern-crime/nazi-falle-in-wuerzburg--rasierklingen-unter-anti-islam-aufkleber-entdeckt-6440202.html) is just for anyone curious if this has ever happened",fjedfs3,NecromanticWanderer,p1a0bqm
"Sorry, I should have added /s

I wish I didnt but apparently...",papermaker83,12ok1qrs,fj9m7kf,"It'll give us 4 Billion more years rather than it ending in 40. By the time 4 Billion years pass, we're likely gonna find many new earth like problem. Or die from war and famine because ya know, humans.",fj9gowx,Lactoride,yb8223w
r/theydidthemath,papermaker83,12ok1qrs,fj9fiv1,How pruny do your hands get after 35 washes,fj8mlvu,PutridWarnings,5iid4w9j
So is that when you had sexual release? I couldn't even hold out that long.,papermaker83,12ok1qrs,fj9ehso,I stayed until i saw the leg bike accident,fj7w69h,Revanthmk23200,2bqrjjyu
"No, IT penetrates ME, so stop calling me gay.",papermaker83,12ok1qrs,fj9eew9,violently penetrating it,fj9a4iy,ratinthecellar,bx3cf
I made a quick visit based on your suggestion. I did not stay for long.,papermaker83,12ok1qrs,fj7ic6i,"You should post it on [r/medicalgore](https://www.reddit.com/r/MedicalGore?utm_medium=android_app&utm_source=share), I think they'd like it",fj6htrr,P00p00O,4qkjja08
Being called arrogant by someone claiming people should not be allowed handling their own finances because they buy Apple products. Thats rich.,papermaker83,12ok1qrs,fj139zh,You killed your own argument with your arrogance. Please grow up.,fj0ymc6,Viperspider,74s17
"Cool, I guess you won the argument then 😂",papermaker83,12ok1qrs,fj0w5bn,">That's just poor-people-talk.

Stopped reading here.",fj0uzuc,Viperspider,74s17
"That's just poor-people-talk.

Look att cars, clothes, food, jewelery, basically ANY consumer product, and you will see that people are more than willing to pay a premium for a symbol of status. Even people who think they don't often do.

In many cases the premium pricing is the actual reason people buy the product (diamonds being the best example of this).

So what you're saying is basically ""everyones a moron"" for feeding large coorporations of expensive products.

And btw, there may even be rational reasons to buy expensive products such as iPhones.",papermaker83,12ok1qrs,fj0ugnu,"I am not an android fanboy. I couldn't care less about what phone I use, I care about value for money. My problem is with the Apple company as a whole and how their prices are frankly ridiculous yet Apple cult worshipers line up to buy their products anyway.

All you have to do is look at the price of upgrades (like wheels for an Mac Pro or a stand for an iMac monitor) and you will see what my problem is. These prices are bullshit, and if you're stupid enough to buy these things then you shouldn't be in control of your own finances.

Android has its own stupidly expensive stuff, so does PC stuff targeted at a Windows audience. Yet despite using an Android phone and a PC I would never buy that overpriced garbage since I am not a blind fanboy who buys whatever the big companies tell me to.",fj0mle4,Viperspider,74s17
So is Android cult mentality. This coming from an Android user. Comments such as yours are fanboy garbage.,papermaker83,12ok1qrs,fj0ie0y,The Apple cult mentality is honestly disgusting.,fizri0t,Viperspider,74s17
"But media is liberal, so that makes no sense.",papermaker83,12ok1qrs,fj06ys5,People believe what the TV says in America. And the TV says that healthcare is commie bullshit and we can't afford it. Brb gonna invade another developing country.,fj000wy,Illokonereum,qob0q
Mistreating dogs specifically? What living creatures do you think it's OK to mistreat?,papermaker83,12ok1qrs,fizwgcv,"Then that's a non assholy part of their personality.  Assholeness can be complex.

On the other end of the coin, anyone who mistreats dogs is an asshole. Period.",fizw8hj,soulpoker,1v249qc0
What an ignorant comment. There are so many assholes with dogs...,papermaker83,12ok1qrs,fizw29u,Anyone who hangs out with dogs is good people. I think you have a keeper!,fiz93qr,soulpoker,1v249qc0
You didnt know that?!?!?!,papermaker83,12ok1qrs,fiyifvb,America doesn't have that?,fiy8ytl,Sanderftw,3d4hja9r
"Parental leave is a better phrasing, because you know dads can stay home too.",papermaker83,12ok1qrs,fiyid3h,"I mean, maternity leave is also important.",fixbgwy,Lordxeen,9cx5p
"So, what is Chile to you? Europe? Asia?",papermaker83,12ok1qrs,fiv5vgn,This ain't America chief,fiuuli0,leiferbeefer,122hwp
But...did you read the post?,papermaker83,12ok1qrs,fipqrnw,"Yup, dude built an empire based on cutthroat business tactics, amassed a large fortune, and put it towards ridding the world of malaria. I'd much rather be a useless waste of space on Reddit doing fuck all for anyone but myself trying to trash the guy because it helps me feel less worthless and sleep better at night.",fipl7x5,Malgaras,j7shb
"I've been on reddit almost daily for about 2 years, never seen this before.",papermaker83,12ok1qrs,fingpkk,How do you get silver with something that’s reposted everyday?,fin8724,ShinyWhalee,14h3v6
He very clearly doesn't need a hand.,papermaker83,12ok1qrs,fin1ceo,Maybe we can stop with the demeaning jokes and just give this kid a hand,fimtv2j,HerelnDuckburg,28toxoe4
Beating yeast infection.,papermaker83,12ok1qrs,fimiluf,Why the fuck would someone stuff yogurt in their pussy,fimea4q,abdou0720,43cslsan
Thank you. Every time there is a clip of a bad driver people start competing over which city is the worst. Bad driving is not geographically confined to certain cities.,papermaker83,12ok1qrs,fimihbk,"It’s not just Atlanta, lol... everyone thinks their city has the worst drivers, but really this can apply to ANY big city! Have you ever driven through Boston or Los Angeles? It’s like an exercise in defensive driving and patience.

Source: Have lived in the Bay Area (both San Francisco and San Jose + many towns between) for most of my life, and have driven in tons of other big cities.

ETA: I guess Atlanta does win the shitty driving award, after all! But I still maintain that every city has its bad drivers, and being alert is never a bad thing.",fim8brp,LollyHutzenklutz,1nmt2fg6
That was more than one reason. Happy now?,papermaker83,12ok1qrs,fih5r3p,Name some,fignca1,_AppleSauce69_,4okb08mq
"What does it mean when [people say that all cops are bastards?](https://archive.is/GZWOo)

If it were an individual thing, you'd give them the benefit of the doubt, but it isn't; it's an institutional thing. the job itself is a bastard, therefore by carrying out the job, they are bastards. To take it to an extreme: there were no good members of the gestapo because there was no way to carry out the directives of the gestapo and to be a good person. it is the same with the american police state. the job of the police is not to protect and serve, but to dominate, control, and terrorize in order to maintain the interests of state and capital. 

I also imagine most members of the gestapo also thought they were serving their country and doing good.


Who are the good cops then? The ones who either quit or are fired for refusing to do the job.

 - [police shoot people twice as often as previously thought.](https://www.vice.com/en_ca/article/xwvv3a/shot-by-cops) Keep in mind that this was self-reported, so we have no way of knowing if these numbers speak to the actual number of shootings in the US. Many of these people are completely unarmed. Police kill far, *far* more people than terrorists in the US.

 - [They also shoot one dog every hour, every day.](https://archive.is/UtPiG) At the absolute least.

 - Once you're in jail, be prepared to sit there for weeks -or months or *years*. [It's so bad that people constantly plead guilty just so they can get out.](https://www.nbcnews.com/news/us-news/innocent-man-pleaded-guilty-drug-charge-get-out-jail-it-n1067321) It's so bad and so common, in fact, that [over a third of all exonerations come after an individual has pleaded guilty.](https://www.law.umich.edu/special/exoneration/Documents/Exonerations%20in%202018.pdf) So much for the right to a speedy trial, huh?

 - And getting arrested is easy - tens of thousands of people yearly, in fact, thanks to lowest bidder garbage that police departments use in order to test for illicit substances. Field drug tests are about as reliable as lie detector tests or horoscopes. They just don't work. [They just don't.](https://www.propublica.org/article/common-roadside-drug-test-routinely-produces-false-positives)

 - Think you're safe if you just follow directions? [Yeah, no.](http://nymag.com/intelligencer/2017/12/graphic-video-shows-police-killing-of-unarmed-man-in-arizona.html) And if they don't just outright kill you, they could make their instructions [so arcane and hard to follow](https://www.youtube.com/watch?v=OflGwyWcft8) that they'll kill you for not following them, and they'll usually get away with it. He got away with it, [by the way.](https://www.independent.co.uk/news/world/americas/arizona-police-shooting-killed-man-crawling-floor-killed-a8100326.html) Surprise!

 - [They'll prosecute you for even *knowing about* crimes cops have committed.](https://boingboing.net/2019/02/26/list-of-thousands-of-criminal.html)

 - cops across the nation constantly engage in violent, hateful rhetoric on facebook, illustrating the curation of a culture of violence. [luckily for us, it was tracked and collated](https://www.buzzfeednews.com/article/emilyhoerner/police-facebook-racist-violent-posts-comments-philadelphia)

 - [Being a taxi driver is literally more dangerous than being a cop.](https://thinkprogress.org/how-dangerous-is-it-to-be-a-cop-heres-what-the-data-says-c07f6a58d8fc/)

 - [cops are more of a danger to themselves than anyone else is to them](https://www.usatoday.com/story/news/2018/04/11/officers-firefighters-suicides-study/503735002/)

 - [they've *admitted to* stealing as much -or recently *more*- than burglars through ""asset forfeiture,"" and the rate of their thefts has been climbing yearly.](https://www.washingtonpost.com/news/wonk/wp/2015/11/23/cops-took-more-stuff-from-people-than-burglars-did-last-year/) Keep in mind, these numbers only articulate what's been reported. It's probable that they've stolen far more than just this.

 - [police are literally allowed to rape people on the job in 35 states,](https://www.buzzfeednews.com/article/albertsamaha/this-teenager-accused-two-on-duty-cops-of-rape-she-had-no) as they have the power to determine whether or not you consented to sex with them while in their custody.

 - [up to 50% of the people police murder are disabled](https://www.theguardian.com/society/2016/mar/29/media-must-report-police-violence-towards-disabled-people)

 - [the police are being trained to kill as if they're an occupying army and we're an insurgency.](https://www.youtube.com/watch?v=ETf7NJOMS6Y) this is an inevitability, as the military-industrial complex needs to keep expanding into new markets.

 - Eugenics was still alive and well in the prison-industrial complex up until very recently, and could very well be continuing for all we know, as [it was forcibly sterilizing inmates as late as 2010.](https://www.theguardian.com/commentisfree/2013/nov/08/california-female-prisoner-sterilization) I honestly don't see a reason to believe it's stopped. 

 - The [US surveillance state is massive](https://qz.com/1670686/the-us-has-a-lot-in-common-with-chinas-surveillance-state/) (and while this post primarily focuses on the US, [other countries are just as bad](https://www.theverge.com/2016/11/23/13718768/uk-surveillance-laws-explained-investigatory-powers-bill)), though much of our surveillance is privatized. [This doesn't stop the police from partnering with private companies, however.](https://archive.is/bL5fT) This will only get worse as time goes on. Also, we can't forget about the Patriot Act and [Snowden's PRISM leaks.](https://en.wikipedia.org/wiki/PRISM_(surveillance_program)

 - the police, as an institution, are so completely steeped in violence, that [up to 40% of them commit acts of domestic violence and other forms of domestic abuse.](http://womenandpolicing.com/violencefs.asp) 

 - [you can't even really defend yourself from a cop, and if a cop *murders* you for no reason, he's almost certainly going to get away with it](https://www.vox.com/2014/8/13/5994305/michael-brown-case-investigation-legal-police-kill-force-murder)

 - [Police exist to control and terrorize us,](https://www.thedailybeast.com/the-day-ferguson-cops-were-caught-in-a-bloody-lie) not serve and protect us. That's only their function if you happen to be rich and powerful.

[the police as they are now haven't even existed for 200 years as an institution,](https://libcom.org/history/origins-police-david-whitehouse) and the modern police force was founded to control crowds and catch slaves, [not to ""serve and protect""](https://libcom.org/history/stop-kidding-yourself-police-were-created-control-working-class-poor-people-sam-mitrani) -- unless you mean serving and protecting what people call ""the 1%."" They have a long history of controlling the working class by intimidating, harassing, assaulting, and even [murdering strikers during labor disputes.](https://en.wikipedia.org/wiki/List_of_worker_deaths_in_United_States_labor_disputes) This isn't a bug; it's a feature.

The justice system also loves to intimidate and [outright assassinate civil rights leaders.](https://en.wikipedia.org/wiki/Fred_Hampton)

The police do not serve justice. The police serve the ruling classes, whether or not they themselves are aware of it. They make our communities far more dangerous places to live, but there are alternatives to the modern police state. [There is](https://libcom.org/files/AWorldWithoutPolice_BW.pdf) a [better way.](https://www.youtube.com/watch?v=wko0OnpxDX0)

_______

**Further Reading:**

(all links are to free versions of the texts found online - [many curated from this source](http://aworldwithoutpolice.org/study-guide/))

[white nationalists court and infiltrate a significant number of Sheriff's departments nationwide](https://www.politicalresearch.org/2019/06/10/how-a-right-wing-network-mobilized-sheriffs-departments)

[an analysis of post-ferguson policing](https://aintwhereyafrom.wordpress.com/2015/04/26/burn-down-the-prison-race-property-and-the-ferguson-rebellion/)

[why police shouldn't be tolerated at Pride](https://www.teenvogue.com/story/why-police-arent-welcome-at-pride)

[Kropotkin and a quick history of policing](https://www.youtube.com/watch?v=XY7664UVmyo)

Camp, Jordan and Heatherton, Christina, eds. (2016). [Policing The Planet: Why the policing crisis led to Black Lives Matter.](http://aworldwithoutpolice.org/wp-content/uploads/2016/08/jordan-t-camp-policing-the-planet-why-the-policing-crisis-led-to-black-lives-matter.pdf) New York: Verso.

Center for Research on Criminal Justice. (1975). [The Iron fist and the velvet glove: An analysis of the U.S. police.](https://www.indybay.org/uploads/2014/08/04/the_iron_fist_and_the_velvet_gl_-_center_for_research_on_criminal.pdf) San Francisco: Center for Research on Criminal Justice.

Creative Interventions. (2012). [Creative Interventions Toolkit: A Practical Guide to Stop Interpersonal Violence.](https://communityaccountability.wordpress.com/creative-interventions-toolkit/)

Jay, Scott. (2014). [“Who gives the orders? Oakland police, City Hall and Occupy.”](https://libcom.org/library/who-gives-orders-oakland-police-city-hall-occupy) Libcom.org.

Malcolm X Grassroots Movement. (2013). Let Your Motto Be Resistance: A Handbook on Organizing New Afrikan and Oppressed Communities for Self-Defense.

Rose City Copwatch. (2008). [Alternatives to Police.](http://www.rosecitycopwatch.org/alternatives-to-police/index.html)

Williams, Kristian. (2004). [Our Enemies in Blue: Police and power in America.](http://www.infoshop.org/pdfs/Our-Enemies-in-Blue.pdf) New York: Soft Skull Press.

Williams, Kristian. (2011). [“The other side of the COIN: counterinsurgency and community policing.”](http://www.interfacejournal.net/wordpress/wp-content/uploads/2011/05/Interface-3-1-Williams.pdf) Interface 3(1).",papermaker83,12ok1qrs,fih5jfm,Name some,fignca1,_AppleSauce69_,4okb08mq
"No, there are actually lots of reasons. I promise.",papermaker83,12ok1qrs,fig5wko,People hate on cops for literally no reason,fifdnvz,_AppleSauce69_,4okb08mq
Why was he a firefighter when permanently disabled? Maybe got in the wrong line of work?,papermaker83,12ok1qrs,fi4wlc6,"My nephew and a buddy were being teenage morons and started a fire in an abandoned building a week after he turned 18. A wall collapsed on two firefighters, one of whom was permanently disabled. My nephew has spent the last couple years in prison. When he gets out, he'll have a $250,000 debt following him for restitution. His whole life (not to mention the firefighter's) destroyed because of momentary idiocy.

Edit: I agree it was terrible behavior and he deserves punishment. I will add, in his defense, that he had a horrifically dysfunctional upbringing. He was ""homeschooled"" by evangelicals and is functionally illiterate. Was cut off from normal society and all of his information was screened by his psychopathic father, who is a master manipulator and gaslighter. Lots of abuse. A very, very bad scene, and the kid never really had a chance. Some criminals are born, some are made. (Also fixed a word for clarity.)",fi4k5d2,SingzJazz,6fj2r
"I understand what you're saying, control of these substances can be extremely difficult. But the alternative would probably be even worse.",papermaker83,12ok1qrs,fi368vf,"You just said ""that's why certain drugs need to be controlled"". Controlling these substances doesn't do much good. Incidents like this still happen constantly. Meth is a huge epidemic right now. Better than people running around freely doing it, but it still seems out of control.",fi2l28x,DogParksAreForbidden,59ng9jze
"Yeah, has any other claim been made?",papermaker83,12ok1qrs,fi1wsrj,"Last I checked, Meth was illegal.",fi1i0i0,DogParksAreForbidden,59ng9jze
"Do you prefer Sharia Law, or maybe death penalty? Or putting mentally ill people in prison for life?

There is no perfect justice system.",papermaker83,12ok1qrs,fi1d1hq,Gotta also know that the piece of shit was also charged with attempted murder in 2016 and released. The canadian justice system is such a fucking joke.,fi0dm42,everblue91,9fg30
"No, that was drugs. People can do moronic shit when high, even of they are kind when sober, and that's why certain drugs need to be controlled.",papermaker83,12ok1qrs,fi1clwc,"That bastard has no spine, that's why they did this to a poor defenseless elderly lady.",fi0ahs3,DogParksAreForbidden,59ng9jze
Are you offended?,papermaker83,12ok1qrs,fhv3vct,This is probably offensive to people with mental illnesses,fhv2f1a,Fartfetish_gentleman,54bk7e1u
"People are really dumb sometimes. I'm quite thick, but even I got this without adding dogs outside.",papermaker83,12ok1qrs,fhv0y03,">!Are they barking at the knocking sound they made or are they barking at dogs outside? !<Which is it? I ask cause there's controversy going on ~~above~~ below...

Edit: What was above is now below thanks to karma based switching in order of presentation of comments.",fhum600,luckybarrel,446lbjle
What was the comment?,papermaker83,12ok1qrs,fhs063g,"I swear, on another day this exact comment would get downvoted to shit. I don’t understand this place",fhrq7t1,JohnZoidbergMustDie,g8j5m5h
"That's a lot of big words for a 5yo, but thank you, I finally understand!",papermaker83,12ok1qrs,fhmzwk7,"Everton supporters wield Liverpool's foreign popularity like a weapon, with the implication that having so many non-local fans somehow dilutes or compromises the authenticity of the club, and if you want to go further, compromises beauty of the game itself.

Non-local fans = inauthentic glory hunters, plastics, ignorant lightweights who ruin the sport, and drive up ticket prices at the expense of the people who live there.

Local fans of a less successful club = authentic, long-suffering, righteous and in the true spirit of the game.",fhmz8l3,LALLANAAAAAA,9av65f0
"Is he by any chance your ""bro""?",papermaker83,12ok1qrs,fhhif07,Bro are you fucking stupid bro? How you ever seen a gun before in your life bro? Like if you are going to say something bro at least be right bro. I know for a fact that the elite spec ops team Rainbox Six uses visible lasers on their guns. So like back the fuck up because you are making yourself look like a fool.,fhhddj5,thewookie34,fmyub
"Ok, so I guess it's ok breaking the law then. But only by 10km/h. Someone on reddit said so.

Sorry for sounding like an ass, but that mentality is annoying. Just drive the correct fucking speed, and leave home 5 minutes earlier. Better for safety, environment and economy. Also, IT'S THE LAW!",papermaker83,12ok1qrs,fhhi0ey,Speeding about ten km over is the norm where I live. Many roads are set arbitrarily low.,fhh91c3,bobrossforPM,1gs7ijkh
"I agree with you, the margins of error decrease with high speed.

But still, modern vehicles can protect the people inside quite well at reasonable speed, so that the car will be written off but passengers survive without long term health issues. The risk increases dramatically with higher speed.",papermaker83,12ok1qrs,fhh2aae,"Speeding increases stopping distance dramatically, makes the car harder to control and, yes, increases the fatality of a crash. The latter is not the main issue though, it's better to decrease the likely hood of a crash than the severity of a crash.",fhh1xm2,FerDefer,371nddt0
Ok. Do you care to elaborate?,papermaker83,12ok1qrs,fhh1lse,"Speeding is more dangerous, but not for those reasons.",fhh1jny,FerDefer,371nddt0
Something even worse is regular TV when they promote upcoming shows during the current broadcast. Do that shit when there's a break for commercial.,papermaker83,12ok1qrs,fhh19zx,"Now they just need to stop that shit where they minimize the credits of a movie to advertise something else.  I hate hate hate hate that.  

Dammit I just want to soak in what I watched and appreciate all the work that went into this thing.  I'm amazed film & tv trade unions haven't sued over shit like this.",fgrb8o7,KanyeWipeMyButtForMe,4qyan
Michael Keaton,papermaker83,12ok1qrs,fhh130y,I was gonna say Michael McKean,fgy8dct,Xeptix,48wv5
How about driving the correct speed?,papermaker83,12ok1qrs,fhgxw3f,"If everyone followed this simple courtesy, we could end traffic tickets as we know them and drive a little safer! 😬",fhgrce1,MGA_MKII,331ihruy
"No. Speeding is much more dangerous because high velocity is more dangerous. The energy involved increases drastically with the speed. Simple as that. The risk of something going bad increases when people drive too slow, but the consequences are not nearly as bad as those caused by high speed.",papermaker83,12ok1qrs,fhgxv2w,"Speeding is just as dangerous as driving too slow.

You drive with the flow of traffic. That is the long and short of it. You go with the flow of traffic. If everyone is going 80 and you're going 55, you're the safety issue.",fhgp4kl,narf007,6snq7
"Yes, and it allows drunk drivers to get away. Swedish police has asked people to stop varning each other simply because they know that drunk drivers tend to get off the road when warned.

Also, how about NOT speeding?",papermaker83,12ok1qrs,fhgxjjc,"Did you know police see this as a positive phenomenon for community safety? Any time a driver is flashed, they slow down. No matter the other flasher's intent, the impact is the same and the result is slower and safer driving. Flash on!",fhgmfdo,bakertpaul,10qvhuxz
"Have you redefined the meaning of ""troll""?

Im only repeating what leaving neverland made clear, but MJ fanboys can't see the truth. Everyone else realize that he loved molesting young boys (and old boys...)",papermaker83,12ok1qrs,fhdp7dw,I already win by not being a troll,fhdon34,DrunkestMaster,2kowvwha
"-1/10

You lost",papermaker83,12ok1qrs,fhdo2rp,0/10,fhdnknt,DrunkestMaster,2kowvwha
"We'll, I don't know about you, but personally I think it's wrong for grown men to fuck 7yo boys in the ass and forcing them to swallow your jizz. But maybe that's just me.",papermaker83,12ok1qrs,fhdnjpi,"How is this fucking thing where he was never convicted of anything STILL going? He spent his later life defending himself and now the guy cant even rest in peace because media scum with nothing to say, desperate for cheap clicks post this inflammatory garbage. for something he was repeatedly not convicted of.",fhbgnxz,DrunkestMaster,2kowvwha
Thanks for not yelling at me for being a dick.,papermaker83,12ok1qrs,fhbrid3,"Not so much, I also drove a VW Golf. The truck wasn’t for my ego, it was a toy.",fhap3n7,joemerchant26,14vof0
"Lifted GMC you say?

My condolences for the micro meat shaft.",papermaker83,12ok1qrs,fhajy0l,"Took my lifted GMC to Europe, can confirm. Also limits parking garages. On the plus side in Germany you can park on the side of the road if you can not extend into the driving lane, and my town was very hilly. Which meant I could park where others could not. It got so much attention it was hard to drive it around, people taking pictures and what not. I sold it to a German in my 4x4 club for 3x what I paid for it.",fhaim3h,joemerchant26,14vof0
You THINK he's in the 6th grade?,papermaker83,12ok1qrs,ffza2x8,My kid is in 6th grade I think. He lies about stuff all the time. Sometimes the stuff doesn’t really matter. It’s ridiculous. I think we should change it to redickyoulus so it’s easier to spell maybe 6th graders would like that.,ffwsqqf,anatomyofyouth,13zpyj
And that's probably a good decision in many cases.,papermaker83,12ok1qrs,ffekkut,"Many wanted me to be a 503(C), which I totally understand. I sit on a board for an after school program, so I get the requirements. (Nonprofit is not my day job), lol. Also this was unrelated to them.

Just getting at, companies and corporations don’t like donating to”people”, or fundraisers. They like tax identified nonprofits with proven track records",ffedccn,toolatetobeoriginal,qy67b33
Hej IS actually correct and you have fallen victim to a complete myth. Tsk tsk tsk...,papermaker83,12ok1qrs,ffddtnv,"It's okay, let's let him think he's right. He deserves that feeling at least once.",ffbun7m,Jaeburwahkei,17sutpfk
Source?,papermaker83,12ok1qrs,ffcmt6g,In some places you’ll get pulled over for doing the speed limit when everyone else is doing 15 over. Slower cars are a huge hazard.,ffc6rt4,Ridgetop18,vc55p
"There's a pill for that.

#pro-choice",papermaker83,12ok1qrs,ff8ozvm,You missed your period.,ff8liag,arryripper,hgynd
"I broke the wipers on My SAAB many years ago doing this. Thought I was being clever not clearing the winsshield manually, but that was an expensive mistake.",papermaker83,12ok1qrs,fewwcmk,And also how about trying the actual wipers?? If it is roof snow it wouldn't be stuck enough for them to be ineffective...,fevzzdw,paperthistle,1tg0rkh1
"I am white. I have meat.

Where do we go from here?",papermaker83,12ok1qrs,feukw6e,Am 5’1” Indian woman in California. Will be on the lookout for hungry Latvian women and will run and hide in a mouse hole,fet9n5b,whitemeatlover,10503l
What did he write?,papermaker83,12ok1qrs,fel9pjv,"dude, dont people to just kill themself, even as a joke. thats too far, and suicide isnt a light topic that you can just joke about.",fel3b7v,MagicalSun,2tgj0rvd
She bought him the garage according to OP.,papermaker83,12ok1qrs,fecxmqt,The real champion here is your wife for buying the life size Harrison Ford cutout.,feckp61,sysadminbj,4gpdz
Sounds excessive. How much do you sweat?,papermaker83,12ok1qrs,fe0rj6b,15 minutes every day 👌,fe0ioqw,Beeeyeee,j7szl
"You sound ""edgy"". Do you feel cool?",papermaker83,12ok1qrs,fcubqi8,"They just feel cool for not being part of a religion.
Just edgy teens ignore em, they feed on attention because they didnt get it from their parents.",fcu67gz,Apollyon-1333,myjei9p
"How long before considered ""not new"" on reddit? Been coming here for many years and never seen this joke.",papermaker83,12ok1qrs,fcubcru,"You must be new here. Good joke but has been reposted several times.

EDIT: getting downvoted for telling things as they are. Even if the poster is the OP then this is a repost of the first post. The fact remains that this joke has been posted again and I was simply pointing this out as a reply.

EDIT 2: Exact same joke on the same subreddit by u/HellsJuggernaut 1 year ago. Just one example.",fcu3xhp,kildemoles,83vqg
Disappointed dick,papermaker83,12ok1qrs,fckw05g,Disappointed click?,fck7pd0,Hawkonthehill,5uhqe
"Please don't swallow the smoke, that's not how to do it.",papermaker83,12ok1qrs,fci8p1e,The smoke will suffocate the bacteria in his stomach,fchbhk8,Inch-High-PI,2b0uwuzv
"It's called ""every metal song there is"".",papermaker83,12ok1qrs,fc51u6r,What is the name of the song?,fc3baca,WingoTwingo,55pfikxn
But...this is assholedesign...,papermaker83,12ok1qrs,fc322cu,"I’m surprised there isn’t some guy on this thread going “Not asshol desin it was addvertiseded as 1000+ stickrs and dats what u gottt!!!1!”

Because this is legitimately crappy design. Who wants 1000+ colored squares?? And with little kids they’ll end up sticking these everywhere.",fc2j1az,RicochetOrange,xql8pr6
"You clearly managed to copy someone elses post, so figure it out...",papermaker83,12ok1qrs,fbw2irv,How do I delete someone else’s posts,fbupjqf,coolbomb-cb,4k0un60h
"Sorry, but you REALLY shouldn't store that in your car. Will insurance cover?",papermaker83,12ok1qrs,fbtm9q8,Someone just broke in my car and stole about $6K in tools.   Merry xmas fuckers.,fbt5oim,Playisomemusik,r3zl0
"What I object to, and what is supported by the wiki link is that there are no facts supporting that cats reaching terminal velicity would stand a better chance of survival that cats falling from the 5th floor; people simply don't bring their dead cats to the vet.",papermaker83,12ok1qrs,fbobknx," [https://en.wikipedia.org/wiki/Cat\_righting\_reflex](https://en.wikipedia.org/wiki/Cat_righting_reflex) 

it's pretty well documented. There are loads of sources online regarding this.   
There are some old studies regarding survival statistics, though i don't recall the legitimacy of them. I've seen various sources over the years of cats having survived falls at terminal verlocity. They definitely are built to do so.   
Maybe try actually looking shit up for yourself before you decide something to be 'simply not true' and make yourself sound like a twat and a moron.",fbjob41,alt170alt95alt170,ltvja
"Really? ""SO MUCH MONEY""?

How much money for you spend om soap?",papermaker83,12ok1qrs,fbjotoc,"I save so much money by buying name brand dish soap! Dawn is twice the price as generic, but also twice as effective, so it ends up being a much better deal!",fbhfj95,OaklandFace_LABooty,fha1xz3
So corded drill is out of the question?,papermaker83,12ok1qrs,fbjoi8u,"cordless drill and masonry bit will cure the second problem.

Edit: Don't forget masking tape. Put it on the the top surface you want to keep from cracking. And drill through it. the bottom can chip off a bit without it affecting anything people will see on a daily basis.",fbi8bbc,frugalerthingsinlife,xyjmt
"Credible source or complete BS. Please don't spread stuff like this, it's simply not true and i think you know it.",papermaker83,12ok1qrs,fbjlp0u,"There's also a particular height which is deadly to cats, about 3 stories IIRC. If it's less than that, they just land without a problem. If it's higher, the cat will instinctively relax, spread out and slow its fall like a fluffy parachute. But there's that sweet spot where the cat spreads out its legs and then pancakes at maximum velocity.",fbjfztj,KKlear,dcug0
Or lesbian women.,papermaker83,12ok1qrs,fbaupcf,Is that supposed to be a product for straight men?,fb9avgi,smoke_torture,y39sq
We never rinse and Always get clean dishes. You must be doing something wrong...,papermaker83,12ok1qrs,fauwquu,"Yeah it does... lol they don’t even know how to use a dishwasher in the first place...

You don’t put dirty dishes in there unless you wanna bake stains on; dishwashers are for sanitizing dishes, not for cleaning them in the first place. 

It doesn’t really matter which brand of dish detergent you use if you rinse your dishes after eating, instead of putting dirty, stained dishes in the wash like a savage",fatvz3r,Madvillain_Faerlina,4j0bhf88
Explain please. Do people sell accounts?,papermaker83,12ok1qrs,fasfppd,It seems like a karma mill for account selling.,fapaqpq,AMasonJar,jvyle
You fooling us now right?,papermaker83,12ok1qrs,faozfo2,"they do, it’s a tradition when someone graduates from university. afterwards it’s cleaned up. lol",faoyqfs,MageVicky,3ugk01tc
"I'm not sure about CO2 specifically, but I've heard that this is true for other pollutants. A quick google search would settle this, but it is night time in Sweden now. Bye.",papermaker83,12ok1qrs,faoyea3,"Not so fun fact: Cruise ships create as much CO2 as 1 million automobiles, and dump untreated sewage into the oceans.",faorp1r,CrunchyDreads,15j080
"You agree with SOME of what I said?

&#x200B;

The war is on. Beware.",papermaker83,12ok1qrs,faoy47v,"Relax. I'm not attacking you at all. 

Hey, I even agree with some of what you said. Just something for me to pass the time for a while.",faoqm34,unRealityEngineer,52v1j2fw
"Now you made me feel bad. Sorry for being insensitive about leaving your house, but I still don't get what people ""need"" karma for.

I think that the focus on karma takes too much space here on reddit, with users filling the community with garbage. So many memes and comments exist simply for farming karma and it gets frustrating scrolling through hundreds of ""nice"" or ""angry upvote"".",papermaker83,12ok1qrs,faopdea,"Never crossed your mind I might not be able to do that, did it? 

I'm sharing Karma with people that need it for their own Reddit experience. Staying positive helps me and I'm helping them. Who's getting hurt?",faofw99,unRealityEngineer,52v1j2fw
So it's going to sink? Cause that would be the same route...,papermaker83,12ok1qrs,faojl71,I think they're building a replica of the titanic and it's supposed to set sail in 2020 with the same route as the first titanic. Correct me if I'm wrong,faohshc,ooooofoooof,45l07yaq
"Yeah, and BEGGING for free karma. What's the fucking point? You REALLY need to leave your house for a while and do something else than Reddit.",papermaker83,12ok1qrs,faoexul,Heh heh. Just lots of comments and positive energy.,fanqlg4,unRealityEngineer,52v1j2fw
"That is fucking embarrasing. I looked through the sub and what a bunch of complete losers there are, posting absolute garbage and begging for ""sweet karma"".",papermaker83,12ok1qrs,faoep5b,"r/freekarma4u

They have like 500 comments a day in that sub.",fanrr1l,xtthew,8edig
"Reliable source for that statement?

Didn't think so...",papermaker83,12ok1qrs,faodlmm,"At least it didn't hurt her, then

On a side note, if she in fact did survive some alcohol might've saved her life. Your body becomes relaxed in a sense and you tend not to take physical hits as hard",fakgzuc,O_X_E_Y,2ibbii5q
I must have missed that Sweden legalized heroin. Source please?,papermaker83,12ok1qrs,fajjh8f,"There are certain things that brutal punishment are worthwhile doing. Child rape, political corruption, etc. 

Drug addiction is far from it. Sweden legalized heroin. 

The trick is to really understand which parties only respond to brutality. Politicians and child rapists know it all too well. Drug addicts are just looking for a fix.",fajgpui,2young2young,171r11
