child_body,child_screen_name,child_user_id,child_tweet_id,parent_body,parent_tweet_id,parent_screen_name,parent_user_id
So 50% of severe cases and hospitalizations are consistently under 40?,PineapplePizzaPalace,2p0dxyd4,fl7v3hi,Yes we are..,fl7v1il,Rawbs21,142t3x
And this last twice as long in people it seems.,PineapplePizzaPalace,2p0dxyd4,fl7v24z,"I disagree, somewhat. If this ends up closer to influenza than SARS, you still have the immense problem of it sweeping through the population exponentially faster than influenza. 500k people are hospitalized for the flu in the US every year, but it's over 8ish months. This disease seems capable of the same volume in a fraction of that time.",fl7h9t9,SpookyKid94,ja15t
Perhaps NYC is early in the stage of the virus.,PineapplePizzaPalace,2p0dxyd4,fl7usb8,New York has a significant number of cases with very low mortality as well. One might speculate that damn near everyone in Italy is infected for things to look the way they do now.,fl7dlnq,sanslumiere,3kz80
"Half? Could that be because the young people have the virus way more than the old in NYC currently? If 300,000 young people have it and 100,000 old people, wouldn’t it seem like the young are in the ICU more than they should be?

We aren’t seeing that regularly anywhere else in the world are we?",PineapplePizzaPalace,2p0dxyd4,fl7qo3o,Half the icu in New York is under 40.  Not sure where this idea young people are immune came from.,fl7pk43,Drmanka,143lvqe
"No. Not at all.

I just live somewhere that really uses landscapers year round. Essential businesses don’t have the time or capabilities to do these things on their own during this. Period.",PineapplePizzaPalace,2p0dxyd4,fl7nwbj,Do you by chance work in landscaping?,fl7nvq9,MandatoryMoose,5wzkdo2l
"Yeah, let Walmart hand shovel their fucking parking lots. 😂

Your thinking really short sighted. If customers and people are getting stuck and requiring towing service and shit, that’s even more of a risk.",PineapplePizzaPalace,2p0dxyd4,fl7nrj0,"I grew up on the Great Lakes. I shoveled my own driveway and sidewalk. I dug out stuck cars and slid off highways because of ice. I had snowdrifts bury windows to the point of total blackout. You don't know shit about me. 

Landscapers as a business are not essential.",fl7nq0z,weed_fart,w51h5ra
I don’t know. Doing landscaping prevents erosion and other shit in construction. They fix drainage issues that can flood homes and stuff. It’s a little more essential than some people think.,PineapplePizzaPalace,2p0dxyd4,fl7nne8,Then allow them to do just those things but they shouldn't be doing renovation work or anything else along those lines.,fl7nj1x,MandatoryMoose,5wzkdo2l
Did you get a test?,PineapplePizzaPalace,2p0dxyd4,fl7nk1m,"That’s kind of what it felt like for me. First symptom was just a mild cough and slight scratchy throat on 3/9, got bad chest tightness and shortness of breath and went to the ER on 3/14, and then around 3/17 it started to feel more like pneumonia. That said, I didn’t really begin to feel better until yesterday and today, but I’m also feeling worse again. I feel like I’m not as bad as yesterday’s worst, but it does freak me out. Especially because I had a fever today, first time in a few days, and I’ve had some stomach problems. On the other hand, I may just be on the mend because I feel like other than for short periods last night and this morning I didn’t actually feel completely better. Plus, it’s been a dry cough until like a day or two ago, which leaves me to believe I’m trying to get rid of a lot of fluid.",fl7nhhy,slusho55,ljuww
Indeed. Turf management is probably a good career right now. Golf courses and sport fields. Even if they aren’t being used they have to be maintained.,PineapplePizzaPalace,2p0dxyd4,fl7nhzz,It's also recession proof.,fl7nebx,Eyes000,47i3zdl4
You clearly don’t live somewhere with feet of snow or somewhere with rare snow that causes chaos when it happens.,PineapplePizzaPalace,2p0dxyd4,fl7n95g,See my first response. Deal with it. It's snow.,fl7n6wt,weed_fart,w51h5ra
"How?

Tell that to the hospitals, grocery stores, pharmacies, etc... 

They utilize third party snow removal and landscaping. You think a Publix has a truck with a snow blade and industrial mowers and weed eaters and leaf blowers?

Also, how would they obtain those if sellers of those items are deemed non-essential?",PineapplePizzaPalace,2p0dxyd4,fl7n1ut,Do it yourself!,fl7n14q,weed_fart,w51h5ra
Essential businesses need their parking lots scraped and sidewalks scraped and salted to allow customers to safely get to them.,PineapplePizzaPalace,2p0dxyd4,fl7mt7g,Remove your own snow. Let it melt. Have a neighbor do it for you. Trudge through it. Rent a tractor. Deal with it. That's what non-essential means. Landscapers as a business are *not* essential. There are other ways.,fl7mq70,weed_fart,w51h5ra
"As someone who lives in a camping/hiking/fishing destination, let me tell you, so many people also have this idea that it is probably a health risk.

I’d suggest staying home and riding this out. Even stopping for gas, groceries, supplies along the way is a risk and a higher one in a state like Florida that has a lot of cases right now.",PineapplePizzaPalace,2p0dxyd4,fl7mb8p,Good point. I guess that’s why there’s such a big surplus. I was thinking about driving from Louisiana to Florida to go kayaking and camping and maybe do a little scuba diving and spearfishing from the kayak. Either that or maybe head to some other part of the country to do normal camping. This seems like it’s a pretty good time to get out of town and away from other people… Can’t think of a better way to do that then a cross country camping trip.,fl7m8an,diverareyouok,rnetbkn
Criminal to be honest.,PineapplePizzaPalace,2p0dxyd4,fl7m5lf,Idiot was in the gym knowing he was waiting on results from the test?,fl7lssj,babyxdeja,12h4t420
"How? They also do snow removal in winter. It’s still snowing out west. 

Essential businesses need those services.

Also, usually the crews are small and are outside, they don’t interact with the public. Can transport themselves to job sites separate and take payment over phone/email (which our landscapers do anyways already).",PineapplePizzaPalace,2p0dxyd4,fl7ljgr,Not essential,fl7lgwd,AccomplishedGarage0,5zs4s8pv
They mow your lawn also.,PineapplePizzaPalace,2p0dxyd4,fl7le0d,No one needs a new lawn or a patio right now. Not essential.,fl7l79n,MandatoryMoose,5wzkdo2l
Did you go to the hospital?,PineapplePizzaPalace,2p0dxyd4,fl7kdfm,"I almost died. I freaked out and made a will. Thank god god for my nebulizer. 

Im not saying to downplay it, its scary but the cough in the lungs wasnt the most painful thing ive ever.",fl7kccw,mve1,shogw
"I mean, without a test you can’t be positive. You could’ve had a secondary chest infection or bacterial pneumonia or unrelated viral pneumonia. 

Also, if you did have it, there are clearly different levels of severity.",PineapplePizzaPalace,2p0dxyd4,fl7k3m2,"Had every symptom chrongoical. Had underlying health issues with asthma if it wasnt for my nebulizer i would probably died. 

The pain from the cough in your lungs is noticable but to say it feels like youre being stabbed is a lil over the top.",fl7jzyc,mve1,shogw
You 100% had it or you just think you did?,PineapplePizzaPalace,2p0dxyd4,fl7jeck,I had it. Bit of an exaggeration.,fl7inny,mve1,shogw
"I don’t think so. I’m terrified for myself even. Im 32, so still low risk, but if 20-30% are hospitalized, even young people, that’s not something I want.",PineapplePizzaPalace,2p0dxyd4,fl7j5a6,"The only reason Reddit takes coronavirus so seriously is because people here believe they won't be personally affected, so it's easy for them to preach when they don't have to come to terms with their own mortality. I bet if the demographics were reversed and it was young people who were most at risk, like during Spanish flu, we'd be seeing much higher levels of denial here.",fl7hpav,lynx_and_nutmeg,13e124
"Perhaps it was percentage of tested that dropped. I swear I saw something in here yesterday saying that. Maybe someone can help, I can’t find it.",PineapplePizzaPalace,2p0dxyd4,fl7cgeq,"March 19th: 5322 new cases  
March 20th: 5986 new cases  
March 21st: 6557 new cases  


It did grow...",fl7cd3x,Amatak,ey0jh
"I want to say like a fraction of 1 case or something. It was a small amount, but it at least didn’t grow!",PineapplePizzaPalace,2p0dxyd4,fl7bo2z,The numbers dropped yesterday??,fl7bmb6,Amatak,ey0jh
I got the flu two years ago and it SUCKED. Got my first flu shot this season because of it.,PineapplePizzaPalace,2p0dxyd4,fl7ax1w,"Wouldn't surprise me. Myself, healthy and in my prime, I never saw the need for a flu shot. Might never get one at this rate.",fl6ullx,HaluxRigidus,1rpchvka
"Extremely high number of cases going undetected. When you look at South Korea, who is testing extensively, their CFR is way, way lower.",PineapplePizzaPalace,2p0dxyd4,fl7aoup,Something weird is going on with Italy's numbers to make their death rate seem so much higher than any other country that's done significant testing.,fl75ztn,RahvinDragand,4wpci
I sure hope so. All eyes on the USA and other counties lagging behind them if so.,PineapplePizzaPalace,2p0dxyd4,fl7adnd,"it's been like ~2 weeks after the first lock down

Maybe the are (finally) having some results of it",fl7aa7s,Superfan234,wsjtb
"The confirmed cases dropped ever so slightly yesterday, so I expect that number to continue to go down and deaths may follow consistently shortly after.

Edit:  Of course to keep the numbers decreasing and staying down, lockdowns must continue and cases must be bottlenecked to ease up on hospitals.",PineapplePizzaPalace,2p0dxyd4,fl79yp2,Sad but hopefully yesterday was the peak,fl79lrd,Thenateo,cyeid
We’re early on for a majority of our cases. I’d expect in eight days or so the deaths to start going up up up.,PineapplePizzaPalace,2p0dxyd4,fl78bh5,Why is the death rate so low?,fl76p99,7Alexis77,1ceuubuh
"To be expected, we have a lot more people in a much bigger country. Also about 50% of our cases are in NYC alone. 

We are just now testing so our cases are going to go up QUICK.",PineapplePizzaPalace,2p0dxyd4,fl67h5n,"[Well this sucks](https://i.imgur.com/rBjeUJ3.png)

(The US rate is tracking higher)",fl67d31,Just_da_fax,wjrth
Perhaps he meant intubated.,PineapplePizzaPalace,2p0dxyd4,fl64h0k,"I think you mean ventilator, incubators are for hatching eggs.",fl64287,Nefertirri,2gk435y9
It’s got to be just a lack of testing enough people and mild cases. No other country is experiencing this.,PineapplePizzaPalace,2p0dxyd4,fl63cnp,Italy's death percentage continues to be so much higher than any other country. Its absolutely baffling the difference.,fl631v9,AleroRatking,lfvre
" Certainly a much higher rate than “the flu” though.

However, Italy doesn’t have confirmation of anywhere near all cases so the actual percentage is lower. 

People in this guys age group are hospitalized at a higher rate though.",PineapplePizzaPalace,2p0dxyd4,fl5v7oj,"As horrable as Italy is doing now, the fact that it is only 33 percent in Italy is a WAY lower number thenn I was expecting.",fl5uyqf,Jazzlike-Door,5x0c9e4r
"Probably not, but certainly not out of the realm of possibility. 33% of confirmed have been hospitalized at least in Italy.",PineapplePizzaPalace,2p0dxyd4,fl5uvkm,I sure hope that is not true.,fl5ut7k,Jazzlike-Door,5x0c9e4r
"Not a downer, just responding to his confident arrogance that it’s “just a flu.” Per his post.",PineapplePizzaPalace,2p0dxyd4,fl5ukbu,"And most cases aren’t severe, so you’re just being a downer.",fl5uiki,SlinkToTheDink,xfb1d
Or it hasn’t progressed. People who get severe cases often feel better before they feel worse with this. He clearly hasn’t gotten the pneumonia but a week total isn’t the course this virus always takes.,PineapplePizzaPalace,2p0dxyd4,fl5u4xf,"It sounds like Bryan got a mild case, and is fighting it off, and will be okay.  That is great!",fl5txff,Jazzlike-Door,5x0c9e4r
But certainly we would already have our hospitals crippled like some in Italy with severe cases if we had that many cases.,PineapplePizzaPalace,2p0dxyd4,fl5qbs8,You have to take into consideration the lag and the non reported cases.  They're not testing and/or admitting everyone,fl5q88q,Flipco,1q71bjxu
I definitely was unintentionally trying and maybe could’ve had it. Had a mild upper respiratory illness that lasted about two to three weeks in February. Not the flu. Working in a ski town with tourists and riding at the mountains regularly.,PineapplePizzaPalace,2p0dxyd4,fl5pfod,"One strategy could also have been to get infected at the start before the system is overwhelmed. 

...

I was not brave enough either.",fl5nvis,syoxsk,vo1j7
"Exactly, if I can hold off till then. Fingers crossed. At the very least I’d Ike to hold off till the damn hospitals aren’t stretched to the limit and treatment is heavily agreed upon as the best.",PineapplePizzaPalace,2p0dxyd4,fl5llw8,The vaccine only helps before.,fl5lj53,syoxsk,vo1j7
If we had a million would our hospital not already be flooded?,PineapplePizzaPalace,2p0dxyd4,fl5l2ig,There's probably already a million,fl5jof2,Flipco,1q71bjxu
What about Italy?,PineapplePizzaPalace,2p0dxyd4,fl5kzp2,"Of course, but right now we have no reason to believe this exceeds 1.2% mortality and it's probably more like 0.6% given the data we've observed from cruise ships and South Korea.",fl5kql9,NotLow420,oys6y
I don’t have a definitive answer. Chinese data actually showed smokers didn’t make up anymore than like a quarter of deaths or severe cases or something. Didn’t seem to be as much of a risk as you’d think.,PineapplePizzaPalace,2p0dxyd4,fl5hvpu,"Sorry for the stupid comment, but I wonder if vaping habits contribute in any way...",fl5hsc0,Starkville,nygyk
Even confirmed total is irrelevant. Our deaths and hospitalizations in relation to our populations will be more telling. Our country is so big we’re probably going to have to separate them into cities or countries or states to get more accurate comparisons.,PineapplePizzaPalace,2p0dxyd4,fl5gsjf,I guess total population is irrelevant?,fl5gmdr,flagdownrr,1jq8i42c
"It’s a warm, comfortable blanket in these dark times. Familiar, happy, and a great escape. My favorite show for sure. Watched it in its entirety probably 40 times.",PineapplePizzaPalace,2p0dxyd4,fl5ftea,Thank you for reminding me that this is the show I need right now,fl5e6dy,Rooish,5t62ewi
He was a “flu kills more” guy.,PineapplePizzaPalace,2p0dxyd4,fl5fmr8,"Bullshit. Dr Drew (not my favorite but let’s be fair) repeatedly says listen to whatever Dr. Fauci says. I’ve listened to him recently and I don’t hear denial, I hear a call for rationality and calm. Given the amount of anxiety going around this is not the worst thing in the world. Lumping Falwell in with him is flat out lazy journalism.",fl5eyrj,salbass175,114dep
"They’re already hanging on by a thread due to their business model. A lot of games are digital only. Xbox Game Pass takes business and other game streaming. Digital copies don’t break like discs and you don’t have to leave your house. They pester customers with up selling. Amazon offers or offered a decent discount on preorders which Gamestop doesn’t. They’re basically the Blockbuster of 2020. They’re trying to sell T-shirt’s and toys/models to fill the void after they bought our ThinkGeek.

This may put the nail in the coffin for the company. They already have been cutting bonuses and all kinds of shit over the past few years.",PineapplePizzaPalace,2p0dxyd4,fl5fhmo,why not?,fl5f3sz,birthmarkcel,1d7ogy4s
"That makes sense. Sales are way less crucial than mechanics. Service departments at dealerships definitely should be open as well due to warranties and preferred insurance mechanics and shit. 

I don’t see the problem with selling cars without test drives and doing virtual paperwork. Salesman can’t hard sell as easy, but at least you’re selling!",PineapplePizzaPalace,2p0dxyd4,fl5cjyx,"According to governor's order, auto mechanic shops and dealership service departments are on the ""stay open"" list. Sales are not.",fl5alqf,Whatcanimakewiththis,4zhkdvuy
"This is common from Italy as well. That said, healthy people that get severe cases and recover (those without underlying health conditions sometimes) are at risk to suffer a lifetime of complications from this virus as made evident by SARS studies. Heart and lung conditions resulting in early death.",PineapplePizzaPalace,2p0dxyd4,fl5923v,"""...patients who died were aged between 41 and 94 and all had underlying health conditions.""

Edit: People seem to think I'm pushing some sort of agenda or theory. I'm just quoting the article as I found this peice of factual information interesting.",fl58px9,Sk33tshot,3rcgd
"Is that really the mortality rate they think COVID-19 is? I’ve read 3-4% and then you look at Italy who’s around 9-10% right now, obviously lower considering they aren’t confirming every single case.",PineapplePizzaPalace,2p0dxyd4,fl58sn6,"I think the spanish flu comparisons are a bit much. Best estimates for Covid-19 mortality rate are somewhere between 0.6% and 1.2% on the high end, when you factor in all the asymptomatic or mildly symptomatic cases out there.

The Spanish flu was between 3-4% mortality rate, and conversely to Corona, it mostly attacked young people.

Plus, the obvious differences in medical science and how quickly we can make discoveries today versus 1918.

Covid-19 will kill a lot of people, but it won't come close to Spanish Flu.",fl57rcf,NotLow420,oys6y
The scary thing is that this isn’t anywhere near as bad as it’s going to get.,PineapplePizzaPalace,2p0dxyd4,fl56wek,"I got downvoted into obscurity yesterday for saying this was happening in NYC.  My friends on the frontline- doctors/nurses/etc - were telling me a day ago that they were rationing ventilators.  

I just want to say to every doubter on here, it IS that bad in NYC.  Stop playing it off as a media invention or as some sort of hype.  It’s real and many more are going to die.",fl55xp4,AnotherTooth,50dolbu5
"But usually not in the same season. This virus is different. SARS, which is close to it, has anywhere from a six month to twelve year immunity to it. Average was about a year though.",PineapplePizzaPalace,2p0dxyd4,fl56rbo,I mean yes. You can get the flu twice,fl56k0i,fr3dd_y,2rfnqyxc
"First confirmed cases will slow and then deaths. They actually had a very, very small difference in confirmed cases today with today’s being lower than yesterday’s.",PineapplePizzaPalace,2p0dxyd4,fl56lz7,"The curve flattening should start showing soon, yeah?",fl56a1p,ummizazi,wyziw
I imagine supplements would be the next best thing.,PineapplePizzaPalace,2p0dxyd4,fl55uev,"What if you live in an area that doesn’t get a lot of sunlight, or you’re locked down due to the pandemic?",fl55rz8,NewMel1978,5xfy7wto
Any time frame released on anti-body tests?,PineapplePizzaPalace,2p0dxyd4,fl5573d,"When a serology blood test that detects antibodies is available, you could use the serology test to confirm the rate of false positives with our current rt-PCR test.",fl555g5,freshlysqueezed9,oegrzs2
Open in browser and put a period after “.com” and it will bypass the paywall.,PineapplePizzaPalace,2p0dxyd4,fl553s6,Paywall,fl552bj,the_keef_theef,3ua4j3ug
I still say spending $300k to build a bunker is irrational. You can just as easily isolate in your home with your canned goods and medical supplies.,PineapplePizzaPalace,2p0dxyd4,fl549xa,Doomsday peppers in their bunkers rubbing their hands together like birdman rn,fl544tt,DrunkCanadianGuy,13fpvs
"Yup. Different rates of testing, different size of country, populations and density, habits, age, health, etc...

We are certainly behind Italy, but it doesn’t matter how far. We need strict isolating.",PineapplePizzaPalace,2p0dxyd4,fl53jqs,"A week ago we were 8 days behind Italy. On March 1st we were 14 days behind Italy...

These comparisons are meaningless.",fl53f68,hellrazzer24,8a248
"https://www.scmp.com/news/world/africa/article/3076240/coronavirus-nigeria-reports-chloroquine-poisonings-after-donald

Nigeria reporting chloroquine poisonings.",PineapplePizzaPalace,2p0dxyd4,fl51ht4,Not a trump supporter but he’s right on this,fl4vzr9,Kaykine,1475cegj
What do you disagree with in their advice in this article?,PineapplePizzaPalace,2p0dxyd4,fl50t01,Many people who question WHO have degrees and are capable of problem solving while processing information from various sources.,fl4z5s6,anonymous23throwaway,5lest0p7
"And they weren’t sure if it was some type of bounce back from the 1st infection from the type of drugs they used to treat it. 

If getting it twice was possible, I imagine we would be seeing it heavily in Italy already or in health workers.",PineapplePizzaPalace,2p0dxyd4,fl50fka,"from what i saw,  one or 2",fl4zuam,ilovefacebook,3c522
"Dude, nobody even had this shit on their radar in Feb because we were not testing community spread cases at all.",PineapplePizzaPalace,2p0dxyd4,fl5088y,Thanks lady for helping make this a pandemic. I’m in New York and about 1% of our entire population already has it.,fl4zu57,Nice-Cook,5u9k3pyk
"We definitely should not be widely using unproven drugs immediately and we definitely shouldn’t be taking Trump’s opinion over the qualified’s.

Using it for the most severe cases as a last ditch effort is one thing, but just widely prescribing it right away is 👎.

A lockdown is what we need IMMEDIATELY that should’ve happened a week ago to ease up on our hospitals and buy us time to find a vaccine and treatment.",PineapplePizzaPalace,2p0dxyd4,fl4w3mp,Not a trump supporter but he’s right on this,fl4vzr9,Kaykine,1475cegj
"Definitely will do this. I have also been buying packaged veggies. Like Greenwise organic from Publix. Wash stuff anyways, but at least I know I’m not washing off COVID-19.",PineapplePizzaPalace,2p0dxyd4,fl4uzyh,Wash delicate veggies in a bowl of soap and warm water. Hard ones like apples with soap and a scrub brush.,fl4ux6m,downwardfalling,51ae9zat
"Wouldn’t it be more like 95-97% still, good-ish news.",PineapplePizzaPalace,2p0dxyd4,fl4up6x,Over 99 percent of people will recover.,fl4un08,djentropyhardcore,16fugi
"Yeah I’ve been outside today doing yard work. 65 F here. 

There is of course good news. Is there good news specifically regarding Coronavirus? 😂",PineapplePizzaPalace,2p0dxyd4,fl4ukll,It’s sunny and 35 degrees out where I’m at. Crisp cool breeze. Fresh air never smelled better.,fl4uhgs,destinyplayer1,lz957
"Wow, that’s a number that should be spread around more often. Not sure why it isn’t.",PineapplePizzaPalace,2p0dxyd4,fl4j77j,No they're staying at the hospital to see if their mild but worry some case will worsen or get better.,fl4izy7,coefore,1454sx
"33% have required hospitalization?? 

Is that just a visit or is that over night stay?",PineapplePizzaPalace,2p0dxyd4,fl4ixby, [https://covid19.lbreda.com/?hl=en](https://covid19.lbreda.com/?hl=en)  Here you go.,fl4iq6a,coefore,1454sx
Do you have anything similar but for hospitalization rates?,PineapplePizzaPalace,2p0dxyd4,fl4ikvu,"Look here: [https://i.imgur.com/nSJkCht.jpg](https://i.imgur.com/nSJkCht.jpg) data updated at 17/03/20

Column ""Deceduti"" means deaths. The chart is quite old as the total number of deaths is still 2003 (it's now at  4825). But I thinks it will be not so different.

Edit: clarifications",fl4gka8,Gremo,4dc5f
You’ll see the confirmed cases drop before you see the deaths drop.,PineapplePizzaPalace,2p0dxyd4,fl4igxc,Please let this be the peak for god's sake,fl4gbrm,Beny_y,5aidqb2k
"I boil it with a little butter. Then I sauté shallots (onion), garlic, mushrooms, and whatever other veggie I’ve got in the fridge. Toss those in when it’s done and I’ll eat it with salmon or chicken thighs usually. 

You can put sriracha and rice wine vinegar and other Asian stuff to give it an Asian flavor. 

Just mix it up! I like the tricolor quinoa. Eating it with nothing in it is pretty bleh though.",PineapplePizzaPalace,2p0dxyd4,fl4fefa,Do you have a recipe that you recommend? I bought some a long time ago and it's pretty difficult to eat due to the taste.,fl4av0h,Actual__Wizard,c1svdpi
Hence the eye roll.,PineapplePizzaPalace,2p0dxyd4,fl4ewi3,Dude its the internet... there's nothing brave about it,fl4evju,brettam84,2hxnwqq5
How brave of you. 🙄,PineapplePizzaPalace,2p0dxyd4,fl4epoi,This is why China's data is crap... oh sorry if that's racist to say China.,fl4cgig,brettam84,2hxnwqq5
"100%

Even if it isn’t as severe here, we just have that many more people and it’s all over our country. I’d say New York City alone could see numbers like all of Italy. 

We will likely have some states and cities worse than others, like Italy.",PineapplePizzaPalace,2p0dxyd4,fl4e7md,Is the USA going to surpass Italy's numbers?,fl4cmls,vajabjab,ncan5
Cat pee still smells horrid and cats have a tendency to pee on things that aren’t cat litter in old age.,PineapplePizzaPalace,2p0dxyd4,fl405nw,"That's why you spay and neuter your cat, dummy.",fl401qm,SaltyProposal,1q9whblx
"Most new car lots also carry used. But yes, I would say used car lots would be maybe even more essential due to their cost and target market. 

I can’t imagine having totaled car or irreparable car during this time and not having the ability to get a new one.",PineapplePizzaPalace,2p0dxyd4,fl3yq20,">It’s definitely debatable. If I needed a car to drive to the grocery store or hospital or pharmacy, I definitely would wish they were open.

And then one can argue you need to keep used car lots open because people working low-wage essential jobs cannot afford a new car.

There are more essential (to some) businesses than people think at first. However, they can definitely do skeleton crews.",fl3ylr2,2Tickets2PairOfDice,3nom4ff0
"It wasn’t really to calm, it was just what the data was saying.",PineapplePizzaPalace,2p0dxyd4,fl3yga1,"Honestly I think we fucked up by trying to calm people down with ""it only kills the elderly."" 

It gave this idea that only the elderly struggle with it and I think that's always been a lie.  It's like saying Brest cancer isn't a big deal cause it only really kills those who wait too long, the elderly, or people who have pre-conditions.",fl3y7au,AkakiaDemon,c4o3q
I can’t find any article with that title on Lancet. I found one about glucocorticoids from February.,PineapplePizzaPalace,2p0dxyd4,fl3wwe9,Please see Lancet Journal “Treatment for severe acute respiratory distress syndrome from COVID-19” from March 20 ( yesterday). A bit more reliable than NPR...,fl3wmkm,nonkantianworlds,5p79vhza
"There is no consensus on this. 

Even the whole Ibuprofen theory is not agreed upon. NPR even posted a story about it.",PineapplePizzaPalace,2p0dxyd4,fl3w2ab,Sent home with prednisone? Usage of glucocorticoids is NOT recommended at all! It actually worsens the condition in esp younger patients!!![Lancet](https://www.thelancet.com/journals/lanres/article/PIIS2213-2600(20)30127-2/fulltext),fl3qye0,nonkantianworlds,5p79vhza
"Yeah, doesn’t really sound like what I’d call underlying health conditions. 

He looks a bit heavier, so maybe high blood pressure? Still, not really different from your average US male.",PineapplePizzaPalace,2p0dxyd4,fl31pzs,"“He had a history of asthma and frequent bronchitis as a child, though he outgrew that.He also had undergone surgery for testicular cancer back in 2016.”

Still not the worst of the underlying conditions..very concerning


Edit: I’m not trying to down play anything and understand he was at high risk. However nothing mentioned about asthma on the current high risk list and he was in remission of the cancer.. I personally know a few friends of mine who are in remission from the same cancer and it’s crazy to see this news..",fl31mmk,InternSpaceTraveler,3pujqqu6
"Please show me proof where it says she’s a smoker. 

You can find her Facebook and see her friends sharing her video saying that she was one of the healthiest people they knew. She did a lot of fitness and ate well.

Data is also showing that smokers are actually in the minority of those effected by COVID-19 anyways. A quick look at the data almost makes it seem like smoking prevents the virus from being severe. Someone linked to this study in the comments.",PineapplePizzaPalace,2p0dxyd4,fl308wq,Heavy smoker. She’s far from fucking healthy lmao,fl2v4lz,WhenGinMaySteer,88spdf7
They didn’t lockdown like China did. It’s a soft lockdown also from what I’ve heard and people aren’t taking it serious.,PineapplePizzaPalace,2p0dxyd4,fl2lntv,"Italy locked down the country at relatively high infected cases at about 10,000 on [March 10](https://en.wikipedia.org/wiki/2020_coronavirus_pandemic_in_Italy#Timeline), compared to Hubei, which locked down at roughly just under 1,000 or so reported cases on [January 23](https://en.wikipedia.org/wiki/Timeline_of_the_2019%E2%80%9320_coronavirus_pandemic_in_November_2019_%E2%80%93_January_2020).

Longer exposure means more people get infected before the quarantine measures can drastically slow the spread of the virus. The numbers we are seeing from Italy now are those who got infected before the lock-down and are only beginning to exhibit symptoms / detectable virus concentrations now. This should continue for at least 2 weeks from the time when the lock-down began.",fl2kw8k,ScaryChange,2iwb8bp8
Indeed it is.,PineapplePizzaPalace,2p0dxyd4,fl2lghg,Strongly disagree. These are essential services.,fl2kwss,CalvinTheOrange,1jal9sdn
"I don’t know, but I’d delete it too.",PineapplePizzaPalace,2p0dxyd4,fl29mj4,Did he delete an insta story with him out and about today?!,fl29aqw,ganglicious,4w20b0y7
"Also, younger people are more out and about, so more likely to pick up the virus.",PineapplePizzaPalace,2p0dxyd4,fl298yl,"Well, since those 65+ in Sweden are just a 1/4 of the population, it's not strange that half in the ICU are below 65. People below 65 are not immune...

Source:  [https://www.scb.se/hitta-statistik/sverige-i-siffror/manniskorna-i-sverige/sveriges-befolkningspyramid/](https://www.scb.se/hitta-statistik/sverige-i-siffror/manniskorna-i-sverige/sveriges-befolkningspyramid/)",fl293je,tumppigo1,4oqjrzvd
"I very well would’ve had a case of it in February if it is indeed mild. I had a good bit of mucus though. Trouble breathing at the end of it for about a week or two, mild, mild fever, and other cold/flu symptoms. Cough, but it was wetter. Very well could’ve been a secondary upper respiratory infection to the initial cold/flu. 🤷

I haven’t felt like I couldn’t breath well from a sickness like that in a long, long time. It wasn’t severe, I worked and stuff.",PineapplePizzaPalace,2p0dxyd4,fl28obu,It’s becoming more and more difficult for me to believe that the true number of infected isn’t astronomically higher because so many cases are asymptomatic/incredibly mild.,fl26yrc,themikeman7,p01s8
That’s what everyone should take from this. That there’s a chance it could be bad or really bad or REALLY REALLY BAD.,PineapplePizzaPalace,2p0dxyd4,fl28f6n,May as well throw darts at a board.,fl27yl9,rtft,6h07q
"If it helps get Trump out, it may be a worthy donation.",PineapplePizzaPalace,2p0dxyd4,fl256f5,18m to the DNC is all I've heard,fl22f2l,mtobler2006,dcknr
I imagine in Italy fresh food is king. People probably shop daily for dinner.,PineapplePizzaPalace,2p0dxyd4,fl24os5,Why are people going 5 times a day?,fl23if2,Royanon,977rb
Sad that this is common fucking sense and countries still aren’t taking action.,PineapplePizzaPalace,2p0dxyd4,fl1ybwg,"Take-away:  The longer a country waits to take swift and strong action the worse it gets.  Also, lock downs (real ones) work.",fl1wt2f,INeed_SomeWater,3m21kqqx
"With SARS, which is closely related, people did. Anywhere from six months to 12 years. Usually closer to one year though.",PineapplePizzaPalace,2p0dxyd4,fl1vwm9,"# Answer: we're not sure yet

No need to read the article",fl1ueps,shtpostinalotofmemes,10rs7zeg
"Good one haha

I’ll be there with you in about 18 months or so. How convenient for Trump’s re-election.",PineapplePizzaPalace,2p0dxyd4,fl1pvpl,We should march on Washington.,fl1puwg,stripedphan,ptg44ki
"And yet, his dumbass base is already blaming democrats and China. I doubt he will lose support.",PineapplePizzaPalace,2p0dxyd4,fl1pkl8,Even then he’s planning some red state hero shit or something. Our economy is done companies are done the whole west coast is going to lock down and then Americans are truly fucked.,fl1piaa,Classactjerk,2r3lqmvj
"I honestly think the only reason we get a task force presser every day is because he’s trying to get re-elected. Mike Pence is head of the task force, but Trump weaseled his way in.",PineapplePizzaPalace,2p0dxyd4,fl1n4mk,"Based on Italy and our current response, I honestly believe we're gonna have 1000-1200+ deaths by the end of next week.     

Once the death numbers get into the 1000 range I think you're going to see a 180 from Trump.   Doesn't mean he's not gonna fuck it up, but you'll see a change much like you saw when it went from a hoax to ""we gotta have a presser everyday""",fl1ln5o,SheriffComey,45ezg54
https://mobile.twitter.com/joshnbcnews/status/1241035996533268480,PineapplePizzaPalace,2p0dxyd4,fl1gx8q,">  this virus is effecting almost twice as many men as women.

Source?",fl1gsi6,mobo392,3o3skn71
"In that it says way way way more men smoke than women, but this virus is effecting almost twice as many men as women.",PineapplePizzaPalace,2p0dxyd4,fl1gn8w,"> I read this differently ""Our findings don't match (Wuhan findings) re: smoking x covid risk.""

They match the Wuhan findings exactly: https://old.reddit.com/r/COVID19/comments/faluhv/an_exhaustive_lit_search_shows_that_only_585_sars/

There is zero conflicting evidence that has been published, which is basically unheard of in medical research.",fl1fn8o,mobo392,3o3skn71
It certainly isn’t three or “a few.”,PineapplePizzaPalace,2p0dxyd4,fl1f4lm,I thought 'several' was universally known to be 7?,fl1dvqp,feathers4kesha,1oh8dvne
He’s trying to maintain the political divide and rule up his base on a new issue. It’s his new immigrant caravan/wall leading up to 2020. It also deflects some blame / focus off of his terrible handling of this in the weeks leading up to the outbreak.,PineapplePizzaPalace,2p0dxyd4,fl12zb0,"It's like once everyone criticized him for it, he decided he should just use it all the time now .",fl12tfg,velocityoflove,8fr3k
"Sorry, but I mean mostly on here.",PineapplePizzaPalace,2p0dxyd4,fl1118u,No they haven't. Two weeks and two days ago this was just a flu bro. It may seem like longer but it actually escalated very quickly.,fl10oky,Asteryd,56zil6o6
"How about a 29 year old Canadian who works out four days a week getting it and having a similar outcome? 

When are people going to stop acting like people without preexisting conditions are free from risk of getting hospitalized?",PineapplePizzaPalace,2p0dxyd4,fl0zv1w,Apparently though. She was a smoker so did exhibit pre exsisting conditions. Not saying it doesnt effect youth. But let's call spade a spade,fl0vnb4,Th3FinalKing,n0ugj0i
You got a positive test?,PineapplePizzaPalace,2p0dxyd4,fl0z6eg,Hilarious seeing as how I got it by community spread atleast 3 weeks ago.,fl0vyqa,071319,44c7519r
"He will say Chinese Virus within the first minute, unless he spends it talking about unrelated shit to make himself seem better like he did yesterday.

Edit:  I was right.",PineapplePizzaPalace,2p0dxyd4,fl0ypir,"Please let there be information that promotes calm, gives solid information, and does not include the words ""Chinese Virus"".",fl0wr2a,hellotherefriend1987,qrfv2df
People have been saying this for two weeks and it has yet to happen. I’m not holding my breath.,PineapplePizzaPalace,2p0dxyd4,fl0ymfp,National lockdown since the governors won’t fo it.,fl0xa5u,themvf,39y0h
SARS antibodies found to protect people for up to 12 years and this virus resembles it closely.,PineapplePizzaPalace,2p0dxyd4,fl0oa8j,"I recall reading that Antibodies May only last several months for Coronaviruses typically though. So becoming reinfected already? Doubt It at least in a scale that matters. Come next year? Who knows. 

I would anticipate a 12 month lockdown. That may become more of a total lockdown.",fl0mlt0,fourpuns,zbnwc
