child_body,child_screen_name,child_user_id,child_tweet_id,parent_body,parent_tweet_id,parent_screen_name,parent_user_id
"Ahh, here we are! I was wondering how long I'd have to scroll before someone complains about the NSFW tag and how it makes the story 100% unbelievable because of it.",PM_ME_IDK_STUFF,65qr5qd,fjo45vo,TIFU porn sex stepmom masturbate horny sexytime cum,fjls3j0,JaiMahaKali,46gyxq8z
God damn what a trip. I can't believe this exists ; or at least existed,PM_ME_IDK_STUFF,65qr5qd,fjg76zg,"Anyone interested in seeing just how absolutely mental and messed-up conversion therapy is, check out the free webcomic *Joe vs Elan School*. It is an absolutely true story that can be easily verified. **Warning, this webcomic is no joke**. 

**[The first chapter explains how these places initially get the kids, many times by kicking down their bedroom doors in the middle of the night and kidnapping them](https://elan.school/rude-awakening/)**. Because once the parents, school, or state signs you up for it, this is now somehow legal.

Apparently, the leadership of these places also sees this as a good way to ""prepare them"" for the completely messed-up behavior-modification programs that they will soon be chucked into. Seriously, if you think you know, you don't. This is the kind of stuff you would expect to happen to political prisoners in North Korea.

It is eye-opening and horrifying that this stuff was, and still is, allowed to happen to kids, even as young as 12 and 13. And for-profit.",fjfhu8u,Wampirehunter,5j06l0yk
Thank you!,PM_ME_IDK_STUFF,65qr5qd,fhfx5ge,"Glad I could help :)

Searching",fhfx0iy,ma3iek,cek3m
"Oh wow, didn't know it works like that!
I'm up for trading at 0866",PM_ME_IDK_STUFF,65qr5qd,fhfwydt,"Well, I can help you with that :P

Give Everstone to Darumaka while breeding and it will stay in Unovan form :)",fhfw8zn,ma3iek,cek3m
All my hatches are Galatians darumakas. It doesn't seem I can hatch a normal one. Sorry!,PM_ME_IDK_STUFF,65qr5qd,fhfw5ru,"okay, let me know when you are ready for trade :)",fhfuv1c,ma3iek,cek3m
"Oh yep I can do that, thanks!",PM_ME_IDK_STUFF,65qr5qd,fhfut17,i can trade you Galarian HA Darmanitan if you can breed me Unovan HA one?,fhfuiqx,ma3iek,cek3m
Yeah but aren't you supposed to be able to buy rocket radars once you've used your first one?,PM_ME_IDK_STUFF,65qr5qd,f77rpjq,"Not really. There's a slim chance of getting a Sinnoh Stone or a Unova Stone from beating them, but most of the time its just revives or potions. Their signature shadow pokemon isn't also much aside from Arlo's Scyther which is an excellent bug attacker even if you aren't able to evolve into Scizor (and when you do it costs less candy) so its a fairly consistent way to obtain a Scyther since it tends to be a pretty uncommon/rare spawn (and purifying puts them up to Lv25 so its pretty much usable without needing to power up one, Return might need to be removed with a TM or the second charge move slot obtained to get it to double bug attacks).",f77r1wp,GildedCreed,e47yk
"Keep away from children can be both a statement and a warning

1) as a warning, children could choke on the plastic, as weird as this sounds

2) as a statement, using the product keeps you away from having children",PM_ME_IDK_STUFF,65qr5qd,f29i5p3,I Don’t get it,f29hv9u,Kobedie,neu8n
"To be honest, both are somewhat of a stain but yeah I'd say leffen is the worst.

but nobody cares because they weren't playing super smash bros melee for the Nintendo GameCube",PM_ME_IDK_STUFF,65qr5qd,eyc3sjm,Good. I hate Leffen. He is a stain on our community.,ey9lept,mysteryghosty,16d2my
