child_body,child_screen_name,child_user_id,child_tweet_id,parent_body,parent_tweet_id,parent_screen_name,parent_user_id
Should include that in the post.,Rancherort,14i0ce,fldii72,"Well, over here all the stores are closed....so..",fldhpu3,Blyat_Gopnik,5ca34lm5
He needs to go to the doctor.  He may have something wrong that's easy to fix. Checking out is watching the laptop instead of interacting with you.,Rancherort,14i0ce,flczcbu,"He is happy to see me. He just is asleep by the time I get home from work. If it is before he goes to sleep that afternoon, he will be very happy to see me. He just doesn't have the energy. If I get upset about this type of thing, he gets defensive and withdraws more though. Definitely is likely to have a medical issue of some kind that makes him this way but also he works so hard in the week I don't really blame him. He also has to drive a long way to work at most jobs. Does this change what you think?",flcytls,Applanges,3mqg976x
Yep me too.,Rancherort,14i0ce,flcy0zo,Yeah I've noticed. I'll just have to keep pressing it once in a while ig,flcxxoc,Crimeboss37,41j9bms2
I prefer the odd ground vine leaf!,Rancherort,14i0ce,flcxp72,Food. Toilet paper didn’t always exist and we will adjust to find alternatives. Like sandpaper. X,flcugxj,MeinEmanresu,4p0sl5lu
"That's what most renters don't understand.  That you can own a house for basically rent payments.  You dont have the ridiculous maintenance costs when renting however.  Put a well in last year $7500.  Put a roof on another $10,000. Land scaping $500 a year.  My lawn mower compact tractor $22,000.   Doing whatever i want within reason on my property! Priceless.",Rancherort,14i0ce,flcwv90,"Generally, yes. But don't let that keep you from buying a place. Honestly, 20% in any major city is a ton of money that most American's don't have. I just bought a place and put down 3% and my mortgage is going to be the same as what I was paying in rent. At least I'll be building equity now and have a place that I can call my own (and my banks).",flame4a,RobbieDubb,s4xz3
Funny most people that speak english think the same of most all other languages.  Everything seems backwards and out of order.,Rancherort,14i0ce,flcwl4m,Lol english is a messed up language to understand :),flau1ku,Lillillillies,ex05hvw
Black and blue face!,Rancherort,14i0ce,flcujc7,Do you think If she goes jogging without a bra she’ll get a black eye?,flc8mru,Biscuit5535,4qwdkohl
Didn't say it wouldn't...,Rancherort,14i0ce,flcaccy,But that would be a good thing...,flc9xyd,Pyr0teknix,b18td
Perhaps a deposit box?,Rancherort,14i0ce,flcaa2z,"Can you explain how i keep a list at a primary bank? I do use Ally as my main bank since they dont really have a limit on transfer limits, i do not intend to cancel this account ever",flc9zne,xboxhaxorz,17br22
That's on you to keep a true list up to date.  Just keep a record of it at your primary bank.,Rancherort,14i0ce,flc9jmv,"Thats the problem, i am constantly changing accounts due to bank bonuses so if i make a list now, in 6 mth it would be about 50% different",flc8s87,xboxhaxorz,17br22
"And we both work in essential businesses.  So really I wont be needing a check.  I don't have a problem giving though as there are many less fortunate than I, do to the pandemic.",Rancherort,14i0ce,flc8ud5,This guys makes 70k+ or 150k+ combined with spouse.,flc8jb3,GraftedLeviathan,3whtu6z
Fuck I'm dumb sometimes.,Rancherort,14i0ce,flc7yvt,"Well this is bs.  It doesn't even make the real list.

https://www.titlemax.com/discovery-center/money-finance/the-25-highest-grossing-media-franchises-of-all-time/",flc5efw,Rancherort,14i0ce
Stand up for yourself now.  Being an adult 46m. The worst thing you can do is just take it.  Tell someone who can actually do something.  Don't put yourself into a situation you can't handle.  Stay safe and no fist fights.  Let the ones that can help you help!,Rancherort,14i0ce,flc65ut,"When she wouldn't stop taking pictures of me. She would make fun of my appearance and show her friends. I could get her suspended for taking pictures of me, in fact, I don't know why I haven't done that yet.",flc3a13,this-beefjerky,1v0awyc6
Heat may slow it down but doesn't stop it.  Just ask Australia!,Rancherort,14i0ce,flbwkty,"70s in Phoenix this week, 80s by the weekend and into next week.",flbwb39,throwawayhaha2003,3z45gs2b
Essential Infrastructure specifically distribution of power generators aka solar panels.,Rancherort,14i0ce,fl96acn,Read number 9,fl966bj,Rancherort,14i0ce
Read number 9,Rancherort,14i0ce,fl966bj,"STAY AT HOME — All individuals must stay at home, with exceptions for essential activities, essential government functions, and essential businesses and operations. All non-essential business and operations must cease, aside from Minimum Basic Operations. Business can continue with employees working from home. Local government units across the state must halt all evictions, and gatherings of more than 10 people are prohibited.

Yeah I'm pretty sure it says my company is non essential. But what can I do to stop it from happening?",fl95yfs,n8saces,8wv9v
"Deemed essential!  Please read the actual order.  You sell solar and it creates electricity. Please read executive order 20-10

https://www2.illinois.gov/sites/coronavirus/Pages/default.aspx",Rancherort,14i0ce,fl95kov,Sales,fl94ywe,n8saces,8wv9v
Producer or installer?,Rancherort,14i0ce,fl94wht,Solar sales,fl94u4v,n8saces,8wv9v
What does the business do?,Rancherort,14i0ce,fl94hu7,Ok who should I call?,fl94a9k,n8saces,8wv9v
"Well if you like rashes, then no problem.",Rancherort,14i0ce,fl92z4h,"And that is a problem, why?",fl92t78,xhumanityisthedevilx,5262oqhe
And i see Macho Man Randy Savage!,Rancherort,14i0ce,fl929dd,Yes.,fl922yx,minolan1981,179qpv
"Panties? We don't need no stinking parties!

Badges? We don't need no stinking badges!",Rancherort,14i0ce,fl91anj,What about clean ones?,fl916kj,TodayTamar,45z4dje0
I had a fridge that went from hardly using any electricity to almost tripling the bill inside of a month. So be aware your appliances can cause this.,Rancherort,14i0ce,fl8yrg0,Your fridge and water heater and any other electrical device that runs in the background without you thinking about it just got 6 months older.,fl8yn10,Rancherort,14i0ce
Your fridge and water heater and any other electrical device that runs in the background without you thinking about it just got 6 months older.,Rancherort,14i0ce,fl8yn10,"Right, but wouldnt it have gone up in any of the last months at all, why all of the sudden? Nothing has changed in about 6 months.",fl8s547,N3UROTOXIN,aqpup
Coinage counted!,Rancherort,14i0ce,fl8xy8y,"16 twenty cent coins, 255 ten cent coins, 253 five cent coins, 1 one cent coin, 1 two danish crown coin, 1 five pents coin, 1 ten estonian cent coin; for a total of 41,36€ and some obselete metal discs.",fl8e08z,paksulainen,tf9ol
Realignment of the poles is confirmed.  Please push the red button to issue an extermination level event!,Rancherort,14i0ce,fl8xvog,ELECTION METEOR CONFIRMED,fl8lwum,fluffspeed,62f4w
Except it draws in outside air and there's no filter.  So really it'll catch and concentrate any contagion that's airborne right into the suit.,Rancherort,14i0ce,fl8xozs,"From my understanding, those have a blower inside to keep them inflated. Mix that with the fact the face is shielded and you have a positive pressure suit that, in theory, would be fairly effective",fl8w88f,jesselkiko,9tj8f
Just weird to you my friend not to me.,Rancherort,14i0ce,fl8xhb2,"Weird, mee-mees was my sister's word for breast feeding. 

Now I'm imagining  a grandpa with a boob in his pocket...hahaha. 

You made my day.",fl8wyo4,greffedufois,ew89s
Reality is that won't work as an actual transfer takes at least 24 hours. So thinking you can instantly move the money when it doesn't exist is false.,Rancherort,14i0ce,fl8xclm,"Out of curiosity, what would happen if my friend just transferred the money to her bank account and closed her Venmo account?",fl8exdm,spiked_squirrel,4866irge
Absolutely not.  That's left over from my childhood.  My Grandpa always kept a bag in his pocket just for me.  I was 3 or 4 when I started calling them meemers.  Now i here it and i think of him.  So it's almost like being little again.,Rancherort,14i0ce,fl8tjd5,"Agreed. 

Also, did you think we would ignore that you call M&M's ""meemers""???",fl8o2cw,Runninfromlions,nbuc7
Less than 40% of the workforce in the usa  has a 401k.  Some may have profited.   Not your average worker.  Good  one  thought.,Rancherort,14i0ce,fl8ehbv,Who do you think owned the stock that companies bought back?  Often tea it's the very workers or working class people in general.,fl8dt7g,KickingPugilist,4w3ssm9s
Congratulations you have a 2 yo who just figured out pee on the potty equals candy.  Don't worry it'll pass in a week or so.  This is exactly how we potty trained our son and he did the exact same thing for about a week.  By week 2 it was a grape or some pretzels.  If he went the entire week with no accident he got a bag of meemers as we called them. By the end of the month he learned praise and high fives were all he got. But he did it.  So will your little girl.  Good luck,Rancherort,14i0ce,fl7v6id,This is so wholesome. Thanks for sharing.,fl7txd9,threeoutoffifteen-,223t6ajb
This is the way.,Rancherort,14i0ce,fl20mwk,"Hongkong dog gets the test, many American humans can't.",fl1zfzg,chickspeak,3as6ds0e
People with no underlying health issue have a chance to die also.  It's a respiratory infection first. That's it's primary form of transmission.  So if you made poor life choices like smoking or drinking to much.  Your immune system could be compromised from any number of illnesses related to said activity.  Thus it's still not related to a genetic problem it's self induced.,Rancherort,14i0ce,fl1iwl4,It is not all about the lungs. All people with weak immune system have a chance to die from the virus.,fl1ie7j,vpetrychuk,tf9yv
I'm not limited by what's on a shelf in a store...,Rancherort,14i0ce,fl1hp7a,So you’re saying you use 70% isopropyl alcohol. The same shit everyone else is using. Next level genius...,fl1hliz,alnelon,ayj2o
This is liquid isopropyl alcohol it's used in industrial applications it's not in everyday products like hand sanitizer. I mix it with water as the 30% water is a catalyst for the breakdown of the proteins in viruses. So yes i am as cool and smart as i think i am.,Rancherort,14i0ce,fl1h7pj,Alcohol concentration higher than 70% is usually less effective at killing bacteria and viruses. So maybe you’re not as cool and smart as you think.,fl16v3a,alnelon,ayj2o
We get it by the 55 gallon drum so...,Rancherort,14i0ce,fl16ju9,Got 8L of that myself. Don't want to run out tho... may be hard to source in future.,fl16gm1,Lirathal,bp1d3
So much fun!,Rancherort,14i0ce,fl15lcb,I also am in the La Crosse area and the confirmed numbers are really frustrating because I don't believe that they are at all representative of how many cases their actually are. They just aren't testing people.,fkzmtdk,HayleyMS22,144mak
"Just dumb, rather put the burden on his employees instead of spending some of his moldy money.  Good news is there are some good companies like dicks sporting goods who closed the doors for the next 2 weeks with full pay.",Rancherort,14i0ce,fkyszts,"No employer does. I work for a individual personally worth almost $1B, with less than 300 total employees, he won't pay people for time off- everyone has to use their sick and vacation times if they want to take time off right now, and no one is allowed to work from home unless they are diagnosed with Covid19, which no one is because our county doesn't even have tests.",fkyoawb,LAJuice,68chd
McDonald's is fighting the relief package they dont want to pay for time off.  It's just retarded.,Rancherort,14i0ce,fkycwfn,it's disgusting that in a time of crisis profit comes first.,fkybli7,Docbear64,i5f52
I work at a beverage can facility and we can't make enough cans to go around.  Our customers are literally begging for product. We wont shutdown till ordered to do so.,Rancherort,14i0ce,fkycpi6,"Come on Evers, time to close us down.",fkyb7ek,Raggaegimli,o86fh
Nom nom nom.,Rancherort,14i0ce,fkycjl4,Worth it.,fkyc437,Xulik,1601lz
I live in the La Crosse area.  There aren't enough tests for people.  The low number is false.  They didnt even test family members of those infected. We're now at 3 with at least 7 family members.  The real number won't be known for quite some time.,Rancherort,14i0ce,fkych5u,"Agreed. Actually, I’ve been very impressed with the Midwest as a whole. Ohio, MN, MI, and WI have responded quickly with good decisions.",fkybqdf,whileyouredownthere,pnqzd
I'm sorry to hear of the hardship in Cuba and especially amongst your family.  What can i do to help?,Rancherort,14i0ce,fkwdn01,"Cuban here. No we don't. The communist dictatorship is literally doing nothing for its people and playing the "" good guy card  "" internationally for the dollars $$

I have family living in Cuba right now and they can't even buy regular soap. This is just socialist/communist propaganda

PS: I'm ready for the downvote parade reddit

Edit: To give more context, the government hasn't tested anyone. Kids at school are being told not to use facemasks to not cause panic and there is a recent British cruise that just arrived to our shores because we are "" good guys"" but what the Castro dictatorship doesnt tell u is that they exchange rescuing the crew people for 2 mill pounds and part of thenational debt forgiveness that we have with the Uk",fkwd99l,orlando2542,ov6e6
Once again I'm proven wrong thanks for the information.  At least I actually learned something.,Rancherort,14i0ce,fkw88fw,"By a percentage of the total eligible population it had higher turn out then 9 of the last 11 elections (2008 had 58.2%, 2004 tied it with 55.7%). By pure numbers it was the highest turnout ever recorded in the US. That's embarrassing.",fkw82dx,SpaceCadetRick,xv5vv
The United states government has issued a state of emergency. That means the company can and should evaluate every employee's health.  The lawsuit would die before it begins.,Rancherort,14i0ce,fkw7yzc,"I brought this up in a meeting and was explicitly told it was illegal and could result in a lawsuit.  We are not allowed to ""medically evaluate"" any of our employees.",fkuw5xu,MarqNiffler,1fznxmnf
Most all the bars in the usa are closed.  Restaurants closed.  Civic centers aka arenas closed. Weddings 50 or more guests banned. Funerals 50 or more guests banned. Nice to see the UK is still as fucked up as we all thought.,Rancherort,14i0ce,fkw7qo4,Why the fuck are the pubs still open in the first place?,fktrn05,skeebidybop,11i4zb
Well it was one of the lowest turn outs in history.  Just the independent sucking 5 million votes was enough to swing the electoral college.,Rancherort,14i0ce,fkw7jno,"I was talking about the approximately 111,209,000 people of voting age who didn't vote at all in 2016.",fkw7f7e,SpaceCadetRick,xv5vv
Donald Trump in full affect.  Sad is the mouth breathers are to dumb to look up the facts about it.,Rancherort,14i0ce,fkw7bod,"Some people in America are still calling it the flu...

Edit: I didn't expect all these upvotes. 

Lemme clarify that this is not a hateful jab at American's. I myself am an American. I work at a gas station/convenience store and have heard ""It's just the flu"" thousands of times in the past 3 weeks alone.",fku2c82,tarajin,526l09cx
You're right.  Bernie sucked about 5 million votes out of the system in 2016.  I hope if he doesn't win the nomination that he drops out completely.,Rancherort,14i0ce,fkw72ip,"Mostly because a bunch of people didn't go vote, millions of people. Actions have consequences and, unfortunately, millions of Americans are going to pay the price.",fkw6jet,SpaceCadetRick,xv5vv
I am a union brother IAM all the way.,Rancherort,14i0ce,fkw4owl,"One of the only silver linings of this pandemic is that America is finally waking up to the fact that employee unions are **necessary**.

Your employer will fuck you over in favour of their bottom line all the time, every time, until you die or they can fire you. Your life and comfort matter far less than cash to somebody making a profit off of your labour. 

Good luck with all this. Stay safe and well. 

When it’s all over, organise.",fkum6is,Rubbishnamenumerouno,gw8i7
Only one it blindsided was any Republican with their head in the sand.  How the fuck did we elect this idiot.,Rancherort,14i0ce,fkw2eem,"January 22: “We have it totally under control. It’s one person coming in from China. It’s going to be just fine.”

February 2: “We pretty much shut it down coming in from China.”

February 24: “The Coronavirus is very much under control in the USA… Stock Market starting to look very good to me!”

February 25: “CDC and my Administration are doing a GREAT job of handling Coronavirus.”

February 25: “I think that's a problem that’s going to go away… They have studied it. They know very much. In fact, we’re very close to a vaccine.”

February 26: “The 15 (cases in the US) within a couple of days is going to be down to close to zero.”

February 26: “We're going very substantially down, not up.”

February 27: “One day it’s like a miracle, it will disappear.”

February 28: “We're ordering a lot of supplies. We're ordering a lot of, uh, elements that frankly we wouldn't be ordering unless it was something like this. But we're ordering a lot of different elements of medical.”

March 2: “You take a solid flu vaccine, you don't think that could have an impact, or much of an impact, on corona?”

March 2: “A lot of things are happening, a lot of very exciting things are happening and they’re happening very rapidly.”

March 4: “If we have thousands or hundreds of thousands of people that get better just by, you know, sitting around and even going to work — some of them go to work, but they get better.”

March 5: “I NEVER said people that are feeling sick should go to work.”

March 5: “The United States… has, as of now, only 129 cases… and 11 deaths. We are working very hard to keep these numbers as low as possible!”

March 6: “I think we’re doing a really good job in this country at keeping it down… a tremendous job at keeping it down.”

March 6: “Anybody right now, and yesterday, anybody that needs a test gets a test. They’re there. And the tests are beautiful…. the tests are all perfect like the letter was perfect. The transcription was perfect. Right? This was not as perfect as that but pretty good.”

March 6: “I like this stuff. I really get it. People are surprised that I understand it… Every one of these doctors said, ‘How do you know so much about this?’ Maybe I have a natural ability. Maybe I should have done that instead of running for president.”

March 6: “I don't need to have the numbers double because of one ship that wasn't our fault.”

March 8: “We have a perfectly coordinated and fine tuned plan at the White House for our attack on CoronaVirus.”

March 9: “This blindsided the world.”

March 13: [Declared state of emergency]

March 17: “This is a pandemic,” Mr. Trump told reporters. “I felt it was a pandemic long before it was called a pandemic.”

March 18: ?????",fkvyap3,islachi,5cj57l85
I certainly hope you remember who caused this entire fiasco come vote time!,Rancherort,14i0ce,fkw1jy3,They all know. And there is no way to test here. Michigan won't test unless you are seriously Ill and need to be hospitalized. They don't have the tests. So all I can do is hope that no one else at home gets Ill.,fkvz6ns,IrishRose21,5vfowx57
Yes that's the whole point of Trumps administration dragging its feet for so long.  In the end its us that suffer and not them.,Rancherort,14i0ce,fkvy1hs,My wife (51) has had the *exact* symptoms for a couple weeks now but *still* can't get tested in Washington (she called again this morning). The official statistics are a complete joke.,fkv8m82,bishpa,xibi6
McDonald's is fighting against the paid time off bill that is going through right now.  They don't give 2 shits about any of us just our money.  Your daughter should get tested if she had a fever.  If she has it you and your wife need to be checked.  Plus she should notify McDonald's and everyone that has worked there for last week needs to be checked.  Than McDonald's will be forced to announce that an employee/s tested positive then the shit storm begins.,Rancherort,14i0ce,fkvxnja,"My daughter had a fever for 2 days. McDonald's told her to come back to work afterwards. 

No. Getting take out is a very,  very bad idea for everyone right now! Those employees are all in high risk jobs and probably already infected. Enjoy your pizza or Big Mac with a side of coronavirus! 

Oh. Told my daughter to quit. We can afford her not to work as she's a teenager. Not getting everyone in my house sick nor dead over a burger flipping job!!",fkuoz8s,IrishRose21,5vfowx57
I lived in a nice one no trailers over 30 years old and lot rent with taxes was about $300 a month.  But yes it very's widely. I'm actually kind of surprised that he claims low cost of living but everything is $1000.  In my area that's enough to own a decent little house.,Rancherort,14i0ce,fkvb7s6,"This might not be every trailer park but- almost every one I’ve ever seen is run down and crime ridden. Typically the cheaper you go, the more you’ll run into this.",fkvavbr,i_am_a_toaster,bqyz4
It depends sometimes diversity doesn't mean a rebound instantly.  It could take a few years to recover it. Some stocks will never rebound to the level they were 2 weeks ago.  Pro economists see this as a correction to the market.,Rancherort,14i0ce,fkv09wk,"A properly diversified portfolio will instantly rebound the moment markets are open/stable again.

So if the relative is squandering opportunity or excising themselves what more can someone do?",fkuzwuv,ValidatingUsername,kg6yj
Well 8 is better than 0.,Rancherort,14i0ce,fkuzut9,We dated for eight months,fkuzidh,gobigred3562,7t8he
Did you call her? Or did you wuss out?,Rancherort,14i0ce,fkuzgv6,Honestly I just thought she was being nice.,fkuzcwn,gobigred3562,7t8he
Depends how much you've got invested.  It could feel like losing a relative.,Rancherort,14i0ce,fkuzek6,That's what a financial reset does.,fkuzafw,ValidatingUsername,kg6yj
Tip big get a date nice.,Rancherort,14i0ce,fkuza1b,Waitress leaving her number under the tip; she loved my tip a few weeks later.,fkuxhws,gobigred3562,7t8he
Just wait that comes later.,Rancherort,14i0ce,fkuyzz9,"I looooooove a hairy guy. I describe my man as a bear because of his furry chest, and I love it! It makes me feel safe, like I’m with a real man! (Not to say guys with little hair aren’t real men, it’s just my preference) 

I am not so fond of hairy backs though, but it wouldn’t put me off.",fkuxrt0,IAmJacksKat,poh0kkf
You van have some of mine!,Rancherort,14i0ce,fkuywrv,I'm 31 and i still can't even grow a beard let alone hair anywhere else.,fkuxlq6,WhenAllElseFail,ifs9v
Thanks.  It was less than a month if remember correctly.,Rancherort,14i0ce,fkuwtzm,Congrats! How soon did you move in together?,fkut87t,girlnextduh,50ajf30e
Well they really don't give a crap either.,Rancherort,14i0ce,fkulg7q,"Yeah, but this tournament is in Russia. Feels like anything can be achieved if the correct palms are greased in Russia, especially an international tournament.",fkui3di,f00f_nyc,6ohum
Sorry I see there was an abatement process done on the house.  Was it for the ceiling sound coating?  If it was the didn't finish the job.  That should've been done by them.  Contact and explain what you found. If they play hardball contact a lawyer next.  I'm pretty sure vent cleaning is part of the a abatement process.,Rancherort,14i0ce,fkugfz6,What year was the house built?,fkug1dq,Rancherort,14i0ce
What year was the house built?,Rancherort,14i0ce,fkug1dq,I am afraid the asbestos might start to dust out due to the constant airflow. Not even sure if that’s possible,fkufz02,vinnybaby1000,3ozkj06
The most dangerous woman alive 1989.,Rancherort,14i0ce,fku5y9y,Already ruled out sorry.,fku5sj2,Bison-Reigns,36wyn8kb
I know you ruled it out but it fits the list for you.,Rancherort,14i0ce,fku5s4a,"Surviving the game 1994.  Had Rutger Hauer, Ice-T, Garey Busey in it.",fku5k9h,Rancherort,14i0ce
I'm a certified psychiatrist or is it certifiable!,Rancherort,14i0ce,fkqp2b6,The amount of armchair psychology going on in this comment is too rich for me.,fkqozi3,The_Bald,6h513
Another lets hide my real life from the world. Your working from home and kids are as more interested in that work than you are.  Let them play near you.  I think it really adds some reality to whats going on right now.,Rancherort,14i0ce,fkqivee,"Huh, I’m not doubting it or anything, it’s just how she acts, yanking the kids to the point it looks like the one in yellow falls and just gets dragged across the floor to get them out the door then crawling in to close the door, just feels like she’s scared of making things worse then they are. That along with the look on his face, like he’s trying to hide just how angry he is in that moment by closing his eyes and all. 

But then again, it might just be me, grew up in a fucked up household.",fkqhvok,MrMetalhead69,jrmcu
Just the Mediterranean diet will make you live longer.  They've got something like 28% over 65 in Italy so they'll have a higher mortality rate.,Rancherort,14i0ce,fkpy702,I remember seeing a documentary on how there are way more old people in alpine Italy because they eat a shit ton of beans and exercise a lot their whole lives so they end up living to their mid 90s more often than not,fkpw5g7,B1ngers,2erf1pc4
I meant barrel and youd be using a brokerage to buy futures.,Rancherort,14i0ce,fkpvukq,"I was considering Delta, which I think will double within 2 years. but oil? Hrm... thanks",fkpvsa3,tommygunz007,7s6pj
You can always ask for a variance from the city.  That would cause a nuclear meltdown on the other side of the fence.,Rancherort,14i0ce,fkpvkep,"She had to have her lot surveyed due to her building an illegal structure within setbacks (this is what started it all she believes we called the city, and now she is mad that the city is making her move it and lashing out at us, didn't want to include all the drama in the first post, claiming harrasment all that fun stuff ) so unfortunately the fence is most likely the inch over the property line it's a short run so only have to move 4 posts. 

But I would agree in general that should be surveyed if there are any questions.",fkpvede,SaveTheAles,ckjdy
"Ohh i loved those movie's.  The tall man. You play a good game boy, but the game is finished. Now you die!",Rancherort,14i0ce,fkpv1g0,Phantasm series,fkprz3k,yung-n-nasty,4dpqlnzd
"Be nice and treat them as you'd treat yourself. They see your big, so be nice and friendly.",Rancherort,14i0ce,fkpu4ac,"I'm a big lad, and I notice this from you wee folk. [EDIT: I mean people under 5'5"", not those with dwarfism)

I try to be conscious of it, but all I seem to be able to do is slouch and speak quietly. 

I'd welcome advice on this?

(I'm about 189cm, and 118kg.... or 6""2.5"" and 258lbs)",fkpss2b,Seraphus_Nocturnus,jh80twa
You do realize that Italy had wide spread testing in place at this point.  The usa doesn't the real number may be 4 or 5 times higher.  We have over 4000 confirmed cases as of 3/16 and have not even done 50000 tests.,Rancherort,14i0ce,fkp721o,"This is actually good news for America's response. Italy as a country has a significantly lower population, so the fact that the numbers are similar means that a lower percentage of the U.S. has and maybe will become infected.",fkkdyn2,1map_dude1,15dhox
Don't worry as you get older you don't need as much sleep 5 or 6 hours is all i need.,Rancherort,14i0ce,fkp31pp,Well congratulations! Hope he doesn’t keep you up too late!,fknp0dd,lshqpyari,l1u9aqw
Im a dad this is no break its more of a nice 3 weeks at least with 6yo.,Rancherort,14i0ce,fknnc44,no no no! Im the guy who ate the bat soup. Im just making sure you take advantage of the gift of 3 weeks break I have given to you!,fknn538,lshqpyari,l1u9aqw
You beat me too it.,Rancherort,14i0ce,fknmlzb,An easy bake oven.,fknm6vl,Teckful,149u9l
Oh yes they are lovers and snugglers.,Rancherort,14i0ce,fknlz6p,Cool!  I absolutely adore your kitties!  Hopefully they will be good company for you during this crazy time!,fknlw76,mrpinkypickles,2tg86brw
No assaulting children now.  Lets keep it adults deserving only.,Rancherort,14i0ce,fknlw8u,Greta Thunberg,fknlbdo,datpuddinboy,12wzwf63
Damnit I loved those too.,Rancherort,14i0ce,fknlslv,"Dude. I bought a box of banana twinkies cause I couldnt find a regular one. While they are good I wish I could find them. Another one would be the peanut butter, and honey smuckers sandwiches.",fknlmx6,KawaiiSlave,lw8lx
He's a combo of singa-pura and siamese we believe.  His mom showed up as a stray big a a beach ball at our front door.,Rancherort,14i0ce,fknlpkl,Oh my goodness. Your snowshoe kitty looks like my Mr. Pickles!,fknlk2c,mrpinkypickles,2tg86brw
There you go.  Good luck!,Rancherort,14i0ce,fknj8y2,I imagine I would benefit from a lawyer at this point since I could also get back their fees. Thank you,fknj4u9,Watersedge36,2ulp84rt
"I totally agree. You could sue first and let the judge handle it.  I suggest you get caught up on all the right ways to handle questions about the lease.  You need to learn it backwards and forwards.  They'll try to confuse you, so get ready for it.",Rancherort,14i0ce,fknhzbg,"If this is the case, then it would be in my best interest to sure then first and at least try to get back what I lost..  and lawyer fees.. 
It is absolutely horrifying that they can leave me with no heat, cause the expense of the move, then still cost me money defending why I didnt stay in their uninhabitable building.  It's really unfair",fknhgpd,Watersedge36,2ulp84rt
They did in wuhan only after trying to cover up the outbreak.,Rancherort,14i0ce,fknfcd7,They did awY with free air I believe but the places where strong influence isn’t present 🤷‍♀️,fknf72i,steamsport,hcvm8
Just like gun owners.  They seem to forget Trump was all for gun control and  mental evaluation till the nra had a closed door meeting and donated $30 million to his campaign.  The public is so damn gullible.,Rancherort,14i0ce,fknfac1,That's odd because they've done nothing but swallow his cock for the last 4 years.,fknf3yj,Business-is-Boomin,12p89t
Most sodas also contain citric acid so its a double whammy.,Rancherort,14i0ce,fklyoym,"Soda is carbonated water. The act of carbonating the water converts some of it into carbonic acid. This acid is what stings your nose when you exhale (tiny amounts of it in the air), or belch in my case!",fklbzym,purehatred89,hufb4
But hey Republicans are for the people right?,Rancherort,14i0ce,fklpdez,"Hope is Trump's healthcare after all isn't it? If you're getting sick you just hope it doesn't ruin you financially. It's a sad era we're living in, basically getting ripped of from all sides, especially from the angles we can't live without like health, housing, minimum wage.",fkln9nn,michaelzu7,d2pxg
It's a joke brother!,Rancherort,14i0ce,fkksfbg,"As I understand it, it's very likely - unless you are in one of the high-risk groups and/or unlucky - that you will survive without serious consequences, health-wise at least. So, don't fear the direct effects. In fact, overall - don't be scared - be prepared.

I think the bigger concern - and thus, where we should concentrate our energy and attention - should be the larger effect on society as a whole and the mechanisms that hold it together. Critical infrastructure like water, electricity, sanitation, healthcare, the retail supply chain - these things all require people to operate them. If the workers in *those* industries suffer mass sickness and the warehouses sit idle, power plants shut down, water processing stops ... that's what worries me.

So that's the real reason we practice social distancing, and self-isolation. It's to delay the peak, slow the spread, and give all these people and the systems they operate the chance to do so without collapsing.

TL;DR - it's not just *you*, it's *everyone*. Which, of course, is anathema to Republicans - they're being asked to think of someone other than themselves, *including poor people, brown people, and women*.",fkks8mz,Socky_McPuppet,6blo2
"There are 16 known strains.
 https://www.google.com/url?sa=t&source=web&rct=j&url=https://www.sciencedaily.com/releases/2014/04/140402110029.htm&ved=2ahUKEwib7P2zp5zoAhUEV80KHfZPAV0QFjADegQIDRAL&usg=AOvVaw0fv7RTead3jBn9VP3qaK_w",Rancherort,14i0ce,fkk1jb1,lyme disease attacks humans and there are at least 3 strains of them.,fkiq6kf,Pickledsoul,6jxxb
"Italy has an older population than the usa.  The average age is 47.3 the usa is 38.3.  Italy has 23% over 65 usa only 16%.  The majority if Italy's deaths are over the age of 80.  The usa is in the early stages of the virus and the lack of testing kits is skewing numbers.  Id expect the infection rate in the usa may be 10x's higher than what we are showing for numbers.  Just for the simple fact that we've only tested 20,000 or so and other countries are doing that in 2 days.",Rancherort,14i0ce,fkj808v,Trump has done very well. Compare current US deaths to France or Italy. He took immediate action to slow things down to buy more time.,fkj6cmt,happyzor,gwla6
I live in Wisconsin it's about the closest you can get to Lymes disease without having it.,Rancherort,14i0ce,fkitc0l,Nonsense. Stop stuffing your head with chronic Lyme disease quackery.,fkim3yl,decoy1985,14cap5
"How does a 6 year old even know the phrase ""mother fucker""?",Rancherort,14i0ce,fkiim64,Thank you. I'll let her know when she's done swimming.,fkig356,cwisser,x42eq
Because he's an idiot aka not so smart person.,Rancherort,14i0ce,fki2tfh,But why did he eliminate the department at the CDC responsible for monitoring and preparing for global pandemics?,fkhsn5i,mPeachy,qico5qq
Your actually right on this.  I love turning wrenches but hate being a mechanic.,Rancherort,14i0ce,fkhalag,"Not to be negative, but if you enjoy doing this, don’t make it into a business. Once it becomes a grind, you’ll change your mind...",fkh3gjz,danmalek466,w4dr0
Madalorian!,Rancherort,14i0ce,fkai2i5,da way of de devil,fka6ro1,speedx77,d1rhr
Oddly enough I'm a union brother!,Rancherort,14i0ce,fk69568,This is why workers' rights and unions (with specialized lawyers) are important. I can't imagine relying on good will of employers.,fk67jmi,Hegeteus,8tcbr
No that's signature required delivery!,Rancherort,14i0ce,fk64y3u,"Wait? UPS but but but he's waiting at the door for the customer to OPEN the door and then hand give the package to them?   


NOW THATS MAGICAL!",fk5sjjg,icanhaspoop,6u9b5
Far less than the multitude of glass buildings around the country.,Rancherort,14i0ce,fk5ydfc,"Fun fact: massive solar panel fields like this draw in and fry about [6,000 birds a year](https://www.sciencealert.com/this-solar-plant-accidentally-incinerates-up-to-6-000-birds-a-year?ignore_amp).",fjz63mz,PM_ME_YOUR_TEARS_PAL,adcq4o1
