child_body,child_screen_name,child_user_id,child_tweet_id,parent_body,parent_tweet_id,parent_screen_name,parent_user_id
Shrek is an ogre,Roll_The_Nice,4b23ng92,fjkyiyv,Shrek is life,fjkqcue,Big_Mac_Attack_98,pmgybnq
Nice.,Roll_The_Nice,4b23ng92,fjkyejp,\*Justnice,fjjsce1,informationtiger,5ffgxz3
r/areyouseeingthisshit,Roll_The_Nice,4b23ng92,fjkxp6x,"""Are you seeing this shit?""",fjkprr3,speedycat2014,e1i33
I dont like the Portsmouth fans and Mike Dean but the players overall are pretty chill. It was a dumb tackle though.,Roll_The_Nice,4b23ng92,fjkw7vb,Fuck portsmouth and cunt mike cunt dean the bald headed fraud cunt.,fjjt68p,DysphoriaSettingIn,2qxe5eve
report him bro,Roll_The_Nice,4b23ng92,fjk8lqn,r/suicidebywords,fjijg54,TAM3THEBEAST,1564ey
I honestly understood the Dragon Pick one a bit because I left to resupply everyone and we never agreed on splitting drops so I didnt want the others not getting a split either.,Roll_The_Nice,4b23ng92,fjgtyl9,"Bruh what broke bois do you play with that they needed to deliberate over splitting a D Pick lol. Sucks though, you should’ve been given a split in both cases IMO.",fjenp4h,LyorCohenOfDiorHomme,ta1gn
"I wouldnt mind posting there. I dont care about it much nowadays, I dont PVM much now since that kinda thing ruins it for me but I dont want others getting experiences ruined.",Roll_The_Nice,4b23ng92,fjeimfz,There's a discord for posting people/clans which scam you.,fjeiao2,Frommerman,ht6nz
"I agree here, IDK why you get downvoted. He could have gotten red, it doesnt mean the goalie holding the ball wasnt a prick though.",Roll_The_Nice,4b23ng92,fjei6bc,"Whether it’s annoying behavior by the keeper is not the debate. The question is whether in a UEFA game, which like Champions League are refereed differently than the EPL, could Harvey have seen red, the answer is 100% yes.",fjdhifm,Awaytto,iv1r2
because he cant believe his eyes,Roll_The_Nice,4b23ng92,fjeep7b,How does this look fake?,fjec5ff,SaltyDuncan,25ew6jbo
I dont want to break any rules posting peoples names.,Roll_The_Nice,4b23ng92,fjedubj,Post the clan so that ppl know to never join it. Also make sure to have an extra key when going to arma or sara so you can quickly get ur stuff if you die.,fje1ou6,MagicMangoMac,jji19
Yea he should have said Sherlock.,Roll_The_Nice,4b23ng92,fje7cet,"For some reason, this is the only time ive saw this joke being made and not found it funny. Can't explain why, just doesn't fit the scenario. 0/10.",fjcrj38,ScouseJitsu,4qqisudu
no you're right. I was picking random numbers didnt notice. I just wanted to give you examples on when you look at the high number and other numbers. I edited it.,Roll_The_Nice,4b23ng92,fje358g,"In your first example:


>Person A: 6 spades / 8 spades

>Person B: 6 diamonds / 7 diamonds

>6 clubs / 6 hearts / 3 hearts / 5 diamonds / 4 clubs

>Person A **3 of a kind** chooses his 5 which would be 6 / 6 / 6 +2 highest \[8 / 5\]

>Person B **3 of a kind** chooses his 5 which would be 6 / 6 / 6 + 2 highest \[7 / 5\]

>**Person A wins since his 8 beats his 7.**



Doesn't person B have a straight there and isn't a straight higher than 3 of a kind? Just trying to understand this, no offense.",fjdzrrc,UserNr132,dflpz5
"I am super unlucky with these, we got dragon pick at KBD once and I left to resupply people and they were kinda split on if i should get a cut. I made it easy on everyone and just said forget it. I get not getting loot here but dying on Arma was definitely it for me. They could have gave me 3 m or something.",Roll_The_Nice,4b23ng92,fjdvn1e,if you weren't in the room during the drop you dont deserve the split imo.,fjdv2op,bonersoup4,jewkj
I love bak loans,Roll_The_Nice,4b23ng92,fjdvhfg,Shoulda left the n off damn.,fjdfvbj,TinderSubThrowAway,ve8p6
"I mean its different for Ironmen since they have the inability to share so they can stay friends with people. I mean if you do bossing with friends and dont share your drops, you lose friends and are literally rich with nobody to be friends with.",Roll_The_Nice,4b23ng92,fjdt2oq,A game mode was made for people who exclusively want to play by themselves,fjdrtaz,DignityDWD,z46fp
"I dont know if I attacked but I did click alot of things, I never got to my stuff either cause Arma kc took too long. I literally came back for them to show me the drop and tele to GE and split. I left that cc anyways",Roll_The_Nice,4b23ng92,fjdsthw,If you damaged the boss you deserve a split,fjdq689,420forcrab,3l0k7qe6
if he never logs in then its a gold sink I guess otherwise its a gold toilet,Roll_The_Nice,4b23ng92,fjdn19h,"Yes. He preformed an ely item sink and a gold faucet. Reddit doesn't understand the concept of money generation even in a video game

>shaking my head my head",fjd9xlq,Alakazamon,2lpzs8nq
the game is unenjoyable by yourself tbh. Splitting keeps it fun. I wish I knew people like you instead of people who didnt split Arma chain drop with me cause I died during the kill lol,Roll_The_Nice,4b23ng92,fjddnic,"that´s what most consider a dick move.  
Ive split 3 twisted bows and i do not regret doing it. The change for a better and trustworthy community starts from yourself.",fjdavkq,bro_tonix,rh2o21l
"Its always 5 cards. In that case you have a split.

Here is another situation

Person A: 6 spades / 8 spades

Person B: 6 diamonds / 7 diamonds

6 clubs / 6 hearts / 3 hearts / 5 diamonds / 9 clubs

Person A **3 of a kind** chooses his 5 which would be 6 / 6 / 6 +2 highest \[8 / 9\]

Person B **3 of a kind** chooses his 5 which would be 6 / 6 / 6 + 2 highest \[7 / 9\]

**Person A wins since his 8 beats his 7.**

\----------------------

Here is an example of both having a straight.

Person A has 1 / 2 / 3 / 4 / 5

Person B has 2 / 3 / 4 / 5 / 6,

**Person B wins because he has a higher straight.**

\----------------------

With flush \[everything is suited the same\], it also goes by highest so:

Person A has  2 / 3 / 4 / 7 / K hearts

Person B has 6 / 10 / J / Q / 9 hearts

**Person A wins due to having the K.**

If they both share the highest then it goes to second/third/fourth/fifth highest.

The only time your cards suite matters is if you have all 5 of the same suite. Ace of spade isnt stronger then Ace of hearts,",Roll_The_Nice,4b23ng92,fjd71xt,"Oh cool, TIL.  Thanks!",fjd3knc,exdirrk,70zdy
Should be a ban on things you yourself bring into the wilderness. Sort of how it disallows you from bringing GWD items into the bag. I think the main issue is people disconnecting/world-hopping.,Roll_The_Nice,4b23ng92,fjabx8j,"I’m not a pker so I don’t have much input, but couldn’t people just throw all their expensive gear into their bag before they die?",fjaanw5,TheBrokeNoob,4t81y2nn
"I meant to gather, Elites are easier to gather then Masters. But then again I didnt read Rs3",Roll_The_Nice,4b23ng92,fj9t2mf,"He had, the opened all of them, there was a Reddit post about it awhile back.



>Elites are much easier though

Difficulty wise, definitely. Rs3 elites consist of two types of clues. Scan and triangulate. Nothing else. They either have a puzzle box or a bandos mage. They aren't hard, they might actually be easier than hards considering there's no outfit clues, but they are the very definition of tedious. None of the clues have a set location to go to, they are just go to this area and run around like an asshole till you find it. 

The patience it would take to do 17k of them is insane. I can hardly do 5 in a row before I want to alch myself. Masters and hards are fine, fuck elites tho",fj9ombu,SolaVitae,169d6j
I mean they could hit my alt couldnt hit me training prayer. My alt still killed him and protect itemed dclaw with no other gear. I looted the dude who died on my prayer training account,Roll_The_Nice,4b23ng92,fj9o6p9,Lol bro,fj1zayu,ClockworkSalmon,jdp7z
"Elites are much easier though but I guess youre right, just figure ya gotta trade them in with hards / easy / norms. If someone truely has 17k",Roll_The_Nice,4b23ng92,fj9o0hp,">1000 masters may seem too much

Saw some dude stack up 17k elites on rs3, and they are actually surprisingly more tedious than on osrs. He might have legit affected the price of fortunate comps by a small degree with them.",fj3ha40,SolaVitae,169d6j
"nah i mean it wasnt a clan clan it was 3 ppl but I dclaw specced one of the ones saying sit. I am a cheap safer, Dclaw + supercombat food and pray pot, no risk. I still died but I had no risk and my prayer training account looted some of his stuff since they couldnt attack this account.",Roll_The_Nice,4b23ng92,fj9nwpy,U Dragon claw specced a clan?,fj1zqhs,tewchainzzz,pj4w7
Once you try it a couple of times and after watching guides.. if you have trouble come back and read my tip. Its something that makes more sense later on after afew attempts.,Roll_The_Nice,4b23ng92,fj1sjel,"Good to know, thank you!",fj1sbwp,Hobodaklown,11luml
"Same, glad its not my internet",Roll_The_Nice,4b23ng92,fj1rzrl,"I see 1 pixel. So no, downvote.",fj1rup3,professorpuddle,21mnhb5n
I wanna be alive when this happens ya know,Roll_The_Nice,4b23ng92,fj1qyod,*You underestimate my patience*,fj1qqkj,Kree_Horse,11gyl95
"I just wanna give ya two major tips for noobies. 

1- If you are in the acid phase, don't be afraid to walk over the acids. It's better to take 10 dmg walking over acid than 100 dmg by stop moving.

2- Again for the acid phase, make sure you change direction on the path before you reach the end. If your character is 3 steps away from the end then just click to the other side. It takes the game a moment to register that you clicked away.",Roll_The_Nice,4b23ng92,fj1q2kt,Sweet thanks! I plan on taking range up up 85+ at the green dragons. 87 it is then.,fj1njca,Hobodaklown,11luml
"more like ""you're beginning to sound re-dickhead-ulous""",Roll_The_Nice,4b23ng92,fj1mmhd,"""Come to think of it you look kinda like him""

""Listen I'm sorry about your car but you're beginning to sound ridiculous""",fj19yhh,maleorderbride,4zya8kjk
"I mean I wouldn't be offended, I would think we had a miscommunication.",Roll_The_Nice,4b23ng92,fj1mb6r,"Its kinda subjective i guess, if you are wanting some food it would be offensive if someone offered you dog food",fj1m2yh,just_JamesD,4krq3sci
Isn't it food to like raccoons and stuff?,Roll_The_Nice,4b23ng92,fj1ly26,I dont think rotten food is still considered food,fj1liav,just_JamesD,4krq3sci
lmao,Roll_The_Nice,4b23ng92,fj1lu4h,I wish I were taller.,fj1lpqv,PatentGeek,23w0626y
I'll make sure its the edible food not the rotten food,Roll_The_Nice,4b23ng92,fj1lgb1,I really thought about this one,fj1las2,just_JamesD,4krq3sci
:D,Roll_The_Nice,4b23ng92,fj1l8kr,Food,fj1l0bu,just_JamesD,4krq3sci
I was going to bring pizza but there are no pizzerias nearby. Its actually the same thought as me.,Roll_The_Nice,4b23ng92,fj1l3vl,"Pizza, it's delicious and easy to share.",fj1koo6,SanchoTheMad,5sjcfcwl
Yea but have you also read what they wrote and responded immediately with a paragraph of your own? Then them responding instantly aswell?,Roll_The_Nice,4b23ng92,fj1iw7e,"I've replied with seconds to something someone commented on because I had the phone in my hand and got the notification, so it's not too unbelievable.",fj08frn,OskeeWootWoot,3xvfr8b0
"yea but they will either finish the pee and be soaking wet, or they will run away while peeing on them selves",Roll_The_Nice,4b23ng92,fj1hup1,And then you have pee all over your driveway.,fj17qya,OG_Panthers_Fan,382sebpi
yup. I hate karma whores. I love titties tho,Roll_The_Nice,4b23ng92,fj1hg3y,"Yeah I'm not buying it mate. Stop karmawhoring, it can be seen from the way you type that you know what's up with Nieve",fj1ftld,Kepsa,16omjh
Washington is run by Mexicans!,Roll_The_Nice,4b23ng92,fj1h2tu,I thought Mexico was paying for this glorious wall?,fj0lmeo,mr-slippy-fist-2019,4eedwxoc
I wouldnt do it but I wouldnt be surprised if someone who did catch Coronavirus ends up trying to sneeze on the people responsible for allowing it to get in here.,Roll_The_Nice,4b23ng92,fj1ge58,"Irony:

The base of the GOP are mostly in the +65 demographic, the types who are most vulnerable to the virus.",fj0zn26,Zuldak,czrlt
Why didn't Obama radicate it in China? He allowed it to manifest!,Roll_The_Nice,4b23ng92,fj1fvm4,Also they're going to convince these poor people that Democrats are responsible for the infections,fj0xdjb,pencock,3zyfx
"Bro, stop taking it personally. You have sex congrats move on buddy. Other guy too... who cares if he has sex. I wish I was having sex right now. I wish sex was like a sport and people go outside and do it just to do it and ask me to join it but always pick me last due to performance issues. Shit man... yall need to keep your personal lives off the internet.",Roll_The_Nice,4b23ng92,fj1f847,Because I would lol. If my girlfriend was 300km away I would travel to have sex with her. Wtf is your problem seriously?,fj08k50,Swiftroph,3y7aexb7
"I was doing bones in wildy training prayer... little level 70 gets killed by a clan, I wasn't gonna do anything till they trash-talked a guy who had no items just bones. I logged my alt on top of where the dude was as I talked to him \[He couldn't hit me\]. Straight dragon claw spec the boi and he died lol.",Roll_The_Nice,4b23ng92,fj1elbc,"I died to a 3 man team in lvl 50 wilderness, while doing my clue. It was funny they trash talk me with a “sit” and “ez” before I died and dropped a few runes and spade.",fj198c1,Pedset,13v86c5c
"That was my first conclusion aswell. Then I reached drog, now I read this so it just confirms my first conclusion.",Roll_The_Nice,4b23ng92,fj16bxy,Frog and dog = frog,fj0huve,xelle3000,17avcy
acting like we not doing this rn. We just needed reminding,Roll_The_Nice,4b23ng92,fj155pg,Searching boobs on Google images,fj0ectc,jcon1232,38dlehqc
I think he means the hacker wouldnt put him back in Falador. The hacker would just go to a bank trade stuff and leave account there.,Roll_The_Nice,4b23ng92,fj0sk9a,Unless his respawn is falador.....,fj0oul4,Sativa_Dreams,rddmg
say you want to put your peepee in her puupuu,Roll_The_Nice,4b23ng92,fj0s1ra,Update: She doesn’t remember speaking to me before ... 😂,fj0eptl,CommercialGarage7,5j6242aa
So you want this man to never get paid or something?,Roll_The_Nice,4b23ng92,fj0rr8z,"The police that committed this act should go to jail, and pay the settlement out of their own pocket!",fj0kikb,Money_Stackz,fi6c1
Personally I am fine with people using safer gear. Thats what people did back then. I remember doing Bandos Tassets with Fighter Torso and Neitz helm.,Roll_The_Nice,4b23ng92,fj0qzfc,"There may be argument for that if somehow everyone had absolutely perfect internet and the game had perfect servers. Otherwise, it would pretty much never be worth the risk to bring max gear because of how expensive it is and any game that dissuades the use of high end gear doesn't seem very well made to me.",fj0qhp7,curtcolt95,7moxd
why are you trying to make this post about yourself?,Roll_The_Nice,4b23ng92,fj0pyf6,Noob,fiyw3z5,Gandalf-thewise,55bsfaym
This is America! I can splooge wherever I want!,Roll_The_Nice,4b23ng92,fj0porw,"Probably using Nord VPN! Nord VPN protects your private information by using remote servers! Nord VPN!!!!

However, Nord VPN only protects your computer's information. Does not protect you from the following:
HIV
Gonorrhea
Chlamydia
HPV
Herpes
Syphilis

Use Nord VPN! But also don't splooge inside a stranger's baby making factory!",fj08fhf,NaterBater2011,59vmdump
oh ok I didn't know this,Roll_The_Nice,4b23ng92,fj0ot42,"Her answer was a bunch of 9’s. Nein means no in German. 

They sound the same. It’s a joke.",fj0o9tw,creepyposta,2xjxzi35
the joke went over my head bro,Roll_The_Nice,4b23ng92,fj0o19i,Did the joke go over your head? Or did you get triggered without trying to understand it?,fj0nviw,creepyposta,2xjxzi35
Whats wrong with being German bro,Roll_The_Nice,4b23ng92,fj0ndbs,"I hope she wasn’t German, because she said “nein” more times than Hitler 


https://youtu.be/xoMgnJDXd3k",fj041qc,creepyposta,2xjxzi35
Nice.,Roll_The_Nice,4b23ng92,fj0mruw,Nice.,fiz8gmc,nickstyopa,2w036cli
"This, put some smaller versions of the boss outside of it. Like outside the bear cave are a whole bunch of Furious Bears combat 150 or something.",Roll_The_Nice,4b23ng92,fj0lzco,"Put Callisto in a bear cave, would be cool",fiyvtru,Iggyxx,sxmcmiw
clapped like when the credits show after a great movie,Roll_The_Nice,4b23ng92,fj0l8jf,clapped em like a pair of bongos,fizwn1l,Jeferson9,x6s0t
"you're lucky they didnt telegrab your ass

edit: keep my likes at 69 or below pls thanks",Roll_The_Nice,4b23ng92,fj0l3qc,Acorn and I were laughing about you guys watching us through the Farming Guild window.,fj0kn8u,JagexGambit,1pt93z1g
"so dont use max gear? High Risk for High Reward? Take what you can risk? Its not like only you are forced to play safer, everyone needs to play smarter.",Roll_The_Nice,4b23ng92,fj0kqwb,"My only issue with thinking about how it was in the past and wanting that back is that the game is so different now. Losing max gear back then would be nowhere even close to as catastrophic as it would be now, the amount of time lost is way different and why I don't think super punishing deaths have a place in the current osrs.",fiyuy2w,curtcolt95,7moxd
so turn the compass too you moron!,Roll_The_Nice,4b23ng92,fj0k9r0,Dude my phone is getting bombarded with have you tried turning the camera. Do people even understand what a compass is,fizvbsf,rednekdashie,11lx9r
dude wants to farm but is afraid of the sun,Roll_The_Nice,4b23ng92,fj0ju97,"Can confirm, 90 farming, haven’t had an issue with him once. 

Honestly he seems like a decent bloke.  Maybe he’s just interested in farming and doesn’t have the self confidence to ask questions.",fizmmll,ian_dav,2nefc2ip
it could if you aim the gun backwards,Roll_The_Nice,4b23ng92,fiy24qy,Cant hurt to shoot your shot. Good luck,fiy08x2,Kylekub,mlf1v
guess which post came first?,Roll_The_Nice,4b23ng92,fixw30s,[Cool story bro.](https://imgur.com/a/BWcsEIK) What about the Bernd Leno AMA which is very cool imo.,firhc3m,neopran,4a9jo
when Mustafi gone so will be the memes,Roll_The_Nice,4b23ng92,fixuaj7,"ahahahahahha what the fuck

edit: And of course it's Mustafi chirping him lmao",fiup9m2,varro-reatinus,t1sqc
"oranges are fruits, not vegetables. Trump is a fruit",Roll_The_Nice,4b23ng92,fixl09i,I'm pretty sure trumps looked in the mirror,fix3csm,katatsumuri89,3banc2my
the bird can't do either of those,Roll_The_Nice,4b23ng92,fixjjul,I inhaled,fixedwl,GiveNobushiSomeLove,3sgk8dcw
"sometimes simple is better, the game was hella fun.",Roll_The_Nice,4b23ng92,fixf5zw,"In my opinion, pvp has the steepest learning curve and it’s an optional part of the game (i.e. you can max without any pvp). Therefore, I do not like that skilling related rewards are locked behind what seems to be pvp-related activities. 

I have not played Stealing Creation so I’m not familiar with all of the mechanics and dynamics of the minigame, but in its current form this looks like a pass for me personally.",fiuyyvv,ShapersB,lmyh0
As I agree with you... I honestly believe Trump bought all of the Republicans on the senate. No other explanation for them to do what they did on his impeachment trial. I would love the corruption from both sides to become unraveled.,Roll_The_Nice,4b23ng92,fixcrbd,I find it weird that this is not a bigger story. I figured if someone was potentially buying people into politics (his words) then I would want to know who specifically. That means the DNC is bought or can be bought. Which is messed up.,fiu0q3k,Chutzvah,9aay0
I would do it too. No scam. Just give me the GP first,Roll_The_Nice,4b23ng92,fix9sjp,If you give me the GP to do so I will. I cannot guarantee I will complete the task within 30 years,fiw7tgh,zzzzz94,mvbpo
when do you lose your soul though?,Roll_The_Nice,4b23ng92,fix79ij,"should start at a mind rune, be blood rune at 77+, death rune at 90+ and a mind rune again for 99",fiwjqpj,feruminsom,4ghkmjf1
hopefully it aint the constipation type of poopin,Roll_The_Nice,4b23ng92,fiuv351,If castle wars had a couple tweaks or maybe like a world you could buy in with like 10k for some type of risk rewards or something it would be poopin!,fispq76,25_buttholes,16o3iy
"yea but thats also money spent on bonds for nothing. How much time and money is a person willing to waste to pay for bonds and then get banned and change IP, remake account repeat?",Roll_The_Nice,4b23ng92,fiuq6pv,"It's extremely easy to change your IP.  It'll probably take the JMods more time to ban every account on that IP, than it'll take for the people disrupting to change their IPs lol",fitmp7z,ISmokeIrit,95ab5
"no like if you have a 1 dose, a 2 dose and a 1 dose it will make a 4 dose. I actually looked this up but didnt know this",Roll_The_Nice,4b23ng92,fiupqoz,"Are you talking about combining your potions? Like if you have a combination of different doses of the same potion that you want to make 4 doses? If you are, then the NPC south west of the GE booths can do that for you for free. 

If you’re talking about filling up your 1-3 dose potions, then no. It would be OP to turn a 1 dose prayer potion into 4 for just 50 GP.",fiulvb0,Ramo029,xcai3
Maybe because Twisted Bow price could skyrocket if they all get bought out,Roll_The_Nice,4b23ng92,fiupnl7,Why would we need to know?,fiuoago,Starsaber222,wkffd
I am explaining what they said.,Roll_The_Nice,4b23ng92,fiuezut,"That's a completely unrealistic thing to happen 

You expect the game to go on a random shopping spree?",fiuenzy,BillehBear,hvmb7
"no, the seller gets the money from the tax. So like lets say GE removes 1trillion from the game at the end of the year. From that 1 trillion they buy 3rd age/dragon/abyssalweaps/gilded/twistedbows etc. So instead of remove 1 trillion gp from the game, the 1 trillion stays but 1 trillion in items gets removed. Or maybe they can do half and half for 500 billion.",Roll_The_Nice,4b23ng92,fiueh5i,"> The seller gets paid as normal, and the game destroys the item.

Either I'm reading this wrong or this means the buyer gets fucked over",fiudgor,BillehBear,hvmb7
how would we know which items get bought though?,Roll_The_Nice,4b23ng92,fiue9vk,That doesn't sound too terrible. I wonder about the implications of such an update.,fiu76ns,KN4MKB,2r7i73hf
Team Fight Tactics is sorta like Battlegrounds for Hearthstone. It will take getting used to but you could also upgrade a unit 2 times instead of just once by buying 3 of the unit 3 times.,Roll_The_Nice,4b23ng92,fiudew2,"TFT aka Team Fight Tactics is League of legends universe based autochess game. Also there is that league of legends card game coming, called legends of runeterra, that seems promising. Can't really comment on either tho.",fiub0u6,IIALE34II,mreaw
This guy has the gal to correct urban dictionary?,Roll_The_Nice,4b23ng92,fiucqkz,"It should be glow though - glo is like the incorrect, urban version.",fit56vk,ignotum-femina,5dj7ljcx
yea but lets say you wanna swap out water runes for earth runes or something this is better for swapping,Roll_The_Nice,4b23ng92,fibahvc,"No one said this yet so figured I’d chime in, you can just use the runes on the rune pouch in your inventory!",fialbfl,Moozique,176kbmr6
i mean if ya wanna swap just one rune out the interface is good. instead of emptying everything,Roll_The_Nice,4b23ng92,fibafg6,"That's awesome! But in my case I don't even open the interface, I just empty it and use the runes I want on it xD",fiaba5j,henechi,2ibg89
Level 2 def req.,Roll_The_Nice,4b23ng92,fi7ewtc,No def req. Mandatory.,fi6vaol,LieV2,dgrq7
"I always wanted a passive prayer buff. Like for instance.

Passive: 10% of damage restores energy

Passive: 10% chance to heal 10% of damage dealt

Depending on your prayer level means you can have more then one active at a time. After selecting your prayers you cant swap out since activating your maximum amount of prayers drains your prayer. Using an alter deactivates it and lets you select between the prayers again.

I know they seem op but protect from melee literally reduces all damage dealt from physical attacks. These prayers wouldnt be useable along side protection prayers.",Roll_The_Nice,4b23ng92,fi7eoim,"Turmoil and those leech stat prayers might be fine, but Soul Split would be way too powerful in OSRS-- especially with 1-tick prayer flick being a thing.",fi7dcgf,Pancayk,3lfvvekg
he just wants us to feel better for never hitting above 75%,Roll_The_Nice,4b23ng92,fi7e64j,Sounds like communist propaganda but okay,fi7dyzo,Minathus,17skvk9x
just ask her if she wants to fuck.. atleast she can respond with a yes or no,Roll_The_Nice,4b23ng92,fi3szdn,"Good to know, for my next match in umm 5 years?",fi32eds,NivTheGever,10rrs5
Master CLue,Roll_The_Nice,4b23ng92,fhm3v9h,"The thing is, why would you want to smuggle weapons there haha",fhkkkdo,JassimAlrayyes,33i5w3s6
"100% this, his muscles are definitely different then everyone elses.

I feel if I can describe Shaqiris playstyle in 3 words its ""Burst of Power"" but his body just wasn't ready for the training to get to 90 min games. He is still great as a power sub just not as efficient in 90 min games.",Roll_The_Nice,4b23ng92,fhln2w4,Reckon the intensity of Liverpool's playstyle is just too much for him.,fhkj8fk,iiEviNii,emw8n
Hey bro thats a good work around but no reason for the bm,Roll_The_Nice,4b23ng92,fhlcbx4,"Let people sacrifice extra assemblers for a re-fight too?

Not really a con if you think about it for 15 seconds.",fhithew,_Charlie_Sheen_,7cml9
"who cares bro, Jagex legit killed a cat in the game themselves",Roll_The_Nice,4b23ng92,fhhqlet,">absolutely gutted

>catdeath6",fhhpwwb,a_non-e_moose,iffd3
yea I dnt use melee really. my bad my points is just that Jad was easy for me Galvek was harder,Roll_The_Nice,4b23ng92,fhhlaif,Lol you had 99 range and rigour before getting the fire cape??,fhhkq10,xAntithesis,15pxd2
im lazy but my point is i had 99 range and rigour for both but the Galvek was harder to me. Thats all,Roll_The_Nice,4b23ng92,fhhl4lz,"You're probably baiting, but you didn't get a firecape until after you had 99 ranged and rigour, and you're bragging about that? lol",fhhkwgg,BigSaladMan,jo8o8yr
"bruh Jad took me 2 tries. First try I didnt read a guide on his attacks. 2nd attempt I just tossed rigour and melted him with blow pipe and 99 range ignoring healers. Shit if I knew I would of brought like 60 dragon darts and loaded blowpipe with that before the fight aswell.

edit My point is it took me 15 Galvek tries and 2 Jad tries with same stats",Roll_The_Nice,4b23ng92,fhhk99a,"Took me two tries for Galvek, and I died the first time due to scratching my balls. 

Jad on the other hand, took me closer to 15 attempts.",fhhiubc,VenezuelanTaskmaster,4yyrlok4
"Its kind of an impossible task. Just in sports Xhaka and Mustafi \[both Arsenal players\] made it public that the criticisms are too much and that they have received death threats, Xhakas unborn child was wished death upon by ""fans"", after making public statements, Reddit posts seen, all the fans reading it and many agreeing that we need to stop that nonsense.

After all that, on a match thread Mustafi \[who has played pretty decent recently\] made a small error and a Redditor posted threatening to shoot him with a rifle. No lies I saw this, the comment got deleted due to reporting. It's not that everyone is like this, not all sports fans, religious people, etc.

Now that is a sport... lol imagine something like religion or politics, where people have died for defending both. I can't expect people religious or nationalistic people to behave more civilized than a sports fan. If a sports fan does that shit I really don't expect more from them. Of course, I would like a change, but it's damn near impossible, if anything maybe toned down or less crazy but you won't ever get full removal of crazy.",Roll_The_Nice,4b23ng92,fhhjssf,saying “it is how it is” is dismissive. Why can’t we work together to fix these problems instead of tolerate them?,fhhitf5,Asswithamouth,4af0wa20
"I am not disagreeing with you but what I am saying is its how it is. Go to Shkodran Mustafi's Instagram, he is a footballer, go find the post about his DAUGHTERS birthday. Has nothing to do with soccer, he has death threats in that post, he blocked comments after and he has done NOTHING wrong other than play bad soccer. He got death threats over a damn sport. Now, what do we expect people will do about religion? Again she can say all she wants about the religion that's her choice and I respect that but I don't agree with a violent response but the way the world is now it's expected.

edit: Any time there is something a person spends an absurd amount of their time doing something or paying attention to is when they are willing to go crazy and say dumb shit. Religion, sports, music, politics etc. That's why I tell people to relax and stop worshipping people/objects or at least don't take it out on others for not worshipping the same things as you. You may like an athlete or religion it doesn't mean I have to but it doesn't matter people will still go about doing it.",Roll_The_Nice,4b23ng92,fhhibpd,"Firstly she responded to a Muslim who talked shit about her sexual preference. So in that sense, he should have ( by your logic) expected her response no?

Secondly, backlash is fine and is to be expected. Death threats are not.",fhgxz78,Asswithamouth,4af0wa20
"she opens up the mystery box

*drum roll*

its a penis!",Roll_The_Nice,4b23ng92,fhfctfv,Take the mystery box,fhf5x8h,Mrpacco,11wysd
"as a Muslim, idc that she hates the religion or that she is lesbian. She does whatever she wants with her life, but let's be real, people will react with hate over anything these days. If I came out and said ""Trump is shit"" people will hate, ""Eminem sucks"" ""Liverpool sucks"", you cant come out and be negative towards anything and expect 0 response... its expected that she got hate, I don't think she deserves the hate but she should have expected it. Athletes get death threats for having bad games, imagine how some would get over religion. Again, I am just saying that it wasn't unexpected.

In the US they have separation of church and state because they know people can be influenced by religion easily and it can lead to wars. It's dangerous when a person gets worshiped like a God, look at Hitler and Trump.",Roll_The_Nice,4b23ng92,fhfbt85,"Some things to consider :

* she's 16
* she didn't insult any people following a religion, but a religion itself and its symbols. French constitution is rather clear. By doing precisely that she did not cross the line into racial/ethnics slurs, although it would have been a very easy slip. You can say ""Your religion is shit"" (which she did), you can't say ""You are shit because of your religion"" (which she didn't).

On another note :

* she speaks rather well when defending her case
* she's pretty and openly gay, which only fuels haters' hate",fheeaj5,kasp63,l96cckf
Ryan Seacrest is alive,Roll_The_Nice,4b23ng92,fhfa8po,I think he’s making a joke about when (I think) hulk hogan made a comment about bam dying instead of Ryan.,fhf0zt4,dankbudzonlybuds,aqf88nu
[its a shlordian tuna. This is a close up of its face](https://images-wixmp-ed30a86b8c4ca887773594c2.wixmp.com/f/7b63ee71-8071-4c6a-88d3-5b360e43b9cf/d6ongyw-6e27617a-53a9-453d-a327-73e4cbf7ae6c.png?token=eyJ0eXAiOiJKV1QiLCJhbGciOiJIUzI1NiJ9.eyJzdWIiOiJ1cm46YXBwOjdlMGQxODg5ODIyNjQzNzNhNWYwZDQxNWVhMGQyNmUwIiwiaXNzIjoidXJuOmFwcDo3ZTBkMTg4OTgyMjY0MzczYTVmMGQ0MTVlYTBkMjZlMCIsIm9iaiI6W1t7InBhdGgiOiJcL2ZcLzdiNjNlZTcxLTgwNzEtNGM2YS04OGQzLTViMzYwZTQzYjljZlwvZDZvbmd5dy02ZTI3NjE3YS01M2E5LTQ1M2QtYTMyNy03M2U0Y2JmN2FlNmMucG5nIn1dXSwiYXVkIjpbInVybjpzZXJ2aWNlOmZpbGUuZG93bmxvYWQiXX0.O7icnfQ4d2X2sVuTZPw3G5vgMbUmHc8650juNg5g17U),Roll_The_Nice,4b23ng92,fhehtwc,Anyone know what kind of fish those are? They have really freaky heads,fhehbp5,gleaming-the-cubicle,xw5d1
a kick is also when a foot hits something,Roll_The_Nice,4b23ng92,fhc90wx,it's known as the kick.,fhb57za,Sowhatimdrunk01,1l0en5j
"damn, you really gonna leave Reddit to get some more uncle Dimitri pounding?",Roll_The_Nice,4b23ng92,fhbqet2,That’s enough Reddit for me today,fhbox6k,ksmith05,gdzln
6 feet 2 inches long 200lbs each,Roll_The_Nice,4b23ng92,fh8089a,I'd be mad too if I found out he had 6 feet.,fh5e2nx,Atomic_Chad,4dicl8u4
