child_body,child_screen_name,child_user_id,child_tweet_id,parent_body,parent_tweet_id,parent_screen_name,parent_user_id
"In my experience controllers’ look / turn speed is slower than a mouse. This usually doesn’t actually matter that much but for the Eternal platforming sections it does, because you have to figure out mid-jump where you are jumping next, and even when you’ve figured it out you still need fast reaction times. And honestly the gameplay is shit when you have to deal with that.",Sayonara_Robocop,43kqkybr,fl6lz3w,What makes it harder though? I often play plattformers on PC with controller too because many of them are easier with controller. So my question is what makes controller the worse choice for the plattforming?,fl6lcni,lampenpam,mgfaq
"I have a controller and yeah it’s true. I mean, I don’t play on PC anymore so I don’t know for sure, but I used to and based on that I assume it’s worse on controller. Conversely, the shooting is fine. You can’t turn as fast but in my view that’s always made up for by greater immersion.  That’s my main reason for sticking with controllers. I tried to go back to mouse and keyboard but it doesn’t feel right anymore. Apart from In Doom Eternal where the platforming sucks ass.",Sayonara_Robocop,43kqkybr,fl6l5b9,"Am I the only one who doesnt mind the platforming? Its not that hard but if you do fail a jump you only lose a bit of hp. 

I heard someome say its much harder with a controller, is that true? Because I thought only shooting is hard with a controller.",fl6kib0,lampenpam,mgfaq
"No it isn’t nice. I am terrible at the parkour stuff so the game is almost unplayable, and that’s incredibly annoying given that the parkour stuff has no place in Doom anyway. They may as well have added in Pokémon gameplay.",Sayonara_Robocop,43kqkybr,fl66s3d,"The thing is that there is no ""getting good"" at it. The platforming is all basic shit. Nothing requires pinpoint timing or accuracy. The only part that was frustrating was one section near the end of the game but that is out of how many levels? Obviously it isnt going to be the same high octane gameplay as the combat sections but it is nice to have some breathing room every now and again.",fl66iqq,AlBeeNo-94,nkz2e5s
"No dude, it sucks. And if you aren’t good at it it means constant death and very boring repetitive gameplay.",Sayonara_Robocop,43kqkybr,fl6683y,"At lot of people are hating on it but man is it fucking awesome. Being able to zip around, jump off monkey bars and hit mid air shots is a blast. And honestly after beating the game and getting over 90% of the collectibles none of them required that much luck/skill. It just involves knowing timing and distance which only ever took a couple of tries.",fl5o4kt,AlBeeNo-94,nkz2e5s
"For me that is the absolute high point of the Kenny Rogers skits, closely followed by the Kenny Rogers and James Brown cooking show. Me and my friend watched both last night on KR’s honour.",Sayonara_Robocop,43kqkybr,fl4z3m3,"Kenny Rogers psychic hotline is fucking gold

https://youtu.be/bf8g7qD8_HA",fl472y1,havenless,91gxh
Who are these people?,Sayonara_Robocop,43kqkybr,fl25lnr,"Awesome, she might fuck around and get a vote from me yet as she's intelligent enough for me to assume it was a conscious phrasing choice. I'm gonna make some popcorn and go read all the tears of salt on SkyKiwi.

**Edit-** The nuòfū morons of FML have taken a break from showing off their toilet paper stockpiles to come through with extra salt over the great disrespect shown to the motherland.

https://imgur.com/E555XCA",fkzyods,Muted-Kangaroo,5rcyd3v8
"Yeah what an asshole, he's worse than Hitler.  Never mind that you have no idea what ""a shitload of stuff"" even means, or whether this guy bakes his own bread all the time!  Based on no reliable information at all, we should lynch him!",Sayonara_Robocop,43kqkybr,fl0h1kp,"> (cartons of yeast too, the fucker).

That is such a fucking cunty thing to do. What a cunt.",fkzuste,NZStreetTV,g6k2v32
Yeah that's pretty much what I just said.,Sayonara_Robocop,43kqkybr,fkz6586,Nah I think I'll go eat some of the chickpea curry I made last night and go back to feeling smugly superior to people who eat dead corpse.,fkz5q5n,bela-lugosis-bread,3vvzmpba
"> I never did get a copy of the PC rulebook..

But I see that you received your copy of The Edgeord's Bible.",Sayonara_Robocop,43kqkybr,fkz6058,"I'm familiar with that sub. However, I don't care what people think, and I'll keep doing whatever I want within the constraints of the law.

I never did get a copy of the PC rulebook..",fkz3kde,brad35mm,1t8t2bzq
"Thanks for that, now I guess you can go back to huffing your own farts.",Sayonara_Robocop,43kqkybr,fkz5lrk,"Y'all know you could just live without meat for a bit (or your whole life?) rather than clogging your freezer with the stuff, right?

But yeah nah that's cool keep wrecking the climate and killing animals for funsies.",fkyslrz,bela-lugosis-bread,3vvzmpba
For some reason this phenomenon (queuing outside) appears to be mainly a feature of Pak n Save. I’ve got three supermarkets in my area and the queuing is only happening at Pak n Save.,Sayonara_Robocop,43kqkybr,fkz1dcw,People queued around the outside of Pak n Save Wairau this morning. At 6:30am! Insane.,fkynn9l,SknarfM,c1vgk
"Yeah, I don't want to oversell it.  That's how it's been for me so far, but I think everybody is different and it might require tweaking of medication and additional steps for some people.  I'm pretty sure that once you get the meds right you will feel curiously unburdened though.  One other thing: I now experience the sensation of feeling calm. Properly calm, not the slightly tranquilized version that alcohol and benzos provide.  That has been a revelation.",Sayonara_Robocop,43kqkybr,fkywlf1,"That sounds great!  I'm not expecting miracles, just for the world to make a little more sense.",fkytae9,AnyaSatana,ipx8i
"I accidentally added to my own snark by mistyping ""Yeah"" as ""Yah'.",Sayonara_Robocop,43kqkybr,fkypigd,I do love your low level snark regarding a little while ago.,fkyo9d1,RunsWithScissors79,55qprydh
"Yeah it closed a little while ago in 1991.  I have fond memories of that cut rate Rainbows End, but it was also essentially a monument to health and safety violations.  My favourite was the roller coaster which caused you to bash your head on a metal bar every time it stopped.",Sayonara_Robocop,43kqkybr,fkyin43,..it was closed?,fkycbyp,TreeBearOne,13jn12
Can you recommend any reading material about that?,Sayonara_Robocop,43kqkybr,fkycetq,"for those who are functioning ADHD...  learning and understanding ADHD is going to help you a lot.

Meds make it easier... but the real gain is being able to recognize your brains interference in your(mind) life and finding ways to teach it(brain) to do what you(mind) want... not what it(brain) wants.",fkxbfjh,Niith,9bmce
"It's correct, but it's sort of ""technically correct"".  Nobody gets charged with abortion as a crime in NZ.  In reality the old law just meant greater bureaucracy than was necessary, and symbolically sent the wrong message.  The practical result of the law change is just less bureaucracy.",Sayonara_Robocop,43kqkybr,fkv9p2c,"> While abortion currently sits in the Crimes Act, abortions are still carried out by exploiting a loophole. 

It's still correct, I'd say. And getting rid of such a regressive law makes it much harder for a terrible future government to close or invalidate the loophole that was being used.",fktfsjl,cassydd,5qilx
"I do get your point, but can you give me an example of other legislation where a floating time limit is tied to, essentially, “the latest science”?  That’s never going to be a clear standard that a legislatively prescribed time limit can be tied to. The new legislation isn’t flawed, it just represents the practical limit of coherent leglislative drafting. Also, you have expressed concern that once legislation is passed it is hard to undo it, but if and when it is clearly established that 20 weeks is no longer a valid scientific standard that will not require repeal of the law, but rather only a minor (in terms of alteration) amendment to the current legislation. That is not so difficult to achieve as repealing and replacing.",Sayonara_Robocop,43kqkybr,fktpe4b,"I feel no one in this thread has read the bill.

I’m using 20 weeks because that’s how the bill is structured - 20 weeks anyone can have one, and then exceptions are made post 20.

I’m saying the date of 20 weeks for ‘anything goes’ is an issue, because it’s based on the premise the earliest possible birth is 21 (and viability determines the cutoff age). Because viability continues to decrease in age over time as technology increases, a fixed date of 20 for anything goes is an issue.",fktkzaa,PmYourWittyAnecdote,g8o9p
I freaked out and bought 21 packs of nappies today and I don’t have any children.,Sayonara_Robocop,43kqkybr,fktbf31,Posting empty shelves encourages people to panic buy. Don't post this kind of stuff.,fkt00xk,Arodihy,6pf0ta9
"Hey now u/--Christ--, I don't see why you have to be so mean to the devil.  Let's try to all be a bit more inclusive. If metal is everyone's music, ""everyone"" naturally includes the devil.  I think you should apologize to the devil and then maybe invite him around to listen to some Iron Maiden.",Sayonara_Robocop,43kqkybr,fkp9z0x,"Nah man metal is everyone's music, fuck the devil!!!",fkomdiz,--Christ--,13w32t
"Yeah to be honest I think this guy is kind of a douche bag, putting people in awkward positions for the sake of his personal growth.  Go see a therapist, don't walk around asking strangers for weird shit.",Sayonara_Robocop,43kqkybr,fkoopcn,"One of the problems is that asking can, in many cases, be a fairly aggressive action. Now the person you're asking has to reject you. A lot of people will just give you what you want because it's less work than denying you and potentially dealing with whatever fallout there might be.

So it's not always the case of ""you could have had this if you asked"". Many times it's ""you forced someone to tell you no"".

Edit: This issue was explored in greater depth about a decade ago with [the influential discussion of Ask vs. Guess culture](https://www.theatlantic.com/national/archive/2010/05/askers-vs-guessers/340891/). It addresses how asking can impose on others while conversely guessing alone can lead to missed opportunities and be a little passive-aggressive. There really is no one perfect approach. You should strive to become good at both. Able to decline gracefully and speak up for yourself while avoiding imposing on others.",fkogj7x,Belgand,a7cha
"I gotta disagree with you. They are too annoying to watch. I tune them out and I’m sure I’m not the only one. I also don’t think they are necessary. No industry is more safety conscious than the airline industry, and yet no other airline does this. If Air NZ absolutely insists upon doing it, there is no need for it to be as terrible as it is.",Sayonara_Robocop,43kqkybr,fkmtfsa,"I gotta disagree. As cringey and irritating as they can be, they get the message across much better than most airlines. They're memorable too which is helpful in an emergency",fkmp92m,TurtlesCantSwim,136uu8pa
"> There are international treaties and laws that ban cruel and unusual punishment.

Tell that to the monsters who make the Air New Zealand safety videos.",Sayonara_Robocop,43kqkybr,fklub0n,"There are international treaties and laws that ban cruel and unusual punishment.

Just waterboard them, it would be less painful.",fklu1zy,SirDerpingtonV,es68r
"I smoked some once and suddenly it was the 1970s, my friends were now my parents and they were chopping me up some carrot. The wall in front of me was now the ceiling. I had psychic powers which were causing me to accidentally make the picture on a girl’s t shirt move, for which reason she was accusing me of sexual harassment. I was trying to apologize but I had no voice.",Sayonara_Robocop,43kqkybr,fkidp1f,"I got some 60x from the flea market lady that sells pipes and such. Loaded a bong bowl, took a big hit, and as I exhaled, gravity started pushing on me from sideways. It felt like the chair I was in was trying to become one with me, and as I scooted off the chair and onto the floor, it felt like detaching myself from it. Then, the lady on TV was yelling at me in some language I couldn't understand, and I'm all like, Sorry, but I don't even know what a vreppen yancer is. Then I looked up and I knew I was a toy in some toddler's toy box, and I saw him recognize that something was different about me than his other toys and as he began ambling over towards me with his face all alight I thought, Oh no, I don't want him to put me in his mouth! But before he could get to me his mom came and picked him up and carried him away. He started crying and reaching out in my direction and I felt so very guilty. Then I started to come out of it, and I just sat there for a minute wondering if he, and the lady on the TV would forgive me some day.",fkhwtyt,Joe-Schmeaux,lpe7f
We will simply nuke the geese.,Sayonara_Robocop,43kqkybr,fkcrlrc,Who will eat the geese?,fkcq62v,coolcastform,496bfzkr
Ahoy hoy?,Sayonara_Robocop,43kqkybr,fkbmju3,"Maybe it's time to stop these travel-junket meetings.  We do have the technology to meet remotely - there's the electric telephone, for starters.",fkb5pzq,OddlyReal,vl78dr4
I used to live in the UK. Where my wife worked people used to call in sick all the time with “malaise”.,Sayonara_Robocop,43kqkybr,fkac2p8,"Yeah, but only ever in Australia/NZ.   Weird how it doesn't exist in the UK..",fka2ryi,3_50,9ylmi
"What exactly was it that ended at 17?

Edit: Why am I getting downvoted for a question? Typical Reddit.",Sayonara_Robocop,43kqkybr,fka1k4z,"It started when she was 7, and ended when she left for college at 17.",fka0pv2,comcamman,6fkts
"You've never heard of ""gastro""?  That's a reliable one day sickness.",Sayonara_Robocop,43kqkybr,fk9vqi3,"Pro-tip;  never take just one day off.  No bug lasts just one day.  It's seethrough and it'll bump you towards the front of the 'first to go when shit goes south' list.  

First day, everyone's thinking 'yeah yeah cunts probably just hungover, lazy bastard'.  Second day they notice but don't think much of it.  Take a third day off, then people will start to worry that you're genuinely quite ill.  

Then when you turn back up on day 4, everyone's glad to see you and thinks you just got over the bubonic plague. 

Works every time.",fk8k6l8,3_50,9ylmi
 No he wouldn’t. This sub is almost as nuts as T_D.,Sayonara_Robocop,43kqkybr,fk6y9un,Biden would also reverse roe vs wade...,fk6a8ji,Greencheek16,3trjs2ze
"""Some of my best friends are Maori, but...""",Sayonara_Robocop,43kqkybr,fk67eaf,"they've been singled out as the document that this was lifted from was from a OIA seeking information about the proposed changes at RNZ - the contents of the document (linked above) is vastly more interesting but not nearly as amusing

signed  
tell it like it is sports fan",fk64m28,bobdaktari,m82gz
"Except for the ones who don’t stop because there are two people standing near the front, after which the aisle is empty, but according to the driver that counts as full.",Sayonara_Robocop,43kqkybr,fk1hqou,The road works are impacting these services. Remember to be kind to the bus drivers - they are just doing their jobs.,fjzx495,ZeeMoss,cth3i
Was that person referring to you?  What's wrong with people?,Sayonara_Robocop,43kqkybr,fjvfzvn,"I just went to pak n slave... no discernible panic buying and a full range of shit tickets.

Although I had to bite my tongue when the white trash behind me at the checkout said rather loudly, “great, now we have to wait for this fuckin cunt”.",fjv6wju,_cbfilms,jjl3k
"I get that, but even the Slayer guys (and I’m a Slayer guy), they are basically nerds too.",Sayonara_Robocop,43kqkybr,fjn3twg,You can find out who the nerds are by asking if they're fans of Blind Guardian.,fjmrr82,alarumba,39b0l
Nobody said it wasn't happening.  OP just asked who it was.  Calm down.,Sayonara_Robocop,43kqkybr,fjmaij3,"My Asian mate got yelled at.   
Just because it hasn't happened in front of you, doesn't mean it's not happening.",fjlvfdz,happyinmotion,773o1
">  50% bogan

What people don't realize about bogans is that they are mostly nerds too.",Sayonara_Robocop,43kqkybr,fjma6ur,Tool fans are like 50% bogan and 50% nerds who want to like metal but think they're too smart for it unless it has fractals and complex time signatures and shit. So the IT industry is probably done for also.,fjlvr7j,fraseyboy,3xqh1
"My doctor said (about me, specifically) ""ADHD is the horse and anxiety is the cart the horse is pulling"".  One week into medication, he appears to be correct.",Sayonara_Robocop,43kqkybr,fjl7l3u,"Man, this hit me right in the gut. I too have struggled with anxiety and depression for the better part of my life , and only recently started taking meds for ADD. My therapists, and recently, psychiatrist, have always focused on my anxiety and depression. But only recently have I felt like things are starting to fall into place, and I'm pretty sure it's because of the ADD med.

I wish you peace and strength, as you sort this all out.",fjjexcc,TheCrankyBear,jfs5a
That sounds more like it.,Sayonara_Robocop,43kqkybr,fjl6aj0,Skin of his balls*,fjl4xnr,unknownman777,7tpfg
"Not a made guy, but a mob associate with a fairly long criminal record including prison time.",Sayonara_Robocop,43kqkybr,fjkz7ua,Wasn't Tony Sirico a made guy?,fjkq19g,drlove57,hyazc
"Paulie had some dialogue where he talks about how he got through some mobster strife in the 70s by the skin of his teeth, or something like that. That was actually the actor, Tony Sirico, talking about himself.",Sayonara_Robocop,43kqkybr,fjkz3a3,"completely!

there's a wild interview on YouTube with the actor who played Paulie Walnuts about his youth and his time in the mob.",fjkx64p,sharemilk,5it86v
"And that, my friend, that’s why you are always doomed to fail! I myself have spent several years developing a taste for dog shit, so you see, I cannot lose! Ha ha, you fool!",Sayonara_Robocop,43kqkybr,fjku75k,"Yeah, when in reality 30/70 isn't that far off 50/50. If someone told me that a box of 10 chocolates had 3 of the random chocolates replaced with dogshit, I wouldn't dare play dogshit roulette, I'd throw the box out.",fjkk2fd,nagrom7,h6lti
"There are a lot of articles with titles like that, mainly because Trump and Sanders are alike in the way that they are both party outsiders who ran / are running insurgent primary campaigns against the party  establishment, and who offered policies outside of the mainstream. Gower’s article is a bit of lightweight fluff, but it isn’t inaccurate as far as it goes.",Sayonara_Robocop,43kqkybr,fjii9bo,"Gower is such a fuckstain.  


His Current NewsHub Article 

# ""Patrick Gower: How Bernie Sanders and Donald Trump are the same""",fjg1xoo,NeonKiwiz,44nk8syh
“Just” is typically spelled with an s.,Sayonara_Robocop,43kqkybr,fjhkn4i,"I don't hate much...

but, I HATE being put in a box, or being told that the way I do something is ""wrong""

IT'S NOT WRONG IT'S JUT THE WAY I DO IT!

\*phew\*",fjghbny,Lucid5ag3,33ywk9
Where does it say she wasn’t feeling well upon arrival?,Sayonara_Robocop,43kqkybr,fjeypge,"So, having been to one of the countries known to have a high number of cases, not only did this person not go into self-isolation even though they weren't feeling well upon arrival, they actually took two domestic flights in the last two days and visited two schools.",fjetqqu,kookysoul,kat119u
I too support recycling (?),Sayonara_Robocop,43kqkybr,fjedran, ♻️,fjeb8jx,Jesus-I-Was-Evil,5ldnyahx
Knowing things and controversy are not mutually exclusive concepts though.,Sayonara_Robocop,43kqkybr,fje8fdj,It's not 'controversial' he's a plant - everyone knows this.,fjci311,Jesus-I-Was-Evil,5ldnyahx
He didn't just work for the Chinese Communist Party.  By his own admission he worked for the Chinese military and trained spies.  He is clearly a spy himself. It's just insane.,Sayonara_Robocop,43kqkybr,fje8a89,oh fuck,fjdu94p,SdKfz-234-Kiwi,3f7q2lhr
"Are you seriously going to say that about people who have been in Australia since they were toddlers? You are deporting your own people into a foreign country and pretending it’s ok, but it’s disgusting.",Sayonara_Robocop,43kqkybr,fjcr50g,NZ citizens are genuine Kiwis.,fjcael5,scrotesmagotesMK2,3q1vrqhp
"Yes, it’s a pretty sweet ditch in New Zealand.",Sayonara_Robocop,43kqkybr,fjcppd7,Is the Antimatterhorn on the other side of the world?,fjcijpi,fastjeff,6ywhp
What’s that supposed to mean?,Sayonara_Robocop,43kqkybr,fjc3gkb,Go back to sleep,fjbzf2h,BigCabbages,41cslvo7
"> Wendt and Ratzenberger have no artistic integrity.

Yes, not like those tacky airport bars.",Sayonara_Robocop,43kqkybr,fjbop44,"""The world is enjoying this thing I helped create but I'm not profiting off it anymore? Shut it down. Shut it all down.""

Wendt and Ratzenberger have no artistic integrity.",fjauh5f,Rodent_Smasher,6k44f
"I love Breaking Bad, but ""only"" 10.3 million people tuned into the final episode, and it doesn't have broad appeal like Cheers did.",Sayonara_Robocop,43kqkybr,fjbog7w,I know what you're talking about but I feel like there are still shows like that. Breaking Bad and Game of Thrones come to mind.,fjb7has,KingGorilla,4jj5x
"And what is the church's official position on dying everything green, leprechaun costumes, and getting drunk?  I'd say that those things have about as much to do with ol' St Patrick as having a known bisexual in the parade.",Sayonara_Robocop,43kqkybr,fjblq8v,"St. Patrick is celebrated by Catholics, and Catholicism isn't a fan of publicly being anything other than straight or celibate. Neither of these things is a secret. This story is as surprising as a butcher being removed as a spokesperson for PETA.",fjb0ymr,PuxinF,jzk37
"Yes, that was him.  The thing is, it's been brought up so much that it doesn't have any impact anymore.  I believe he was regarded as a future contender for Labour leader at the time, so his fall from grace was so dramatic that I think it kind of drained the scandal of any remaining newsworthiness.",Sayonara_Robocop,43kqkybr,fjbl87a,Was it him that had porn on his hotel bill a few years ago? That should be bought up more often,fjbgx1r,Kiwi57,h0ehm
"Not that it surprises me, but I hadn't heard that.  What have you heard?",Sayonara_Robocop,43kqkybr,fjbkzbn,And a drunk.,fjbei1m,ShaDoWWorldshadoW,bdu9r
I’ve owned one and used it regularly for four years; no sign of wear at all.,Sayonara_Robocop,43kqkybr,fjbizjc,"???

Literally all I hear about them is that they're made in china and way worse than they used to be for like at least decade now.

But I'm just some guy in the gas products industry under a different brand so I'm biased. Gonna get corona virus at hpba next week.",fjbfn61,MrTheodore,5xers
You should check out Blunt Force Trauma by Cavalera Conspiracy.,Sayonara_Robocop,43kqkybr,fjbido0,"If you need more Max, I highly recommend Nailbomb and Soulfly. It’s different than Sepultura, but a lot of it is really excellent.",fjazh3z,Fthewigg,r3od6a
That album is their best album.,Sayonara_Robocop,43kqkybr,fjbi93m,Dead embryonic cells is the superior Sepultura song,fjasxh1,gnilradleahcim,ypgk3gp
"Bernie isn't even a Democrat, so the DNC doing what it can to support Biden seems like a mundane fact.",Sayonara_Robocop,43kqkybr,fjb4e0v,"If they're still in the race they could take away some of bidens support, leaving sanders with the majority. So the conspiracy is that the DNC forced them to end before the convention so Biden can soak up all their supporters and hopefully beat Sanders.

I say conspiracy, but I think it's more likely than not true they're manipulating things. They've done it before.",fjaryjz,mrthewhite,lvk3s
"It's been so long since I've seen it that I can't remember very well exactly what's good and bad about it.  My recollection is that it successfully builds a world, and then squanders it with a meandering plot including a second act slump where he hangs out with kids in the desert who mistake him for a mythical pilot they worship.",Sayonara_Robocop,43kqkybr,fjb00f1,"I liked Tina Turner in it, just not in the context of everything else around her.",fjaymm8,AlreadySickof2020,5dc16nvg
He won that argument though.  The second bagel was equally delicious.,Sayonara_Robocop,43kqkybr,fjayvbl,"Trying to win a conversation with arguments like these instead of trying to understand the other person's point shows that you are going to suffer a lot if you ""loose"" to a stranger on the internet.",fjawu75,InsufficientFrosting,461d9xpn
Or those doomsday guys who sell all their property for virtually nothing because the world is going to end on Wednesday.,Sayonara_Robocop,43kqkybr,fjayoeo,Born-again Buddhist garage sales are the best.,fja7brr,toasterpRoN,j8ehj
"Thunderdome is flawed but it does have some cool stuff in it. Master Blaster, for instance.",Sayonara_Robocop,43kqkybr,fjawxne,"They don't really have an order except the first movie comes first and thunderdome is ""probably"" last. The other 2 (and any other movies Miller makes) can be in any order you want. They're less documentations of a ""real"" fictional person but stories of legendary person after the fact.

But skip thunderdome anyway, it sucks",fjatxj5,ADB963,qnlzn
"Well, that's true of the first film - it's not post apocalyptic at all, it's just that society appears to be breaking down.  The second film is clearly post apocalyptic, but that jump is quite jarring, even with the very brief explanation they give at the beginning of the film.  It's like if you watched *The Bourne Identity*, and then when you go see *The Bourne Supremacy* it's set on Mars.",Sayonara_Robocop,43kqkybr,fjasom1,"The old mad maxes had me so confused after seeing the newer one. Like it's barely post apocalyptic, it's just crackheads in rural Australia.",fjaqvd1,Hawt_Dawg_II,82w7zy
"> I only became aware of Grace through the drawn out trial coverage

Where were you just after her body was discovered?  It was the lead story on every platform for ages. There were candlelight vigils, it was a circus.",Sayonara_Robocop,43kqkybr,fjar8vy,"I’m very much of the opinion that crimes against certain types of people are more “media friendly”, and the way that these crimes are covered needs to be examined very closely. 

However, these are weird examples to make a point with. I only became aware of Grace through the drawn out trial coverage, something the other 2 didn’t have because of guilty pleas.",fj9iafl,PizzaReheat,fyp1by
Well you say that but you can't really prove it on the internet.,Sayonara_Robocop,43kqkybr,fjar0ik,"Idk, I've been a new Zealanders my whole life and I've never been murdered.",fjaj4p2,fauxmosexual,4l7ik
"Yes, because a little-known, unsubstantiated rumour is a fact.",Sayonara_Robocop,43kqkybr,fjamw4o,"This is like the perfect Chapelle skit. He rapes, but he also saves!",fja6eoq,Andoo,3bnvs
Yes. Emphasis on no luck with the ladies.,Sayonara_Robocop,43kqkybr,fj9146n,"I am picturing 10 short haired white dudes who have almost no luck with the ladies and blame their problems on all other races. 

Am I picturing the right people?",fj7zdie,muncherofhay,3zhs1yg
Well Pete’s gay so Pence may require a chaperone to accompany him to the debate.,Sayonara_Robocop,43kqkybr,fj90gsh,I'd be for it just to see Pete debate Pence in the fall.,fj8fyiy,ashok36,158ekg
That’s not possible in France.,Sayonara_Robocop,43kqkybr,fj8bmpc,Plan your trips better.,fj850m6,AntiSinoFascism,4zwbov55
">  and yet the mayor’s office still has piles of debris lying around even after 200 years, as if the bombs had fallen yesterday.

This is exactly the sort of silly complaint that made me unsubscribe from the Fallout sub.",Sayonara_Robocop,43kqkybr,fj81swb,"Exactly. They never seemed to understand that, at its core, Fallout was never a post-apocalyptic series. It was a post-post-apocalyptic series.

It was about how humanity rebuilds after things have settled down and not how people survive in wastelands. That’s why in the original games and New a Vegas you have these huge communities, each with their own forms of government and systems.

Meanwhile, I’m Fallout 4, you have people living in a stadium for decades and yet the mayor’s office still has piles of debris lying around even after 200 years, as if the bombs had fallen yesterday.",fj6ejce,Mesk_Arak,8zjo9
What would likely happen if they did?,Sayonara_Robocop,43kqkybr,fj55ntq,"It’s a shame that it’s true. Whenever I’m challenged about my view of “travellers”, I always invite that person to take a stroll near their site. No ones ever taken me up on the offer.",fj52uws,Double_Jab_Jabroni,11uus9
"> 16 year old high school dropout""

What’s the bet you’d find that to be far more relevant if she was spreading a message you disagreed with. Expertise and experience matter, and she has neither.",Sayonara_Robocop,43kqkybr,fj4okj8,"""We know damn well..""

Nope. I encountered a person as recent as last week who calmly explained why all this climate crisis stuff is alarmist and misguided. 

I don't know why you've chosen to characterize her as a ""16 year old high school dropout"" and I won't speak to your comment further, but you've chosen some interesting rhetorical strategies here and just pointing that out.",fj4e00q,elkevelvet,1421b6
"My Humps, by the Black Eyed Peas.",Sayonara_Robocop,43kqkybr,fj24ezc,"Much as I enjoyed and laughed at the song during the movie, I can't think of a better way to trivialize the death of a friend, even if they asked for it. It was played at the last funeral I went to and I thought it was just lame. That and any song from the Lion King at a funeral. Give me a fucking break. What next? The Parrot Sketch?",fj1wixi,aazov,ew3xg
"I once drunkenly tried to brush my teeth by chewing soap. It made me violently ill, resulting in soapy vomit breath.",Sayonara_Robocop,43kqkybr,fj1xep2,"Coward. I eat the bar of soap a day or so in advance, then be sure to time my shower right and just shit it back out over the plug hole. Cleans my entire digestive tract, giving me the world's most in-depth enema.",fj0ibba,Tattoos_and_vtec,9bebur
"Ha you douche, why the hell would I need to read in Copenhagen?",Sayonara_Robocop,43kqkybr,fj1w4lc,"That would have been the better detail. Since Planet Terror was directed by Robert Rodriguez.

EDIT: Reading comprehension is an important skill.",fj12l1s,JellyfishJamming,7ficz
"> you pretty much have her mother very involved as well. maybe even living in your home too.

Note to self: taser any approaching Polish girl and run like the wind.",Sayonara_Robocop,43kqkybr,fj0apmh,"Too but imo also: vast differences between cities and rural areas. Warsow ans Krakow are as liberal and open as it gets. Go to the countryside and you’ll have a different experience.  
  
Also, from my Polish friends I see that Polish people usually put a very strong emphasis on (big) family. If you find a Polish girl you like, you pretty much have her mother very involved as well. maybe even living in your home too. As homosexuality does not progress the thought of extending the family, it’s also down to this point.",fizrq0u,landingshortly,4plzv
"Typical, more bullshit propaganda from Big Article.",Sayonara_Robocop,43kqkybr,fj07tko,NO ONE READS THE DAMN ARTICLE. It says right in it that they're contacting all the people on the flight and asking the people on the rows in front and behind her to self isolation for 14 days. The risk is low because the victim wore a face mask the entire time and immediately seemed testing when they got symptoms.,fizu0yg,Shadycatz,u1vnq
Who elected you the mayor of Bubbletown?,Sayonara_Robocop,43kqkybr,fj07khh,Of course. I've got one rule. No farting in the bubble.,fizoipi,TheEpicRs,2gnyrz2m
"Hi, thanks again for taking the time to write all of that (please don't apologize). Yes, it is about goddamn time.  I have not previously heard of BPD but I've looked it up, and will look into it further.  My psychiatrist also recommended meditation (he did say that for ADHD people it was the equivalent of a very unfit person starting to go to the gym).  Ironically I've always found that going to the gym helps because there is almost nothing that quiets the mind so much as trying not to drop a dumbbell on your own head.  I did actually try meditation a while ago (before I got diagnosed) and (also ironically) I didn't stick with it because I couldn't organize the time to do it.  I will try that again also.  As to work, I've told my boss, because I had to, given that my productivity has plummeted recently.  I also told one close friend at work, who finds it amusing (not in a bad way) because to her it explains a lot of my personality, as well as my memory being like a sieve.",Sayonara_Robocop,43kqkybr,fj07bqz,"It may take some tweaking and patience and it may even take some more time to work on skills to get there. I may say, too, you're going to want develop a little bit of a sense of humor about your brain farts because they're not going to disappear and it's a lot easier if you can learn to think they're funny and not evidence of stupidity or laziness (bc they aren't!). Makes your day a little brighter to chuckle a few times, too. 

I find that my anxiety around social mistakes as well as any bits of imposter syndrome has gradually diminished, but I made sure to do the work on that too, it's not all meds.

I find I feel more confident in being able to gracefully NOT hide my difficulties. You may still feel terrible at some things! Meds can feel like magic, especially at first, but it's more about being able to deal with things a little easier and with more clarity.
You should look forward to being able to gauge those secret faults more accurately (you're probably way overestimating your own relative incompetence!) and hopefully with less insecurity because you know how to overcome them and are more able to do so.

In addition, way more people are understanding and don't even really give a shit when you're honest about what things are a little harder for you than you realize, so long as you can treat it as something casual and don't let them think they need to have some sort of response. Most of the uncomfortable ""I'm dealing with X"" looks & judgements stem from the other person not knowing if/what the expected response is and then second guessing your needs. Don't act like it's a problem and it won't be. Easier said than done I suppose, but hiding things is exhausting and takes up so much mental space -- mental space you need in order to make fewer mistakes!

I hardly get a second blink if I have to say ""Oh, geez give me a sec I've got some verbal processing shit"" with a little chuckle and a little ""crazy"" hand signal and keep moving. A lot of the time people will even let you know they relate!

I'm sure it's a little different as an attorney in the workplace; I imagine you probably feel pressured to give an air of absolute confidence and ability constantly. 
That's gotta be incredibly hard to navigate and I'm not surprised you've developed such insecurity. 
I would be willing to bet at least every 3rd person you've ever worked with has imposter syndrome, and it's likely the people you'd least suspect of it. 
You don't need to go around airing all your difficulties, but I wonder if maybe you don't need to be so afraid of constantly trying to hide little mistakes or what extra time you've put in as if you're going to be ""found out"" and completely discredited. I guess I don't know too much about how things work for your job, but quick responses, a little honest humor, and developing some good communication skills goes a long way to slowly becoming less afraid of what mistake you're going to make next.

The thing that has really aided in treatment & maximizing the medication the most for me has actually been DBT. It's usually used for BPD/OCD/self-harm recovery in group settings, but I cannot stress how absolutely incredible that therapy is for just every day thought control and attention keeping. I'm taking a quick course with just my partner and the therapist now. It can seem a little hokey at first but if you put the work in, you can see how it's legitimately one of the most highly/widely regarded psychotherapy techniques for a reason.

Sorry to keep on with the lengthy responses. I truly, truly hope you can make earnest progress not just in your ADHD, but all the secondary bullcrap that comes with it. It's about goddamn time, am I right?! 🤞✌️",fiy39ak,lezendgender,2wl7mpj0
"> I had previously though I was maybe depressed or had an anxiety problem. It turned out that I was just worried because I was constantly behind with my work. 

Me too. I’ve had bad anxiety but it’s all work-related and my doctor said something like: “I am confident that your anxiety is the cart and your your ADHD is the horse that pulls it”.  So, I’ve been told that my anxiety will most likely go away once the medication kicks in.",Sayonara_Robocop,43kqkybr,fixtix8,"I think you probably will feel less tired, and better in general. It's exhausting trying to swim against the current and force your brain to behave in a way its not set up for. It must be particularly hard in your career as a lawyer. 

I had previously though I was maybe depressed or had an anxiety problem. It turned out that I was just worried because I was constantly behind with my work. After getting diagnosed this got a whole lot easier - the issues are still there but I am usually able to deal with them.",fiwtqwd,parachute--account,gqkcc
"That is all very helpful thank you. “it was a right emotional affair when I felt how good it could feel to get things done and think straight. You think you get it but you don't until you experience it, truly.” - that is what I am really looking forward to. I am really looking forward to not being secretly terrible at things that everybody I work with takes for granted.",Sayonara_Robocop,43kqkybr,fixsvxs,"Before I answer, the fact that you're a fucking lawyer and you found ways to accomplish that with undiagnosed, untreated ADHD is no fucking joke. Congratulations, however many years overdue that is. You have to have willpower and intelligence to get through that without a cognitive disability, let alone with it and then untreated on top. None of anything you perceive as a fuck up or whatever you're thinking while you're tired and burnt out right now can detract from that solid truth. Don't care how many mistakes you made.


W/ regards to meds:
 ""Tired"" is what my brain starts to go to when I'm either not being adequately stimulated or active, or if it has reached its too-much-input saturation point and wants to escape it all before processing anything else.
(I put ""tired"" in quotes because although it often is physical exhaustion, it's not really a true need to sleep and even physical exhaustion can be suddenly & completely shaken off if I can get myself refocused somehow.)

With medication, the threshold before these things affect me is significantly higher.
I am able to get by doing both more and less (ADHD is fucking weird!) before getting ""tired""/my brain just ✌️ and leaves. It usually lessens the severity of the ""tired"", and I may still have the wherewithal to make changes to my current environment and activities to pull myself back to life. Without meds, this is a rarity.

Medications, particularly ones you've recently started (even stimulants!) can absolutely cause some fatigue. I had to switch from Ritalin/Concerta to adderall because fatigue was my body's response to the former. 

Usually fatigue from medication is temporary as your body adjusts and your brain figures out how to balance things out with your new fancy storebought neurotransmitters. 
Sometimes it's a more long term, permanent reaction that requires either coping with or finding something else. There are a lot of really good options if this ends up being the case on your first try.

I wouldn't expect perfection but don't discount how significant the impact can be; it was a right emotional affair when I felt how good it could feel to get things done and think straight. You think you get it but you don't until you experience it, truly.

If you made it through school and passed ridiculous hours long testing, you obviously must have developed some semblance of skills to get you by. Medication can help give you a chance to build and perfect those skills and use them to much greater effect. 

You know HOW to plan and organize, then you get the boost in focus & dopamine reward to actually execute it more effectively & consistently. You know what things you can do to help absorb and retain information probably better than neurotypical do, lowering the barrier to potentially their level could see you soaring right past them in time.",fiwxhrj,lezendgender,2wl7mpj0
You should definitely try a different doctor.,Sayonara_Robocop,43kqkybr,fiwlaco,That's all I wanted.,fiwkw3a,The_Lambert,3ti3fxc2
"Yes, I had also heard a lot of bull about it. Thanks, your comment cheered me up.",Sayonara_Robocop,43kqkybr,fiwk8kd,"I feel less tired, generally. I wasn't diagnosed until 50, so you beat me by 10 years there.

My life has gotten so much better since my diagnosis. I sleep now! At night, when the normal types sleep! (Okay, not every single night, or I'd be asleep now. But frequently...)

Part of is it my lovely bride. She's the one who saw a documentary and suggested I check it out. That's how I found out -- turned out I'd heard and believed a whole lot of bull about ADHD.

I have medication, and had a therapist for a while until my insurance changed. And a stable home with someone who accepts me as I am. And with those advantages, my life has never been better.

I hope you can achieve the same thing!

Also, please don't beat yourself up for not spotting it earlier. We're still learning about this thing, so just because you didn't see it doesn't make you a bad person or even unobservant.

Focus on your future. See the way ahead, and make your life the best it can be for you.

We're here if you need us!",fiwh5aj,bippovonchurn,hw95b
"> Plus just the knowledge that I'll probably end up being diagnosed with nothing and just having to accept I'm a piece of shit at heart is really discouraging.

That’s what I was worried about, but in the end I got told that I clearly had it. I’m not sure where you are, but where I am I had to see a psychiatrist. He took what I was saying seriously and didn’t treat me like a drug addict with a made up story.",Sayonara_Robocop,43kqkybr,fiwk5jk,"I want to get diagnosed after finding out a week ago my father had it and never mentioned it and it runs in families. I had previously described my shitty mental state to a doctor and she said ""I don't prescribe stimulants because we have a problem of people getting them and selling them"" while giving me a shitty look like she knew she had me figured out. 

I never even asked for medication, so it was pretty discouraging to just get shit on for no reason. Plus just the knowledge that I'll probably end up being diagnosed with nothing and just having to accept I'm a piece of shit at heart is really discouraging.",fiwjyk3,The_Lambert,3ti3fxc2
"Thanks. I used to get by (sort of, by grinding it out and taking nine hours to do six hours of work) but then a whole lot of bad stuff happened in my personal life. Now I feel that I no longer have the mental resources to compensate for the way my brain is, while dealing with work and all the other stuff. I’m optimistic that the medication will be what I need.",Sayonara_Robocop,43kqkybr,fiwep5r,"I get the tired thing. Every time I talk to a serious brain doc, I describe my experience of trying to concentrate, to 'do work', as like trying to run in water. It's not exactly impossible, but making a lifestyle out of it is simply not possible.

Meds will help, though it's impossible to say how much and how well you'll respond to them before you find out firsthand.",fiwdzfe,The_Dreadful_Jenny,5pqlygwm
"So you’re saying that somebody originally wrote that song *not* as a tv show theme tune, but just as a regular song for people to to... listen to?",Sayonara_Robocop,43kqkybr,fiwdiny,The Big Bang Theory theme is a song by the Barenaked Ladies,fivqq7m,GarethSchrute,27dmzq84
"And worst of all, the homosexual dinosaurs.",Sayonara_Robocop,43kqkybr,fiw9gpg,Everyone knows god invented the Remington bolt action rifle so man could fight the dinosaurs and the homosexuals,fiw8djc,ieandrew91,cehr8
"Not many people know this, but I owned the first radio in Springfield. Not much on the air then, just Edison reciting the alphabet over and over. A he'd say; then B. C would usually follow...",Sayonara_Robocop,43kqkybr,fiumzg7,"""What are you cackling at, fatty? Too much pie, that's your problem!""

This reminds me of Biden saying ""Look, fat."" to a guy. Pretty sure we're going to end up with Trump 2020!",fiui9av,Holmgeir,118pxf
I couldn’t help but overhear that sir won’t be needing that heroin.,Sayonara_Robocop,43kqkybr,fitci0m,"""If you think meth is bad, try heroin!""

I'll pass.",fitcfim,Lochcelious,68jcj
I came here to make sure somebody had.  It's one of the funniest things I've ever seen.,Sayonara_Robocop,43kqkybr,fisftya,Was looking for someone to link the doom reskin lol,fise43l,PM-ME-GOOD-NEWS,pczof
"If you don’t have any problem with hostile Russian trolls using false US online identities to target American voters, in order to sew discord (including pretending to be people on the other side of the political divide from those who they are targeting), then I don’t know what to say to you.",Sayonara_Robocop,43kqkybr,firp64a,">Russia isn’t “rigging” the election, they are using the internet (which didn’t exist at the height of the Cold War) to influence it. Are you saying they aren’t, comrade?

Everyone is using the internet to influence you. Everything from what to eat and wear and how to think and vote. Corporations, private individuals , foreign countries, security services etc are constantly using the media to influence people in the US and in foreign countries. 

Prove to me that Russia's attempts have any greater impact than anyone else. Showing posts originate from Russia is proof of nothing. We can show posts from Europe and Asia and everywhere else supporting and detracting from US politicians.  

Welcome to freedom of speech. I know you find it scary.",firn4fs,SerEcon,1elw64a2
"Trade negotiations and pratfalls, together at last.",Sayonara_Robocop,43kqkybr,firdu92,"My issue has always been that he makes the movie sillier than it should be. Watch the OT, and there's not a lot of slapstick humor until you get to RotJ. And even then, it's relatively minor. Jar Jar's just all over the place in TPM. 

Star Wars gets billed as a kids movie, but the OT always felt more like an all-ages movie. Jar Jar's character seems to be trying to firmly slap it in the kids category, and it's jarring when paired with a political main plot.",fir3eda,anorabora,5ma5kfdx
"I rather liked the big daddy aspect. I thought the only thing, plot wise, it did better than one was have you be a technologically outdated big daddy with a torturous, biologically engineered bond to a little girl that you are in pursuit of, while having to constantly choose whether to save or sacrifice other little girls along the way. I thought the position of your character was quite sad in that regard.",Sayonara_Robocop,43kqkybr,fir9981,Better gameplay but far far worst level design . Also being a big Daddy made it loss some of its horror and tension vibes,fiq76gk,themangastand,yfs9p
"I think I speak for a lot of people who dislike Infinite’s gameplay here: the problems include only being able to hold two weapons at once, the plasmids (“vigors” in that game) were relatively useless compared to the previous games and also really expensive to buy/upgrade, so a lot of people ended up using just the weapons (only two at a time), and the use of that sky rail system,  especially during combat, felt like a tiresome gimmick.  Also there is little strategy to the combat. You just keep blasting various bullet sponges until they are dead. In 2 you could rig the entire area with various types of explosives and automated turrets before the fighting started, and the plasmids were more tactical. Infinite also felt cheap. Often when you were  about to die or one of your two guns was about to run out of bullets Elizabeth would throw you weapons and ammo. It didn’t feel cooperative, it felt automated and unearned. Finally, and this might just be me, the direction arrow in the game had to be triggered by pressing a button and it makes the most grating sound that I just can’t bear to listen to it anymore. I get what you’re saying about just focusing on the story but I think that if you turned the difficulty down in 2 you could enjoy the combat variety that game offers without the frustration of dying all the time.",Sayonara_Robocop,43kqkybr,fir7yyr,"I’ve never been massively bothered about combat in games. I tend to play on lower difficulties because a) I SUCK at FPS games and b) with games like Bioshock especially, I want to focus on the story and the world I’m experiencing. For people who are more into the combat I could definitely see why that’s the case though. I only ever played Infinite on PC and the combat felt pretty good so I’ll have to see how it compares on PS4. What’s so bad about the gameplay in Infinite in your opinion?",fipyj5l,MattGriggs152,3cf6edgg
"IMO 2 has easily the best gameplay: better weapons, better plasmids, more varied gameplay, more sophisticated combat. In 1 the gameplay is ok but very simple and almost an afterthought. In Infinite they shat the bed.",Sayonara_Robocop,43kqkybr,fipxyp5,"In my opinion, the original has one of the best atmospheres, environments and storylines I’ve ever seen. Infinite is a very close second but it doesn’t quite have the sense of fear of the original.

As for #2... I’m not sure where I stand on it. There’s something just a bit off about it compared to the other two. The gameplay feels quite ganky and that’s gotten in the way of me playing it much to have much of an opinion on it. Obviously environmentally it’s very similar to the original so it’s beautiful, but it doesn’t feel like anything as revolutionary as the original was since it’s very similar all round. Story-wise they’re very different (I won’t say much more than that to avoid spoilers) and unique in their own respects, but I have a feeling the plot for #2 wasn’t quite as well thought through as #1. Definitely still up there on my list of favourite games but not quite as high as the bar set by the other two",fipx4b5,MattGriggs152,3cf6edgg
It didn’t say in the article that they abandoned what they had already filmed. Did you read that elsewhere?,Sayonara_Robocop,43kqkybr,fipmk08,"To their credit, the producers have apologised with credible humility and, and this is what impresses me more, they've abandoned what's already filmed to start recording the series all over again.

They should be applauded for for fronting that financial hit, which isn't negligible.

Btw, I'm no fan of the show either, wouldn't say it's horrible, just never watched it, it's so far from my thing. But each to their own",fipdxiw,MeatraffleJackpot,39m99tr0
"I’m not sure that the insult has anything to do with being lesbian, does it?",Sayonara_Robocop,43kqkybr,fipm3ir,"Weird, horrible, and why did he say that? Is she a lesbian?",fipj563,IZY53,2j5gh5w0
"Merely telling them to kill themselves may not be enough. You have to “incite” (urge or persuade) them to do it. He started by calling her a rancid rotten stuffed pig, so it’s a bit doubtful that he was trying to persuade her. Also, he didn’t really tell her to do it at all (“you should”), he told everybody else that “she should”. Accordingly I don’t think what he said is illegal, just terrible.",Sayonara_Robocop,43kqkybr,fipluy7,Telling someone to kill themself is an offence in NZ.,fipka7d,Borel377,2xfysp8r
Well at least it's not another goddamned Datsun.,Sayonara_Robocop,43kqkybr,fip6nqh,Yeah it had that engine the last 17 times it got posted too,fip64aw,icbint,icjvt
"Yeah he could be, but it’s premature to say that the sentence is too little when he hasn’t been sentenced, and given the maximum sentencing. I also seriously doubt he will get anything near the minimum sentence. It’s a highly scrutinised case and there would be a public outcry.",Sayonara_Robocop,43kqkybr,fiosymr,"> up to 25 years

>up to 4 years

that's maximum. A combined 29 years. He could also be sentenced to a combined 6 years and only serve 3 and then be given probation",fio3r15,lochinvar11,9junm
"That's particularly funny given their name:  business*insider*.

""We get you the *inside* scoop, *weeks* after everybody else!""",Sayonara_Robocop,43kqkybr,fio1wzo,It did. It's just businessinsider running the identical article again because it is a trash publication.,find907,gizmo78,43nqu
