child_body,child_screen_name,child_user_id,child_tweet_id,parent_body,parent_tweet_id,parent_screen_name,parent_user_id
is it like the guy in the video?,stupidfatamerican,173btr3r,fl95wqr,You don't know my Goku.,fl92l0y,AnalystOfData,5x95h66t
lmaoooo,stupidfatamerican,173btr3r,fl95ui9,Stare with their slant eyes...,fl94ymx,Clementng1995,4m54e0xx
just tax the rich! duhhhhh so simple,stupidfatamerican,173btr3r,fl948vx,"*gets 999 million dollars
*buys 999 million dollar mansion
*income keeps coming in",fl8lv5e,JDN05,zqs7l47
Copy pasting this to every “new scientific breakthrough”,stupidfatamerican,173btr3r,fl516t5,Manufacturing. The answer is usually always an inability to scale to large-scale manufacturing.,fl41o75,ShortForNothing,jgze8
"Pop shoving nollie Christ airing off this comment, because we might run out of internetz if all the gamerz use it duh. Like toilet paper",stupidfatamerican,173btr3r,fl45me1,"Piggy backing off the top comment here... but why are we fucking resorting to ""internet rationing"" and acting like this is okay? There was an article out a while ago about how global revenue for 2019 for telecommunications was estimated to be around 1.2 **TRILLION** dollars. The US tax payers alone have given BILLIONS (probably more than that) over the course of the last 30 years to telecom companies. Now we have a few months where people have to sit in their houses and we've got assholes evangelizing for ISPs saying ""DON'T USE WHAT YOU'VE PAID FOR BECAUSE THE INTERNET CAN'T HANDLE IT. THINK OF THE ISPS!!! WHO WILL SPEAK FOR THEM?!""

What. The. Fuck? Why is there not more outrage about this? Why aren't more people angry? Why am I paying 100 bucks a month for bandwidth I can't use? Am I going to get credited for giving them a break? Am I going to get ""good boy points"" that I can use at a later time for stuff off the bottom self of the prize cabinet?",fl3w92v,Khue,4mlcp
Goddamn. Now u make me look like an idiot for not buying all the toilet paper,stupidfatamerican,173btr3r,fl3n82h,I'm assuming time travelers needing to burn down Brazil and the outback to destroy the lizard people's Nazi and Orwellian hidden bases in order to stop the apocalypse,fl3n6cz,ABOBer,daboz
Something which the Italians clearly did not do,stupidfatamerican,173btr3r,fl3lflc,"Wait, are you trying to say investing in public health and giving people access to it *works*?",fl33aby,generic_tylenol,wz8c5wb
Yea but Red Cross doesn’t do that! Philanthropy companies don’t do that!,stupidfatamerican,173btr3r,fkzehin,"I am also in development. Unfortunately, it can be a scam. Most ethical thing to do would be just take their cash and distribute it. Instead, they give from their foundation to other orgs, having the taxpayer subsidizing their giving sometimes at multiple points, then seeing the efficiency of donations at some of these large disaster relief orgs be under 10% and I’m just flabbergasted. What that means is a $1m gift could easily be $400k subsidized by the taxpayer and $400k going to overhead at the np. So nice, because they wanted the tax break, and the publicity, that $1m is actually just $200k, or as is the case I mention under 10%, it is under $100k direct to cause effect. Scam",fkyxx81,underboobbob,3sezxyvy
"Mans playing the wrong sport. Quick feet and that arm, he needs to play football",stupidfatamerican,173btr3r,fkze9bj,He fuckin hammered that! With almost no arch on the shot it's amazing he made it.,fkyrud1,PitoConSangre,5aomldgv
Is no one gonna say these guys are just making themselves targets for some crazy people?,stupidfatamerican,173btr3r,fkyxa8z,Free to elders...$50 for everyone else!,fkygdv0,FlibbityJibbityJoo,4yp623ik
Just rub them shits on ur chest. It cures cancer,stupidfatamerican,173btr3r,fkyrhfr,"BS has a limit....
Life-threatening viruses are one of them",fkxrqfq,oktheone,1yyojsp6
How do you say oh fuck in French?,stupidfatamerican,173btr3r,fky12rw,"That ending expression, looking down as panic sets in. Only one thing running through his mind


""oh fuck""",fkx8s8p,BobbySanchoas,1ohck5cc
So are they still gay?,stupidfatamerican,173btr3r,fkxwexc,How they accidentally became a straight couple.,fkxgrka,Ladyofworries,3rcltkgl
Sure hit me with it,stupidfatamerican,173btr3r,fkvoyjv,You want an ELI5?,fkvnzny,dx8xb,1czddhex
If Obama was president none of this would’ve happened guaranteed,stupidfatamerican,173btr3r,fkv5n7s,"If you take credit for the rain, expect blame for the drought",fkufbeg,Boleen,fkm5m
Explain like I'm American please,stupidfatamerican,173btr3r,fkv43se," The micropile slide stabilization system (MS³) retains soil by connecting an array of drilled and grouted micropiles, sometimes in combination with ground anchors, to a reinforced concrete beam constructed near the ground surface.

A small bench is cut into the slope to allow access for the micropile drill rig. A reinforced concrete beam is first constructed on the ground surface, through which micropiles are then drilled at angles. The micropiles are then grouted and connected to the beam. The finished micropiles act in tension and compression to effectively create an integral, stabilized ground reinforcement system to resist sliding forces in the slope. The grade beam can be buried allowing the slope stabilization system to be hidden from view.

**Common uses**

* Slope and landslide stabilization
* Side hill fill stabilization 

Source: Keller",fku30d3,mtimetraveller,48e8fxe
Hell no. God damn it feels good to be a cop,stupidfatamerican,173btr3r,fkv1yrg,"So, this means these cops will be charged with possession of crack cocaine, with the intent to distribute ( since they distributed it ), falsifying a police report, kidnapping, false imprisonment, assault...

.... 

Yeah. That's not gonna happen is it...",fkui1rs,Magatha_Grimtotem,16zzw9
God Americans are so dumb. I’m one of them!,stupidfatamerican,173btr3r,fkuws4w,Username absolutely checks out,fkuhe01,natejb2003,7ty7oit
">  r/MorbidAndSatisfying

done",stupidfatamerican,173btr3r,fkujxnp,If only that was a real sub,fktny61,RedForkKnife,23tmqb71
Millions are made during times like these. Thanks life insurance,stupidfatamerican,173btr3r,fkui8qg,Take out the biggest life insurance policy you can find on a loved one then cough on them.,fktvmes,Aspen_Alabaster,5njvs1e2
"As chaos surrounds them, people are burning to a crisp, you can be consoled by the fact that as long as you are with me, there's no place I'd rather be",stupidfatamerican,173btr3r,fkug7fk,"With the music in the background, it's perfect. 

I'm sure those dipshits just fine, their haircuts have probably changed though.",fku47nv,MidTownMotel,zk4kt
Where's Obama to tell Biden what he's doing?,stupidfatamerican,173btr3r,fkucdj6,A huge fuck off to people that don’t realize the biggest national security risk the US faces is everything to do with under and uninsured people who live under a cloud of healthcare debt.,fktiy2x,mrcpu,3b4n7
Don't worry I have an app just for that. $0.99 tho but worth it.,stupidfatamerican,173btr3r,fkuakvj,I don't think mine has it,fku6ny9,FakeFile,23ve301z
Checkmate atheists,stupidfatamerican,173btr3r,fku839g,That’s why West Virginia was the last state to “have a case”,fku6dfp,sageyban,3c5htgl4
Smart man,stupidfatamerican,173btr3r,fku67j6,"Well...

I know the law, here's all my monie.",fku5obc,aksumals,71pnp
Twitch staff finally got time to do their jobs,stupidfatamerican,173btr3r,fku4th7,"Pretty sure they knew she was joking too, she does this all the time and this was her first ban. Alinity has said worse shit and not get banned for it. Strange",fksttda,nobumane,ocogx
Let me rephrase. I am Obama. And also give me money right now. I’m serious.,stupidfatamerican,173btr3r,fku355r,but there IS an /s so what do I do now? are you obama? are you not obama?,fku2tfr,loogie_hucker,3stky0hm
Can’t get sick if you’re not tested. That’s how it works,stupidfatamerican,173btr3r,fku2lwj,And they get malaria more than they get hot meals over there so its no wonder they aren't testing. Having someone you know die from a mysterious illness is not an uncommon event.,fku1ton,FjohursLykkewe,cb0af
Yea and I’m Obama. Better believe me cuz no /s,stupidfatamerican,173btr3r,fku223o,"There was no /s

Clearly they were being serious.",fku1lv7,aksumals,71pnp
"If they said actual numbers, the toilet paper hoarders would be nothing compared to the ones panicking after they release actual numbers. It’s gonna be mass hysteria and literal chaos in the streets",stupidfatamerican,173btr3r,fks2ka1,"US, China, Russia. Confirmed infection numbers are a lie, cause they don't want a real number public. So they don't test and all we have is guesses.",fkqlltm,dragonmasterjg,e8in2
Unless you’re Deadpool then you can sexual harass. Fuck yea,stupidfatamerican,173btr3r,fkrlb2h,"You could do anything at comicons and it would be ok if you're wearing a Deadpool suit. 

There was a video of a girl getting sexually harassed by a Deadpool years ago and she laughs it off. And it wasnt scripted.

Gamer girls may be the most chill of any girls in their environment.

Also, don't sexually harass anyone plz.",fkr4bye,EdBoi007,1n6zicrb
Yea but why didn’t you use this and why didn’t they wear that? It’s soooo OBVIOUS!,stupidfatamerican,173btr3r,fkr82ie,"People, please stop commenting ""why didn't you use ______?"" or ""why didn't you wear _____?""

Because they're OUT. Hospitals in hard hit areas do not have enough masks, gloves, suits.",fkqk0fw,PanickedPoodle,14kdl0hw
Ur saying the same thing I’m sayin and saying it’s different and you’re arguing about words not even what the point is,stupidfatamerican,173btr3r,fkqtosn,"That’s not what I said at all. I didn’t say you can only be an asshole or only be a kind person. I’m saying that in my experience they show either of these traits. I didn’t say they couldn’t have any other traits or personalities. You can be nice, funny, creative, etc. you can be rude, determined, clever, sophisticated, etc. That’s a big straw man argument.",fkqscra,Space_Warp,3mv4il0z
Either nice or not nice. Wow that’s literally the only 2 possibilities,stupidfatamerican,173btr3r,fkqqvq6,"I think that when it comes to boomers you have one of two options. They are either mean and entitled or they’re the nicest souls you’ll ever meet. It’s a really weird contrast.

Edit: Even though I’ve never said this, everyone is commenting that it also applies to everyone else. I never said that it was only exclusive to boomers.",fkqh5mt,Space_Warp,3mv4il0z
He don’t even know Kobe gone,stupidfatamerican,173btr3r,fkpxsgi,"Saw on comment on here the other day that some dudes boss had taken a three week vacation and had gone off to a cabin in the woods with wife, with no electronics.",fkp9du6,Hufflepuff4Ever,uaa0f
People didn’t pray enough,stupidfatamerican,173btr3r,fkpwgei,"Oh wow, I wonder why it failed. /s",fkp5pgg,You_Cheeky_Bastard,2zavfu2n
Yea no this ain’t happenjng,stupidfatamerican,173btr3r,fkoxmhr,">The question of who won could be decided less by how the candidates performed and more by what they said. After the coronavirus scare is over, all debates should be done this way.

Hard agree",fkoecu2,BannerBearer,363do
“Back in my day we had to live through a real life zombie movie” boomers ain’t got shit on millennials,stupidfatamerican,173btr3r,fko5pdc,When they get to high school we can call them the “Quaranteens”.,fknslex,Mustard_Castle,jjgx3
"For people looking to the answer about     
""but what about the landlords who have bills to pay?""     
if the renter doesn't pay, basically sue the renter after the winter months",stupidfatamerican,173btr3r,fknrblw,"I am in France. We have a law here that forbids removing someone from their rented home during the winter months. Last week President Macron just extended that grace period for another two months.

EDIT: by now I have seen countless versions of the ""but what about the landlords who have bills to pay?"" Please stop asking this and go through the thread as I've answered it a few times. I don't expext to answer it again.

EDIT 2: upon request, here's one of them: https://www.reddit.com/r/AskReddit/comments/fjenok/do_you_think_landlords_should_be_open_to_being/fkn9obx/",fkmjzsi,wordserious,bfy2c
Thanks Obama,stupidfatamerican,173btr3r,fkmwyvc,Fucking Biden accusing Bernie of having NINE super pacs. Couldn't even name one.,fkma6pk,icantastethecolors,4dit3
"If this man did not bang after this, this was all a waste",stupidfatamerican,173btr3r,fkmc9gc,Those girls wanted to bang,fkkhwv9,2dayathrowaway,3wulxfik
It’s a goddamn free for all out there,stupidfatamerican,173btr3r,fkk828j,"People don’t tend to be conscious about how their actions could affect others if it doesn’t bother them, until everyone else shame them for being like that",fkjyy5u,Enra_,4w3w56nd
Welcome to the real world,stupidfatamerican,173btr3r,fkk7yuc,I have learned things today I didn’t want to learn.,fkk4nox,teracoulomb_,3dpkvkoh
Well according to that article hoarding is totally fine. So I do not see a problem with hoarding highly demanded items and reselling them at 20x their cost.,stupidfatamerican,173btr3r,fkjpxyb,"When this blows over, I'm going to have to start hoarding in anticipation of the next thing that stirs people to panic hoard. Again, I'm not afraid of the virus, I'm afraid of having to go to extremes because people are out there hoarding like they're about to be sent to a desert island for the rest of their lives and have one day left to shop.",fkjpp7g,Alt_Because_Stuff,5b216ev9
According to [this post](https://www.reddit.com/r/Coronavirus/comments/fiu836/everything_we_do_before_a_pandemic_will_seem/?utm_source=share&utm_medium=ios_app&utm_name=iossmf) panic is the only option. So yea panic is the only and correct answer. So I don’t see why people hate hoarders tbh,stupidfatamerican,173btr3r,fkjp8hq,"I'm Canadian, it's happening here too. 

""They don't have any toilet paper, paper towels, or Kleenex, what do we do!?""

 ""Fuck it, fill the cart with all the canned fish they have, we'll sell it online later!"" 

""I hate fish!"" 

""Just do it! And get some pics of those empty shelves for Insta!""",fkjp0i8,Alt_Because_Stuff,5b216ev9
Alrite so everyone stop complaining about the hoarders then. Panic is literally the only answer,stupidfatamerican,173btr3r,fkjp01s,Yes. Actions must look like overreactions when it comes to prevention.,fkj8law,BasedMedicalDoctor,1153s17g
My username checks out!,stupidfatamerican,173btr3r,fkjoqmb,"lol, all the toilet paper on earth is gone. Hoarders: I NEED BULK RICE. EVERYTHING YOU HAVE, I WENT TO MY BANK AND TOOK OUT A LOAN, 10K, I NEED THAT MUCH RICE. 

I fear the public response *far* more than the virus itself.",fkjon1o,Alt_Because_Stuff,5b216ev9
lol people will still buy them. Dumbasses lmao,stupidfatamerican,173btr3r,fkhjno2,I hope nobody buys them and they are stuck with them like that lady that tried to flip hatchimals,fkh6myx,ManateeFlamingo,28lapqvl
Bet Mexico regrets not paying for it now,stupidfatamerican,173btr3r,fkg5nia,The wall was to keep us in this whole time,fkftjad,hollowedparrots,5mok5s20
And people downvote me sayin this is his time to finally die,stupidfatamerican,173btr3r,fkfzji8,"Trump is going to get COVID-19, I guarantee it.",fkfenx8,noneofmybusinessbutt,2emyasvp
This some baby back bullshit,stupidfatamerican,173btr3r,fkf9kis,"Hysteria ruled today - Friday the 13th - at the grocery store.

There wasn't one shopping cart to be had. Every parking spot was taken (in an enormous lot), and traffic cops had to assist drivers getting in and out because of traffic back-ups.

We saw 2 shoppers fight over the last bundle of Scott toilet tissue (the toilet tissue/paper towel aisle was picked clean - as if vultures had devoured it.

For those of us just trying to buy food, it was a nightmare at the registers with approximately 45-50 people waiting in each lane to check out, including the self-checkouts.",fkf1quu,Back2Bach,hyuo7
No,stupidfatamerican,173btr3r,fkeflbr,"Kinda cute, no?",fkduhdw,Brilliant_Variety,1yhcprhz
Thanks Obama,stupidfatamerican,173btr3r,fkdycsq,"To be clear to those not reading the article, it seems that this algae toxin is possibly a root-cause or contributing factor to Parkinsons, not a cure for it.",fkdmmnx,Mazon_Del,aeqld
Biden*,stupidfatamerican,173btr3r,fkdei6u,"Thanks, Obama",fkddfev,poisondart90,icti7
No we need to panic ASAP because it is literally the end of the world,stupidfatamerican,173btr3r,fkdc5h5,OMG this is great. But we don't have to be scared. Just responsible.,fkcnch2,marcopolo6457,2x7jx606
With this corona idk if she’s living for long,stupidfatamerican,173btr3r,fkdc2un,I live for grandmas doin’ cool shit,fkcdma1,Blitz722,azyoy
Because it’s the internet and y’all literally meme about everything it shouldn’t be a surprise,stupidfatamerican,173btr3r,fkdbhzj,"why is every meme on this site corona this corona that, like damn reddit you bully ig users for over used content....",fkco4pj,The_Ur_Didact,4y1rk017
No,stupidfatamerican,173btr3r,fkdb78w,"📊

Look at it",fkd8wia,Unexpected_DnD,5doh9b1y
Great now I gotta wash my phone too,stupidfatamerican,173btr3r,fkdb3h5,Like washing your hands for 20 seconds and then immediately picking your dirty-ass phone back up to get on Reddit to check out hand washing memes.,fkcv86i,collin-h,11gg5w
This is just the beginning fam,stupidfatamerican,173btr3r,fkdab19,"Damn, what is going on? The past 24 hours was the most crazy 24 hours ever, so much happened. Wishing her a fast recovery though!",fkcz8bg,The-Garlic-Bread,2d72diiv
Yea USA humans are vastly different from non USA humans. Basically a different species,stupidfatamerican,173btr3r,fkciw3a,You do realize there is more to the world than the United States right....?,fkbr3ws,ashkatrn,4n8q8r7o
"The problem with people not going to work, is they don’t make money. What’s the solution to this?",stupidfatamerican,173btr3r,fkbkmgb,"Trump has made the pandemic worse by calling the virus a [""Democratic hoax""](https://www.msnbc.com/11th-hour/watch/trump-changes-tone-after-dismissing-coronavirus-as-a-democratic-hoax-80525893963) and then saying the coronavirus is [not much worse than the flu](https://abcnews.go.com/Politics/stocks-dive-coronavirus-spreads-trump-repeats-risk-covid/story?id=69482971).  He also said that people with [coronavirus can ""go to work""](https://www.cbsnews.com/news/donald-trump-coronavirus-comments-suggesting-people-go-to-work/).

He is the president and CinC with a team of medical experts behind him. People listen to him because he is the leader of the country.  And the public statements Trump has made has only allowed the coronavirus to spread further and faster in the US.",fkb76dc,teslacoil1,3ka5wm6m
"I expected something to go very wrong. but it didn't, how unexpected!",stupidfatamerican,173btr3r,fkbejo7,But it didn’t happen so it’s unexpected!,fkax1fx,PR0PH3Tcs,22q9t3ev
Big strong man always beat small weak man most of time,stupidfatamerican,173btr3r,fkbdzc3,"Your edit comment is correct.

I've taught martial arts for about a decade. This magical nonsense is just make believe. If you're tough and trained you can knock someone out in one punch to about this area, sure, but it's because you're causing their brain to move within the skull, not because of some magical line on the outside of their skull.

There are other places you can hit to cause temporary blood issues, like the jugular or breathing issues like the trachea, but neither will work if you're protecting that area with your other hand, as you point out.

Also, I've personally put a strong choke hold on an enormous man who'd trained for the Olympics for jujitsu. He simply stretched his arms and tore my pectoral muscles, breaking the hold. There's no magic to fighting. It's about strength, mass, training, speed and knowledge.",fkb7cc5,Totalherenow,3huryblr
Anyone who doesn’t self quarantine should face charges,stupidfatamerican,173btr3r,fkaoyvq,Politicians downplaying the pandemic should also face charges.,fkahl6c,Igotacow,8c3ys
I would give u gold if I could. Because your point is so true but no one wants to hear that,stupidfatamerican,173btr3r,fkao4hy,"Yet, you still mentioned wealth. Some Reddit people and being mad at the rich because they’re poor....

Edit: This is my most downvoted comment! I’d like to thank you all. 

Ultimately, the point I’m making is that being mad at wealthy because you’re poor is like being mad at fit people because you’re fat. 

Yes, people are born with better genetics, have more access to healthy food, and can afford a gym. Yes, it’s easier for them. 

But, that doesn’t mean it’s not possible for you to be fit. 

People on Reddit focus too much on what others have rather than focusing on how to take advantage of what they themselves do have and are capable of.",fk7315j,usereddit,9pk73
Ok boomer,stupidfatamerican,173btr3r,fkanq8s,Fuck you my parents are boomers. Painting an entire generation of people as assholes is just shitty. How about we just get rid of all the dumb shitty people instead regardless of their generation.,fka6eam,killer8424,6umjt
Hell no. Ain’t nobody got time to wash hands,stupidfatamerican,173btr3r,fkanold,"My problem is, why is the hand washing an extra procedure? You mofos weren’t doing this before? I know the amount I wash my hands will be a good bit higher than the average person because I work with food, but damn,  it shouldn’t be considered special to wash and sanitize your hands. What has the point been of me washing my hands 50+ times a shift when I’m handing food to unwashed knuckle draggers. I’m destroying the skin on my hands to just to give food to dirty people.",fk9vx3w,shiroininja,fb0k4
Checkmate atheists,stupidfatamerican,173btr3r,fkanlh8,Well considering the fact the RCC has said this since the 1960's I'm not really surprised by this.,fk9w5dh,hurricanelantern,foads
"If u thought those 3 months are bad, wait for the 2020 recession!",stupidfatamerican,173btr3r,fka7ion,2020 is fucking bonkers.,fk9jhsq,Legitimate_Twist,5rmerd6e
"If people are willing to complain as much as they are right now, I don’t doubt they can find a way to make that possible",stupidfatamerican,173btr3r,fk8cia2,You can't think of any reasons that might make a move like that difficult or almost impossible?,fk88em2,Alar44,kty0az5
Wow sounds almost like common sense,stupidfatamerican,173btr3r,fk7y5lc,When more people come for free pizza than pay for it,fk7y3uw,grissomza,qtsq4
So why did it close down?,stupidfatamerican,173btr3r,fk7rinu,Was gonna pay it a visit next time I'm in Philly but it looks like [they closed last year](https://www.phillyvoice.com/rosas-fresh-1-pay-it-forward-pizza-shop-closes-center-city/) :(,fk76gkf,ddeevv,846qi
Here’s a thought. Why don’t people who want this move to Germany?,stupidfatamerican,173btr3r,fk7qa3k,There are amazing things in Germany. I hear it is illegal to email or call employees after work hours. And I saw a show where people who worked in a pencil factory didn't have a second job! That blew my mind.,fk7dhdm,Semifreak,682beri
Anyone not in the top 10% I consider poor,stupidfatamerican,173btr3r,fk7q5in,"Well not necessarily in America. If we made decisions based on majority, the middle 80% would just say let the top 10% pay 80% taxes and bottom 10% can just die lolol.",fk7ne3u,calvinthecalvin,qcnht
But there’s more poor people than rich people. So we win,stupidfatamerican,173btr3r,fk7g874,"Funnily enough, if you're poor, any ""problem"" you have is pretty irrelevant to most people too!",fk7g1pk,calvinthecalvin,qcnht
I’ll say it for u. If you’re rich any “problem” you have is irrelevant. Now give me gold,stupidfatamerican,173btr3r,fk7fnuh,"I really wanted to day something snarky and comical about two rich dudes but, honestly, that’s pretty funny.",fk70b31,deub1986,y3qa8
"> Lies about a fight to dispatch they have to send a dozen cops
      
Noted",stupidfatamerican,173btr3r,fk7ed3p,"I understand the frustration but it’s hardly the cops fault. If a neighbor lies about a fight to the dispatch , they have to send half a dozen cops. The last officer was needlessly aggressive, though. I’d like to know what the follow up is for this situation",fk6mgbk,tingbot2902,z6ktw
Pretty clear he wants to get to his destination really fast,stupidfatamerican,173btr3r,fk7e4vh,Why do people do this?,fk71xi4,barre_chord_reality,eiuzh
Seriously. If someone gave me a $100 million dollars I can do exactly what he did and better!,stupidfatamerican,173btr3r,fk4mouj,trump is a spoiled brat since birth. His daddy bought him a college degree and gave him $100’s of millions. The man had never worked a day in his life,fk44f8s,msp3766,bqwkf
I too hate Arnold Schwarzenegger,stupidfatamerican,173btr3r,fk393zk,Republicans,fk2t5y5,venicerocco,34gyt
U know that’s why I deleted my comment since “Mac is similar to Linux” isn’t correct. Would u say Mac is more similar to Unix?,stupidfatamerican,173btr3r,fk320rs,"
I'd just like to interject for a moment. What you're referring to as Linux, is in fact, GNU/Linux, or as I've recently taken to calling it, GNU plus Linux. Linux is not an operating system unto itself, but rather another free component of a fully functioning GNU system made useful by the GNU corelibs, shell utilities and vital system components comprising a full OS as defined by POSIX.

Many computer users run a modified version of the GNU system every day, without realizing it. Through a peculiar turn of events, the version of GNU which is widely used today is often called ""Linux"", and many of its users are not aware that it is basically the GNU system, developed by the GNU Project.

There really is a Linux, and these people are using it, but it is just a part of the system they use. Linux is the kernel: the program in the system that allocates the machine's resources to the other programs that you run. The kernel is an essential part of an operating system, but useless by itself; it can only function in the context of a complete operating system. Linux is normally used in combination with the GNU operating system: the whole system is basically GNU with Linux added, or GNU/Linux. All the so-called ""Linux"" distributions are really distributions of GNU/Linux.",fk31mh5,GNUandLinuxBot,3mll12eb
If I hear anyone cough or sneeze it’s automatically coronavirus. No questions asked,stupidfatamerican,173btr3r,fk2jo1p,True. I've got a cold and everybody is relieved I'm staying home. Have to say I'm okay with that. I could muscle through but it's nice to be able to stay in.,fk27rkg,alpaldoodle,4i5nq93x
People missing payments fees,stupidfatamerican,173btr3r,fk2hjtr,thats to get repaid not stupidity,fk2gni7,The_Hi-guy,426fofjz
ITS THE END OF THE WORLD. JESUS IS PURGING US ALL,stupidfatamerican,173btr3r,fk2ftv8,"I work in an Italian hospital and I have to say thanks to the bravery of our government. Our hospitals are collapsing and we need to slow down the infection rate, in order to ensure a bed in ICU for everyone who will need. We can not choose between two lives, we cannot say who has more possibilities. We are working hard, we want to do everything possible for every single person. 

Thank you to our politicians. I wouldn’t have believed I can say this in my life. 
We can do it. It will end and we will be stronger. Don’t panic, stay at home, wash your hands.",fk1vqhq,bion93,ysy0o
I suggest we panic ASAP. Since there’s no telling how bad it can be. Hell it could be the end of the world as we know it,stupidfatamerican,173btr3r,fk1wkho,">she’s trying to book a fucking cruise right now because “it’s just a flu”.

At this point, I'm convinced anyone who says ""it's just a flu"" has never had the flu. Sure, they've been sick, but it's not flu-sick. The flu is really, *really* bad. It's extremely painful, and you basically end up all but disabled for 3-4 days while you fight it off. It's extremely unpleasant. There's a *reason* it kills people.

People who say ""it's just a flu"" anger me to no end. It trivializes the pain the flu brings.",fk1e0w9,DragoneerFA,9g6as
I wonder why Obama hasn’t endorsed Biden yet either.,stupidfatamerican,173btr3r,fk1up5n,"Biden is basically a Republican; he was on the ticket to appeal to moderates/conservatives (and people not totally comfortable with a black president.)


The ""hate"" for me is that I'm sick of having to choose between a Republican and a might-as-well-be-a-Republican.


_(Btw, I wonder why Obama hasn't endorsed Biden yet...)_",fk1sumx,try2try,zbosx
Wasn’t Biden Obama’s VP tho? Why all the hate on Biden?,stupidfatamerican,173btr3r,fk1pmuq,"Biden is the wrong answer for America

it's not 1994 anymore",fk0s6sj,n1ghtcrawler420,39do0ted
Its crazy what the human body can recover from.,stupidfatamerican,173btr3r,fk0udi9,Oh... oh no,fk0reb4,FoxaniumReal,4we0tz9m
Good luck with corona,stupidfatamerican,173btr3r,fjzwd8c,i bid 50 cents and half a cookie!,fjzsdhz,Waifer2016,1327bs
just dont be tired duh,stupidfatamerican,173btr3r,fjzpa7s,"Interestingly enough, many grown ups also behave erratically, become more irritable or even sad, when tired, instead of just going to sleep.

We (humans) are not as good as we think we are at figuring out what we feel or why we feel it.",fjyvq60,theredditaccount42,4jdv2yga
And people say violence isn’t the answer to violence,stupidfatamerican,173btr3r,fjz8eig,"One kid on school was popular only because he liked to start shit and bully everyone. So most people were ""friends"" with him just to avoid being a victim. One day he tried that on the wrong kid, got beat up so bad to the point he started crying. 

Honestly I think it was a win for the bully because it gave him a pretty good wake up call. Became less of a bully and is now quite humble.",fjxutjl,realsoloday,1v3p3f4b
did*,stupidfatamerican,173btr3r,fjz7kns,He's too lazy to die,fjywje0,Oquana,3byaodsd
A short review,stupidfatamerican,173btr3r,fjxsz2m,Could you write a short review?,fjxso1u,SuperUltraMegaDoge,17f9gz
What I wanna know is why isn’t Obama helping out his boy? Like wtf,stupidfatamerican,173btr3r,fjwzufk,"Not voting for Biden, but coming over to Bernie from Warren.

A majority of Biden voters are choosing him because they think he can win. That would be great, it if were true. Fear of Trump being re-elected can be a great unifier for all of us, but the fear is also making people think the safest candidate is the best candidate.

This isn’t new, it’s happened over and over again in American history. Moderates have been trotted out by both parties in elections before when the atmopshere got a little too fearful, and most of them have lost. Remember Mitt Romney? Out of all the 2012 candidates the Republicans could have picked from to win against Obama (someone they greatly feared would stay in office) Mitt was the safest one. He looked like a politician, he had a nice smile with great teeth (sounding familiar yet). Everything he said landed on safe grounds, trying to offend as few as possible. He lost, because the candidate with a spark, true passion, or  something new and exciting about them, usually wins over the “safe” candidate.

We will for certain lose if Biden gets the nomination, because we’d be trying to douse a giant orange sun with a comfy wool blanket. Biden doesn’t inflame the soul, or inspire the masses to dream of a better future. he’ll be incinerated, BECAUSE he is a “safe” politician. We’re so scared of losing to Trump, that we’re creating our own, sad, self-fulfilling prophecy.

I still believe Elizabeth Warren was the best bet when it came to a face-to-face confrontation with Trump. He would have been forced into the arena with her, with no one to hide behind, and she would have knocked his “winning” mask off just long enough for Republicans to see the weak man underneath. That’s the trick, is proving Trump is weak, because that is the only thing Republicans find unforgiveable.

Bernie is definitely the better bet of the two, simply because he’s bold enough, passionate enough, and inspires enough, to actually have a shot. I just hope enough Biden voters realize this before it’s too late.",fjwm9kc,RenaeDeLiz,5p5c096s
BUT CORONAVIRUS HAS NO CURE AND IT MEANS END OF THE WORLD!,stupidfatamerican,173btr3r,fjstmph,"Yep, this is completely true. Even with the wars, atrocities, deaths, etc, we're living in the most peaceful time of our species. Lowest rate of the global population that is at war, being killed, raped, robbed, enslaved or is dying of preventable diseases. Highest rates of life expectancy, education, and opportunity.

There's still a lot of work to be done but everything in context. Things are great! Heck, even the coronavirus pales in comparison to the Spanish Flu a century ago. [Here's another comparison.](https://www.youtube.com/watch?v=6dDD2tHWWnU)

EDIT: [some data for context since this comment is getting popular](https://old.reddit.com/r/todayilearned/comments/feu8sa/til_of_the_mean_world_syndrome_a_cognitive_bias/fjrp2b0/)",fjrexrn,SsurebreC,bqkdg
Yea but neither Biden or Bernie are winning,stupidfatamerican,173btr3r,fjs284h,I imagine the people in the Middle Eat are pretty sick of it too,fjpqdtn,johnsgrove,16xnae
Which is hilarious,stupidfatamerican,173btr3r,fjs1luz,"Answer: some people are stocking up to stay home as much as they can, some people are panicking because they don’t understand what’s going on.",fjpyf97,createusername32,1p05i50
It is Harry Potter vs Voldemort,stupidfatamerican,173btr3r,fjmoz70,Yes of course. Still looks more like harry tbh.,fjmms3g,KimothyJongliusUno,vxzyin
are you rich?,stupidfatamerican,173btr3r,fjmnwmy,What about the folks who own their businesses but hate themselves?,fjmlxjo,SpockShotFirst,1363my
Make a low just for Mike Bloomberg to give more monies. Problem solved,stupidfatamerican,173btr3r,fjlrt4k,"> I believe that moving forward, we should push for much higher taxes on those earning/worth more than 1 billion USD.

How do you propose that this is done? You should note that billionaires do not earn billions, they own things that are worth billions.",fjksax6,Arctus9819,kdxwo
