child_body,child_screen_name,child_user_id,child_tweet_id,parent_body,parent_tweet_id,parent_screen_name,parent_user_id
Can you stop with this bullshit like please? You seem obsessed to have it be that they are racists. Is it because it means then you’re not the only one? Or that you’re so insecure of your beliefs you have to latch on to an idea of “them” being lesser for having boogeyman beliefs like racism?,timmy12688,ap8kt,fl6pvbg,"As long as you're a male, white, Christian and pretend to be heterosexual, conservatives will champion your rights!",fl61rsz,BestServedCold,1i340
"It will take place in Chicago and the dad will work at the Sears Tower. One episode will be the dad trying to quit smoking because of this new law that says you can't smoke in restaurants anymore. He'll forget once though after a stressful day, lights one up in a TGIF and gets thrown out. He then asked to use their phone to call a cab (and lights one up again to assert dominance). He arrives home, asks his son how his day at school was. He said it was awful because he [lost his favorite jacket](https://i.pinimg.com/originals/d1/0b/c0/d10bc01f6ffb125baa2ff46f979ebb2e.jpg) 

There's so much material!! You could do an episode where they teach math like before they changed it. Or one prepping for the y2k bug. Maybe make fun of some DDR nerds and then the son becomes one. They all hang out at the mall too. Hahaha the show could even be about the kid and be the main character. It could be called ""Mall Rats""",timmy12688,ap8kt,fl648bv,"Dude, if I could have the show you just described it would be all that and a bag of chips!",fl63njo,20_Sided_Death,rj8yj
"Still haven't gone through that dumb machine. I think I'm flagged or something. I will be patiently waiting in line for the metal detector and watch as dozens of people walk through just fine. 3 people ahead of me though? Oh shoot. This line was ""randomly closed down."" ""Hey! We got an opt out!! over here!"" It's so bad I told my wife, A couple years ago I said to my wife, ""Watch this. I'm going to be """"randomly"""" selected for a pat down.  Sure enough, out of the 30+ people in line I was the only one selected. I am a white male. Not some Arab either. I say this because you may think ""He must have a beard and be dark"" right? Probably cause I said ""Fuck the TSA"" once on Facebook. Fuck the TSA.",timmy12688,ap8kt,fl63jvq,Air travel is what I missed most. The TSA can suck a bag of dicks.,fl62h33,greymalken,apfls
[You can pinpoint the second his arm rips in half](https://imgur.com/a/3dOS6a0),timmy12688,ap8kt,fl63avf,"It actually did go a bit wrong see full vid https://www.youtube.com/watch?v=vWGquxvqI_Y

at 9.50 the doll gets stuck and he nick his arm, see a bit after and you can see the cut under his right arm",fl5t5ax,Mortanux,ddt69
"When can I get my 90s Happy Days or That 70s Show? I just wanna watch rerun Sears commercials when I turn on the TV, skate around in a circle at the skateland and play Mortal Kombat at their arcade for a quarter, say ""that's the bomb"" and board a plan without having to take off my shoes.",timmy12688,ap8kt,fl62e38,Happy days?,fl60wko,greymalken,apfls
They arent. He listed the essentials. Car dealerships were not listed.,timmy12688,ap8kt,fl281ep,How do we know what’s considered “non-essential”? My husband works at a car dealership and they are saying they will stay open because they’re “essential” but I just don’t agree with that.,fl1t8um,UniqueSaucer,2zazx9on
"He said in the conference. Police will get a cease and desist with possible fines attached. Call the police. Seriously. But governor said to attempt the nice approach first. IE, force the issue and walk out with your coworkers. I am working with my wife right now to help her and her coworkers do the same. It’s 10 people.",timmy12688,ap8kt,fl27yrj,Anyone know what happens if a company that is nonessential refuses to close?,fl0n0vn,hollyhotdogs,1514vuum
">The Stop Trading on Congressional Knowledge (STOCK) Act (Pub.L. 112–105, S. 2038, 126 Stat. 291, enacted April 4, 2012) is an Act of Congress designed to combat insider trading. It was signed into law by President Barack Obama on April 4, 2012. 

Huh... Thanks Obama. 

I didn't know this law passed. Thanks for correcting me! :)",timmy12688,ap8kt,fl1h8r5,https://en.wikipedia.org/wiki/STOCK_Act,fl1ggtr,OSRuneScaper,226psn4
\!Have 1488 BTC. OPEN wug? ISO SOJ IK ENGIMA HRs HOTO,timmy12688,ap8kt,fl1gq1t,Green:wave2: selling btc 25k ea!,fl1ak6m,treosx23,6qj58
It's not against the law for Congress to participate in insider trading. You know who passed this law? Congress.,timmy12688,ap8kt,fl1g8ws,Resignation is not justice,fl12k5e,OSRuneScaper,226psn4
/r/im14andthisisdeep,timmy12688,ap8kt,fkzaayh,"Wow..Earth is recovering

- Air pollution is slowing down
- Water pollution is clearing up
- Natural wildlife returning home

Coronavirus is Earth's vaccine

We're the virus.",fky1vea,LeoBaBoy,5yxt12gv
"No he doesn't! This is exactly why this is a problem because you were told that lie, what 8 years ago?? And now here you are STILL repeating it. That's the problem with lies, they stick and the truth doesn't. 

When you look at the *personal income* of Warren Buffett (WB), that's only 1% of what he earns.

[He is the largest shareholder of Berkshire Hathaway.](https://www.sec.gov/Archives/edgar/data/315090/000119312518219854/d467347dsc13da.htm) He earned $4 billion in earnings because of this stock position which BH paid 29% income tax on. The top rate being 35% (meaning he spot a lot of money on accountants to reduce his rate from 35 to 29%). 

None of the above is taxed under his *personal income* yet. If he wants any of those billions of dollars of value, he'd have to issue a dividend or sell the stocks his tax rate for income would be 45% and that's much higher than what his secretory pays. WB knows this.",timmy12688,ap8kt,fkxy9so,Remember how Warren Buffett's secretary pays more in tax than he does.,fkxj5ke,Phyllis_Tine,7cuoj
Fire her.,timmy12688,ap8kt,fkxjg2a,"No, but she won’t hear it.",fkxhn9k,sportstvandnova,3kc4qpo9
"Bill proposed for $6,000 per person not household today. Upvoted like crazy on Coronavirus sub. I swear that sub is slowly becoming UBI and socialism.",timmy12688,ap8kt,fkw7p1j,"Why not make it 5,000$?",fkt32rl,utdbenj,3zr1d38f
Ay mate. If you want to know the source of your problems you only need to look into a mirror.,timmy12688,ap8kt,fkvz290,"It's time for a revolution i say. Enough of the 1% hoarding all the wealth. They had their chance, i say it's time to eat the rich 2020.",fkvvqyi,TzGillam,pjyh9
/r/holup,timmy12688,ap8kt,fkv7hg0,No colors anymore I want them to turn black. I see the girls walk by dressed in their summer clothes I have to turn my head until my darkness goes,fkv6f03,Mors-Dominus,14jzdscx
"That's fine, as long as it's painted red.",timmy12688,ap8kt,fkuz023,What if I want to paint it black?,fkuwuuj,Ralph-Hinkley,pxwcm
"> As a small business owner who went under in 2008 I say fuck em. Push the reset button. The market will correct itself, that's the whole point of capitalism, right? 

Yes! MAGA! Stop bailing out companies! Damnit! I'm so upset that Trump is mishandling this! He's just making the problem worse in the long run. Which has been the problem since 2008. They keep kicking the can and inflating the bubble bigger and bigger.",timmy12688,ap8kt,fkuyepv,"As a small business owner who went under in 2008 I say fuck em.  Push the reset button.  The market will correct itself, that's the whole point of capitalism, right?  Otherwise I don't want to hear any bitching from any MAGA cultists about socialism, because it's already here.

Funny how it's the rich and elite who get bailed out but the little guy can't even get a minimum wage hike.  I lost everything I owned because the banks made awful decisions and ruined the economy.  We were just becoming profitable after three years of busting our asses.

So yeah, I'm having trouble finding some wellspring of sorrow for the people who constantly put themselves first, and put the common man into untenable situations.

I get what you're trying to say, but maybe big Billy Billionaire should spend some time laying mulch or baling hay to make the ends meet.  I really don't give a fuck about his portfolio or his overseas tax haven.",fkun8fa,Holts70,3yocowaf
right. All true but if there is no economy there’s no value in owning Bitcoin. It’s way too risky when you just lost your job and are worried about rent/mortgage or food/medicine. People would sell. I think BTC will peak when the economy starts coming back after all this blows over and supply is limited. I’m looking a couple months past halvening.,timmy12688,ap8kt,fkt2pdt,"Yep, I think this is the perfect scenario for BTC. Trillions are getting injected in the system. Every country fighting corona will do that. Reserve requirements are 0%. Interest rates going negative. BTC may still fall shorterm until the corona situation  resolves but long term I am bullish AF. 

100k BTC looks like peanuts if you take into consideration everything that is happening in the world",fkrbcou,Ferdo306,2lcvzdpx
Maybe I wasn’t clear. I knew you were being sarcastic. I just heard them when I read it. Hahaha.  Hoping my wife gets it and accidentally infects then whole office! Only joking but dang that would be ironic.,timmy12688,ap8kt,fkrveit,Sorry I should have put a sarcastic tag on it.,fkru0dv,Skrivus,om1a0
"I had to downvote you for a second to make me feel better. I made it an upvote. I know you're joking but it really sounds like that's what they are saying with ""Our office won't get it"" talk and ""We are the experts"" AARGH",timmy12688,ap8kt,fkrsvhn,The virus checks of you passed the BAR & won't infect you if you did.,fkrs7ms,Skrivus,om1a0
Tell them in legal writing!,timmy12688,ap8kt,fkrprqm,Tell that to the people firing for calling off.,fkraljq,TheDoubleDang,5x8bh86q
You cannot be fired for calling in sick.,timmy12688,ap8kt,fkr83yq,"How the fuck am I supposed to stay home? 

‘If you’re sick we strongly urge you to stay home’ 

I’m sick RIGHT NOW  but I’ll get fired if I call off from work and then won’t be able to pay rent or bills. I have a small child and am a single parent,

Tf am I supposed to do??
I don’t have any other choice",fkr2cpw,chewyfruitsx,5c7lv3u5
"> Willingly ignorant people like this are directly responsible for the inevitable deaths to come.

Yes. Indeed. My mother was hand-waiving it all for a while. But I basically cried on the phone with her and told her how it's my literal job to analyze data and mitigate risks for our hospitals and the data isn't good. I begged her to take this seriously and she from then on out did so, I think, merely out of love and respect for me. Also how I was going out of my way to run to the store for her other elderly friends to make sure they didn't have to go since they are all higher risks. 

You want to hear something funny? My wife was denied working from home because she ""wouldn't get any work done. You have too many distractions at home. You have three dogs you'd be petting all day."" Not even joking... I hate this mentality SO MUCH! Oh and because I AM working from home I WILL be a distraction to her too. FFS. Thanks for letting me rant/ramble a sec. I just needed to vent. Don't get me started on idiots on facebook and bragging about going out to bars.",timmy12688,ap8kt,fkr3pny,"I feel your pain, I have a sister in law who got off a plane last night coming back from Disney World and went right into work today in a small office, even after her aunt who has been a nurse for 30 years told her she should immediately self quarantine for 14 days. Also, her mother (my mother in law) thinks my wife and I are crazy for telling the entire family no visits for at least a few weeks. Willingly ignorant people like this are directly responsible for the inevitable deaths to come.",fkr32lx,Earwaxsculptor,8tkkh
"I'd attribute it to the Blue Ridge Mountains or the Shenandoah River and how life is old there. You might even say, older than the trees but younger than the mountains growing like a breeze...",timmy12688,ap8kt,fkr2ms0,"What is going on with West Virginia? Based on the numbers in the surrounding states, I would be shocked if they were still at zero. Gross negligence? https://imgur.com/a/3exVCJg",fkqrwpq,cheddarben,347p1
"Really doesn't work since they don't care. I am responding with ""I hope a loved one doesn't need a ventilator"" to not much more effect. I did tell them I am blaming them for anyone else that gets it March 27-30 since that's when those will show signs from St Patty's Day and that was the argument. We have three cases in our town.",timmy12688,ap8kt,fkr290u,"""You are a fucking idiot.""

Nothing more, nothing less.",fkquiiy,Earwaxsculptor,8tkkh
"Wait I thought that was an onion headline...

Edit: I’m not joking. I legit laughed at it when I saw it on all.",timmy12688,ap8kt,fkpk6td,"As for math being your thing, looks like these guys could have used your help:

https://reddit.com/r/Coronavirus/comments/fjxars/bill_neely_breaking_the_entire_uk_strategy_for/",fkpjgmn,IReadTheWholeArticle,5un4benx
Hmmm you could be right. Hadn’t considered that. Either way I’m glad he did and glad he closed to Europe.,timmy12688,ap8kt,fkpjexj,But that was for he trade war. The virus was just an excuse,fkphroj,Its_Just_The_Flu_Bro,5xjbvtf0
"Like Troy fucking cared. I don’t mean the city, I mean some drunk ass bitch named Troy. Fuck you Troy.",timmy12688,ap8kt,fkpjchs,"908 cases, 48 deaths. Experts expect this to double weekly. 

https://www.doh.wa.gov/Emergencies/Coronavirus?fbclid=IwAR11swRLYyLG6fJW6xUbTyKYD2D7FNJt-ZXLwxe7Ll1p0bun8LKtFrc7JJw",fkpi6tm,takemusu,6646k
Wow. I actually didn’t know. Thanks! Always a terrible speller. Math was my thing.,timmy12688,ap8kt,fkpj5bv,(It’s border. I’m sorry but I’ve seen it spelled this way all day and it’s driving me bananas.),fkpis4i,IReadTheWholeArticle,5un4benx
He closed the *border* to Chinese flights immediately back in *January*.,timmy12688,ap8kt,fkphhpu,"Trump says the right thing at the wrong time.  If he said this 4 to 6 weeks ago (evidence was there), he'd be seen in a very good light today. But no....just a week or so ago, the virus was nothing, now it's everything.",fkphdbx,ukdudeman,12ykjb
"Because time-value of money. A sandwich today is more valuable to me than tomorrow. iPhones, video games, TVs et all have the same argument. Why buy today? You can wait a couple months and get a better TV or a sale on that new vidyagame. But you don’t because it’s valuable now. Keynes depressionary spiral does not take into account how the PPF contracts from overexpansions in Credit (like the Fed right now!). Long-term investments are competing with the short term. Search for hayekian triangles for more info. Or Austrian theory of the business cycle. Deflation is not bad! (Well...to be completely fair it is when your entire economy is artificially propped up through credit expansions for decades). But when you’re doped up on meth eventually you’re gonna crash and burn!",timmy12688,ap8kt,fkphccd,"It's tricky, but most of the times you don't. You're thinking as a buyer, but in reality you are generally more a seller than a buyer. You're either selling your time or your craft or a product, and if all prices go down, your value will also go down  by a larger factor. 

Since all prices are going down, why would anyone bother investing in anything, since we can just hold cash and it will gain value in time?",fkpgh21,myempireofdust,7ub7s
I’d rather the value of money went up than down and prices went down. The word is backwards.,timmy12688,ap8kt,fkpb9kn,"Yes, there are three advantages to QE.  First, it keeps money flowing in the way you describe.  Second, it keeps the currency from deflating (which is much worse at the macroeconomic level than common sense might tell you).  Third, it helps to prop up the value of the purchased asset, many of which are still held by financial institutions, during the period of decline.

It's a justified response, it just looks bad.  Luckily the folks at the Fed aren't directly elected.",fkoxdxq,the_than_then_guy,5nrgw
Yup. We have it in IL and three in the hospital confirmed. “Who’s going to the bar tonight?” No staythefuckhome. Angry ensues all around.,timmy12688,ap8kt,fkp3p0l,I've been bookmarking posts to come back in 2 weeks when we're on nationwide lockdown and the death rate has grown x20. I predict a lot of blocks or deleted tweets/comments.,fkoyj8k,FTThrowAway123,x87dagb
"> Trump just said a few minutes ago no gatherings larger than 10 people now. 

Is it in the press conference? I haven't been able to watch since I""m so busy with COVID stuff. Haha. Trying to listen to it now. My wife's office (attorney's) won't allow her to work from home. They had a big conference and basically said ""You won't get it."" Oh and ""You guys went to Target sooo how serious are you actually taking it?"" That made me mad. And finally... I am working from home so therefore I will be a distraction (and the dogs). I fucking hate them right now. Hoping this is all a mild case of ""just the flu"" and they're right for everyone's sake. Buuut... NO ONE KNOWS!!! Our data is awful!! Our testing is nonexistent! 

Sorry for the ranting. I'll stop now. But only because I have to get back to work. Pts needs beds.",timmy12688,ap8kt,fkopyaq,"Oh my goodness, that is terrifying. Makes me wonder about liability. Trump just said a few minutes ago no gatherings larger than 10 people now. Hopefully employers will listen. Stay well!",fkojcid,StarryEyedSurprise33,ytkp4ar
I don't know. Will you repeat the question?,timmy12688,ap8kt,fkoaxsd,are we all going to die?,fklyb1e,Papa_Furanku,2fittdcv
Keep them home. Stay healthy and away from crowds yourself. They are at risk too.,timmy12688,ap8kt,fkoash2,"I'm worried about kids with asthma. My 9 year old son has it and, while it is well controlled, who knows with this situation? And there are so, so many kids with asthma nowadays.",fkkmfbw,lionglitter,35rdy8yn
My SIL is going out for St Patty’s day while living with her dad who is almost 70,timmy12688,ap8kt,fkhvt2x,"
Here’s the thing - the sooner we self isolate the faster the virus is starved of new victims, and we gain control. I’m sitting on my cash waiting for the markets to improve and then funding 2020 Roth’s at a discount. I have faith we are doing the correct things medically to take care of ourselves.

Does it sound/feel icky to my Constitutional Libertarian self? Yeah. But the government didn’t shut the MLS down. Government didn’t shut my grandmothers nursing home down to visitors. They didn’t shut my church down or my private school.  Private companies and organizations decided to take these measures because most businesses are run by people. Even large faceless businesses - it’s in their best interest to get their customer base healthy as soon as possible. Self isolation is the single best way to do that right now.

When the government does limit gatherings... it bothers me in a “on paper” way that gets placed in the same space as vaccinations. Is it wrong to force someone to take something into their body they don’t want even if it helps the rest of the herd? Yes - it is. It would bother me about ANYTHING else, but with vaccines... Yeah - I’m okay with that if you want to make use of any public facilities or services. Private facilities and services can have whatever requirements they want as well. So don’t get your shots, but you’re basically going to be exiled.

Turns out, most people just want to keep others and themselves healthy. Statics show [self isolation](https://medium.com/@tomaspueyo/coronavirus-act-today-or-people-will-die-f4d3d9cd99ca)  works really well to achieve that goal. WHO knows that, doctors know it, and governments have been told by their health departments.

Unfortunately we live in a world with stupid people who would pull a lever marked “don’t pull lever under any circumstance - world will end” just to see if it’s true. Those people flee quarantine because why should they have to stay?",fkgi7t2,thathappensalot,2dh0x7m4
Haha. The first time I saw one attached to a toilet was at my wife's best friend's house. (Say that three times fast). I was thinking to myself...why does she have a kitchen sprayer attached to the toilet?? Ohhhhh... It's for masturbation!! Haha no I realized it was a bidet but that's funnier.,timmy12688,ap8kt,fkfa29v,I might just be,fkf78m7,Alej915,nt3fgw5
If property wasn’t subjective then the 2008 real estate bubble should not have happened.,timmy12688,ap8kt,fkf82pp,"Is property subjective? 
The price may fluctuate but you can live in it or use it as a place of business.
Bitcoin does not offer this.",fkbb50c,LeaderSigns,1404x9
"I’m honest with my mistakes. And id likely have upvoted my mistake comment as well. You kinda have to under the “culture” a bit being that we are used to being downvoted by bots or everyday users on the site. Brigades from srs and other subs too. Hence my autopilot upvotes comments I’ve read pretty much 100% these days. Unless it is someone trolling. 

Anyway... I really am not sure why you bothered typing all of that. It didn’t sway him and you know it wouldn’t. You sounded kinda...rude? Angry? Idk. I just hate how we talk past each other these days ya know? Am I doing it right now to you? It’s so hard to see the other person on the screen but I’m trying to every day. 

Anyway sorry for the ramble. You just got me thinking “out loud” haha. I hate how much it makes me sound like a boomer too! Especially since I’m only 32. Hope you stay healthy during this pandemic.",timmy12688,ap8kt,fkf7ayy,"Ah, so nice to know i was right.  You're kind of a moron but an honest one so you have that going for you.

EDIT:  Also hilarious that some one piled on and up voted your mistake.  Trump supporters, it doesn't need to make sense we just upvote.",fkf5pne,chrisp909,gtl91
That's what people said about the_don but their new website gets 1mm unique viewers PER DAY. It ain't bots.,timmy12688,ap8kt,fkf5vux,Most of them are bots,fkes1mz,Vomelette22,103o1pzu
Most kitchen sinks have a bidet if you're gross enough.,timmy12688,ap8kt,fkf4pxn,"I'm surprised no one just gets a bidet. Actually, I have seen my favorite brand sold out on amazon so they probably are starting too. They're fucking amazing. [Cause before I changed my diet to a healthier one like this to fix some health issues(lactose intolerant)](https://www.youtube.com/watch?v=KIxIaHy3n8A&list=UUBAyDAs2M6klx0Q09DKmsHQ), I was having to wipe thousands of times just to clear the mud. But now, never again will I have to endure [the risk of the thousand wipe mud butt cleans](https://www.youtube.com/watch?v=vGCIGEUB32M). Cause seriously, it gets so frustrating, [as if the aliens these guys seen are teleporting crap back there when I wipe](https://youtu.be/Ocv1ivfAT1c), that sometimes I almost want to quit 50 wipes in and just leave the shit on my ass.",fkf1t7a,BuyBitcoinForFutureU,45vdfjcj
"Hahaha! I wasn't. Sorry. What I should have said was ""Do you feel better now that you ranted for 5 minutes?""

What I thought I was replying to was my comment about there only being 55 test kits available.",timmy12688,ap8kt,fkf4crk,You're asking if i feel better than a $300 test kit?  Are you sure you are replying to the right thread?,fkexjnm,chrisp909,gtl91
A $300 test kit available for those that want or need it.,timmy12688,ap8kt,fkevkvd,Better than what?  Not sure I understand the question.,fkesezh,chrisp909,gtl91
I’m not angry. I’m not OP you were talking to. I bought in 2013 at $209 so I’m just fine. You are laughing at the misfortune of others and then saying asking if people are mad to troll here. What’s wrong with you?,timmy12688,ap8kt,fkevj7w,"I laugh at stupid comments, especially from the ""advice"" given around here. You are angry because your buttcoin went down. How am I offended?",fkespog,SkepticPerson,q77ef4u
Laughter and happiness at the anger of others is still an emotion. Troll,timmy12688,ap8kt,fkes0rq,I wasn't aware that laughter is considered taking offence. u mad?,fkb17e9,SkepticPerson,q77ef4u
Do you feel better now?,timmy12688,ap8kt,fkemlcc,"**I want him to shut the fuck up and let people who know what they are doing coordinate the effort.** And I don't mean his boot, licking lackey Mike Pence.

Trump's been down playing this and spreading mis and disinformation since the start and it has affected the effort and it HAS been a contributing factor in the market craziness.  

He's constantly contradicted experts and has (is) intentionally stifling information that he thinks will negatively impact him.

The President of the US has been saying things like this for the last two months.  


* Other politicians voicing concern about the virus was ""a hoax.""
* COVID-19 was going to just go away ""like a miracle.""
* That the virus was ""all but contained"" in the US and ""The numbers of cases is ""going very substantially down, not up.""
* The flu has much higher fatality rates than COVID-19
* A few weeks back when we had 45 confirmed cases and he kept saying (over and over) there were only 15 he said this  “the 15, within a couple of days, is going to be down to close to zero. **That’s a pretty good job we’ve done.”** 

**He has stifled and muddled efforts to communicate and effectively organize an effort to combat this event.  At the very least he has stoked massive confusion with his DISinformation.**  

That's not unusual for the Conman in Chief but his efforts in this case is going to cost additional money in a slap-shod catch up effort and there will very likely be a cost in lives.

You are obviously a Trump fan boy so I don't really think any of this will impact you in the slightest.  

Trump was absolutely right about his base, he could shoot someone in the middle of 5th ave and he wouldn't loose a single one of your votes.",fkefppg,chrisp909,gtl91
wooooow,timmy12688,ap8kt,fkebo2f,Eh itd be seeet justice if this virus kills him,fkdo4ur,PJExpat,4s2rhetj
"Is socialism bad in your book? If not, then why does it matter? If yes, then why would making it """"democratic"""" make it any better. It's all silly. Like your comment.",timmy12688,ap8kt,fk9o2qu,Democratic socialist =/= socialist democrat =/= socialist.,fk9jlpg,Detective_Cousteau,52sh9be5
Thanks for seeing the human.,timmy12688,ap8kt,fk9nsgf,"He's definitely not being excellent in dealing with this shit show, but anyone in his shoes now would be stressed - probably the most stressed a person can *be*

Imagine being president of the United States in this economy, during a pandemic! I get a tummy ache just from thinking about it",fk9lhfn,carolnuts,avtm0
"> The first one is that the website and author are heavily politically biased. The author holds no credentials in the medical economic, or scientific industry. If you posted that article on r/science, you’d be laughed out of the room. 

Holy Appeal to Authority Batman! Of course it is politically biased. Have you seen how much our politics dictate economics? He is attempting to convince you of policy based on reasoning. Secondly, also would be ""Laughed out of the room"" in economics too. I have an econ degree and whenever would mention such policies in class or to bankers they would either, roll their eyes or laugh like you said. Art Laffer, who created the famous Laffer Curve, laughed [when you told him there was a housing bubble in 2006.](https://www.youtube.com/watch?v=sgRGBNekFIw) Mind the potato quality. It's 7 year old video. Go ahead and watch that entire video of """"experts"""" laugh as you would about the housing bubble. Yet we Austrians [predicted it years in advance](https://www.youtube.com/watch?v=kFd8YluIVG4) because we have axiomatic truths in economics that mainstream economists ignore. 

>Which one is worse? 

I'm confused by your false dichotomy. Are you asking is bankruptcy or death worse?

>Again, nobody is denying or hiding the fact that taxes will be raised. 

But the people saying how much taxes are raised are lying. It will not be able to be paid, just like UBI. The cost is not feasible especially with 330 million people. I'm going to go out on a limb and assume you that that the Trump Administration has done a terrible job at handling the Coronavirus. Am I wrong? So you want that *same government* to be in charge of our *entire healthcare.* Yea, I'll take my chances with bankruptcy! At least I have a chance again.  

>This is essentially just an article that probably took him an hour to write

[Would you prefer I link you a book?](https://www.amazon.com/gp/product/1939563097/ref=as_li_tl?ie=UTF8&tag=consultingbyr-20&camp=1789&creative=9325&linkCode=as2&creativeASIN=1939563097&linkId=dc4b13d3e712ac40c7032515b846760b) 

The pap smear was tongue in cheek. 

>Emergency medicine does not follow the laws of supply and demand.

Yes it does. Every. Single. Thing. follows the laws of supply and demand. You are just focused on the elasticity being low. Again, I must emphasis this as I tried to do with my physics example and my example with food. Is food not essential? Yet somehow it is cheap and accessible. Is not housing? Transportation? But look what happens when you have the government put its ugly hand in the market. Look at interest rates. Look at money. Look at our failed roads and public transportation (until Uber came along). ""Stitches R Us"" as Gary Where is Aleppo Johnson said, would exist in a market. And a market is far from what we have. 

We have seen the disastrous affects of government healthcare. I would like to see the market have a fair shot again. Then if it fails we can go your route.",timmy12688,ap8kt,fk9lugp,"The source you cited has multiple problems. The first one is that the website and author are heavily politically biased. The author holds no credentials in the medical economic, or scientific industry. If you posted that article on r/science, you’d be laughed out of the room. 

> Yet it is also a term that reveals the government's subtle takeover of the healthcare industry.

That is the author’s “rallying cry”, and it’s what he’s trying to point out as the negative force behind single payer. First of all, the federal government taking over the healthcare industry is the entire point behind single payer, and that fact isn’t hidden; second is that whether or not government control of any industry is a bad thing is a purely subjective thing. You can’t measure it though scientific means. 

> They just do it by imposing long wait times, cutting off costlier patients, and restricting access to hospital rooms.
 
If this does become true, the alternative is being forced into bankruptcy and restricting your opportunities in life via a ruined credit score. Which one is worse? 

> In fact, the first ten years of Medicare for All will cost $32.6 trillion. These $32 trillion cannot be allocated unless taxes are raised on the middle class and working families.

Again, nobody is denying or hiding the fact that taxes will be raised. This article also completely ignores the money that Americans already spend on health insurance premiums that would be completely eliminated.

This is essentially just an article that probably took him an hour to write, and attacks all the low hanging fruit on M4A without providing any context.",fk95g4i,youtheotube2,i68td
">and you can be forced to pay whatever price the market wants. 

Nice! I'm going to make a ton of money as a hospital then! I'll just charge whatever I want. $2mm for a pap smear. Doesn't matter. People are forced to come to me right? 

> It doesn’t change the fundamental flaw where the healthcare providers get to set their own prices.

That is not a flaw! That is a feature! Again, you have to understand that healthcare does not change the dynamic of market forces. It is not a single bit different in terms of how supply and demand affect price, than the television industry. Would you're saying is like saying the third law of thermodynamics just doesn't work because the Sun is so large. It is a nonsense statement right? What you have above is the same sorta nonsense. 

[Single-payer is a terrible, terrible system.](https://mises.org/wire/two-big-problems-single-payer-healthcare)",timmy12688,ap8kt,fk91ze1,"Healthcare will never have the kind of market that gives us cheap sandwiches because there’s no choice involved in healthcare. That food market evolved because you can choose to eat Subway, or you can choose something else entirely. If you really want to, you can completely remove yourself from the market and produce your own food. You can’t do that with healthcare. When you need a hospital, there’s no way around that. You’re forced into the market, and you can be forced to pay whatever price the market wants. 

Single payer is not equivalent to subsidies. The power behind single payer, which is the system behind M4A, is that the government is the only purchase of healthcare. If hospital systems and pharmaceutical companies want a piece of the market, they have to accept the price the government sets. This works because the prices are set to a level that isn’t so low it drives the companies out of business. This is opposed to what we have now, where there are hundreds of big insurers. The care providers (hospitals) can set whatever prices they want, and the insurer can’t afford to not pay that, because then their members go without healthcare. A subsidy is just money added on top of that system. It doesn’t change the fundamental flaw where the healthcare providers get to set their own prices.",fk8z2sa,youtheotube2,i68td
"You need to understand that everything is limited and finite. ""Healthcare"" is no different other than the elasticity. Food is something that is a need yet we don't see Bernie Sanders complaining about it! Because we have capitalism with food and a marketplace of competition in providing food. Think of everything that needs to happen so that you can have a Subway sandwich. The tomatoes, ham, lettuce, all need to be produced, shipped, and in stock. And it's super cheap. THAT is what a market looks like. Healthcare? Pfft. Not even close. If we had that, we'd have an UberNurses App where you can call for a nurse to your house if you are sick. 

> Obviously there’s people out there who will have the opposite happen, and that’s an unfortunate reality.

With a population of 330 million, you'll have everyone footing the bill. Moreover, there would be no incentive to reduce cost. Do you really not see the skyrocketing college tuition prices thanks to government subsidies and not put two and two together of how that would translate to hospital bills??",timmy12688,ap8kt,fk8vukl,"> I live in a city of 111,000 and we have three different hospitals to choose from.

With those three hospitals and probably dozens of clinics and independent doctors, you get to choose your provider for things like doctors visits and checkups, but that’s not what bankrupts people. When people go bankrupt from medical debt, it’s because they had an unforeseen chronic illness, or a catastrophic accident. You don’t get to pick what hospital the ambulance takes you to, you don’t get to pick what hospital in your area has the level of trauma center you require, you don’t get to pick which hospital employs the oncologists that specialize in your type of cancer, you don’t get to pick when you’re literally going to die in an hour and need to be lifeflighted away at $50k per hour in transport costs. You have no choice, because the medical system is set up in a particular way that concentrates resources where they’re needed. 


> Pay for their time, expertise, and skill. To do otherwise is to say you are entitled to their labor.

Absolutely nobody is saying that doctors should work for free. Everybody who supports M4A knows that taxes have to go up to pay for it, but the whole idea behind that is that the increased taxes are still less than what you pay in insurance premiums. Obviously there’s people out there who will have the opposite happen, and that’s an unfortunate reality. They’re in the minority though, and they still get all the benefits of a healthy society.",fk8o0bt,youtheotube2,i68td
">  when they have a monopoly on health care? 

I don't think they have monopoly. I live in a city of 111,000 and we have three different hospitals to choose from. Moreover, the industry's supply is diluted due to regulations like licenses. Do you really need 4 years of medical school to run an IV or do stitches? 

>don’t choose when you get sick or hurt 

You also don't pick when you are born, or when you die. Because you are hungry, does not mean it is my job to feed you. It is not the requirement of someone to cure you. Pay for their time, expertise, and skill. To do otherwise is to say you are entitled to their labor. And I thought we moved past that in this age. 

>What is the difference between getting insurance through your employer versus through the government? It

To me? Not much honestly. I hate that insurance is required these days. Our system is broken. So much so that even as a freedom-loving anti-government ""nut"" I might agree with M4A or other such plans. The government broke the system in order to usher in the control, but I digress. 

Doctors used to go door-to-door and sell catastrophic health insurance. Your health insurance should be like your home insurance! Use it in case of flood, fire, tornado. Imagine calling your insurance agent because you need to change a microwave. THAT is how crazy health insurance is these days... I hate it as much as you do. I don't have a ""solution"" other than to step out of the way for our doctors. Instead, what's proposed is more of the same things that broke the system.",timmy12688,ap8kt,fk8mewi,"How do you justify hospitals and insurance being for-profit when they have a monopoly on health care? You don’t choose when you get sick or hurt, and for the most part you don’t choose where you get treated. The only choice you have in the matter is which insurance plan you buy from your work, if one is offered. Big employers are not willing to negotiate with you over insurance plans. 

What is the difference between getting insurance through your employer versus through the government? It probably sounds like an obvious answer, but I want to hear your opinion.",fk8lc85,youtheotube2,i68td
ooooh I'm dumb.,timmy12688,ap8kt,fk8eprj,Slur for gay,fk89os8,AmyDeferred,22v8keb
What’s the last one? I seriously can’t figure it out...,timmy12688,ap8kt,fk86lak,"Deep down, social conservatives believe in 3 genders: man, woman, and f****t

You're either a patriarch, a baby incubator, or a subversive",fk7l681,AmyDeferred,22v8keb
"If was a general “you” since I knew others would read and downvote, but I appreciate ya. 

Have a good one.",timmy12688,ap8kt,fk84uud,"Just to let you know- I didn't downvote you.  

I'm also not going to debate you because what's the fucking point?",fk80fss,billiebarkingbastard,nho9o
"Is gold fools Bitcoin. 

Wait a minute... 

Is good...fools Bitcoin. 

Is good for Bitcoin. 

This is good for Bitcoin! 

*takes off sunglasses*",timmy12688,ap8kt,fk7y6wx,Fool is golds fool,fk621wl,PanzerSwag,mfew9
All of them? For-profit is not evil or bad. I am against mandatory anything as I want you to be able to negotiate what you need with your employer. For example I do not need birth control provided to me as a male. Finally Trump is doing a great job. I await your downvote since you disagree. Meh. Reddit is about to go the way of Digg with their censorship policies. Oh well.,timmy12688,ap8kt,fk7v6cw,Which of his three statements do you disagree with?,fk7pqqj,billiebarkingbastard,nho9o
">  and use of force is a product popular with late stage plutocratic capitalism.

Where? 

Also 

>late stage plutocratic capitalism.

What a buzzword salad.",timmy12688,ap8kt,fk7otvq,"> using force isn't capitalism. Only voluntary transactions are

They aren't mutually exclusive.  Capitalism doesn't defgine what you can buy, and use of force is a product popular with the plutocratic rule inherent in late capitalism.

>That's why I want there to be nothing to buy

That comes immediately after extinction.",fk7oob2,BahktoshRedclaw,1b2yphi
"> ""I just had a mcdonalds""

*Wendy's would like to know your location.*",timmy12688,ap8kt,fk7oa1v,"""I just had a mcdonalds""

Her: Fuck you cheater

I mean it might be cheating on your diet but not your partner",fk7aizr,jamshush,zy9ng
Hey! Look! Someone not from the US shitting on the US! Everyone give him gold!,timmy12688,ap8kt,fk7nnzb,At the moment. The US is completely fucked with its backward for-profit healthcare system and lack of mandatory sick pay and incompetent President.,fk7ia6j,listyraesder,8xaep
"That's why I want there to be nothing to buy. Again, using force isn't capitalism. Only voluntary transactions are.",timmy12688,ap8kt,fk7l1gx,It's end stage capitalism.  Buying government itself.,fk7kifd,BahktoshRedclaw,1b2yphi
Not me! I found a meme that said I won the Game once. Felt great.,timmy12688,ap8kt,fk7krbz,Fuck you I lost the game,fk796qo,usmc_rello,cjygdte
Using government to influence is not capitalism. Get rid of the government’s power to influence! Then the businesses can only bribe YOU.,timmy12688,ap8kt,fk6g0pe,Most laws are lobbied by the rich corporations to screw things over or make things harder. Capalism.,fk6d5a6,taken_the_easy_way,chz8n9o
Would you rather they not be there and diapers left on the charger?,timmy12688,ap8kt,fk6cu1x,America: Where even the trashcans have ads.,fk4s7gl,manchegoo,2eywe
"Because the polls are made up, the media is lying to you, and has been for decades. I first saw it with Ron Paul. Media is doing the same bullshit to Bernie. They tried to do it to Trump to shoehorn Hillary in but Trump somehow took their ammo and used it. 

I really wish we had an honest media. It’s all too much. Fuck...even this site, Twitter, Facebook, Instagram, Wikipedia, they’re all trying to sell you some form of their political agendas.",timmy12688,ap8kt,fk5nttz,"Is anyone else really struggling to understand exactly what the fuck Biden was even saying? His sentences are always so incoherent, how is this guy so popular in the polls?!",fk59b6m,Kaamzs,16nxvk
"People always project what they fear the most or what hurt them the most. They say ""Read a book"" because someone said that to them and it hurt them. It hurt them because they know they need to read a book.",timmy12688,ap8kt,fk5lpe8,"“Read a book” is one of the most condescending things people say on this site. It’s like, for fuck’s sake, it’s because I’ve read books that I think your ideas are dumb.",fk5h1h9,YieldingSweetblade,1xcvaeat
"$20,000!? What am I supposed to go bankrupt when the mob comes? I don't have any gun insurance. This is why we need Sernie Banders to be elected. He is promising Machine Guns as a human right. And they are. With his bold plan you not be turned away from a gun store just because you can't afford one. Every American deserves the right to self-defense and the government should be there to help you purchase a high quality machine gun. 

Other rich countries like Saudi Arabia or the UAE help with firearms sales. I don't see how in a country as rich as the US can't afford basic machine guns.",timmy12688,ap8kt,fk51d3c,"Yeah the cost of the actual gun itself is the real problem. The cheapest ones I know of are tec-9s. And they will run you $3,000+. And are so badly designed and built they barely qualify as a functional firearm. Multiple jams in a single magazine is pretty typical. If you want something that functions well and is not worn out $20,000 is completely normal.",fk26hwv,Trav3lingman,9brad
"""Oh... We're all freezing now?? Ohokay... *stands as perfectly still as possible and not scratching my nose that won't stop itching suddenly*",timmy12688,ap8kt,fk3x89l,My social awkwardness would make me freeze instead.,fk3q293,SmolAnus,4up4mnt9
">that doesn't magically handwave away all the bullshit, right?

I'm glad that even you can admit it is all bullshit. 

In a pandemic such as this, the important thing to remember are the spreading and the probability of infection. Since this is a Corona if we all wash our hands and not touch our faces we'll be fine. We have until May until the levels start to reach the millions of infected unless we all act now. Wash your hands. 

>Oh that's very reassuring.

I'm glad you brought up something he did as governor, something unrelated to move the goalposts of the discussion. 

>Maybe you should find a new line of work.

I am in a couple years as I FIRE.",timmy12688,ap8kt,fk3uevh,">orange man bad


There it is, like clockwork. You know that just saying that doesn't magically handwave away all the bullshit, right?


>what the POTUS has done...


[You mean getting rid of key NSC pandemic officials and cutting Obama-era programs designed in response to Ebola to help contain pandemics at the source](https://fortune.com/2020/02/26/coronavirus-covid-19-cdc-budget-cuts-us-trump/)? Yeah we saw that, well done donnie, many people are saying the wellest done.


>and the VPOTUS has done.


[The guy responsible for an entirely preventable **HIV outbreak**](https://www.politico.com/news/magazine/2020/03/02/how-mike-pence-made-indianas-hiv-outbreak-worse-118648) in his state as governor, that happened because he refused to listen to any non-""Jeezus brand"" science? Oh that's *very* reassuring.


>I work in healthcare.


Maybe you should find a new line of work.",fk35xtg,wheatley_labs_tech,19ahenmv
"> I hope this is sarcasm.

It's not. And you're so caught up in Orange Man Bad you haven't seen what the POTUS has done and the VPOTUS has done. I work in healthcare. Our hospitals are ready. Wash your hands.",timmy12688,ap8kt,fk31kb8,"I hope this is sarcasm.  If he had *any* credibility left, reassuring us that it wasn’t our (his) fault, a suggestion of payroll tax cuts, and encouraging people to keep traveling to ‘certain’ places to keep the economy rolling... is not what the country needs.  We need to know that competent people are preparing to help keep us alive. Maybe he shouldn’t have decimated the very departments that were assembled to handle these things.",fk30jiy,cincymatt,9vvfl
"[Did you not see this?](https://www.youtube.com/watch?v=TPgBmHEVqPc) Or the daily open panels the POTUS has had? 

[This was Feb 26](https://www.youtube.com/watch?v=iXOjBB_Yyig) 

Are you sure you're not just...idk off the rails yourself?

spezit: Lolofcourse. This is downvoted. Wash your hands.",timmy12688,ap8kt,fk2yc5d,Sigh... A real president would at least get on tv and reassure the country.  Shit is off the rails!  Fuck!,fk2m0c1,Juice_Stanton,qfv4kt5
"I like how the rebuttals to this comment are ""You misspelled something"" and ""you need help."" 

So nothing.",timmy12688,ap8kt,fjoyyk4,"*their parents' basement 

Here I am, the European socialist whose first language is Italian and knows English grammar better than you.",fjouj1a,Modena89,xf844
Don’t worry about it. Happy Friday! The sun is shinning where I am. Hope it is for you too! :),timmy12688,ap8kt,fjop60u,"No problem. Sorry if I came across as a bit of a dick. Have a good one too, man.",fjomn48,TheSakred,1ljj8poe
"> and you don't question it for risk of being banned

I have expressed my disagreement plenty of times and was not banned. Like when he pardoned Blago, since I'm from IL. Or when he signed the PATRIOT Act again. It's obvious trolls that get banned. Eh whatever. Have a good one.",timmy12688,ap8kt,fjomhmj,"The bug that affected numerous subreddits and made their posts 0 upvotes too? Yes, I was.

You wouldn't have been told that in T_D, though. Funny, that. You're TOLD what to believe without any sources and you don't question it for risk of being banned. You're a sheep. Congrats.",fjolvbn,TheSakred,1ljj8poe
"I was giving you some perspective that we'd likely not sign it had it been seen. Also I'm there every day. And yes, spez has manipulated and messed with the numbers. Were you on the day that they messed with the upvoting and all our posts were hitting all? Haha That was a fun day.",timmy12688,ap8kt,fjolgvi,"Sample size of one (you), vs a sample size of 450k (or 6 million bajillion as you guys claim).

Hmm.",fjol1sh,TheSakred,1ljj8poe
"I didn't see this and even if I did, would not have signed it. Weird as I'm there daily. Check my history, I have it pinned that I post there.",timmy12688,ap8kt,fjokmxc,"They had a petition going two years ago when they had around 450k subscribers.

https://www.reddit.com/r/The_Donald/comments/6fgt23/petition_to_revoke_cnns_press_pass/

https://petitions.whitehouse.gov/petition/revoke-cnns-press-pass-0

11.8k signatures is all they could muster as bots cannot sign petitions.

It was pinned for a week too. I'd say they're closer to 100k.",fit4f5b,TheSakred,1ljj8poe
The post is satire. It's hard to tell with Poe's Law these days.,timmy12688,ap8kt,fjngrvh,"Ok, so you think taxes are justified theft. You're entitled to that opinion.",fjnfg5w,shadowofashadow,fojw5
"> You agreed /consented to take the benefits the minute you were born in the sovereign.

TIL babies can consent.",timmy12688,ap8kt,fjngoz7,"You agreed /consented to take the benefits the minute you were born in the sovereign. You (really your mother) had the option of not using the sovereign’s resources - however a birth in the middle of the ocean was not an option she likely chose. Additionally, by remaining within the territory of the sovereign you are perpetually consenting.",fjnda98,Blawoffice,4rbpnc37
Which probably doesn’t get bombarded with comments meant to ban the sub made by people who hate the idea that there is a different sports sub. That’s what was going on! So they can ban us for “””inciting violence””” just like they quarantined us for threatening police officers. All it took was one comment. Yea. Okay. Reddit is such a bad joke.,timmy12688,ap8kt,fjl6bmx,"They can't moderate all the submissions. If we're to be brigaded, we don't have the defenses. Moderating a lot of comments on very few submissions is a lot easier than moderating a ton of different spam submissions. Source: I mod a very large sports team sub on my non-political alt.",fjilsme,TommyLasordasBallbag,2qz6iky
"No u is all you got? And I thought you were just bad at virtue signaling. Now I know you’re also bad at insults. 

Anyhow, I hope whatever is causing that anger to rise up online in your posts to be dealt with in your life. Be happy. It’s up to you to make it happen. Peace.",timmy12688,ap8kt,fjl5ov4,"I have a bot that does it for me, so I don't have to dirty myself by actually reading any more of your bullshit than I have to

It's always amusing to me to see you Trump nuts accusing other people of being a 'NPC.'  Biggest case of projection in history considering how quickly y'all fall in line with bullshit from a total idiot",fjl56tk,Havetologintovote,5o29y07s
Already did. It’s exactly why I have that post pinned. Lmao. See you in November.,timmy12688,ap8kt,fjl51wn,"See my edit, ya piece of shit",fjl4v1k,Havetologintovote,5o29y07s
Ah now I see you went ahead and checked my post history too to make sure I wasn’t wrong-thinking. Lmao. Maybe you will have your own mind one day but you’re just an *angry* NPC.,timmy12688,ap8kt,fjl4zi8,"> What would your argument be then? That they’re racists? 

Yes?  Who told you that people that aren't white, can't be racist?  Sheesh

I grew up in Houston in a VERY racially diverse neighborhood.  The black people there were racist as fuck towards hispanics, and vice-versa.  Hell, people from different hispanic backgrounds were racist as fuck towards each other constantly

> If your goal is to change minds and not to simply virtue signal how “not racist” you are, drop the hostility and stop the accusations. 

Bitch, nobody's mind is being changed by a short conversation on reddit, so drop this bullshit

Anyway, you're a Trump dick-sucker, so why dontcha go ahead and fuck yourself",fjl4pxd,Havetologintovote,5o29y07s
Hmm. Guess you just are here to virtue signal. K then,timmy12688,ap8kt,fjl4tkm,"> What would your argument be then? That they’re racists? 

Yes?  Who told you that people that aren't white, can't be racist?  Sheesh

I grew up in Houston in a VERY racially diverse neighborhood.  The black people there were racist as fuck towards hispanics, and vice-versa.  Hell, people from different hispanic backgrounds were racist as fuck towards each other constantly

> If your goal is to change minds and not to simply virtue signal how “not racist” you are, drop the hostility and stop the accusations. 

Bitch, nobody's mind is being changed by a short conversation on reddit, so drop this bullshit

Anyway, you're a Trump dick-sucker, so why dontcha go ahead and fuck yourself",fjl4pxd,Havetologintovote,5o29y07s
"Imagine you were talking to a black man or a legal Mexican immigrant who was saying the same things: “I want a strong border to prevent illegal aliens.” What would your argument be then? That they’re racists? Suddenly you don’t have an argument. Secondly it doesn’t convince a racist he or she is wrong if they are racist. I’ve talked to such people and when I say that’s pretty racist dude...they shrug and don’t care. If your goal is to change minds and not to simply virtue signal how “not racist” you are, drop the hostility and stop the accusations. 

Finally it’s really racist of you to assume that he is white and also doesn’t want illegals here because he is white. Your own racism is showing and that’s pretty nasty of you dude.",timmy12688,ap8kt,fjl46o1,"> Just because I have a strong stance on immigration and the negative impacts of illegal immigration don’t make me racist.

No, you have that 'strong stance' BECAUSE you're racist.  Plain and simple.

I've worked with many illegal immigrants in my life. Was in construction for a long time.  Every single one of them worked harder than your ass did, I guarantee it, and the things we built are standing today and serving the country.  What the fuck are YOU doing to contribute to society?",fjklbxe,Havetologintovote,5o29y07s
"> cinematic mode in the headset (gives the impression of playing on a cinema screen). 

I own a Vive so i can say I think this would be an awesome experiences, especially since having ultra-clear 4k etc isn't needed for a game like SoM.",timmy12688,ap8kt,fjk8g89,">When I was little I would level in the winter forests fighting wolves. 

haha me as well! Yes really looking forward to giving my body a rest from PSVR, although I will probably play in cinematic mode in the headset (gives the impression of playing on a cinema screen). 

Work cannot end soon enough! Thanks for sharing",fjk5nyj,Gluebagger,ha3tjwb
You aren’t listening to or retaining anything I’m saying. You can’t be convinced otherwise. So be it. I’m not really seeing the value in this conversation anymore. You’re kinda hostile too. Meh. Later.,timmy12688,ap8kt,fjek6qm,"> Because other people are going to see what you did. 

but they're on my side because they work for me because I give some of my gold to them

>But that isn't better because ""we voted"" on it. It just means the minority loses, guaranteed.

nobody can have all their conflicting wants satisfied simultaneously.  either a minority is going to lose, or a majority is going to lose.

>I'd rather have billions of these ""machines"" competing for your resources.

except power naturally concentrates in absence of regulations.  it may start out as billions, but eventually the winners will start devouring the losers, and you'd eventually end up with oligopoly, then duopoly, then monopoly.",fje8ogw,test822,byeso
"> how would ancapism prevent one of these private security companies from gaining a monopoly on force over a territory and essentially becoming an abusive state.

I already have. Again, other companies. Also you wouldn't buy from such a place would you? It also wouldn't make financial sense. But in the end, if I am wrong, and this does happen, at least much less people are being exploited. I'd rather have IL as a state than the USA as a federal state exploiting 300 million. 

>you coward. 

/Rolls eyes",timmy12688,ap8kt,fje7gw0,"> No, that's not what I said. I was describing YOU

and how would ancapism stop ME from being evil and hurting other people?

>Is this your go-to tactic to make yourself seem like you've won? As long as you feel better. You clearly need it.

don't dodge my question you coward.  how would ancapism prevent one of these private security companies from gaining a monopoly on force over a territory and essentially becoming an abusive state.",fje60dk,test822,byeso
"> why not

Because other people are going to see what you did. 

>democratically accountable 

But that isn't better because ""we voted"" on it. It just means the minority loses, guaranteed. It's two wolves and a sheep voting on what's for dinner. How many times have you heard about people ""voting against their interest?"" You have politicians bribing voters too. Then there's voter fraud and ""it matters not how they vote, it is who counts the votes."" Then you imagine the average person, and realize half the population is stupider than that! It goes on and on why ""Democracy"" is a terrible system. At least you acknowledged the machine is capable of evil. I'd rather have billions of these ""machines"" competing for your resources.

[Weird that this was just posted](https://www.youtube.com/watch?v=Vn1_vnvP3YU)",timmy12688,ap8kt,fje6lrg,"> Then don't expect to live long. 

why not.  I have the most guns and the most mercenaries that I hired because I randomly stumbled upon an oil well or gold deposit on my property or whatever.  I'm pretty sure I'll win.

>Seems like these types would want to be in power of such a machine don't you think?

yep, which is why the populace needs the right to bear arms so if someone ever tries anything the mob can slay them

>I don't want such a machine to have a monopoly

these machines create themselves.  if you remove the state, the private sector will eventually create such a machine.

if my choice is a machine that's democratically accountable vs one that isn't, I choose the former.",fje5ub4,test822,byeso
"Thank you for an answer. I will look into them.

Edit: eeeh [Seems I might need a different platform](https://www.reddit.com/r/RobinHood/comments/fcv3l5/robinhood_deficit_explanation/)",timmy12688,ap8kt,fje1ivq,"robin hood is a free trading platform and app, and no fees I believe...",fje1bxe,leapinleopard,27em9
"Yea but where? I have never bought stocks before and the wife told me to buy it since...I think it was $100-200? Also been trying to use the 403b to buy but they made it super difficult to pick your own stocks with it. You have to sign up with a different company, sign new forms, send X amount of money, and all these hoops to jump through.",timmy12688,ap8kt,fje160x,Buy Tesla stock instead.  My Tesla is virtually free with thAt method.,fjd47o4,leapinleopard,27em9
Candles.,timmy12688,ap8kt,fje0t7l,lmfao. The other $980 he simply has titled as misc.,fjdjgz1,jfugginrod,e7d3s
"I can't even be excited for other people anymore. My mom purchased a new vehicle and it it pretty cool... except it isn't even close to a Tesla in terms of cool. She was showing me all the gadgets and the MPG, this, and that. I couldn't help be feel extremely underwhelmed and wished she had bought a Tesla instead. Especially since she spent about the same. She needed ""room for the grandkids"" though and no Tesla really offers that for picking up four kids.",timmy12688,ap8kt,fje0pdq,"This neatly illustrates the (often long) period of weeks/months/years, between the *decision* to go pure-electric, and going online to place the Tesla order:

* The subsequent Tesla purchase *might* be in 2 years, …
* The lost ICE sale was ***immediate*** (…and has already happened)

and u/Bereet_ is not the only one to have reached this decision!",fjd1uby,paul-sladen,ko0s1
Reminds me of Civ II when you would upgrade your throne room but keep the stone rock for your throne.,timmy12688,ap8kt,fjdsjt2,Nice chair lol,fjd6gtk,Pringles_n_Pepsi,16wbjl
Watch what happens when you check mine. :),timmy12688,ap8kt,fjdlikv,I got one this morning! About time. Fucking Reddit.,fjd6q99,corbindallas52,13mw7l
[This is you](https://xkcd.com/774/),timmy12688,ap8kt,fjdamss,"Not trying to help, trying to mock all you idiots for basically killing yourselves and your descendants.",fjcwpiu,shapeshifter83,5udtg1y
"> I don't care. I'm still shooting you and taking your shit.

Then don't expect to live long. 

> if there should be a democratically empowered state with a monopoly on violence to stop these types of people, but hey what do I know

Seems like these types would want to be in power of such a machine don't you think? I don't want such a machine to have a monopoly because if even one of these people controls it, all will suffer.",timmy12688,ap8kt,fjdafye,"> See? That's the difference. It sounds as though you want to use your guns. I don't.

I don't care.  I'm still shooting you and taking your shit.

>IF the only thing preventing you from being a decent human being is the threat of violence then you are not decent.

people like that exist.  its almost as if there should be a democratically empowered state with a monopoly on violence to stop these types of people, but hey what do I know",fjd48py,test822,byeso
"> so your social system relies on nobody deciding to be evil?

No, that's not what I said. I was describing YOU. 

>you guys are so damn dumb dude.

Is this your go-to tactic to make yourself seem like you've won? As long as you feel better. You clearly need it.",timmy12688,ap8kt,fjdaab8,"> Hopefully you would stop yourself because you are a decent human being and know the immorality of subjecting another to slavery.

so your social system relies on nobody deciding to be evil?

hah!  and you guys call leftists naive!

>There is no longer a monopoly on the use of force. There will certainly be competition in forms of private security.

what would prevent one of these private security firms from gaining a monopoly over a territory and essentially becoming a state?

you guys are so damn dumb dude.",fjd5q49,test822,byeso
"> I'm opposed to living a subsistence lifestyle so that my labor may subsidize luxury for my superiors.

Can you elaborate what a subsistence lifestyle means? I have never heard that term before and want to know more about it. Thank you for your explanation.",timmy12688,ap8kt,fjd3uiv,"> So I just maintain the machine and don’t produce anything. How much of the pie do I get? How about the people taking calls? How about the people managing people? How much of the pie for them? About the people managing the people who are managing the people? Cause it’s a big and successful company. How is the pie sliced up and the value determined? 

A combination of the market, the companies revenues, and the will of the workers. Why are you asking? Workers are the ones who determined that in the first place.

>Whenever I hear talk like this it’s always sounds like someone who has either never worked in a higher up position or opened and made a successful business.

I'm not remotely opposed to higher ups making more money. I'm opposed to living a subsistence lifestyle so that my labor may subsidize luxury for my superiors.",fjc395t,the_calibre_cat,zsd36
