child_body,child_screen_name,child_user_id,child_tweet_id,parent_body,parent_tweet_id,parent_screen_name,parent_user_id
"I wouldn't consider 1337x and rarbg an upgrade, really more of a side-step. Both have their own problems.",UnironicK3K,nce9v8g,fky0f6h,L337x and rarbg are actually better than tpb. Torrentfreak.com always has a list of the top torrent sites.,fkxu6x0,YakzitNood,15d10uuq
"Besides sites that are invite only, what is better?",UnironicK3K,nce9v8g,fkxu1h0,Broaden your horizons and use different sites. You'll realize how bad tpb is.,fkufbiw,YakzitNood,15d10uuq
rip 🙃,UnironicK3K,nce9v8g,fkunas7,"So glad I live right down the road in Rogers🙃

Edit:emphasis that I’m close now",fkuj6z0,hogforever10,1y64qwup
Your mom's smart,UnironicK3K,nce9v8g,fkpcrxp,Not me because my mom treats junk food like illegal drugs!,fkp8wqq,Shiny_Porygon-Z,319v5t84
Been a dumpster fire for like 5 years now.,UnironicK3K,nce9v8g,fkl5euq,"How the fuck is this even Politics, r/politics has just gone to shit",fkjnujc,comiboo,2ubls55r
All they ever wanted were the cummies,UnironicK3K,nce9v8g,fjt8uh3,yeah then scummy fucked all those fools again when he shut it down again,fjkz7yn,Lazer84,z7zxv
is a fucking prison tattoo,UnironicK3K,nce9v8g,fjocetl,"Hair is good on one side, things above head looks too rushed. Overall 5/10, wouldve been less if it was a picture art",fjn3os4,nibbablacc,pm2jxf2
The machine packs it well enough it doesn't fall out,UnironicK3K,nce9v8g,fjj7m7d,"I roll my own ciggs and have a machine.   I don't even know how stuffing tobacco in a tube like that is supposed to work, it'll just fall right out.",fjd6bji,AmericanMuskrat,1y43eq1d
If you're willing to change your playstyle it's okay,UnironicK3K,nce9v8g,fji8lux,Its really nice for dueling but i feel like it reduces your one shot ability and getti g fast picks is part of your job as zed.,fjfuuv8,HHSQuill,4cmd3xwp
Fun fact : mentally stable trannys literally do not exist,UnironicK3K,nce9v8g,fja0db8,Being a biggot is also related to one’s metal state.,fj6o2yk,Bigrederik,epa3v
Nigger,UnironicK3K,nce9v8g,fj6pijw,/uj hijacking top comment to say: I’m honestly so glad that people aren’t letting twitch streamers and youtubers be racist under the guise of comedy anymore. It still happens but thank god it isn’t 2016 where saying the N word as an insult and then saying “it’s just a meme I’m not racist” passes as an excuse.,fj6gvhr,-JustJaZZ-,1tnv4fzj
"You upvote something in a quarantined sub you get banned.

https://www.reddit.com/r/announcements/comments/f8y9nx/spring_forward_into_reddits_2019_transparency/",UnironicK3K,nce9v8g,fipdsdj,"I am out of the loop and a bit worried, can someone explain what is this about?",fipdded,MimoB7,c1negtu
Was it worth?,UnironicK3K,nce9v8g,fg2pqu0,"Ah, must be a mobile issue then. I’m downloading it anyways, I wanna see what you saw.",fg03pnr,Arealentleman,c2kgr
How do you know?,UnironicK3K,nce9v8g,fffejb9,"Not sure where you’re from, but the police “training” in the US is a joke.",fffa9r8,HeWhoGotGud,m0c1q
"Leave beastiality in the bedroom, heard it here first folks",UnironicK3K,nce9v8g,feycn8c,Leave a man to his kinks as long as they don’t leave the bedroom,feyabhe,endexe,2uih7es2
He was the best licensed character. Old Freddy was literally unplayable into swf and Bubba is just a fucking mess,UnironicK3K,nce9v8g,few2rne,"Before Ghostface and Freddy's rework, some considered him to be the best licensed killer.",feu4e5a,lies_like_slender,lbp89
Whats wrong with Noed?,UnironicK3K,nce9v8g,fehx82j,LOL stupid Bill.  Why noed tho?,fehwra5,xluminosityx,b2qo0
"It's uncapped, just runs like shit. Don't know why though an rx460/550 (roughly equivalent to the console gpu power) is capable of hitting 60 on medium",UnironicK3K,nce9v8g,fedqwv9,Y’all are still capped at 30? Jfc,fede5ts,BarryMkCockiner,4gijz623
"It used to slowly reset to 0, not sure why it doesn't happen anymore",UnironicK3K,nce9v8g,fedqjxl,I thought it resets tho,fea8tof,Dylmac_13,2plsizsc
Million dollars??? That's extreme,UnironicK3K,nce9v8g,fe55m35,One million dollars,fe4vsr3,G-FV,thpufm0
Could the first include the w damage?,UnironicK3K,nce9v8g,fdjfidd," I noticed in some games that my Q was dealing very little damage to minions if I used it after another slam. As you can see in the video, a single slam proc'd by W deals 131 damage to the top dummy. When I add a Q slam right after, the total damage goes up to 132. That means the Q slam only added 1 damage. Do people know about this? Does riot?",fdjejeh,Docterfreeze,bzupi
Sorry man that's just how it's always been and probably always will be. I don't like it either just spitting mad facts *dabs,UnironicK3K,nce9v8g,fdex5g8,"Limits your options to one killer or only late game wins, doesn't seem very fun",fdewyhj,Reevamous,3dzcup4z
"2020 and just now realizing that the Devs are straight up incompetent.

Wew",UnironicK3K,nce9v8g,fdewzhx,">Because Hex: Ruin is one of the few tools a Killer has for getting an Iridescent Gatekeeper Emblem

I'm sorry to be so blunt, but they really have no fucking clue, do they?

They think ruin is present in 80% of red-rank games because...killers care about the emblem? So the consolation prize is going to be an easier gatekeeper emblem? 

Dear BHVR: **It's gen times. It has always been gen times.** No one has ever taken Ruin out of some bizarre love for your awful and confusing ranking system. The gens can pop too fast in coordinated high-rank teams. That's it. That's all. That's the sole reason people use Ruin; to avoid 2 or even 3 gens finishing in the first couple minutes of the game, because the high number of generators to patrol makes slower killers very, very weak in the early game. Again, that's it. It's not complicated. It's not emblem based. It's not even about the game as a whole, it's about those first few minutes, and it's solely about gen times.

It's why Pop Goes the Weasel is also so popular and powerful. It's gen times. It's why streamers and YouTubers make videos comparing Ruin to other slowdown perks; because the game needs slowdown, because it's gen times.

I actually don't mind the rework of Ruin as presented, provided survivors aren't informed it's active on generators. It could be pretty interesting and combine well with other regression perks. I really, really mind any suggestion that Ruin is prevalent for any reason other than gen times.

Because, again; it's gen times. At this point you're just being willfully ignorant. It is  *g  e  n    t  i  m  e  s*",fdenzxx,Crook_and_Crank,8fxhl0w
https://m.youtube.com/watch?v=bpRkHyjLNL8,UnironicK3K,nce9v8g,fddudcf,Wouldn't it be more of a combined effect?,fddtp6e,WolfRex5,1gtmw1wn
"No, exhaustion perks weren't capable of popping at the same time. How it was in 2016 at least",UnironicK3K,nce9v8g,fddu7hl,Wouldn't it be more of a combined effect?,fddtp6e,WolfRex5,1gtmw1wn
Wouldn't work anymore with exhaustion. They just pop one after the other,UnironicK3K,nce9v8g,fddtika,Imagine sprint burst lmao,fddnxc0,WolfRex5,1gtmw1wn
"Numberwise? lmao no

Going by the metric of me having fun? Yes

Seriously though the devs need to start over from scratch and just do dbd2. At this point it's clear they either don't have the manpower or just don't want to truly fix the game.",UnironicK3K,nce9v8g,fdbzbvw,Is the game even dying,fdbsb05,fluffyofblobs,e5fesv6
The games dying because the Devs know only bandaid fixes.,UnironicK3K,nce9v8g,fda4491,These ppl r the reason the game is dying,fd9jvh5,DisGrandYoke,38kwnd3j
Damn 7 tries and not a single one of you tards could spell Ace right,UnironicK3K,nce9v8g,fd7i10u,Sry but quentins the best,fd73hny,northwastedx,36mn6r51
I miss cowshed and pit being infinites with SB+Vigil. Big sad,UnironicK3K,nce9v8g,fd7dixb,"No. Exhaustion recovery was proved to be OP and abusable  by high skilled players, so it's a bad idea to return to it. Someone above suggested a decent buff, which would be enough.",fd6gk5l,Yosh1kage_K1ra,3jb49vgf
P3?,UnironicK3K,nce9v8g,fd0j431,He probably didn't know what a hatch is?,fd09ote,Shadow_TheWolfexxx,5d42xx83
"""TL walls""

Lmao, classic killer main complaining about getting juked through a skillfinite",UnironicK3K,nce9v8g,fcshb24,"You ONLY play survivor and it shows.

If window blockers never existed TL walls, cow loop, the barn, Macmillan estate, coal building and many more would become infinites. It'd basically be the equivalent of not being able to break a pallet. Also, Bloodlust? It really bothers you that much? Lol. Please think before shitting.",fcsge09,Morthal-Guard,1dkq7uth
"""trolling""

???",UnironicK3K,nce9v8g,fcsgvlg,"oh your trolling, i felt like it was a bait but you really cant tell anymore",fcsgkcs,MarbleTheNeaMain,162hywh3
Also how the hell are you supposed to fast vault when there's a box cucking you on one side of the vault,UnironicK3K,nce9v8g,fcsgtnm,"How? asylum has 2 100% chance spawn god windows that cant be mindgamed since you can see through the asylum. 

Also no actually, if the survivors are good they will fast vault it every time and you will never catch up, and with mothers dwelling you still cant mindgame or catch up",fcsfl7t,MarbleTheNeaMain,162hywh3
Infinites were fair and balanced anyways,UnironicK3K,nce9v8g,fcsgmx7,so you are telling me im bad bc i apparently require blood lust and blockers but you dont even know that most maps have random chance spawns in their main buildings,fcsftju,MarbleTheNeaMain,162hywh3
Infinites were fair,UnironicK3K,nce9v8g,fcsgdgv,"How? asylum has 2 100% chance spawn god windows that cant be mindgamed since you can see through the asylum. 

Also no actually, if the survivors are good they will fast vault it every time and you will never catch up, and with mothers dwelling you still cant mindgame or catch up",fcsfl7t,MarbleTheNeaMain,162hywh3
"It's not 2016,other mechanics have been changed",UnironicK3K,nce9v8g,fcsfugp,"Because windows like the one on Ironworks exist. Take out bloodlust because it’s gives undeserved hits, but without window blockers, Ironworks can become a literal infinite against even competent killers",fcsf7wi,Table5614,1ry9nwoo
Sounds good to me,UnironicK3K,nce9v8g,fcsfeha,Bloodlust into a perk so it eats up a slot,fcsegi1,Blue403,gwjnv
TURN AROUND. You're faster and killers don't take an eternity to go through a window now.,UnironicK3K,nce9v8g,fcsfcrl,"please, i would love to see how you deal with Iron works without bloodlust or window blockers, whats this new technique you figured out.",fcse0gp,MarbleTheNeaMain,162hywh3
"Asylum can be mindgamed, was never an infinite if the killer was smart.

The other 2 you go in one direction and it wouldn't be an infinite",UnironicK3K,nce9v8g,fcsexxa,"so how is iron works, mothers dwelling and asylum not?",fcsdw92,MarbleTheNeaMain,162hywh3
"Wait no, I had a retard moment. Storehouse I'm pretty sure has only 1 window spawn but I guess most of them are still random",UnironicK3K,nce9v8g,fcsellu,No it wasnt? it just doesnt have a 100% chance spawn,fcsd6fp,MarbleTheNeaMain,162hywh3
Okay now that one probably would be an infinite,UnironicK3K,nce9v8g,fcsdofa,no thats rancid abattoir. another infinite,fcsczml,MarbleTheNeaMain,162hywh3
Don't all the old maps have preset landmark spawns now? Haven't seen more than one variation on any of the original 3 realms for a while now.,UnironicK3K,nce9v8g,fcsdixt,No it wasnt? it just doesnt have a 100% chance spawn,fcsd6fp,MarbleTheNeaMain,162hywh3
"All of those are pretty much unloopable from one direction?

""playing this game at launch."" Did you never learn to chase through windows without bloodlust/blockers?",UnironicK3K,nce9v8g,fcsda1z,"Please tell me how you are supposed to catch up on any of those.

Also no i have been playing this game at launch.",fcsce9u,MarbleTheNeaMain,162hywh3
... Lol,UnironicK3K,nce9v8g,fcsclj0,.....lol,fcscezv,freddyfucksjason,4b86gb4q
It's a MacMillan map. It's main loop was removed and all that remains is a short and non-loopable vault,UnironicK3K,nce9v8g,fcsci81,"Is groaning store house the butcher house in the corn field? That infinite is dumb as hell when it spawns. 

But I always love it when I bring my flip flop meme build. Killers can’t get me to a hook.... then just run back to the window and wait to be knocked down again.",fcsb77c,Saio-Xenth,3506mbeq
Why? It's removal would only punish killers who are fairly outplayed.,UnironicK3K,nce9v8g,fcscbys,"Bloodlust can go for sure, but window blockers are fine",fcsbuyl,Table5614,1ry9nwoo
"All of those would only be infinites if you chased in one direction. And storehouse barely has a loop anymore, lma0

Did you start playing after bloodlust was added?",UnironicK3K,nce9v8g,fcsaxrz,"Asylum, iron works, groaning store house, Chapel, Mothers dwelling.

Should i keep going or do you think these wouldnt be actual infinites without those",fcsaj5w,MarbleTheNeaMain,162hywh3
rip dbd : 2016 - Early 2018,UnironicK3K,nce9v8g,fcm10j5,"Oh yeah, we really need more maps where the killer can run around a pallet in 1 sec and always get a free hit.",fclmi2v,BlueFiller,u0ja0
Whatever baby killer,UnironicK3K,nce9v8g,fcca4g4,"Yup, you’re definitely a closed-minded Arkansan.",fcc8d7u,pinkblossom331,1l4gyuc1
"Doesn't matter. Still human life, still murder.",UnironicK3K,nce9v8g,fcbm33a,You should do some research stages of embyro/fetus development.. or are you anti-science?,fcb7kwh,pinkblossom331,1l4gyuc1
Public executions of fatties when,UnironicK3K,nce9v8g,fc7lrjm,Tobacco is inherently bad.,fc5nbv7,SaveThePuffins,3pq75aot
"Wow I've never thought of it that way! Killing yourself 4 years earlier = murdering your unborn child, this is some big brained shit.",UnironicK3K,nce9v8g,fc7lp6d,This is how many feel about abortions and women’s health rights ......,fc5c1r2,pinkblossom331,1l4gyuc1
Not really that weird in rural areas. Keep in mind that 40k will get you something in a pretty big chunk of the country,UnironicK3K,nce9v8g,fc5lfd0,"No ""approach to life"" lets you buy a house at 23 in today's economy. You were either very lucky or came from a rich family.",fc4vqq6,someguywhocanfly,4y6xh
"Tranny

Imagine some type of drug was involved though",UnironicK3K,nce9v8g,fbzfm2m,WTF! What’s the story here? Was she on meth?,fbywzxr,dafloo,eiaizqa
"I think I've seen a video depicting this exact scenario at least twice before, that's all I'm saying",UnironicK3K,nce9v8g,fbudz7s,Are you saying I should as well use a template because it should be quantity over quality?,fbtn9ms,TeddyBearKilla69,ilzvle1
This has been done God knows how many times though,UnironicK3K,nce9v8g,fbtm42d,"Good stuff man. A video meme. Not a low-effort, reused meme like 90% of the sub. 

I approve, hope you come up with more ideas to share 🙂👍",fbtcj4q,Phascolar,42lsjgfw
Until it runs out or the killer turns around.,UnironicK3K,nce9v8g,fbs805v,With hope its an infinity loop,fbltzxp,Mastergaming164,4ribrdv8
It could be anything harder. People do shit like this on meth too,UnironicK3K,nce9v8g,fbiffgm,"It’s just PCP or flakka or bath salts or sum shit, not meth.",fbg3j21,ygguuguv,3w9e8d1k
not my fault you don't know how to search around,UnironicK3K,nce9v8g,fbhrrqh,"Yeah, shitty cam rips with hardcoded Korean subtitles and only half the screen visible or something",fbhqjn3,MrTK_AUS,1wgl1ymc
"You can deny unhooks with it

360s mean they instantly die",UnironicK3K,nce9v8g,fbgmlix,I used it once and I love it idk why,fbfr05r,CranberryJuiceGuy,z7628
Uploads have existed on torrent sites since before the movie even came out.,UnironicK3K,nce9v8g,fbgly2g,"I mean, I live in a pretty rural community and the closest movie theatre is over an hour away. Not everyone lives in the city",fbg2wh7,MrTK_AUS,1wgl1ymc
"I mean a lot of other killers can ignore mechanics too, and they don't require a couple hundred hours of building muscle memory or a shitload of downtime

Hillbilly can casually walk up to you and one-shot, loops avoided. Hag can build an autism nest and smack you twice if they try to approach a window or pallet, loops avoided. 

And I mean the only reason she was ever good was the gigga-lunge and the fact everyone would just dc after being hit because they didn't want to learn how to juke nurse.",UnironicK3K,nce9v8g,fbe8e76,She ignores everything in the game lol if you are saying this based off of your own experiences then I just imagine you need to practice her more. You will lose a lot of games before being even half way decent with her. All the other killers basically kill the same and nurse requires a completely different skill set. She’s basically the same killer as before just no omega blink add ons (luckily you can play her with no add ons) and she has a cool down that doesn’t really effect her gameplay at all.,fbe5evc,La_Croix_Boiii,lmgupb3
She's not great at anything anymore. Like half the killer roster has overcome her at this point,UnironicK3K,nce9v8g,fbe4d72,Far from the truth. She still incredibly powerful. She just requires more skill now.,fbe2byw,La_Croix_Boiii,lmgupb3
Okay how are we gonna verify the hatchet you're paying 4 grand for in 3 years is the official dbd hatchet?,UnironicK3K,nce9v8g,fbcrfn6,It’s mostly for the “official” one resale value is gonna go up,fbccaln,TheCanadianRedHood,1mlo5xyp
this but unironically,UnironicK3K,nce9v8g,fbcr2n2,"Nah we will never get him, just like a winter event which we are not getting because they are trying to get dedicated servers going which was suppose to happen by end of summer, whatever this company is a joke and my Wallet is closed.... this game has turned into nothing but a cash grab with cosmetics and nothing else...",fbbaa3l,Jack_The_Ripperrr,12haa2ll
"Guess I don't know all the details, no matter what I'm pretty sure it's bullshit. He either made it up entirely for the internet attention, and even if he didn't he's still in the wrong. Not his dog, not his concern. Psyco shit putting down someone's dog behind their backs",UnironicK3K,nce9v8g,fao7r1k,How do you know? Do you know what kind of collar it was? Do you know what position OP was in? Do you know any of the details?,fao5zub,Clownose,jtndvy1
Ok so my problem with this if he was actually attacking he would have been bit. You're not going to stop a vicious dog by grabbing its collar,UnironicK3K,nce9v8g,fao5c17,"OP’s Statement:

*My parents bough a new cowhide rug some days ago. He chewed a lot of it off and freaking ate it.*

*That’s nothing compared to what I saw next.*

*I had to throw away almost every pillow on the couch bcs he ripped them apart. While I was cleaning all the mess I got him out of the room and closed the door.*

*Now get ready.*

*He opened the living room door again (it takes a lot of force to open it bcs it’s really old. I always have to lean against it with all my weight) and the dog snapped once again.*

*He was going for my thigh at first and then jumped up and I fell.* 

*Luckily he still had his collar on and I got a hold of him before he managed to fully bite me in the face.*

I don’t feel as though we should ask for proof. How do you videotape an attack on yourself? Especially when he’s fear-ridden. Why would he pull out his phone if he’s afraid for his life?

It takes a LOT of force to chew through and eat a damn cow-hide. Not to mention... He attacked OP.",fao3s8m,Clownose,jtndvy1
Did op actually provide any proof the dog was violent? I don't like pits either but killing a dog for being high energy would make me think he's a sociopath,UnironicK3K,nce9v8g,fanyb8a,"Get the fuck out of here, that dog could have killed him. He’s defending himself and his family from a dangerous animal. We don’t need pit-nutters defending the thing when it clearly has no place in his home.",faj2qw1,Clownose,jtndvy1
That's because it is gross. De-transition before you do permanent damage,UnironicK3K,nce9v8g,fag9tu5,"Idk. It feels weird looks ng at my naked body idk
Feels gross",fag9r6d,ZeldasJesus,4s3fvs92
*casually walks in the other direction,UnironicK3K,nce9v8g,fafgil2,"Leatherface's saw is incredibly easy to hit people with, easier than Billy's",fafeekg,baba-O-riley,1gv0neic
"Hillbilly can actually saw you. MM has a god lunge in EW3 to help him kill

Doctor can stall games out super hard and clown can at least slow a bit and make mindgames potentially easier",UnironicK3K,nce9v8g,faf6n9i,"Aren't all insta-downs effectively like that? That's what makes them so brutal. It cuts chase time way down which means that survivors have to save their allies more. As for Wraith, I don't think he's good, but he's at least better than Clown and Doctor.",faewhzw,baba-O-riley,1gv0neic
Leatherface doesn't get to use the chainsaw unless you stand there and wraith has no chase utility.,UnironicK3K,nce9v8g,faewcmg,Leatherface has the potential to end chases fast and is great for punishing altruism and groups. Wraith has an easy time getting the first hit since he can sneak up on you.,faev6wf,baba-O-riley,1gv0neic
Slug Billy is way less cancerous than anything the other side can do tho,UnironicK3K,nce9v8g,faencjo,"Yes, let me waste time playing against a insta-saw Billy that slugs everyone till he gets his 4k out of sweat. So much fun, right?

I don't support DCing, but when somebody does it, don't be surprised if you are running unfun builds. Yes, you might not run them very often, but that Survivor that just DC'd from your game might have gotten like 4 sweaty builds in a row.

Same goes for the killer side.",fadoexm,LuxYikes,3lwm7kup
"Pale rose needs another rework, the shrink wasn't enough

And for the love of God please remove the old-style jungle gyms, those docks are a minimum of a few minutes into survivors that like to loop and aren't retarded",UnironicK3K,nce9v8g,faelw60,"My Top 3

1. The Swamp (both maps)

2. Hawkins Lab

3. Yamaoka Estate",fabz144,Delmer9713,12c3it22
Build an autism nest with 4 gens and the basement and it's literally impossible to lose,UnironicK3K,nce9v8g,faelk78,Hag,fac485e,EasyModeEarls,411gwf60
lmao k millennial,UnironicK3K,nce9v8g,fabu3bc,"ah yes, because playing immersed means you have autism.

give it up. you're not redeeming yourself, you just sound like a fool.",fabtosr,ethe-really,2yevy3za
Not really an insult if it's true,UnironicK3K,nce9v8g,fabtjh5,"it's not ""the truth"", it's using mental disabilities as an insult which is fucking disgusting.",fabrek0,ethe-really,2yevy3za
This subreddit hates truth,UnironicK3K,nce9v8g,fab82zo,"Holy hell, what's with the fuckin downvotes?",fab7wj7,AustralianDeadMate,4njgo89n
They hated him because he told the truth,UnironicK3K,nce9v8g,fab66og,"She's been confirmed to not be autistic by the devs, she just has learning disabilities. On the other hand, blendettes are fully on the spectrum",faau521,AustralianDeadMate,4njgo89n
*Crouches directly behind the hook for 20 seconds before casually Urban-Evasioning out and spending the rest of the hook timer unsuccessfully searching for the gen she was originally working on.*,UnironicK3K,nce9v8g,fab61mw,"Nah, ain't nothing Altruistic about the average Claudette",faax76b,DankestAncestor,5i6d41d
Yeah,UnironicK3K,nce9v8g,faatppp,PC?,faaqduv,letmethefrickIN,1ethx2cg
I still have some in my inventory,UnironicK3K,nce9v8g,faaptoj,Did you just take that image? Because I'm pretty sure the Dev's completely removed the Muddy Splinter.,faao42s,letmethefrickIN,1ethx2cg
"I have like 2k hours ingame tho

Also you're supposed to ignore ""God loops"" or whatever you want to call them. They're massive time sinks and that's okay. Got to learn time management",UnironicK3K,nce9v8g,faabwa5,"Jungle gyms are the structures with the pallet and window. I can tell you have never played in red ranks if you call them landmark loops instead of god loops. Not all landmark loops are god loops, but the ones that are need fixing",faa802q,Immersed-P3Claudette,4ey5uc1t
Yeah but the guy on the hook is free. Borrowed Time makes sure of that,UnironicK3K,nce9v8g,fa8ew8i,"Dude, just down the unhooker. You can get one hit in, and by the time they get the unhook fully, you can smek them again.",fa7g1yx,EXistential_EX,1yva3j6i
"Nah man. We can't even facecamp anymore, we need a way to deny unhooks in front of the killer",UnironicK3K,nce9v8g,fa7emgw,"Please no. Machine Gun was broken as fuck, and you know it.",fa7a7j3,EXistential_EX,1yva3j6i
Still the problem of only 3ish killers being viable against survivors that are actually good at the game,UnironicK3K,nce9v8g,fa0s6l4,Its balanced,f9xrzwl,Mastergaming164,4ribrdv8
"He's only ""better"" because he's new, no one knows how he works",UnironicK3K,nce9v8g,f9z8dwm,"As a hillbilly main who bought Oni, I can definitely say Oni is more powerful and fun then Hillbilly.",f9z66q5,Xander_1777,1zibh1vt
"And they need me

It all works out",UnironicK3K,nce9v8g,f9ws0yc,you realize you need survivors to play dbd right,f9wmw6u,Mastery7Shithead,8ssz9bj
Why?,UnironicK3K,nce9v8g,f9uf62v,I'm sorry but if you don't think nurse is still the strongest killer than you really don't have any idea how this game works. Putting Hag above Nurse is the stupidest thing i have ever heard.,f9te3ev,Kingtom1,joc1s
"Nah, way too much down time to do anything well anymore. If you want to try hard pick something else

Hag if you have decent game knowledge, otherwise hillbilly

She was always hardcore overrated anyways, if survivors actually knew what they were doing she's bullied harder than ""normal"" killers",UnironicK3K,nce9v8g,f9tdgbh,She still is the strongest killer in the game,f9suxiv,Kingtom1,joc1s
Probably a drunk,UnironicK3K,nce9v8g,f9tbtc1,"This is why teens, or stay at home adults need hand cuffed when not supervised and on a leash when out. You cant expect responsibility out of people who have never exercised it.",f9t6rtj,Mr_Mclurkyface,3or7r8tc
Why shouldn't there be a swastika and rising sun?,UnironicK3K,nce9v8g,f9ql8xf,... Why the fuck is there a swastika and a rising sun flag?,f9p9nzz,NamelessTunnelgrub,fwgj4
"I don't even think I've ever even posted on T_D, I know I'm sub'd though",UnironicK3K,nce9v8g,f9og0r2,"Seeing that you post trans-phobic content in T_D, I'm sure your sources are stellar.",f9ob6kb,juiceboxheero,5jm0l
Worst part is if I provide proof I get banned,UnironicK3K,nce9v8g,f9o1t9l,*citation needed*,f9nlomu,juiceboxheero,5jm0l
But mostly the 3rd world,UnironicK3K,nce9v8g,f9nefli,"Do I need to be that guy?

This type of thing happens EVERYWHERE. This type of stuff is very, very common for all women in all countries.",f9n7tam,DearestxRed,iupir
I think everyone knows about all of those except the second though,UnironicK3K,nce9v8g,f9cjkse,"This is a fact I don’t see talked about much, but there’s been a lot of stuff in the files about a Teacher killer that was never actually created.

You can create Trapper’s concept art design using the Chuckles mask, Butcher’s Bane outfit, and the Knapped Copper Cleaver weapon.

Trapper was originally called Chuckles.

The killer shack roof had proper collision at one point. It’s thought that at some point in development, it was intended for the roof to be accessible via climbing. 

The files refer to killers as Slashers and survivors as Campers.",f99vd8d,WebsterHamster66,7vzzxix
Because you can't half ass jungle and you're flamed every game.,UnironicK3K,nce9v8g,f7uto10,Why does no one JG? I struggle to last hit in lane so I literally only JG I don’t get it...,f7ujoex,Paginator,79z7v
Neither was I,UnironicK3K,nce9v8g,f7famds,I posted in CA all the time.  Of course I wasnt calling for the extermination of jews or the lynching of negroes so that might have something to do with it.,f7ex1tk,keeleon,rxfhm
They won't unblock you if you posted on any similar subreddits,UnironicK3K,nce9v8g,f7evzsd,It was to prevent that sub from getting banned too.  Just ask and theyll unblock you.,f7em1o0,keeleon,rxfhm
"*walk a mm too close

*get 100-0d instantly

*have to stay flash+gapclose/cc range away for the rest of the laning phase",UnironicK3K,nce9v8g,f79o2ar,bruiser 1v1s are pretty fun tho.,f77vwwo,strixandsniper,4yrnorv4
