child_body,child_screen_name,child_user_id,child_tweet_id,parent_body,parent_tweet_id,parent_screen_name,parent_user_id
"This. This imp-mechanism is a cyborg already, so why not to give it mech-demon ability?

maybe it sound too powerful (broken), but I would LOVE to see units/heroes, that would create abominations (similar to Deathstalker Rexxar) from VARIOUS unit types, be it mech+demon, mech+beast, dargon+elemental etc.",vabankas,11dzrf,fl02zn6,WHY NOT MECH-DEMON!? GIVE US HYBRID MINIONS BLIZZARD!,fkytvf6,SteelCode,16w2vb
[The\_Death\_Camp\_of\_Tolerance](https://en.wikipedia.org/wiki/The_Death_Camp_of_Tolerance),vabankas,11dzrf,fjg74o1,"Anyone interested in seeing just how absolutely mental and messed-up conversion therapy is, check out the free webcomic *Joe vs Elan School*. It is an absolutely true story that can be easily verified. **Warning, this webcomic is no joke**. 

**[The first chapter explains how these places initially get the kids, many times by kicking down their bedroom doors in the middle of the night and kidnapping them](https://elan.school/rude-awakening/)**. Because once the parents, school, or state signs you up for it, this is now somehow legal.

Apparently, the leadership of these places also sees this as a good way to ""prepare them"" for the completely messed-up behavior-modification programs that they will soon be chucked into. Seriously, if you think you know, you don't. This is the kind of stuff you would expect to happen to political prisoners in North Korea.

It is eye-opening and horrifying that this stuff was, and still is, allowed to happen to kids, even as young as 12 and 13. And for-profit.",fjfhu8u,Wampirehunter,5j06l0yk
And this seems legit -  [https://en.wikipedia.org/wiki/United\_States\_war\_crimes](https://en.wikipedia.org/wiki/United_States_war_crimes),vabankas,11dzrf,fjclahh,">[https://www.businessinsider.com/military-government-secret-experiments-biological-chemical-weapons-2016-9](https://www.businessinsider.com/military-government-secret-experiments-biological-chemical-weapons-2016-9)

1950 - 1970

&#x200B;

>[https://www.theguardian.com/politics/2002/apr/21/uk.medicalscience](https://www.theguardian.com/politics/2002/apr/21/uk.medicalscience)

1940-1979

&#x200B;

>[https://www.nytimes.com/2019/09/19/world/asia/afghanistan-bombing-taliban.html](https://www.nytimes.com/2019/09/19/world/asia/afghanistan-bombing-taliban.html)

Fails to address intent which was the point made.

&#x200B;

>[https://truthout.org/articles/us-backed-saudi-coalition-bombs-yemen-school-killing-mostly-children/](https://truthout.org/articles/us-backed-saudi-coalition-bombs-yemen-school-killing-mostly-children/)

US is culpable for providing the bombs but Saudi Arabia did the bombing and didn't get approval from the US before doing it

&#x200B;

>[https://en.wikipedia.org/wiki/Operation\_Northwoods](https://en.wikipedia.org/wiki/Operation_Northwoods)

The CIA made a plan. In 1962..  Most relevant thing about this: The proposals were rejected by [President](https://en.wikipedia.org/wiki/President_of_the_United_States) [John F. Kennedy](https://en.wikipedia.org/wiki/John_F._Kennedy).[\[4\]](https://en.wikipedia.org/wiki/Operation_Northwoods#cite_note-4)[\[5\]](https://en.wikipedia.org/wiki/Operation_Northwoods#cite_note-5)[\[6\]](https://en.wikipedia.org/wiki/Operation_Northwoods#cite_note-feinsilber1-6)

&#x200B;

>[https://en.wikipedia.org/wiki/Abu\_Ghraib\_torture\_and\_prisoner\_abuse](https://en.wikipedia.org/wiki/Abu_Ghraib_torture_and_prisoner_abuse)  
>  
>Not even with a purpose

Not even with a purpose -That's just an outright lie.  Torture is wrong but do not act like there was zero reason for it happening.

Three of your references are about history more than 50 years old, two of them are misleading, and one of them is actually accurate and up to date but fails to address the difference between civilian casualties as the result of a mistake and civilian casualties as the result of specific intent.",fjbxn0l,JLBesq1981,2tm4uvwf
[Which one?](https://en.wikipedia.org/wiki/United_States_war_crimes),vabankas,11dzrf,fjckstl,Which US warcrimes are you referring to?,fjcifc3,TuTahnGahn,151xu3
"But getting Voidlord on T4 actually felt good )

You freeze the board, buy something, level tavern up and it will be refilled with minions (because you either buy, or upgrade tavern adding extra slot).

Also, if you use HP on a T6 minion, it becomes another T6.",vabankas,11dzrf,fizud39,"Yeah but to get the leveled up minion you have to let the board frozen without rerolling, and on top of that the minion you get is completely random. I think playing a conventional strategy is better, and using the HP to roll minions of your current tier, or possibly targeting a tier you need a particular minion or a gold from.",fiym167,maezrrackham,4mumn
"Tks.

Apparently \[\[Cobalt Scalebane\]\] does not exist in full Golden... [https://www.screencast.com/t/4ZEqZcZqXzG](https://www.screencast.com/t/4ZEqZcZqXzG)",vabankas,11dzrf,fiztice,For anyone wondering what other golden cards do check the official website: https://playhearthstone.com/en-us/battlegrounds/,fiyswiv,nmpraveen,44f9e
">nah men and women can't be friends.  
>  
>They can, actually.

...if they are former or future lovers.",vabankas,11dzrf,fimmgf2,"They can, actually.",fim4ev8,23_-X,qq8bl
"Actually, the list would be much longer, however it would include everything bots blame Russia for, with a flavor ""influenced by USA to frame Russia"" in most cases.",vabankas,11dzrf,fi6qn1z,"Can you do one of these on the US and Britain, just so we can compare.",fi6jmjx,zephinus,vasye
"""But this is so different!"" /s",vabankas,11dzrf,fi6h6t2,"LOL

&#x200B;

[Freedom\_House](https://en.wikipedia.org/wiki/Freedom_House)

>Freedom House is a U.S.-based[\[4\]](https://en.wikipedia.org/wiki/Freedom_House#cite_note-4) [501(c)(3)](https://en.wikipedia.org/wiki/501(c)(3)) [U.S. government](https://en.wikipedia.org/wiki/Federal_government_of_the_United_States)\-funded[\[5\]](https://en.wikipedia.org/wiki/Freedom_House#cite_note-:1-5) [non-governmental organization](https://en.wikipedia.org/wiki/Non-governmental_organization)

...I like the part ""government funded non governmental"" the most ...if that's not example of Orvelian doublespeak I don't know what is.

&#x200B;

[Human\_Rights\_Watch](https://en.wikipedia.org/wiki/Human_Rights_Watch#Financing_and_services)

>For the financial year ending June 2008, HRW reported receiving approximately US$44 million in public donations.[\[21\]](https://en.wikipedia.org/wiki/Human_Rights_Watch#cite_note-FS-2008-21) In 2009, Human Rights Watch stated that they receive almost 75% of their financial support from North America, 25% from Western Europe and less than 1% from the rest of the world.[\[22\]](https://en.wikipedia.org/wiki/Human_Rights_Watch#cite_note-SA-2009-07-22)  
>  
>...  
>  
>Financier and philanthropist [George Soros](https://en.wikipedia.org/wiki/George_Soros) of the [Open Society Foundation](https://en.wikipedia.org/wiki/Open_Society_Institute) announced in 2010 his intention to grant US$100 million to HRW over a period of ten years to help it expand its efforts internationally:",fi6dfxc,arrasas,1nxg52ul
"Yup, just emotional push, without any background, without understanding the plot.

Well, it is the same as showing the picture of a dead child with a caption: ""XXX did it!""  
Insert any name, race, nation, ethnicity and *voila!*, there's an Evil on the loose.",vabankas,11dzrf,fi6h3y6,"139 upvotes in 2 hours and rank 15 on the frontpage.

Nothing suspicious. 

This is how Reddit pushes propaganda to get you to be angry about something you can't know is true so that a military action can be justified.

What's happening in reality is that the Syrian government - whatever you think of it is irrelevant - is recapturing its own territory occupied by Turkish-sponsored local and foreign fighters  most of whom are classified as Sunni Islamic radicals fighting with the backing of Turkey who invaded Syria repeatedly in an overt act of war in several places.

This article makes it seem like Syrian army is attacking another country rather than repelling foreign invasion. The never on the journalists to lie so blatantly.

And the clip is very easy to fake it. British media has pushed so many fake news about Syria aimed at the Syrian government that at this point it is best to simply ignore anything they present as fact as propaganda aimed to get you to support yet another regime change war for oil and profit.
Watch this and get angry and we will do business as usual and will tell you it was all for some little girl.",fi6daam,Konecko,59tl1fv5
"Noawaday ""journalism"" it is.",vabankas,11dzrf,fi6gn8r,">Gut-wrenching

If a headline tells readers how to feel, then its not journalism, and its gets a downvote.",fi6bq9b,rew4u4r,5c7l1z73
Nostalgia can be tricky. I tend to remember what a marvel GTA3 was...but GTA3 Vice City and San Andreas are WAAAAY better),vabankas,11dzrf,fi4jbd4,"I loved being able to build a little zombie horde, and the various body part weapons you had.  Nostalgia might be making me remember it better for sure, but I definitely look back on it fondly.

Edit: fighting the autocorrect",fi4flvc,runnindrainwater,1m7q93lw
[Overload Aggro Shaman](https://outof.cards/hearthstone/decks/11842-aggro-overload-shaman-post-nerf) (seen at [outof.cards](https://outof.cards) recently),vabankas,11dzrf,fi3r7si,Is there any other playable deck?,fi3eblu,rayman38,co2lyz5
"More of a story. The gameplay itself was not such a gem, unfortunately...but I liked it )",vabankas,11dzrf,fi3k1zd,"No.  Good gameplay and a quirky story do, though.",fi2l8f9,runnindrainwater,1m7q93lw
"Well, nationality and nation are a bit different. Nationalities were born by 19th century.
Americans, for example, proclamed themselves a nation after Independence War in the late XVIII.
Poles emerged by the very division of Rzeczpospolita, Brittish after the Industry revolution and Russ, well, the name, nation and ethnicity - started in XVIII, when an empire begun.",vabankas,11dzrf,fi00mf5,"I disagree with that, nationalities were born in 19th century. Kingdom of Poland existed, but not national identities. Same for Russ, Kievan Rus was a multicultural state, Novgord, Smolenks, Polotsk etc., were all seperate entities in a feudal state, people spoke different dialects and I doubt would have understood what being Russ even means.

Let's not mix duchies with nationalities in late medieval period.

You can try to use nationalities in broader terms, fx. calling all Eastern Slavic people following eastern Orthodox Christianity- Russ, but I doubt that is fair and you would probably find a lot of exceptions for each group case you would try to make. 

Nationalities and Nation states did not exist in that era.",fhzztqm,Birziaks,z35ux
"Not you) The other one.
And I've not written ""russian"". More, like, ""anti-russian"".",vabankas,11dzrf,fhzzqy2,Why does everyone think im a russian troll?,fhzzlat,NationKing4,590dvtes
"Actually, Poles and Russ (preRuss, from XI cent.) existed  
The folk, which Lith and Beloruss came from, consisted of many smaller (though having much in common) tribes. Lith came first, Beloruss later.

The orignal (longer)name of Grand Duchy of Lithuania was [Magnus DUX Lithuaniae, Russiae, Prussiae, Masouiae, Somogitiaeque etc.](https://books.google.lt/books?id=UNRlAAAAcAAJ&lpg=PA317&ots=OeVOCCTabw&dq=Magnus%20Ducatus%20Lithuaniae%20russ*%20original%20name&pg=PA317#v=onepage&q&f=false), so by that time Lithuanians emerged. Belorussians were born after.",vabankas,11dzrf,fhzzfb3,"No neither did Belarusians, Russians or Poles. But GDL was established by Baltic tribes uniting and forming a feudal state, which in the beginning encompassed mostly Baltic lands and were ruled by Baltic Pagan nobles. Afterwards it greatly expanded due  to power vacuum created by invading steppe nomads and took in many Slavic lands, but the  ruling elite were still Balts. Soon there were more Slavs and Slavic lands in the country than the Balts themselves.",fhzy40u,Birziaks,z35ux
"If about HP - it is just ""for fun"". It can secure the board and then you hope to win with your convinient cards.",vabankas,11dzrf,fhzvlhv,"No they can't be resurrected.
But I'm talking about the hero power. Not his battlecry.",fhzubro,Herr_Bayer,rg62l71
"Since it is solo adventure, there is no turn limit, you can ping any amount of HP per turn. Just...take YOUR time.

Reminds of a boss in Monster Hunt Adventure, \[\[The Whisperer\]\], which could be killed in one turn with echo'ed 0-mana \[\[Stone\]\] spell.",vabankas,11dzrf,fhk3k4j,"No it can’t. You need to perform 3 actions per juggler tick, which involves a death and resummoning animation. There is no way in hell this is killing anyone in a turn. It’s like apm priest but instead of constantly doubling a stonetusk boar it’s just pinging for 1.",fhk2nux,Monralyc,34u3ayrv
"Can you please name them?

Easier, cheaper, etc.

Tks?",vabankas,11dzrf,fhk329n,There are easier ways to win right,fhjsqln,NegativeChirality,4v21h
"""Who is THAT pokemon?""(c)  
[https://youtu.be/FigFNfd8sgc](https://youtu.be/FigFNfd8sgc)",vabankas,11dzrf,fgsautx,Is this Pokémon?,fgrtiwv,UsernameFor2016,xm0tx
"**Leviathan** from ME3 DLC did VERY good too -  [https://www.youtube.com/watch?v=lEqlG6bhZ80](https://www.youtube.com/watch?v=lEqlG6bhZ80)

He was...surrounding...to say the least, cause in the game Leviathan's voice sounded inside Shepheard's head.",vabankas,11dzrf,fgs9l7k,That reminds me of the first time you speak with Sovereign on Virmire in Mass Effect..,fgrycno,OblivionJunkie,nzos9
"Earth Shock was given almost always, 0-Silence or 4-MassDispel - seems like never.",vabankas,11dzrf,fgiqaxo,"There's still a good chance that you get Earthshock vs. Harmless Puppy, if you can end on one mana.

People often go for Silence or Hex instead, but Zeph really likes Earthshock on one mana vs. a one-health deathrattle...it's the most guaranteed silence effect you can get off of him.",fgggrxd,Grumbledwarfskin,71egjq
"As bad as Khartut Defender, you say?",vabankas,11dzrf,fgipz61,"sound of [the most cancerous taunt minion ever](https://hearthstone.gamepedia.com/Convincing_Infiltrator) showing up to ruin your life.

i'd say it's almost as bad as Baku and Genn, if not worse.",fggowql,McMetas,16euyb
If most vegans were not SOOO-serious and jumpy on regular meat-lovers...,vabankas,11dzrf,ffwots2,"or you know, people dont want to be mocked about a choice they make that doesnt negatively affect someone else? If it was a funny joke fair enough, but this is just a 'lol vegan'.",ffwo4t6,Asdam90,j0b3r
"> Soviets signed deal with Germany to partition CE/E Europe.

Germany solved many problems while negotiating and having a deal with France, Germany, UK (and Poland!).
Many western companies worked in Germany.
Many businesses until the very start of war actions worked actively in Germany.
Allied bombers couple of times were ordered not to bomb the areas with the Chrysler factories.

And yeah, case is closed.",vabankas,11dzrf,ffw4i6a,Soviets signed deal with Germany to partition CE/E Europe. They aided Germany with materials and intelligence. What more you want? For me end of topic.,ffuolem,Gregrog,10bsr5
In the same way as anyone says that USSR was an ally of Nazi Germany.,vabankas,11dzrf,fft12tb,">  was trying to negotiate

So was or was not?",ffs0fpy,Gregrog,10bsr5
"As well as the plan to invade Soviet Union.
And Vilnius, probably was historically Polish...
What I want to say, that Poland during WW2 was not an innocent girl, who was violated by everybody, but more a hyena (see Churchill), who got unlucky by the end.
Don't speak about evil Russians when Polish own sins are not forgotten at all.",vabankas,11dzrf,ffrb17d,"Poles were never hitler allies , in fact we Had a plan for invasion on Germany before the war to stop the Nazis. We needed help from France and we showed them our plan of invasion but they declined. Poland did not took piece of Czechoslovakia , we fought for it because it was taken away from us and that area was populated mostly by Poles. And it was in 20s , long time before ww2.",ffqqifx,grpusty,ikgto
"> Ok but what about Polish-Soviet Non-Agression pact of 1932?
> At the time when Soviet Union came marching into Poland (practically without any resistance) there were no country
there were no country at that time and the treaty was signed with a state, actually. another question - have you actually READ it in full?",vabankas,11dzrf,ffqnzly,Ok but what about Polish-Soviet Non-Agression pact of 1932?,ffqncfj,iwanttosaysmth,ngxbq
"The opposition was arrested. Also, those who commited crimes similar to Treblinka's gold rush were to be found and identify.

How could this happened without custody and investigation?",vabankas,11dzrf,ffqmnpi,Your point?,ffqau9i,iwanttosaysmth,ngxbq
Soviets were arresting pro-Nazi Polish as well as those who fought against Red Army.,vabankas,11dzrf,ffqmj86,"What hysteria? Soviets were arresting members of Polish underground state and army, people who were fighting against Nazis since September 1939",ffqawsr,iwanttosaysmth,ngxbq
"> Polish-Soviet Non-Agression
Yeah, what about it?
At the time when Soviet Union came marching into Poland (practically without any resistance) there were no country, and USSR had a choice to leave everything for Nazis, or make a buffer zone of a non-existing country.
Also, I haven't read about much oppression (or resistance) to Soviet invasion after that.
There were numerous resistioneers in Galychina (West Ukraine, btw, these were Polish lands?), in Lithuania (Vilnius is Polish city?) even before the WWII, but again, what about Poland?",vabankas,11dzrf,ffqmgui,What about Polish-Soviet Non-Agression pact of 1932?,ffqb0iy,iwanttosaysmth,ngxbq
"Well, they were held as prisoners as they were an unknow threat.
They were neither served to gas chambers, nor killed in any other way (apart those, who could have found guilty for the crimes commited).",vabankas,11dzrf,ffqlzve,"Lower on our comment chain he linked auschwitz page (awfully slow on mobile): https://www.reddit.com/r/europe/comments/eukq7b/on_this_day_75_years_ago_the_nazi_auschwitz/ffq6mef. 

I was wrong. Germans, poles who declared to be ethnic germans, and is suspected that some polish opositors were put there for over half a year",ffqck5r,Franfran2424,14u1ia
"You can check the general info at https://en.wikipedia.org/wiki/History_of_Poland_(1918%E2%80%931939)#Foreign_policy_1935%E2%80%9339
Poland was trying to negotiate with Nazi Germany to ally against Soviet Union. During that time Poland invaded former Czechoslovakia, which could not happen without Nazi approval.",vabankas,11dzrf,ffqlt70,">Poles were Hitler allies before the War

any source on that? Zaolzie was dick move - as was Czech dick move in 1920. Poland haven't signed any agreement with Germany(apart of non agression). Soviets on the other hand signed secret protocol to Molotov-Robbentrop.",ffqbvca,Gregrog,10bsr5
"Poles were Hitler allies before the War. Nazi movement was born in France and then was highly praised in UK by the very Blietzkrieg. UK and France let Nazi Germany grow, let Nazis take Austria and dismantle Czechoslovakia (Poland took the piece of Czechoslovakia as well). Who are the allies then?

Speaking of ""never surrender"" it is a bullshit interpretation of the Order No.227. Just read the document before stating bullshit.",vabankas,11dzrf,ffqbi1w,"They had but never forget that they were Hitlers Ally at the beggining of the war . They joined Allied forces only after Hitler betrayed them. If their relations would continue , there is high possibility Europe would be Nazi / Soviet to this day. Btw , Soviet death numbers are so high because of Stalin order of 0 surrender rule. If you surrendered as Soviet soldier , even if situation was you vs 1000 you Had no place to come back because your own troops would shot you.",ffq9rmr,grpusty,ikgto
"Resistance to what? If you resist Nazi Germany - you are anti-Nazi.

if you resist Red Army (as there were no US/UK forces) you are Nazi.

This is so simple.",vabankas,11dzrf,ffqb8sv,They also imprisoned members of Polish resistance,ffqa3ra,iwanttosaysmth,ngxbq
 [https://www.tabletmag.com/jewish-arts-and-culture/books/99982/the-treblinka-gold-rush](https://www.tabletmag.com/jewish-arts-and-culture/books/99982/the-treblinka-gold-rush),vabankas,11dzrf,ffqapi5,"> The internees also included Poles detained by the Soviets during “mopping up operations behind the front lines” in the Bielsko, Biała, Rybnik, and Racibórz areas, and others suspected of opposition to the new political order.",ffq773m,iwanttosaysmth,ngxbq
Anti-russian hysteria has removed your mind.,vabankas,11dzrf,ffqansq,"In Birkenau Soviets put people ""suspected of opposing the new political order"", I am not saying they opened new death camp, but replaced it with their own political terror",ffq4zg2,iwanttosaysmth,ngxbq
"Please provide proofs of this ""well-known"" fact.",vabankas,11dzrf,ffqamhv,"In the spring of 1945 Soviets adopted Auschwitz I as a POW camp, and Auschwitz II-Birkenau as a camp for civil political prisoners. This is well-known fact.",ffq4cpt,iwanttosaysmth,ngxbq
What about Teschen? What about German–Polish Non-Aggression Pact of 1934?,vabankas,11dzrf,ffqahyd,The day when Stalin conquered the remaining 50% of Poland left out by the molotov ribbentrop pact.,ffq31zc,Davillage,tjoby
"I am more a historian, than mythologist)
So, take care with your beliefs.
PS I've described the symptoms of a state, you've provided none. Case closed.",vabankas,11dzrf,ffcsxaf,it was a weak attempt of you pushing a certain narrative. Ukraine existed before as Cossack Hetmanate or Kievan Rus. AKA UK didnt exist before 1922 since it was United Kingdom of Great Britain and Ireland not United Kingdom of Great Britain and Northern Ireland,ffc3yfk,Icesens,9scmj
"If played properly, on the curve, with some luck, every meta T1-3 deck can crush every meta T1-3 deck.
But if you have shitty starting hand with Kronx and Galakrond sleeping among 28th-30th cards vs Face Hunter or Quest Res Priest, who can answer everything...
But that's hypotetically speaking. My point is (as it was with many decks, which were annoying but not such powerful) that Gala Rogue is neither uber-strong nor broken.
It cannot witstand direct damage, it sucks vs que hunter, outvalued by Res Priest, but it can crush Gala Shaman and (with some luck, of course) Pirate Warrior for example.
Beyond decent, good, but not all-powerful as GalaShaman was at the start of DoD.",vabankas,11dzrf,ffc1co9,"If played properly and with some luck, galakrond rogue has the potential to outvalue every other deck in the game. Dragon lackey helped alot in that direction. The problem isnt that you can never outvalue them with other decks, the problem is that rogue is built as a tempo deck that also happens to excel at things it shouldnt. Often times rogue generates more cards than they started in their deck, making diffficult to play around and without any tempo loss.",ffbvfi4,colossus_geopas,14t0zq
"No, I mean 1 witchey lackey with nothing to upgrade or 1 lackey giving +1 attack and rush to the witchy lackey with nothing to upgrade, or titan lackey that can give +2 health and taunt to...nobody.",vabankas,11dzrf,ffc0yg8,You mean 1 lackey and a discovered Dragon?  Or 1 lackey and 3 discovered Pickpockets?,ffbv9jg,welpxD,yob8x
"You are going completely off the question. I've written that Ukraine, as a state, never existed until 1918,  so your language *argument* (which is wrong BTW) *is wrong either way no matter how you sway it*",vabankas,11dzrf,ffc0qh0,Ukranian language is older than 101 years so your argument is wrong either way no matter how you sway it,ffbr32k,Icesens,9scmj
"What does it have to do with what written above? I've written about the state institution and such markers as common language, state identifiers (currency, legislation system, written (physical) documents).

For example, Jews had their state LONG ago, then lost it and finally Israel was recereated in mid-XX. They had money, documents, unified language, traditions, religion and etc. This makes them as a nation.

Kurds (or Basques)  on the other hand are not a nation, but an ethnic group, which does not go beyond state, though Basques have an authonomy established, but still they are not a state-level nation.",vabankas,11dzrf,ffbmnxs,many national identities can exist without a state. See Kurds. That said it is true and a bit Ironic that Ukraine reached its peak in terms of size thanks to USSR,ff9fqkk,Icesens,9scmj
"Sorry, but Galakrond Rogue DOES run out of gas and it is frustrating to say at least (if you play for Gala Rogue, of course).

And, for example, Gala Priest or Control Warior (even wihout Elysiana) CAN outvalue Gala Rogue.",vabankas,11dzrf,ffblp5h,"Just a thing to add to this, What also is frustrating is that the other classes counter to galakrond was supposed to be highlander cards, but oops those aren't class specific to galakrond classes get them too! i know the latest data says normal galakrond rogue is better than highlander, but its still so frustrating that on top of getting the special treatment from blizz in galakrond, they get the special highlander stuff too. 

in the end im just tired of beating my head into a wall that never runs out of gas in rogue right now, and blizz has gone right back to super powercreep they said they didnt want anymore after KnC",ffak4sa,SleepyPB,1luhn1x7
"The costs of drawn cards could be increased to 1 mana, so it would be ""draw X cards, change their cost to 1 mana"", instead of current 0-mana.  
With 9-mana Galakrond, Galakrond archetype would have the same amount of usage as nowaday Boom or less.",vabankas,11dzrf,ffblkgh,"Making things cost 0 is a dangerous game, as quest mage or old Raza priest demonstrated. The full Galakrond deck is scary efficient and I have won games that I have no business winning.  

Making the Galakronds cost 9 seems like a good idea - although if you're drawing 4 0 mana cards, does the initial mana cost matter as much as it does for other Galakronds?",ffa6z7i,shinysanchez,b9lv0
"Maybe this particular Galakrond Rogue is slighltly more favourable against other Galakrond Rogues of the same type (if drawn right), so it should be left as is",vabankas,11dzrf,ffbk69l,"That's one solution. The issue right now is that Rogue is 40% of the players in Legend as it feels kind of substantially better than many other options, which is heavily constraining diversity. And the deck doesn't weaken at rotation which concerns me. 

Hopefully the new cards can help beat these decks in a way that won't require nerfs, though we might have reason to be concerned about new set impact, like the year after Kobolds.",ffavzvu,Popsychblog,6tt3t
"When Rogue runs out of cards and has only 1 lackey to play each turn...its painful, to say at least.",vabankas,11dzrf,ffbk2ho,"I agree with pretty much everything you talked about, and I'd like to give my own two cents here. I apologize if I might rehash things that were already said.

I believe the main problem is hero powers generating infinite resources, and I include invoking in that since it is in essence a hero power activation. An example of the past that is mentioned a lot is Rexxar who was crazy powerful in standard, winning games for hunters that they should not ever win.

I think three of the five galakronds were fair from the start: warrior, warlock, and priest. Priest even seems underpowered, but that might not be the galakrond's fault.

* The warrior galakrond has a big power spike from the battlecry, but it is a one time thing. The hero power is powerful, but not completely busted. 
* Same with warlock, the battlecry is a power spike and the hero power is good for what a lot of warlock decks want to do. Technically infinite 1/1 demons, but that doesn't feel unfair. 
* Priest galakrond... well, they get a lot of value. It wins attrition battles a lot of the time, if they can ever get there. They tend to crumble to any reasonable amount of pressure. Technically they have infinite value, but the generated cards are often garbage or cost too much. It feels balanced because the couple of good cards you get are offset by the bad ones.

One galakrond was on the cusp of unfair and therefor nerfed, now it seems fair to me as well: shaman.

* Looking at shaman galakrond, it seems to have the biggest power spike affecting the board out of all galakronds (unless warlock gets really lucky on the random demons maybe?) and it has an annoyingly proactive hero power. The infinite 2/1 rush elementals feel terrible to face, which is why it was good they nerfed shaman things to tone down the oppressiveness of the rest of the deck. I'm still not sure if I like the 2/1 rushy boi every turn, but it hasn't felt horrible to play against anymore lately.

Which leaves rogue.

* Rogue galakrond generates infinite cheap lackeys that give them many different outs to various situations, and makes it very hard to play around anything they could do. Drawing the 4 free cards I'm okay with since it is their big payoff moment, it is the lackeys I take issue with. As rightly mentioned, rogues don't need to play any lackey generators at all to get lackeys for togwaggle, and they often have too many lackeys to know what to do with. I've found myself not invoking or hitting the button because I had too much value in hand already.

At first, I honestly didn't think generating a lackey was as powerful as it turned out to be. But it gives damage, value, tempo, taunt, and random bullshit cards that an opponent can't possibly play around. They are also very cheap making it possible for ""miracle"" turns to blow out the opponent, especially in combination with the 0 cost cards from galakrond and togwaggle. Unlike the randomness of the priest galakrond hero power, the lackeys are all good in some way and immediately playable.

I've been getting a little frustrated as of late when I lose another game and find myself exclaiming ""Can't I for once lose to a card that started in your deck?"" 

This ""generated by"" meta is wearing on me. Rogue isn't the only class doing this, but it is definitely the best at it.",ffaa5bm,Boeler010,2s64vrr3
"The will to control population of other country, because somehow you don't like it (objectively or subjectively - it does not matter) sound like a Nazi slogan. (They had Plan Ost, where the population of European part of Russia should be populated by no more than 10 mil. people and they had elected measures to population control). How's that different?

But they have enough resources to sustain their population. In a modern capitalistic world it is based on their decision and capability to do so.

But, on the other hand, India (2nd place) cannot sustain their population overgrowth on the same scale as well as most African countries. Why shouldn't they limit their less-hard working offsprings, who consume, populate, literally taking resources from hard-working ones?
PS They mostly speak English and French, why no one is bothered by that?)

The third countrly also should be limited, or repopulated as there are way too many areas whith low population density and if, for example, we relocate factories and personnel from China to that country, the pollution level would drop as well as the overpopulation crisis. No?",vabankas,11dzrf,ff97q95,"I dont know what makes it sound like genocide; no one is dying. And no, I do not listen to an adolescent girl when I think about what I should do or say about climate change. Just not having kids is not the same as killing/starving an entire population. And dont forget that China both leads the rest of the world in pollution and holds the most commonly spoken language not because they're industrialized, capitalist, or social. No, they hold these titles because their population is so fucking gigantic that a seventh of the world lives in China.",ff93yfb,P_Skaia,kksbj2k
"But it really wasn't.

And nowaday Ukraine is larger than it was 101 year ago.

Finally, Ukraine was born as a state at the same time. There was no such country as Ukraine, until 1918.",vabankas,11dzrf,ff9583p,Oh boy here we go.,ff8s5i4,TheTurtleTamer,c70sf
"> They just need to tone down their population.
Excuse me? You are telling them, that they should not populate as, because of your personal point of view, there are more than enough of them to you?

So, you are expressing a will to decrease number of citizens of one particular country, because you think so, or Greta said so?

I'm really sorry, but your proposition sounds like genocide...",vabankas,11dzrf,ff93dgy,"The problem isnt their factories, though. They already have good pollution laws in place since the per capita (per person) pollution is so low. They just need to tone down their population.",ff8xwcx,P_Skaia,kksbj2k
"I would also take all the manufacturing factories from China and distributed them all over the world, so the pollution would spread equally.",vabankas,11dzrf,ff8hch9,China's per capita pollution rates are some of the lowest of the rich countries. It's just their gigantic population that's putting it in front of everyone else. China should call for the return of the one-family-one-child law so their population dies down a bit.,ff7qtx0,P_Skaia,kksbj2k
"Thease are not HER ideas. Thease are just ideas, good or bad but they do not go beyond common.

The girl is being used, there's no way how ""just a teenager"" could get the platfrom to speak, transportation and PR all on herself and her parents aren't  billionaires.",vabankas,11dzrf,ff8h9lv,Lol her detractors aren't criticizing her *ideas*.,ff7p51r,SportsGuy9000,3hinebdu
"It is not some ""problem"". It is centralized state policy and the essence of capitalism.

When there's such a gap between richest and poorest, it cannot be a democracy for sure.

But, since the richest are the beneficiaries of state politics, so they run the state in the way, so they could make even more money.

Therefore there will be no progressive taxes for them.

What to do? Start from teching the masses.",vabankas,11dzrf,ff2nj39,"This is a common problem, but what is the solution? Just keep complaining until they voluntarily donate back?",ff1ynv5,catsanddogsarecool,kwnkv
"Oh, poor me. Had no losses unfortunately (((",vabankas,11dzrf,fembkuv,Bob only came when you lost a game. Even when you did Concede/Leave on purpose.,femb43r,pittjes,w8grbwx
"Had Finley and upgraded his power twice, so two times per turn I could divine shield and windfury minion for free...",vabankas,11dzrf,fem9isv,"2x Radiant Elemental

2x Shadow Visions

1x Dragon Soul

2x Witchwood Piper

Make a board of 5/5s on turn 4 with the right mulligan.",fem2lgv,cnpjphillypwn,14hoh1
"Aha, taip ir maniau, diskusija yra bevertė.",vabankas,11dzrf,fbg7bm5,Prieš atsakydamas perskaityk visą komentarą.,fbfyz9a,Vyciauskis,y4gyy3t
"M8, at the moment national law of every stronger and economically/politically less internationally dependent country prevails over international principles. Any coutry will follow its own goals (or the goals of its current government - be it local or outside-controlled) and when international principles object the goals...f*ck those principles!

Current international law does not really differs from Medieval Europe, though clear worldwide scale crimial actions must be decorated into some kind human-rights-violation b*shit in order to be not opposed by masses.

De facto the common International law is written for the weaker countries and is made in favor of dominant countries or even - country.",vabankas,11dzrf,fbfyxcl,"Dude, I even saw the friggin' musical about Japanese internment.  America has no question done some messed up shit.  Not questioning the idea of American concentration camps, just FEMA operated ones.

International law is...weird.  There's obviously nothing with sovereignty above a powerful nation like the US or China, or even someone like Iran.  But there are agreed upon principles (Habeas Corpus, Universal Declaration of Human Rights etc.) that can be used to test if something is in violation of generally agreed upon principles independent of the laws of the country in which the act is occurring.  This is what I mean by illegal under international law.",fbfoj6h,SignoreGalilei,zduz3
">Rusijos rinka gali pasirodyti labai patraukli, o jauni verslininkai dažnai nepaskaičiuoja rizikos susijusios su Rusija...
Tai kad tai nebuvo jauni verslininkai...

>Rusija kelia Lietuvos valstybei realią grėsmę įvairiomis prasmėmis ir tai pabrėžia...
Gal galima faktinių pavyzdžių? Ne paranojos (""rusai puola!"") ar nuoseklios prieš-Rusijos isterijos pavyzdžių? Nes tokie ""politiniai"" veiksmai, taip ar kitaip nukreipti prieš Rusiją (""Independence"", muitų politika, propaganda) kažkodėl gan brangiai kainuoja Lietuvos piliečiams (auganti komunalinių paslaugų - energijos - kainos).",vabankas,11dzrf,fbfygh1,"Kai kuriais atvejais galima taip teigti, tačiau jei valstybė nėra saugi, tai joks verslas toje valstybėje negali jaustis saugus, o žiūrint tik iš verslo perspektyvos, ypač, naujo verslo, Rusijos rinka gali pasirodyti labai patraukli, o jauni verslininkai dažnai nepaskaičiuoja rizikos susijusios su Rusija, įskaitant Rusijos politinės ir jos tarptautinių santykių padėties.

Taip nedarė, nes trumpalaikėje perspektyvoje Rusija dažnai būna pelningesnė, bet jokia valstybė nesidžiaugia trumpalaikiu verslu kuris nesugebėtų savo kapitalo perkelti į kitą amžių, todėl žiūrint iš valstybės ilgalaikės politikos nėra protinga remti ar skatinti verslą kuris užsiima tik trumpalaikiais sandoriais, o atsižvelgiant, kad Rusija kelia Lietuvos valstybei realią grėsmę įvairiomis prasmėmis ir tai pabrėžia, todėl joks protingas verslas neturėtų savęs tapatinti su ilgalaikiu ar pagrindiniu prekybos partneriu Rusijos federacijoje, žinoma, prekyba su Rusija yra reikalinga, tačiau verslai kurie laikosi vien tik and Rusijos yra pažeidžiami, tai turėtų suprasti kiekvienas bent vieną kursą ekonomikoje išklausęs verslininkas, plius tokia verslo priklausomybė tik nuo vienos valstybės rinkos, Rusijos, gali kartais kelti net nacionalinio saugumo problemų dėl pažeidžiamumo, quite obvious if you ask me.

Taip, dėl trumparegiškumo ir išlikusių prekybinių santykių po SSRS griūties, bet verslui kietakaktiškumas nėra pozityvi savybė.",fbdl09q,Vyciauskis,y4gyy3t
"T.y. verslas PRIVERSTINAI dėl politinių motyvų (LINAVos case'as) turėjo ieškoti kitų prekybos rinkų, dėl ko transporto (pervežimų) įmonių struktūra pasikeitė, nemažai įmonių bankrūtavo, o tokie, kaip Girteka drąsiai užėmė ""atsilaisvinusią"" Rusijos rinkos dalį?

O kas dar apart ""stabilesnių"" (ir mažiau pelningų, turinčių daugiau apribojimų, sudetingesnių) rinkų?

PS Beje, verslas turėjo visas galimybes prekiauti tose rinkose ir anksčiau bet kažkodėl to nedarė, kai sąlygos Europoje buvo net palankesnės. Gal taip pat žinai, kodėl?",vabankas,11dzrf,fbdkb74,">O gal galėtum tuomet pažymėti aspektus, kur yra išlošta?

Kreipiamas ir plečiamas dėmesys į stabilesnes rinkas.",fbdjurf,Vyciauskis,y4gyy3t
"> Sutinku, prekybos kare išlošėm. 

O gal galėtum tuomet pažymėti aspektus, kur yra išlošta?

Nes, pvz, transporto pervežimų sferoje (jūrinis ir geležinkelio transportas)  pastebiamas nuosmukis, gamybos sferoje (medienos gaminiai) tai pat. O kuriose vietose yra išlošta?",vabankas,11dzrf,fbdjpc2,">Kalbant apie įvairias Rusijos ekonomines sankcijas (dujų kainų užkėlimas, importinių prekių draudimas) tai aš manau, kad ilgalaikėj perspektyvoj mums tai atnešė daugiau naudos negu žalos- pasistatėm dujų terminalą, mūsų verslas tapo mažiau priklausomas nuo Rusijos rinkos.

Šiuo postu bandau koncentruotis ties propagandos aspektu, neaprėpiant kitų temų, tokių kaip prekybinis karas.
Sutinku, prekybos kare išlošėm.",fbdbha4,Vyciauskis,y4gyy3t
"At the start of every expansion I like to play Whizzbang both in Standard and Wild Casual for example. So if you like it - do it, if you don't, then why do it at all?",vabankas,11dzrf,fbd7gku,"Yea, I'm having fun in Battlegrounds and Arena still, equal playing grounds.",fbd74a8,The_Apatheist,moarh
">I'm asking the question of what do you consider to be ""white"", what is your basis of what is ""white"" and why. And you haven't told me. 

You ask me? Where?",vabankas,11dzrf,fbd6xg6,"I'm asking the question of what do you consider to be ""white"", what is your basis of what is ""white"" and why. And you haven't told me.",fbd6jup,jongiplane,65ynm
"When everything based on facts - it is possible, but when news are based on ""reliable sources"" and ""beliefs"" it is impossible or very extremely hard to prove something.

The same as talking to religious fanatics. So...I don't think it is worth it )",vabankas,11dzrf,fbd6uqv,Best would be you explain yourself for all the people who just read the headlines.... You have the power to fight this fakenews if you say so!,fbd4ph6,lil_dogecoin,ro4wi
"There's no International Law.

FEMA is more of a conspiracy, but US Internment camps for Japanese Americans [https://www.history.com/topics/world-war-ii/japanese-american-relocation](https://www.history.com/topics/world-war-ii/japanese-american-relocation) were very real.

Also, concentration camps were invented by UK during English-Boer war (the very begining of XX).",vabankas,11dzrf,fbd6mpi,"Illegal under international law then, or even just unethical. Gitmo probably has counted for a while, some of the border prisons too (e.g. the ones holding kids without their parents or toothbrushes). No FEMA camps yet meet that standard though, at least based on the evidence I've managed to find.",fbd2lyn,SignoreGalilei,zduz3
German expansionism was fueled by major corps from USA/UK/France and it was fine. What could go wrong?,vabankas,11dzrf,fbd6fcf,"The comparison is apt.

You are saying that there's ""no good side"" because of what the US does today vs what China and India do

I'm saying that there was still a war between countries to stop German expansionism despite the opposition being expansionists themselves. Hypocrisy is a feature of realpolitik",fbd3ddy,naryn,6q3us
"Trolling, bro/sis, just trolling.",vabankas,11dzrf,fbd6d8c,"Jesus fucking christ, you actually wrote that with a straight face?",fbd50nw,BroodLoli,45j3g2pq
"[WTF?](https://www.youtube.com/watch?v=XTLoOqEimd8)

I'm sorry, but ""who"" considers ""Mediterranean ethnicities"" as non-white nowadays???

Historicaly, natural inhabitants of the country mostly hated its neighbours and all newcommers. French hated Germans, Dutch hated Belgians, all of them hated UK, which had country-level hate between Scots, Irish and Welsh ethnicities.

And in the modern world NO ONE native likes immigrants or threat them worse as their long-known neighbour.

Your ""historical study"" is a predecessor of Nazi movements and your description of ""white"" is the core of fascism (which ironically was born in Italy, which, according to the sh\*\*tudy you brought, was not considered white...).

Have your deserved reward for brute trolling and move along.",vabankas,11dzrf,fbd6cl5,"lol are you joking or what? 

Italians, Greeks and slavs, people from Balkan states and etc. are not ""white"" and were never considered white historically, and faced harsh racism coming to America. They could not tick ""white"" on any boxes, and nobody considered them white.

https://theundefeated.com/features/white-immigrants-werent-always-considered-white-and-acceptable/

Italians and Greeks are still not ""white"", along with other Mediterranean ethnicities. America is the only country in the world that would consider them as being white, but they also include Arabs, Jews and Egyptians in their definition of ""white"" on the census, when they are clearly not white.",fbd4el8,jongiplane,65ynm
"People are ignorant and tend to see their own surroundings as universal way of things.

If person never been to Croydon, lives in Richmond, works in City and spend his/her winter vacation in Alps, skiing, then, naturally he/she sees the world as perfect, comfortable, racism/sexism-free and don't understand the problems of workers, minorities, immigrants and etc.",vabankas,11dzrf,fbd5uqe,I have the same experience.,fbd4d07,moon_nicely,lo9kt
"But you don't really know what is happening in Russia ) You see the media picture provided to you by media majors, seeking that your opinion would be on the required level. Simply speaking - about 70% of all negative news, studies, ratings, investigations, mockumentaries in the US/UK press are fakenews/lies/opinions/beliefs. As simple as this.

And can you please name the terrible Russian concentration camps, cases opressing ""small and proud"" nations INSIDE Russian territory nowadays?",vabankas,11dzrf,fbd5or2,"Comparing the 'unfriendliness'/racism in the UK (which is a terrible thing, I'll admit freely, and I'm not going to pretend it's not happening!) to what is happening in China, Russia and India undermines what is happening there. Concentration camps are another level all together and saying 'the UK is just as bad' let's them get away with whatever they want.",fbd40om,schmauften,eptj3
"So it must be hard for you to deal with limited offers all over the retail places.

Literally to hammer a nail, you need the best tool (a hammer) to do it. You can use any heavy, sturdy, blunt object, but it is achieved best with a right tool. Just a hammer is better than multitool that includes hammer.

Same in HS. You can't beat aggro with a slow deck, you'll loose to a combo deck with a control and aggro would crush combo for sure.

If you don't like something, means that you like something else. So if you like playing HS without limited in choices and if you don't like spending money, choose what you like more - spend money and be unlimited, or have a limit but do not spend. No one is forcing you to play constantly in frustration )

Remember the goal of every game ever invented - **to have fun**.",vabankas,11dzrf,fbd4e1h,I don't like being limited in choices.,fbd264m,The_Apatheist,moarh
"Well, I can only play if i enjoy it.
Speaking of monies...you can always ftp. Btw.",vabankas,11dzrf,fbd14ij,"Im not torturing myself. Five years ago it was a great game I played daily and put money on, now it's a decent game if I want to waste some time every now and again. The financial drain was most of what killed it for me anyway: lack of will to experiment cause gotta save dust as wrong experiments got ever costlier. 

Why must everything be black or white, great or trash? It was great, now it's ok.",fbd0xfv,The_Apatheist,moarh
"Back in 2014, you say? ) [Those were the days](https://www.youtube.com/watch?v=FyJh1Kyl184)

Why are you torturing yourself if all the best happened 5 years ago???
Don't you remember Old Gods Big Priest, Raza Priest, Patron Warrior, KB rogue, Cavern Rogue, Big Spell Mage, Control Lock and I'm not even speaking about Odd and Even variations. Have you missed all those? Gala Shaman is no better than KB rogue or Big Priest nowadays.

Every set has statistically confirmed (with variations) great and shitty decks and you never know before until it really happens.
The thing is that deck (or decks) are memetic, annoying and (sometimes) butthurting, though you don't meet the same decks constantly. You remember frustration better, thus you tend to rememeber ""it's always Shaman!"" (its always Odd Paladin, its always...)

To me (playing casual, ladder, wild, standard) Shamans are common, but happen in like 20% of games. I tend to meet mages, rogues, warriors, Whizzbang decks in standard and (almost) haven't seen Shamans in wild.",vabankas,11dzrf,fbd0pai,Honest reply? I had the most fun at the time that even yanky Randuin Wrynn decks could be piloted to rank 10 and the power difference between a meta deck and a fun deck was a 2 to 1 winrate.,fbc1azm,The_Apatheist,moarh
"Well, the cards are mostly OK when separated, but combined they can create toxic synergy.
Dunno, other classes galakronds BCs are not so bad as well (RG-3 0-cost cards, PR - kill 4 minions, War - 3 minions (chargers or rushers mostly) +4/+4 - just imagine three 7/6 scions with rush! and Lock...lock sucks, yeah).
maybe there could be 7/7-6/6 instead of 8/8, lowered stats of pack and add some extra ""if"" to the BC(play elemental last turn, invoke 4 times, already Galakrond, lived to T5)",vabankas,11dzrf,fbabs67,"usually I would agree with you because people here love to hate on decks that they lose to, but gala shaman is one of the few decks that deserves nerfs imo and FAST. Now, I'm not saying make the deck unplayable, but make it a little weaker but still keep the spirit of the deck. So lowering the stats on dragon's pack slightly, changing the invoke twice card somehow, and changing the 8/8s from gala to 6/6s OR 8/4s (4x 2/1 = 8/4 so maybe make the big storms just multiplied versions of the base 2/1s.) I think the 8/8s too often clear the enemy board and stick threatening lethal and such an insane swing is ridiculous for 7 mana.",fbabamw,420weerrrr,3wgodkql
"M8, every deck, if perfect on the curve, is unbeatable )
But if Shaman's draw sucks, there's no way to beat anything. Even slow Druid (miss first 5 turns, be rewarded later).",vabankas,11dzrf,fba63ni,"All of those sacrifice consistency or tempo to be great...Shaman just plays anything and gets rewarded without sacrificing anything to do so. It's definitely beatable. My bad Galakrond Quest Rogue seems to be a good match-up, but it's still silly strong, and if it goes perfect it's almost unbeatable.",fba54tn,Alomeigne,gczwx
"Skill?

Play minions until resurrect>repeat>outvalue, if not=lose.",vabankas,11dzrf,fba5ymc,"Nah zalae resurrect priest was one of my favorite decks in the entirety of hearthstone. Took skill to play, allowed for counterplay and was just super rewarding to pilot properly.",fba4go8,WangIee,1hrq9yq2
"But let's nerf it to please the community, mmmmkay! /s",vabankas,11dzrf,fba4wa5,"it's still another segment of the battlecries that need to be 'in order'.

Before, you just needed the Saronite-> (hope it doesn't die) Brewmaster/Barista/Grumble

Now, you need (summon something) -> (hope the summoned thing doesn't die) -> Faceless -> (hope the faceless doesn't die) -> Brewmaster/Barista/Grumble.

And in this meta, you've probably played several other battlecries that add cards to your hand (between the sludge slurpers and the lackeys that add spells/dragons to your hand especially), so you have to either spend a lot of time dumping your hand first so there's more space, or risk missing the shudder.

It's far less consistent.",fb89urk,amish24,bcfhv
"IF one lives long enough and manages to pull them off! (thus punishing greedy, stalling, over-control deck like Control warrior or Priest).

Infinite shudders happened in less than 90% matchups, the total winrate of this deck was \~50%.",vabankas,11dzrf,fba4u9a,The real problem was the infinite 1 mana shudders,fb869kt,steved32,165yr1
"It could not be when it was Saronite-Grumble deck, but now with full-priced Shudder it is T1?",vabankas,11dzrf,fba4nax,"Barista would like a word. Infinite Shaman is definitely ladder viable. Oh, it's also part of Gala Shaman so it's being used by a Tier 1 deck.",fb9k49g,Orval,57lf3
"It is not a popular opinion - but I honestly don't see Shaman Galakrond (with quest and without quest) way too broken, compared with aggro shaman or quest shaman variations.

Face secret hunter can handle Shaman. Mage (quest spell control) can handle shaman. Shaman can handle shaman. Yup, it is strong. Wolves are bad, agree (price increase, taunt remove, make it +2/+3, or even only when in Galakrond form, etc). Faceless copycat is too cool (maybe 1 mana cost increase could do the trick), but speaking of ridiculous powahr cards...

We have:

Scion of Ruin (with Barista, you get 3\*3 3/2 units for 9 mana)

Dragonmaw poacher (Q Shamana can get 2\*12/12 with rush on T10 easily)

Pirates and warrior pirat synergy.

Rogue's Necrium Apothecary

But yeah, Shaman is the target. Lets nerf hex!",vabankas,11dzrf,fba4eqr,Any deck the deck he plays destroys ;),fb9zcmi,klappa9,mvjr6
"> Labai pasitenkinę ir labai nelaimingi klientai jų tiesiog nedomina. Jeigu klientas nusprendžia, jog paslaugos neatitinka jo lūkeščių ir jau nori pereiti pas kitą operatorių, tu negali prižadėti kalnų privilegijų, nes tai nelabai customer satisfaction'o kelia Tu gali pasiūlyti mažas nuolaidas, sumažinti plano kainą keliais eurais. Jeigu to neužtenka atbaidyti nuo pasirinkimo keisti operatorių (O tai yra drąsus ir didžulis sprendimas, reikalaujantis daug resursų), nebe apsimoka laikyti tokio kliento pas save, nes jis nuolatos bus problematinis. 

What?

Gal tamsta Telia rinkodaroje dirba? )))

Nes tai, ką sakote, neatitinka tikrovės at all.",vabankas,11dzrf,fb9y8xk,"Iš šono gal taip atrodo, bet patikėkite, rinkodaros departamentas skiria didžiulį dėmesį dabartiniams klientams. Nes tai yra patys brangiausi. Pritraukti esamą yra pigu ir lengva. Išlaikyti ir didint to kliento išlaidas yra brangu. 

Jeigu darysi apklausą ""Ar jūs patenkinti esate dabartinėmis mūsų paslaugomi 1/10s"", jiems yra įdomiausi klientai yra tie penketukai-septynetais, ir daro viską, kad palaikytu customer satisfaction'ą tokiame lygyje. Labai pasitenkinę ir labai nelaimingi klientai jų tiesiog nedomina. Jeigu klientas nusprendžia, jog paslaugos neatitinka jo lūkeščių ir jau nori pereiti pas kitą operatorių, tu negali prižadėti kalnų privilegijų, nes tai nelabai customer satisfaction'o kelia Tu gali pasiūlyti mažas nuolaidas, sumažinti plano kainą keliais eurais. Jeigu to neužtenka atbaidyti nuo pasirinkimo keisti operatorių (O tai yra drąsus ir didžulis sprendimas, reikalaujantis daug resursų), nebe apsimoka laikyti tokio kliento pas save, nes jis nuolatos bus problematinis. 

Supraskite, kad Telia ir Tele 2 yra du labai skirtingi operatoriai, su labai skirtingais klientais. Kaina - tai Tele 2 USP. Jie yra kaip LIDL'as. Mažos kainos, žemos maržos, didelė apyvarta. 

Telia yra kaip Rimi, eina per kitus kriterijus - produktų įvairovę, produktų paketai, televizija, pirmieji kurie dega inovacijas, customer support ir emocijos (jaustis pižonu) t.t. 

Jeigu tau Telios USP yra neaktualūs, tai dažnai reiškia, jog tu tiesiog pamestinukas, atsidūrei ne ten, ir tikriausiai neperki iš telios papildomų paslaugų. Gal tau gali atrodyti jog tu esi pasaulio bamba, bet iš Telios pusės tu esi labai brangus klientas.",fb7js9c,Envojus,5q8wq
"Just curious - what deck do you find unbroken, consistent and fun to play against?",vabankas,11dzrf,fb9xk29,The game is trash now. There are three decks that are viable in standard and maybe 4 in wild. Boy oh boy is this expansion a mess. It’s like someone who doesn’t understand HS designed the deck. I hate to say it but the game isn’t fun anymore.,fb9s5c1,god_of_Kek,164qvo
"The prices have increased approx. 3 times - the same amount, but instead of LTL it is in EUR now.",vabankas,11dzrf,fb716d2,"> As far as I am aware comparing the prices from 2013 to today, they have risen around 3x on average

Lol no, are you drunk? They increased by a few percent, not three times.",fb61rl8,Airazz,3uep9
"Tredunionism won't save the situation.

The fundamental change of capitalism foundation can, though.

Interesting that only during WWII Soviet Union was a temporary partner of USA, but later the foe remained the foe.",vabankas,11dzrf,fadwdfc,"I put together a big post that I'll share here:

Our economic situation is so much worse than most people realize, the current system is very broken and there's plenty of information that proves it. So, where to start?

[The ultra-rich have as much as $32 trillion hidden away in offshore accounts to avoid taxes.](https://www.reuters.com/article/us-offshore-wealth-idUSBRE86L03U20120722) As a way to understand the magnitude of the number 32 trillion (32,000,000,000,000), let's use time as an example. One million seconds is only 12 days, but one billion seconds is 31 years. So there's a massive difference between a million and a billion, much more than people realize. But how much is 32 trillion seconds? It's over a million years.

People know it's an issue but they don't understand just how extreme it can be. Here's an example: **If you had a job that paid you $2,000 an hour, and you worked full time (40 hours a week) with no vacations, and you somehow managed to save all of that money and not spend a single cent of it, you would still have to work more than 25,000 years until you had as much wealth as Jeff Bezos.**

I've been researching this issue for years because I was shocked at just how bad it really is. I've come to the conclusion that there are underlying flaws in the system, and I've put together some information to help illustrate it.

**Graphs:**

▪[Possibly the most important graph ever: productivity is increasing but wages are stagnant, all the profit is going to the wealthy](https://i.ibb.co/412gVpH/Screen-Shot-2013-03-08-at-11-36-19-AM.png)

▪[When adjusted for inflation, the minimum wage has actually been falling since 1970](https://i.ibb.co/FDLBPs0/wage-chart.png)

▪[Distribution of U.S. income](https://i.ibb.co/0XJVkXH/OSX-Ethics-08-04-Avg-Income.jpg)

▪[Distribution of average U.S. income growth during expansions](https://i.ibb.co/4mn2BNg/qDWnA4s.jpg)

▪[Income inequality in the U.S. compared to western Europe](https://i.ibb.co/JzTswsZ/inequality.jpg)

▪[Inequality is still an issue in Europe though, here's the distribution of German wealth](https://i.ibb.co/Gsy8wpb/screen-shot-2018-01-31-at-12-07-49-am.png)

▪[U.S. economic mobility compared to other developed countries](https://i.ibb.co/sCr7NdS/Relative-Social-Mobility-of-Wealthy-Nations-2-1024x639.jpg)

▪[Taxes for the richest Americans have plummeted over the last 50 years](https://i.ibb.co/mzjm1Sj/Fake-Candid-Dungbeetle-size-restricted.gif)

▪[Amazing info-graphic about U.S. economics over time](https://i.ibb.co/wR3PY5D/e8t78dn0d5h21.png)

▪[In addition to all of that, there's another layer of inequality as well](https://i.ibb.co/bd27TM7/e4uoe4w8z6r31.jpg)

**Videos:**

▪[A quick illustration of wealth inequality in America](https://youtu.be/QPKKQnijnsM)

▪[Corporations have more of an effect on U.S. law than the public](https://youtu.be/5tu32CCA_Ig)

▪[Rich people don't create jobs](https://youtu.be/CKCvf8E7V1g)

▪[Neo-feudalism explained](https://youtu.be/j0R8bXrUCgg)

▪[How American CEOs got so rich](https://youtu.be/ylLTMYt24lA)

▪[The origins of conservatism](https://youtu.be/E4CI2vk3ugk)

▪[Neoliberalism explained](https://youtu.be/7gQFvf19Jec)

▪[Why inequality matters](https://youtu.be/XLJl0AdhPjE)

▪[Beware fellow plutocrats: pitchforks are coming](https://youtu.be/q2gO4DKVpa8)

▪[The new feudalism](https://www.youtube.com/watch?v=n-2TEwdRnX0)

▪[Wealth and inheritance](https://youtu.be/QzQYA9Qjsi0)

▪[The Money Masters](https://youtu.be/HBk5XV1ExoQ?t=22)

▪[Flaws of capitalism](https://youtu.be/6P97r9Ci5Kg)

**Articles:**

▪[Wonderful article about minimum wage, inflation and cost of living](http://amhill.net/2016/08/04/minimum-wage-vs-cost-of-living/)

▪[Small farms are being consolidated up into big agriculture](https://thesocietypages.org/socimages/2011/07/23/concentration-in-u-s-agriculture/)

▪[""Is curing patients a sustainable business model?""](https://www.cnbc.com/2018/04/11/goldman-asks-is-curing-patients-a-sustainable-business-model.html)

▪[Study shows that you're more likely to be successful if you're born rich and dumb than poor and smart](https://www.theatlantic.com/business/archive/2013/12/would-you-rather-be-born-smart-or-rich/281828/)

▪[This scientific study concluded that banks can create money out of thin air](https://www.sciencedirect.com/science/article/pii/S1057521914001070)

▪[Just 100 companies responsible for 71% of global emissions](https://www.theguardian.com/sustainable-business/2017/jul/10/100-fossil-fuel-companies-investors-responsible-71-global-emissions-cdp-study-climate-change)

**Quotes:**  

>**“No business which depends for existence on paying less than living wages to its workers has any right to continue in this country. By workers I mean all workers, and by living wages I mean more than a bare subsistence level, I mean the wages of decent living.""** - Franklin Delano Roosevelt speaking about the minimum wage (it was always meant to be a living wage)

°

>**""The cause of poverty is not that we're unable to satisfy the needs of the poor, it's that we're unable to satisfy the greed of the rich.""** - Anonymous

°

>**""Anyone who believes in indefinite growth on a physically finite planet is either a lunatic or an economist.""** - Kenneth Boulding

°

>**""A century ago scarcity had to be endured; now it must be enforced.""** - Murray Bookchin

°

>**""Capitalism as it exists today is, in my opinion, the real source of evils. I am convinced there is only one way to eliminate these grave evils, namely through the establishment of a socialist economy accompanied by an educational system which would be oriented toward social goals. In such an economy, the means of production are owned by society itself and are utilized in a planned fashion.""** - Albert Einstein

°

>**""If machines produce everything we need, the outcome will depend on how things are distributed. Everyone can enjoy a life of luxurious leisure if the machine-produced wealth is shared, or most people can end up miserably poor if the machine-owners successfully lobby against wealth redistribution. So far, the trend seems to be toward the second option, with technology driving ever-increasing inequality.""** - Stephen Hawking

•  •  •  •  •  •  •

**So, what do we do?**

I think the first step is spreading awareness and organizing people. Joining or creating local organizations is always good, and [unionizing is a great thing as well,](https://i.postimg.cc/N06BZt33/12731.jpg) and there are organizations like the IWW that can help you do that.

But honestly I think one of the best things we can focus on is to get behind [the only candidate who has been talking about these issues for decades.](https://youtube.com/watch?v=SYxZfksAyco) Although [the media is slandering him,](https://youtu.be/3ZhkKATtqtU) and [completely omitting him from their coverage,](https://imgur.com/a/VyNVA8D) he [actually has the most support,](https://www.nytimes.com/interactive/2019/08/02/us/politics/2020-democratic-fundraising.html) and [especially amongst young people.](https://i.redd.it/ybarwig9v5u31.jpg)

The [other candidates](https://www.theguardian.com/commentisfree/2019/nov/24/elizabeth-warren-not-progressive) just [don't stack up.](https://www.commondreams.org/views/2019/11/22/pete-buttigieg-just-shill-corporations-and-donor-class)

The public needs to get more involved in politics, and we need to demand that the system works for us, but I think it's important that we have a leader who actually cares about solving these problems because otherwise it's even more of an uphill battle. So register to vote as a democrat, vote for Bernie in the primaries, and get as many other people as you can to do the same. Subscribe to r/WayOfTheBern, r/OurPresident and r/SandersForPresident. And if you're willing and able to contribute money or time then please donate or volunteer for Bernie's campaign. An easy thing you can volunteer for is phonebanking, where you contact people and give them information. There are many things we can do to fix these problems, but the most important thing is to get the right person in the white house, and we have less than 100 days left now. This is not a drill, please get this information out there as much as you can and make sure that people know about these issues and know how to fix them. Thank you for your support, together we can do this!

•  •  •  •  •  •  •

**If anyone would like to copy this post,** [**here's a Pastebin link.**](https://pastebin.com/g7cPiEhz) **And if you'd like to see more information like this, check out r/MobilizedMinds**",fads6ki,srsly_its_so_ez,bpe56
"Most likely.

Some me-go-face rogue deck or legendary-heavy res priest will prevail after all.",vabankas,11dzrf,f9q64ja,"But, its garbage :(",f9pxlbd,lazraven,8lloy
"Goru+Sath+SathFloop for Goru or SathFloop for Sath...how many Goru's you can get eventually? ))))

PS Only poor, sad Lucentbark sits outside of the party. He's a tree but not a small pesky treant. So sad.",vabankas,11dzrf,f9q5zzg,"Eventually, yes. Don't forget about floop.",f9prjjx,Offbeat-Pixel,2a4r8r2a
"Yup, poor American workers are billionaires undergoing temporary difficulties...",vabankas,11dzrf,f9gn8s2,"We live paycheck to paycheck, the mass majority have no union involvement because it's often a fire-able offense, and also the political conversation is really fucking terrible. We have two parties and any voice outside of them get no coverage and are functionally non-existent.

Both traditional Republicans and Democracts are opposed to fixing it and most of the problems ailing the labor force. So they often deflect any issue onto the other side or make up random bullshit to avoid actually addressing any of it. The only people wanting to fix shit are outsiders who embed themselves into the parties but are social pariahs who are alienated from being left out of party tactic meetings, being shunned by fellow reps, and getting no support on their policies. Bernie Sanders is probably the best example tbh. He gets supressed in coverage and his party actively works towards deplatforming him. The last election he was the most popular candidate by far and polled way better than Trump and Hillary but the Dems pulled him out through strongarming him and prefered to lose rather than let Sanders win.

There's also the cultural shit. The idea of the American Dream is DEEPLY embedded into a lot of people in the worst way possible. The younger generations kind of know better living through massive economical crashes and being the first in decades to have less their parents. However most of the older generation believe if you work hard enough you will succeed and be wealthy. So they're opposed to funding social programs and taxing the rich because they think they'll fuck themselves over someday. They're ""temporarily embarassed millionaires"" only briefly suffering the indiginity of being poor. Ironically they're happy to kill the programs they need to fuck over the other poor. 


There's simply no worker or community unity or culture, it's all individualists worrying about themselves because everyone has been brainwashed into fighting their fellow Americans instead of the crazy powerful corporations or corrupt apathetic government.


Interestingly the Yellow Vest/Jacket movement got no media coverage here. Most protests here that go against Corporate interests don't get in the news though. No one here knew it was going on and I only found about it because I'm in a few pro labor circles. I wish we could have something like that here but I just can't see it happening outside of another Great Depression or something dramatic that completely destorys American life.


There's a lot more to it, a lot relating to Ronald Reagan, The Red Scare, Money in Politics, The US not being a Direct Democracy, etc. But I think the culture is the biggest hurdle.

Sorry for the novel length post, I hope at least some part of that was interesting or enlightening",f9fs9su,HotGirlOnProxy,42qcfhpx
"Interesting, why do Americans (and American officials) like and support protests in other countries so much?",vabankas,11dzrf,f9gmvyo,"From what I see, there are protests, but they arent extremely well seen unless they turn into riots, in which case they get shown in a bad light. Not to mention, it's hard to take time off of work (especially if you are hourly, because it's literally taking money out of your paycheck and PTO seems to be fucking rare nowadays), and people are also scared of the legal repercussions protesting could cause. Even though we have the first amendment, our police force is questionable at best and the trust between police and civilian is lower than it has been in a while. 
And just...we're tired, man. A lot of us are worn down. Those in charge don't seem to hear us, and change is incredibly slow. It makes some of us complacent, because what's the point if no one listens?",f9fh5eb,Kit-Kattitude,2pvjma0f
"The main difference why do European workes revolt and why Americans don't is that:

European workers know they are being exploited and used, but American workers are all soon-to-become billionaires and current problems are just temporary difficulties.",vabankas,11dzrf,f9gmate,"As an American, it does sound like bs and we know it is, but its just how we live. We know this is what we have to deal with and most people are just trying to make that mo ey and pay those bills. It probably seems more jurrastic from an outside view looking in, but its simple reality for us. We just kinda hope we get insurance that covers our needs and make do. And we do have many people on the streets who need money and cant afford things etc. Its sad but its life",f9eq28j,peanut12013,4vltgot6
"Brilliant! I'm in tears.
And not a single word of propaganda, meddling with history or point-of-viewing instead of factology.

PS The Matrix has got you)))
Choose the right pill next time. Stay well.",vabankas,11dzrf,f92rrny,"Sorry, i cannot invest much time to prepare information you can find using search engine. I am not historian, i am Ukrainian, thats all. 

https://en.m.wikipedia.org/wiki/List_of_wars_involving_Russia

https://en.m.wikipedia.org/wiki/Soviet_invasion_of_Poland

https://en.m.wikipedia.org/wiki/Occupied_territories_of_Georgia

https://en.m.wikipedia.org/wiki/Transnistria_War

In Georgia, Moldova and Ukraine they cut small part of territory they are using to destabilize country in question. In Moldova - This part is between Ukraine and Moldova called Prednistrovye.

Crimea was not a present they have right to take back, funny logic. It was raised by Ukraine, irrigated by the channels and water from the mainland Ukraine. Crimeans voted in 1991 to stay with Ukraine. Then in 2014 under occupation they magically voted 100%.

The fun is that in 2013 any Russian and Ukrainian could go to Crimea to travel (sea, mountains) and it was cheap journey especially for Russians, because Ukrainian food is much cheaper, Russians does not produce enough crops and meat. Crimea was full of tourists, i've driven all known places in 2014 before shit goes south. Their service was next to none and crimeans make money on everything. Even Egypt, Turkey and cheaper European countries gives more service for the same anount. So it was a shit hole, but our shit hole.
Russians take over, seize a lot of property, kill some people, activists are stolen and end in russian prisons. (Remember China and its camps? Russia haz it.) The natives(tatars) was deported by Russians in 1940s and they did not want Russia back. Now no Ukrainians will go to Crimea, Russians go once and say that they sill never go there again, see even more inflated prices, it is not cheap or friendly as it have been.

Then famous downed plane
https://en.m.wikipedia.org/wiki/Malaysia_Airlines_Flight_17
They posted video or audio where they claimed this is Ukrainian army plane, made fun of this then realized the truth. O forgot the details, ive heard it that time, then they deleted everything. But the photo and video trail leads to Buk missile transported to Ukraine.
Oh yes, they also finance all idiots and neo nazi movements here and in Europe to make TV news. And all shit since kgb is still in use. 
Their narrative was Ukrainians are faschists. Why, because 2nd world war memories are preserved, like it was yesterday. Propaganda like it is 1945. They have 

Russia's external politics is the same shit as China's. Child paramilitary training. Etc. It is more like pre-war Nazi Germany. Still they shoot first and accuse others in nationalizm. (They use it as nationalizm == nazism == faschism ). Becuase Russia is multicultural and like China they want to be monocultural, any cultural movement will be labeled as Nazism.

Russia won't let any ex ussr country prosper. It is the part of their mentality. Ussr/russia was called ""the jail of nations"". If they allow - their own nations will knock asking for independence.

And mentality. They feel closer mentally to Chinese and you know it is one of the worst. They have too much pride but zero dignity. It's another world you will not understand and will not believe it exists.

There is a lot of things that are well known facts for us, but it takes a lot of time to remember and tell everything. I think it took an hor to write this.

https://www.bellingcat.com/category/news/uk-and-europe/",f92q611,ukralibre,fbzh5
"I'm sorry, but either you do not understand the question or trying to get around it wihtout providing a reply to a simple request. That's neither a way to defend your opinion nor make a solid statement, based on facts rather than on propaganda itself.",vabankas,11dzrf,f9232bx,"Read about Poland, Georgia, Chechnya, etc.",f9130mi,ukralibre,fbzh5
"May I find out the source of your opinion, please?",vabankas,11dzrf,f912kpx,"Not all and years later much less people happy to be in Russia.

Your opinion is based on propaganda videos? Russia have twenty years experience of vote falsification. Accounted for multiple annexions, local wars.",f8ygeqf,ukralibre,fbzh5
"I'm afraid that there are too many St.Kojima followers around.
PS The models are the same, colours and decals are different...we'll burn together.",vabankas,11dzrf,f9117aj,Dude what are are you even saying that makes no sense. Who said I hate the game? I have zero feelings towards it. Simply pointing out those guns are all the exact same model and you're busy deliberately trying not to understand I guess. Why are you so upset over someone pointing out the models are the same ?,f90q49l,DivineSaur,uyqq020
"It's just for pure random fun.
I occasionally play N'Zoth warlock with quest, which is either you are dead by T6, or you play til the very end and win in most cases.",vabankas,11dzrf,f8ygyzk,"You kinda want big deathrattles with that, and it's already a hard deck to pull off, adding another piece to the combo won't help",f8y05a7,angel26017,126pxr
"This! Lord Bethrug, Dorian, Elekk and plot twist...",vabankas,11dzrf,f8xszy8,"Random legendaries in your hand tend to be expensive, so early game this just nukes a few of your draw which is bad. Late game it's too small to guarantee a proc with a natural draw so you need to combo it with another card to draw, which is doable since it's cheap.

Looks mostly like a fun/meme card. You can also do some cute stuff with [[Plot Twist]], and depending on how it interacts with [[Dorian]] and that 5/7 demon I forgot the name it could be extra spicy.",f8xrw69,Lykrast,pc5ew
"Proofs, please.

I can share my imagination as well, writing about horrible deeds of secret underwater Trump's prison for democrats. Or secret gay-prison for opposing heterosexuals, or russian Syberia-Gulag-Kolyma torturehouse or whatever.

Without proofs (pictures, documents), ""talks"" of some ""guys"" who ""claim"" talking to an escaped ""prisoner"" (from the place, no one escapes, obviously) while ""prisoner"" is some healthy, well-eaten, well-rested person with fire in his/her eyes ([https://www.telegraph.co.uk/news/2018/11/28/begged-kill-uighur-woman-describes-torture-us-politicians/](https://www.telegraph.co.uk/news/2018/11/28/begged-kill-uighur-woman-describes-torture-us-politicians/)).

Do you know how the victims of death-camps looked like? Pls check [https://facesofauschwitz.com/](https://facesofauschwitz.com/) then.

As for ""prison torture"" - this was prison torture  [https://www.google.com/imgres?imgurl=http%3A%2F%2Fgraypantherssf.igc.org%2Fpow1.jpg&imgrefurl=http%3A%2F%2Fgraypantherssf.igc.org%2Fguantanamo.html&docid=ca\_REy-SslE8fM&tbnid=zan067cglsEZoM%3A&vet=10ahUKEwjoiuC7sozmAhWQlIsKHYW7BQMQMwiDASgbMBs..i&w=640&h=480&bih=657&biw=1366&q=guantanamo%20prisoners&ved=0ahUKEwjoiuC7sozmAhWQlIsKHYW7BQMQMwiDASgbMBs&iact=mrc&uact=8](https://www.google.com/imgres?imgurl=http%3A%2F%2Fgraypantherssf.igc.org%2Fpow1.jpg&imgrefurl=http%3A%2F%2Fgraypantherssf.igc.org%2Fguantanamo.html&docid=ca_REy-SslE8fM&tbnid=zan067cglsEZoM%3A&vet=10ahUKEwjoiuC7sozmAhWQlIsKHYW7BQMQMwiDASgbMBs..i&w=640&h=480&bih=657&biw=1366&q=guantanamo%20prisoners&ved=0ahUKEwjoiuC7sozmAhWQlIsKHYW7BQMQMwiDASgbMBs&iact=mrc&uact=8)

&#x200B;

As for the China, we all hear terrible stories, told by media officials, and all of those stories are based on beliefs or talks rather than on facts, proofs. Don't get me wrong - I'm not trying to defend crimes (if they happened) but i never blame anyone until found guilty based on evidence but not on ""highly-likely"" b-shit.",vabankas,11dzrf,f8xot4e,"*Everyone should read this if you haven't*


Content Warning - A teacher that escaped a Xinjiang internment camp and found asylum in Sweden details her horrific experiences of rape, torture, and human experiments;[1]

Twenty prisoners live in one small room. They are handcuffed, their heads shaved, every move is monitored by ceiling cameras. A bucket in the corner of the room is their toilet. The daily routine begins at 6 A.M. They are learning Chinese, memorizing propaganda songs and confessing to invented sins. They range in age from teenagers to elderly. Their meals are meager: cloudy soup and a slice of bread.

Torture – metal nails, fingernails pulled out, electric shocks – takes place in the “black room.” Punishment is a constant. The prisoners are forced to take pills and get injections. It’s for disease prevention, the staff tell them, but in reality they are the human subjects of medical experiments. Many of the inmates suffer from cognitive decline. Some of the men become sterile. Women are routinely raped.

...Sauytbay had to teach the prisoners – who were Uyghur or Kazakh speakers – Chinese and Communist Party propaganda songs. She was with them throughout the day. The daily routine began at 6 A.M. Chinese instruction took place after a paltry breakfast, followed by repetition and rote learning. There were specified hours for learning propaganda songs and reciting slogans from posters: “I love China,” “Thank you to the Communist Party,” “I am Chinese” and “I love Xi Jinping” – China’s president.

The afternoon and evening hours were devoted to confessions of crimes and moral offenses. “Between 4 and 6 P.M. the pupils had to think about their sins. Almost everything could be considered a sin, from observing religious practices and not knowing the Chinese language or culture, to immoral behavior. Inmates who did not think of sins that were severe enough or didn’t make up something were punished.”

After supper, they would continue dealing with their sins. “When the pupils finished eating they were required to stand facing the wall with their hands raised and think about their crimes again. At 10 o’clock, they had two hours for writing down their sins and handing in the pages to those in charge. The daily routine actually went on until midnight, and sometimes the prisoners were assigned guard duty at night. The others could sleep from midnight until six.”

...The camp’s commanders set aside a room for torture, Sauytbay relates, which the inmates dubbed the “black room” because it was forbidden to talk about it explicitly. “There were all kinds of tortures there. Some prisoners were hung on the wall and beaten with electrified truncheons. There were prisoners who were made to sit on a chair of nails. I saw people return from that room covered in blood. Some came back without fingernails.”

...“I will give you an example. There was an old woman in the camp who had been a shepherd before she was arrested. She was taken to the camp because she was accused of speaking with someone from abroad by phone. This was a woman who not only did not have a phone, she didn’t even know how to use one. On the page of sins the inmates were forced to fill out, she wrote that the call she had been accused of making never took place. In response she was immediately punished. I saw her when she returned. She was covered with blood, she had no fingernails and her skin was flayed.”

...The fate of the women in the camp was particularly harsh, Sauytbay notes: “On an everyday basis the policemen took the pretty girls with them, and they didn’t come back to the rooms all night. The police had unlimited power. They could take whoever they wanted. There were also cases of gang rape. In one of the classes I taught, one of those victims entered half an hour after the start of the lesson. The police ordered her to sit down, but she just couldn’t do it, so they took her to the black room for punishment.”

Tears stream down Sauytbay’s face when she tells the grimmest story from her time in the camp. “One day, the police told us they were going to check to see whether our reeducation was succeeding, whether we were developing properly. They took 200 inmates outside, men and women, and told one of the women to confess her sins. She stood before us and declared that she had been a bad person, but now that she had learned Chinese she had become a better person. When she was done speaking, the policemen ordered her to disrobe and simply raped her one after the other, in front of everyone. While they were raping her they checked to see how we were reacting. People who turned their head or closed their eyes, and those who looked angry or shocked, were taken away and we never saw them again. It was awful. I will never forget the feeling of helplessness, of not being able to help her. After that happened, it was hard for me to sleep at night.”

There are up to 1 million Muslim Uyghers that are living in what the Chinese government refers to as re-education camps in China.[2] This is state sanctioned institutionalized oppression of an ethnic minority in China.

The camps were legalized by the Chinese government in October 2018.[3] Initially the Chinese government denied the existence of camps where people are being detained and tortured.[4] They are being physically [5] and mentally tortured.[6]

Millions of Uyghers are not free to practice their religion without fear of the Chinese government detaining and torturing them. They live in perpetual fear under martial law. The people are subjugated to near total surveillance with cameras watching their every move. The Chinese government monitors every aspect of the people's lives and if there is even the slightest bit of percieved dissent police arrest individuals and send them to camps. The surveillance is so bad that if an individual from the region has an international phone number saved on their phone or if they communicate with someone from abroad that individual is detained under suspicion and sent to a camp.[7] The entire population is DNA-sampled while communications are closely monitored. Privacy is nonexistent. Towns have turned into ghost towns as people fear to talk to one another or go out.[8]

1) Haarertz - A Million People Are Jailed at China's Gulags. I Managed to Escape. Here's What Really Goes on Inside

2) BBC - China Uighurs: One million held in political camps, UN told

3) BBC - China Uighurs: Xinjiang legalises 're-education' camps

4) The Guardian - From denial to pride: how China changed its language on Xinjiang's camps

5) Telegraph - 'I begged them to kill me', Uighur woman describes torture to US politicians

6) Washington Post - Former inmates of China’s Muslim ‘reeducation’ camps tell of brainwashing, torture

7) VICE News - Uighur parents say China is ripping their children away and brainwashing them

8) The National Review - A New Gulag in China

Read More

E: thx for Silver but don't put money in China's pocket by supporting reddit. Put that money towards human rights groups. This isn't my post, I highly promote saving though and copy/pasting in situations like this to continuing spreading this. China are monsters and are doing this blatantly *right now* with 0 repercussions and a media that just ignores it. Spread the word.

E2: again, appreciate the gold. But again, a Chinese company has a major stakehold in Reddit. Every dollar you put into Reddit, a portion goes to China. Not directly but enough to obviously not make virtual meaningless coins worth spending money on.",f8wbg41,sBucks24,f6gi5
"When I was a child, I had a parrot, who's one of the favorite dishes were boiled/fried eggs.",vabankas,11dzrf,f8xo16f,"OK, so we eat cooked corpses. That's... better?",f8xfbru,brucebrowde,g4r0a
"About Dolphin-savers - we know the fact that dolphins sometimes save swimmers from drowning.

How do we know it? From alive human witnesses.

However, if there are cases when dolphins a) do not save swimmers. b) eat swimmers. c) ignore swimmers. d)rape and drown swimmers, instead of saving, there are no witnesses to tell.",vabankas,11dzrf,f8xnwvf,"I wouldn't say dolphins have NO morality system, just that we may not understand it. Dolphins have been known to save swimmers from sharks and lead lost whales back to sea. Just because they're horny all the time doesn't mean they're amoral.",f8w5c5t,ChiliBoppers,j51r8
"A Yes and a No.

Serbian officials (as a country representatived) did not interfere in this. Conspirators were the members of Serbia military and (as it was know a way later) took part in some secret society

The shooter was Bosnian (true), but other members were Serbian.

Can't blame Serbia in general, but the WWI pretext was OK for sure.",vabankas,11dzrf,f8uow3j,Serbia actually provided the Gun that the **Bosnian** used to kill the Archduke. So Serbia was also interfering with International Affairs which also puts them at fault.,f8smgdq,TheLastPanther,1zslf5xj
"I imagine that intervention into the elections is quite complex and costly issue. Leadership without purpose and without clear goal is neither a target nor an option.
You are saying that Trump ""is trying"", OK.
Would it be enough for ""a Kremlin agent"" just to try? I don't think so.
Like I've said before - sanctions are not removed, the overall pressure is not taken off. True that in general the new ""threat for USA"" is created - I mean, China. But current global economical situation shows the diminishing US power and another players entering the arena.

To summarize - what had Russia actually gained from this intervention?",vabankas,11dzrf,f8uohl7,Trump has repeatedly tried to get Russia back into the G8 (now the G7 btw) as just ONE example of how Trump is essentially a Russian agent - and if you can't see the benefit to ANY country to have taken over the leadership of another country without bloodshed then you are being deliberately obtuse and not actually interested in a conversation...,f8twnom,TheRealInsomnius,32162j56
