child_body,child_screen_name,child_user_id,child_tweet_id,parent_body,parent_tweet_id,parent_screen_name,parent_user_id
He means get lost Squidward!,warface25,m1r22,fl7aci5,Sorry. Earth is close today,fl6uxzi,anhkhoa20190,5zp0m23v
THE ALASKAN BULL WORM!,warface25,m1r22,fjj3okj,"They eat plastic at a slow rate, so it would be unrealistic to think we could just dump them on plastic trash.  Instead we are looking at how their gut digests plastic.  Hear me out on this...we should just genetically engineer a few thousand of these wax worms to be extremely hungry and to be the size of gray whales.",fjhthmt,HustleAndThrow,54mpsc0l
This needs more upvotes!,warface25,m1r22,fjfypph,"Anyone interested in seeing just how absolutely mental and messed-up conversion therapy is, check out the free webcomic *Joe vs Elan School*. It is an absolutely true story that can be easily verified. **Warning, this webcomic is no joke**. 

**[The first chapter explains how these places initially get the kids, many times by kicking down their bedroom doors in the middle of the night and kidnapping them](https://elan.school/rude-awakening/)**. Because once the parents, school, or state signs you up for it, this is now somehow legal.

Apparently, the leadership of these places also sees this as a good way to ""prepare them"" for the completely messed-up behavior-modification programs that they will soon be chucked into. Seriously, if you think you know, you don't. This is the kind of stuff you would expect to happen to political prisoners in North Korea.

It is eye-opening and horrifying that this stuff was, and still is, allowed to happen to kids, even as young as 12 and 13. And for-profit.",fjfhu8u,Wampirehunter,5j06l0yk
r/shutupwesley,warface25,m1r22,fj84x6q,"OP, stop replying to your own post. Please. It's insane... I don't undsrstand why are the mods allowing this. Didn't you get enough karma points from the post itself? This is greed and against the Reddiquete. (Which I have read like 5-6 times maybe you should do). I didn't even have to think twice before down-voting it. You are very welcome ;)",fj7vccb,Wesley_Ford,3scub53x
Some say he’s still gliding to this day.,warface25,m1r22,few14dm,Maybe he’s not planning on landing. He could still be out there soaring above the clouds... is it a bird? A plane? Mouse cursor?,fetv5ur,CosmicxDecimate,14ehr2
r/FoundTheMobileUser,warface25,m1r22,feos9ys,I should have R/prequelmemes was trying to take over,fe6fr06,asifsaj,i8y38
🎶 Robots in disguise 🎶,warface25,m1r22,fekorqu,"As a trans girl, I am honoured to be an autobot",fekk81l,GimMix66,vhb1wpt
That’s staying blue,warface25,m1r22,fe14dvv,/r/scat,fe0gb7v,theoneringrulesusall,xwr5l
Plot twist: he is,warface25,m1r22,fdft2dv,From this far away you look like Michael Stevens lol,fdfckxr,Im_tired_but_warm,f7jup56
Good bot,warface25,m1r22,fclwtyj,bro 😎💪,fclwqig,BotThatSaysBro,4ek8o6cv
You must be new here then.,warface25,m1r22,fbxzp89,Man this is some fucked up sense of humor!,fbwqbew,Baumer22,xhp3s
Happy cake day!,warface25,m1r22,f3fgic7,"Excuse me, his name is Chef Mike.",f3d3jg0,Tyr8891,2efrr4xw
I bet you’ll have a grate time.,warface25,m1r22,f2nk0ds,I’d go to that club; looks sick,f2m07f4,reverendjesus,zj6fr
“Wait till I get going!” “Now where was I”?,warface25,m1r22,f2351l5,"Truly, you have a dizzying intellect.",f22ww6s,Lividion,2sv5q8pm
Happy cake day!,warface25,m1r22,f0n6or8,Think how fast a K-10 would have found him.,f0mrsms,FormerFireJuggler,289thf51
Wack,warface25,m1r22,ez2xiax,"When I was in middle school we had bathroom parties which involved wrestling. Our school was connected to a church, so there would be old people around from time to time. One day when we were having a bathroom party, a teacher came in turned on the lights and saw 10 middle school boys wrestling in the bathroom while an elderly man with crouches was taking a shit in the stall with the door wide open",eu9qu8r,Mahgenetics,olsi2
Newnham!,warface25,m1r22,ez2pbg8,"Sounds exciting, what campus are you at?",ez1an0l,Larcing,tpql3
This is about the UK though...,warface25,m1r22,eyy8o45,"Yup, American's love their freedom of expression until it challenges the almighty dollar.

Shame. For some inexplicable reason, Gremloids was my favourite film when I was a nipper. I suspect I'm one of almost dozens of people who have both watched and remembered it.",eyxkdwp,SlowbeardiusOfBeard,8kk0n
This is what I call a pro gamer move,warface25,m1r22,eyoj2nx,"What if protesters/pranksters start blue dye packing Chinese sympathizers or riot police family members?

Edit: um thanks folks and really I don’t think anyone should target families etc - but how about this ... now that the idea is out there if you a protester are arrested, you can claim some prankster blued you. Really peace y’all and be safe.",eyo55de,rogerwilkomm,34c51qd3
I’m sorry 🅱️eter,warface25,m1r22,eyk8oba,Is that Francis of the Filth?,eyjqy9m,LetWaluigiSmash,1njyknmi
EU4 player?,warface25,m1r22,eyddu3e,Ruina imperii,eyblfev,ATAKAcMAPCA,u0bz80
It’s an extension of the Paris Metro.,warface25,m1r22,ey6oek7,Context?,ey608lt,MaisonArago,3tqdhkzq
Can’t believe I had to scroll down this far for this!,warface25,m1r22,ew3dze2,"Did you say, ""chocolate""?

Chocolate?!

CHOCOLAAAAAATTE",ew37kfl,markusalkemus66,51ydm
“They we’re in the trees man”,warface25,m1r22,ew1g3gy,"""Things you wouldn't believe man....""",ew0v80j,SimonFol74,45ai36zi
Alternatively: https://imgur.com/a/DvELJk7,warface25,m1r22,eub9p42,"R5: basically i just sold maine to province, this caused france to cut allies with him leaving province an easy prey for me which i vaged war and waited untill france did the same. Then i force vassalised them which made me the deffender in the war causing my allies to come to my aid.",eua9vit,ExperimentalAnus,hb32e3e
And I hate all of you,warface25,m1r22,eub0u74,I hate boomers,euavzfv,ieatpotatoesforlunch,qvvgpy4
You must be new here.,warface25,m1r22,eu2n0n2,That's enough internet for today,eu2gmuj,bitbytebit42,5snths0
Me fail English? That’s unpossible!,warface25,m1r22,etcrsqh,The grammar and spelling mistakes in those emails from a high school principal are concerning too,eta4ntp,BohPoe,b3x9l
How are you guys doing after the shooting that happened a few months ago?,warface25,m1r22,esyp4f6,Same story here in Sri Lanka. I get a feeling that I'm about to die if I step outside at noon.,esxxnok,-SubZer0-,o5z5w
did the KGB reform after the collapse of the Soviet Union?,warface25,m1r22,esmnbh9,"I thought so too, but apparently it’s the *Sledkom* [Wikipedia](https://en.m.wikipedia.org/wiki/Investigative_Committee_of_Russia)",esmmz82,Joncallim,csw5cfn
That would be the KGB,warface25,m1r22,esmmvam,"Yes, Russian FBI? This guy right here.",esmkx6u,Joncallim,csw5cfn
r/BotsRights,warface25,m1r22,esgsmz6,Fuck this bot,esf9pnn,ThePitterPat,ww80x
/r/everyfuckingthread,warface25,m1r22,esgsjag,r/subsifellfor,esggbra,gunsarebest,2d0vewmi
Link broke,warface25,m1r22,erzpjvx,"I was tidying up earlier, blaring my latest score *Slide by George Clanton*, when I took a moment to appreciate my record corner. When we moved in we found the ledge that ran around the basement kind of odd. It was essentially left bare as we had a pool table in this space. One day it occured to me, I never play pool and it sure would be nice to be able to lay on the sofa and listen to records.

To cut a boring story short, I moved my setup downstairs and here we have it. The infinity speakers you see are actually my backs. The front of this setup [looks like so](https://imgur.com/upload). I have a subwoofer off to the side. I know it's weird, but it sounds awesome.",erythwe,IdolBone,a7qbd
/r/atethepasta,warface25,m1r22,ers7qd6,"You got baited, the comment that got down voted is a copy pasta itself",erqoqp9,lalenci,secu4
Darude - Sandstorm,warface25,m1r22,ero57bg,What show is this,ernvvd4,JamesMartian,reld1
Darude - Sandstorm,warface25,m1r22,erdjbpb,What was it called,erd5ull,Apersonofthinggs,3eu700fk
I’m in southern Ontario. These are rookie numbers.,warface25,m1r22,eqytcpb,Cue the people that live in the artic circle or something asserting that 120cm isn't *that* much.,eqw9oax,tcpoatwiit,13aemn
Darude - Sandstorm,warface25,m1r22,eqtedn5,"Is that from something? If so, what?",eqsr3xh,HungLikeARooster,32ctz1yc
NO BANNER ONLY HULK!!,warface25,m1r22,eq902lf,"NO EGG, ONLY GIRL >:/",en6axf9,jellydoughnuts,5mr6x
That’s Barnacle MAN to you!,warface25,m1r22,epxi0un,I... am a MAN,epwk3o8,Bigarettes,1tawrzz3
He has ascended,warface25,m1r22,epvo0rs,Yes.,epve331,SimoneSaysAAAH,8vf474m
Nephew,warface25,m1r22,eoojc0d,[Good enough?](http://i.imgur.com/0xm9WKU.png),eoodwzo,Fidodo,bm8s
Not really no. I’d love to try some clothes on but I haven’t had a chance to do this discretely yet unfortunately.,warface25,m1r22,eoo0i30,"Have these feelings ever really gone away in the past year? I suggest you try on some clothes and see how they make you feel. I sat down on the bed and cried my eyes out the first time. I didn't ever want to take them off. See what it does for you. It's harmless. If you feel a sense of euphoria or a feeling great peace and calm, go see a gender therapist. Find your path. Be happy.",eony7ii,EunuchProgrammer,3bpddmuw
Ah a man of culture I see. We should play a game together sometime!,warface25,m1r22,eoaefog,"Hey, fellow EU4 player! Stoked to see another here. 

Truthfully I don't know anything about diGeorge snydrome, but I have no problems learning about it. I'm also jobless and not in school so we're in the same boat.

Anything you wanna talk about, hit me up!",eo7fy16,Folkariffic,20bz246k
F,warface25,m1r22,eo9ih00,F,eo961yq,gunner7517,h4g71
Large if factual.,warface25,m1r22,emf4bpc,Big if true.,emel4fq,FREAK21345,we88u
r/Alabama,warface25,m1r22,elwzopo,"There is a fucking incest subreddit, but they remove the one about drinking water",elr5nk5,Awake_The_Dreamer,16onew7s
Emule is still around,warface25,m1r22,ekqo6nr,"Edonkey, Emule. ",eg3rfs5,RadiationNeon,bla0d
😳,warface25,m1r22,ek6ndom,"Then you’ll get it now, honey 😏",ek5bjlt,Jared910,nvcff
Upvoted for Jimbo the dick worm,warface25,m1r22,ej4ksvj,"Erections can have a direct correlation to sexual desire, but not necessarily. Keep in mind that the existence of it depends entirely on blood flow. One may be horny as all hell and overflowing with sexual desire for their partner, but maybe for an unrelated reason it ain't working.

Knowing this can help both parties avoid frustration and insecurities. He might really really really like you, but Jimbo the díck worm gets temperamental sometimes.",ej3xppb,aquatermain,tjfet
So your saying you have experience then?,warface25,m1r22,efttcw8,"In my experience, no. Succubi are much more subtle, they spend months, years even helping you build a stable environment and then slowly give  less and less effort until their basically ignoring you causing you to try harder and harder to put the smile that you fell in love with back on their face til you're ready to hand your own soul over just to have a bit of that feeling again.",efsx41u,Ai_of_Vanity,82d1b
I remember when the first invented chocolate...,warface25,m1r22,efaij10,With or without nuts?,ef8ow8e,AttackWithHugs,7rdlo
Uh... Stupid?,warface25,m1r22,ebekrx8,"Hey patrick, what am i?",ebeklbm,PM_ME_FUTA_AND_TACOS,ohana03
"Al-Rambo*

FTFY",warface25,m1r22,eb3k92j,Something tells me (based on his reaction) that if Mr. Rambo did hit one of those guys it probably wouldn't ruin his evening.,eb3fzvj,icu_,3bog9
Well yeah the pioneers used them as guides all the time!,warface25,m1r22,ea8raof,So does moss actually point to civilization ,ea8hhrw,reuben__sandwich,5vk3k
And my Axe!,warface25,m1r22,ea3mexq,And his wife?,ea3igiu,EnglishGreek,na62o
Canada?,warface25,m1r22,e94xc7j,"Probably what happened was that snow fell and people used the middle, no big deal... but, after the initial snow fall/usage of the stairs it rained/drizzled or melted and that is how the stairs of death formed like this. Not OP, not even from Russia, but from a similarly icy part of the world.",e93lyf7,Silly__Rabbit,8gzxb
I have HOI4,warface25,m1r22,e93jut6,im more of a HOI4 and VIC 2 kinda guy,e92kw80,Winterrzz97,1gzoo6tu
Got em,warface25,m1r22,e8pc5af,"I think he meant for his feet, not your dick.",e8p747f,THwhOR,jmpdk
I never said I didn’t enjoy it. Just saying it’s a repost :),warface25,m1r22,e8pc04y,I like it tho,e8oyi1w,Falc0n28,5takdg2
want to add me on discord?,warface25,m1r22,e7nm8b0,yeah. My game is busted though so I can't play atm.,e7nk7l6,professorMaDLib,hgwvg
RIP,warface25,m1r22,e6uyshd,:-) https://i.imgur.com/QLfINCV.gifv,e6ukv76,SeeThroughCanoe,j0v386
You are a bold one,warface25,m1r22,e6baku3,General reposti,e6axx7i,Chlken,u8k73hy
No u,warface25,m1r22,e67ubth,fuck you,e67npye,Digifox_,ulf6u4k
No u,warface25,m1r22,e5q5w8t,Get better friends,e5pu5n3,jcinto23,i2zxe
I made one,warface25,m1r22,e5nim9v,"we'll start a discord or something, my guy",e5nhtyb,Axod123,iohcj
No I go to Newnham unfortunately. Maybe it can be online tho or something.,warface25,m1r22,e5lfwt2,"really? i find it way more fun and satisfying than eu4. but thats just me. do you go to the s@y campus? if so, we gotta meet up n start a paradox plaza club or something",e5lfqxl,Axod123,iohcj
I have CK2 but I find it really difficult :/ ,warface25,m1r22,e5lfi4p,i own EU4 but i play CK2 way more,e5lcgn9,Axod123,iohcj
Do it and I’ll lick your butt,warface25,m1r22,e5l489a,Do it and I’ll kick your butt. ,e5kxlvw,coleona,ilzzank
/r/lostredditors ,warface25,m1r22,e5cw57s,"/r/lostredditors

Holy shit, turns out *i* was the one who was lost, i only saw the gif and focussed on the spin this guy did, i didnt see the coloured pins OR the title, sorry! ",dzpb9gi,iAMUNiiCORN,lc5cg
Hey wait a minute.. there’s no link!,warface25,m1r22,e4xeh02,"Hold my acting career, I'm going in!",e4x2rhp,PurpleTopp,kx6bf
/r/botsrights,warface25,m1r22,e4uhhcq,NO ROBOTS ALLOWED!!!!!,e4ufdo7,sofastringbottle,13emrv
"Well that was an emotional rollercoaster. If I was in your position I’d probably hunt down the first doc, and sue him (after punching him in the face of course). I hope she comes through ok. ",warface25,m1r22,e4ufbvs,"Me too. She had a surgery some years ago, to try to fix her spine after it deteriorated and she toppled over in college. Her doctor at the time took her in for surgery and then put her on bed-rest. She complained that it didn't seem she was getting any better, but the doctor assured her that he didn't see anything wrong and it was taking a little longer than it should. With pain, she was getting up and walking and all, so nobody thought to disagree with him. But the pain got worse and she's mostly bed-fast right now.

Eventually he one day just left the area. I have no idea where he went. Her new doctor told her of his surprise, looking at her X-Ray, that her back was in the condition it was. The rods had broken, and the old doctor lied instead of fixing it, told her to rest it off, and then skipped town. The statute of limitations are up now, but calling around for lawyers got people who wouldn't call back or who, basically, hung up on us. Lots of tears involved.

The doctor she has now, though, seems decent. We'll see what happens. We've got really high hopes.

EDIT: Punctuation",e4uepg6,h3lblad3,cuvm2
r/onejob,warface25,m1r22,e46hcno,"Let me tell you about some people with only one job. 

Edit: thank you for the gold u/shauneky9 ! Glad you weren’t hurt!",e465e91,MadNhater,fzkbm
bruh,warface25,m1r22,e40nghf,"hey, sorry I saw your profile and I just thought you looked cute in your picture, I really wanted to tell you that)) It's really rare to see girls playing video games haha! I don't know why its a guy thing honestly im like really against misogyny and like ill be the one in the kitchen making sandwiches. We should really play l4d2 sometime its a really cool zombie game with a lot of scary moments, but don't worry ill be there to protect you ;) sorry that wasnt flirting I swear Im just trying to be friendly I really like your profile picture sorry was that too far? Really sorry i'm really shy I don't go out much haha add me on skype we should talk more you look really nice and fun xxx ;)",e40lwv3,CheriiPi,t5bar
His lodge was in grimsby Ontario ,warface25,m1r22,e1nseny, Hey. Did I miss a post on where this is? What state? Some states grand lodges have info going back. You will have to get info from grand lodge of that state. I saw a post of someone asking if the gentleman was black. Maybe that wasn't meant the way it was taken. I would have asked that because at that time black men who joined freemasonry did so through the prince hall freemasons. It's a very valid question. They have their own grand lodge. And are now recognized by the af and am and f and am counterparts. I am proud to call them all. My brothers. But it just a bit of a history lesson for the person doing research. ,e1n4e5r,toppercat,17ho8d
Not in NK they don't,warface25,m1r22,e1mjfo6,"wait, people watch soccer?",e1m5sdy,KimJongUn_Pyongyang,58dhe91
Sorry just excited as this is the first time something interesting has come up in my research. Titles are hard.,warface25,m1r22,e1eqbgv,"Are you seeing things, or is *what* real? It seems your grandfather’s name was Coon, and he definitely has a Freemason logo on his gravestone. ",e1epyr0,Deman75,g8wm2
Thank her for her service for me!,warface25,m1r22,e1cimo0,My girlfriend served in the military for about ten years (Army Reserve) and I basically make zero noise when I walk (completely not intentional).  I scare the shit out of her constantly without meaning to and its a 50/50 toss up how she will react.  She may scream or she may lash out.  I have started saying shit any time I enter a room to not catch a fist lol.,e1cfpur,pc_build_addict,127rqf
Good Bot,warface25,m1r22,e1bvcz8,"Thank you, warface25, for voting on PORTMANTEAU-BOT.  

This bot wants to find the best and worst bots on Reddit. [You can view results here](https://goodbot-badbot.herokuapp.com/).  

 ***  

^^Even ^^if ^^I ^^don't ^^reply ^^to ^^your ^^comment, ^^I'm ^^still ^^listening ^^for ^^votes. ^^Check ^^the ^^webpage ^^to ^^see ^^if ^^your ^^vote ^^registered!",e1bv7f2,GoodBot_BadBot,5geq5yg
Good bot,warface25,m1r22,e1bv7a1,"Powerfuff.

***

^(Bleep-bloop, I'm a bot. This )^[portmanteau](https://en.wikipedia.org/wiki/Portmanteau) ^( was created from the phrase 'Powerful stuff.'. To learn more about me, check out this )^[FAQ](https://www.reddit.com/78ilq0).",e1br6tp,PORTMANTEAU-BOT,sodo1k
Oh my bad dude. Only noticed the edits after you mentioned them.,warface25,m1r22,e147jlx,"really? yeah i didn't make the original video, but all the edits",e14640z,dom_vhs_crap,guj1m27
"Massive, if correct",warface25,m1r22,e1411ti,Large if factual,e140pws,TimmyB02,wi8b8
Don’t need the attitude mister. NEXT!,warface25,m1r22,e0sohdn,Omfg that bitch... ,e0sno8r,DootDeeDootDeeDoo,d6o90lt
He is being cremated ,warface25,m1r22,e0qe33i,"I don't mean this disrespectfully, but is he getting buried in his wheelchair? It would be fitting, honestly. It literally was his voice, how he expressed himself, how he communicated, and his primary means of interacting with the world. If he's not, I think he should. It was a part of him.",e0q06ag,divsky,60w1g
DM me and I’ll pass it over,warface25,m1r22,e0owil4,I’ll take it. Can think of some good uses :) ,e0ovzks,i-amnot-a-robot-,xrrrtd2
My Leg!,warface25,m1r22,e0jp9li,My brand!,e0jmwa7,IAmMcRubbin,g4jnl
I was not aware there was one in the first place,warface25,m1r22,e0ctva8,Whats wrong with the old one?,e0ctoj2,MarcusAurelius0,vedqv
"Expect Hitler, I’m pretty sure I saw him in Argentina the other day!",warface25,m1r22,e0bxwb1,"You can try to steal them back, I suppose, but I'm pretty sure most of em are dead.",e0amjm3,SeeYouSpaceCowboy---,4qksj8j
I once made a version of Breakout in high school (it was all software though),warface25,m1r22,dzxxykd,"Believe it or not that's actually not that hard. I mean at the time yes it's fucking groundbreaking. Nowadays in college, there's classes where you basically create pong like games from scratch using fpga hardware logic. You'd be amazed how quickly this can be done and how much you can learn. To do what he did in hardware with no ""5 second do-overs"", is impressive. I mean if there's a mistake in logic you have to essentially make a new board. But yea crazy fun, logic design is a favorite class of mine",dzxhakv,DButcha,cu7za
*tips fedora*,warface25,m1r22,dzl67on,M'lady,dzl1we7,HoidIsMyHomeboy,mn64x90
r/lostredditors,warface25,m1r22,dzl60lq,Wrong sub.,dzjwxbi,Daemonic_One,nm5am
Read that in Hank Hill’s voice.,warface25,m1r22,dzkyi65,"This was from The Courier Journal:

https://i.imgur.com/kBBuKon.jpg",dzk3cs1,BigJ76,h0w8o
Let me stop you right there rebel scum,warface25,m1r22,dzkehfd,"> stop

Let me halt you right there, criminal scum...",dzk5v8m,TeePlaysGames,g1xe4
I don’t feel so good Mr. Stark,warface25,m1r22,dze6qr1,Annie are you cocaine? Are you cocaine Annie?,dzdy62q,unfknreal,6v565
Good bot,warface25,m1r22,dz0pir8,"*Image Transcription: Text Messages*

---



**White**: Do you wanna hangout?  

>**Blue**: Let me ask my mom.  

**White**: But you're moved out, and 22  

>**Blue**: She said no.  


---

^^I'm&#32;a&#32;human&#32;volunteer&#32;content&#32;transcriber&#32;for&#32;Reddit&#32;and&#32;you&#32;could&#32;be&#32;too!&#32;[If&#32;you'd&#32;like&#32;more&#32;information&#32;on&#32;what&#32;we&#32;do&#32;and&#32;why&#32;we&#32;do&#32;it,&#32;click&#32;here!](https://www.reddit.com/r/TranscribersOfReddit/wiki/index)",dz0ama4,emmademontford,pko2xw8
"That doesn't sound right, but I don't know enough about teachers to dispute it",warface25,m1r22,dxlbcbs,It's a very well known tradition there. It's thought that by doing so you gain their knowledge. ,dxl6gqk,Pervy-potato,ksu2ju0
"I find it interesting that in WW1 whenever large amounts of Aussies, New Zealander’s and Canadians were piling up on the front line they new a major offensive was coming.",warface25,m1r22,dwoenh4,"It's funny, because Canadians have traditionally been viewed by their contemporaries as shock troops and super-tough to dislodge when defending a position. Notable examples are the battles of Ypres and Passchendaele, and Vimy Ridge in WW1, and as you mentioned Juno Beach in WW2. Even in more modern times, you'll be hard-pressed to find a serving member of any military that speaks disparagingly about Canadian forces, but movie makers and scriptwriters tend to overlook that a lot.",dwockav,Magnaric,9izqv
less than a thousand dollars preferably,warface25,m1r22,dvpw81i,"""relatively inexpensive"" doesn't mean anything. Give an actual budget.",dvpvua2,iserane,3gkyy
I am a student and amateur photographer. I'm looking for a product that is relatively inexpensive but still considered good quality for people like me.,warface25,m1r22,dvpuna2,What are your needs?,dvptfkn,ccurzio,v7p4v
