child_body,child_screen_name,child_user_id,child_tweet_id,parent_body,parent_tweet_id,parent_screen_name,parent_user_id
If you can use photoshop you can use google,weenumpty,50rus4z,flg28jd,Haha sorry im a big noob : ),flg1u7b,legend-207,50nl6mvd
"It won’t go anywhere, it’s a pretty retarded sub but not that retarded",weenumpty,50rus4z,flg1ska,"Gonna post on pdp submissions and see how they react
https://www.reddit.com/r/PewdiepieSubmissions/comments/fojik6/chungus_100/",flfirix,Despacito_kittrn,393f7h1z
"Do it, answer us",weenumpty,50rus4z,fld8qh3,Answer us,flckg4a,ShutUpVegan,5emp64ba
Do you have no legs by any chance,weenumpty,50rus4z,flcx2uq,This is giving me flashbacks to a theme park I used to work at....,flclnyf,MissAmTO,15pcnp
"I’m sure he’s real, I’m not doubting that, I just wasn’t sure if his name was actually “Shrek”.",weenumpty,50rus4z,fkthg0j, [https://www.amusingplanet.com/2014/07/shrek-sheep-who-escaped-shearing-for-6.html](https://www.amusingplanet.com/2014/07/shrek-sheep-who-escaped-shearing-for-6.html),fkthebf,krazykripple,d8s5p
"The same story said it got attacked by wolves or something similar and they couldn’t bite through the “floof”. There are no wolves in that area, so it’s a hoax. It’s probably not named Shrek either.",weenumpty,50rus4z,fkth6fm,This sheep was named shrek and lived in New Zealand,fkt6f0y,krazykripple,d8s5p
"Wasn’t some lecturer in a university that told his students “Coronavirus is revenge on the Chinese by Allah” later diagnosed with Coronavirus? I don’t think Allah is all that interested, or any other god for that matter.",weenumpty,50rus4z,fkkdtun,Surely Allah would be looking after them???? Come to Europe!,fkk13j4,freshhb,s7x2p
All the race cars were going backwards out of pure fear,weenumpty,50rus4z,fkjao2b,"Don't let it lure you in!  That's how they get you.  Remember r/tiresaretheenemy   

This video is actually in reverse. 

What really happened was that an angry tyre from the pile took an instant dislike to that car that was happily sleeping and minding its own business.  The tyre jumped up off the pile, and made a bee-line for the sleeping car, rolling along zigzagging past the other vehicles.  The poor target car woke up and started running away in fear but it had no chance.  It sped right up but the tyre got it, although the car kept running away the end was nigh for that little vroom vroom.  RIP car.",fk3kwry,jeweliegb,16cqmr
don’t,weenumpty,50rus4z,fkj8ihl,Care to elaborate?,fkj8hj1,gotanx1,3hq910z5
bit of a weird design decision there but you should still post it,weenumpty,50rus4z,fkj7rna,I totally would but I tried and he’s really hard,fkiruxj,_960038108,59bv7gkh
it has left me absolutely kerfuffled and flabbergasted,weenumpty,50rus4z,fkj7lt8,Ya but that does not mean it should be here. It baffles me why the mods did not take it down.,fkj57k0,WerePigCat,rjc8fxc
"Oh yeah, just checked now, you’re right",weenumpty,50rus4z,fkhzn3v,"Inability to reproduce counts, I believe.",fkhzjqh,-888-,3vd04
I suppose he did die internally,weenumpty,50rus4z,fkhyxqk,That's why I put the question mark. But he did remove himself from the gene pool.,fkhyukf,Jarppakarppa,eorer1j
can we stop with the whole emoji police thing it’s just stupid at this point. If they want to use little pictures let them.,weenumpty,50rus4z,fkhym98,Wrong site to use an emoji...,fkh0idn,0liiiii,4ff0yhw1
Not really. If anything more stuff will just get stuck to it and you’ll breathe it in.,weenumpty,50rus4z,fkhya46,Actually it is better than no mask,fkg0l44,f77tway,5dupunvr
"“I’ll only kill the entire fucking world once, pinkie promise I won’t do it again” - all-loving God",weenumpty,50rus4z,fkhxygx,The rainbow was God's promise to us that He wouldn't flood the earth again. Has nothing to do with sodomites.,fkhfajj,Jaid0s,q9bmlgd
reddit assemble,weenumpty,50rus4z,fkhxhe5,"You’re a bigger clown than him now

You’ve become the very thing you swore to destroy

You’re not just a clown, you’re the entire circus

Huh, ironic",fkhjjeo,J_Lawson253,513by3e7
"Ah yes, we definitely all missed that. We are all blind. That’s why we’re saying it’s a joke and not real.",weenumpty,50rus4z,fkhxfqk,"I think you all are missing the point that his face is right there in the right mirror.  He covered the one reflection, but not the other.",fkhl3aw,Lunasea4,28cazv21
Isn’t Darwin awards for people who actually die rather than get injured?,weenumpty,50rus4z,fkhxa4x,Darwin awards?,fkha6bh,Jarppakarppa,eorer1j
"grrr, my Reddit!!!

Grrr, no cringe normies!!!!

Keanu Chungus forever!!!!",weenumpty,50rus4z,fkc879p,"Get off reddit 
No emojis 
No tik tok",fkc6gp7,parkprkrparkprkrpark,4ko4b3o6
Doesn’t mean he didn’t lie before,weenumpty,50rus4z,fkbvta2,"Come on guys, he is being honest now and you downvote him, i forgive you even if everyone else doesnt",fkbjg3z,just_a_microwave,53lccxg6
and uh... that guy?,weenumpty,50rus4z,fk5jjco,the guy from the apprentice ?!,fk59g22,hachimu,11t6br
"Why? Book burning is the most retarded thing humanity has decided to ever do. You’re not proving anything, you’re just destroying paper from trees and harming the environment.",weenumpty,50rus4z,fk4eyl4,"I feel so bad but that’s so funny at the same time, now who wants to go burn the book?",fk3umzm,some_rando_i_guess,4qbnw9kb
"This sub is more just
“This thing i found is pretty stupid”
than an actual facepalm.-",weenumpty,50rus4z,fk4e3h9,"Why is this a facepalm? You might not agree with it, but it's not a facepalm.",fk3xoum,Sredni_Vashtar82,2wt1enh4
But on the article it said “loaded either over 200 rounds of ammo” or whatever it says.,weenumpty,50rus4z,fjz56uo,Also you can reload a gun,fjz3pxa,xXstandardsXx,4t6j77qq
"“I am a turtle. Mmm food. Yes, water. Turtle.”",weenumpty,50rus4z,fjxgmqc,I'm hoping it's something more existential.,fjwk4lu,EunuchProgrammer,3bpddmuw
u yes it is retarr I live  there right now,weenumpty,50rus4z,fjxbpf4,What about Old York,fjwaxns,whatsup37,ojij2cl
retarr,weenumpty,50rus4z,fjxaseb,Why are you looking at memes and not reading?,fjx78gs,bennywafflez,14ktg2
I think you do fuck them bro,weenumpty,50rus4z,fjggedu,wAit no fuck,fjgaoui,Kingdom_Of_Italy_,3oo8tq8w
I hate it when people assume gamers = society as well.,weenumpty,50rus4z,fjgg212,I agree. I hate it when people assume minorities = politics as well.,fjg2qlx,Papi_83,33s0l7d9
I didn’t ask,weenumpty,50rus4z,fj68b18,My fbi agent is seeing me reply to this comment without a single instance of anger and is proud of me,fj6817t,angadlamba__,3uwr9c06
"Apparently I’m getting downvoted for saying a fact.
Some people barely have time to sleep, never mind prepare food. Fast food became popular because it allows people to quickly get a meal and eat it when they were short of time.
It’s not a perfect excuse by any means, but a lot of people rely on it.",weenumpty,50rus4z,fj1om0r,How? There’s hardly any nutrients in their food.,fj1odo7,OldBenKenobii,h2m23u2
"It does comfort me knowing that the kid was being ironic and wasn’t genuinely like that irl, but yeah you’re definitely right.",weenumpty,50rus4z,fj1g6tm,"It was that one asian kid squealing on the ground like a pig that was the “last straw on the donkeys back” imo. After that clip went viral everyone had a clear image of the “Rick and Morty fan.”

That’s the clip constantly re-used, because it’s invokes a very visceral reaction of disgust. The kid even got interviewed for it.",fj1b1kf,dzyrider,2sizrznq
Different people have different reasons for going to fast food restaurants. For some it’s a necessity,weenumpty,50rus4z,fj1g38h,"People can also make burgers for themselves. Burgers take like 5-10 minutes. But they still go to McDonald’s. 

You think people will make Szechuan sauce?",fj1d71l,BennButton,b9t7q
"me need skin to play game.

skin good.",weenumpty,50rus4z,fizx76t,"If you consider Crystal prices, it’s an amazing deal. $20 of Crystals will barely get you a handful of skins.",fizmn1r,CrimsonFatalis8,4fzs564
"Oh, my bad.",weenumpty,50rus4z,fiv41d6,I’m not the same guy.,fiv3kix,MarcopoIio5,6yj918q
Younahbommer* 🤓,weenumpty,50rus4z,fiuxxkg,Unabomber* 😎,fiugn90,Dang_Blarb,1nozpij9
"Me? No. I was just explaining why they do it.

Islam also isn’t the only religion that countries will arrest gay people over. In certain parts of Israel it’s illegal as well. Not to mention most people trying to outlaw homosexuality in the US are Christian.

To be honest I don’t like any religion, they’re all stupid. I hate them all. Islam, Judaism, Christianity, Buddhism all those are just stupid things made up by people who’re too scared to die or realise their insignificance in the universe.",weenumpty,50rus4z,fiuwghr,"Oh fuck off.

You guys only care about the rest of the world when it's convenient.

Rather than protest Islam, you bitch about pronouns all day.

You do *not* march for world wide rights. If you did you would hate Islam.",fiuvz9e,Strobro3,xxstg
"Yeah but the reason they have lgbt marches and stuff is for world-wide rights. Should they not care about people like them being killed and arrested in other countries just because they don’t live there? That’s why you see them still fighting for “rights”, because they want them for all people around the world.",weenumpty,50rus4z,fiuvogs,"Yes, Islam is terrible to the LGBT community, but no, the western world is not. Homophobia exists but it's not at all a widespread issue. 

And it's mostly ""queer"" people that would be described as insufferable, mind you.",fiut9rj,Strobro3,xxstg
"What? I’m not offended, but you just said they were “so damn insufferable” so I’m saying that you’d be better off ignoring it than discussing it. I didn’t say you were homophobic.",weenumpty,50rus4z,fiuvd5u,"Damn dude, you’re next level stupid. 

Maybe people can make jokes about gay people, and still not be homophobic?? 

I have a couple of gay friends, I’m still going to say you can call me a gay mans dick, cuz I’m going thru some shit! 

If you get painfully offended over a joke, it doesn’t make me a worse person, it makes you a pussy.",fiuv5ts,MarcopoIio5,6yj918q
Well you clearly think LGBT or whatever is a problem so why discuss it? No point in getting yourself worked up.,weenumpty,50rus4z,fiuk590,What problem?,fiuiz6b,Strobro3,xxstg
𝓐,weenumpty,50rus4z,fiujwry,"Not a pansexual, but asexual.

Not a Redditor, but a happy man

I needs more a's to fap



Edit: People downvoting me because of my fetish, i hope you would do the same with your fetish",fittdum,schn4uzer,2nmkxlgx
"I think they meant to say that they don’t care what’s down there, more caring about their partner themselves.",weenumpty,50rus4z,fiujgl4,"“Pansexuality, or omnisexuality,[1] is the sexual, romantic or emotional attraction towards people regardless of their sex or gender identity.[2][3] Pansexual people may refer to themselves as gender-blind, asserting that gender and sex are not determining factors in their romantic or sexual attraction to others.”

You do realize sex in this case means make or female & has nothing to do with organs. You’re thinking of asexual where the person is not attracted to sex organs. Please stop spreading this misinformation.  These distinctions are important.",fiuf8ne,eju2000,gwys8
"A phobia isn’t always a fear, which is a common misconception. It can also be something that induces you to be repulsed or uncomfortable.",weenumpty,50rus4z,fiuj64b,Why would he be scared of that stuff,fiu0nah,CrimsonApplesM,16v7fwwq
Big chungus is the pinnacle of comedy.,weenumpty,50rus4z,fiuio8m,Big Chungus is funny tho,fiufxuz,bye_darling,3xwqmzda
Look at my other reply,weenumpty,50rus4z,filcwp6,What exactly is minor about a boy stomping an innocent girl on her spine and head??,filcpkc,MagoMagoo,2ypbnnvd
Np,weenumpty,50rus4z,filcsbw,My bad,filcreu,ETamas911,210375hs
"I wasn’t talking about this video in particular, just reddit in general.",weenumpty,50rus4z,filcqgu,I guess assaulting people casually is a minor crime nowadays.,filcmzp,ETamas911,210375hs
"Yeah, but that’s all it was, bonkers. There was no substance.

90% of the jokes were just “snakes are acting like humans haha”",weenumpty,50rus4z,filcmmp,I really liked the last one. Snake society is just bonkers.,fikiv71,obbelusk,fd7dd
"person: *does minor crime*

Reddit: get the syringe",weenumpty,50rus4z,filbkkl,Reddit moment,fikqmla,Nic0487,43cxeso2
Thanks really needed this,weenumpty,50rus4z,fikgl9j,r/sandycheekscockvore,fikc5yg,BiggestThiccBoi,2tkzrkke
"me: *shaving beard*

*cut*

“Oh no”

*takes out handgun*",weenumpty,50rus4z,fiigvng,"What? No. Sheep have immune systems. You don't put down an animal because it got a nick. Also, there's no indication these are meat sheep.",figw15r,elvendude,4c6bu
So what do we do with the ones we already have? Extinct them?,weenumpty,50rus4z,fiigk0y,"Or just... stop breeding an animal that we selectively bred to be crippled without human intervention, while it’s wild relative can shed naturally.",fii06m6,Bloatic,1143up
"With or without the woman?

Imo she kind of takes away the solidarity of the song. Much better when it’s just A Great Big World.",weenumpty,50rus4z,fi82sot,Say Something (I’m Giving Up On You). Especially the music video.,fi70grw,Squirreltailcat,2zb19mv6
Drowns? In that?,weenumpty,50rus4z,fi3favp,"It's all fun and games until someone swallows one of these whole, drowns and dies.",fi2c0fp,tortugavelozzzz,25vf14bl
"you’re happy he might go blind?

/s",weenumpty,50rus4z,fi1av1i,I saw your post about going in for surgery in teenagers top and I was like just in case let me check his account and seeing this made me happy,fg8jhye,Plan3t0id,527b64ji
But compared to manny...,weenumpty,50rus4z,fi1aght,Greg’s kind of a jerk Rowley is the pure one,fi0wrei,RobloxLover369421,38zb57c2
"I fear no man

but that... *thing*

It scares me.",weenumpty,50rus4z,fi0a5dc,[VALVE]N*ggerkiller,fhzy14g,A-Very-Menacing-Name,1m2or1ou
Did nobody get this joke?,weenumpty,50rus4z,fhsknkj, Sounds like a nice place to live.,fhrm8nj,primitiveradio,4lcj7
It’s better than nothing,weenumpty,50rus4z,fhrz8yk,"Ace they are ment to feel better for knowing they got a completely impersonal gift that was also given to everyone else, almost like an obligatory consolation prize?",fhryqb9,nellynorgus,ia9tt
If it was Danny DeVito it WOULD be uplifting news 100%,weenumpty,50rus4z,fhqryz2,"I.... don't understand how this counts as uplifting news. It's just kinda news. Even if it was someone whom I absolutely adore like Morgan Freeman, Danny Devito etc. I wouldn't count it as uplifting news.",fho2qnu,Iamblade2001,144xij
too late,weenumpty,50rus4z,fhopmwh,Inb4 “it’s too soon broooo”,fho6yow,rivetedoaf,hil527u
i prefer the term retard,weenumpty,50rus4z,fhn2l2k,Get a load of this ~~sociopath~~ retard,fhn2i7c,idontlikeliving,1uqys0jr
"I was making a joke that it looked like manny was falling, perhaps from a helicopter while Greg was yelling Kobe. I know that’s not what the joke of this post is but that’s what I was going for",weenumpty,50rus4z,fhmkotg,Idk maybe on something else having to do with a plane because it's used way too often on anything involving kobe,fhmhgiq,TORCHICPOKEMON,2lss8wdj
If not a post that says Kobe in it then where else?,weenumpty,50rus4z,fhmg0y6,I like a good dark joke and all but I feel like the Kobe memes are coming threw way to often j believe a joke like this can be used in a certain way and it'll be funny but not here in my opinion,fhmavaz,TORCHICPOKEMON,2lss8wdj
Hahaha wow u don’t have a girlfriend tooooo??? That’s really relatable and funny hahahaahahneenishskiwnwusnensies,weenumpty,50rus4z,fhlqba5,That would be better than my gilfriend's gift if I had one.,fhl2pa0,Dj-003,4cpn7oap
You can joke about anybody and anything. You can’t make exceptions just because you care about something.,weenumpty,50rus4z,fhlph28,"mocking the death of innocent people who inspired millions of people, very funny yes, i agree, you ignorant cunt. I'm sure its funny until someone you care about, someone close to you dies and their death gets mocked, grow up man",fhkrgu9,TyphoonTDW,8ptwjgo
It’s still not even funny for memes. That meme just needs to die already.,weenumpty,50rus4z,fhlowbe,This is a serious post.  Save that for memes,fhkkkyy,SonnySunshineGirl,3zj0s6kk
"Cold, but true",weenumpty,50rus4z,fhew80m,r/therealjoke,fhepa59,Dogedosport101,2uadfe5j
biggie seiz,weenumpty,50rus4z,fh3vixp,I cried when I learned biggie cheeze had a seizure,fh3tg5h,spindinswans,1m2bb94i
wtf,weenumpty,50rus4z,fgwhjeg,"M|U|N|G|O|M|U|N|G|O|S|M|E|L|L|S|L|I|K|E|D|U|N|G|O|
-|-|-|-|-|-|-|-|-|-|-|-|-|-|-|-|-|-|-|-|-|-|-|-|-|
U|U| | | | | | | | | | | | | | | | | | | | | | | |
N| |N| | | | | | | | | | | | | | | | | | | | | | |
G| | |G| | | | | | | | | | | | | | | | | | | | | |
O| | | |O| | | | | | | | | | | | | | | | | | | | |
M| | | | |M| | | | | | | | | | | | | | | | | | | |
U| | | | | |U| | | | | | | | | | | | | | | | | | |
N| | | | | | |N| | | | | | | | | | | | | | | | | |
G| | | | | | | |G| | | | | | | | | | | | | | | | |
O| | | | | | | | |O| | | | | | | | | | | | | | | |
S| | | | | | | | | |S| | | | | | | | | | | | | | |
M| | | | | | | | | | |M| | | | | | | | | | | | | |
E| | | | | | | | | | | |E| | | | | | | | | | | | |
L| | | | | | | | | | | | |L| | | | | | | | | | | |
L| | | | | | | | | | | | | |L| | | | | | | | | | |
S| | | | | | | | | | | | | | |S| | | | | | | | | |
L| | | | | | | | | | | | | | | |L| | | | | | | | |
I| | | | | | | | | | | | | | | | |I| | | | | | | |
K| | | | | | | | | | | | | | | | | |K| | | | | | |
E| | | | | | | | | | | | | | | | | | |E| | | | | |
D| | | | | | | | | | | | | | | | | | | |D| | | | |
U| | | | | | | | | | | | | | | | | | | | |U| | | |
N| | | | | | | | | | | | | | | | | | | | | |N| | |
G| | | | | | | | | | | | | | | | | | | | | | |G| |
O| | | | | | | | | | | | | | | | | | | | | | | |O|",fgwhi4f,table_it_bot,64ti3wd
 M U N G O M U N G O S M E L L S L I K E D U N G O,weenumpty,50rus4z,fgwhhah,Did we just find Little Lamplight?,fgighmf,Smiling_Mister_J,mg1w0k0
lmao “Fortnite Forest”,weenumpty,50rus4z,fgwgt0i,"The point is to buy up land to prevent it from being bulldozed and turned into a Walmart or something. Yeah he’s not doing anything with the land. That’s the point. There are unique ecological communities on this land that have been bulldozed elsewhere by billionaires who aren’t as selfless as he is.

The world needs less pessimists. Not everything wealthy people do is for PR. It’s not like he named it “Fortnite Forest” or made a theme park or something, Media found out about it and ran a story.",fgrnnto,SKiF2BEEF,4t7q4zq5
"Goop isn’t nearly as nefarious as people make them out to be, sure they exploit the gullible, but they definitely aren’t saying they’re anti vax. Besides, what company doesn’t exploit the gullible? At least Goop is explicit about it.",weenumpty,50rus4z,fgsrni2,And FUCK Gwenyth Paltrow and her hoop bullshit,fgrmxu5,kabooozie,z3hgp
"Actually if you climb the ladder and just before it falls, spam e on the ladder and you will be reverse projectiled out the ceiling where you can b hop off a bird and go outside the map.",weenumpty,50rus4z,fgsqy72,Don’t go back to the carpet store,fgs7n1w,hempiscool,4dy2i8nu
It’s actually pretty good and surprisingly smooth and faithful.,weenumpty,50rus4z,fgfba7m,Not to mention there's a Fancy Pants Adventure game I see floating around the Play Store.,fgepnwn,1337b337,in7hz
Waaaa they stole my text on image waaaa,weenumpty,50rus4z,fgdgi9g,They keep stealing memes it’s not funny,fg83c4f,worm_suit,4r0167np
"yes.

she’s mad because he painted her shoe.",weenumpty,50rus4z,fgd5lmu,"She’s mad because he painted her shoe?

And she looks like a toy",fgd59z7,GilesDMT,e7gus
"So you think the spin is your ally? You merely adopted the spin. I was born in it, molded by it. I didn’t see the stillness until I was a man, and by then, it was just nauseating.",weenumpty,50rus4z,fgd16sr,"We're all born into the spin, molded by it; we do not feel the acceleration for our mother's womb and father's seed are already blazing away at 1675 km/h.",fg8olwm,ConfusedSarcasm,9mngkuy
"On the first picture the toy has “Andy” (the gf) painted on the bottom of it’s shoe, you can also see a pain brush.

Then on the second picture, we can see “Andy” has been covered up with brown paint with the paintbrush, implying that the boyfriend is no longer hers.",weenumpty,50rus4z,fgd0d8r,Thank you but still don’t get it,fgcwdln,GilesDMT,e7gus
((comedy)),weenumpty,50rus4z,fgcupit,Fag /s,fgbiv4x,Pablitosomeguy2,4qy6mdco
put the Witchetty Grub on your cock,weenumpty,50rus4z,ffrfr56,"For those curious, the cake is designed after a Witchetty Grub from Australia and the actual grub is consumed by Aboriginals and other Australians in the past and even today (although it's not common to do so).",ffq4hvu,friendandmachine,cn9a8
"Shit can be used for fertilisation in plants, still not very fitting. How about Pluto. Pluto doesn’t do jack shit.",weenumpty,50rus4z,ffqniwl,Just a piece of shit really.,ffqhk63,KYIUM,1yjq2rv7
you just posted cringe on cringetopia,weenumpty,50rus4z,ffqmw9m,"Sorry kid, you'll have to do better. I can see you're not even trying. First a lame ""ok boomer"" and now ""pathetic""?? Do you think you're an anime villain or something alike?? Pfffffff.
I have the feeling that your parents might be cousins so better I'm not going to demand anything else from this exchange, I'm already disappointed at your lack of creativity",fcxeruj,Harrabots,39n7kqcz
But can blind people physically project their voice into yellow text in the 3rd dimension for us to enjoy?,weenumpty,50rus4z,fflmkzn,Blind people can speak tho,fflbwv0,evetrixX,2vurrhds
You just homicided on r/comedyhomicide,weenumpty,50rus4z,fflk6jv," Jesus: At last, my true successor",fdebsf0,Sponhi,4x2ae80
This is disturbing you way more that it should,weenumpty,50rus4z,ffljyy4,But why? Why does it say carefully. I just can’t,fdnfjau,cipecipecipecipecipe,4aob3vuq
He could have his nerve systems damaged so he couldn’t feel pain. A woman was once stabbed in the back with an axe and didn’t realise it happened until someone pointed it out because she couldn’t feel any pain.,weenumpty,50rus4z,ffi7ftn,i mean shit if he can walk with a knife in his spine i think he can smoke a cigarette,fffkbxe,KyzerB,2g95jhxl
No he king of the juniors,weenumpty,50rus4z,ff5aien,King of da bl**k pople,ff371cy,CummyBot9999,54cw9lqn
I’m going to fucking kill you,weenumpty,50rus4z,ff5aeto,"Dear user,

I  am writing this comment in order to inform you that I have upvoted this  post. I know I know. Take a moment to breath. Take it in buddy. It's  okay. Truly, you deserve this upvote for such a fantastic post and I'm  more than happy to hand it over.

No no... Don't thank me. (I can see you typing the comment now haha). Please please. I'm a humble man I don't need your thanks.

With  that said I have to tell you that I will be following your progression  in the fantastic world of Reddit so keep it up. Maybe, just maybe.  You'll do something worthy of my upvote again some day.

You have a fantastic day fellow user.

Kind regards and many thanks, From Me, the hentai expert.",ff3vmtw,ltstyle1,40evbxd
Man got downvoted for spittin straight facts,weenumpty,50rus4z,ff5a6m0,You are in the gay bar,ff3krd6,da_baconlover4276,4f5v8pkf
why? just cuz freddie mercury was (maybe) gay doesn’t mean it fits the picture.,weenumpty,50rus4z,ff5a4iy,so nobody’s gonna make a freddie mercury joke,ff402r3,sound-chick,o1ty50m
They didn’t make this,weenumpty,50rus4z,fex8nvt,The detail in this is fucking insane so good job but also this is the worst thing I’ve ever seen :D,fevtfc0,Hernyyyyy,52kwfm36
you just said there’s only 2 genders and nobody can be anything else,weenumpty,50rus4z,fen409b,No I don’t. I’m whatever I wanna be and anyone else. An be whoever they wanna be.,fejz8gz,JustOffensive,2numvg86
...you?,weenumpty,50rus4z,fejz6u5,Exactly. Who cares?,fejz5hj,JustOffensive,2numvg86
"I’m sorry, but why even talk about it? If they wanna say that they are a girl or a boy who tf cares? Just let them walk their walk and you walk your walk.",weenumpty,50rus4z,fejz26a,"The problem is, if you come out as a boy, you are a boy. If you come out as a girl, you are a girl. I hate to say but there’s no changing that .",fejk3p8,JustOffensive,2numvg86
I don’t mean to sound like that guy but it is a mental illness isn’t it? Like it’s not just a thing that you decide isn’t it? Maybe some kind of institution or professional help rather than a bullet to the cranium.,weenumpty,50rus4z,feertk0,"the amount of pain and emotional suffering they put on a childs entire life is far worse than a simple castration. infact quite alot of victims end up killing themselves... i dont think they should be killed, i know they should.

send thoes clankers to the scrap pile i say",fede2xw,GiveMeYourHamPlease,22x3bwp7
comedy,weenumpty,50rus4z,feermu9,"A child with ungodly knockers. Those things are for knocking on the gates of heaven to ask for directions straight down to the 2nd level of hell! Though I don't see the need for such a profane doll when I got my boys to bounce on my fat, albeit soft, spongey and perhaps a bit hyperglycemic, dick. And it's not like I don't return the favor either, this cellulite filled bag of love is yours for the squeezing as long as you help me with my overdue insurance payments that I used to post with unemployment checks (thanks, Obama), anyway note it's time for me to get back to scraping barnacles off the underside of my waterlogged grandmother!
8=======D~~~~~~~",fedwi94,hazmaht,he8kgdn
Somebody doesn’t like puppies I guess,weenumpty,50rus4z,fe4vwof,"I did the grave mistake of checking out r/eyebleach 5 seconds ago. I have a pretty good stomach to handle a lot of common disgusting things. My expectations were low but HOLY FUCK.

Edit: Also furry, can confirm",fdz6x0m,BulletParadox,4wrbdqp6
have you seen my son,weenumpty,50rus4z,fe0adug,"Oh. I should’ve recognized it. I didn’t realize it was from joker. Thanks!

Joker wholesome Reddit 100",fdye0dd,Cow_Tipper_629,3fbbl95o
Yes let’s discontinue the global streaming superpower that millions enjoy across the world and in Brazil because comedy show made some people upset,weenumpty,50rus4z,fdnsv1g,Grow some balls and discontinue Netflix in that country...,fdnartx,Helenius,41xad
