child_body,child_screen_name,child_user_id,child_tweet_id,parent_body,parent_tweet_id,parent_screen_name,parent_user_id
Is it really worth correcting people at this point? Both are such pop culture icons it’s impossible to separate them,WhodinisGhost,wkadt,fkvehv3,*Frankenstein's monster,fkv4vtf,HotSalsaAssFire,15p46a
Listen to the Carnegie Hall box. Probably the best sound of the live albums (besides parts of playground psychotics). It’s in mono but it’s clear and detailed,WhodinisGhost,wkadt,fkkdrk5,"Absolutely love the Flo & Eddie era, but I wish the sound quality of the recordings from that time were a bit better. The stuff on Chunga’s Revenge is muddy and Fillmore East and 200 Motels are a little thin and treble-y. Just Another Band is probably the best sounding from that time. What’s crazy is, the very next two albums Waka Jawaka and Grand Wazoo have my favorite production sounds of Frank’s whole career.",fkjefys,_shaftpunk,309a3cpb
That’s a lot of big names there,WhodinisGhost,wkadt,fk66plj,https://www.discogs.com/Various-The-Many-Faces-Of-Pink-Floyd/release/4851267,fk0rl7d,Squealio,4yedu
"It’ll get buried but he committed suicide later after getting clean from drugs. Also, Slash used to hang out at his house in the 80s",WhodinisGhost,wkadt,fk1xs0v,">Bob Welch left the band after basically saving the band from a fake version of Fleetwood Mac thrown together by their manager.

Excuse me what the fuck?",fk11zo6,SecretBlue919,vrml6
I get where you’re coming from but Germany was a very real threat to Britain at this point in the war.,WhodinisGhost,wkadt,fjxlt64,"Fear is always a great motivator for war. You can't rile up a bunch of working class people to go to war over 'muh oil' or 'lets free them' , it has to be fear - they're coming to kill YOU and YOUR family and they're savages to boot.

There are few wars fought by the west that didn't have this narrative. The only one i can think of is Vietnam, however, i don't know much about that war. Even a war like the 2001 invasion of afghanistan was entirely fear based.",fjxeajt,RakeNI,r4z6l
You can get there fast and then take it slow,WhodinisGhost,wkadt,fjaampd,I hear Kokomo is rather nice these days too,fja7fw6,BathedInDeepFog,a4iea
What is a mayo sandwich? Just bread and mayo?,WhodinisGhost,wkadt,fis0efd,"To add on, most of these recipes were born out of the Great Depression. When money was super tight, you had to get creative with what you could afford. Studies have shown that when people grow up poor, even if they have money as adults, they tend to favor the foods they grew up with.  My own grandparents still occasionally ate mayonnaise sandwiches throughout their adult years, for example.

That's why there are so many recipes from the Eisenhower era that are mayo and gelatin based. Those were two staple base ingredients during the depression because they were cheap, easy ways to add fat and protein to a meal.",firduqz,Shojo_Tombo,116lki
Flo & Eddie,WhodinisGhost,wkadt,fii7fvm,Who's?,fig2nfl,scottansan,ebsxq
Their solo albums are so good it’s frightening,WhodinisGhost,wkadt,fif4pid,"I do agree with your regard of them. What about Bobby Martin's range? Or Naploleon Murphy Brock?  Its different music that needs different voices.  But BIG  Flo N Eddie fan and saw them live  in the 80s. They were great. Love them with The Turtles and Zappa.  We won't talk about  The Plastic Ono Band though.😉  listen to thier album Immoral, Illegal and Fattening if you have not. Highly recommended.",fiblt48,kersobo,1x5wh90i
"That’s how it feels for me too. I mean, listen to their interactions on bootlegs and live albums, they loved each other",WhodinisGhost,wkadt,fif4jz6,"That would depend on how you define a band.

In my opinion Frank's personality and control overshadowed every member of the original Mothers... not so with the F&E band. This was in large part due to the fact that F&E had already achieved a measure of success with the Turtles, but it was also due to stronger personalities and better musicianship from all members. To me this is what makes it Zappa in a band rather than Zappa and sidemen.",fibe2tb,FwLineberry,hpnwqq
Don’t knock it till you’ve tried it,WhodinisGhost,wkadt,fif0dj9,"Wow dude. I knew what that was going to be and I clicked anyway. There are no words to express my anger, my confusion, and my arousal.",fiefb23,RasputinIsMyHomeboy,3wa803bq
You forgot the best Chicago movie: Blues Brothers,WhodinisGhost,wkadt,fichq11,"You can just say John Hughes lol

But nah Chicago sites are in a bunch of movies still - Marina Towers, lower wacker, Sears tower, the Cubs are always mentioned it seems, there’s a bunch of Chicago references.

-	the dark knight 
-	the break up 
-	gangster movies - road to perdition, public enemies, Capone 
-	transformers
-	Wayne’s world
-	rookie of the year
-	barber shop
-	tommy boy
-	high fidelity 
-	etc",fice5qh,Benny92739,4f9g6rj8
"Season 3, Ep 1, Stark Raving Dad",WhodinisGhost,wkadt,fia58fz,"FYI, they removed Lisa's birthday episode. So if you want to watch that one you'll have to find it elsewhere",fia3vjo,iamjackspizza,54usc
Kill two for matching clogs,WhodinisGhost,wkadt,fia54aa,So let’s prepare these dogs.,fia4khc,VikingFrog,7shjp
God damn it I knew it looked weird after I typed it,WhodinisGhost,wkadt,fi40tke,It’s more a copy of the break in Arnold Layne. I wonder if it was a placeholder for Syd to work out a guitar part,fi3plcz,walker_harris3,c0yvfil
"More access to food than say, Franklinton",WhodinisGhost,wkadt,fhrkroj,"The people living in that building were all seniors, so I’m going to assume that most didn’t have jobs.

And I’d consider that area a “food desert” as well. There aren’t any grocery stores in walking distance.",fhri42s,pfthrowaway21315,lche1
"So people without cars, or who already have trouble getting around to their jobs, food, etc should be constricted to places where there’s less busses, food deserts, and less jobs?",WhodinisGhost,wkadt,fhrgibg,"Technically Broad & High is the central hub for bus traffic, but that still doesn’t mean that low income people should be entitled to the most desirable land just because it happens to be convenient to bus lines.",fhpg8tk,pfthrowaway21315,lche1
"I wouldn’t be so angry if they’d stop tearing the old, nice looking buildings down and replacing them with bland boring slabs",WhodinisGhost,wkadt,fhp160l,"[New housing, even if it's luxury, exerts downward pressure on the housing market overall.](https://www.citylab.com/perspective/2019/06/housing-supply-debate-affordable-home-prices-rent-yimby/591061/). Things like displacement can certainly be terrible for local communities, and we should take steps to avoid it, but for one, [the data for gentrification and displacement is actually not very robust in most cases](https://www.economist.com/united-states/2018/06/21/in-praise-of-gentrification). Additionally, if your goal is to keep housing cheap, and not to displace people, continuing tp build housing is what we need to do, and that housing can't just be limited to already developed areas like Clintonville and the Short North. 

To your point about tax abatements, yeah they're fucking stupid. The developers will come here anyways, the city should not be picking winners and losers or handing money out to anyone like this, be it apartment developers or stadium builders.

Low price government subsidized or government built housing could also have a place. This has generally gone horribly in the US, but has worked elsewhere in places in Singapore, so there definently is a way to make it work if we change how we do it.",fhox10m,JetJaguar124,g3mc9
"But the short north is a center hub for bus traffic. From they can get anywhere. If they put them way out on the west side where busses aren’t as frequent, you’ve cut them off",WhodinisGhost,wkadt,fhp11aw,"All tenants in Bollenger Tower were relocated to other properties in different parts of the city.

And did it really make sense to have low income senior housing in what is now an entertainment destination for affluent people? Do you think many of those people took their $700/month social security check over to Pint House for a $7 beer or made a candle at the Candle Lab?

That building was a relic from a time when the Short North was a different place. It made sense to transform it into something more in line with the current neighborhood.",fhowxwy,pfthrowaway21315,lche1
Cleveland has one,WhodinisGhost,wkadt,fhp0rij,Not here. Cincinnati and Cleveland both started building subway systems but they’ve been long since abandoned.,fhowpk7,OldHob,5q29p
Yo can I get in on this too?,WhodinisGhost,wkadt,fhozfrs,we have a group of telegram with her videos and photosets,fhovrx3,the_wolf69,7g035ff
"I saw this yesterday discussing the 50th anniversary of their debut:
You may argue the first heavy song came before Black Sabbath, but you can’t argue it came after",WhodinisGhost,wkadt,fhkkg3o,"Perfect 5ths were invented long before Iommi. I actually remember reading about how the church used to only allow hymns to be sung in perfect fifths up until like the 6th or 7th century, but I cant find a source.  

Guitar wise, power chords were used decades before, notably Link Wray, Buddy Holly, and definitely Pete Townsend.

The vibe tho, I could get behind a statement about Tony Iommi creating and cultivating the dark moods.",fhki1we,alividlife,606jh
I WAS IN THE POOL,WhodinisGhost,wkadt,fh1y9dj,"To be fair, it was cold",fh1x3x9,psquare704,36xta
Watching my daughter go black,WhodinisGhost,wkadt,fgx772m,When the Man's daughter discovers blacked.com,fgvucwq,bottledsoi,3igskorm
"Same for me at Lake Erie. When I go to Cedar Point, I always ride the tall spinny ride just for the view",WhodinisGhost,wkadt,fgx2fkz,"I remember seeing the lake when I went to visit family in Chicago as a kid. It really looks like the ocean. You can't see the shore on the other side, you can't see where the coastline ends on your side... It's nuts.",fgw9adz,deepdistortion,314k9pd6
Omg no kidding. I showed up at 3 right when gates opened and left like an hour after the show,WhodinisGhost,wkadt,fgqza3e,"It is gorgeous but boy is it a pain to get in and out of there. Worth it, but give yourself some time on either end.",fgqf8da,chimentiisdeadtome,2sau0mfl
"My pictures don’t do it justice, buts in the middle of the woods, the whole amphitheater is made of wood and it sits on a hill, it’s a little trek up to the top

https://i.imgur.com/kxKBSW5.jpg",WhodinisGhost,wkadt,fgpv978,"Not yet, I'll probably make it there eventually",fgpqt1s,Gorgehead,2nmr9xjg
Have you been to cuyahoga falls in Ohio? Damn gorgeous place,WhodinisGhost,wkadt,fgpq3zo,"Right, and that will be all well and good. But the West Coast has some of the most incredible outdoor venues in the country (Gorge & Hollywood Bowl immediately come to mind).

It'd be a damn shame to play in an arena instead of playing those places.",fgpofgh,Gorgehead,2nmr9xjg
Looks like flowers,WhodinisGhost,wkadt,fgocrmi,What is in her muff..?,fgmrrzk,cardiffkid,4s8mhod
Judging by the picture all we see is the listing with a giant all caps TESTED. Not disagreeing with you but eBay’s and PayPal’s buyer protection is very lucrative towards the buyer. I’ve a few experiences,WhodinisGhost,wkadt,fg8fpie,"Since the seller has stipulated that he isn't sure that it's an authentic tape, there is no buyer protection in the event that it turns out not to be authentic. The item has been accurately described and the buyer is well aware that the tape may not be authentic.

Caveat emptor and all.",fg8fjbl,drcranknstein,6xxz8
"Yeah, it’s like the Flo and Eddie version of Brown Shoes. Not sure why everybody hates Magdalena but loves brown shoes",WhodinisGhost,wkadt,fg87yvg,"I always thought of ""Magdalena"" as purely provocative. It's not a true story, or how Flo & Eddie feel about pedophilia or incest.

I'm not saying that I disagree with you generally; the subject matter and lyrics are uncomfortable. But I do still like the song.",fg84c4m,DanYuleo,uc4le
"Yeah eBay and PayPal are great for buyer protection. Especially if it says tested. If it’s not what it says it is, you can contact eBay and PayPal",WhodinisGhost,wkadt,fg873az,Yeah the guy says though that he can’t say 100% that it’s the original pre recorded tape. Which sounds kinda sketch. My only thought is that it would be hard to acquire the original box. So maybe it is real and somebody just didn’t put the album back on the original reel. But just to ease my mind. Do they sell blue 7 1/2 boxes online. Could the box be a fake?,fg7u8t7,KeithEmersonfan,xnsomfj
That’s a good and uplifting read,WhodinisGhost,wkadt,ffi2m49,"Related: Why American Billionaire Andrew Carnegie Offered To Buy The Philippines’ Freedom For $20 Million

https://www.esquiremag.ph/long-reads/features/andrew-carnegie-philippines-a00304-20200105",ffhzelc,salamanderXIII,g3g2n
I’m surprised they both can still sing as well as they can. Frank put there voices to the test. Much more so than his other vocalists,WhodinisGhost,wkadt,ff8v13f,"A voice is an instrument like any other, and Flo & Eddie sang a lot of what would otherwise have been horn parts.  FZ wrote a lot of angular melodies with unusual rhythm that can be hard to pull off no matter your instrument.",ff8e0t5,Aububuh,7iw6x
"I know it’s a bill hicks bit, but Zappa (if you’re excluding alcohol and cigarettes) would be excluded here",WhodinisGhost,wkadt,fdm5o5j,"You see, I think drugs have done some good things for us. I really do. And if you don't believe drugs have done good things for us, do me a favor. Go home tonight. Take all your albums, all your tapes and all your CDs and burn them. 'Cause you know what, the musicians that made all that great music that's enhanced your lives throughout the years were rrreal fucking high on drugs.",fdm3jbc,heykidzimacomputer,2xjw5p15
"I don’t often say this, but I think Jurassic Park and the Lost World deserve miniseries",WhodinisGhost,wkadt,fd2wnh5,"The book really tells the same story as another genre. The adventure of dinosaurs is there, but it's way more threatening. In the movie there are a couple raptors and in the book there are dozens. The sheer number of dinosaurs is astonishing, by the middle there are nearly 300 in total, with 37 being adult raptors that the park sensors can read. It's discovered later that they've invaded a secluded part of the island and have been breeding near the warmth of a volcanic field, so that number is just what they could detect. There's a great deal they spared for both films, but it remains one of if not my favorite movie and book.",fd27s0z,titanslayerzeus,docva
"Yeah, have you seen how many men drive those big-ass trucks with smokestacks on purpose? That’s some small dick energy",WhodinisGhost,wkadt,fbahzf0,"Idk man, there is a bunch of insecure dudes, small man syndrome, etc. I'm going to go with not showed / talked about / admitted to.",fbag251,xShooK,mrcg3
God damn Nazis ruin everything,WhodinisGhost,wkadt,fb99431,Lol yeah don't do that,fb95zl5,Witchgrass,4xdt1
What’s up with that? I have red laces on my converse. As I not supposed to?,WhodinisGhost,wkadt,fb8gsye,"Man I learned a hard fucking lesson with red laces. 

When I was 14 I thought they just looked cool with black boots. You don’t make that mistake twice.",fb8b1j6,MegaSeedsInYourBum,1467wd
I live in Ohio and I hate the buckeyes (I don’t like sports at all but that’s beside the point...),WhodinisGhost,wkadt,fakdbjy,I hate Ohio. Fellow Michigander here. Buck the fuckeyes!,fak6je2,CrappyLemur,8ewvt
That’s why I use sunshine co-op,WhodinisGhost,wkadt,f9lrqt0,"You can't have university point or quincy, but instead you can have ~~a small town not far away~~ _a tiny little corner of_ a small town not too far away _that's barely bigger than hangman and has 1/5th of it hogged up by a boarded up and unscrapable house,_ and a half-baked construction site with unscrappable buildings with a respawning mirelurk queen.

Hurpadur we gud garm meikers.",f9lksmr,rylasasin,kx1g1
Aw yeah thanks!,WhodinisGhost,wkadt,f7svtgp,"Sonic Jam

Mega Man X4

Symphony of the Night

Elevator Action Returns

Keio Flying Sqadron 2

Psychic Killer Taromaru

Mega Man 8

Rayman

Assault Suits Leynos 2

Bubble Symphony

&#x200B;

HM:

Metal Slug

Silhouette Mirage

Ghouls 'n Ghosts

Astal

Clockwork Knight 2

Super Ghouls 'n Ghosts

Purikura Daisakusen

Super Tempo

Steamgear Mash

Sonic 3D Blast

Shinobi Legions

Clockwork Knight

3 Wonders

Tryrush Deppy

Willy Wombat

Mr Bones

Gex",f7shm5d,Space_Force_Dropout,3bqusgfp
But the ram it up your poopshoot gets a pass,WhodinisGhost,wkadt,f6vgdw9,"Or the intro to ""broken hearts are for assholes""",f6v8vln,kent_eh,6fj6j
The Third Man also depicts life in West Germany pretty well I think,WhodinisGhost,wkadt,f620t3h,"For how it was in Italy, there is *Bicycle Thieves*, about a former unemployed who got his bicycle stolen.",f61dn6v,Johannes_P,rcr7w
Yeah what’s on the computer?,WhodinisGhost,wkadt,f097n0l,Now the question is what kind?,f094m9q,Eld_Fin,15ro0d
"Yeah, I refuse to believe that a band as big as Pink Floyd, known for their live shows, would never record their live shows",WhodinisGhost,wkadt,eyktdk2,I think there are some good soundboard recordings from the Animals tour that could be released.,eyirg1l,senateguard33,93szf
What hotel did you say you were staying at?,WhodinisGhost,wkadt,evulzgd,"And a Dr. Brown's cream soda

OR CEL-RAY",evujp12,Philboyd_Studge,5xc8m
I get off being juked with a baby octopus,WhodinisGhost,wkadt,evuje2u,You and that hairlip dyko bass playing girlfriend in the back seat,evt2q1o,Philboyd_Studge,5xc8m
With a bullet!,WhodinisGhost,wkadt,evujcqx,A Bullet?!,evu35ty,VernonDent,61iua
It’s got 3 songs it was $18 all together,WhodinisGhost,wkadt,es17ws1,How much? Is it a single?,es0cb5g,ostrofci,4toxh
I’m surprised it didnt have Summerbaby on it from the Hard Day’s Pete episode!,WhodinisGhost,wkadt,es031sm,"Pity it doesn't have that cover of the 90s song ""Cobwebs and Rainbows"" from the Yellow Fever episode.  

https://youtu.be/8lX4dS7Xye4?t=1408

It was really surprising to hear it covered in Fallout New Vegas as well.",erztecz,UpgradeTech,6z7rp
Oh yeah I’ve already got the CD but I wanted this too,WhodinisGhost,wkadt,es02ytz,"If that's your white whale, you probably already know this, but just in case:

Check out Miracle Legion (which is basically the same band as Polaris, but Polaris was formed officially to record for Pete and Pete).

Also, Mark Mulcahy, the singer/frontman for those two bands.

Some of my favorite music, and Polaris/ML/MM was over of my top 3 artists ""back in the day.""",erzfard,LetSlipTheDogesOfWar,n3esa
I mean...technically aluminum is natural,WhodinisGhost,wkadt,erx86wm,"I once went and bought a ""natural"" deodorant (popular brand) and didn't check the ingredients. Went home later and checked to find the first to be.... Aluminum.

Double check before you buy!",erwm8qt,notscb,14oqsw
Roger’s daddy died,WhodinisGhost,wkadt,erjveb3,What was the chip on his shoulder?,erjt2k0,steeritupld,tkjon
"The good Joe Walsh, not the politician",WhodinisGhost,wkadt,eqt5g9d,Joe Walsh lived here.,eqsawjv,pierresdad,utf2kgs
It’s a re-recording,WhodinisGhost,wkadt,eq2bzli,WHY DID YOU GAVE IT A THUMBS DOWN ONE OF THE BEST SONGS EVER😠😠,eq1xk9p,DJ_Buurthuis,3973hbr
Mary Ann gets in the pint with you!,WhodinisGhost,wkadt,eo44m5o,Mary Ann's pints,eo3zl79,shadesdude,4hdz5
I shared your post on my social media! I hope something comes up,WhodinisGhost,wkadt,eo1773d,"Ummm didnt know how to make a post without putting it all in the title, but this bear is very important to me and has a recording of my boyfriend on it..it helps with my anxiety and being without it for the past couple days has just led me to making this post as my last effort in finding him. If anyone has seen its whereabouts, pls lmk. I have already contacted John Glenn Airport lost and found but I have a gut feeling someone took him instead. Sorry to seem dramatic but its very special to me.",enx7c18,mvpolly,zbn7z
Roxy!,WhodinisGhost,wkadt,enbhkjd,"I used to say this! I stopped because nobody knew what the hell I was talking about, which is fair. I don't know what I expected, someone to be like ""ayyyy Eegahhh! Yeah I know Egah!""?  

No. Nobody knows Egah.",enaoqja,FL00RISLAVA,10wyte
That’s what we said about the “heartbeat” bill,WhodinisGhost,wkadt,emw24al,"It is being proposed, if all the ridiculous things that got proposed got passed you probably wouldn't want to live anywhere. This will likely not go anywhere.",emvt7f8,K41namor,jxcao
Or a nice morning in the country,WhodinisGhost,wkadt,emu9wdz,AHM is the perfect album for a sunset drive in the country.,emtwda0,eShivy,2gxe3hnn
Stick It Out was part of Divan (which is on the Carnegie Hall set that I highly recommend) but never put on album before 2011,WhodinisGhost,wkadt,emsqepu,"The only songs in Joe's Garage that had previous album releases when it originally came out were:

* Central Scrutinizer (intro), which is an instrumental track based on My Guitar Wants To Kill Your Mama changes

* Lucille Has Messed My Mind Up, which had been on a Jeff Simmons solo album

Thing-Fish had about a half a dozen of 'em, most of which used the same master tracks as had been previously released, just with Adam-12 references dubbed in.",emry1o8,mikeputerbaugh,g5nox
"Pygmy Marmoset to be exact. I think his quote was “if there is a god, it shows he has a sense of humor” or something along those lines",WhodinisGhost,wkadt,em4r8z4,"Who doesn't like bears though? They are badass.

On the old Cinemasscre website, James had a list of his favorite animals. All I remember is that Pygmy monkeys were his favorite.",em4ayfn,shelcod,cmr58
Really is! With the full versions of the songs unlike the vinyl!,WhodinisGhost,wkadt,elw0bre,Hey both of our Speaking in Tongues cases have cracks in the same place lol such a good album though.,elvwtwn,FunkyDoom,1uzlcwss
I’ll look into those movies! Wasn’t Arch Hall Jr in Rat Pfink?,WhodinisGhost,wkadt,elw08g0,"Ray Dennis Steckler is an acquired taste, to be sure. If you like this one, check out Rat Pfink a Boo Boo.

Edit: I’d buy the soundtrack too, though I have a hunch it would basically be straight off the movie. With soundtracks being so trendy now, I could even see if happening someday.",elvtu4g,Dr_John_Carpenter,w8lpl
I’m gonna order some Ortega Pizza,WhodinisGhost,wkadt,elvte8b,You dirty filthy pig!,elvsk82,gf120581,265f33
Yeah the WM-F5 are the “secret” direct drive Walkmans since they don’t advertise,WhodinisGhost,wkadt,elvre6r,That is awesome! cant wait to pick one of those up soon.,elvqiok,WorkReddit8420,zsz4p
"I just had a guy basically replace the whole inside. New drive mechanism (it’s a direct drive motor), new audio jacks, all that good stuff",WhodinisGhost,wkadt,elvlm7n,Was it recently cleaned or why does it sound so good?,elvi9jk,WorkReddit8420,zsz4p
"It did. When I was a kid it was always a choice between Tuttle Mall (which is also slowly going out), Westland Mall (which is completely closed) in Columbus or Upper Valley Mall in Springfield",WhodinisGhost,wkadt,elvljne,Looks like it used to be a really nice mall too.,elvhjrz,SkunkyDuck,1scz3ys2
It’s Zappa at his most fun. The Flo and Eddie lineup is the most fun of Zappa’s bands,WhodinisGhost,wkadt,elmidyy,"The ""vaudeville band"" stuff is tremendous fun to sing along to.",elm4ztm,mikeputerbaugh,g5nox
I like bubblegum pop :(,WhodinisGhost,wkadt,ele7s5f,Spotify has a playlist called 60's and 70's Bubblegum Pop that demonstrates this very well.,eld89dv,Boner4SCP106,aeoch
The door already is closed,WhodinisGhost,wkadt,el3ox2b,"Son, this is Colonel Hapablap. That fool McGuckett sprayed runway foam all over Chuck Yeager's Acura. Now get down there with the chamois triple time!",el3oag7,Drexlore,b5jz8
But what about all them college educated women getting pumped full of Illinois enema bandit juice??,WhodinisGhost,wkadt,ekshjpo,"The old albums may sound dated now, but were quite effective then. Similarly, I get almost nothing from Tinsel Town Rebellion. I like many players past 75 but Zappa lyrics work only on 1-2 songs per album.
On the NY live I play all except Enema Bandit.",ekrpz58,Tero-oo,du61a
"I get that 100% but Money just doesn’t grab me like Absolutely Free or Joe’s Garage or One Size Fits All does. Hell, I can stand the sped up vocals on Cheepnis cause the melody is to die for. And don’t get me started on the Black Page... 😂",WhodinisGhost,wkadt,ekosnsp,"Ben Watson made an interesting point about ""Money:"" that basically every time the audience was expecting to hear the Mothers ""rock out,"" Zappa the producer would undercut their expectations by instead forcing them to listen to his ""idiot"" melodies. Every time your ear expects there to be a guitar solo, the rug gets pulled out from under you. Every time you think that the Mothers are finally going to rock, instead you get these dinky-sounding songs with anti-rock cartoon vocals. In an era when every white rock guy was trying to sound ""soulful"" (i.e. *Black*), Zappa instead deliberately made the music on ""Money"" sound stiff and harsh, anxious and unsoulful. (This despite Zappa's affinity for jazz, R&B, funk, etc.)

Zappa's whole aesthetic in his prime was to be a turd in the punchbowl - he would undercut every expectation one might have of him; if you wanted doo-wop he'd give you musique concrete; if you wanted musique concrete he'd give you a guitar solo; if you wanted a guitar solo he'd give you classical music; if you wanted classical music he'd give you songs about S&M and poopchutes; if you wanted songs about S&M and poopchutes, he'd give you doo-wop...and so on. 

This refusal to conform to the rock audience's expectations is what makes Zappa's art so vital and fascinating, still. He resists categorization and cannot easily be pegged as ""classic rock."" While all of the other rock artists of that era became easily-digested figures in an established (read: safe) firmament, to this day Zappa makes people uneasy. He still has the power to make listeners squirm in their seats and question whether what they're hearing is really what they *want* to hear. Even his political stances run counter to what the ""normal"" rock listener expected - they're not the typical liberal pieties offered by his contemporaries, and his politics can still make the listener/fan uncomfortable. Rock *used* to have that power, but the rock of the 60s can't rightly be said to still have the ability to shock or disorient modern listeners, whereas Zappa's music can.",ekoj6b1,guestpass127,335kk6jk
Does that make me a plastic person?? :O,WhodinisGhost,wkadt,ekoim4h,I don’t think you were meant to then,ekoibfu,Memillini,4hnuetm
"But of the original Mothers albums, my favorite is Ahead of Their Time. Those instrumentals are to die for",WhodinisGhost,wkadt,eko92at,"I agree that Uncle Meat is basically a better Money. It's still a great album, but certainly not my favorite Zappa album, and not even CLOSE to my favorite Mothers album. Uncle Meat > Freak Out! > Absolutely Free = We're Only in It for the Money",eko4zmx,Obeast09,3xsrs
"It’s not, and it’s a great album, if there weren’t so many ear-grating effects on it",WhodinisGhost,wkadt,eko4yst,"I've always been much much more fond of *Lumpy Gravy*. Always found until recently *WOIIFTM* so grating. It's got some real gems tho, and isn't a ""weak album"" in the least.",eko4sxf,DanYuleo,uc4le
To each their own,WhodinisGhost,wkadt,eko2d3j,"I love ""Money"". It's Lumpy Gravy that I don't have love for.",eko2a21,BirdBurnett,2mz389sd
Oh I hate the 80s remaster too especially of Rueben,WhodinisGhost,wkadt,eko23kp,"That’s literally my favorite album of all time. Not even just my favorite Zappa. Wow. Opposite of the spectrum here. I hate the 80s remaster though.

Then again I do have a love for obnoxious silly psychedelic music that experiments.

Vocal effects and sped up rhythms are my thing too. I guess stay away from Ween and The Residents.",eko21py,RegyptianStrut,wofg8
"Completely different almost. As someone who loves the book, the movie is a bit of a let down once you’ve read it",WhodinisGhost,wkadt,eifez20,Hows the novel? I love the movie but I assume the book is a lot different,eidr082,LoganS97,bx4ddh4
There’s a comment a little down the way about why I chose it,WhodinisGhost,wkadt,ehw4efh,I knew it was Antioch as soon as I read this lol. Why did you go there? Based on their past troubles and low attendance it seems like an odd choice.,ehvmklr,Speedstormer123,16mpjd
Oh we’re accredited now,WhodinisGhost,wkadt,ehvml8z,Are they accredited yet? Or are the degrees still meaningless?,ehvmhu7,yourhometownsucks,6q7cm
"It is close to Dayton! And yeah there is the actual spring in Glen Helen which is the nature preserve. 
And I’m not allowed to comment on the state of the abandoned buildings on campus...",WhodinisGhost,wkadt,ehvmkus,Very interesting! When I google it it shows an actual spring. It is somewhat near Dayton right? I wanted to check out the kirkbride building there anyway. Are the abandoned buildings accessible?,ehvkwnv,asoep44,nuwq5
Oh yeah I went to C-State and lived OSU’s campus for a few years with my friends and it’s so drastically different ,WhodinisGhost,wkadt,ehvkzwc,Yeah I go to OSU and... Yeah that sounds a little different.,ehvjz1k,DearJohnDeeres_deer,jw3du
We’re living in a beer renaissance and I love it,WhodinisGhost,wkadt,ehvkxcd,"Community Government used to buy the kegs, until 1991 or so, iirc. 

&#x200B;

Was before the craft beer revolution reached Ohio, so just your basic Miller-type pilsener, but pretty cool nonetheless.",ehvihut,otusowl,i3pbz
Plus like our alumni are the most dedicated alumni on the planet it seems and brought the College back from extinction ,WhodinisGhost,wkadt,ehvkufi,"> am pretty sure this is Antioch College in Yellow Springs, Ohio.

One of the \*very few\* schools that ever closed and then actually reopened. There are going to be a lot of used colleges for sale in the coming years, [several have failed](https://www.educationdive.com/news/tracker-college-and-university-closings-and-consolidation/539961/) this spring already. None are likely to ever reopen but Antioch had online graduate programs that kept some revenue coming in.",ehvk9m7,SnowblindAlbino,7ild5
"Yeah, the architecture of the college is beautiful and yellow Springs is a pretty cool place to visit! Plus there’s so much hiking in the surrounding area!",WhodinisGhost,wkadt,ehvkskz,"Hello fellow Ohioan! 

&#x200B;

Would you say this is worth a visit? its about an hour drive for me so not a long trip.",ehvjzry,asoep44,nuwq5
"Oh yeah you get that in Yellow Springs too. Cause it’s seen as like the “hippie mecca” of Ohio, you get a lot of people here that are here for nefarious reasons",WhodinisGhost,wkadt,ehvg4ms,"that sounds heavenly, my school is in the centre of downtown Toronto. its so big you never actually get to know people, students and professors alike. we still have pretentious and uptight people, the campus is sourounder by homeless sleeping in bags.

its pretty much faceless corporate Canada ",ehvfw7b,green_bin_coon,mfs0ap5
"Well, none of us want mesothelioma and that place is loaded with exposed asbestos ",WhodinisGhost,wkadt,ehve9ua,when has structural integrity even been an issue wrt a rage?,ehvds6b,unreqistered,95x84
Apparently there used to be massive keggers every Wednesday and Saturday night back in the college’s heyday,WhodinisGhost,wkadt,ehvdnwn,"I always look at abandoned places and try to picture when it was used and how people went about their days, things they discussed, etc. Even if it's scary, at one time it wasn't. ",ehv9m8p,guiltybyproxy,miaxy
"Well there are less degree options definitely I won’t lie about that, there are times I miss my old community college and the resources it had. 
But here at least, all the alumni are stupid dedicated (they’re basically who pulled the college up from shut down), and anything you want, you can usually finagle your way into getting.",WhodinisGhost,wkadt,ehvdjs6,"A smaller school lacks a lot of resources and amenities. A diploma carries less weight.  There are many less degree options if you change your mind while at school. Should I go on? Im not saying a small school is not the right fit for anyone, there are just a ton of downsides.",ehvci33,PepsiRocks1,8n2kf
"Yes, we do have financial troubles, our last president basically bled the fund dry. 
It’s really surreal at times, I know everyone on campus and interact with almost all faculty and staff on a daily basis. You can sit down to lunch with your professors in the cafeteria without scheduling a meeting, just have it casually happen. You run with the same group of people almost your entire time here cause there’s so few people. Some classes only have 1 student and 1 professor. You can go into one of the classrooms, hook up video game system and play them on a projection screen in a lecture hall, and play games all night long without any interruption. 
On the flip side, you see the same people almost everyday, there’s a lot of talk about getting things done that never happens, a few of the buildings are completely abandoned. Some people are way too pretentious and uptight about themselves (but you get that everywhere). 
But we have almost all our food is either grown on the farm we have, or is locally sourced. The campus is beautiful especially in fall. All the professors I’ve encountered have been wonderful people that want you to succeed. 
I guess I chose it cause the campus was gorgeous, it’s close to my home, and the student body is so small, professors are more interactive. That and I got a lot of scholarships ",WhodinisGhost,wkadt,ehvdb8y,"Just looked this place up and it seems to have a very small student body and possibly some financial problems. Out of curiosity, what’s it like being a student there? What made you decide to be one of the 135 students at the college? ",ehv62zf,HUEV0S,5zddl
I’ve heard stories of the keggers that used to be thrown in the union way back when,WhodinisGhost,wkadt,ehvcog4,"I've eaten in that Caf, played pinball in the fishbowl outside its doors, smoked herb on the stoop out front, shot pool in a beer-soaked dance space upstairs, edited a newspaper in an office down the hall from that, and frequently got  rejected (and occasionally seduced) by girls... er, womyn, at every one of those locations.",ehv9a4y,otusowl,i3pbz
"Antioch College in Yellow Springs, Oh",WhodinisGhost,wkadt,ehv449s,"[Where'd you go to school? Dipshit Tech!?](https://youtu.be/3E4TmZG-gWI?t=220) 

Seriously, though, what school is this?",ehv2xdv,Jaco927,nq5zz
Right on the money,WhodinisGhost,wkadt,ehv436p,"I'm not the OP, but am pretty sure this is Antioch College in Yellow Springs, Ohio.",ehv3h5a,otusowl,i3pbz
If it was structurally sound then yes...,WhodinisGhost,wkadt,ehv05ze,soooo why aren’t y’all throwing some project X kinda ragers in that bitch?,ehuzdzf,uyuye,ujm65
"It was shut down for about 3 years so all the buildings were left to deteriorate. When they reopened the college, it wasn’t one of the main focus buildings to be restored, so it’s just been left to rot. There’s about 1/4 million in asbestos to be removed before they could tear it down, so they’re just letting it rot",WhodinisGhost,wkadt,ehunz9w,What happened to the college?,ehulebs,General-Sloth,145buzt
The College was shut down for about 3 years and it was left to deteriorate. There’s also about 1/4 million in asbestos removal before they could tear it down. ,WhodinisGhost,wkadt,ehunusw,Why did they move?  ,ehu8bl0,Cane-toads-suck,q9zzjqd
"TV and Saturn are on the floor, Saturn is on a rug. Dorm life doesn’t have enough room",WhodinisGhost,wkadt,ehqoru0,Are the TV and Saturn on the ground or is the Saturn on a runner? ,ehqithk,Kel-O-Tron,5o1ux
The store only had model 1 controllers. I need model a two,WhodinisGhost,wkadt,ehqbn1o,The Japanese controller is better imo.,ehqbebe,dvirring,si29hug
My favorite painting of all time so that’s a huge compliment lol,WhodinisGhost,wkadt,ehno4o1,Kinda reminds me of the painting “Christina’s World” by Andrew Wyeth.,ehnmuv3,DaveyAngel,acs3sv3
