child_body,child_screen_name,child_user_id,child_tweet_id,parent_body,parent_tweet_id,parent_screen_name,parent_user_id
If the company is going to let you go immediately after you tell them you are quitting I wouldn’t worry too much about burning the bridge.,yokotron,172b0s,flb0m7h,Well there's some benefit in not burning bridges there as well as having the option to use them as a reference in the future.,flat2xz,vtrickzv,62urq
This is exactly true.  They blame “the company” who is already going under.  No one holds the buck.,yokotron,172b0s,flb064w,"> A California Public Utilities Commission investigation of the events that led to the catastrophic blaze concluded that the company violated 12 state safety rules, which regulators deemed not a rare instance but instead **“indicative of an overall pattern of inadequate inspection and maintenance of PG&E’s transmission facilities.’’**


So the problems were so pervasive, that they couldn’t even single out individual employees to charge with criminal negligence? They are in bankruptcy now, so this might not even significantly hit anyone’s pockets.",fl9y6aq,Mountains_beyond,1wpcylmn
"Don’t use this toy on your dog, dogs gonna get hurt",yokotron,172b0s,fla45x1,"Ok, sure, but what was he supposed to do? Stop the dog from jumping before he knew that he was going to?",fla0j3b,Rugged_as_fuck,kz7b4
This is when amazon and the giants take over small biz :(,yokotron,172b0s,fla3x7a,it will be tough on the small businesses and service industry... the people that really enable our daily lives,fl95ghr,Eric_Esch,3hlwbkzk
Or just tape your mouse to your hand and jerk off.  Same result.,yokotron,172b0s,fla3r86,Tape a vibrator to it,fl9ushq,ljubaay,v2t7s70
Same here,yokotron,172b0s,fl9thhn,Are they still open?,fl9t6bd,RealTwistedTwin,d9qn8
"How is it ridiculous, in all honesty?  Do you think you live in a fair nation?  Of course not.  Money runs this world.  And if you have it, then you get what you want.   It’s sad.  It’s like all of the regular people in stock market getting screwed right now when millionaires already pulled their money out.",yokotron,172b0s,fl9supk,"They need to stop letting the wealthy with no symptoms get tested. It’s ridiculous. I went to the er two days ago with symptoms and was told to quarantine but they couldn’t test me. Test were for critical patients only and to come back if it got worse. Okay, thanks. 

Without a diagnosis my job will not pay me for the two weeks off and I may even lose my job. But hey, at least we know the nba players are fine.",fl9ned1,Kewege,3tjwhxnu
Awww man!  You tricked me.  I thought we were going to get Taco Bell.,yokotron,172b0s,fl9sfsp,"Yes, they deliver you to prison",fl97y1v,aliffattah,2sba7a5j
"Some are, yes.  Hopefully I made your day a little brighter now.",yokotron,172b0s,fl9se9i,Postponing something is not the same as cancelling something. Unless you’re trying to tell me all of the beloved tv series that have been cut short are merely on hiatus.,fl9d9sc,TaintModel,2l6omjci
I started my own fantasy version of it half way thru.,yokotron,172b0s,fl9sc5e,ew no did you even read?,fl9i211,Icecream_Sumbitch,4riiq9ml
Exactly.  It’s toxic.  Don’t play into it.,yokotron,172b0s,fl9sau0,"Like in real life? Your neighbor telling you really truthful news, banners everywhere and you buying new tesla to show off ?",fl9m92s,mithik,5ospa
"Fake news, bloated with ads, and people trying to one up one another",yokotron,172b0s,fl987li,This is social media as it was always meant to be.,fl89kvy,Selentic,87tcr
Stretch dick in post,yokotron,172b0s,fl9857q,"Jump the shark, film your own edited version and send it out. At least you'll have artistic control.",fl8ya4z,freebog,11p2ga
Send the video to your Instagram directly.,yokotron,172b0s,fl983xv,"Own it. Everyone jerks off. 

Send another vid to the blackmailers and tell them you had no idea how much money was in jerkoff vids, and demand $450 for it.",fl9193h,robbobster,x2r3e
Cool idea! Gonna 3D print some of these,yokotron,172b0s,fl97yjc,"A kitty version of a de-clutcher that helps speed up packing your pins. :D
I posted the first version a while ago, and now I can offer it in more colours!

You basically use it to slide your pin through the top and collect the clutches in the corpus. Works only with rubber clutches tho.

It’s 3D printed with my trusty desktop printer.
If you wanna see mor pics or even get one for yourself: https://etsy.me/2Vg6ETH",fl7ojfy,Pen_Winter,3qjlvqd5
They deliver to prison?,yokotron,172b0s,fl97wuu,"Do it multiple times
Prison!",fl97fza,aliffattah,2sba7a5j
Not exactly,yokotron,172b0s,fl96obk,Continued disregard for our environment got us into this mess,fl8yde2,Akira282,56rrr
Who left the cabinet open?,yokotron,172b0s,fl96m7x,Why is there a column of smoke in front of my tv?,fl6uyaf,Scoobydoomed,z1myz
Self face palm,yokotron,172b0s,fl96bvj,"Yes, the person who wrote this is in fact a moron.",fl6rmfb,6k6p,59ce0ox0
You don’t drink holy water son,yokotron,172b0s,fl95tm8,Its a religious traiditon. They are all taking some holy water I think from the same spoon. Hundreds of people lick the spoon without washing it or anything.,fl81li2,liljetskiiii,1na7um18
My dad told me the same thing,yokotron,172b0s,fl9450j,"""Don't use your teeth. Don't use your teeth.""

I was so afraid I'd accidentally use my teeth. The 2nd time I kind of scraped him and I felt horrible about it and he said, ""Its ok! It was an accident."" With a big smile on his face.",fl7c87p,gigabytestarship,161i71xw
Guess and hope,yokotron,172b0s,fl93mub,"Nah, guess and check is the way to go",fl91kx9,1984wasaninsideplot,5stt6ob
Postponed is same as cancelled.  Cancelled for summer 2020,yokotron,172b0s,fl93lf1,Postponed <> cancelled,fl8zubq,inefekt,34omb
"Click bait.  And it’s lawyer talk, you ever read an EULA?",yokotron,172b0s,fl8yqtq,"Pretty misleading headline. The entire article is about a law firm telling their employees to turn off the devices *just in case*. The 11 paragraphs can be summed up in one sentence... 

> Mishcon de Reya LLP issued advice to staff to mute or shut off listening devices like Amazon’s Alexa or Google’s voice assistant when they talk about client matters at home, according to a partner at the firm.

Why does an entire article need to be written because of that?",fl7rcsu,leaveittobever,6uli9
I won it also!  We gonna be roomies,yokotron,172b0s,fl8yn3t,"What are the odds, me too!",fl8mgw0,Yazon69,qwv50
This many bottles has to be a record year for them,yokotron,172b0s,fl8yhbc,This guy is singlehandedly keeping the corona beer company going.,fl7mpdm,redunculuspanda,15r07q
"It is scary times.  But just remember, you battle constantly with this and are well prepared.  Continue to be strong and vigilant.  We will get thru.",yokotron,172b0s,fl8xvlu,"many young people are on immune suppressants that otherwise would have a normal life expectancy.  I have a severe autoimmune, but from what we can tell, it won't shorten my lifespan (but this disease has a high chance of killing me).   


One of my best friend's sister has had rheumatoid arthiritis all her life, and is extremely fit/social/parties a lot, and also would have a normal lifespan(with a higher quality of life than most people, given her parents are really rich and shes very attractive/popular).  She's on methotrexate, and would be at high risk of dying from corona as well.  


I'm 26 and shes 23 fyi.  While we are both isolated, someone could pass it to someone getting us groceries at the grocery store, and all it takes is one small mistake or wrong cough to then spread it to either of us and potentially kill us.",fl8odqm,captainhukk,lp0bw
"Thanks for eating the cookies for us.

And the news on this dude is sad :(",yokotron,172b0s,fl8xs4m,"I agreed to the cookies so you don't have to. He had an unspecified underlying condition, and was considered vulnerable. Rip bud, that's a fucking shame.",fl8a1k1,Oshitreally,1xoww6rv
I think you did the math backwards.  11 Xbox years is like 90 human years,yokotron,172b0s,fl8x8af,Yeah 11 years is about 90 in xbox years,fl8i2c1,jamessanderscrudspud,230y4fsz
Watched again to verify the gorilla that I missed,yokotron,172b0s,fl8wz3d,Yeah.  But did you see the gorilla walk by?,fl8tv8l,DreadPirateGriswold,4gap8y2
"Great, another reassign not to get tested",yokotron,172b0s,fl8qpw1,"I got tested Thursday and it hurts like a motherfucker. I snorted and coughed and reeled in spite of myself. These doctors and nurses are GOING to get droplets of spit, sweat, mucus and some people might even vomit. 

These doctors and nurses need protection. This is stupid.

Update:

Just to be clear, the test is apparently called a Nasopharyngeal swab. (Please someone correct me if I got this wrong). It’s a long swab ( longer than the four inches some folks said) that they put up your nose and then proceed to slowly push into your nasal cavities and back into the back of your throat. It’s not through the mouth or just a dab into your nose. They have to hold is there for a few seconds. And then do the other nostril. It may not hurt some people. It hurt like a fucker for me. And then the pain was gone except a touch of soreness for maybe half an hour. 

I don’t know my test results yet. 

They are doing this type of swab because there are some advantages to it. I just briefly read that there are swab shortages so the nasal swab is more reliable and doesn’t require two swabs. It’s better for respiratory illnesses to go the deep nasal route. 

Go on YouTube and look up “NEJM Procedure: Collection of Nasopharyngeal Specimens with the Swab Technique”. That swab looks a good 6-8 inches long. 

Ultimately y’all, I know some of your are super tough awesome macho whatevers. And I don’t want to alarm anyone. I want people to know what they are getting into. It’s intense. Briefly painful. And then it goes away.  I wasn’t saying that people shouldn’t do it or that I thought it was worse than someone’s favorite auntie dying. It hurt. It caused me to gag and choke and snort and sneeze in spite of WANTING THE TEST BADLY as my body wanted it out of there. My reaction sprayed spit and good outward. 

One of the RNs chimed in on one response noting that he/she was told if the patient wasn’t at LEAST a bit uncomfortable it probably wasn’t being done right.

Almost EVERY single (self-identified) medical professional who has done these acknowledges that they can be painful. Some noted it can be different levels of pain for different people.",fl7ycvx,supercali5,hcd8w
"Etsy is removing items like this. Don’t mention virus, quarantine, covid, corona, and you’ll be fine.",yokotron,172b0s,fl89gyv,"They look really cute, but have you researched to see if Etsy allows them? I saw they remove anything related to the current situation as they consider it profiting from it.

Edit: Checked your shop now and I don't see the sticker anymore. Did you remove it or was it deactivated by Etsy?",fl7xu37,BearsAndCupcakes,44udvfvw
Ryujinx?  Or is it still in beta/unreleased?,yokotron,172b0s,fl7wjf1,atm not.,fl7k9f7,JustLilNeko,18206ns1
It has some nice puzzles,yokotron,172b0s,fl7g0lq,I find Doom Eternal has more downtime in between the encounters with the platforming. Doom 2016 had a bit of that but was more combat arena after combat arena which got exhausting. Im about halfway through Doom Eternal and it is paced so much better.,fl7cge3,Bronetta,2lvv0zvp
Big money,yokotron,172b0s,fl7enlp,Smash TV,fl06lu8,burgermeister_,1pp8e9cd
Doesn’t it work on a different emulator ?,yokotron,172b0s,fl7dg6v,nope.,fl7876d,JustLilNeko,18206ns1
A roller chair to hold the balls,yokotron,172b0s,fl7d65e,And they literally wouldn't be able to walk out of the court with how big their balls would be.,fl7atfz,awesomebeau,13mugw
My 9-5,yokotron,172b0s,fl79b1z,"Ben 10/10  
thanks for the silver bruh",fl6pibt,pompous_grapefruit,3d0ad5qz
Thanks!,yokotron,172b0s,fl793re,"Clearnet is the stuff you can find using normal search engines, as opposed to darknet and deepweb where you need Tor and specific URL to access it.",fl74vxb,Verenn,szzbp
Can you explain clearnet?,yokotron,172b0s,fl74f0q,"To everyone asking for Tor URL, it is not working since they came back to clearnet. Their Tor domain will be deactivated in a few months, but will come back should anything happen to the clearnet one.",fl72i42,Verenn,szzbp
I remember the dream team. -member berries,yokotron,172b0s,fl74co2,"That’s a weird thought to me. Does that mean most of Reddit doesn’t remember the Dream Team? I don’t think of myself as old at all, but perhaps I should.",fl71v67,Meetchel,88uet
Genetically so,yokotron,172b0s,fl6shp0,Well that seems a little gay.,fl6k3l8,Coach_GordonBombay,9hhgo
Alright creepy old weird dude,yokotron,172b0s,fl6sh47,I wouldn't mind an NSFW pic of you one bit ;p,fl6jccy,CRSRep,34ay4xip
Trump jr finally sees it as a problem in the making,yokotron,172b0s,fl6rkno,"Let’s do nothing so everyone gets sick.

WTF? Why is our healthcare system being overwhelmed?",fl6joz9,Second_suitor,rpxe7
Potato chip man isn’t sick.,yokotron,172b0s,fl6r97k,"As a potato chip lover, I agree and appreciate you. Get well soon",fl66j2r,girl_with_a_401k,12b2yu
What’s hours in a flight to us is a few steps for him,yokotron,172b0s,fl5z52k,How the hell does he fly anywhere? Even first class doesn’t have that much room.,fl5b9nl,CaptainsLincolnLog,98w20
"Yea, such old news from a day ago",yokotron,172b0s,fl5x4j3,Old news,fl5smwa,wibblett,12i8ri
Buy GameStop!,yokotron,172b0s,fl5wh8q,Bye GameStop!,fl54des,Bob_Fred_Rick,x64be
Why doesn’t a gym of 2020 try to have an honest agreement for memberships?,yokotron,172b0s,fl5wboq,Because they are criminals that make money off your mistakes. Nobody can come here and say otherwise. No other business makes it this hard to cancel. It is just the business model and no good competitor with a different method has come along. I would give them my money immediately.,fl5oi80,SwegSmeg,1579z9
Dope,yokotron,172b0s,fl50qf6,"They're great if you're Switch isn't running CFW, but being able to just pop into Emuiibo while playing a game and selecting any amiibo you want is always easier and 100% cheaper.",fl4x7kb,Somedudeisonline,2f6s77ml
Hitler,yokotron,172b0s,fl50pit,"Lol Id have no problem saying Trump, but it wasn’t him.  It was that guy with black hair and a little beard

Edit: it was Alex azar",fl4zq5l,Impulse882,odv42
Haha I already have 3,yokotron,172b0s,fl50oon,another baby Yoda?,fl50908,invent_or_die,hsytn
Owen cares.  He’s been on the Internet for decades.  Probably cyber sexed your mother.  That’s how you were born.,yokotron,172b0s,fl4y1pf,Yes I’m sure Owen cares about ‘likes and comments’. Fuck off OP.,fl4x7fv,SunsOfTemper,5bq2kz1h
"They stole his wallet

Edit: I’m honored to get a silver ❤️",yokotron,172b0s,fl4xsg7,I think this is the wrong video. It says prank,fl4mmwv,Boondock_Billy,13mhpu
You can say trump,yokotron,172b0s,fl4xp54,"Its really annoying when you see the government on the TV saying supplies are there, we doing a good job, \*pats on bacK\* and then the healthcare workers are like... what supplies?",fl4r37u,IHazProstate,r7whz
It’s making its way to the top like a good comment always does,yokotron,172b0s,fl4xml8,This should be the top answer. They sent an email a few days ago.,fl4w05v,JustBeKind1000,41xbduge
Make the links unlisted and share links.  You’ll be fine.,yokotron,172b0s,fl4x5rb,As a teacher I really feel this. I’m currently making YouTube videos of myself reading a novel for my kids who are reading from home. If YouTube were to take down the videos I’m not sure what I’d do.,fl45oyb,true_spokes,v59qg
I had the same when he said spybot!,yokotron,172b0s,fl4x2k0,"oh god combofix and hijack this, im having PTSD",fl4w3t9,offensivex,4nddn
How come? It’s super easy and very rewarding,yokotron,172b0s,fl4wyt9,Haha. Yeah no.,fl4sxs5,autumnxrain,556l7yk
Be safe out there!,yokotron,172b0s,fl4wy5l,Damn didnt know that,fl4id9j,TheBescobar,2m8xjr2t
No one is going to wire you $10,yokotron,172b0s,fl4ww13,You can chose what Payment methods you want,fl4iyna,voryvzakone777,5o32wsv8
This is what we need to focus on.  Our own dip shittery,yokotron,172b0s,fl4fxhm,Look how many people support the moronic freak in the White House. There are enough idiots to go around. Some people will believe anything.,fl4av2l,Redswim19,5hkkvms2
Roulette player here,yokotron,172b0s,fl4fjsl,"well it can only double about 15 more times, so that's good",fl3xnke,clarkwgrismon,3a2pl0y7
You basically become the vpn,yokotron,172b0s,fl4fe82,Wouldn't,fl4e5o6,omadhia,568emox2
"Correct.  But not distributing.  Very big difference, at least for now.",yokotron,172b0s,fl4fczc,What?! How is it any different? You are still getting illegal content,fl4d062,TheBescobar,2m8xjr2t
Raided **,yokotron,172b0s,fl4fbbc,razed\*,fl4e86d,SagansRolling,4euoliqw
That’s my kind of cat,yokotron,172b0s,fl4aqb3,2 seconds in the cat that falls lmaoooo,fl3lnl4,StargateParadox,i8j54
True story,yokotron,172b0s,fl4acd8,">Really? I mean I have an antivirus and whatever and I dont have anything wrong. I'm gonna delete them all anyway because I dont play any of them anymore

dude just install  Malwarebytes and do a full scan if you good you good",fl49gks,Gedogfx,sduj3
Are we calling it the trump virus now ?,yokotron,172b0s,fl4a286,It’s unfortunate that this Covid-19 Trump Virus is causing so much suffering :(,fl49j7a,fartx3,1s5b0pgb
"Slowing for 2 months before we ramp it up to 120% to recover lost time and realize we actually need that 20%, so it will end up hurting us.",yokotron,172b0s,fl4a1c4,"Yeah, but on the other hand this *is* good news for the climate. As terrible a thing as it is, the Trump virus might have the silver lining of slowing emissions in some cases. Although that may well be spent on mass wifi usage...",fl495jh,Orngog,wh2sf
Must be nice to be rich.,yokotron,172b0s,fl49wm2,"He runs a non-profit, so this isn't his money. 
Andrew's net worth is 1-3 million USD depending on who you ask.",fl40fiv,ZigzaGoop,oghgf
"Your device becomes a gateway, essentially bypassing all the data of a user thru it.  If that user does things, such as child porn, you will be getting some nice people coming to your home.",yokotron,172b0s,fl49vdj,Elaborate please,fl40w9w,omadhia,568emox2
Not really.  Torrenting is distributing and your ip is logged.  Direct downloads are much less incriminating.,yokotron,172b0s,fl49qdd,Every dl is risky,fl42usy,TheBescobar,2m8xjr2t
Have you met the United states?,yokotron,172b0s,fl49nzf,Maybe we can do without for a few weeks?,fl44o1l,Cryse_XIII,8799u
Smash... like sex?,yokotron,172b0s,fl49mew,"Mate, you download repacks from fitgirl, not try to smash. Gender is irrelevant",fl455g4,adamski234,2avmx09
Like LEGO chimneys?,yokotron,172b0s,fl49iwj,Mine doubles as a pipe cleaner for really small pipes.,fl4968r,Saw-Sage_GoBlin,3q8jh9sf
"It’s a numbers game.  The more people that have it, the more will die.  The infected is growing exponential, hopefully the deaths don’t.",yokotron,172b0s,fl49hit,"Why does it seem that deaths suddenly just explode? Is it purely because the number of infections grow to a point where even 1-3% of them is a huge number?

Or is it likely to be something more sinister, like healthcare is beginning to become overwhelmed so that patients who could have been saved at the beginning are now more at risk of succumbing?",fl3oqha,Second_Wild_Hunt,5y25axf5
Lots of options,yokotron,172b0s,fl40zbg,"Plus, options for a 3-way & cuck situation",fl3zq5l,_--_-_-_-_-_-_--_,4me81w94
Mr lazy doesn’t get to show off his strong leg,yokotron,172b0s,fl40eub,Mr strong....  But I see that Mr lazy on the background and it looks like the same model......  What are you strong or lazy?  Make up your mind.  Unless your lazy strong or strong lazy?  I'm asking the serious questions here haha,fl3eitv,MrReeEve,4yrwx9j0
Chicken. The new Olympic sport 2020.,yokotron,172b0s,fl40as9,"Exactly this, it’s a game of “chicken” between the IOC and Tokyo.",fl3rk2v,TraceOfHumanity,141ofg
"Yes, it will mount it as a cd drive  , and give it a path (like E:)",yokotron,172b0s,fl406hw,"As in it'll make a whole other ""drive"" on ""This PC""?",fl3xmcm,WilliamCCT,12panb
"Just double click it, it mounts automatically.  Then run setup.  Then right click on “dvd Drive” it makes for the game and hit eject (when done installing )",yokotron,172b0s,fl3xiif,Windows 10,fl3x6uo,WilliamCCT,12panb
This is my fav :),yokotron,172b0s,fl3wplw,It would be more like jumping off the Titanic and everyone getting on a new ship heading towards an iceberg.,fl3ndvt,RedofPaw,df2of
What windows are you on?,yokotron,172b0s,fl3wnph,"Ohh alright. Just to be sure, I have to have the iso running when I run setup right?",fl3vbkq,WilliamCCT,12panb
The whites house is still a house that can be raised.   Never forget that!,yokotron,172b0s,fl3wctb,"Too late for the US, they got in the white house, senate, and judicial.",fl3i7s0,SagansRolling,4euoliqw
Torrents can get you in trouble,yokotron,172b0s,fl3w4ac,Or dl popcorntime and watch everything you want for free and almost no ads,fl3ouso,TheBescobar,2m8xjr2t
Scrubbing action comes from your hand.  It’s like taking a shower.,yokotron,172b0s,fl3w21r,"Serious question:  Let's say I get a bidet...and it sprays water on me bum...don't I still have to wipe with paper to at least dry off?  I can see after a girl goes pee, she can use a towel to dry off, but after a big dump (boys or girls), does it really get all the poo off without ""scrubbing"" like with TP?",fl3qzc5,Masher88,4udcc
Double click iso and then run setul,yokotron,172b0s,fl3v9mh,"From codex, yeah. I've only ever downloaded from fitgirl cos my friend recommended it to me and gang beasts from some other random site. Usually I just need to run setup.exe",fl3uxn6,WilliamCCT,12panb
Is this your first game?,yokotron,172b0s,fl3utof,"What does ""burn or mount the iso"" mean? I have to have a DVD to install this game?",fl3u2w9,WilliamCCT,12panb
I was doing some last night. Badass game,yokotron,172b0s,fl3unts,oh boy time to rip and tear!,fl3m4a7,Xboxtoo,10fliw
Nope. Works fine.,yokotron,172b0s,fl3u4n3,Says there are issues with this one and it's only the first three missions.,fl3aew7,noumenon43,269pvgpf
I believe nothing anymore,yokotron,172b0s,fl3u2q2,You honestly believe what’s in the post?,fl3ax8x,Cursed_Toxic,2fo8g64y
Ass-thmatic,yokotron,172b0s,fl3u1yu,Unless someone in the area is asthmatic.,fl3b39y,anotheronetouse,43rc5
Aliens are funny I guess. Death isn’t.,yokotron,172b0s,fl3txkw,Aliens moved in and nobody noticed any different.,fl3gejc,i_already_forgot,80hrd
Crap.  Threw pc in trash,yokotron,172b0s,fl3tvu4,It is pretty dumb because the police will be coming after you now.,fl3imkm,Ghochemix,4ke86ruu
Dumb statement?,yokotron,172b0s,fl3tv34,"That's not a question, but ok",fl3e7iz,EverythingSucks12,lituhn2
The guys read a post on a blog once,yokotron,172b0s,fl39k4u,Why would you possibly think it’s testing for antibodies to any illness?,fl32ban,ghotier,839ln
If they go over your eyes then they work great,yokotron,172b0s,fl39gnc,"So ""facemasks are useless"" is  a lie",fl36ndu,Superman_Wacko,234lbwu1
It’s sperm.  Not his.,yokotron,172b0s,fl39eu3,Wondering about the glaze on that doughnut...,fl2obpu,Phteven-D,5goylctv
Or everyone is dead and no one is reporting,yokotron,172b0s,fl38ysb,Maybe they just stopped reporting anything...,fl2ro1s,TortiereChamber,5m50tw85
Viruses can thrive unless Connected,yokotron,172b0s,fl38mw0,To download all the viruses duh,fl38fmw,VandaGrey,lzm4a
