child_body,child_screen_name,child_user_id,child_tweet_id,parent_body,parent_tweet_id,parent_screen_name,parent_user_id
"Seriously. China is asshoe.

Here’s some truth: It started in China. China lied about it. China is still lying about it. Repeating Chinese lies because you’re not smart enough to know they are lies is still lying. Calling someone racist for stating the truth that it started in China is stupid, and if you do it then you are asshoe, too.",3_Creepio,8o57c,fkustu0,CCP paying for that garbage post?,fkuprc7,elsenordave,2cvgvj28
That was my first thought. Things like this could cause people to look around and say what good is this EU thing anyway?,3_Creepio,8o57c,fkh2jzf,Italexit?,fkfporj,TheDailyCosco,30vro8jr
"On the other hand, if you point out that it’s from China, they scream at you that you’re a racist, even though it is from China. So that’s pretty Democrat right there.",3_Creepio,8o57c,fkh26g5,"Well I don't know if we can say the Coronavirus is completely democrat. 

It has yet to blame Russians, can't really be a democrat nowadays without blaming Russians for everything.",fkgjcor,AoiSAC,3a7m23vl
"I imagine that a lot of Republican mayors have to toe the line pretty carefully as an independent, but it seems abominably stupid to alienate the base of your own supporters like this. 

He’ll have to ultimately switch parties or face an election landslide like so many other Flakes that have made this miscalculation.",3_Creepio,8o57c,fk4v4t0,"""This guy says stupid things on Twitter.  That's totally a good justification for me to vote for a incoherent compulsive liar who's against everything I'm supposedly for.""",fk4t4f7,Pollaski,15emrt
No kidding. I don’t think I knew that. If I did then I must have forgotten. Thanks.,3_Creepio,8o57c,fk0zpil,"You are correct, however his voice was dubbed over by Max von Sydow.  I believe he wasn't told about this, and was rather perturbed when he discovered they didn't use his voice.",fk0yfpw,SpankWhoWithWhatNow,6e9et
"That was [Wilhelm von Homburg](https://www.imdb.com/name/nm0902455/?ref_=tt_cl_t13), a German actor who was previously mostly known as one of the terrorists in Die Hard (he was the one with the blonde pony tail).",3_Creepio,8o57c,fk0w8os,Ghostbusters 2!,fk0kzrw,Chairmonkey,469cq
"At this point what difference does it make?

Some people went for a walk... and did something.",3_Creepio,8o57c,fjyibpi,She doesn't recall anything.,fjybiv8,Foreverperfect81,3qqw9lu7
Very nice. It’s the only way.,3_Creepio,8o57c,fjy8ok2,We cook down all our Demi in different stages.Most everything we do is in house. Make our own kimchi.,fjy1xwh,Mushrocker,159263
Greg Jarrett was just saying the same thing on Hannity. Seems like a no brained. But I wouldn’t make any assumptions about brains and the US senate.,3_Creepio,8o57c,fjirdip,Schumer should be at the very least Censured by congress.,fjiqkcy,soldio101,30hqxbsd
"Or worse, he’s implying they might end up in some road side motel with a pillow over their face.

This piece of crap should be in handcuffs right now.",3_Creepio,8o57c,fjiedja,"By publicly saying what he did, he’s also encouraging whack job-liberal-radicals to strike back in some form or another.",fjibckk,pghmommiedearest,1ymifra7
First one I ever got!,3_Creepio,8o57c,fjgx6ju,Np and enjoy your award!,fjgs26l,MSPaintDaily,2hmude4e
Corn pop.,3_Creepio,8o57c,fjfmmvj,"This is a real win for trump fans, Biden is going to get destroyed in debates with trump! I’m getting my popcorn ready!",fjfkgue,notanotherthot,1o7kruc
"In such a depressingly typical way, too.

The statement itself is disgusting enough, but to “stand in solidarity” with it? 

Nauseating.",3_Creepio,8o57c,fjfkpiy,Sickening,fjfjrmb,Coinage4460,5lw6s3qe
"Feel free to copy and paste at will, or put it in your own words. I think it’s true enough that it needs to be spread around. Especially now.

Oh and thanks!",3_Creepio,8o57c,fjfifc8,"> I've been saying for a while that to be a socialist you need to be either stupid (because you have no idea what it is and are ignorant of its history) or insane (because you do know what it is and want to try it again anyway), hence the bit about doing something over and over and expecting a different result.

Probably the best thing I've heard here",fjfbgmc,MSPaintDaily,2hmude4e
Yes. He’s pretty much the Paul Krugman of idiot RiNOs.,3_Creepio,8o57c,fjf47if,"The good news is that, given Kristol's record of making false predictions almost 100% of the time, we know that Trump's reelection is assured if Biden is the candidate.",fjf2x7n,Sola__Fide,y8ui0oi
"Rush had a theory today about this, and I think he’s on to something.

Basically, the DNC establishment already knows it’s going to lose, and is consolidating support around Obama’s VP so they can lose it the way they want to, rather than be forced to openly defend socialism and then get shellacked like they would with Bernie. At this point, it’s all they can do. Although Bernie has a lot of them pissing in their boots.

Interesting note I heard from Dana Loesch: now that Bootigieg is out, Trump is the youngest candidate in the race. True story.",3_Creepio,8o57c,fjf22m8,"Now that you're the Nth person to mention Biden forgetting which state he's in, it got me thinking why him still running is not considered elder abuse?!  Guy's obviously senile, and belongs in a retirement home or something.",fjezc6p,Mcnst,eeqh0
Timeline fits. It would have aired in the mid to late 90s. Season 5 or 6 is my guess.,3_Creepio,8o57c,fjf1gk6,I’ll have to look Into it. Thanks. I was like 8 when I saw it so the memory isn’t so good now that I’m in my 30s,fjf0o7e,TLODismyname,h1nhv
One of the two New York cases only traveled recently to Miami.,3_Creepio,8o57c,fje8iaw,2 in the tampa bay area and two others in areas I haven't heard of.,fjdytuj,kananjarrus,qovcw
"I like this, but the steak might be too much to pair with Blue Moon. Maybe sub it out for an airline breast of chicken saltimboca with mushroom and shallot risotto topped with a little orange zest.",3_Creepio,8o57c,fjdrngk,"Just Blue Moon for the entire meal?  How many courses?  A light lemon vinaigrette salad with red onions, almonds, split grapes, and feta on greens.  A grilled steak with salt/pepper only with some potatoes of sorts (baked with sour cream, butter, chives would be good).  For dessert, a stone fruit tart.

Boom, 3 course meal with one beer.",fjdqzy8,massbeerhole,4paqrr
"So the worlds best minds are scrambling day and night using the latest and greatest in modern technology and medicine to develop a treatment for Coronavirus...

...And this medieval piece of crap just says ”I know let’s stick some oil up our asses?”

Yeah, that checks out.",3_Creepio,8o57c,fjbn5ew,"Who would take advice from the religion that treats coronavirus by putting violet leaf essential oil on their anus?
https://www.alaraby.co.uk/english/news/2020/2/25/applying-essential-oil-to-anus-cures-coronavirus-iranian-cleric",fjbks4j,Jerry-Beets,451eslzx
Hanz Zimmer And Lisa Gerard. Great combo.,3_Creepio,8o57c,fjbmsgb,"I'm not overly fond of the film, but the score slaps.",fjbij22,CassiopeiaStillLife,12pbfi
"Oh, I’m right there with you on that. I’m just staying positive, but yes, we can’t be complacent like the Dems in ‘16 walking around wearing t-shirts that said “Spoiler Alert: Hillary Wins.”",3_Creepio,8o57c,fjb1cm6,"Too many illegals, too much fuckery for 50. But unless they really kick their electoral fraud into overdrive, we should win comfortably. 

No complacency, though, of course. They’ll definitely be trying real hard to steal it.",fjaxk9o,Atigerwithlaserbeams,jof97
"“People lining up for bread is a good thing. At least they have bread!”

The fuck you just say, Bernie? Look at my goddamn grub hub bill the last three months and then ask me if Americans are so worried about food shortages that we need to enthrone a communist psychopath to organize our bread lines you complete asshole.

Oh wait. We’re talking about a shortage of posts at T_D. Sorry, got carried away there.",3_Creepio,8o57c,fjarr75,It's like a bread line for posts.,fjanad1,Holmgeir,118pxf
"Right there with ya. Don’t let reddit (fuck reddit) get you down.

KAG!",3_Creepio,8o57c,fj4b2b7,Seems to be the only way to keep T_D alive right now.  🇺🇸,fj48bnb,ChironInTheSky,704b7xo
"I heard that. Right at the end of the show, after talking to Gordon Chiang at CPAC about the impact of Coronavirus (which was great) he talked about reddit (fuck reddit) effectively shutting us down and censoring Trump supporters. It was nice to hear.",3_Creepio,8o57c,fj40k8a,FYI - Dan Bongino called out Reddit’s attempt to shut down T_D from his show at CPAC.  He’s aware of what’s going on here.  Episode 1192.  His comments are at the end of the show.,fj2u35t,ChironInTheSky,704b7xo
"Your question could also be phrased:  ""Why SHOULD someone who committed and been convicted of a violent crime be granted the same rights as those citizens who have not?""

The 14th Amendment specifically gives the ability to qualify--or disqualify--voting status to individual states. Currently, 48 states do not allow convicted felons to vote, and for very good reasons. And it's not the only disqualification that comes with conviction;  Felons cannot work as police officers, serve on juries, hold certain elected offices, or legally possess a firearm.

Any attempt to impose federal voting qualifications on the states (as Obama wanted to do when he considered rolling voting booths into every cell block in the country back in 2012) is completely unconstitutional, without any room for debate, unless the 14th Amendment is repealed (good luck with that).

My problem is that the motive for doing so is entirely transparent. Democrats--and only Democrats--are looking for ways to create new voters,  not develop a platform and convince existing voters of any rational reasons why they should vote one way or another. Democrats have abdicated any intention of playing on a level field and are working hard at ways around the American electorate, and granting voting rights to convicted felons is one of they ways they want to do that. The whole thing should be discounted immediately for that reason alone.",3_Creepio,8o57c,fj3esf0,Why shouldn't someone who paid the price and served their time not be allowed to vote?,fj3drmq,SDgoon,39umj
"This right here. Kids, generally speaking, are dumbasses. And dumbasses vote Democrat. Hence, kids should get to vote. 

Ditto convicted felons. And illegals dependent on the Democrat-supported entitlement quagmire. And dead people. Don’t forget dead people.",3_Creepio,8o57c,fj27jkx,Because 16 year olds thrive on doing dumb shit that they'll regret in 10 years.  That's what it takes to create a socialist country.,fj24taw,AlphaCajun,5jty9sz5
"Right. Better to assume it’s neck and neck the whole way and keep the pressure on, no matter which imbecile they nominate.",3_Creepio,8o57c,fj1ains,Don’t get comfortable. That’s what they said about Hillary winning too. Just make sure to go out and vote,fj18l12,meganmo101,4lijz7ux
"Probably the People’s Democratic Republic of Portland, Oregon.",3_Creepio,8o57c,fj19sbe,What country is that in?,fj190lg,stevefrench707,412o25hp
"Someone beat me to it, and did a better job than I would have.

See top comment above.",3_Creepio,8o57c,fitga9j,Is it? Dont let us hanging,fit9nau,GoblinProfit,39f5xghf
But I heard his husband is.,3_Creepio,8o57c,fitfz4q,He's also not gay.,fitfvt4,DespacitoBandito,15qngnxu
"Could it be that today’s stock market meltdown had less to do with the coronavirus than with so much major manufacturing being outsourced to a communist country that lied about the outbreak for so long that its spread has caused a disruption in the global transactions of goods and services?

Could it be?",3_Creepio,8o57c,fisbgkw,Stay away from FILTHY CHINA and you should be ok!,fis9s0a,Sunfloweragain6873,yxz495c
"Ah, okay. Then I shall updoot.",3_Creepio,8o57c,fis1vk3,The new mods haven't been imposed on us yet. That one's from the half that wasn't purged yet.,firmsqk,BeefyBelisarius,3qjn9gzc
"I was scrolling through like Gandalf this morning. What the hell?

Apparently spez said some butthole comment in an AMA about “upvoting content in quarantined communities” or some bullshit. It set everyone on T_D into an upvoting frenzy.  On top of that they are levying “temporary or permanent suspensions” for upvoting who knows what. Which is just pushing people to post and then upvote as much crazy shit they can think of.

It appears everyone knows the end is near, and this is the Blaze of Glory.",3_Creepio,8o57c,fiqv4z6,I've obviously missed something.  What kind of faggotry has spez unleashed now?,fiqiz92,LaLongueCarabine,bfooc
That whole “One great nation united” and “We are all Americans” thing he keeps talking about must just be a cover for the “truth” that Bernito Sanderlini can see but the rest of us can’t.,3_Creepio,8o57c,fiqjk2f,hahaha Trump is doing that? I hadn't noticed.,fiqi2ey,SisterCovfefe,nla86rn
Cue the Crying Game song for this guy.,3_Creepio,8o57c,fiqbf96,Wtf?????? That's a penis!!!,fiplmk6,Frogs4life908,25p8yefj
"Okay, thanks. I guess I’ll read The Churn and Vital Abyss before season 5 airs, and then Babylon’s Ashes right after I watch like I have been doing.",3_Creepio,8o57c,fiqb4pl,"Judging from a recent tweet from Wes's twitter account, they're \*going there\* with The Churn at the very least.",fiq9bk6,alcaste19,r8mmc
I also upvoted OP.  He deserves some upvote karma. And every single other post in this thread.,3_Creepio,8o57c,fiq6scl,"Interesting point you're making, I'm going to upvote that.",fipx742,TanookiJack,1levr7vj
The part where Slater pulls out a gun in the school cafeteria and starts blasting away pretty much keeps it from being shown on cable TV.,3_Creepio,8o57c,fidngo8,"I've always said that Heathers was way ahead of its time and simultaneously could never be made today. It's a great, weird little movie",ficb9dg,FullOfEels,640lr
Haha thanks. I was starting to think nobody saw that.,3_Creepio,8o57c,fiaakyh,"Wow, just wow ... you have won every prize on earth for the day",fi9y2zd,Hephaestus101,6ncm3
"I don’t think there is anything “healthy” about the Democrat party in its modern incarnation. And it doesn’t do us any good to pretend that there is so that we can go on acting like taking the high road will get us anywhere when dealing with them.  

The new rule is: We win, they lose. If AOC and every dumb thing she says is bad for Democrats, so much the better for us.",3_Creepio,8o57c,fi770tz,The country is healthiest when we have 2 healthy political parties and AOC does not help. I hope she loses the election.,fi71ljl,mstross96,ba525
"She wasn’t drifting, she was parallel parking.",3_Creepio,8o57c,fi7287w,"> How do you know it's a woman driving?

The crash gave it away for me.",fi6zgv2,ORDub,4lc5w
"This is your best bet currently. Delete the Drudge app or any Drudge bookmarks and don’t bother wasting your time with that garbage site ever again. It’s time is over, sadly. Left-wingers bought it out and tried to convert readers by swinging the whole site leftward on the sly. It didn’t work. No one reads it any more. It’s dead and gone.",3_Creepio,8o57c,fi1bayy,[https://bonginoreport.com/](https://bonginoreport.com/),fi1a06s,PressureMaxwell,36kxgcgv
"100% agree with this. The manager and team leaders (guys who are sort of designated spokesmen in the locker room) speak to the press win or lose. That NY sports media spends half their time crapping on athletes and the other half demanding total access from the same guys they have been crapping on is ridiculous. 

I don’t absolutely have to have a quote from Ces about anything, but I do need to stop hearing buttholes in the press complain about not getting one.",3_Creepio,8o57c,fhxyc0n,I'll never be upset with a sports player declining to speak to the media. Sports media is the worst and NY sports media is the worst of the worst,fhxda1v,the_fuzzy_stoner,2z3vx3m
"Of course there will be a correction. You can’t have record growth without. Funny how Trump haters are so eager for it to happen, and hoping it hits in October.

I don’t know if “consistency” should be thrown around as such a good quality when Bernie Sanders has been consistently wrong about everything for his entire life.

And it’s awfully presumptive to tell someone to “read up” on something when you have know idea who you’re talking to. One fact I’ve read is that the term “Democratic Socialism” was coined originally by Vladimir Lenin, and the reason he came up with it is because people were reacting negatively to socialism (with good reason; it’s one of the most *consistent* failures of modern economics). Democratic socialism doesn’t actually exist. It’s a smokescreen used to get dopes to fall into the Marxist trap. 

And unfortunately, it’s still working.",3_Creepio,8o57c,fhqo0nn,"Is the US economy actually thriving though??  Quite a lot of economists predict a pretty bad recession/correction soon.  You should check that out.  The tax plan enacted by Trump benefits the wealthy and corporations.  The average taxpayer will likely end up paying more tax while the wealthy and corporations get breaks leading to an increase in national debt.  On paper it seems wise to make the US an enticing place to ‘repatriate’ the bucks saved.  However we can clearly see this is not what happens with a tiny portion of the reduced tax re-entering the US economy and the rest paying out execs, shareholders or making their way to whatever country/scheme best suits that business.  Makes sense for the business to best benefit the business doesn’t it?  Yep, government waste is a huge issue.  Corruption within the government is also a massive problem that should be addressed.  I know I’m in the wrong place to discuss this thoughtfully - but do you really see the events of the past couple years as a reduction in government waste and corruption...?  I’ve been conservative leaning my entire life but things have quite gotten out of hand.

I don’t understand how you can call Bernie a liar and yet support Trump....like what plane of reality do you live on?  Trump has been openly lying and doing his thing for many decades - this is largely on record for everyone to see.  Bernie has been very consistently on the same message for just as long.  I don’t agree with all of Bernie’s ideas at all - but it’s pretty clear that he has been faithfully and consistently been fighting the same battle for a long time.  In fact, he has been so consistent that pretty nearly every major news outlet has written or presented some commentary about it - for better or worse.  Some pieces see this consistency as a bad thing because people and political ideas should evolve over time instead of staying stubbornly put.  Some see it as a good thing because you always know where he stands and the ideals he stands for are ones which should better the US society overall.  So unless you think every single major news source is part of some massive conspiracy...?  On the converse every single major news source has reported Trump’s inconsistency and blatant untruths with frequency over the past few years:

Please pick up some Smith, Hume or Hobbes and have a look.  This is the core of capitalism.  It benefits the individual to have an intelligent, prosperous, healthy, safe society.  Therefore people pay into and contribute to this ideal through taxes.  Then people choose a government to decide how to logically carry it all out.  I also suggest you read up on what communism, socialism and democratic socialism mean.  These are all going to be used as buzz words by both sides so it seems wise to be able to tell which usage(s) are bullshit.  You’ll need to be able to tell if the GOP or the Dems are the ones actually proposing authoritarian principles.",fhqkkbc,AlbinoWino11,12mkul
"Are you attempting to use capitalism as the means to defend a wealth confiscation plan by a Communist candidate? You must be a Bernie Bro to be plumbing those depths of absurdity.

Did you ever stop and ask yourself “why?” What is the point of raising those or any taxes (besides the fact that the wealthiest Americans already pay an outrageously disproportionate amount of all taxes)?

A thriving high-growth economy benefits everyone, including the federal treasury, but why is it so important that federal tax revenues be increased at all? So they can flutter it away in wasteful pork spending, usually designed to buy votes in swing districts and reward crony contractors and unions for political donations? Fuck all those people and fuck Bernie Sanders. The guy is a lying hypocrite and very likely a psychopath. Any he proposal he makes about anything (it could be about changing the coffee in the senate cloak room, I don’t care) should be shot down immediately.",3_Creepio,8o57c,fhqew09,"No, no, no... it’s definitely not.  Did you even read the proposal...??  How would this be any different philosophically to a decrease/increase in estate tax for example?  And it only applies to the very wealthiest households in the US.  A household with a net worth of $32.5 MILLION sees an increase in tax of $5k per annum.  This is almost nothing.  Pennies.  A household with $10 BILLION or more sees an increase of 8% tax - the maximum allowed by the proposal.  This seems like a completely reasonable amount (all things considered) to pay in support of the society which allowed that household to prosper so enormously.  This obligation to support a prosperous society goes right back to the foundation of capitalism.  Hobbes, Smith, Hume etc. etc. etc.  If you had $32.5 milly you wouldn’t be willing to pay $5k to support/strengthen the society you are a part of?  I think it’s totally reasonable.  As opposed to big tax cuts for super wealthy and corporations while cutting important social program funds to try to balance things out.  You guys voted to Make America Great Again - this is a reasonable and sound way to do it.",fhq5zu6,AlbinoWino11,12mkul
These are the same woketards who celebrate banned books from history. It takes a special kind of dummy to not see such plainly obvious hypocrisy.,3_Creepio,8o57c,fhpmr2r,Banning books were have I seen this before.....,fhpkg4r,GurnBlandsten,1o85aqc8
"Hahaha Pussy Galore! You gotta love that.

I’m pretty sure that’s the name that inspired Alotta Vagina  in Austin Powers.",3_Creepio,8o57c,fhp97ie,"Honor Blackman, aka Pussy Galore, right? What a total - fucking misnomer. I mean, I wouldn't have touched her with yours!",fhori9j,mediarch,i98tp
"Why meet girl in park, when you can park meat in girl.",3_Creepio,8o57c,fhp0dnw,"Learn to masturbate, come in handy",fhozg6s,TX50BMG,pxnfn
"When he’s wrong, which is often, he is spectacularly wrong. But it would be nice if more liberals were not committed to being wrong about everything and applied what little brain power they have left to making some sense of things that are obviously true to the rest of us.",3_Creepio,8o57c,fhoxj1f,"Bill Maher has some horrific views, but I, as a conservative, do agree with him on this...

He takes on the Left in regards to free speech, censorship, cancel culture, and snowflake-ism.",fhowz6w,John-Kreese,55pw4slb
"If they really said that, then I love them for it.",3_Creepio,8o57c,fhoohij,"Because there was a hoax a few days ago, that NASA had told people it was only possible for a day, because of some rare phenomenon.

Obviously not true.",fhooen3,cgg419,w4cwik2
"Gutsy. Good for you. 
Have an upvote.",3_Creepio,8o57c,fhg5771,"The Last Jedi (have fun downvoting me, Sith-heads).",fhg3qod,SquidKingGaGaGa,3g6gia2f
"Oh, hey! My mistake. I assumed from your condescending tone you were that other jerkoff, and I should know better than to assume. Sincere apologies.

I do enjoy “reading comprehension” snark from someone who has such a tenuous grasp of punctuation usage, so thanks for that, though.",3_Creepio,8o57c,fgqmsi3,"two different persons replying to you, id sassily tell you to try and keep up but im suspecting actual reading comprehension problems in play for you at this point. like not trying to put you down, just being serious.",fgqlbk0,PeleAsAComedian,elbsny
"The hell are you talking about? What you posted makes you a crap person no matter how you parse the rhetoric. Honestly your responses are getting funnier and more senseless. Keep going, please!",3_Creepio,8o57c,fgql6k2,"so trumpian. ""i dont care if i misread what you wrote youre still what i said you are. but im also still laughing at you."" hot garbage plus a non sequitur. amazing.",fgqjxo1,PeleAsAComedian,elbsny
"Same here, along with Rattle & Hum, the Unforgettable Fire documentary, the Achtung Baby videos and the Zooropa Sydney VHS. I won’t get rid of them, though.",3_Creepio,8o57c,fgqj7ln,I've got a video of that Red Rocks performance as well but it's a VHS tape and we haven't had a video player since the early 90s! Lol,fgpid4b,DressageDiva2You,4dsjxjgm
"Tearing down things that already exist and which they find “problematic” is their true purpose. Indigenous Peoples Day is the best example; no one objects to having such a holiday, but their effort to supplant Columbus Day and erase “problematic” history is part of The woke agenda.

Just creating new literature to reflect more diversity doesn’t involve enough destruction for these people. Destroying every single thing they don’t like is always the goal.",3_Creepio,8o57c,fgq9h6l,Crazy thought.  Put pen to paper and actually CREATE  new diverse characters  who can tell their important stories and speak truth to power all fucking day long.,fgpqi6a,drsowells1fan,1cfzw05u
"And I said you are typical reddit scum, which you still are. But I'm also still laughing at you.",3_Creepio,8o57c,fgpt0x8,I didn't say you should kill yourself. I asked if you were going to when your cripple kid can't get better because of the people you support.,fgpsotf,azajay,3tdf3
">You think you'll end up killing yourself after you can't afford any of  the medications or treatments for your disabled kid when trump cuts  preexisting conditions?

I appreciate your concern, but I'm laughing at this whole thread just like I'll be laughing at all of you in November.

And the whole ""I don't like your politics so you should kill yourself"" thing just means you are typical reddit scum. If I had a fraction of the anger and bitterness of everyone who is rage downvoting me it might be different, but this is really all pretty hilarious.

Keep those sweet, sweet downvotes coming.",3_Creepio,8o57c,fgpsedn,"You think you'll end up killing yourself after you can't afford any of the medications or treatments for your disabled kid when trump cuts preexisting conditions?

But I bet if you're dumb enough to be a trump supporter, you're dumb enough to believe that he's ACTUALLY fighting for you, hahaha.",fgofgt4,azajay,3tdf3
"I was diagnosed with extranodal marginal zone lymphoma a year ago. It’s cancer of the lymphocytes but not the nodes or any other major organs. It’s one of the slowest moving (indolent) non-benign cancers there is, and it’s suspected that some people live very long lives with it and never even know it.

I only bring this up because it sounds like the lung cancer is the primary concern, and even if he didn’t just slip if/when he said “lymph,” it’s not necessarily something they’re focused on when staring down something worse.",3_Creepio,8o57c,fgnrciw,Rush used the word lymph in his show I think. It was fleeting and he pulled back. I need to listen again. If it’s in the nodes it’s tough. But who knows. Money is no limiting factor. Lots of docs are conservatives.,fgmub7t,Ricksauce,50lnu
Keyser Soze.,3_Creepio,8o57c,fgjw47o,Carmenjello,fgjich2,Bill__DeWahl,57gysbrs
Two fingers. Two scoops. Two terms.,3_Creepio,8o57c,fgjvyr5,"Thats not a peace sign, if I remember right thats piss off.",fgiw1zl,Bludgeoned,aldsy
Fuck Chase Utley.,3_Creepio,8o57c,fgfwual,Wtf did we do to Nebraska to deserve this?,fgefny6,MarcBulldog88,40wbfb7x
"This is important. He can still vote to acquit on Wednesday. So can the other RINOs. It won’t make any of them any better, but it should definitely make them less horrible than they are now.

They can say they voted for witnesses to maintain some sort of “objective impartial neutrality” or some bullshit that plays into Democrat plans, but if they vote to acquit then ultimately it won’t matter. We’ll all still be pissed at them, but the threat they pose will be less than it is right now.",3_Creepio,8o57c,fg6amu1,"Let's see how he will vote for the removal. May still be better than a democrat senator.

At the time I voted for him and McCain. Two sour losers that turns against their party to save face for their inability to win.",fg5icze,kamtsa,cgavt
"That line was ad libbed. If you listen closely, as the scene quickly cuts out, you can hear Mel Brooks cracking up off camera.",3_Creepio,8o57c,fg29tv2,"""Wait! Where are you going? I was gonna make espresso...""",fg27j6d,CapnSmite,gnf4o
I noticed the spirit of O’Reilly looking over his shoulder in OP’s pic.,3_Creepio,8o57c,fg1f3h6,"I love Jesse. He’s great at defending the right and getting to the truth. 

But have you noticed lately, he’s starting to get an O’Riley vibe about him. His delivery, his phrasing, his demeanor, some facial expressions, etc. 

I believe he started out on O’Riley’s show, and may see him as a mentor of sorts, but it’s just something I’ve noticed. Not saying it’s good or bad, just an observation. I used to like O’Riley’s show, actually. 

Wonder if they stay in touch.",fg1dl9m,scotch_brian99,3hrwmf1a
"Yes. I’m a big U2 fan (their music, not their politics) and I remember that his saying this made me smile. And he said it several times. But it was during the Obama years. After Trump’s election and Brexit he has swerved sharply back to the left and hasn’t said anything sensible for a while.",3_Creepio,8o57c,fg1egc2,"Did he actually SAY this? Like ""on tape?"" If so, I'm surprised.",fg10d54,Diche_Bach,lvs5i
Arkancide?,3_Creepio,8o57c,ffx7zcm,"No, he will commit suicide.",ffwgzkq,Zlatan4Ever,15xiv3
"Democrats went from saying “We will never forget” to “We will *make you* forget” in just under two decades.

Fucked in the head.",3_Creepio,8o57c,ffvbyg2,How soon will liberals claim 9/11 attacks did not happen?,fftkjfr,dirty_sanchez69,61aao
"Stopped there when I went to the Masters a couple years ago. I recognized that penny backsplash immediately. Great place, lots of great beer. I have one of those coasters in my collection.",3_Creepio,8o57c,ffruomr, Is this a Flying Saucer?,ffrabus,beerantula,414skvq4
Klondike Bar.,3_Creepio,8o57c,ffnuhil,ICEE is fucking up by not offering him a sponsorship deal just saying,ffmc9ea,Whodatboi69,14ofdn
"Draw or draw not.... Umm, yeah, let’s go with draw not.",3_Creepio,8o57c,ffb2mgx,Do or do not. There is no try.,ff9fdsk,Stars_of_Sirius,1gmjncoc
"My money’s on you, Montana.",3_Creepio,8o57c,ffb172y,"Yeah, but he’d have hit it with his six shooter from the hip on the first try from 20 yards.",ffatt7z,Chunkyisthebest,qn80bem
"The left was full on Bush Derangement Syndrome at the time, so when Katrina hit, Nagin, the late governor Kathleen Blanco, and a bunch of other Louisiana Democrats refused federal aid at a crucial moment so that it wouldn’t look like the evil George W. Bush was coming to their rescue. And Bush didn’t want to be the first president since Lincoln to send federal troops into a state without the approval of the governor, so he waited for them to come to their senses. But by then the damage was done and they blamed Bush for the delay because, you know... *racism!*

And there are still idiot Democrats out there who believe this ridiculous lie, even while Nagin is in prison for embezzling aid funding and Blanco went to her grave playing politics over a disaster that killed her own state’s people.

You’d think the Left would learn from their own stupid mistakes and egregious lies, but nope. As long as the Left-wing press keeps backing up their lies and covering their mistakes...",3_Creepio,8o57c,ff3puu1,"They thought they were going to get him the way they pinned Katrina on Bush despite it mainly being NO folks, mainly Ray Nagin, who were responsible.",ff2vdwz,PantsJihad,9vif7
Killer of Morale in many cases.,3_Creepio,8o57c,ff1vtn2,Kitchen Manager,ff0lhbu,countryboy432,1fhxu7g0
"Yeah that whole paper is crap. So bad they had to fire a ton of people recently. And in a city full of bad sports pages, the Daily News has the worst.

You would think that they would recognize why so many people hate and distrust the news media (including sports media) and try to avoid doing more of it, rather than continually putting out the same garbage that forced everyone to stop reading their smelly fish wrap in the first place. 

But no. The owners, editors and writers who still have jobs at the Daily News find it necessary to offend people with the proof of their stupidity as often as they can, which it turns out is ‘daily.’",3_Creepio,8o57c,ff1uycl,"The Daily News as a whole is awful. Jet fans think the same with Manish.

That paper will go under in a few years and nobody should miss it when it does.",ff1ppps,runninhillbilly,b8rlf
"Also their driving. Canadians are nice and polite in person but absolute dicks on the highway. It’s obviously true of a lot of Americans as well, but if you have ever been driving in the Toronto or Montreal areas, pretty much everyone behind a wheel is a dick.

South Park Edit:  “This is Scott. He’s a dick.”",3_Creepio,8o57c,feneshk,"Huh. So, Canada puts all of its asshole energy into its wildlife.",femqfiu,Player_Slayer_7,8s7a3
He did. His unrequited love for Anna Strong was heartbreaking. His constant struggle to manage his pride and ambition with his desire for a quiet and peaceful life was a perfect amalgamation of the British position in the Revolution. Thinking about this makes me need to start a rewatch.,3_Creepio,8o57c,femzjwk,"""one of the most complex and tragic villains"" seriously this. By the end of the series he was one of my favorite characters. I feel like he actually changed for the better at the end.",femvyt1,_WWG1WGALL_,1gxdayny
"Turn: Washington’s Spies aired 4 seasons on AMC 2014-2017, was one of the best(and most underrated) TV shows of all time. It’s currently available on Netflix (if you haven’t cancelled Netflix because Obama), so check it out.

The pic is Burn Gorman as Major Hewlitt, one of the most complex and tragic villains of modern TV drama. He’s a great actor who most recently played “Murtry” on the new season of The Expanse on Amazon.",3_Creepio,8o57c,femqddc,"Off topic, but I believe this is from the show Turn. I highly recommend it.",fem1g5v,_WWG1WGALL_,1gxdayny
Alonso,3_Creepio,8o57c,felcjwc,Pete,fekvocz,EmersonEsq,8d6ln
This is the right answer.,3_Creepio,8o57c,fe4hqti,"The sports bar in the Marriott downtown for sure!

https://www.shaughnessyspub.com/?scid=bb1a189a-fec3-4d19-a255-54ba596febe2",fe3oezy,Mdumb,i3k21
I became convinced the Nobel was worthless when they gave it to Arafat for being a mass murdering terrorist. Giving it to Barack Hussein for absolutely nothing just made it worse.,3_Creepio,8o57c,fdmzib3,And the Nobel. He got it around the same time Barry Soweto did. So you know it’s good.,fdmdau9,xenophobe51,3bz8q
"The Pulitzer. Twice.

And yeah, he has been wrong about everything, but he says things about the economy that progressive idiots want to hear,  so they love him for it.",3_Creepio,8o57c,fdl7buh,That plus he somehow won a Nobel prize even though he’s been wrong about every single thing,fdl3hkh,iRubGuacOnMyArmpits,1gzlg958
I’m reading his book TRIGGERED right now and it’s freaking great.,3_Creepio,8o57c,fda18ow,"I'm starting to love this man. 

He may as well be the next great POTUS, right after his father.",fd9aw0t,thisguy883,6ryup
"Right on. The more Schiff and these other liars say we can’t talk about something or can’t ask questions about something, they are raising a giant red flag over exactly the thing that MUST be questioned and talked about.

Fitton obviously knows that and zeroes in accordingly.",3_Creepio,8o57c,fd5x6as,"Schiff and the dems want Schiff's talk of a leaker pre-impeachment kangaroo court trials to slide. Nah, we and JW don't forget their bullshit tricks. That nonexistent leaker will expose Schiff's treachery, and hopefully not only him, but all his scheming allies will become incarcerated",fd4equi,frompadgwithH8,tipix
"Don’t forget spending his $65million book deal from the same publisher he awarded a $350million taxpayer funded contract to print shitty Common Core textbooks, while telling everyone else “at some point you’ve made enough money.”

Freaking hypocrite.",3_Creepio,8o57c,fd432xa,He’s busy gettin paid for speaking appearances by the banking industry and other corrupt industries he didn’t do anything to try and fix.,fd3x4sz,DonatedCheese,7r5d5
Cespedes For the Rest of us attempt at “feets of strength.”,3_Creepio,8o57c,fczdgo1,"Sidebar caption contest, go",fcz8gps,see_mohn,j1kby
Seriously. Great Bernie Sanders ad right here.,3_Creepio,8o57c,fcfg9qc,Communism,fcfejmi,isawalther,20rsagfx
Don’t be sofa king picky.,3_Creepio,8o57c,fcf0863,That's two words,fcch2lj,Fat_n_Ugly_Luvr,oorw9
This is exactly what went through my mind. How could we convince them to do this without letting them know we totally want them to do this?,3_Creepio,8o57c,fc6we7f,"Dear Democrats please, please for the love of all that is holy please we are begging you, do this one thing for Republicans.   It’s the only thing we will ever ask of you ever again.  Please. Please make AOC your presidential nominee.   We would be able to run a piece of warm toast against her and win so please please choose her.",fc6vplf,Kirito1917,143cve
Die Farb 2: Die Farber,3_Creepio,8o57c,fc0ftae,"Die Farber, directed by Huan Vu. It was on Amazon Prime as of six months ago when I stumbled across it. Wikipedia tells me there's also a faithful Italian adaptation from 2010, but haven't seen that.",fbzoqg8,bienpeasant,xb4om
"14% voter turnout in a deep blue district, aka Idiotville, NY. Even Pelosi has said a glass of water with a blue D on it could have won AOC’s election, which is hilarious because an inert container of liquid would be smarter and do a better job than this brainless twat.",3_Creepio,8o57c,fbwbxud,This person was elected...?,fbvnok5,therearenogoodmods,4y5vr2ae
HYPOCRATS,3_Creepio,8o57c,fbq7dtt,"Entire Democrat party is some form of a perversion prefix. Pedocrat, Crimocrats, Jihadcrats, Illegalcrats...",fbppvk9,AnalogDevice,te8fs
"Loved Red Eye. The original with the brick background and Bill Schultz and Andy as ombudsman and musical guests. Maybe the best show Fox ever aired. Then it started changing and now it’s gone. I wish it could have moved to a different time slot and lasted forever.

And yeah, Joe DeVito was one of those earlier guests and has always been funny.",3_Creepio,8o57c,fbpjj22,"Joe is based, he was on Red Eye 12 years ago. Not an accidental tweet.",fbp7mcw,mmos35,cswsk
"“I don’t have that information in front of me.”

“That’s beyond my purview.”

“I’m a fuckin liar.”

“No ask more. Me retard.”


—a bunch of Democrats",3_Creepio,8o57c,fbi4agh,"""I don't recall""",fbhpkaj,MNdreaming,33v361so
This is where house training becomes important. You have to feed them a steady diet of reality or else they will just go and shit all over everything.,3_Creepio,8o57c,fbhup2m,"My little pet reminded me of a post from a year ago when I said for certain President Trump would win 2020 because of the behavior of the left and Democrats.  My pet thought President Trump was kicked out of office.

My pet cried when I told him that President Trump was still in office and would remain there.  My pet isn't very bright.",fbgvlq4,grassshrimp,zcp88
"My son was in the NICU for 85 days. Born at 26 weeks, basically skipping the third trimester. 2 pounds 3.7 ounces. He had mild CP and we have to do some intensive therapies to work on his gross motor skills, but at a little over three years old he is happy and hilarious and extraordinarily smart.

I’m glad your NICU experience also had a happy ending, because for a lot of parents it doesn’t.

Abortionists are monsters.",3_Creepio,8o57c,fb3w4zz,"Yeah, I have a totally newfound respect for all the other parents out there who have had to deal with being in the NICU. I’ll definitely never forget the experience.",fb2ur17,NewAcc0untWhoDis_,3fr0cs8i
"Article 2:  Obstruction of the Easter Bunny.

Sure, Christmas and Easter are technically “coequal” holidays, but the Easter Bunny is pissed that Santa exercised his authority as the chief executive of Christmas, and is more popular in doing so. So you know... Peach Mints!",3_Creepio,8o57c,fawyxo7,"Combine that with the Abuse of Power, i.e. using his position as Beloved Xmas Character to carry out (clearly) illegal surveillance: 

*He sees you when you're sleeping*  
*He knows when you're awake*  
*He knows when you've been bad or good* 

And Santa is in big trouble",fav0mdk,Proof_Responsibility,20ylo522
"Interesting point. Let’s apply left-wing logic:

The people plotting the coup wanted the Steele dossier (fabricated from thin air by Bruce Ohr and paid for by Hillary) to be part of the public domain after they used it to illegally lie to the FISA court about its origins. But in order to do that Comey had to (under orders from Brennan and Clapper) inform the president of its existence. Once that was done it was then reported on by some lefty shitrag and voila, it’s public information.

Well hey, once something is made public information, it can’t be unmade, right?

So Eric CIAramella, left-wing operative and deep state swamp rat spy/traitor IS THE WHISTLEBLOWER!

Out of the bag. Can’t go back in.",3_Creepio,8o57c,fajqmeg,"Now it was disclosed in the impeachment hearing, does that mean it's fair game?",faj8gia,WeThePepe,16twvs
"Duck fat! Or at least a mixture of duck fat and regular fryer oil, but the flavor is definitely there.",3_Creepio,8o57c,faid4po,What are they cooked in?,faicvf9,kucao,mnl3p
"Cool. I’m from Upstate New York and have only been there once, but it was memorable and I still have a T-shirt.",3_Creepio,8o57c,faicvmr,"DUDE!! Maine native, came here to say this and can definitely attest to the milkshake.",faibfrj,P5ych0tr0pik,25m1mayi
There is a restaurant in Portland Maine called Duck Fat. Their fries are the best.,3_Creepio,8o57c,fahkr7y,Omg I've never heard of duck fat fries! Im soo gonna look into this! It sounds amazing.,fahea0s,mindfunkie,syo0r
