child_body,child_screen_name,child_user_id,child_tweet_id,parent_body,parent_tweet_id,parent_screen_name,parent_user_id
She probably enjoyed what she did to get that job,6PoolVsTrumpWall,48z3osm9,fkdfumb,To think you work yourself crazy for years to get where you are and a virus calls it kaput. Wild circumstances.,fkbp5ge,Trollbait1313,152ysn
">I may have accidentally touched myself

( ͡° ͜ʖ ͡°)",6PoolVsTrumpWall,48z3osm9,fkdfrf9,"Credit to the photographer, Alessia Bonari (aka alessiabonari_ on Instagram). Per that source (and Google Translate):

> Milan, Italy

> I am a nurse and right now I am facing this medical emergency. I'm afraid too, but not going to go shopping, I'm afraid to go to work. I am afraid because the mask may not adhere well to the face, or I may have accidentally touched myself with dirty gloves, or maybe the lenses do not completely cover my eyes and something may have passed.
I am physically tired because the protective devices are bad, the lab coat makes me sweat and once dressed I can no longer go to the bathroom or drink for six hours. I am psychologically tired, and as are all my colleagues who have been in the same condition for weeks, but this will not prevent us from doing our job as we have always done. I will continue to take care of and take care of my patients, because I am proud and in love with my job. What I ask anyone who is reading this post is not to frustrate the effort we are making, to be selfless, to stay at home and thus protect those who are most fragile. We young people are not immune to coronavirus, we too can get sick, or worse, we can get sick. I can't afford the luxury of going back to my quarantined house, I have to go to work and do my part. You do yours, I ask you please.

> Mar 9, 2020",fkbpycu,Spartan2470,7ose0
I actually did not,6PoolVsTrumpWall,48z3osm9,fitu5dq,"Bruh everyone know who lushux is u don't need to called him ""Australian graffiti artist""",fit39he,QuanTheLegendX,3d5o9ksm
"I see.

&#x200B;

"" A person **can** be **convicted** by **witness testimony alone**. It is up to the attorneys to convince the jury that the **testimony** is true or not. However, it is for the jury to decide **if** they believe the **testimony** or how much weight to give it when deciding guilt on not ""

&#x200B;

&#x200B;

Yikes.... seems like anyone will be charged of rape because everyone always assumes (metoo) that the alleged rapist is guilty. But that's scary since I've had exes say I've been xyz, stretching the truth, after a breakup.",6PoolVsTrumpWall,48z3osm9,fitpofw,"It’s “worthwhile” because in a court of law eye witness testimony is considered direct evidence. You can be convicted with only an eye witness testimony. It is very hard evidence. It sounds like you’re confusing witness testimony with hearsay; it is not the same thing. You are correct that video evidence is also hard evidence, but you’re mistaken that witness testimony is not. I am a trained paralegal, BTW.",fit0q9q,StpdSxyFlndrs,d0wwk
Talking to 12 year olds like Weinstein tooo,6PoolVsTrumpWall,48z3osm9,fisut1v,lol remember earlier when you were pretending not to be a shitposting 12 year old?,fisum4u,Charlie_Rhabdo,5m2nh5i9
"That’s like something Weinstein would say lmao. Bout to testify on you, good luck",6PoolVsTrumpWall,48z3osm9,fisujpw,"Shhh its okay bby.

This is time you could be spending engaging some of the great legal minds here in your unending desire for knowledge.",fisug2f,Charlie_Rhabdo,5m2nh5i9
Why are you saying happened to me?,6PoolVsTrumpWall,48z3osm9,fisuay4,"I'm not a lawyer. Stop pretending that just because I'm not interested in explaining the law to you that it's literally unexplainable. 

You are not as smart as you think you are. I'm sorry this happened to you.",fistn5a,Charlie_Rhabdo,5m2nh5i9
You could have summarized it already. But keep wasting your time. I’m having fun in the pursuit of knawledge. If you’re not then stop.,6PoolVsTrumpWall,48z3osm9,fistjum,">""iM jUsT aSKinG qUestIons""

2/10

You could go to any number of legal subreddits or a library even and ask that same question instead of skulking around here like a bridge troll. But you've mysteriously decided to ask this here. Over and over again. I don't know how much thought you put into this and don't particularly care, but it's not nearly as clever as you've decided it is.",fissxa6,Charlie_Rhabdo,5m2nh5i9
"I’ll take it as a compliment that you think I’ve put so much thought into this. Testimony can be lied about, how is that viable evidence. It’s a fair question.",6PoolVsTrumpWall,48z3osm9,fisspj1,Yes you're asking us to read you a law book basically. Knowing full well that no one is going to do this on reddit. Pretending that this is some great legal mystery because it can't be summed up in a paragraph or two isn't nearly as clever as you think.,fissimu,Charlie_Rhabdo,5m2nh5i9
My IQ is higher than yours. And you're speaking from emotions if you sound so personally attacked.,6PoolVsTrumpWall,48z3osm9,fisr5zw,What are you pretending these words mean?,fismo9k,Charlie_Rhabdo,5m2nh5i9
"Looking forward to 4 more years ;)

&#x200B;

Edit: note how this person refuses to answer my question

Edit2: still no answer",6PoolVsTrumpWall,48z3osm9,fisr2z2,Keep slamming your head against the wall it's a great look. Looking forward to them demodding your entire sub.,fismt30,Charlie_Rhabdo,5m2nh5i9
Yeah how do you prove something from spoken testimony?,6PoolVsTrumpWall,48z3osm9,fislv59,You're wondering how the legal system works? Or is this just another neckbeard fatwa against fAlsE rApE?,fip4l2g,Charlie_Rhabdo,5m2nh5i9
Do you get to choose that? What qualifies you? Doesn’t seem like your response is hard evidence either,6PoolVsTrumpWall,48z3osm9,fisls6p,That's why you aren't a lawyer or in charge of anything important.,fip5721,Charlie_Rhabdo,5m2nh5i9
It’s not as hard as say a video. That is undeniable. What someone says can’t be verified so how is it worthwhile evidence? That’s my question and what I mean by hard evidence. Hope those helps,6PoolVsTrumpWall,48z3osm9,fislp0j,"They literally said they don’t think eye witness testimony is “hard evidence”.

It is legally considered direct evidence.",fip5pj7,StpdSxyFlndrs,d0wwk
Triggered!,6PoolVsTrumpWall,48z3osm9,fiqt5uu,Fuck her,fiqoz39,NEEWAW6,4mfmsmor
Ok coomer,6PoolVsTrumpWall,48z3osm9,fiqes6s,Ok boomer.,fiqblk3,vitoscaletta4life,586i842h
Isn't that just spoken word though? Doesn't seem like hard (no pun intended) evidence.,6PoolVsTrumpWall,48z3osm9,fip4jqx,Testimony.,fip44rg,TheElaris,14ivq4
"It’s that if he wins the election is guaranteed. I know I’m pushing the Bernie joke everywhere I go until final election.

Also he’s now trumps canary. To attack him on Russia you have to go through sanders first thanks to the deep state",6PoolVsTrumpWall,48z3osm9,fikq1cs,I feel like he pushes burnie so much. He’s gotta know something we don’t.,fii4ddm,Timonaut,4mudl
Thanks,6PoolVsTrumpWall,48z3osm9,fij5v20,You're Dumb.,fiiysrd,Foxacker,17i5ab
"Ipd wasn’t bad for me, higher refresh rate is nice for sure. I would say if you have to scrape for it it’s not better but if you occasionally treat yourself then definitely",6PoolVsTrumpWall,48z3osm9,fij5tqd,What about the adjustable IPD and higher refresh rate?,fiinoi5,SupperSwaggDude,1tsbveaa
There’s enough information to casually fix thatt... they’re dumb,6PoolVsTrumpWall,48z3osm9,ficjk9i,"Dumb sounds harsh. They're:

Naive

Impressionable

Ignorant",fiasled,PressureMaxwell,36kxgcgv
I said what I meant,6PoolVsTrumpWall,48z3osm9,ficiwqx,r/ihadastroke ?,fi8g1th,deleteduser2006,40wq3gdv
So they'd meet the demand. Like right now how there isn't a supply? Lack of supply is lost money. Theyre 50% more on ebay. Only they could make way more in america at that price,6PoolVsTrumpWall,48z3osm9,ficdr3j,Because they'd cost way more to make and the higher cost (especially if its twice its current price) means alot less would be sold. Why would Valve spend the money to produce the same amount of product when they have to spend way more and sell way less?,fic9gxq,metaxzero,g28t1
Why would there be less produced?,6PoolVsTrumpWall,48z3osm9,fic93vy,"If they were all made in the US, there'd be a lot less product produced and alot less sold due to the higher cost.  Hardly anything would change.",fic8oof,metaxzero,g28t1
So? Don’t be a broke boi,6PoolVsTrumpWall,48z3osm9,fia9d7w,But it would be at least twice the price.,fia8vek,Pulverdings,bd1ubox
 [https://www.youtube.com/watch?v=-zkLXhFMKRg&t=1](https://www.youtube.com/watch?v=-zkLXhFMKRg&t=1),6PoolVsTrumpWall,48z3osm9,fi9epin,"This might be a dumb question but why is the virus causing such a massive halt on production, isn’t the virus just a more dangerous type of common cold. Again sorry if this is a dumb question I’m just a bit curious",fi8vcza,error_code9081,2d4j1rd6
Coofer,6PoolVsTrumpWall,48z3osm9,fi71uub,*cough*,fi6573o,xenophobe51,3bz8q
Really need to meme that white women are racist against minorities. It’s 100% true,6PoolVsTrumpWall,48z3osm9,fi2n7vc,"I love this because, historically, white women are the most privileged class of people on the planet. We need to increasingly highlight the hypocrisy of the whole “muh woman’s oppression” movement being majority white women from the west.",fi22g3d,REEE_WUZ_KINGz,67zj6hk
"It’s only funny for losers though bro, seriously I’m trying to help... I mean it looks well done so there’s that",6PoolVsTrumpWall,48z3osm9,fi2j673,"I'm sorry, I forgot that you're the funny police",fi2iop4,coromd,e81w2
"Nah, sorry but this is not edgy just sad. Just doing you the favor of pointing it out",6PoolVsTrumpWall,48z3osm9,fi2ikd6,Get outta here with that bullshit,fi1qpk9,coromd,e81w2
We all have our standards,6PoolVsTrumpWall,48z3osm9,fhxo6r2,Really? Performance tests telling me it’s fine...,fhxkmvf,jvgwrites,kqsgga3
He always kills it with his “keys get serious” Schlick,6PoolVsTrumpWall,48z3osm9,fhjy3vr,Yeah no. They’re all pretty funny. I’d say G. Morgan Jr. is the least funny but that’s kinda his thing.,fhjgz2m,kadmc14,kon87
"Once it comes out that butt gig is gay, he will have 0% of the black vote, and a lot of other minorities",6PoolVsTrumpWall,48z3osm9,fhijbyd,Buttigeg has no chance. Mark my words; it's going to be Sanders.,fhh2a95,PteFC,5ccma29b
If it's legal than go ahead. It's also legal to defend yourself. Better wear a neck brace to prevent it from happening if I don't want it to happen. :D... or wear a gun,6PoolVsTrumpWall,48z3osm9,fhhspzb,"But... you’re dressed like you want to be throttled by your skinny, pretty, little neck... I feel like I’m being invited to strangle you...",fhhsjov,Jollybeard99,99qwt
"The dude is smiling and looking at her. It sounds and looks like a troll. Look at his face when he says it.  That, my friend, is a killshot

It's as if you said something untrue about becky because you wanna get back at her for another reason. Or when you get mad at your boyfriend for something that isn't even the reason you're mad at him for.",6PoolVsTrumpWall,48z3osm9,fhhs5sf,"“Dress like a whore, get looked at like a whore” 


There are no assumptions. He made his motives crystal clear.",fhhrlgu,Jollybeard99,99qwt
"> No, not every guy does it.

Most do

>Sexualizing strangers is not normal

Who said it's sexual? I stare more at bad clothing choices, not some caveman desire like you're describing",6PoolVsTrumpWall,48z3osm9,fhhrtnp,"No, not every guy does it. Sexualizing strangers is not normal, getting stared at is not normal for anybody. Who even says that woman was dressed up for other people to look at her and not because she just wanted to look nice? Is it automatically she's trying to fuck instead of giving a damn about her appearance? 

You should probably stop checking out girl's asses by the way, creep.",fhhqhsp,Saltiren,agvhe
"No, that would be illegal and I value my life. Nice save",6PoolVsTrumpWall,48z3osm9,fhhrl7g,I got this one. You don’t get to determine why someone is dressed that way. If I saw you and decided to throttle your fucking neck because of how you were dressed... I would imagine you’d be fine with it?,fhhrf3n,Jollybeard99,99qwt
He/she/xir can;t even,6PoolVsTrumpWall,48z3osm9,fhhpjv6,"nah i'm done, have fun with this though.",fhhpc9w,theDanantenna,242rzpoi
"That's my point. You can't possibly defend ""a creep"", you'd vote for Joe Biden though lmao. ""my fee fees are right!"" You don't understand how you think",6PoolVsTrumpWall,48z3osm9,fhho2pu,That's rich coming from someone defending a creep,fhhnutt,isitweirdthatilike,1cg1due
Wrong. You're judging HIM based off of assumptions. I'm saying you can't quite judge the man yet. Try again,6PoolVsTrumpWall,48z3osm9,fhhnzdm,You're basing everything you're saying off assumptions. Assumptions are inherently incorrect. There ya go. Next time ask your mom.,fhhnsru,theDanantenna,242rzpoi
"You can't. Your a ""feelings"" person lol",6PoolVsTrumpWall,48z3osm9,fhhnhoi,Nope.,fhhn4yl,theDanantenna,242rzpoi
If so can you explain how?,6PoolVsTrumpWall,48z3osm9,fhhn1cn,That's not how any of this works.,fhhmo2v,theDanantenna,242rzpoi
"That could have been because she was being a bitch though. I mean how many times have you checked out some chicks ass. Every guy does it. EVEN GIRLS DO IT. I don't know if it was a glance or he was zero-ing in with rape-gaze. The fact that the mom was there makes  me imagine he looked down for like a second. Now the guy is a douche for saying that but he was trying to just save his ego a little bit.

&#x200B;

And anyway, he said ""dress like a whore, you should look at a whore"". What he means is if you dress to be looked at you're gonna be looked at which is kinda low key a fair play",6PoolVsTrumpWall,48z3osm9,fhhkypl,"I was thinking, ""hold on, there's not really any evidence he was actually being a creep"" then he opened his mouth.",fhh6933,dietcepheus,11alwt
I had no idea trump said it,6PoolVsTrumpWall,48z3osm9,fhgsvfx,Schlonged lol I forgot about that one 😂,fhgk4uc,hildoditler,zu0ay
This is social brainwashing,6PoolVsTrumpWall,48z3osm9,fh86091,"It's not worth it in this case. None of them will see him again, and the potential for a risky encounter are too high.",fh7fig2,alliknowis,9jt80
"The impact of all this in economic downtime is estimated half a trillion dollars. Not a huge deal? What? And that’s what whistle blowers do. They blow the whistle because China wouldn’t give that , my safe assumption based off the numbers they want to hide. Like those in the ten cent leak which are 5x higher

Where in China do your friends live? Surely it is not in the epicenter of wuhan",6PoolVsTrumpWall,48z3osm9,fgx8r2k,"I also have friends, 2 of whom live in China. They are just chilling at home through this. Nothing crazy to report, just people bored at home somewhat afraid to go out for supplies. 

Also, I don't trust china's official numbers and reports , but the virus is not just in China. We are not seeing healthy people pass out on the streets or any of the crazy stuff being reported from anonymous sources in China. It is infectious, it is a worse than normal flu that sucks to get through, and if you are elderly or have other issues then you have a much higher chance to die than the normal flu. It causes very bad pneumonia which often requires oxygen to get through the worst of, so in poor areas, or in an epicenter like Wuhan where they likely ran out of o2, then the death rate is going to be higher than what most places should expect to see. 

For the facilities being built, we are talking about a few thousand extra beds available, not nearly to the scale of the hundreds of thousands reported to be sick. This is again more or less in line with what would be needed for an appropriate response in scale with the official numbers. And they are temp units, so no, they are not going to come with full power and plumbing. It's going to be a crappy place to crash for 2 weeks for people to need to be away from the general population. And when this is over, the hospital will likely be torn down. 

Now, is the Chinese government (especially local governments) going to abuse the situation to disappear weigers and other ""undesirables""? Oh, i don't doubt that one bit. Will they use this as an excuse to abuse power? Yup. That is how the 5% of communist leaders keep in power over the masses. But if it was the worst case scenario like many on the internet want people to believe, then we would see more evidence of it in the free world that already has it.

For the whistle-blower doctor who died yesterday. The guy is not exactly a Saint in all this. He was in trouble for spreading rumors instead of reporting his findings through official channels. There is a lab in Wuhan specifically made to study viruses like these, and there is no report that he tried to contact them and was denied. Instead he just told the people under him to be careful because he thought he might see something, and got a reprimand for it... As he would in the US too. This is a lot of drama for something that should not be a huge deal.",fgtl4x4,AlemCalypso,15kw8i3q
lOL,6PoolVsTrumpWall,48z3osm9,fgx1qde,Joe Biden. Dentures protruding. Very frightful.,fgv55jr,milkhotdog,fuwf0
He dind't start yelling back until he started white knighting. Did you watch the video?,6PoolVsTrumpWall,48z3osm9,fguqcdb,I disagree. If someone is yelling at someone but hes yelling in your ear. Are you going to just sit their and not say anything?,fgt85zi,Gingerchaun,gbj40
Sounds like China needs more rednecks so communism didn’t happen there,6PoolVsTrumpWall,48z3osm9,fgu90vb,People vastly overestimate how gun crazy rednecks are.,fgtgm2v,TheBigDogAteMyAss,3m69yla0
The woman in the video disagrees with you.  She says we all know the roles. It may not be law but it’s how people behave.,6PoolVsTrumpWall,48z3osm9,fgu8ku5,"Guy is white knighting, sure, but there are no rules in the subway. You wait 15 minutes or five seconds, if you can get through the door first you get a seat. Anyone yelling on the train, opens themselves up to reprisal from anyone else in the surrounding area.",fgt5k5p,WeDigRecords,ouavz
"He took up arms over some girl , wasn’t even asked. That’s literally the definition of a white knight.",6PoolVsTrumpWall,48z3osm9,fgt5a3n,I dont think hes a white knight. Just a guy being annoyed by some guy.,fgt4p6p,Gingerchaun,gbj40
"Your second paragraph is why I know they’re full of shit. The original whistleblower doctor is dead. He was visited by the police for spreading rumors. They have full blown death camp quarantine zones. No medical equipment or medicines. Just people to die in. They don’t even have toilets in these places. It’s like playing the sims in real life. They go in a room, not enough beds. Sleep on the floor til dead. There are tons of videos of this stuff.

I have no idea why you have so much faith in media organizations whos number one priority is their narrative. They’re run by journalists, generally not honest nor smart people, you can watch videos , primary sources and come to your own conclusions.

And rednecks would be the safe zones keeping people out, not letting people in. The Chinese are lyi about illness to get out of China because they know they’ll be quarantine and die. People are saying they’d rather die at home than go to quarantine",6PoolVsTrumpWall,48z3osm9,fgt0eeh,"Really? I was thinking just the opposite. If the US tried to lock down a major city we would have rednecks fighting the national guard to get out and end up spreading it further.
Life in China is no picnic, but their response at first was equal to the threat. The local government was slow, but the national government made good steps in a timely manner for the information they had available. As the more came out about how much it spread, they upped their game appropriately. They sequenced and shared the virus info with the world quickly. They have been working pretty well with other governments to evacuate their citizens... I mean, I can't think of anything really wrong that they have done with the info provided.

That said, if the awful rumors of tens of thousands being dead, and people fainting on the streets, etc turn out to be true... Well then that would be another matter entirely. But as of right now those are rumors, uploaded by anonymous sources, with no proof of when the videos were taken or if the audio has been redubbed. If it really is that bad, we will know in a few weeks. But cases outside of China are not showing anything that dramatic, so I think we are good.",fgszzhl,AlemCalypso,15kw8i3q
"They’re mostly Bernie supporters. The type of people that will encounter some obviously fake or lie, and the good feelings that they feel when seeing/hearing something  blinds them to reality",6PoolVsTrumpWall,48z3osm9,fgpcegm,The amount of people that think this is real is mind boggling.,fgoil1y,Fsticks69,1z61gs2q
He already apologized so w.e,6PoolVsTrumpWall,48z3osm9,fglq4ka,"> Didn’t even occur to me, nice projection though.

Ah the classics ""no u"". Very mature like your first comment,  You're on a roll!",fgla1kh,the_abortionat0r,12v9gn
"Didn’t even occur to me, nice projection though.",6PoolVsTrumpWall,48z3osm9,fgl9u05,"> yeah sorry, should’ve added morr

Don't apologize, that guys just being an ass because he found out you have a boyfriend.",fgl8z1l,the_abortionat0r,12v9gn
They just say “rayzizm” and the functional part of their brain just stops.,6PoolVsTrumpWall,48z3osm9,fgixyyx,"> It's an issue both sides can agree on

Doubt",fgit569,xkulp8,kcxez
Rap,6PoolVsTrumpWall,48z3osm9,fgh2j4l,">\>The next day, he does it again and she doesn't even put up a fight, because she remembers what happened to her last time. Is this suddenly consentual? Or is it still rape?

>no

No to which part? Is it consensual or rape the second time?",fggczd6,LimpCush,fp1w1
"\>The next day, he does it again and she doesn't even put up a fight, because she remembers what happened to her last time. Is this suddenly consentual? Or is it still rape?

&#x200B;

no

\> Or are you only talking about the very specific situation where someone has already consented to something, then they let it happen? 

&#x200B;

Well yeah, one someone says ""let it happen"" it implies that consent was given. It'like if I said yeah ""I had sex with that person"". It implies that there was consent.",6PoolVsTrumpWall,48z3osm9,fggbtyy,"Nice little goal post ninja edit there. You're just making up the rules as you go, huh? Pretty soon, you'll just be saying ""consent is consent, duh!"" So what exactly does ""letting someone do it"" mean to you? Not offering any resistance?

What if someone rapes a woman and she resists, but he beats the shit out of her? To you, that's non consentual, correct?

The next day, he does it again and she doesn't even put up a fight, because she remembers what happened to her last time. Is this suddenly consentual? Or is it still rape?

Or are you only talking about the very specific situation where someone has already consented to something, then they let it happen? Well yeah, nobody is arguing with you there. So why make the point? And why generalize it to say that every single time you let something happen, it's consent? That's easily disprovable.",fgg2rqt,LimpCush,fp1w1
"Nope, someone that is screaming ""no no no no"" is not letting you do something. Even if they don't move",6PoolVsTrumpWall,48z3osm9,fgg0ymd,"Yeah, which directly invalidates your previous comment that:

>If someone let's you do something it's consensual tho...",fgg0vtk,LimpCush,fp1w1
"> You never directly answered the question: What if a woman doesn't stop her rapist, under threat of her life? Is that suddenly consent?


No, duh!

But that's also her not letting him do it. It doesn't counteract what I'm saying. Letting is not ""only physical"" just like consent is not ""only physical""",6PoolVsTrumpWall,48z3osm9,fgg0oz5,"You're just using circular logic here.

You never directly answered the question: What if a woman doesn't stop her rapist, under threat of her life? Is that suddenly consent?

There is a clear example disproving your statement that letting something happen is the same as consent. But you just keep repeating yourself, like a robot programmed to respond. It's so black and white, devoid of all nuance, because you just can't admit that you got this one wrong. Too proud.",fgg003x,LimpCush,fp1w1
The person says “a woman being raped”. Someone bei raped isn’t letting someone do something,6PoolVsTrumpWall,48z3osm9,fgfz4cw,"Lmfao do you honestly not see what you're saying?

You say consent is given if you let something happen. OP gives you a clear example where that's not the case. Then, you retort by making fun of gender studies. They respond in kind and you say they never made an argument.

Are you literally that fucking stupid, or are you pulling my leg right now? Because damn, you make a convincing idiot. Is this the best Trump supporters can come up with? Making fun of gender studies then calling people names? Now that's what I call facts and logic!",fgfwfot,LimpCush,fp1w1
Straight to fantasy land and can't even argue what you're trying to say?,6PoolVsTrumpWall,48z3osm9,fgfhe6g,Enjoy your future sexual assault conviction.,fgfh7na,Psychogopher,1215kp
"A toddler could see the failure in logic of ""they let him "" and it simultaneously being ""not consented"" so yeah I agree",6PoolVsTrumpWall,48z3osm9,fgfh71k,"You’re wasting your time, you might as well be arguing with a toddler",fgetq8y,KingDerivative,2mxz58on
"If someone lets you do something it's consent, regardless of your worthless gender studies classes are unscientifically and illogically claiming",6PoolVsTrumpWall,48z3osm9,fgfh4on,"That’s not even true lmao. For example,  a woman is being raped and doesn’t try to escape out of fear of being killed. That’s not consent, not even close.

It’s an extreme example, but I think you’ll find the same logic applies to less extreme situations (like fearing for your career by saying no when a rich and powerful man starts touching).",fger29p,Psychogopher,1215kp
"Dude he's probably like in the 6th grade. relaz, look at that tiny desk",6PoolVsTrumpWall,48z3osm9,fg0j0oh,Cringe.,fg0ggb8,smokythebear205,4wbul9k1
It's actually respective of the change of culture. Kids are very open and welcoming these days/ millenials/boomers are self-centered assholes and exclusive.,6PoolVsTrumpWall,48z3osm9,fg0fbt8,"Aw, why was this in tiktok cringe? It’s sweet",fg08wz5,HLHaynes,3pto7kbb
"Amazing! and you use 3ds, any thoughs on CREO? i just installed it. What did you do to overlay and blend the text?",6PoolVsTrumpWall,48z3osm9,fg04hkp,"You want a tutorial video ?

Edit :

There you go [it's pizza time](https://www.youtube.com/watch?v=QyHGBLL_Nbs). (WARNING: Do not expect a serious or good tutorial)",ffx8yha,Osdias,34bw0vgz
"Did you tell anyone you were going to do this? She may have avoided, which is fine. There are more.",6PoolVsTrumpWall,48z3osm9,fg02muq,I will I have gym 1st period and so does she so I’ll ask her then because she didn’t show up to breakfast,ffzm1mj,Sadiesmydog,4lpfol95
But he's a trump supporter,6PoolVsTrumpWall,48z3osm9,ffzwn53,Never mess with a man in overalls.,ffz0x8i,SurvivorDress,13zzbc
"Well, he’s trying",6PoolVsTrumpWall,48z3osm9,ffxeatp,Fantastic dad.,ffv3y0n,BartlebyX,8yg40
That would be pretty sick. I’d like to show some projects the same way,6PoolVsTrumpWall,48z3osm9,ffxaip9,"You want a tutorial video ?

Edit :

There you go [it's pizza time](https://www.youtube.com/watch?v=QyHGBLL_Nbs). (WARNING: Do not expect a serious or good tutorial)",ffx8yha,Osdias,34bw0vgz
"which mod has the favorite button built in? I have asked like 10x, nobody knows or answers",6PoolVsTrumpWall,48z3osm9,ffx83ng,Mine was working perfectly last time I think that was an issue on your side,ffx81e2,TheAlpacaGuy,12u7d0ke
have they fixed the favorites button and tab? My mods didnt have it the last time i updtaed,6PoolVsTrumpWall,48z3osm9,ffx70ap,Should exist automatically if not run IPA.exe,ffx3jmv,TheAlpacaGuy,12u7d0ke
"Does the new ""plugins"" folder already exist or do you have to do something to get it there again.",6PoolVsTrumpWall,48z3osm9,ffwxjmk,"Your old mods will work perfectly fine. They will all be in a folder called ""old 1.6.2 plugins"" just drag them into the new ""plugins"" folder. 

I think the only one that might be broken is Scoresaber, which should be updated in the ModAssistant shortly! :)",ffwstug,Mawntee,6eyp7
At least it's entertaining and not spent on soft drink and candy.,6PoolVsTrumpWall,48z3osm9,ffwro98,This fight was sponsored by our taxes,ffwcb6w,fyodor_do,48dbt9x6
They took 4 minutes to arrive at a helicopter crash site with Kobe Bryant,6PoolVsTrumpWall,48z3osm9,ffs2j9b,What are you talking about?,ffrmagc,My_Lucid_Dreams,22alownk
I literally just said dont give bernie money. what is political about that? Others brought politics into it.,6PoolVsTrumpWall,48z3osm9,ffr9e4m,"Noone asked your annoying ass a thing
This is a politics free sub",ffr6tbp,MrShockJockey,2oyv8jeg
RRRREEEEEEEEEEEEEEEEEEEEEEEEE,6PoolVsTrumpWall,48z3osm9,ffqnwql,"You talking about Trump? He fits the definition ever so well. Taking money from foreign entities an all. 

God why am I talking about politics on a meme page. With a Fascist of all people.",ffqnv2e,DolphTheDolphin_,1i656xz
"Ever wonder why the fake news attacks him? They asked him to support their guys, and he did not. Thus the huge takedown attempt and he is suddenly a nazi. Check out all his trump references. He's a centipede. You're calling me a nationalist why he calls his country a bunch of cucks. He cares about his cucked nation to bring awareness to it.",6PoolVsTrumpWall,48z3osm9,ffqmzx6,No he obviously isn’t. This subreddit isn’t an ethnostate you Nationalist. The more you talk the faster you get downvoted into oblivion.,ffqmvkh,DolphTheDolphin_,1i656xz
triggering and resulting mass downvotes,6PoolVsTrumpWall,48z3osm9,ffqmv6j,Good Lord what did I just witness??,ffqmfzs,appearslarger,2lg9mrrc
Pewds politics irrelevant for meme content on pewds meme subreddit,6PoolVsTrumpWall,48z3osm9,ffqmkp4,he doesn't even live in the US so that would be irrelevant if he is or isn't,ffqmfpp,AaronM203,3ho292n2
It’s not a political opinion to ask a rich beggar to go away,6PoolVsTrumpWall,48z3osm9,ffqmhcn,"Look, he’s trying to talk about his political opinion on a meme page",ffqmfgb,Kentalope,2a1tsb7x
"Since you can’t read between the lines, pdp obviously a trump supporter. Get out of this sub if you’re not",6PoolVsTrumpWall,48z3osm9,ffqm50t,Go back to r/The_Donald pls,ffqlrat,AaronM203,3ho292n2
"That’s where you’re wrong, kiddo

He’s always asking for more money",6PoolVsTrumpWall,48z3osm9,ffqlohl,Noone asked,ffqlcjt,MrShockJockey,2oyv8jeg
How fix?,6PoolVsTrumpWall,48z3osm9,ffqhlte,Yes.,ffojok8,ASadPotatu,obf8j3y
Instagram?,6PoolVsTrumpWall,48z3osm9,ffqhk4m,I cant use IG on nord..,ffprdpb,Mattnesiumm,a8d1qjk
So do I need this to torrent fast?,6PoolVsTrumpWall,48z3osm9,ffohw7k,That's cus nord doesn't provide portforwarding.,ffns18b,ASadPotatu,obf8j3y
"It's working now, but yes that's what I meant.",6PoolVsTrumpWall,48z3osm9,ffn31k7,Up speeds as in you can't seed?,ffn2mol,KZedUK,b4arq
exponential growth. CHina is fucked,6PoolVsTrumpWall,48z3osm9,ffkhz1r,"Live map of the virus

Source - Johns Hopkins University’s Center for Systems Science and Engineering

https://gisanddata.maps.arcgis.com/apps/opsdashboard/index.html#/bda7594740fd40299423467b48e9ecf6

Edit: source",ffhc99b,PM_ME_THY_BEST_MEMES,3rzk0272
She’s gonna sit and scream knowing the right way of doing it? She’s even more useless than I thought,6PoolVsTrumpWall,48z3osm9,ffc0vea,He did fuck all too. Those were shit chest compressions that did nothing to help the dog. Of course the dog's owner would freak out if as far as she knew her dog just dropped dead,ff9xr8t,pocketindian,xz89d
To put them in direct line of fire and crush them,6PoolVsTrumpWall,48z3osm9,feyv2c7,Why do we want Bernie to get the nomination? Did no one see the staffer video? Those people are clinically insane.,fevjdeq,Teddy_Bear_Junction,17b56y
Same lol,6PoolVsTrumpWall,48z3osm9,fes9u0r,"I just had support ask me to provide this info without telling me where to look for it, lmao. Shitty support guy.",fepol5b,Tostecles,dn7yc
"How did you get them to do that? Oh wait I did a return, maybe that y",6PoolVsTrumpWall,48z3osm9,feko555,"Valve paid for mine, the least I could do was decorate it :)",fekifla,flibidy,3qb9s30n
Dang I shipped mine for $13 in a shoebox,6PoolVsTrumpWall,48z3osm9,fekianz,"Mate,

 it's DHL, 
pre authed,
recorded,
back to dealer, 
prepaid. 

You get a receipt when you drop it off and it's scanned on delivery. 

It's not being shipped by some no name, to the back streets of some shanti town, on the wrong side of the tracks :s

Besides all of that...... it's broken.",fejy06r,flibidy,3qb9s30n
Oh I use index,6PoolVsTrumpWall,48z3osm9,fejxdvx,Switch controllers?,fejvo6h,FouinyJoe,11lttcq
Is that an option?,6PoolVsTrumpWall,48z3osm9,fejv3ux,"Imagine using the red saber in your right hand

This post was made by the left handed gang",fejo08k,King-Archdemon,1799cn
"Good thing your vote doesn't matter because the superdelegates will choose biden, warren or hillary. Only your vote for trump matters. Superdelegates interfere with your elections. But I'm sure you'll ignore this invonvenient truth because it hurts

&#x200B;

And by the way, look at what you said and the topic of this post. The irony lol",6PoolVsTrumpWall,48z3osm9,fejsscl,"Is that a question? If so, no I didn't.  If it's an answer to my question then get fucked. I would sooner vote for actual dogshit.",feil1k6,tnydnceronthehighway,cpv3l
People do see but then they \*bzzztttt\* ORANGE MAN BAD,6PoolVsTrumpWall,48z3osm9,feh16r8,How people can't see through this endless manipulation leading people where msm wants them to go...it's just unbelievable to me.,fegi1hw,DAR1776,127xis
"When is someone not killing someone, I’m still right",6PoolVsTrumpWall,48z3osm9,feeuy49,An infant was murdered by his father and you think that it’s appropriate to bring feminism into this?,feetvfi,just_a_blond,2wkt6ma4
"I’m saying it’s a good thing that the guy got punched in the face, which is toxic masculinity- something hated by feminists",6PoolVsTrumpWall,48z3osm9,fedz6rg,You're just saying the world would be a better place where this kind of stuff didn't happen if women were inferior to men?,fedyqwm,FireShooters,3hfzsyvl
Stop inserting your bias and actual read what I said. What I said doesn't involve the guy who killed his son.,6PoolVsTrumpWall,48z3osm9,fedy8m8,What? So you are blaming a *guy* killing his infant son on women fighting for female rights? I seriously see **zero** correlation here..?,fedvh4f,FireShooters,3hfzsyvl
