child_body,child_screen_name,child_user_id,child_tweet_id,parent_body,parent_tweet_id,parent_screen_name,parent_user_id
"Someone on here did make an interesting point a while back, though—the chair(s) were, in fact, a huge issue. The Foundation has no real way to contain it. They can’t stop it from teleporting, it has massive range, and they can’t track it. They got lucky that it ended up in a form that they can make feel useful in a specific, contained area, but it works because it’s constant; it’s *always* helpful to have the mulch in that spot. The previous criteria, “anyone that needs a seat” is so much less constant and predictable. Add on that there were something like five of these that teleported around together before the GOC caught them, and that cute little chair may just have been what broke the veil.",Atigerwithlaserbeams,jof97,fl6budq,"""Some anomalies clearly deserve to be destroyed, keeping them around serves no purpose and is much more dangerous""

""BUT THE CHAIR""",fl5b1su,user_48217,14qyen
">Or they will be shot for crimes against humanity.

The Foundation doesn’t fuck around.",Atigerwithlaserbeams,jof97,fl5vm5b,"It's a bit cliché, I'm sure, but I always find myself coming back to the [Ethics Committee Orientation](http://www.scp-wiki.net/ethics-committee-orientation) to read it every now and then. It's one of the first tales for the site in general, and also one of the most popular. It's not lengthy and gets straight to the point, concisely telling you pretty much everything you need to know about how the Foundation operates at its core:

""Keep the world safe, by whatever means necessary.""",fky69jv,MinersLoveGames,eopo5
You’re on r/misleadingthumbnails. The point of the sub is to post things with a title that describes what they look like in the thumbnail of the post.,Atigerwithlaserbeams,jof97,fl59oob,"The title is complete garbage. Makes no sense. Either way, wtf",fl57qt0,nigliazzo5626,103fbc
"What about the ones like Doctor Faucci, who said Trump has been doing a good job? I guess he doesn’t count anymore.

You know, it’s funny—a while back, I read an interesting article about preparedness for disease outbreaks like this one. (It was written in 2017 or 2018, I think, nothing to do with WuFlu specifically, but I did read it in around when this was getting big-ish). It was actually pretty good and interesting, but it couldn’t resist playing politics and stuck some absurd fear-mongering in about “who knows if Trump would trust the experts in a time of crisis.” In particular, it mentioned Faucci and another guy by name as best-of-the-best experts that the author was concerned Trump wouldn’t consult.

The very day after I read it, Trump’s Coronavirus Task Force had its first press conference, and who were the leading members? Faucci and the other guy.",Atigerwithlaserbeams,jof97,fl58d8m,">Please, for the love of god, start believing experts over politicians again

But I thought politicians were experts on every topic and knew what was best for us?",fl43m5v,mbarland,1jhf09f8
I wouldn't put it past them.,Atigerwithlaserbeams,jof97,fl4c8nz,"Can’t wait for the team’s newest members, a black hero calling himself “The N-Word” and a Hungarian prostitute calling herself “Slut.”",fl4be1n,Lukundra,101gm6
"Let’s be honest: you’re completely right. There’s not really a great defense for this—I can think of a few, but they’re weak. Rowling’s world is fun and charming and a good story, but it’s not, by any means, a particularly well fleshed-out setting. Which I think is okay, it’s good enough not to break the story at first glance, but it’s just not one of the strengths of the world she made.",Atigerwithlaserbeams,jof97,fl4bsdp,"Sure but what about muggle borns and half bloods? 

You can’t seriously think at least one guy wouldn’t want a nice secure government job keeping in tune with what the muggles are doing",fl42mxz,Cloudhwk,g64gg
"I agree. Silverback absolutely can and should be powercreeped—that’s what Stonehill Defender and Tar Creeper were, and they were good, solid cards that were not broken on their own. (Tortollan got bad with Odd Paladin, but that’s not his fault).",Atigerwithlaserbeams,jof97,fl3crpp,People don’t seem to understand that making and objectively better version of a god awful card isn’t really power creep,fj6ckzd,Pillowpet123,fqiif11
"[Slow effects are a common mage ability, and exist in WoW](https://wow.gamepedia.com/Slow). So the class is right. The name is okay, considering that Silence is already taken for something else. It’s a control card, so it fits in mage, and the art is supposed to be someone running in slow motion.

I agree that it’s a little dull, but not everything can be or should be a super unique design—there’s space for pack filler and tech cards as well. 

It may be a little subpar, but it’s definitely not material for this sub, I’d say.",Atigerwithlaserbeams,jof97,fl3ckp1,"We all know that. So? Does it somehow justify the fact that the Name, Art, Class, and Effect of the card has NO connection with one another at all?

Also, this is supposed to be a ""custom"" card, not a direct copy of an existing card with little changes. In other words, this card is a tad too uninspiring.",fjfm4ej,Spirit-of-Depression,53rcaztz
"Apparently, I am ruled over by auto-moderator.",Atigerwithlaserbeams,jof97,fl33feg,"""To learn who rules over you, simply find out who you are not allowed to criticize""",fl2vvgo,EnycmaPie,2o9j1dc
"Ah. Well then, we have a fundamental philosophical difference. I think that it’s an important part of the characters, and should not be changed. I find it fundamentally disrespectful, both to the characters themselves, and to the creators of characters who have passed on or lost the rights to their creations.",Atigerwithlaserbeams,jof97,fl30nq2,Yes. They be fictional.,fl2xzu9,PAWG-fest,5mh66auw
"It doesn’t really belong with the rest, in my opinion. “L” “G” and “B” are all a very specific thing concerning someone’s attraction to their own gender (and in the case of “B,” the opposite as well). “T” is totally different—it’s independent of who you’re attracted to, and has to do with wanting to change your entire biological identity. In my opinion, it just sort of got “tacked on” by the magic of intersectionality to ride the success of a movement to which it is tangentially related at best.",Atigerwithlaserbeams,jof97,fl30gxh,where did t go,fl2z26s,NameThatsIt,rl941
"I was gonna say, that sounds like something that would cause serious damage.",Atigerwithlaserbeams,jof97,fl2mfct,"If you believe Madonna Sean Penn tied her to a chair and beat her with a baseball bat while they were together.

Weird how that little tidbit has been memory holed.  Or I suppose Madonna could be lying...

Guess why the media won't bring that one up.

EDIT: I actually looked up out of curiosity, seems she later admitted she lied about it.",fl2dc0k,TerpenoidTester,3p39xb5u
Are you saying Bill Gates is Thanos?,Atigerwithlaserbeams,jof97,fl2hno8,"Here's something to consider:

Over a decade ago, I dated someone who worked with Jeff Bezos. One of the interesting stories that she told me, was that Bezos was deeply worried about the future of the planet. His motivation in life was not to make money, it was to *literally save the human race.*

At the time, that seemed paranoid and far fetched to me, and I thought that maybe it was a tall tale. But over the years, Bezos has confirmed what my friend told me:

https://www.vanityfair.com/news/2019/06/jeff-bezos-wants-to-move-industry-to-space-to-save-the-earth

*""Discussing his company’s push for space exploration, the Amazon and Blue Origin founder told a crowd that shifting heavy industry away from Earth in future generations would be essential to saving the planet. “The reason we go to space, in my view, is to save the Earth,” Bezos said.""*

Elon Musk is clearly of a similar mindset; the point of Tesla isn't to make money, it's to save the environment.

If this makes sense, then some of the outlandish things attributed to Bill Gates start to make sense. [His Dad was a board member of Planned Parenthood.](https://en.wikipedia.org/wiki/Bill_Gates_Sr.) Planned Parenthood clearly has a 'eugenicist' history. If you really and truly believed that the earth is doomed, there are only three viable solutions:

3) Get the planet to move off of fossil fuels. Good luck with that, Elon.

2) Get humans onto other planets. That's a heck of a goal Bezos.

1) It's a bitter pill, but arguably the most viable way to save the planet is to wipe out a lot of people. It sucks, it's macabre, but it's true. With everyone quarantined this week, we're already seeing a reducing in C02 emissions, air travel, car usage, etc.

That last solution may seem completely bonkers. But keep in mind that humankind doesn't need a thousand years to solve problems #1 and #2. In 100-200 years, we will probably figure out how to stop using fossil fuels, to a great extent. Getting people off the planet in a major way will certainly require innovation in fusion, and that's a tough one. Maybe in 100-300 years.  Perhaps Gates believes that he can 'buy' the planet a hundred years.",fl18ten,Not_My_Real_Acct_,16gn93
"In fairness, if I were LGB, I might want to have an idea about the size of my potential dating pool.",Atigerwithlaserbeams,jof97,fl2f5tj,That's why I always respond with prefer not to say or even straight. If a university wants to be inclusive and welcoming to LGBT than they can do that by being inclusive and welcoming.,fl251bb,elsinovae,4q2iq1fr
"As well there should be—race swaps are just stupid. I’m assuming Dawson will have the full makeover though, since Ashoka is less human-looking.",Atigerwithlaserbeams,jof97,fl1vmp2,I mean if they do what they did with Starfire in Titans I can guarantee you there will be backlash from people lol,fl1v8pj,FrizedreedStrawberry,58jqdw80
"No, I think that her confrontation with Vader was a good end to her arc, and it nicely settles the question of “why isn’t she in the rebellion.”

But it should have stayed the end.",Atigerwithlaserbeams,jof97,fl1vgo1,I knew Dave would start shoehorning his favorite OCs into Mando just like he did on Rebels. She did nothing on Rebels and was completely wasted. Wonder if that'll happen again. I hope he doesn't use this show to continue Rebels' storylines it should be it's own thing,fl1ku9i,ElectricOyster,1pxe5pr1
"No he’s not. If he was saying “this is a personal attack on me,” that would be speaking for himself. When he says “this is homophobia,” he’s saying Animal Crossing is so universally important to gay people that this should be construed as a deliberate attack on them.",Atigerwithlaserbeams,jof97,fl1gneb,"Well to be fair, pretty sure that dude is gay, so he is just speaking for himself",fl0fr4v,Turpekus,1wbrende
"So, if I give someone $100 and say ""hey, buy me something that you think is fun,"" and they show up with a bag of crack, I did something illegal?",Atigerwithlaserbeams,jof97,fl0yxaw,"> Except almost all of these senators, dems and republicans, probably had no role in the sell off since their investments are usually handled by a third party broker.

I could give a flying fuck about that. Of course the laws are made to protect their illegal activities.",fl0wr1w,Jasoncsmelski,6geng
"Except, she did actually endorse him. Obviously, yes, she did not get assimilated into the borg collective, but she did endorse him.",Atigerwithlaserbeams,jof97,fl03fmk,Obvious satire. Joe can't string three sentences together and still remember where he is.,fkzhtb1,Looking4Sophie,2m45ep3z
"Terracougha Army, Sirachoo, Lung pao Sicken, Chopsick, Black Pepper Death, The Great Whoop of China 

(Credit to the Babylon Bee for those).",Atigerwithlaserbeams,jof97,fl02knx,It's either Chinese Virus or Kung Flu. Make your choice. Also? Fuck China.,fkyigdb,Foreverperfect81,3qqw9lu7
RIP AND TEAR,Atigerwithlaserbeams,jof97,fkzxzwe,i hear death metal screaming in my head when i look at this picture wtf,fkywj6h,TheBadGuy-99,3uu80ujy
"Man, Diablo is gonna get *fucked up.*",Atigerwithlaserbeams,jof97,fkzxz2d,Diablo x doom,fkzegao,Zule202,hdmdvt2
"Might not be CCP shills, might just be average Democrats. Or even Eurocucks. 

Sad, really.",Atigerwithlaserbeams,jof97,fkzj7bn,"I've been seeing replies on Twitter, from what I am assuming are CCP sockpuppet accounts, spreading disinfo that China and the WHO ""fully briefed"" the Trump Admin on the Wuhan virus back in December, and he ignored them.

This despite the WHO tweeting the above in *January* that it wasn't spreading, while China was disappearing whistleblowers. Oh, and Trump convening his (""too white & too male"") Coronavirus Task Force in January at the exact same time that the impeachment hearings were happening.",fkze8xl,wewd,5p576
"I really, really cannot picture Will Smith as Neo. The characters he usually plays are completely different. For all we know, a version with him in it would be terrible.",Atigerwithlaserbeams,jof97,fkxu42m,"No, the only mistake is Will Smith turning down the matrix in order to film this travesty.",fkw0xbp,geoffp82,3gx2o
Except that would actually be good.,Atigerwithlaserbeams,jof97,fkxcdlk,Kung Fury 2?,fkwyhvg,UristMcUselessNoble,yls8h
"Yeah, sure, but there’s so few of them (relatively speaking) and anything on reddit is just preaching to the choir.",Atigerwithlaserbeams,jof97,fkx58mx,Fuck antivaxers tho,fkv43qy,jjjjjjjjjdjjjjjjj,1j9xumxp
They actually sound more self-deprecating to me. I’m not really seeing condescension in the examples OP gave. Could you elaborate on why you see it that way?,Atigerwithlaserbeams,jof97,fkwm98e,"Her comments may not be overtly mean, but they sure are condescending.",fkvs1jy,Neutrum,6na9e
"In Luke’s case, they’re actually worse.",Atigerwithlaserbeams,jof97,fkw9e6v,"Yeah. I felt like I was taking crazy pills when that movie came out.

""Star Wars fans wanted something new, and when TLJ does that, they still don't like it. They're impossible to please.""

and

""TLJ was new and creative, and it was hated on by the fanbase. Star Wars fans therefore hate new and creative movies.""

I still see comments like those occasionally. It wasn't much less of a rehash than TFA. By ""something new"", they mean they don't want to see one last Jedi facing off the empire with a small rebellion again. The old characters should have grown as people since we saw them 30 years ago, but they're still the very same they were at the beginning of ANH.",fkv4s76,Syn7axError,6lstg
"Ministry of Truth is 1984, though.",Atigerwithlaserbeams,jof97,fkvp8zb,Or Harry Potter. The number of ministry of truth references that are made on /politics daily make me want to unread Harry Potter.,fkv13eu,Tweetledeedle,14koh3fq
"And then gets massively downvoted and quickly removed, that’s when we *know* it’s a hate sub!",Atigerwithlaserbeams,jof97,fkvoyf8,"No, no, no. That's not how it works. You see, when someone posts a no-no on lefty subs and they get dozens of upvotes and have been posted many hours ago; you need to understand, that moderating is hard and it's inevitable that something will slip through the cracks .

Now when a disliked comment inciting violence against cops is made by a day old account on TD, which is filled with people who are pro-police on the other hand...",fkvjtos,CreepyPsycho,160vt8
"I wonder if he'll get any positive recognition for it from some of the leftist sites—the left likes to hold Romney up as a ""principled conservative"" these days, now that he's openly folded in pretty much every way. Far cry from when he was a misogynist, racist monster in 2012. I can see them going something like: ""A look back at before Trump; when the GOP was still looking out for the working class.""

It would be a little more harsh toward Republicans than that, though.",Atigerwithlaserbeams,jof97,fkux99m,"Funny thing too is that Romney was one of the earliest politicians suggesting this kind of pay.

Also funny that Obamacare is actually a repackaged Romneycare yet everyone seems to want to conveniently forget that fact (or some naive people actually don't know)",fkulw7o,Shippoyasha,5bdkh
"Thanks to having spent several hours of the past couple weeks reading through almost the declasses, I recognized where this is from.",Atigerwithlaserbeams,jof97,fkubgl6,you could cut the tension in this comment section with a ~~knife~~ KNIFE,fks6kvc,PootisPencer6,8xkcv
It’s not for subject matter; they make lots and lots of jokes about Padme and young Anakin—one of the common reposts over there is a joke about Anakin killing the Jedi younglings to “take out the competition.”,Atigerwithlaserbeams,jof97,fku5i19,"Could it be the fact that it depicts statutory rape? Genuinely asking, I don’t know what their rules are",fktbadf,Ryanious,4lgt8q29
"If anything fakes “symbols compromised,” wouldn’t that have to mean that it’s compromised the symbols?",Atigerwithlaserbeams,jof97,fktzd1p,Symbols Compromised always messes with my head because 5hen like what if that symbol is fake and it's all just a lie,fkt9agi,ChristmasMaster8907,10rq74yk
Urban Dictionary had “Trumpvirus” then “Maralagovirus” then “Down in the Trumps” as their “urban word of the day” three days in a row this week. These people are just sad.,Atigerwithlaserbeams,jof97,fksnby5,"Weird that this wasn't an issue for them until they could use it as an anti-Trump wedge, like everything else to do with their politics since he came down the escalator in 2015.",fkshi4g,MarioLopezGymSocks,o454bwd
I can hear this being said unironically.,Atigerwithlaserbeams,jof97,fksn52u,Spaniards caught it deliberately to spread it to their colonized brown serfs overseas.,fkskgx2,somercet,a2gnn
"It has some similarities in terms of symptoms, though.",Atigerwithlaserbeams,jof97,fksmffx,"Good effort, but this isn’t the flu.",fksgxks,humanprogression,2k1n3cgx
You’ve confused “censure” with “censor.”,Atigerwithlaserbeams,jof97,fksm1vt,"Totally agree. That is why I am not trying to censor others. I want them to be completely unhindered in their desire to post their racism!

(Thanks Atigerwithlaserbeams!)",fkslqie,usistoast,13vxmy
They may have just not been paying attention to autocorrect.,Atigerwithlaserbeams,jof97,fks0d6z,"True, but i don't think i should trust a statement starting with ""ducking""",fkrs7b7,blumask01,3asfl10l
"Of course, *Endgame* had proper build-up. It was the culmination of a story that knew where it was going and patiently wove together a whole shit-ton of threads to get there.

Hell, the phrase “Avengers, assemble,” specifically, has almost sixty *years* of history to it. There were people talking about if/when there would be that moment from the announcement of the very first *Avengers* film. 

This, on the other hand, is the DT. So... basically the opposite of all that.",Atigerwithlaserbeams,jof97,fkrygxv,"absolutely an intentional copy

JJ wanted the horses in space scene to be the new 'Cap says 'avengers assemble'' moment from Endgame

There's a whole behind the scenes film about how they were building an expensive set to film it",fkm9a0s,globaljustin,dx97d
"Yoda says it in The Phantom Menace during Qui-Gonn’s funeral. “Always two there are, a master and an apprentice.”",Atigerwithlaserbeams,jof97,fkrx57e,Is the Rule of Two even canon anymore?,fkrosqf,TCFNationalBank,2yloiblv
"Did we see the same movie?

You saw how that *one* medium-sized ship carved a hole right through the *giant* First Order flagship, right? In a conventional battle, you’d need a whole fleet to do the kind of damage she did, and you’d certainly lose more than one ship doing it.

As for fuel, it’s only as much fuel as any given jump to hyperspace—in fact, the fleet being nearly *out* of fuel at that point was a major plot point, remember?",Atigerwithlaserbeams,jof97,fkrwff0,The reason they don't hyperspace ram anything is because it would be a complete waste of materials and fuel.,fkrodmr,BobTheBobber45,5t1lt92w
"But you can literally see her tweet embedded in the article, and they link to the collection of live updates that they (correctly) say disproves it. They sourced every claim that this post is using their articles to back up, and so are a completely valid source for this post.

But sure, whine ""bad source"" about something that's clearly true because you don't have any real arguments.",Atigerwithlaserbeams,jof97,fkrkit4,You rail on fake news but then use the Washington Examiner and The Federalist as sources...the cognitive dissonance is astounding.,fkrf460,MickCormc,13fom8br
"Clearly, she aborted the first one to focus on her career. The five year-old is the second try.",Atigerwithlaserbeams,jof97,fkratbg,"It was actually OK, the millennial actually became happy with a little construction company he started in 1919 and the girl had a singing career in 2019 apparently.  There was one really strange thing...and it makes me think they recut the story.  The time travel occurred when these storms happened and you were in the basement of this old house.  These storms were rare one was in 1919 and one in 2019, but a news broadcast said due to climate change (more woke) they were more frequent and expected another in 15 years...at one point the guy travels to our future and sees the girl and his 5 year old son, but there is a poster for one of the woman's concerts saying 2034...which is 15 years after 2019...aka time for the next storm.  But it doesn't jive because she would have arrived in 2019 pregnant...she would not have had the guys 5 year old son in 2034.",fkjuyfh,The_Nameless_Bard,4ka7vt8r
"Holy shit, that’s amazing.",Atigerwithlaserbeams,jof97,fkr3rn6,"Titania McGrath:
https://www.youtube.com/watch?v=K7ia6SLz204&feature=youtu.be

The man is a legend. Check out [The Independent Article](https://twitter.com/TitaniaMcGrath/status/1204801099892477952?ref_src=twsrc%5Etfw%7Ctwcamp%5Etweetembed%7Ctwterm%5E1204801099892477952&ref_url=https%3A%2F%2Fthepostmillennial.com%2F) he spoofed.",fkqoxf1,droidproductions,4i25vujg
"Nah, they’ve been moving that way since ‘08 at least, and realistically much longer, just more slowly.

Trump just kicked it into overdrive/tore the mask off.",Atigerwithlaserbeams,jof97,fkptxma,It’s almost like the Democratic Party has totally turned into a far left party since Trump won the election,fkpljsi,AKF790,4qr53t3m
Pure spite,Atigerwithlaserbeams,jof97,fkoyhtb,"Our dm tried a ""die and retry"" run. With traps and everything. He was cocky about ""you will fall in the same trap again and again because you can't remember all the trap"" we played one night. One year ago and i still remember all the traps and i was reciting it to him 7month ago and he was amazed about the details and everything. I don't kniw why the fuck my brain remember this",fkovt73,Monsieurtitouan,77p3v6v
">Normally it is more about making the battle look cool [...] not really to be used as feats

Well that’s really weak logic; the goal of every comic, first and foremost, is to tell a fun story. There’s no reason that this applies less here than it does to *literally every ~~comic~~ fictional fight and feat.* 

That’s why we even have the “outlier” concept, and at this point, I’d say that “Monitor/Antimonitor/similar brings tend to react as if S-Tiers can at least cause them some degree of physical pain” is not an outlier by any means.",Atigerwithlaserbeams,jof97,fkok8hg,"It really depends, the Gentry for exemple are pure metanarrative entity's. One of them was hurt by comments saying that his design was awful. So the flow of the story is a weapon that dictates when they can be hurt. 

For the more really in universe guys; I read COIE a long time ago, but as far as I remember the only things that really hurt Anti-Monitor were the Specter powered by all of DC magicians, some Lex supertech and that Darkseid weapon at the end. And when he was full power only enhanced Specter could affect him. 

Normally it is more about making the battle cool when this high dimensional begins are show affectd by the supers. Not really to be used as feats. 

My rule of thumb is if the character is fine in the next page and nothing comes from as result of the attack in the storie, then it didn't meant much.",fkojekl,KaydanMagdi,aqjyme6
"Right, but she’s the token “conservative,” like how Ana Navarro is a “conservative” voice for CNN.",Atigerwithlaserbeams,jof97,fkog7ww,"I don't think I've seen her say anything even moderately centrist, much less right-of-center. I know she likes Biden, but that man is **not** a centrist.",fkodqnq,Mahanaus,4ung5
"I think he’s saying that in this version, “up” wouldn’t be the problem—coordinating the ships so they don’t crash into each other would.",Atigerwithlaserbeams,jof97,fko8xko,"https://youtu.be/6FEEd2Bdris?t=177

You don't need an AI to find **UP**.",fkmra0w,PenXSword,eh8tc
"It’s a good use of the quote, and yet I wish that you hadn’t reminded me about that movie.",Atigerwithlaserbeams,jof97,fko6ts1,Amazing. Every word of what you just said was wrong.,fkl508v,HuntressArtemis83,4b8e52wn
"My favorite theory is the one where Obi-Wan wins *as long as there is a relevant difference in elevation.*

Think about it: the final blows in his victories over Grievous, Anakin, and Maul all came when elevation was a consideration—he had high ground over Anakin, and low ground against the other two.^1

By contrast, his defeats (Dooku twice, and when Vader killed him) all occur when both combatants are on a level plane

-- - 



^1 if you want to go with the “Anakin takes the high ground” interpretation, then by the same token, Obi-Wan takes it when he flips over Maul in TPM.",Atigerwithlaserbeams,jof97,fko3epo,"The secret is that Obi Wan actually has the low ground. Saying that he has the high ground taunts Anakin into trying to have it, which leaves him open to getting hit in mid-air.

Similarly in OT, Darth Vader says 'Obi Wan has taught you well' to Luke sarcastically as he knows that being on the high ground leaves you vulnerable to an attack from under.

If you think about it, Palpatine also takes out Mace Windu by taking the low ground as it leaves Windu vulnerable to getting pushed off by force lightning.

Again, obvious if you pay attention to who had the low ground in the Obi Wan vs General Grievous fight. Upon noticing that being on level ground with Obi Wan wasn't working out, Grievous fled downwards, slowly gaining the low ground. It even worked out for him as Obi Wan lost his lightsaber while making chase. It becomes equal again when the ground was no longer a slope and in their final struggle, Grievous would occasionally get knocked down only to have a clear opening to kick Obi Wan. It wasn't until Obi Wan had the low ground while hanging on the ledge that he eventually managed to beat Grievous using the blaster.

If that still wasn't enough, in the fight where Anakin cuts both of Dooku's hands, Anakin cuts upwards from beneath, surprising Dooku and further proving that taking the low ground gives you, the upper's hand.

He uses this latter trick once more against his son, allowing him to cut off Luke's arm. However, seeing that Luke now had the lower ground he proceeds to play it safe by revealing that he was his father and giving him an offer instead. Having the low ground here, Luke obviously escapes.",fkmv744,GPAD9,19ubt4lt
"The joke is that PETA kills almost all of its animals, and chocolate kills dogs. The Bernie part is just typical reddit.",Atigerwithlaserbeams,jof97,fknqna3,"Bo Burnham actually has funny jokes, not this anti-humor ""haha randumb"" shit from 200X-201X",fknn8tp,Zero_the_Unicorn,g0c2e
"But the situation we’re discussing is one in which they have to decide who gets critical care and who dies, because they’re over capacity.

If this is an acceptable standard for choosing who to treat in an instance where the resources to care for everyone exist, and the only rule is “you can’t leave someone to die because of it,” how much faith should I really have that it will remain an unacceptable standard for deciding how to ration limited resources?",Atigerwithlaserbeams,jof97,fkno4fw,"That only applies to non critical care I,e, not ventilation.",fkn02d3,cad_an,p3cioa0
"Off the top of my head, I know that a bunch of dumb people (like the ADL, of “Pepe is racist” fame) decided that acknowledging that the Coronavirus came from China is racist. So that could be why, or part of why.",Atigerwithlaserbeams,jof97,fknm4pn,Why is it quarantined?,fkn2rmt,Hadtocreateanewalt,47x4plr0
" If you're on some mobile apps and don't get it because it doesn't show you everything you need to see: It's a crosspost, but the app doesn't handle it correctly and just shows you the image when you need the title of the original post (""Despite the movie being named 'Avengers: Age of Ultron,' the film does not actually reveal the age of ultron"") to get the joke.

 If you're not having that problem, and just don't get the joke: It's just a shitpost, they're talking about his literal age. At no point does anyone say something like ""Ultron is [X] years old."" The original sub is /r/shittymoviedetails, which exists to mock the plethora of posts on /r/MoviesDetails that are from dumb people posting really obvious things and clear plot points as though they are subtle details that they've just picked up on. Hence, the joke in the original post is twofold—first, that that's clearly not what ""age"" means, and, second, that the movie actually does tell you his age, because his creation is what causes the events of the movie.",Atigerwithlaserbeams,jof97,fklvztz,I don't get it...,fklrrjh,Mrdude000,9aex0
"If you're on some mobile apps and don't get it because it doesn't show you everything you need to see: It's a crosspost, but the app doesn't handle it correctly and just shows you the image when you need the title of the original post (""Despite the movie being named 'Avengers: Age of Ultron,' the film does not actually reveal the age of ultron"") to get the joke. 

If you're not having that problem, and just don't get the joke: It's just a shitpost, they're talking about his literal age. At no point does anyone say something like ""Ultron is [X] years old."" The original sub is /r/shittymoviedetails, which exists to mock the plethora of posts on /r/MoviesDetails that are from dumb people posting *really obvious things* and *clear plot points* as though they are subtle details that they've just picked up on. Hence, the joke in the original post is twofold—first, that that's clearly not what ""age"" means, and, second, that the movie actually does tell you his age, because his creation is what causes the events of the movie.",Atigerwithlaserbeams,jof97,fklvx76,Same. Someone please explain.,fkltuj5,Sahlmos,hgk24
"Or even worse, that issues are complicated in such a way that people I agree with on most things, may not agree with me on everything, or may sometimes be wrong themselves.",Atigerwithlaserbeams,jof97,fklocer,Anything else would mean that I was wrong about something.,fklekbb,bananastanding,d62fj
"I think the jets use fuel—if I remember right, he douses some super battle droids in it to ignite them in ROTS—so he probably saves them for emergencies.",Atigerwithlaserbeams,jof97,fklo27o,"Once again, wasting his rocket legs",fkkf4ml,klumsy-jedi,4rk4wiuf
"I think the jets use fuel—if I remember right, he douses some super battle droids in it to ignite them in ROTS—so he probably saves them for emergencies.",Atigerwithlaserbeams,jof97,fklnzr4,Yeah in clone wars he did that for steps why he didn’t here idk.,fkke2wg,Elite2260,4gpyx9x6
"Side note: it’s crazy to me how such relatively tiny alterations in internal temperature can be a really bad sign for us, while at the same time, with proper medical care, we can potentially survive shit like losing both our legs or recover from extreme dehydration. We’re simultaneously incredibly robust and ridiculously fragile.",Atigerwithlaserbeams,jof97,fklnizu,LOL. Dude is such a smooth brain he doesn’t even know standard human body temp and says the journalist at home had readings of 96.5. That’s borderline hypothermic.,fkk83qw,Sour_Badger,jnk3z
"Yeah, but that’s not against the rules, it’s directly related to a major ongoing news story, and it’s well-argued.",Atigerwithlaserbeams,jof97,fklimpz,This is not News. This is a piece of opinion.,fkk0fj7,MunichBavaria,zqfoy
Didn’t Poe tell them about it over a comm channel when they got back to the fleet?,Atigerwithlaserbeams,jof97,fklhzcy,"For me ist's been the moment where Benicio Del Toro (I don't remember the character's name) knew everything about the Resistance's escape plan and told everything to the First Order. How could he? Not even Finn and Rose knew and they're the only resistance members he met, only admiral pink hairs knew",fklc70h,MikuFag101,3e8fw28y
"Yeah! What if he has a bunch of back door deals, and [what if Trump refuses to leave office, and then what if he grows fifty feet tall and shoots lasers out of his eyes?](https://babylonbee.com/news/op-ed-what-if-trump-wont-leave-office-and-grows-fifty-feet-tall-and-shoots-lasers-out-of-his-eyes)",Atigerwithlaserbeams,jof97,fkl4u6h,"Uh, really? We don’t know what back door deals he has with dictators that he is so fond of.",fkkjyb9,catmeowstoomany,10hqm2
"Who, Bernie or Biden?",Atigerwithlaserbeams,jof97,fkl3vqg,"he's making points with his response to the wuhan flu pandemic - of the three (donnie, joe, bernie), he's the only one that seems to have his head on straight and is willing to engage",fkl398t,StabbyPants,4x1ha
General Grievous is still unimpressed.,Atigerwithlaserbeams,jof97,fkkv7iu,The Rey-incarnation of Reynakin Skypalpatine will use THREE lightsabers this time.,fkjlag4,AntiFarkRedditor88,10pybc
"Not thinking we should cater to immigrants is racist now, sorry",Atigerwithlaserbeams,jof97,fkjgte2,"I want any immigrants coming into the U.S. to speak English because I want them to not be absolutely helpless and be able to defend/stand up for themselves in this country. They don't even need to be 100% fluent or capable of doing a 3 hour speech in front of a crowd, just enough so they can function and live a comfortable life.

I learned the language out of necessity when I first came to the country, and holy shit did it help my life when I started moving onto major responsibilities.",fkjgaj2,kfms6741,c1ddg
This may very well be the only time I support a policy that relies heavily on “CIA.”,Atigerwithlaserbeams,jof97,fkjfia4,"Please, let’s MCIA. Make China irrelevant again.",fkiptyp,lefty295,zm21o
"Right, sure, that’s *totally* in line with the facts and not completely divorced from reality.",Atigerwithlaserbeams,jof97,fkjd951,"Hey Trumpster ass, you know that Suckerberg is a big fan of your fuhrer, don't you?",fkifmrk,seethruyou,9p51t
"Bernie isn’t a good candidate in a general, either; it isn’t like they’re turning down a win by cucking him. And frankly, even if they had *genuinely good* candidates, they’d *still* have a hard fight against Trump. The only votes they really have locked in are the TDS crowd, which is going to vote Dem whichever one it is.

No, with the bench they have, and the popularity Trump has, the Dems pretty much have to cheat to win. And since neither Biden nor Bernie could likely win legitimately/really attract much more than the rabid TDS voters, that means they either have “cheat in a senile puppet” or “cheat in a commie that might shake the boat a bit.” 

Once you look at it that way, the choice is clear.",Atigerwithlaserbeams,jof97,fkjcjds,"I really can't understand the DNC right now. It seems to me that they really *would* rather lose than allow Bernie to win. 

They might get lucky with the damage covid19 is doing but otherwise Biden is an even worse candidate than Hillary.",fkjb4bz,Beginning_End,5eu6p
"“So... normal, then?”

“Yeah, I feel fine.”",Atigerwithlaserbeams,jof97,fkj9km5,"""are you okay, Colin?""

""I'm rabid... *For tiddies*""",fkik6oo,Veldron,efxee
"Oh my god, what if *I’m* patient zero!",Atigerwithlaserbeams,jof97,fkj9il7,"""But you have been pale and have had red hair your entire life!""",fkics6j,russtykatz,13fijs
"Except that one ""assumption"" came with a large degree of proof linked, whereas *your* ""assumption"" is not only bereft of any evidence provided, but in direct opposition to the evidence the other guy gave.

Don't pretend that they have equal levels of validity, because they very clearly don't.",Atigerwithlaserbeams,jof97,fkj6vsf,"That's an assumption. Mine is another one.   
Perhaps the posts weren't deleted because of substance, but because poster and voters matched a pattern or fingerprint.",fkfk5fq,koproller,7aiwf
"I like how they don’t even tell you which post it was. Makes it real nice for them how,

A) you can’t challenge them on anything like “that post didn’t break any rules,” or other little technicalities, and 

B) if you want to take the warning seriously, you have to stop upvoting anything that you even think might upset them at all.",Atigerwithlaserbeams,jof97,fkj2pnp,"LOL, ""don't upvote stuff we don't like.""",fkha7it,jlenoconel,mr17k
“Indian Giver” > “Elizabeth Warren” is the one that made me laugh out loud in public.,Atigerwithlaserbeams,jof97,fkj2gm5,">terracougha army

Someone help, i can't find my sides",fkiyeir,kingarthas2,4b3vx
"Look, it can be good and still be inferior to *real* bacon, right?",Atigerwithlaserbeams,jof97,fkj2bb2,I will not stand for the insult to Canadian bacon. That shit is the bomb on pizza.,fkizh7y,telios87,h344k
I am so completely and totally surprised to learn that. Really.,Atigerwithlaserbeams,jof97,fkim0wx,There used to be a subreddit r/strangestatistics that did this. The admins banned it.,fkh9ly3,DizzyNobody,3ui7ogke
"To steal some others I’ve seen, in this three and elsewhere:

Wuflu

Wuhan Flu

Kung Flu

CCPlague

Flu Manchu

Fluhan",Atigerwithlaserbeams,jof97,fkhs8k9,"Well then I'm def not going to stop calling it Wuhan Flu.  Period.

Ebola Reston. Ebola Zaire.   (Zaire?  That shit's not even a country anymore.)  Wuhan flu.  Stop trying to control people's language.

Are the people from Wuhan a race?  It doesn't make an ounce of sense.  It's not a stereotype.   
 It's not a generalization.  It came from there.  Calling it ""Kung flu"" would be all i would grant them.  Slightly racist.  Don't care.  Funny.",fkg1xhc,wallace321,7py15
"Yeah, but if that’s the *only* evidence, it could be coincidence.

I’m not saying it *couldn’t* be a Commie fuckup, just that as far as I know, it also *could be* a bat or whatever. “Eating raw bat” certainly sounds like a plausible explanation to me—that’s basically how we got AIDS and H1N1, right?",Atigerwithlaserbeams,jof97,fkhrdbn,"Oh, this is for sure a research lab thing. Considering the only Lvl 4 biolab in China was in Wuhan, like less than a mile from the wet market... yeah.",fkhqyfd,i_am_not_mike_fiore,74870
"I’ve heard about the nearby lab and everything, but I can’t say I’ve seen compelling evidence one way or another, diseased bat vs Commie fuckup. Can you fill me in?",Atigerwithlaserbeams,jof97,fkhqzwf,"ADL was originally founded by B'nai B'rith to defend a pedophile of Jewish origin, Leo Frank. This organization has never been about any truth.

It is factual to call it the wuhan virus because this virus originated from Wuhan, China.

The evidence also shows that it is quite likely that this is a bioweapon made by China that was released.

Fuck the bullshit that it is racist or anti-semitic.",fkfiwyp,OneTruePhilosoraptor,1axe5a4p
The effort to which they’re going to deflect is the most convincing argument I see for “someone fucked up in a research lab” over “someone ate the wrong food.”,Atigerwithlaserbeams,jof97,fkhqqwz,"The CCP is trying ***really*** hard to deflect from that fact all over the internet, and esp. Reddit, right now. Turns out the one place that still says it is quarantined.",fkfnja5,i_am_not_mike_fiore,74870
And carrying bleach and an improvised noose. Just in case.,Atigerwithlaserbeams,jof97,fkhq36j,While wearing MAGA hats at 2 am,fkhpkiz,brotherjustincrowe,iegps
"Hillary Clinton has always been the primary victim of ~~political assassinations~~ mysterious suicides; she loses her friends, business partners, anyone who might testify against her.",Atigerwithlaserbeams,jof97,fkhptv4,Who wrote this article? Hillary Clinton?,fkh8ir5,covok48,v64yu
"> details like a big head, big eyes, and short height

Ah, so literally two of the major defining stylistic characteristics of anime/manga. But it's not like they're  targeting anything, no.",Atigerwithlaserbeams,jof97,fkhlhdy,"[Here](https://imgur.com/a/rchWFif) are a couple of screencaps of messages from Patreon, in which drawings with large breasts and hips can qualify as underage for having a ""face under the age of 18"", with ""details like a big head, big eyes, and short height"" serving as criteria identifying underage drawings. According to Patreon employees ""the face is the most important part"" and an ""underage"" face is sufficient regardless of the body to render it a ""sexualized depictions of minors"". Anime is a sufficiently abstract artstyle that the face of a 12 year old and the face of a 30 year old can be completely identical, let alone distinguishing between a 16-year-old and an 18-year-old, and big eyes and a big head are literal defining features of an anime artstyle regardless of age. (It's like insisting that smiley faces are underage and need to be aged up somehow, you can't even do that without fundamentally changing the artstyle.) So how does this not amount to a justification for Patreon to arbitrarily ban any anime-style artist simply for drawing in an anime style, as indeed they have been doing? Some artists that I saw talking about being impacted by this, including the sources of of those screencaps:

http://archive.is/axL3g

http://archive.is/26FaM

http://archive.is/2rF5S

And of course if someone is too big to ban or sucks up to Patreon staff or doesn't get targeted for whatever reason they'll just say ""that one didn't sexualize minors"" - even if the faces they draw and the ""underage"" faces are identical. Not that banning flat-chested or short drawings makes sense either, especially with how common that body type is in Japan, but the face thing somehow manages to be even worse. Every attempt to ban ""underage"" drawings ultimately runs into the fundamental problem that drawings aren't real, but Patreon's criteria are even more stupid and inconsistent than normal.",fkfxz0b,sodiummuffin,nmnfe
">she

Nice one",Atigerwithlaserbeams,jof97,fkg6ccl,"You can't know how virtuous and selfless, how honorable and humble she is unless you are presented it in wall-to-wall coverage.",fkf34df,Getmetothebaboon,3t17tx35
"She says that in direct response to Palpatine’s claim that he is “all of the Sith.” Are we saying they’re buffing him now?

I took both as metaphorical lines about culmination of legacy. And bad writing.",Atigerwithlaserbeams,jof97,fkg5h1x,"And she says that she’s all the Jedi. If she was operating under only her own power that makes no sense unless she just felt like talking super symbolically. Like how you never considered that she was buffed, I never considered she wasn’t buffed until I heard this argument yesterday.",fkfbmhu,Heroicster,5dxiji19
">When they are listening

They do that? (Yeah yeah, low hanging fruit, I know).",Atigerwithlaserbeams,jof97,fkfxj1u,"> Free speech is not a partisan issue.

Correction: free speech is only valued by the left when they are speaking. When they are listening, they are against free speech.",fkfch5v,teelolws,ip0k7
"Sort of normie. Obviously the MCU/DCEU stuff is pretty normie, but that doesn’t mean your average dude is gonna recognize, say, an Anti-Monitor figurine.",Atigerwithlaserbeams,jof97,fkftlud,"Sounds like it's not even anime but capeshit, which is normie level at this point",fkft46i,deplorablehamster,11xqau
Thanks.,Atigerwithlaserbeams,jof97,fkfqvjt,Good luck freezing to death in Ethiopia.,fkct2hu,mrbkkt1,104tj3
"I’m pretty sure that the Queen’s healthcare is several cuts above the average healthcare of the NHS—or indeed, anyone that isn’t similarly important to a major state, and/or fabulously wealthy and also health obsessed.

I mean, she has her own personal doctor that travels with her.",Atigerwithlaserbeams,jof97,fkf9589,Good old NHS,fkek2ow,BreakingGood,5sx53
“Last year?” Doesn’t the whole trilogy happen over a week at most?,Atigerwithlaserbeams,jof97,fkf75xa,Luke/Leia taught her and Leia was like a mother to Rey for the last year of her life. They accepted her and believed in her despite her lineage. They appeared as force ghosts approving of Rey Skywalker becoming a Skywalker. She is one of them now.,fke2utl,waitingtodiesoon,kna8y
"“Learned almost everything” from a grumpy old hermit she beat up and a woman she barely knew, over the course of about 2 days, during most of which she wasn’t with either of them?

Wow, I had no idea that the bar for adoption was that low.",Atigerwithlaserbeams,jof97,fkf71hd,"She killed her grandfather, never had been linked to him, and learned almost everything from Luke and Leia. She's like adopted. How is that hard to get from the last movie ?",fke0wg6,albatoralbatros,1ypytzcs
"Yeah, obviously in hindsight if the Dreadnought hadn't been destroyed, it would have destroyed the fleet in the very next fight. But I didn't want to use hindsight, because the choice to engage and continue the attack couldn't have had that information.",Atigerwithlaserbeams,jof97,fkf1aj1,"I'd also reference the fact that if hindsight is valid (as often gets cited with ""they got followed so winning that fight meant nothing""), then those bombers were doomed anyway when Kylo starts the fight by blowing up their entire hanger with 3 fighters and one missile salvo. Also that the fleet they were reduced to isn't being chased by a ""fleet killer"" now.",fkf0161,Hylian-Highwind,jsil6
"Yeah, everyone is like ""Oh man, Poe sacrificed all our bombers that sucks."" 

And no one mentions that the bombers were shit and there were so few of them that they NEVER would have been useful. That was as close to an ideal engagement as you can expect—enemy magically deploys no fighters because ""infighting lol, everyone loves villains that neuter themselves, right?"" ALL the enemy point defense is gone, the bombers have a clear run, the bombers have a good escort, and the First Order *still* kills all of them despite only getting their defenders in the air *after* the attack starts.

So seriously, name *any* situation where bombers that perform that badly in such an ideal circumstance wouldn't take heavy losses. And then, don't forget that they took out the dreadnought! Leia spends the *entire rest of the movie* lamenting that they need a galvanizing moment like the destruction of the first Death Star to rally people to their side (for some reason, Starkiller Base doesn't count). Well let's run down the checklist, shall we?

Death Star:
  
- Massively outgunned rebel fighter/bomber force vs major enemy weapons platform

- Despite all odds, they take down said weapons platform

- However, this costs them almost all of said fighter/bomber force

- Nonetheless, it represents such a massive upset, and takes such a big weapon off the table, that it is considered a clear victory.

Dreadnought:

- Massively outgunned rebel fighter/bomber force vs major enemy weapons platform

- Despite all odds, they take down said weapons platform

- However, this costs them almost all of said fighter/bomber force

- OMG WHY DID WE SACRIFICE OUR BOMBER FORCE",Atigerwithlaserbeams,jof97,fkez49n,Because he learnt his lesson after winning that major victory at the start of the movie with very little cost.  You should never fight when running away like a pussy and cowering in a corner is still on the table.,fkd82fx,PezDispencer,6thcm
"Yeah. I don’t really trust him though. I don’t think this is any ideological shift or anything, I think he just knows which way the political winds are blowing.",Atigerwithlaserbeams,jof97,fkev36y,"Before Trump, McConnell was a RINO sellout. Since Trump got elected, it's weird seeing the turtle grow some balls, but it's amazing to watch. McConnell in the Kavanaugh hearings was a sight to see.",fkep1zi,GooseMcGooseFace,3ew1xont
"Isn't most of the explanation for Baby Yoda's abilities some sort of ""rare species that is extremely powerful in the force"" handwave by default? It probably works just as well for that as anything else.

Personally, I'm not a big fan of it—Baby Yoda is cute and fun to watch, but not necessarily great for canon—but it is what it is.",Atigerwithlaserbeams,jof97,fkeukh0,"If Rey learned Force healing from the ancient Jedi texts, then how the hell does the Child know how to use this ability in *The Mandalorian*?",fkegtoo,FreezingTNT,qs5u20p
"Nah, it makes sense to add some sort of adjective to explain what era you're in. We have plenty of stuff like that in the real world—""post-war Germany,"" ""Height of the Cold War,"" ""Reconstruction-era South,"" ""Edo Japan,"" etc.",Atigerwithlaserbeams,jof97,fkeudaf,"High Republic sounds like another one of those completely tone deaf choices.

I know guys!! We have the ""OLD"" Republic and we have the ""NEW"" Republic, so let's make the ""HIGH"" Republic!?!?!?!

Fuck Kevin, go staple your mouth closed.  It's just the Republic.",fkegryd,Cfp0001-Iceman,3h89hf56
"Probably. Sites do tend to develop ideological “characters”—and it definitely helps reinforce that character and court a userbase that agrees with it when everything conservative is banned and shunned from the top down.

But “majority of reddit” is just that. If anyone tries to imply that that means the same as “national majority,” or “correct,” or “moral,” they’re just being silly.",Atigerwithlaserbeams,jof97,fkesycc,"If subs are leftist by default, does that mean that the majority of reddit agrees with what the left promotes then?",fkep0xo,Mohnchichi,54m0d
"I think he puts his ideology above money, actually.

Or he truly believes that his ideology is also the best way to make money, which is definitely possible.",Atigerwithlaserbeams,jof97,fkeoezx,Aaron Swartz was the founder who put free speech above all else. Spez is the dick that puts money above all else.,fkehql9,probably_curious,2empaxr7
"With a name like that, I can’t imagine it has long before a ban.

Or at least quarantine (heh).",Atigerwithlaserbeams,jof97,fkeo94h,r/China_Flu is much better,fke8xf1,THZombie2,3f0xyyfy
Fan film based on the incident in 096’s file where he breaches containment.,Atigerwithlaserbeams,jof97,fkdxft0,I’m out of the loop what is this live action thing,fkdwtz0,Runenoctis,2j6i627p
