child_body,child_screen_name,child_user_id,child_tweet_id,parent_body,parent_tweet_id,parent_screen_name,parent_user_id
Connor Williams aka bullied bitch,avaricesavant,mzvzjzd,fky4lvo,"So the way I see it is that we'll have Tyron Smith at LT, either Connor Williams or Connor McGovern at LG, Frederick at Center, Martin at RG and Collins at RT.


Our backups will be Looney as the backup center and guard, whoever loses out at starting left guard will be a backup swing guard, and I think the Cowboys may look into signing Ron Leary as our backup swing tackle",fkxvflc,jonasdash,4d34k
"Person never have I heard of, to be honest",avaricesavant,mzvzjzd,fkv8bf7,"I'm gonna level with everyone.  I've never heard of this person

Edit: He had a 73.4 PFF grade between the Ravens and Jets in 400 snaps.",fkv27kw,8686tjd,10s1la
I’m 12 years old and you’ve been already lost,avaricesavant,mzvzjzd,fks1nb2,Correct. Arguing ignorance is worth my time. I've got ample time too,fkrvs32,TheJigIsUp,525ps
"Well, we are nowhere near running out of oil... oil is volatile, I never said it was not. But to think that it will just subside and go away is ignorant thinking.",avaricesavant,mzvzjzd,fkrffrv,I invested thousands and thousands in oil around 2009-2018 and it was a horrible mistake.  I was mainly in ETFs. My thinking was everybody needs oil and the price will go up as it runs out. I was wrong :),fkr6e60,gfz728374,3picnmx1
Environmentalist have been saying this for years. Oil is not just used for gasoline...,avaricesavant,mzvzjzd,fkqmt13,This is one industry I avoid. I feel oil is a dying industry.,fkqcib7,Trinity0519,45i1blfr
I was worth your time,avaricesavant,mzvzjzd,fkqlpqv,"Put as much thought into the reply as you do with your life, yeah?",fkppdnd,TheJigIsUp,525ps
Haha you guys are sad people,avaricesavant,mzvzjzd,fknkyw0,I hope you're equally this vocal about your ignorance IRL so people know you're a fool and to avoid you,fklmby9,TheJigIsUp,525ps
Yeah that’s fake news,avaricesavant,mzvzjzd,fkkr2j1,"COVID-19 Virus Outbreak - Worldometer https://www.worldometers.info/coronavirus/


The current mortality rate is 70 deaths per 1000, this is nothing like the flu, which is 1 death per 1000 or H1N1, which is 2 deaths per 1000.  This thing also damages male reproduction.


""Experts from the Wuhan Center for Reproductive Medicine advise those infected to regularly undergo semen tests and hormone levels after the disease has passed, if they wish to have children.""",fkkhcji,Thethirdtoken,wxgog
You people are too easy,avaricesavant,mzvzjzd,fkjlzjy,Ignorant piece of shit,fkj3i4t,GiantSequoiaTree,v5pse
Okay,avaricesavant,mzvzjzd,fkig01v,"Cool let me block you real fast, then you can feel free to spam this thread.",fkifurk,T1013000,wxpso
I didn’t read any of your comment,avaricesavant,mzvzjzd,fkifspg,"You're so wrong/uninformed and should do more research/reading about the subject instead of letting your ego/negligence speak for you.

Yes, certain age ranges appear to be safe (at the moment but variations in viruses are common given time), but all ages with pre-existing conditions and the elderly are at serious risk.

Have you checked the numbers on this virus? Epidemiologist, who never ever put projections out since they can vary so widely and be blown out of proportion, have released reports saying 40-70% of the globe will be infected over the next 12-18 months (as they're projecting a cure is that far away and how long it will take to mass produce/ship). Of the infected, approximately 1% will pass away (again pre-existing and elderly are at greatest risk).... you can do the math as well.... but on the low end, in the US thats 1.3million deaths. Globally, thats 30 million deaths. 

No one is saying this is will be as bad as the Spanish flu.... but this is the looking like the most contagious and potentially deadly disease in the past 100 years.",fkifie8,SPF12,6qzhl
"Yeah, you will die alone",avaricesavant,mzvzjzd,fkifra8,"Look bubba, I already have given you a free diagnosis, do us all a favor and fuck off back to whatever shithole Internet corner you come from.",fkif9q3,T1013000,wxpso
Doesn’t change the fact that you’re going to be alone,avaricesavant,mzvzjzd,fkif6bt,"Like I said, raging psychopathic asshat. Looks like I was spot on.",fkif2i9,T1013000,wxpso
"I will be honest, I hope your parents and grandparents catch this virus because you deserve to be alone.",avaricesavant,mzvzjzd,fkif0k3,"Shut the fuck up. The death rate of Coronavirus is an order of magnitude greater than the flu. I know raging psychopathic asshats like you probably don’t care about anyone, but I value my parents and grandparents and would prefer to have them alive.

And you weren’t around for the Spanish flu, so what the fuck is that comparison supposed to mean? We’re supposed to relax because a pandemic that broke out a century ago during one of the worst conflicts in human history killed more people? Go back to T_D where your stupidity will be appreciated as you downplay the pandemic.",fkieiqe,T1013000,wxpso
"It’s no worse than the flu. Your chances of dying are very slim, if you aren’t an 80 year old or young child. 

People act like this is the worst sickness ever recorded. Spanish flu fucked people up way way more. Stop being a little bitch about this virus.",avaricesavant,mzvzjzd,fkie9pd,"That’s ridiculously dumb. All that will happen is that the virus will spread more, and when people start dying by the truckload, companies will be shut down anyway for a longer period of time.",fki6z1h,T1013000,wxpso
"Yes, that is exactly what I said above. Fed can’t cut interest rates much lower to begin with, and travel restrictions are Europe to US with special circumstances (also not including U.K.). 

These are preventive measures and yes there will be repercussions from logistics/supply chain issues but that does not mean this is going to be a replica of 2008 financial crisis (or worse) where housing markets and investment banks completely crumble. The reason the markets are in turmoil is due to the overreaction by the media causing a massive panic/sell off. 

It will recover. Everything will be okay.",avaricesavant,mzvzjzd,fkblvl1,"So Trump announced the Europe travel restrictions, the Fed announced the half trillion in repo operations, and the possible tax cuts are due to an overreaction by the media?",fkbjbjt,CumFlakess,4tayr4tl
"Yeah this is a bad insight to the future. We actually had severe economical impacts in 2008. This is nowhere close to the banking/housing impact. 

People will stop freaking out and everything will return to normal in the next few months.",avaricesavant,mzvzjzd,fkbixaa,"No, this will be worse. There were things that we could do to stem the damage of 2008, but our government has given all those away. We've been incurring huge amounts of debt during a strong economy, interest rates are at the floor already, and corporate and personal debt is higher than ever. There's nothing left to use to stem the bleeding this time. It's going to be very, very bad.",fkaudv7,SublimeCommunique,3ojw7zwb
"This is such an overreaction by the media. It’s like the human race has never experienced the flu or some other virus. 

How convenient that this virus came from China and is right around our election time.. not suspicious at all!",avaricesavant,mzvzjzd,fkbgkde,"It’s just the flu bro

- Republicans",fkb1074,CumFlakess,4tayr4tl
You are a moron,avaricesavant,mzvzjzd,fjxmwq3,"$30 a barrel is nowhere near priced in. Short Hess, EXXON, XOP, etc. your talking a 40% drop in the price of oil from here- Not even close to being priced in. Gas will be under $1 gallon this summer. Chaos in the oil market I believe the article says.",fjvij59,Stockbaron,2xeg5p8b
Who will you vote for? Just curious,avaricesavant,mzvzjzd,fivmis6,"I am not a conservative Republican,  but even I find this type of censorship disgusting. I will not vote for Donald Trump in the upcoming election, but I respect Republicans and conservatives to propagate their viewpoints in any American medium. If Reddit cannot respect the freedom of expression, then the next Republican or Democratic administration needs to consider shutting Reddit down.",fivkmtj,11greymatter,5fk3hvu1
"This is just not true. I live in DFW. Dallas is majority liberal. Surprised Ted Cruz was able to beat out Beto, honestly. Before long, Texas will become a blue state with all the Californians moving out here. Very sad. Hopefully, I’m wrong and it doesn’t turn out that way but it sure seems like it.",avaricesavant,mzvzjzd,fdtcs8q,"The big cities are turning red too. 

There's been a big pushback from the Beto fag's encroachment. 

The meme war has been crazy down here. 

I have seen several lifelong democrats flip completely, and democrats only open their mouths in their circles. No one protests big time here unless it's Denton or Austin. Even San Antonio Hispanic populations are slowly turning red to my knowledge. 

The internet fucking destroyed Democrats here because Texas is by and large, Christian, and by being this way, the majority of morals down here are attributed to a higher authority than the government. What I'm saying is, the internet has ousted so many democrats for the devilish things they do, that it's either God or Liberalism, they don't mesh too well if you actually love Jesus. 

When a liberal starts getting loud in bars they are laughed at and talked over until they leave. It's so fuckin easy now to destroy the foundations of their arguments.",fds6l7w,boogaluau,56v4ogev
"Technically his statement is a double negative, so Dez really does care.",avaricesavant,mzvzjzd,fddgz7w,Damn. Dez isn't usually so ruthless. There's a story in there somewhere.,fdchfq1,soul_system,7v218be
Carson wentz is a pussy. Can’t believe y’all praise that trash can of a QB.,avaricesavant,mzvzjzd,fdc1bjg,Switched from my black Jackson Jersey from many years ago to my green Foles Jersey from many years ago. Backup QB power!,fdc181z,floydiandroid,45fpm
"Jason Witten had a vasectomy and turned gay. Left his wife and vowed to never talk to her again. 

It’s also been said he started a squirrel farm in Southeasetern Asia. Profits are nice in this economy. Hopefully it can be sustained.",avaricesavant,mzvzjzd,fd76jrl,"Oh man, sorry I meant to update y'all. Witt told me he's gonna go ahead and retire again but that he wouldn't rule out returning midseason if it looks like we're gonna make a run. Let's keep it just in this subreddit for now, he hasn't told anyone else yet.",fd584aw,iwinagain,5dqub
Shut your whore mouth you slut,avaricesavant,mzvzjzd,fd722vz,Cool opinion,fd6467d,Microwave1213,8bs5i
"Please fuck me, finnagler!! I’m your biggest fan!!",avaricesavant,mzvzjzd,fd71yiq,"Lol, can’t hate against that",fd66y8d,finnagler323,6iss54c
"I want to fuck finnagler! He seems cute :) 
Lube me up!",avaricesavant,mzvzjzd,fd71qte,I’ve found that as a Cowboys fan from the 90s that their legendary choking is just amusing.,fd60c7y,Pseudo_Culinarian,eobdi
"Oh yeah, I forgot we we still didn’t win a super bowl last year.",avaricesavant,mzvzjzd,fd2fvfd,"Cooper damn near saved our season last year..are you that quick to forget who we were WITHOUT him?

He was banged up this year but, he showed up an played to his best ability.",fd2dyn9,InsertRandomName85,jzoocy0
No because I’m a Cowboys fan. I just want one that says Assboys.,avaricesavant,mzvzjzd,fc0n9mz,"Here ya go,  [will this work?](https://www.nflshop.com/Philadelphia_Eagles_NFL_Pro_Line_Front_Hit_Fashion_Jersey_-_Midnight_Green/t-36044859+o-9172+d-676022905+f-3952952+z-9-2428984784?utm_medium=cse&_s=ak1944nfl-bing&sku=12353954&msclkid=58fe063fe84f1e7efeda583c619b0b75)",fc0gl40,Random_2019,2zjmjiei
Everyone is hurt at this point in the season. But this is what happens when you rely on an emotionless player. Doesn’t have the heart to push through. You know Dak was hurting bad but he didn’t just give up.,avaricesavant,mzvzjzd,fbv0jql,"In Amari's defense, he's clearly very hurt.",fbuz7xl,NookSwzy,4kgd9lg6
"I am after the lack of effort I saw from him. He honestly looked like he’d rather lose. He just straight up quit last night.

Sorry still pissed we lost lol",avaricesavant,mzvzjzd,fbuw9li,"I’m not prepared to move on from him yet, personally.",fbuvkwf,SeesawGerrera,12wib2
Let Amari cooper go ruin games for someone else,avaricesavant,mzvzjzd,fbuvj2e,"I think Quinn should be a priority to be completely honest.

Jarwin’s staying unless they don’t want him to stay. I don’t think it’ll be hard to keep him.

Cobb as well. Keep the ones that worked. Let the ones that didn’t do shit leave.",fbuoo3u,SeesawGerrera,12wib2
Amari cooper is ass,avaricesavant,mzvzjzd,fbugw68,This #1 offense shit has to be some kind of league wide inside joke or something.,fbt7s78,Pseudo_Culinarian,eobdi
Yerboiboba more like assboba!,avaricesavant,mzvzjzd,fbudwbh,"You need to fuck off with the stupid ass jokes, you're not funny.",fbuds80,yerboiboba,tw5wr
Big Doosh more like Big Ass!!,avaricesavant,mzvzjzd,fbm4lqj,Making us look good,fblxsd4,BigDoosh,2ssx5841
Jason Garrett more like Jason ASS!,avaricesavant,mzvzjzd,fbbljuh,"Is this a new take?

They shouldn't have been fired when the team lost to that Jets team???",fbav4qw,super_salt,9xmge
Malcolm Jenkins more like Malcolm ASS,avaricesavant,mzvzjzd,faw2ew9,"Ward played well in the AAF (rip) and was my first choice to bring into the roster as well. He has a lot to learn, but there is potential that we should be looking at for next season. He could very easily take WR3 and play from the slot with great results.",fatm7gt,nosmokingbandit,honw0
These guys are such betas hahaha ShUt ThE fUcK uP,avaricesavant,mzvzjzd,fanlz5q,Thanks Sherlock,fam81xw,DakToAmariTD,425diokl
"Jalen Ramsey more like Jalen ASS, am I right?",avaricesavant,mzvzjzd,fanl764,Wow for him to say that. That’s a compliment,fam6irs,tforzro,yt8vgln
That’s the point lol it’s sad that people think this is actually someone being serious,avaricesavant,mzvzjzd,fakcj6o,this doesn’t even make sense lmao,fak6shn,A_Bennett21,4dl9obz6
"Jerry Jones more like Jerry ASS, am I right?!",avaricesavant,mzvzjzd,faic642,"At least Switzer got a talented team to the NFCCG and the Super Bowl, albeit with Jimmy's team.

We definitely need someone like Troy to speak the truth. Even today he's still speaking the truth about Dallas, just wish Jerry would listen.",fahv2uz,CoyoteHP,eqlwxmk
Carson Wentz more like Carson ASS!,avaricesavant,mzvzjzd,facsqr1,This team is a goddamn embarrassment.  No player or coach should be safe this offseason,facso3n,Wentz_It_Gonna_Be,2wmerzqx
Shut up ASSixi,avaricesavant,mzvzjzd,faclvi2,Call me a white knight but I really don't think we should encourage comments like this idk I guess i'm dumb,facgpds,xixi2,fcpbx
You’re probably gay and are really just mad that women don’t like you and are searching for attention,avaricesavant,mzvzjzd,fackmyk,Imagine making homophobic jokes in 2019 lmao,fackdyl,Cookie-Jedi,q52zw
Jason Peters more like Assbergers,avaricesavant,mzvzjzd,facjzp9,Jason Peters... more like Jason Ass!!,facju37,The-Prime-Minister,aksua
Very soon! I know you are eager to hear!,avaricesavant,mzvzjzd,f9u5926,"When's your next ""Chronicle"" coming out? Your friends at /r/mgtow are waiting with extreme anticipation.",f9t3rfz,i4_D_4_Mi,is2zi
"Of course you are an oblivious, dick sucking patriots fan. Makes sense seeing your moronic viewpoints.",avaricesavant,mzvzjzd,ettr0ot,Imagine unironically thinking this,etswhpk,poopface396,1a0byda1
Is this... a Scorcher VI reference...,avaricesavant,mzvzjzd,et31gbb,"Here we go again, again",et015pm,Sighlina,akiij
Check out bitconnect!,avaricesavant,mzvzjzd,e72ba3r,New here. Coming from weedstocks. What’s top 3 crypto to take a look at?,e729v5n,Wza99,x3n4q98
You are not alone!,avaricesavant,mzvzjzd,e5c2x7z,Has anyone started with crypto and graduated to stock trading? I'm wondering if r/cryptocurrency to /r/wallstreetbets is a natural progression for anyone else. ,e5c2b6e,TheBuddha777,lwcns
"True, if possible ",avaricesavant,mzvzjzd,e1dhq6e,might means you wont ,e1d2v2d,MissAil,ojcln
"Amos should read this post. “See you top five” comments need to stop. If you’re an active member that contributes posts, you probably need to look at reality. 

Stop saying Elastos is going to beat bitcoin, Elastos is the greatest thing ever to have come to mankind, etc. we all know Elastos has great potential, but it really shows a lack of maturity when people post outrageous claims that are out of reach for expectations. ",avaricesavant,mzvzjzd,e11b1a9,"Let us be very honest for a second here: Elastos has unfortunately been quite dissapointing if you look at important details in the past 2 months. ""April showers will bring may flowers"" turned into a muddy field, and June doesn't seem to have brought a lot of change either. 

- Deadlines are either set too optimistic or not set at all (how can investors/community members judge a project if there are no clear deadlines?).
- The most requested community developments do not seem to be taken very serious (yes, there has been said a lot about this but nothing has really been shown yet, third party wallet creators are still waiting on the SPV for example, and yes the SPV is not ready for the public yet but the team should have started with this much much earlier). The team is reactive and slow instead of proactive and preventive, not really how you keep community members interested or happy. yes, I am talking about more convenience for exchanges and wallets (its been 5 months for many and a whole lot of ""its coming"" messages, either tell us December and be sure about it or don't say anything until you know for sure), but there have been more examples of how oblivious the team seemed to be to certain necessary developments (blockchain explorer for example). Some nationalities that could take part in the tokensale have zero legal access to buy and sell their ELA's, it is not a good look and could have been prevented.
- Musichain (project from a Tencent founder or so) evaporated into thin air after it was mentioned for the 15th March meetup - was it cancelled? why? yes, this is an externality to the project but if you mention them at first and then they are gone its weird.
- Elastos infrastructure releases seem to ""silently"" be moving further into the future. Beginning of August seems to be turning into the end of August. 
- ICO's related to Elastos have been about as active as a bunch of sea turtles towards the public. Elastos isnt just infrastructure but also an eco-system and the silence of future Dapps for the past months doesn't really inspire a lot of confidence at the moment.
- The Globe Theater meetup (Hollywood) was supposed to have 5 dapps... The event was delayed by a month and we ended up with 2 dapps and not a single release of news about a hollywood cooperation (something that has been talked about for a long time by/in the team). There wasn't a livestream either and the recap video is taking longer than the Tommorrowland aftermovies.
- There seems to be this vilifying toxic sentiment in this community for people who like to discuss price, a really bad development. yes, its nice to have fundamental discussions instead of moon boys everywhere but there is this general notion that nobody likes or wants to see people discuss price, its like there is this denial that most people, if not all, came here for the money incentive in the first place. Fortunately most stayed for the tech (such as me) but this vilifying nature has directly impacted the amount of dedication on the social media channels, we have seen a lot of the ""strong"" community evaporate over the past weeks because people aren't able to discuss their ""losses"" and get attacked when they try to find common ground with people in the same situation. Investing is still emotional for most, you can't and shouldn't try to ban or vilify this human component. People who are down 50/60% on their ""investment"" need a place to vent and discuss with like minded people, banning or attacking them is the absolute opposite of being accomodating and creating a nice community. Arent we all dreamers/risk takers in the end?
- EBP (Cyberrepublic) was meant to launch much sooner and it still isn't fully ready.
- I read a message from a marketing manager trying to hype upcoming developments the other day, without a single clear deadline; ""its coming"" is the precise reason why people ask so many questions on the various social media channels, they are trying to understand what and when the team is going to accomplish ""things"". The marketing team should create clear messages that have little room for FUD creation - thats not happening right now, unfortunately.

yes, there have been a lot of good developments that have been created/developed after community requests (or by the community themselves), but this isn't a post about that. I have personally taken some time off the past month or so, my frustration was reaching unhealthy levels. Nothing to do with the price (the whole market is down anyways), just solely dissapointment created by the way processes seem to work at Elastos (When you get angry and dissapointed by failed or moved deadlines you know you should take a step back and relax). We will hopefully/probably have gotten rid of most of these issues I have mentioned in about 3/4 months but there really isn't much confidence being shown with the current situation/developments.",e10pqtf,Kaka221100,it91mic
What street is this on? Not too far away ;),avaricesavant,mzvzjzd,e0r6259,"In Dallas, Tx",e0qem4y,chicken-man-12,1cozkzv4
Can you imagine how big this will be when it hits other big exchanges... and I can’t see this NOT being in the top 10 market cap in the next 5 years. It is astounding what they are going to accomplish. ,avaricesavant,mzvzjzd,dy1hen8,"I can't understand why this is so undervalued. Coins like ADA, EOS, TRX have a mc of 5 bill+. Call me crazy, but this project is better than those projects right? ",dxzqdkt,bitchass83,autpokv
"Wrong 
 - Trump",avaricesavant,mzvzjzd,dxmek3l,"$90 NEO by the week end. The market is on a slow and steady rise upwards. Just my useless opinion, but it looks that way to me.",dxmbw8y,HarryWife,dzcis0q
Huobi exchange ,avaricesavant,mzvzjzd,dtx5xax,"Where can i buy elastos?
",dtx56gm,HaPpTiCv2,at8wb8j
Huobi has been great for me so far. I have deposited and withdrawn from exchange and have been nothing but pleased with how smoothly it has gone. ,avaricesavant,mzvzjzd,dtnmi4f,Has anyone bought anymore through Huobi? I would like to buy some but have only been exposed to KuCoin and Binance. Can anyone weigh in on whether their experiences have been positive with Huobi?,dtnj43d,FutureCEO10KperDay,n43w0w4
"Seriously, let’s get this process started. Do you know how to open a request with binance?",avaricesavant,mzvzjzd,dtnd0ai,"Elastos cannot just ask exchanges to list their coin. The community needs to open a request with the website. So, let's get that going.",dtn71z0,accused_sinner,14mx9y
"I saw that it was on coin market cap, but I’m talking about coin cap (the app). But looking at $56 on CMC made me have a better morning, so thank you :)",avaricesavant,mzvzjzd,dtmjnpm,"> https://coinmarketcap.com/currencies/elastos/

",dtmjc4y,GustavoFringsFace,di9rp
"Awesome! Easy enough, thanks!",avaricesavant,mzvzjzd,dtlshwo,"Nope, just update it, it will overwrite. Nothing for you to do but download from sidebar on the right and open. Same user interface.

Edit: spelling",dtlsfy6,Cozmo525,ai4rg
"I took out a loan yesterday to invest more money in cryptos, what perfect timing",avaricesavant,mzvzjzd,dtl5x96,How's everyone holding up?,dtkx9qu,-xtremi-,jghm6u
Elastos was the only shot for the moment. First ICO I was able to do in the U.S. and happy I did it. Exciting times to come!,avaricesavant,mzvzjzd,dtkw72m,"Hey guys, How do I get in on some NEO related ICO. I am in US.
",dtkt0y6,garrettopia,x4cul
Hope you got laid!,avaricesavant,mzvzjzd,dssrths,And here I am with no fiat to buy the diiiiiiiiiiiiiiiiips. :(,dssh9it,Garapal,la7nhzy
Welcome to crypto. There’s no need to worry. The market will correct itself. ,avaricesavant,mzvzjzd,drygssv,It went from $12.50 to $8.90 in like 30 minutes ,dry61ng,Gsw-,k12uy
"God, I’m so hard right now. ",avaricesavant,mzvzjzd,drgbxms,"One of the best things about this crypto space is feeling like you're in a secret club with like-minded people. 

I heard tonight that you should invest with the kind of people that you'd like to get into trouble with - that's crypto!

Here we all are thinking that NEO has taken off and (unless you're a whale) that we're hanging on the coat-tails enjoying a wild ride. 

But if you think about NEO you are going to come to a huge realisation - enough to give you shivers. 

The tech is so good it blows ETH out of the water as far as I'm concerned. It really is set up as the basis for an entire smart economy and pretty soon the entire world is going to want to look at it to buy in. 

But the market cap, right now, is $5bn. 

To put that into context, the average house price in London is £484k. In other words, all the NEO in circulation would buy about 7,500 homes in an average London borough. 

Sure people have heard of London - but how many have heard of Streatham? Or Haringey? Or Redbridge? Or Lambeth?

Most of those places have between five and ten times as many homes as that. 

So, as a NEO holder, imagine owning an anonymous house in.a tiny part of a borough that hardly anyone has heard of yet the entire world will soon be looking at with the intention to buy. Thats the potential of the platform and that's where you are right now.

We are still right at the beginning of this amazing journey - its just that our view is distorted by the crypto market in general. 

All you have to do is HODL and accumulate more by any means you can.

I love you all. 

Now let's beat the shit out of this $100 barrier.",drg5v7n,theprufeshanul,4pe5n7p
