child_body,child_screen_name,child_user_id,child_tweet_id,parent_body,parent_tweet_id,parent_screen_name,parent_user_id
"Seriously, you're as bad as the people who would do the exact same thing if Obama did something similar as this. I hate the guy, but this is just childish. Don't stoop to that level.",Chewbaccadog01,2vh5e23m,fl39y2b,"Seriously, you're as bad as the people who would do the exact same thing if Obama did something similar as this. I hate the guy, but this is just childish. Don't stoop to that level.",fl36yu1,Lusista,g21i3
"Replace his bones with titanium, we can elevate him to godhood if we work together",Chewbaccadog01,2vh5e23m,fl39pv2,"This point he needs new bones, OI does have some treatments",fl0zzqn,Rouoanomani,2p1626az
Pff virgin vampires. Me? I'm a chad vampire lord,Chewbaccadog01,2vh5e23m,fl36dq0,Red eyes means they caught sanguinare vampiris,fl30boy,Fir3mast3r55,ixxy6mj
In your will you say what happens to your property after death. You clearly don't deserve property if you don't give it away after death,Chewbaccadog01,2vh5e23m,fkobmtt,Explain how that logic correlates to the situation,fkob7fv,ChimaPeter,1vuejspw
UN == Gay,Chewbaccadog01,2vh5e23m,fko7knp,"Not like America signed the UN declaration of human rights on December 10 1948 in which article 25 grants that all humans have the right to adequate healthcare, then proceed to be the only industrialized nation without some form of universal healthcare, even having an infant mortality 2 and a half times higher than Singapore (a nation with a gdp 60 times less than America), not to mention that medical bills are the Number One reason why people in America file for bankruptcy, but ok.",fknose6,isaacs-cats,47wqzk4z
Who do you tax after the billionaires have lost their wealth,Chewbaccadog01,2vh5e23m,fko7gg8,"Germany’s tax rate is very high. The quality of living is also very high. If we tax more, and tax the billionaires more, it would A) lessen the wealth gap, B) lessen the inequality in terms of quality of health between classes and C) save America 2-5 trillion dollars (completed by two analysts from opposite ends of the political spectrum yielded nearly the same results)",fknq1qt,isaacs-cats,47wqzk4z
Yeah all those doctors and nurses should work for free! The medicine can be made for no cost because of the goodness in peoples hearts!,Chewbaccadog01,2vh5e23m,fko7arl,"Not like you have to pay for it but ok

I didn’t make this to start an argument, I’m not even into politics and health care stuff. I was simply stating a fact that I knew.",fkno4jm,Zennbo,589q6g6j
"""I have an irrational fear about it"" ""Why?""",Chewbaccadog01,2vh5e23m,fko6gwf,why?,fkmyx2l,RealisticWillingness,fh9tos
After you die your body is frozen in the hope that sometime in the future we can have the technology to revive you.,Chewbaccadog01,2vh5e23m,fko6a05,What that ?,fknodeq,bacontath92,14jlh8
"Then people who need an organ can sign up, get the organ, and then go off the list. Simple way to get an organ without donating one.",Chewbaccadog01,2vh5e23m,fko63yf,Yeah and then you should be taken off the priority organ recieving list if you do so,fkmqq94,CuntfaceMcgoober,2p9f2jai
If you don't give your money to charity in your will do you deserve to earn money?,Chewbaccadog01,2vh5e23m,fko5koc,"All of the things mentioned in this thread do not correlate with the OP. OP is referring to something donated post-death whereas all the above are things that one would have to donate while alive.
And before you say ""these things could go to your family"", yes I realize this and of course the things that one might include in their will would be excluded from the expectation of social ""generosity"".",fkn77vc,ChimaPeter,1vuejspw
Kill it,Chewbaccadog01,2vh5e23m,fko18xi,u look like an ugly fucking elephant UwU <3,fkn56yo,yyyyeeeeeettttt,4lltylxq
"15% of adults in the US smoke, I have no clue what backwater place you live in where smoking is the real world but you can fuck off with your bullshit. He doesn't give a shit if you can stand the smell, he can't, if you smoke you don't have to stop because a random dude on the internet told you to.I see no need to mock a dude because he doesn't like having smoke in his lungs and nose.",Chewbaccadog01,2vh5e23m,fkld4ly,"It's definitely not pleasant, but so are dozens of things in society. To say it actually makes you physically ill reeks of either a cronic lack of exposure to the real world or opportunistic puritanical bullying.",fkl9a7c,sketchy_irishman,2pqwa970
Truth,Chewbaccadog01,2vh5e23m,fkkrzt9,Tik Tok bad amiright?,fkklnou,TribalTransfusion311,138pn4s0
No! I want real life star destroyer and I want it NOW!,Chewbaccadog01,2vh5e23m,fkkgbmg,Well you could opt out of that family pack and trade in your voucher for a M2 machine gun.,fkkfuzw,Salty_Savages,2olhta04
"And here I was disliking the Britishness Broadcasting Corporation, amd yet they were making Danny great.",Chewbaccadog01,2vh5e23m,fkjk5va,from all that bbc,fkj2ss2,definitelynotamoth,2z6meui2
THERE'S NOTHING HUMAN ABOUT THAT THING!,Chewbaccadog01,2vh5e23m,fkhubox,SCP-096 HAS BREACHED CONTAINMENT,fkhooke,Tog5,25c24z7p
"Because I use commie blood to sustain my life force amigo, you should try it.",Chewbaccadog01,2vh5e23m,fkhr9oe,"If your not a commie, then why is your blood red.",fkgzio4,eragonislife17,56yty6v3
"🤚🔇  🤚🗣🤚📖✏


⚁⚄⚁⚀",Chewbaccadog01,2vh5e23m,fkg1p3h,gonna get got but: 2521,fkfst35,rvrscentaur,2pt2c0wl
Good jokes are. Jokes are intended to be funny but the guy just didn't read the crowd because apparantly 13 people didn't like that he could be a mean man who doesn't like gay people,Chewbaccadog01,2vh5e23m,fkg0m65,Jokes are supposed to be funny,fkg07fr,durak0,3thfvcbw
It's a joke dude,Chewbaccadog01,2vh5e23m,fkfzabu,That comment was made by the Judgmental Cunt Gang,fkfxraw,durak0,3thfvcbw
"The fuck you just say? Listen, as a women fucking, white, republican, I can't believe you would say that about me mr A-Me-gao, I'm a red blooded American and I will stand up for my rights you commie!",Chewbaccadog01,2vh5e23m,fkfz4c8,"I don’t give two shits about who you fuck, what your skin color is, or your political party as long as you don’t talk about it every chance you get.",fkfv9xu,NateyOnPC,38oz05z1
"When did I say the role ""should"" be handed over?",Chewbaccadog01,2vh5e23m,fkffbat,The fact that most leaders are elected and you mentioned that instead the role should be handed over is troublesome.,fkddw7f,h2man,136crn
"Ah, but it's physically impossible, would it be tempting fate to say that the laws of physics exist?",Chewbaccadog01,2vh5e23m,fkd3wbi,"If the queen dies, it’s this guy’s fault. He tempted fate.",fkd3te2,Sylfaein,12qdrz
Nope,Chewbaccadog01,2vh5e23m,fkcs8ex,Does no one here have a hose on their shower head?,fkcp62c,Bagosperan,x8wdh
"My teacher saw a family with like 10 gallons of bleach with their dad talking about sanitizing everything so I do think it is the case, certainly not for all, or even most people but for quite a bit of people there is hysteria.",Chewbaccadog01,2vh5e23m,fkazcir,"Is there really ""mass hysteria"" because people think it's the end of the world? Or are people just excited because it's a pretty exciting thing comparatively? Lots of people have pretty boring lives as well as comfortable... this whole thing is just exciting imo. Anywhere a logical person would go to look for serious information can see this by far isn't the end of the world and this is something that happens somewhat regularly like the spanish flu just about 100 years ago. 

People just crave excitement and this sounds a bit like something out of a movie.",fkah6mq,anonymous6222,5ubred3n
Sounds like a you problem.,Chewbaccadog01,2vh5e23m,fkaykn7,"Not true. Girls are just whores who will stick to chads anytime and ditch you. 

Edit: Ad hom shot at me by teens",fkaq3h7,Nuclear_Claymore,5dlzrli4
"I think that was OP's plan, so this on an alt and get free karma",Chewbaccadog01,2vh5e23m,fkaw8af,"Someone's going to take a screen shot of this, post it here, and get 15k upvotes",fkar29k,Jnyflrs,1ks8botl
Lmao,Chewbaccadog01,2vh5e23m,fkavjpn,"I mean, maybe if the right side wasn't so objectively terrible, the left side wouldn't look so disproportionally appealing.",fkaroof,kinyutaka,84riu
*laughs in Dark Souls*,Chewbaccadog01,2vh5e23m,fkauewj,Babies would create horrific characters in the character creator,fkafasa,jroper878,17ahg2
DOWN WITH THE EMPIRE VIVA LA REVOLUTION,Chewbaccadog01,2vh5e23m,fk3xwf1,Imagine being beholden to overprivileged parasites.,fk3vdb8,CosmicGunman,y4lxqvk
Unless it has shampoo in it,Chewbaccadog01,2vh5e23m,fjtpjdn,Kids don't stick your dick in a bottle.,fjrpugn,ZheHoons,4ylro2tt
Got an antigrain and almost immediately a zzt happened in my storage room... I dunno what randy wana but it can't be good.,Chewbaccadog01,2vh5e23m,fjneydy,Wanna send some of those antigrain warheads my way friend 😁😂😂,fjmbiy0,AleccOnReddit,5t5l86vp
Pretty sure it's just to make sure people know so if they trespass they can't claim they thought it was public,Chewbaccadog01,2vh5e23m,fjnc3sq,"Don’t worry people won’t break the law, right?",fjmyyja,Moksh2000,sjwtyxy
I trust that shit less than I trust the rickroll URL,Chewbaccadog01,2vh5e23m,fjk5rmy,https://youtu.be/h6DNdop6pD8,fjk53e5,dslNoob,2dwp0ec2
">Society is what grants rights, it can do whatever the fuck it wants with them

So society grants rights and can do what they want with them. Therefore, just like he said, by your definition the holocaust was justified because society agreed with it. He never said they were equivalent.",Chewbaccadog01,2vh5e23m,fjitzw1,The fact that you don't see the false equivalence says a lot about your lack of morality.,fjit36q,karl_w_w,9hd6p
"He never said it was equivalent did you read what he said? He said that, since the majority said the guy couldn't tear down a pub and because it is the majority, it is okay, that the holocaust must be okay because the majority decided it was okay",Chewbaccadog01,2vh5e23m,fjisfwx,"No, thinking not being allowed to destroy a historic building is equivalent to the fucking Holocaust makes you a nutjob, and that's just one example.",fjis540,karl_w_w,9hd6p
"Exactly my thoughts, if you hate a company you have the option not to support that company. If you hate the government you are forced to otherwise you are taken away, put in a cell, and end up having other people pay for you against their will so you do not starve because of what the government forced you into and if they don't want to be forced to feed you or pay for the people forcing them to feed you, they get tossed in as well",Chewbaccadog01,2vh5e23m,fjis8vz,"Why does ""if you don't like it, just leave"" only apply to private entities?",fji7sv0,Based_news,dxw897q
"You heard it here first folks, believing in rights makes you a nutjob",Chewbaccadog01,2vh5e23m,fjirkzj,"> You can't even make a decent response to my point because there is none

You're right, I can't make a decent response to your point comprised of complete nutjob arguments, lies, and intellectual dishonesty, that's why I'm not trying. You're either trolling or incapable of reasonable thought, and would you believe it, I don't give the slightest fuck which one it is.",fj4i0ry,karl_w_w,9hd6p
"Finale of this trilogy.

         Episode III The Last Colonist/Randy Strikes                                                                                      back
      
       | Within an hour of hopping on it with 1.1 and royalty I accept a quest to take care of 8 arctic wolves for 15 days. Lorenzo (The man in black) I had become a builder and Dan become the planter. Just 2 days before the wolves get sent back a lynx starts hunting one of them so I send Dan out to kill it but I wasn't paying attention to let him get too close so it starts hunting him and although he kills it, he is injured. Alright no biggie, Lorenzo can tend to him. *Lorenzo cannot tend (is incapable of caring)* what. BRRR, Dan has died. Well that sucks, at least I can build a sarcophagus for him, *Lorenzo is incapable of hauling* that's anno- *Arctic wolf has eaten Dan* well that solves that problem. Well, it's not likely Lorenzo can live while not being able to do basic things, so I send him to the mainland in the hopes of getting to the ship. He travels for days and begins to run low on food since he's only one man he can't carry much so I have him raid a tribal village. This turns out to be a mistake as when a single guy get's within melee range he gets captured because he's a wimp and went down on the first hit (Never again will a wimp be allowed to become a colonist no matter what their job it). So all in all, a sequence of unfortunate Randy decisions ends in the death of a once prosperous colony and the eventual trek across the world ending in a very anticlimactic ending.


Edit: I dunno what I did to cause this font sorry",Chewbaccadog01,2vh5e23m,fjfgxh4,Randy finally strikes! Thanks for the update. Made my coffee enjoyable this morning,fifap36,gedmathteacher,boizd
"Not necessarily, after a raid and a flashstorm it could be dangerous with the potentially hurt people and possibility of mental breaks. If it gets more that 13 tiles you need at least 3 people to deal with it if it is clear weather. It may seem unlikely but I would take preemptive measures so it CAN'T happen instead of just hoping it wont.",Chewbaccadog01,2vh5e23m,fjfdpj8,I love how you are just trying to prove me wrong. If you don't idle you can deal with any fire without any damage,fje47s4,Fooxthot,1366s4w5
1775 because nothing existed before the US. USA! USA! USA!,Chewbaccadog01,2vh5e23m,fj87yox,Aaaand for how long have guns existed?,fj87h9w,DrWaff1es,1i1vndrk
Or with just your eyes look straight up and back down to it,Chewbaccadog01,2vh5e23m,fj87oky,"To reliably get it to switch directions, just look at the bottom corner opposite to the direction you want it to go. Bottom left makes it spin right, bottom right the opposite.",fj6l7du,Null225,wsvp9
"Yeah, all that would exist is death, chaos, evil, and bad things!",Chewbaccadog01,2vh5e23m,fj4owwr,Without government nothing could exist!!!!!!,fj4jj2b,Morgoth_Bauglir888,45l4421s
Burn literally everything while running from an unseen enemy,Chewbaccadog01,2vh5e23m,fj3t0a9,Indefinite tactical retreat?,fj3sulb,Robo_Stalin,13kxvt
I believe if the caskets are shot they open.,Chewbaccadog01,2vh5e23m,fj3sskw,"The caskets don't randomly open, sadly. Which means we should probably mod that event in: random opening of all the caskets causing a bunch of mad people to tunnel out and attack you.",fj3l1vr,topkeksimus_maximus,oww3h
Gonna be hell to patch back up,Chewbaccadog01,2vh5e23m,fj3sl3e,"gather man at the beach and shot the wall open, that would lead to the deep ocean (only to the dark blue tiles) and shot them with snipers and what not",fj35rnf,UserOfBeverage,3t5g6hpy
The US can do it if we use vietnam tactics,Chewbaccadog01,2vh5e23m,fj3scgp,"Honestly sounds more like a job for the Starship Troopers, but if you think the US can do it, then let 'em have a crack at it first.",fj3rg2k,crazyabe111,bakhsh
"The ends justifying the means is not chaotic, it is evil.",Chewbaccadog01,2vh5e23m,fj1gatp,"If you did it then things would be chaotic, no? And it would be for a good cause, one could argue",fj10mm9,spaceyspaceyspace,y4a9b
"According to politifact only about 27% of families in the south owned slaves, yet so many fought and died in the war that I think it was more about the fear that ""If they take their slaves what else can they take from ME"" since back then slaves were seen as property.",Chewbaccadog01,2vh5e23m,fix9zrs,They like to pretend it was about “state rights” and then leave out how it was about the states rights to keep slaves.,fix806u,ugottoknowme2,6dq1u
"Well cars in cities skylines have no collision so it doesn't matter what anyone else does, they can move through cars and be fine without putting anyone in danger",Chewbaccadog01,2vh5e23m,fiowp4k,It needs to factor in all the dumb fucks who realise too late that they’re in the wrong lane & then need to swerve quickly to change.,fimsogs,mrbrendanblack,4sv2zqjb
Thanks.,Chewbaccadog01,2vh5e23m,fim3z0i,Yup.,fim3t12,SharpeHollis,2u0g4c1z
">You Trump supporters don't mention ""drain the swamp"" anymore

Literally two minutes on T_D disproves this.",Chewbaccadog01,2vh5e23m,fiklim5,"Ironic, because Hillary thought the same about Trump. 

Now it's his turn to do the pied piper. I bet it will work even worse for him because Bernie isn't just telling lies about what he plans to do to get votes.

You Trump supporters don't mention ""drain the swamp"" anymore. Sort of like Obama forgot about a public option once he got elected. But mean-spirited, own the libs keeps you warm at night.

Trump has a huge tell. He obviously would play poker as badly as he does everything else.

You wanna own the libs? Vote for Bernie in your primary.",fijlvfy,WikWikWack,b19gy
"""Actually god isn't real hehe"" *Tips fedora*  

Daddy government doesn't care for you and I would trust in an imaginary diety over a small group of people deciding what I can and can't do.",Chewbaccadog01,2vh5e23m,fij8nzx,"Ha ! A libertarian Christian. I really hate America. Sweety god is a lie. There is no magic space daddy that cares for you. Read some books beside the Bible. 

Wait those this mean that God could take your rights away ?
And is it really ok to kill to protect your rights ?",fiiug92,Tubulski,4fjjri3w
"12 days later, my main researcher died but I replaced him and researched everything, a few mechanoid ships without deaths or major injuries, raids, turns out when I was mining for steel I dug out 1 under mountain and it was out of where I could build which was annoying but A few IED's solve the problems. I sent expeditiona out to a new colony with survival package meals to get more steel as I could only get some from trader ships and cargo pods. Everything goes fine until today about an hour ago a raid with grenadier pirates. I managed to kill all of them but my colony was out of shape for a bit. Turns out they blew out some under mountain rock and I  got a large infestation, I drafted everyone except the guy still recovering from the previous raid, and sent them to the other side of the wall but they broke out and started killing everyone. I had Dan try and save my builder and shooter but he went berserk and killed her. I tried to send him in to save my cook with Alzheimer's and only 50% max conciousness  but he died on the way. I decided if Dan was going to die it may as well be in a blaze of glory, so I got him a doomsday rocketlauncher and sent him in the bugs go mad, he fall. Bug go past him to turret, turret pew pew. Then a man in black comes in and I manage to save Dan. I only have 2 people down from 8. I need to fill in the under mountain area and I also have learned to not fight from only one angle or side. I'll update you on how I end up if major events occur.",Chewbaccadog01,2vh5e23m,ficp28i,I wish there was a remindme feature for posts like this,fh2wbpk,gedmathteacher,boizd
Hat,Chewbaccadog01,2vh5e23m,fia9anf,Hat,fi9zjkv,dan-at-the-van,10dj1t87
Until they get mad and burn their hard work down,Chewbaccadog01,2vh5e23m,fia96sy,"Also, even though they have no passion, having a dedicated pawn just cranking out low-level art is good for some spare change and prettying up walking paths outside.",fia3e8h,ChozoNomad,1jgt9ox
Conciousness,Chewbaccadog01,2vh5e23m,fia8vnq,"Your body is really angry about something your brain did.

Wait, if it's ""We"" but ""Your body"" and ""your mind""... What are we, that own them?",fia8ipg,Lakefish_,3yf57trh
"Trust NONE, no friendship in the warzone known as the Reddit comment zone",Chewbaccadog01,2vh5e23m,fia6sn1,I trusted you...,fia4zbn,penguin62,ncffb
"I feel like if the inanimate object is capable of emotions then yes, it should have empathy, but we're a ways off from that happening so I don't see why people are downvoting you for saying that computer code is deserving of empathy",Chewbaccadog01,2vh5e23m,fi8mqsy,"Why are you being downvoted? You’re right. Empathy should only count towards living organisms, not inanimate objects. If you’re being emotionally manipulated by a man-made object, that isn’t empathy, that’s a sign of you being gullible and easily manipulated.

Redditors are the fucking worst, sorry you had to deal with them.",fi3sn3u,Mirkalal,1luubpzx
Dibs on the legs!,Chewbaccadog01,2vh5e23m,fi8kone,I want the arms,fi7gn8l,Pbjtyme05,3emb06z2
"""This looks strange maybe I should light it on *fucking fire* heheh that was fu-"" *Vaporizes*",Chewbaccadog01,2vh5e23m,fi6015o,"I didn't have any time lol, just got back from the item stash quest the antigrain was from and the second he dropped it is when he got the big brain idea.",fi53dqx,omegakill,n340w
"I have a scar on my  hest from heart surgery when I was like 3, goes down my ribcage. My scar does not hurt at all it just is sensitive to touch",Chewbaccadog01,2vh5e23m,fi3qzda,Is this accurate tho? Do irl scars act like that? I have a couple bu my most severe? Noticeable? Scar is just there on my arm. I forget about it most of the time,fi18zth,Deusvultlife,1ijzqpo9
"""Needle gun"" what in Randy's name is this thing",Chewbaccadog01,2vh5e23m,fi2a5lt,https://www.reddit.com/r/RimWorld/comments/f55686/11_a_new_kind_of_mechanoid/,fi18yrz,pollackey,r9s8p
everything...,Chewbaccadog01,2vh5e23m,fhsv7bz,What did it cost?,fhssg3f,falconfetus8,5lnfr
I see you are a bird boned heretic...,Chewbaccadog01,2vh5e23m,fhsuzk5,That sub is fucking weird,fhs488v,ValyrianSteelYoGirl,alvtvnc
"I totally agree with you, instead of invoking reasonable and rational discussion it just pushes the problem away instead of changing minds",Chewbaccadog01,2vh5e23m,fhgiu14,I personally didn't like the term when it came out because of that also. I just feel like it furthers the divide,fhg781v,Neon_gelion,2bqavive
"Randy struck a poor innocent boomrat with a plasteel meteor, not complaining of course lord randy, allow me good luck",Chewbaccadog01,2vh5e23m,fh9t7xa,"Randy: mmm, let’s throw a meteor at it.",fh8e36j,Lucius-Halthier,4ofrl7wk
Oh shit I'm stupid time to go full french revolution,Chewbaccadog01,2vh5e23m,fh5n791,"Oh then that’s easy, just amputate the neck.",fh5n35d,Salem_melaS,4kicm3dw
"Nah, it's the neck.",Chewbaccadog01,2vh5e23m,fh4zm5g,"If the infected part is an arm or something, you can amputate it from the surgery menu.

If its in an irreplaceable part, such as a torso or a head, tough luck, but a arm/leg you can amputate. He will lose the limb but will stay alive.",fh4ga72,beyond_relevant,5h6wi2cq
"4 hrs later, infestation fucked up my builder so I put him in cryptosleep. I need to get resurrector mech serum because he's at 96% infection and 7 hours until next tend. I'm training a person to get better construction so I can actually get stuff done but it'll be a while as they have 4 with only a small passion. I'll update you at my inevitable doom.",Chewbaccadog01,2vh5e23m,fh4fqs1,I wish there was a remindme feature for posts like this,fh2wbpk,gedmathteacher,boizd
Weebs out!,Chewbaccadog01,2vh5e23m,fh2rpkx,Weeeb,fh2lb5y,AquaticPickle0234,4onn71pj
That gives an opportunity for crazy people just to lie and claim a man raped them,Chewbaccadog01,2vh5e23m,fh2r6om,"I don't think it's that bad. It does cause pain obviously as there are barbs, but from what I read the main point is that it has to be removed by a medical professional, so if you're a rapist then you're affectively turning yourself in, but if your gf goes with you saying she forgot, you should get off with little long term issues.",fh0ph5o,lokiwhite,mj53u
"I removed a mans spine and now I'm sad I can't release him, so I need to get the negative mood from execution :(",Chewbaccadog01,2vh5e23m,fgxlxws,Do you really need *both* of your kidneys? What about your stomach?,fgsse1j,cakebutt88,wdp94
But taxes will? What is the logic here?,Chewbaccadog01,2vh5e23m,fgpcdim,"Because donating to a charity wouldn't solve the problem, let alone consistently.",fgoaglo,Medianmodeactivate,3apjsz0m
The SOTU speech,Chewbaccadog01,2vh5e23m,fgpavnl,"What is she doing, tearing up a piece of paper?",fgodm09,PaperBoxPhone,1041pg
"You know how baby birds cry out for food? Thats what soy does to people. Soy, not even once.",Chewbaccadog01,2vh5e23m,fgod6jm,"Wtf is it doing?

This post has 6k upvotes, but the video has 100k views. This is suppression",fgnws2v,rockwellington,5cwpd
2nd dudes a weeb,Chewbaccadog01,2vh5e23m,fgkktzm,"Title : it really do be like that  

1rst comment : Why using Japanese  

2nd comment : because Japanese (people) are cool  

3rd comment : yee",fgk6fig,Scynati,15ip0r09
"No, it means immigrants. Sweden bring in lots of foreigners, sweden start to boom more.",Chewbaccadog01,2vh5e23m,fgfk4gy,"Some prominent members of the Swedish far-right party moved to Hungary because they wanted to live somewhere with less immigration.

""Immigrants"" just means ""brown people"" to these people.",fgfgf5c,ArchmageIlmryn,7b4nl
"Literally a fact: Exists

Idiots: Clearly white nationalism",Chewbaccadog01,2vh5e23m,fgcd43h,Likely Reason: White Nationalist Narrative,fg9zz7l,Omega_Haxors,ervrg
"I agree, fuck all them, but I'm not going to preach for assaulting them on the street.",Chewbaccadog01,2vh5e23m,fg6p3tt,"Yep! Fuck the Nazis. Same goes for those ANTIFA and BLM fucks, calling for similar ideological holocausts. Go to iFunny if you want your shit opinion of “all speech is ok” to be heard; wearing that swastika supports the killing of over 20 million people.",fg6oy8h,ServerFirewatch2016,3rmr6zar
Yes. He assaulted a dude because of his views.,Chewbaccadog01,2vh5e23m,fg6ooi4,Wear and support the sign of an army responsible for murdering 6 million people...and the other guy is over reacting? Ok 👌🏻,fg69vnr,sardo_numsie,2lbrgzjn
"The most retarded thing I've heard all day. ""Free speech is good but bad speech can be violent and should be fought""",Chewbaccadog01,2vh5e23m,fg6ofhl,"All for freedom of speech here. However, the violence exhibited by that punch was faaaaar less than the violence exuded by that arm band.",fg6l9a6,ServerFirewatch2016,3rmr6zar
I agree fuck the person assaulting people.,Chewbaccadog01,2vh5e23m,fg6o9y9,"Stop crying for some nazi trash, fuck that guy.",fg6ngew,Chacal1312,4mhse0wd
Why the fuck was this downvoted?,Chewbaccadog01,2vh5e23m,fg6o48w,"oh, well they should both have been arrested i guess. throwing things at people is also assault and not ok either.",fg68sw0,LastALongTime,511uvhbx
Assaulting ANYONE is fucked up,Chewbaccadog01,2vh5e23m,fg6ntxh,"I don’t know what that guy expected having antagonized a much bigger dude. 

Where I think the problem lies with this is when you’ve got people like Antifa going around and punching people they simply don’t agree with. Nazis are one thing, anyone who isn’t left-leaning is another.",fg6aqn9,mdh431,gmf38
Yes.,Chewbaccadog01,2vh5e23m,fg6lqe0,You legit think it makes sense that people can just make guns in their house without a manufacturers licence?,fg53y6h,NJdevil202,8rb7o
Ehh,Chewbaccadog01,2vh5e23m,fg6f94f,Ehh,fg6bu4c,aestheticgameg1,5i5o0zku
They have a board called politically incorrect what do you expect of it? You're not going to get people wailing anout the evils of hitler that's for sure.,Chewbaccadog01,2vh5e23m,fg6f6ys,I thought the racist umbrella covered it pretty well but there is a massive anti-semitism issue there. I just think the overarching issue is they are equal opportunity offenders. They hate everyone and everything. And they all seem like they want to fuck their sisters too. It’s nasty.,fg6aiie,syracTheEnforcer,4fllxvx3
It's just a peaceful basket weaving forum,Chewbaccadog01,2vh5e23m,fg6f2fg,Personally I dont think 4chan was made to be racist and was just a bunch of people taking the piss out of skin heads but alas the skin heads are a bit challenged mentally so they didnt understand it was ironic and now that site is fr fr racist.,fg6ep7v,GoofyShploofer,41hz68sy
This is the way.,Chewbaccadog01,2vh5e23m,fg6eeve,This is the way.,fg6a7e2,LSAS42069,4cr7uyzm
There are more people than you think who enjoy cockroaches and leg hair.,Chewbaccadog01,2vh5e23m,fg23tz2,"Can someone explain to me as an Australian why Biden is leading in the polls? He doesn't seem to have any ideas other than to ""stay the course"".",fg1n39n,obtusian,8siv7
How about we don't take people rights away forcefully? If you step on the snake don't be surprised when you get bit.,Chewbaccadog01,2vh5e23m,fg21h8g,I won’t be happy until Murphy or better yet Grewal directs the state police to visit every individual gun owners home and demands their firearms and then they are destroyed in front of them. How’s that?,fg0xqtk,useffah,56miqy84
Why?,Chewbaccadog01,2vh5e23m,fg1mhi3,IMO shooting machine guns in backyard is scary.,fg0sc0y,adamo1139,pjp6a
Exactly why I voted for them to be updated,Chewbaccadog01,2vh5e23m,ffycebn,Dont care what anyone says mountain bases are the shit,ffxsa7r,THEmercianSAXON,28v12e8m
"Oh, is this the part where we make things up to back up our political positions?",Chewbaccadog01,2vh5e23m,ffy9da7,"Oh, is this the part where we pretend we can't see to back up our political positions?",ffwxuf7,not_not_safeforwork,shj27fj
The image was deleted so I have no clue what it was but I'm just going to assume no,Chewbaccadog01,2vh5e23m,ffworus,Did it though?,ffwb1fu,bananapeel12329,34u3kf3o
"His name is dense_resource, did you expect something intelligent to be said?",Chewbaccadog01,2vh5e23m,ffvz01c,"Lmao you are such a jabroni. At the end of the day, playing into someone's neurotic behavior just to placate them doesn't actually help. 

I was the object of her fiance's desire, and she should not have put that on me, from half the world away. My parents will find out about this eventually, whether it's now or when I'm not invited to their wedding.

I love my sister.",ffrnzfj,ThrowRA_sisterissue,5jgbek4y
> Joke,Chewbaccadog01,2vh5e23m,ffvyu7q,"Haha, upvoted as a joke",ffvmbtd,davgieselman,ur6vc
"lol (for the uninitiated this means laugh out loud, which means that the preceding comment, indeed, made me laugh out loud)",Chewbaccadog01,2vh5e23m,ffvyrqv,lol,ffvydjk,bananapeel12329,34u3kf3o
But deserved,Chewbaccadog01,2vh5e23m,ffvyp43,That would be mean,ffvejek,spookysam24,5ck53ixv
