child_body,child_screen_name,child_user_id,child_tweet_id,parent_body,parent_tweet_id,parent_screen_name,parent_user_id
Thanks,christ93,3hbal,fi9eof0,"Accidentally opened Astroneer on my portrait monitor and discovered that the field of view changes drastically when portrait.  This led to some beautiful shots that work great as phone wallpapers!

&#x200B;

Here is the full collection  [https://imgur.com/gallery/qxOeHIW](https://imgur.com/gallery/qxOeHIW)

&#x200B;

EDIT: Here is an updated collection with PNGs. Much higher quality!

 [https://imgur.com/gallery/TGOgmga](https://imgur.com/gallery/TGOgmga)",fi8nfdm,TahmHanks,5qmskgfl
Nice...,christ93,3hbal,fhwjst5,"Known race-ist.

&#x200B;

&#x200B;

I'll see myself out.",fhvbzvp,LostSaxon,2gkxxxn6
Charging plates or devices.  They fried some devices IIRC.,christ93,3hbal,fha80dr,"Wasn't the gear on Destiny charged like that as wells?

I've only watched the series once but I seem to remember something like that.",fh9kz2v,JonathanJONeill,t8ryk
"Isn't ""she"" former Stasi?",christ93,3hbal,fgoejxn,"“She called for new elections in the state...”

Seems oddly familiar to the actions of politicians of a certain former-EU member 🤔",fgoaeso,TX50BMG,pxnfn
CNN is cable only.  They have no license to pull.,christ93,3hbal,ff3q72x,High time to pull their broadcast licence or is the FCC in cahoots with them?,ff3aqoz,Baggo-nuts-4-sale,3v788sz
Yes.  A must watch.,christ93,3hbal,fdd0hbe,Ok - that’s a must watch!!!!,fdcw9n8,Bigtexindy,rwpiq
If you forget the GDO you are SOL...,christ93,3hbal,f7t96md,Don't forget to bring your GDO if you can't locate a DHD!,f7pzvg7,Igot1forya,1v71czjr
Like what they are doing to Witcher at Netflix?,christ93,3hbal,f6dq0qj,"Oh it could be remade, but you wouldn't want to watch it. It would be made more diverse including gay and transsexual characters added. Plus there would a push for Orc rights and how they are misunderstood.",f6azrp3,xiao_ke_maga,4thosvnf
Finally on bitchute,christ93,3hbal,f2bl3vy,If they censor that one too: https://www.bitchute.com/video/jwnRQ3GYmm0/,f2bgpti,Trump-Alt,2h2th6gi
Then go ahead and apply.,christ93,3hbal,f25hof6,It still is but they're running a request to join via the hub right now,f25gd1r,Noctornus,lpax9
Burger(on the right) and pizza(left),christ93,3hbal,ewv9qnp,"And today I learned that it's called the nexus button.  Anyone know what the ""start"" and ""back"" buttons are now called?  I see one referred to the hamburger button and the other the pip (picture in picture).  Probably the wrong place to ask but hey.",ewua680,spiffiestjester,cw28f
Was waiting for the heyjackass link.,christ93,3hbal,ew02z9h,Running tally of Chicago shootings here: https://heyjackass.com/,evzyx9k,Deftodems,41xji34j
Came here to ask what the fall back plan was.  Voat?  Gab?,christ93,3hbal,evxajmq,And whats our backup plan?,evwv5a3,QuarantinedPepe,41aw5kji
Test post,christ93,3hbal,eu5y5fg,You’re not alone - I went to view my own posts on my profile and it hid all td posts (but showed others). This was a day or two ago.,eu5xw6m,yousirnaime,413yq
Vivaldi and DDG/Bing,christ93,3hbal,et3zgh5,Brave browser and duckduckgo. All you need.,et3p00d,NavyVet1961,40yrsmce
Most of the fireworks in my area went off last night.,christ93,3hbal,esux9hv,"I can buy it. Watch party is over. People are outside grilling and watching the kids play in the yard, waiting to set off copious amounts of fireworks.

Sounds pretty plausible. Heck, I got brats going right now in fact.",esuq1u8,altphil,21bi11
Jost voted.  24,christ93,3hbal,esdaj48,Just nine? More!,esd6u9r,PTT809,rs05oby
https://www.bleachbit.org/cloth-or-something,christ93,3hbal,eplqum7,Just wipe it with a cloth dude wtf,eplphet,Meegs294,dqc8i
Global cooling was the big thing in the 70's.,christ93,3hbal,ep5h8fg,I think it was on the cover of Time magazine in the 70s.,ep5g6om,W_o_o_t,fx3k6rm
Just checked.  It's still up.,christ93,3hbal,enxr58m," [https://twitter.com/krassenstein](https://twitter.com/krassenstein) 

&#x200B;

It's still up. Fingers crossed.",enxdyvf,Victory_Toast,xi8bi
Have you hard booted the console?,christ93,3hbal,efe6mvp,Xbox is still doing the black screen thing for me. I don't even get the green start up screen anymore. Will this update auto download or will I need to wait? Don't suppose this update would resolve anything about the black screen eh?,efe519n,riphelix,qy3xm
support.xbox.com is down at the moment,christ93,3hbal,efdmw6c,"Hey folks, thank you for the reports.  What I've gathered here from this thread is that it's affecting both Insider preview builds, and public builds.  I'll make sure that the team has these reports.

If you're able to, please report this with Report-a-Problem on the console - those reports will have some pretty valuable bug data so that we can get to the bottom of this.

Edit:  Service is restored.  If you're still having trouble, restart your console.  Hit the Nexus button to bring up the guide, RB over to Settings, and down to Restart Console.  
",efdk41v,Xbox-Insider,12jcvxmc
Atheist here.  Don't care...,christ93,3hbal,efd9x7k,Blur it out! Looks like a cross which will bring all the atheists in...,efcwc2p,Jimmyk62,ign10
I added a dislike too.  Went back and it was at 3 still.,christ93,3hbal,ecetu5c,"WTF I looked up the video sure enough only 3 dislikes. I added mine as 4th.

Fucking fascists. ",ecepeg3,JimmyJimmyJoeMack,rafp4xf
They Live,christ93,3hbal,e86qlhb,-Proceeds to not name the movie,e86qc6v,RetainedByLucifer,gs49q
"My update crapped out.  A restart of the update fixed things.
",christ93,3hbal,e83q4rs," A few people have reported this today, but also reported that after retrying, the update was successful for them.  Let us know if this persists.",e837myv,Xbox-Insider,12jcvxmc
Just came from there.  Seems to be doing well.,christ93,3hbal,e5xnzdd,"Is Gab dead? Haven't heard about it in the headlines in a while and haven't touched my account in months.

&#x200B;",e5xlyws,RaspberryPiPiece,16u8cq
So they want to ban me from subs I don't and won't visit?  Thanks for saving me the trouble!,christ93,3hbal,e58ajiq,Many of them mod 100s of subs. They'll just come here and ban you from everything they mod.,e587yq0,AggressionSsb,byo9v
"Torrent much?
",christ93,3hbal,e4skyxj,I love KODI.,e4s6g8q,TheRealGEOTUS,1goxnhf6
"Pretty sure it is.
",christ93,3hbal,e3w28ge,"Not only that, but what guidelines/laws did the school board violate when they publicly released a students medical records?  Isn't that a HIPPA violation? ",e3vxdpt,Misha80,8y8mp
"That the short version of the longer video that does have a crash.  Let me figure out how to find it.  

Edit  https://youtu.be/5R8FF8Zi7-A
",christ93,3hbal,e3fzx0z,"Thanks for the video - that's not really a crash but an errant animation going nuts.  A crash would have closed the app and returned you to Home.

Thanks for filing and for the video - we will take a look at it!",e3fz9mm,randynoarms,fo5n5
"I dont think so.  Here is a short video of some of what I was seeing.  

https://youtu.be/kavLIQ5MDq0",christ93,3hbal,e3fy6x5,Thank you!  QQ: were you also wearing a Mood at the same time?,e3fxen0,randynoarms,fo5n5
That's where I got them from.  In 2013.,christ93,3hbal,e3fiinx,probably is already on the pirate bay.,e3e13a5,dirtymoney,31hlf
Just backed up my settings and its off by default.,christ93,3hbal,e20o2lc,"Think that's set to on by default NodNolan. 

(Can't remember 100% now though) LOL

:o)",e20mkl5,theweebearuk,18amygez
"I started a new save and am having no problems.
",christ93,3hbal,e1wy8i4,"I used my save file from the 8.0.0 patch and my game is running really slow and laggy anyone else having the same issue? And does anyone know what the shredder does? 

Thank you!!! ",e1wumot,Twein10,rvww7yi
"I thought it was a nice feature.  Not having to wait for the controller to finally turn off before rebooting the console.  But I am pretty sure I made a report about it
",christ93,3hbal,dzysm9a,So this happened a few weeks ago with you?,dzyqd2l,ugaphoenix,4mkmd
Too late.,christ93,3hbal,dzgcu69,But is it too late?,dzgaqg9,LeighDeplorable2,4thfviy
"If it's still working, I am not messing with it.",christ93,3hbal,dzd4z5x,You probably don't have a 1708 then. Time for you to upgrade😉,dzcv5a0,Nooblade,u6a6j
Anyone in the Insider program?  I have read reports that they are having multiplayer issues like you describe.,christ93,3hbal,dyly7wh,"I've been playing with two friends for the past week or two.  Last night, Friend A was able to join, but was kicked.  Friend B joined, without issue.  Friend A never could rejoin.  If I remember correctly, the message was that it was unable to connect to host.

I'll see if I can get a shot of the error from him.",dylstdy,seondave,6uye9
Destroy All Humans is not on the marketplace.  Just checked on my Xbox.  I thought the next batch of OG games were coming out on the 27th.,christ93,3hbal,dxwlk5w,20 dollars for destroy all humans????? are they out of their minds?,dxuuowb,revengexgamer,wrg8z
So it seems.  When will they learn?,christ93,3hbal,dxb736d,Are they deleting comments? It says there's a bunch but I can only see a few and none that are critical.,dxb3smy,iwantmyothernameback,d859m
Subbed 919,christ93,3hbal,dstkotd,https://www.youtube.com/channel/UCPwbX9ARFeMgosGTHNHKajw,dstgpms,wizard_of_wisdom,skeu1
Still got my Lancer.,christ93,3hbal,dsfjvn0,"My avatar still wears the aviator jacket I unlocked from ""Dead to Rights: Retribution"".",dsfdhrf,bubbameister33,3ws2d
I noticed that when I started to update.  At least it finished quick.,christ93,3hbal,dpqixza,Alpha's build is 3.6 again tonight,dpqh1dq,Newms323,a0d02
The update for alpha last night was 3.6 GB.  It finished pretty quickly.,christ93,3hbal,dpq85a3,What the install size for beta and delta ,dpq7akw,Braddog2,o7zpu
"Launch was 12/16/16
",christ93,3hbal,dpctfj3,the game has been out for a pretty long time due to the preview program. last time i played it was close to a year ago.,dpcg8yd,TheSilentTitan,neky8
It was a slow roll out for me.  Check in the ready to install section.,christ93,3hbal,dotyics,yeah showing as not available digital for me in Scotland. hope its just a slow rollout.. although Black is downloading just now. ,dottttb,taaytheunderdog,gw9mz
"OG XBL is completely disconnected.
.
",christ93,3hbal,dosewi1,"I wonder if I bought these, would I be able to connect my OG Xbox and play it on that?

Is the OG XBL completely disconnected?",dory5w0,YouAreSalty,hn5j1
I have been here since the 60's.  All I want to do is MAGA.,christ93,3hbal,dolia7e,Dang I've only been on this planet since the turn of the millennium,dolf8od,Dankhub,15vael
"No issues.  Alpha.
",christ93,3hbal,docev0c,Can I please confirm how many people are hitting the e100 with the new build and who has succeeded? ,doc6dkz,Workwombat,ryo5a
Alpha ringer here.  Nothing new in the store,christ93,3hbal,dnbfaf4,probably the new avatars,dnba5px,RWBY2,te4nm
"https://onedrive.live.com  
",christ93,3hbal,dn0d2vc,i see and the one drive I access where?,dn0aszb,Luentrix,15hxcc
You can share it to your One Drive and then upload to youtube or down to your PC.,christ93,3hbal,dn0ajef,can we record and all and upload it to youtube or download it to our pc,dmzzgrr,Luentrix,15hxcc
It is the patch Steam got last week.,christ93,3hbal,dm2uv7v,"[Nothing yet](https://forum.systemera.net/forum/8-patch-notes/). Hopefully soon though.

Edit: Actually I think it's just the hotfix that Steam got first last week. https://forum.systemera.net/topic/31254-200-hotfix-august-19th-2017/",dm2tzd5,HolyCodzta,ofe5l
Insider app also works.,christ93,3hbal,dlzsbb4,I think that is the only one I've tried that works,dlzqjet,friendlyshinobi,4nw10
Netflix worked for me.  ,christ93,3hbal,dlzpwc6,Can't open twitch so I assume it apps as well.,dlznwgw,Biscotti_Pippen,hh8m0
I think its a Windows 10 thing. MS is really pushing cross platform between xbox and Win 10 PC.,christ93,3hbal,dlur5am,">Gears 4 is a microsoft first party IP and a console exclusive. 

>Fortnite is neither of these things.

What does first party have to do with it?

Rocket League allows cross play with Switch and PC. Is that better for you?

How does joining an Xbox player from PC work on Fortnite in the past? Anyone know?",dluqgyv,YouAreSalty,hn5j1
"Same here.  But I did get the steam update.

Edit:  I got Astroneer to update by going to the store then going to Astroneers page.",christ93,3hbal,dlro3w9,"I don't have it for some reason, xb1 :(",dlrllf7,commander_cuntmunch,kbxkj
Cincinnati did become a sanctuary city.  The suburbs are still nice.,christ93,3hbal,dkm28ve,Damn. Very sad to hear. I love Ohio. Is Cincinnati also cucked?,dklvvgu,RedFoxThomas,odql7
"
Where from?  I cant find on amazon.
",christ93,3hbal,dkizxlj,"Shirt ordered!!! As a bonus, ordered via smile.amazon and supported Project Veritas also.",dkit55n,sdshelt,9fqm7
"Uninstall and reinstall the game.  Also report the problem on the forums. astroneer.space
",christ93,3hbal,dkhqc2o,"Not too old, I got the game maybe a week ago. Played it last night. I started a new save no problem just now, and can't load it either. It begins to load, freezes, and the game crashes. ",dkhp3i3,Otlot,zvp9w
"The only time I have seen someone instapermabanned is when they modded their avatar.  

https://account.xbox.com/en-US/Profile?gamerTag=o+R+a+s+c+a+l+v",christ93,3hbal,dkccwtz,"""You will get a warning. They don't just go straight to perm ban. You had to have done something before.""

This has proven to be false time and time again. Want to be permanently ban without reason? Here's one way; make a purchase then cancel it through your credit card company. Instant ban. No warning. No emails. Nothing.

Doesn't matter if you never made the purchase yourself. You are permanently banned. Want to call MS support to help you? Don't bother. They have stated again and again that they have NO contact with the enforcement team and No control over ban/suspension issued.

",dkccc03,anakin1138,wnsc6
Most likely a public update.  Preview has had custom gamer pics for a while.,christ93,3hbal,dk6aqse,Is this another preview update or is this a public update?,dk68ed9,Benreineck123,tj1qm
legacy voice commands are working fine.,christ93,3hbal,djy190u,Did anyone's kinect stop responding to voice commands?,djy0bjo,Leafs17,jjgq3
I have a wired connection to my modem I still reboot it daily.  (Modem has a nasty memory leak),christ93,3hbal,djfmb9f,"Your routing table could be filling up, which will definitely crash your router. If that's the issue the only way to fix that is to get a newer router.

Depending on what router you own, you may be able to log into it and monitor stats like CPU/RAM as you game.

Also how close is the Xbox to the wireless router? Less then a few feet can cause problems. And if it is that close, just hard-wire it to the router.",djffbf6,null-character,zair0
Angry walrus,christ93,3hbal,djd0eh3,I always liked the walrus better,djci90a,vvfs-,e4xxu
4 TB for $109 on Amazon.,christ93,3hbal,dj36643,"Buy a 2TB hard drive.  Trust me you will need it.
",dj362ak,AkaYoDz,158fjy
Alpha ring member here.  2 out of the last 4 nights I have gotten an update.  Something is coming.,christ93,3hbal,diznldm,"I think it's very likely that preview members are going to get it a few months early, so fingers crossed we'll soon see how it looks like.",diz2n90,bamboobam,fr2q7
IIRC OG Xbox games did not have cloud saves.,christ93,3hbal,diwggs9,"Maybe they can read the cloud saves for it, but even that may not be trivial and may limit on the types of achievements that can be available for it.",diw2u2v,NapalmDest54,uavj7
"Get one of these.

https://www.amazon.com/Belkin-BE112230-08-12-Outlet-Power-Protector/dp/B000J2EN4S/ref=sr_1_3?ie=UTF8&qid=1497141558&sr=8-3&keywords=power+strip+surge+protector",christ93,3hbal,diqk5v5,I'm coming to that realization unfortunately..,dipwgds,antwturn,13cnd0
That is way more cheaper than child support.  $5000/year was my child support. ,christ93,3hbal,di72yog,"yep it is actually pretty cheap too. I got mine frozen for $500 and storage is $350 a year. The place I have mine at just did a pregnancy last year from sperm frozen for 25 years so it will last almost forever.

$350 a year is waaaay cheaper than child support that is for sure",di6mdfn,SCV70656,11p8i6
"Time to start yanking White House press credentials?

EDIT:This went negative for a while...",christ93,3hbal,dhq5g3a,How long is the media going to keep playing the 'this is the end for Trump' card?,dhpw9mn,pyroblastftw,hwsrm
If you see the year 9999 thats a permaban,christ93,3hbal,dhkcrc5,Okay thank you ,dhk6393,robstrk12,jp562
That's what it means.,christ93,3hbal,dhk1797,Just showing you the Power Brick is still holding a charge.(I think anyway),dhk0dbw,Hraegsvelgr,1609hm
Crap.  I forgot to see if I had the DLC already.,christ93,3hbal,dhjz1cu,one of my favorite games and I never actually played any of the DLC. guess that's about to change,dhjy28x,mr_lightbulb,6r9xl
Dynamite.  ,christ93,3hbal,dh7r158,How does it explode? Like do we throw it against the ground too hard or does it blow up with the dynamite?,dh6jdnx,eku952,rrp28
"I just played Astroneer with my keyboard on my Xbox One.  My mouse was ignored, but I was able to play the game(poorly).  ",christ93,3hbal,dh7k16w,"It works for text and such in a few games, i think the person is talking more about being able to play using kb/m",dh7h0qm,MrFiskeh,jyaok
The heat seeking boxes have been patched in the experimental version.  Also the printer and vehicle bay does not have to be researched anymore.  ,christ93,3hbal,dgnek5v,"New terrain tool changes:
-augments
-different colors 

New research curve:
-Game is now a bit harder because research is rarer


Hydrazine can't be traded. 
You can't build pillars under yourself. 
Storm now have hear seeking death rocks(bug)",dgna8b0,WhatIsGey,112o10
Get rid of the . ,christ93,3hbal,dfe6ytg,"Weird... when I edit the comment it shows 2, but published it shows 1! Not sure how to change it. ",dfe6ecj,Throwaway_Apple125,16axka
Walking Dead for me.,christ93,3hbal,de8qrdy,"The Oscars Drinking Game: Every time an egomaniacal, overpaid, bloated, virtue signaling drug vacuum hypocrite wastes their influence by sharing their worthless out of touch opinion and bashes our democratically elected president and his supporters, you have to take a drink. Anyone who participate in said drinking game will need a ride to the hospital on standby.",de8l9ks,Maga49,ylwh9
"o/
",christ93,3hbal,ddx54xo,Everyone who is online right now raise your hand. ,ddx30s4,LeakyTrump,13tc7d
I was #61.  Its worth the wait.  The only thing I use twitter for now is shitposting.  And I think they already have an account set up for President Trump,christ93,3hbal,ddgtn3t,Don't know about you but I'm seeing a waiting list with 400k on the counter.,ddgr6na,Ancipital,aoj2l
"https://youtu.be/xbOd-gnWLt8
",christ93,3hbal,ddafedz,Anyone got a link to the vid?,dda7tt0,hog_master,ogcfb
Yes.  ,christ93,3hbal,dd5fpgj,The $20 now gets you the full game when it releases correct?,dd5b1o0,damstr,dshfv
"I have had stuff left in a pit vanish
 ",christ93,3hbal,dczlttm,Everything stays forever,dcynsmg,PipeItToDevNull,102y79
$2.5 billion for station expenses.  $34 million for compensation.,christ93,3hbal,dcy0ays,"It's expensive too, check out these salaries for the heads of various NPR and PBS affiliates.... 

http://current.org/2015/11/the-numbers-what-top-executives-are-making/",dcxxd0l,DooDooDoodle,xxyzc
Canada will look into it for the SS,christ93,3hbal,dcv9aww,"Can't attach pictures there!

These guys are all Canadian as well I might add.",dcv8wcc,Trumpr2016,x8ic3
I can confirm the the pirate bay is still operating.  I used it about an hour ago.  ,christ93,3hbal,dc7zlm3,"I heard the pirate bay is still operating,... Hmmm, oh well I'll see yall at the library ",dc7ylmb,punches-babies,ienrt
He traded down.,christ93,3hbal,dbvb54u,"His name is Jack Antonoff and he used to date Scarlett Johansson.

Talk about fucking up.",dbv89yu,unclewally123,10kixu
And fucked things up further.,christ93,3hbal,dbnjxm5,"> Barack Obama still believes in the message of “hope and change” he campaigned on in 2008

You had eight years.",dbnjcbi,shadowman3001,5y6sb
40 years ago global cooling was the big thing.  It was not preached at school at least.  At least I don't remember it being preached.  ,christ93,3hbal,dashm8d,"Oh this is just the exact thing...

You made me remember how much they pushed this agenda at our schools. And I come from a poorer family(because migrants/political refugees). So the least I could care about is of how I am guilty for creating a hurricane somewhere else. We don't have the money for the Leftist Green bullshit they spew at us every single day.",dasbsja,TherealScrable,nap4n
"I am entering year 11 of not getting married again.  Like everyone else said, get a lawyer last week.",christ93,3hbal,damzlvd,"And then never ever be stupid enough to get married again.

...of course, if OP is like most guys, he won't last 5 years before tying the noose again.",damfwvx,grasshopa,ib21s
Gab just sent out 25k invites.  You are getting closer.,christ93,3hbal,da8etqx,"Yeah...I'm 155,000 in line to get in. ",da7qhab,Hulagurl36,ypzpi
I got rid of my twitter account a couple of months ago.  Gab.ai is a very good alternative. ,christ93,3hbal,da7cafs,Just deleted my twitter account. No way I'm being part of a company that would ban someone like Milo and then allow the Muslim Brotherhood.,da7bqcs,parkegs,60cad
"Jesus that is expensive.  I think I paid $150/mo, but that was 19 years ago.
",christ93,3hbal,da3dry1,It's what I was quoted for an infant this week. ,da3bok2,Housethrowaway123xyz,y4exo
"Yes, move Hannity back to his old time slot.",christ93,3hbal,da34ubs,I'd like to see Hannity in that time slot.,da2ypq7,EnergyHealer257,rbx99
Throw a new hard drive into the PC.,christ93,3hbal,da2wpmn,Better Format c: /,da2owp2,spite79,12esfa
"gab.ai  Check it out.
",christ93,3hbal,d9z71rv,Can we make an open source twitter? How hard would that be? ,d9z1yi4,thiscontradiction,k934u
In the past multiplayer on Live required a gold account(unless it was a rare free weekend).  I never considered how Windows 10 would handle multiplayer.  I will reach out to @xboxsupport and see what they say.,christ93,3hbal,d9kdl6k,I dont think you would need a live account if you were playing on widows 10 and partying with xbox players would you ? im not sure ,d9k3lch,MFN_00,d2lym
"I like this, and will use it in the future.",christ93,3hbal,d9fpj2t,Now you can just order Yuengling to sort out the real women from the libtard girls.,d9fnrik,frombildgewater,zveea
"Not if there are no charges filed.(They will be, after Trump is sworn in)",christ93,3hbal,d9ehhfv,Obama will pardon Hillary before Trump gets into office ,d9e9g2j,UnicornMoonPie,zc2ja
