child_body,child_screen_name,child_user_id,child_tweet_id,parent_body,parent_tweet_id,parent_screen_name,parent_user_id
NO DO OVERS!,Drekken-,8lsxe,fkycwe7,But he got it right the second time!,fkya871,Uhhcountit,23bgq34q
That word is the reason we have so many people saying would of.,Drekken-,8lsxe,fky5wsm,Would've?,fky583k,ILoveHaloReach,4ti2yvmv
You would *of* went to grammar jail!,Drekken-,8lsxe,fky00as,Honesty I would of went to jail... I would have probably killed him if he spit on me like that! What a disgusting animal,fkxxb3g,lordbnor,z3ch6gc
"Did you listen to him earlier? I did. He said in the past you would have to have multiple copies of the same thing over and over in the game file. This will not be the case with their new architecture. 

Based on what he said, I assumed that game sizes would be able to shrink. I understand games get bigger and the higher resolution textures and such will add size, but you won't have multiple instances of these files. 

I still can't see under 1tb being enough storage. I have to delete a game every time I want to play something new on the PS4 and I have 2TB.",Drekken-,8lsxe,fkv5qmm,"~~This is absolutely not true. Data an on HDD will take up the same space on an SSD~~

Edit: I guess I did misunderstand that. I assumed it was duplicating the data at runtime but apparently it sits like that on the HDD at all times. Never heard of this in game development.",fkv560u,jondySauce,6qjmw
My $2000+ surround sound system cares.,Drekken-,8lsxe,fkul7dq,"Where did they get the idea that people care so much about audio? What the fuck, fuck your pussyweak machine bro",fkukh4n,cutememe,9b7kd4g
"> skype

The only xbox exclusive?",Drekken-,8lsxe,fkui6rp,Microsoft is laughing through skype right now.,fkuhl3f,valkon_gr,hi6ie
"GDC | Game Developers Conference

Just in case you didn't know what GDC stood for. Obviously this is a world wide reveal for the PS5, but the public isn't invited to GDC.",Drekken-,8lsxe,fkuhpyu,"> this was meant for developers

Developers have had ps5 kits for over a year now. They already knew this information already dude. Where have you been?",fkuheix,ichinii,b5fci
k,Drekken-,8lsxe,fkuh5ts,lol you’re a POS,fkugxlt,DConner777,75e9c
"The delivery isn't ideal, but give me a break. Everyone has the attention span of a gnat.",Drekken-,8lsxe,fkugvtd,that doesnt matter if the info fucking sucks bro,fkugs25,-Apollo_,1gd9gvdp
YESTERDAY WHEN THE MILK HIT HIS BODY.,Drekken-,8lsxe,fkrqh6o,WHEN?,fkrn05m,TargetedinNY,22dktytm
"It's 3:16 day.

He's celebrating Stone Cold Steve Austin Day.",Drekken-,8lsxe,fkrhfjf,WHAT?,fkrg43r,CaptSbalding,132shed3
"I will never understand the desire for this. If it could be done without added price because of the PS3 architecture, that is fine. But if I have to pay a dime more so that people can play old PS3 games on the PS4 I will be annoyed. The cell chip manages everything different. Ps4/Ps5 will be the same. I really can't see PS3 emulation happening.",Drekken-,8lsxe,fkqpfqv,"If this is backwards compatible with PS3 games, I’m gonna scream. 

I knew I held onto my metal gear solid collection for a reason!",fkqle9i,Josh100_3,qt55v
"> Frankly, I see both Trump and Romney as New World Order puppets

Go get your eyes checked.",Drekken-,8lsxe,fkofnry,"Frankly, I see both Trump and Romney as New World Order puppets.  The democrats and republicans are two sides of the same coin.",fkob3cb,xXSniperLord5Xx,3ufs7oia
"You know there is such a thing as being a lazy slob that doesn't require ""mental illness""? Not every person that is a disgusting pig is also mentally ill.",Drekken-,8lsxe,fko4dhv,"I see tobacco, cannabis, gambling, alcohol, soda, and internet addiction.

Mental illness is a bitch, people aren't born this way, our world corrupts them.

Edit: Another thing I notice is the lack of keyboard, it likely broke and he's been using on-screen keyboard instead, wonder how long that's been case? Been there mysqlf, anything like me and it might be weeks to months before he's able to source another one.",fknvany,Cryptic-Spanner,1cw06pyy
"Hey, stand down. Come in hot against Trump or nothing at all. This isn't time for common sense. Make fun of him and repeat all of the official news about him you hear on twitter.",Drekken-,8lsxe,fkfb5jp,He obviously means the meaning behind the words..,fkfaq3o,XXXTENTACHION,1xnniwx5
"It is dishonest. ""Gillem caught inebriated in hotel room with a gay, male prostitute overdosing on meth"" would be a better headline.",Drekken-,8lsxe,fkf3uir,"The term Orgy here doesn't seem accurate.  Even if that was the intentions of the 3 men, it doesn't appear to be what happened.  Seems like a dishonest headline.",fkexngp,JeanUncanny,a6oloui
Move to California. DeSantis is great.,Drekken-,8lsxe,fkf3py4,And im still convinced he would be better than Desantis,fkew1us,iamawesome125,98466
"I'm sure your family is proud of their little social justice warrior. So committed to the cause, you even attack granny.",Drekken-,8lsxe,fkc69rj,🤷‍♂️ deal with it,fkc65cx,Lizzardkinglucas,13fd0p
Take that cucumber out of your ass and see if anyone wants to eat it.,Drekken-,8lsxe,fk7uws4,A senile Biden will do less damage than an evil and borderline retarded trump. Trump enables the vicious GOP. A cucumber is better than trump and the GOP,fk61oxk,StMordi,dy9vv
"Hillary is like the human equivalent to the Coronavirus. She was completely unlikable. 

Most states you can vote for either party regardless of your party. If you don't think Trump supporters are voting for Biden in these states, you are wrong. I don't know anyone that thinks Biden can beat Trump.",Drekken-,8lsxe,fk7use5,"Debates don’t win elections. Hillary wiped the floor with Trump in the debates and people hated her anyway. Turning out old people and minorities wins elections. Both of which Biden has shown to be very good at. Also money. Bloomberg has pledged a whole lot of that, and he’s not the wannabe billionaire Trump is. I don’t disagree that he’s old and senile, but Trump can’t even spell. Half the voting block is old and senile",fk6i33n,ChucktheUnicorn,9l1v6
"Shhh, let them live in delusion. It is easier that way.",Drekken-,8lsxe,fk7u45k,"No she didn’t lol, did you even watch the debates?",fk7frft,TheBiggestCarl23,hpzykij
And I love kids jumping in my lap!,Drekken-,8lsxe,fk5xu01,Take him out behind the gym. To the pool. And let him rub down his hairy legs.,fk58mlc,Sredni_Vashtar82,2wt1enh4
What do you mean? Joe Biden will beat ANYONE in a push up contest!,Drekken-,8lsxe,fk55at1,Can we all agree that joe Biden would get torn to pieces by Donald trump?  Regardless of political affiliation this guy can not stand on a stage with trump and come out on top,fk53kke,Ask_A_Sadist,ctfhr
"Lay off the carbs, Karen!",Drekken-,8lsxe,fk54gdz,He can tell you don’t need any more calories. He’s trying to help.,fk52xro,NF-OA,4kex0cxm
"Hence his song ""Burn""",Drekken-,8lsxe,fk4et4o,Usher too.,fk414pi,Nicekicksbro,g3s90
Back up. Their server was terminated. They had to move the site.,Drekken-,8lsxe,fjl7lbf,TheDonald.win is down!!!!!!!! Fuck reddit and fuck whoever is nuking our only sanctuary,fjl4j6t,yeezytrump,195pv7gn
"Woah, there. You have anger issues. Have you been paying attention to what reddit has done to us and this sub or is your head so far up your ass you think everything is okay?

I never said we should move. I have an account over there because this sub has been knee capped. I don't agree with them shutting the  sub submittions but what are they supposed to do? Let the left infiltrate and post rule breaking posts and comments? They fired the mods over here so no one is here to enforce the rules. reddit is asshoe. So are you for your tone and general asshole attitude.",Drekken-,8lsxe,fjkhkwh,"Tf are you talking about faggot?  You are one of the ones pushing to move to that piece of shit .lose website like a pussy instead of fighting to keep The_Donald open.  .lose isn’t even up lmao, what a piece of garbage.",fjk93yh,the_big_cheef,f2i5b
Take your morning Lexapro and come back when you are feeling better.,Drekken-,8lsxe,fjk1zun,Stfu faggot. I’m never going to fucking .lose.  Staying here till the faggot mods grow a pair of balls and open it back up,fjjvgdf,the_big_cheef,f2i5b
I was wondering what the Chinese were spraying all over their streets. Febreeze! What an endorsement.,Drekken-,8lsxe,fjh7l4s,Its the only way to kill the virus,fjh2ufv,internetopfer,24l52sus
Pretty idiotic theory to anyone that has been paying attention to the way reddit has shut us down here little by little.,Drekken-,8lsxe,fjghp1b,Probably the theory that Mods tanked TD on purpose to drive traffic to .win.,fjga6px,Nearlydearly,pg4dh
"I remember watching a fight where one guys leg was being abused by kicks. Joe Rogan kept screaming ""A kick!!! Another kick!!! Another kick!!! Another kick!!!"". I still laugh about it today.",Drekken-,8lsxe,fjdhhs8,"I don't think  Joe's commentary is as good as it was 5-10 years ago, but he is inarguably amazing. Few sportcaster in any sport manage to convey their knowledge of the intricacies of whats going on and combine it with the passion they have like Joe. there are so many momments where Joe's pure love for MMA on display when crazy shit is happening. endless iconic calls.",fjd71fl,The_Dude_46,h5udb
"> Joe will die of suspicious circumstances post inauguration.

Cool story. Donald Trump landslide is coming. There will be no inauguration for Joe Biden. These chumps are all playing a game to see who will lose in November.",Drekken-,8lsxe,fjd0np8,Mark my words. Hillary will be his running mate.  And Joe will die of suspicious circumstances post inauguration.,fjctzcf,KatsKlaw,lhs0txh
"If you liked this joke, just wait until Saturday night!",Drekken-,8lsxe,fj19fnu,Which part was the joke?,fj18fwt,Jaredisfine,4bvj7
"> So, I can only take 199 aspirins in my life? I feel like I've taken more than that already.

I am sure they mean at the time you take it. Don't take 199 aspirin at the same time.",Drekken-,8lsxe,fj18rwm,"So, I can only take 199 aspirins in my life?  I feel like I've taken more than that already.",fj165vt,appyah,2oj93heo
Trout Mouth.,Drekken-,8lsxe,fixmtw4,Did the two year old destroy her tooth brush also?  Some people shouldn't have children..... ever.,fixdln9,Chirails,21h0jpi4
"> Terlit, change the eryl in the car, etc.

I laughed my ass off the first time I heard my uncle say terlit. I made him say it tree times!",Drekken-,8lsxe,fiumlgd,"Agreed, the Staten Island accent is just a migration of the brooklyn accent. My grandfather (lifelong Staten Islander) had the old school accent in a big way. Terlit, change the eryl in the car, etc.",fiuinug,fathercreatch,du25e
Yes.,Drekken-,8lsxe,firn7tu,Does she have extra teeth or just big chicklets?,firn4aw,peekay888,lpfj26j
"I haven't either. 

Is there anywhere in the world someone could yell that they were from that would scare you?",Drekken-,8lsxe,fiqzc4b,"have you seen anyone scream ""I'm from (insert any place at all) and then win the fight""? 

I haven't. 

It's almost like thinking where you are from makes you special is a stupid theory and people who yell stupid shit before fights tend to be terrible at life",fiqopx0,Darktidemage,4x4vb
She can't even speak properly.,Drekken-,8lsxe,fiqln22,I thought she said speech mythology.,fiqgi7l,OrganicVandal,yqnt3
"I don't think I have ever heard someone scream ""I'm from New York!"" and then win the fight. This seems to be a sure shot way to lose a fight.",Drekken-,8lsxe,fiqj8a0,"Brutal. 

New York’s mouth was writing checks his ass couldn’t cash....",fiqh90y,chrisvolume,9bocmzs
"None of the democrat party talking points line up with the conservative black community. Never has, but now it is blatantly obvious.

When I was registered to vote in high school years ago... I said to my teacher ""How do I know if I am a democrat or a republican?"" He said: ""Democrats are for the people, Republicans are for the rich corporations"". So 18 year old me signed up as a D. Never felt like the democrats represented me since the time I started paying attention for myself.",Drekken-,8lsxe,fiq8vlb,"Let’s face it the black population has been raised on the belief that every one apart from the dems are racist, they have been told this repeatedly for one reason only: to always vote for dems.",fiq4j3f,davidaware,1y7mrtix
"I never see a cop enforcing this law. I hate left lane speed monitors. Move over, you aren't the pace car.",Drekken-,8lsxe,fio7vuk,"This is why the pickup truck's actions during this has been made illegal in many states. 

Not because the car was in the right - clearly he wasn't. But because honestly him speeding a little bit was far safer than the truck playing defense.",fio1jof,Deranged40,5tgjc
"> one douchecanoe

The guy in the pickup truck.",Drekken-,8lsxe,fio7t4z,two decent human beings' days ruined and lives potentially harmed because of one douchecanoe.,fio2t8p,Shadowhenge,46kvif87
Bang bros are doing bestiality now?,Drekken-,8lsxe,finzpi8,"""Bang Bros are on the phone, Lexie.""",finx9c5,JediMasterGandalf,1hycnij
He ate it! /r/AteTheOnion,Drekken-,8lsxe,fiaxth3,"Is this like some early April Fool's joke?

Am I the only one that thinks this is a bit over-the-top silly/dumb to be in such a serious game?

I mean, I get there are infected monsters, but a talking dog?

Edit: THE ONION. NEVER MIND.

Edit 2: How am I still getting downvoted? I realize it's the Onion, I made a mistake, jeez.",fiatvpu,Capt-McShivers,2rjk0aid
So can we retroactively abort leftists? Asking for a friend.,Drekken-,8lsxe,fi6y0c7,"I was amused by the ""It has no brain"" comment. If that were the standard, there would be no Leftists! 😉",fi6ufb2,Balisongplayer1,88odcpd
Don't act like they wouldn't pass a law to give illegals voter id. They give them drivers licenses.,Drekken-,8lsxe,fi3fn6d,"And that my friends, is why the Democrats don't want voter ID to be a thing.",fi2voqu,EricRavenCZ75,14jqvg
Her Giraffe neck?,Drekken-,8lsxe,fi196ai,And Ann Coulter's head exploding as well. What will she complain about now?,fi157k1,xiao_ke_maga,4thosvnf
"> Silent generation raised Gen X

Some (the tail end) were raised by Boomers.",Drekken-,8lsxe,fi14dwe,Wonder how much that says about parenting. Baby Boomers raised Millennials. Silent generation raised Gen X.,fi0safh,gaviidae,4j8fj
OP has TDS. Like most on this site. Not surprising.,Drekken-,8lsxe,fhxybjs,"OP is making shit up just because someone is wearing a Trump shirt. 

That hunt didn't happen in Mexico and that animal isn't endangered. Hunting that species is perfectly legal. Also, poachers typically don't share photos of themselves poaching an animal on social media. 

I'm sure OP was aware of all of that before reposting this. But ""orange man bad"" .",fhxxqbe,Titaniugh,40z2v3ou
I hope he keeps talking. He really says nothing of value... just a bunch of commie quotes that will turn the electorate off.,Drekken-,8lsxe,fhxy0ck,He said the Texas Church hero should of waited for the police to come instead of ventilating that piece of shit.,fhxxebl,dingleberry72,zekta
"> “If someone has a gun and enters your house, you think you’re gonna outshoot them with your own gun? Don’t be ridiculous

He really said that? This guy is a stupid little elf! Someone enters my house, I most definitely will be out shooting them.",Drekken-,8lsxe,fhxin88,"It’s so insanely hypocritical. Everything that the left tries to make Trump out to be, Bloomberg actually is. Racist? Yep, Bloomberg’s own words on tape prove that. Misogynist? Yep, tons of sexual harassment lawsuits against him. Bigot? Yep, he checks that one off too. On top of that he’s a gun grabber who, like Bernie, wants to ban firearms. Because, in his words, “If someone has a gun and enters your house, you think you’re gonna outshoot them with your own gun? Don’t be ridiculous!” Ok there buddy. This from the same guy who thinks AR15s fire differently than a standard pistol, and are fully automatic, for some reason. 

It just blows my mind that the DNC would embrace Bloomberg when he is everything they try to make Trump out to be, only so so much worse. He’s an oligarch who wants nothing but power and has no allegiance to any party, who is buying himself an election. All the frenzy around Trump and “Trump is how democracy dies!” No...Bloomberg buying an election and the DNC allowing it out of desperation is how Democracy dies.",fhx15py,clonexx,x5vuz
Worst advertisement ever! They forgot the product name placement.,Drekken-,8lsxe,fhx8h0c,What's this stuff called?,fhx7wzs,c0wbelly,9ift8xz
of hurt!,Drekken-,8lsxe,fhx88zo,It must oof.,fhw5055,braveNewPedals,y4oc4
I don't think he has the temperament or skin is thick enough to run.,Drekken-,8lsxe,fhkqrw7,"If they run big Mike, you'll know they believe their fix is in. No fix = no Mike.",fhkoqfr,linereddit,4fpup4t
They can have it and stick it up their ass.,Drekken-,8lsxe,fhil4te,I have a hunch why they want your email.,fhijgry,redditsellsmyemail,3ultv7y9
What is fat shaming bait? Just being a fatso?,Drekken-,8lsxe,fhikwd2,Fat shaming bait. Fucking amateurs,fhid9i8,truenorth77,ayx9lrv
Why link the source when you can watch it in all its glory as a low resolution soundless piece of shit?,Drekken-,8lsxe,fhhvj7b,[Here's the source](https://www.youtube.com/watch?v=LJ1gInUG5uw),fhh6mt4,R4yvex,otaq6
Bedinaboxforsuckers.,Drekken-,8lsxe,fhfdg1b,Out of curiosity what are these mattresses called? Asking for a rich friend.,fhfcifk,pilotfromthewest,lb5ec
I hate the budget has gone up but we should give everyone in our country $1000 a month! Its all BS. We aren't getting many Yang gang at all .,Drekken-,8lsxe,fhebw65,"Yeah, whole thing smells. gr8 b8 m8",fheanuu,excellent_tobacco,2uet2qqa
"> how did you find yourself rooting for a candidate that was running on a platform of:

Simple. He is a Larp. I mean, lets be serious. He didn't like the bump stock ban, but he was a fan of banning guns completely.",Drekken-,8lsxe,fhe877o,"Oh wow, that's interesting. As a right leaning libertarian (I am also a right libertarian) how did you find yourself rooting for a candidate that was running on a platform of:

* UBI
* Medicare for all
* Gun bans
* federal reduction of student loans
* Value Added Tax

Curious as these seem as diametrically opposed to right libertarianism as can be...",fhdp38v,ClippinWings451,wzu2j
That man should have won Time man of the year.,Drekken-,8lsxe,fhe697n,No one ever talks about the hero that killed Hitler. We should give that guy a medal.,fhdi3s3,Buttlet,dqlno
> NEVER TRUST A DEMOCRAT.,Drekken-,8lsxe,fhc3bcl,NEVER TRUST A DEMOCRAT... to respect the BILL  OF RIGHTS.,fhc0hys,soldio101,30hqxbsd
A manly lady that would only vote for the black nominee.,Drekken-,8lsxe,fh89euh,Who?,fh82f5v,45acpsasquatch,xscutzh
Talking about it like she is... Trashy to the max.,Drekken-,8lsxe,fgv7hvd,Her body her right who gives a fuck she didn’t want the fetus so she didn’t have it. Abortion or plan b doesn’t make this trashy.,fgv6vi5,oakenaxe,bt9npp0
"I don't understand all this corporate boot licking going on in this thread. If the guy that bought the car sues, he should win easily. If I walk into a store that has an item on the shelf labeled with the wrong price, they honor it. They don't get any take backs after the fact.",Drekken-,8lsxe,fgt8i28,"“a dealer who bought it at an auction held by Tesla itself”

Yes, they did.  Bought directly from Tesla, sold AS IS. If Tesla didn’t charge enough, that’s on them. If Tesla didn’t reconfigure the cars settings before they sold it, that’s on them.

You don’t get to take it back because you fucked up on a sale, that’s called theft.",fgt3bul,smokeyzu21,5lra2pgv
I get all my hot scoop news stories from dogpawsg.club.,Drekken-,8lsxe,fgt67em,[dogpawsg.club](https://dogpawsg.club).... sounds like a legit news source.,fgsx0jd,xnakxx,mddbpo
If he had a son...,Drekken-,8lsxe,fgsf2b1,And Obama another dear friend.,fgsein8,CornPopBlitzer,56fxp1yf
own.,Drekken-,8lsxe,fgqc6fj,Cheap to what?,fgqb6ik,fuc_boi,o3xbw
Couldn't you just move the modem so she can't find it?,Drekken-,8lsxe,fgq27ie,"She was born without eyes and considering she can't see what she's doing, she does a pretty good job of painting them on. Maybe.",fgpsw2i,Wetbung,bcan2
Wake up WV.,Drekken-,8lsxe,fgn4d6v,"Manchin votes ""guilty"", after all.....",fgn48tk,RackOps,paipc
Keep this number for yourself come November. 1-800-273-8255,Drekken-,8lsxe,fgmo59l,"do you think it was the lies? or the concentration camps? or extorting ukraine? it was probably the lies, i dont really give a shit about brown people",fglbjdy,AndYouThinkYoureMean,2t4j7vcs
> She separated it into ~~two~~ three stacks,Drekken-,8lsxe,fgmnans,She separated it into two stacks so that she could rip through each one. She totally practiced that lol,fglcqxy,bsbbtnh,ed2u2
> Reddit actually has biased mods and arbitrary posting rules,Drekken-,8lsxe,fgmes4i,Yeah these dudes have no idea. They must not actually use other platforms. Reddit actually has mods and posting rules lmao it’s not even close to bottom of the barrel.,fgm8bb5,turboload1,44dt5aj4
"Does Ray even have to shit considering he never eats? I mean, come on Showtime be realistic!",Drekken-,8lsxe,fgm74w6,They could have been on season 17 not just season 7 if they had filler episodes of Ray getting his car washed and eating while he watched TV at home,fgledbk,UnsafeReload,lg5t8
"Honestly, I have had Showtime for over 10 years straight. It is time to cancel. I am going to watch the last season of Homeland and be done with it.",Drekken-,8lsxe,fgm6lrx,"The @Showtime twitter comments show that a lot of people are really pissed off.  Some calling for boycotts, others stating that they've cancelled their ST account, etc.

Maybe all of that is a bit of an overreaction, maybe not, but they could at least wrap it up and give it a conclusion.",fgk4uu5,hacklinuxwithbeer,3xia4ujr
Sesame seed covered poop? mmmm,Drekken-,8lsxe,fglyrsc,I can't be the only one thinking it,fglxxlx,outfoxingthefoxes,2q0k1dob
"RAND PAUL 2024!!!!!!!!!!!!!!!!!!!!!!!!!!!!!!!!!!!!!!


Better?",Drekken-,8lsxe,fgjdscg,too short,fgjd2hr,masterfulsky,137pqf
"She is now our President. Ask Schumer, he will tell you.",Drekken-,8lsxe,fgix97p,Lol really?,fgiufim,theClutchologist,mlq9m
"> ""free the blacks!""

People spending life in jail for minor drug charges is fucking idiotic. Sorry you are so offended a black lady was set free and is the face of this advertisement. Trump has been delivering campaign promises one after another even though he has done it through constant attacks from the dems and MSM.",Drekken-,8lsxe,fgfout7,"Does anyone remember Trump talking about this before he was elected?

I sure dont. 

Does anyone remember rally crowds chanting ""free the blacks!""?

He was elected to complete a concrete border wall, and send back all illegals and DACA people.",fgekju0,CheBundy,l7whqdb
"Liiiike, you knowww... I hope to one dayyyy... liiiike... 

Her voice is so fucking condescending.",Drekken-,8lsxe,fgfoi04,wow she sounds like she's in high school,fgeglfo,thelastlast,3yivb3e6
JERRY!,Drekken-,8lsxe,fg54gbr,"Don’t get between Schumer and a microphone.

Except today.",fg4u1t0,js1138-2,hetg2
Mitt Romney told him.,Drekken-,8lsxe,fg44y91,I hope this is true. Got a sauce?,fg44q6q,mrwrn2010,nkqt5
She probably wears it a couple times a week while around the house.,Drekken-,8lsxe,fg3ipvi,"She wore the dress to a damn Vanity Fair photo shoot.  Any evidence tech in the world would tell you it is contaminated.  No judge would allow this farce, other than Mr Hawaii of course.",fg3hmj2,AllOfFoglesFootlong,pqxj3
Come on... you don't sleep with a pillow over your face?,Drekken-,8lsxe,fg3bl3f,Pillows.,fg332yf,jack_benny_fan,vd9f3
It didn't stop Obama.,Drekken-,8lsxe,fg0trrf,"did this fucking idiot really just say ""what is to stop a president from tasking his intelligence agencies to investigate a political rival""?",fg0thcx,natwwal23,b40mv
No video?,Drekken-,8lsxe,fg0chlh,"https://twitter.com/RealVinnieJames/status/1222686140425211907

https://i.imgur.com/ueJ9ZSw.png

https://i.imgur.com/TfyhNo1.png",fg093kq,Kek_saved_the_world,17b44o
">  Will he face jail time like any normie would for a huge leak of classified data?

Probably not. The two tier justice system loves globalist war hawks like him.",Drekken-,8lsxe,fg01y4p,How does one write a book with classified information?  Does he write it in a SCIF? Did he write it on his laptop?  Will his laptop be destroyed?  Did he email it back and forth to an editor?  Will he face jail time like any normie would for a huge leak of classified data?,ffym1qe,oryan_dunn,qhdj7
"This is a good one to reply with, but honestly the best one to reply to that picture is this [one.](https://i.imgur.com/wpmWgmf.jpg?fb)",Drekken-,8lsxe,fg01ju7,I'm going to reply with this gif the next time someone does [this](https://i.imgur.com/wpmWgmf.jpg?fb) to me,ffyvcll,alfredbester,9onek
Man haters are so blinded with rage that they will take any opportunity to spit their signature tag lines... even when they are wrong.,Drekken-,8lsxe,ffzz82v,Bitch learn how to read they obviously meant the toddler.,ffbk14b,Avoate,57sbxl5h
Chinese puppets.,Drekken-,8lsxe,ffzy8zq,"Who voted against this?
Seriously, we're not talking about CBD oil here.
Who are these 88?",ffzsqn2,mimefortheblind,du882
Fake a fuuuck,Drekken-,8lsxe,ffx6kup,"I don't think it's him.
Here are the photos (NSFW):
https://twitter.com/MAGAMikeS1776/status/1222567236168142848",ffx5zai,ktotheooter,3jhjm
But I thought they liked HEARSAY?!,Drekken-,8lsxe,ffx5qbt,They'll say it was HEARSAY.,ffwrx5g,littleirishmaid,i3d84
"I mean, if they are Schiff.. uhoh. But how would they prove this by these pics? I saw them... Not really 100% convincing it is Adam.",Drekken-,8lsxe,ffx5dse,"~~I just downloaded the photos. It's hard to tell exactly who it is, if it's Schiff he's face deep in some black guys ass in two pictures, and then he's sucking Ed Buck's cock in another. I'm not even sure where I can upload these, and if I will get in trouble for it. Can anyone here help me out?~~

*Edit: They appear to not be him.",ffx4yzf,ktotheooter,3jhjm
We're any of those guys allies? Maybe perry? The rest all talked shit when they left. I heard Kelly is building Bolton up right now. ****,Drekken-,8lsxe,ffwlj1e,Who's left? Mulvaney and pompeo. Those are the only cabinet aliies. The rest are gone dude,ffwix6r,titanup_ur_bhole,12b976
Disagree,Drekken-,8lsxe,ffwiu6l,"Mattis, Kelly, Perry",ffwiqio,titanup_ur_bhole,12b976
Who was good that left? Kelly? Pribus? Sessions? Bannon the leaker?,Drekken-,8lsxe,ffwimdz,Trump needs allies so bad. All the quality left his cabinet. Sucks but it's the truth. The man attracts bad company,ffwi55v,titanup_ur_bhole,12b976
"Yeah, we have been reading how flush R's are with cash from fundraising and the dems are broke and in debt. Now all of a sudden they beat the RNC by 40 mil? Something stinks here.",Drekken-,8lsxe,ffu3t60,I literally just read an article where McCarthy said they blew up fundraising targets and were challenging every seat.  I’ll donate more after the primaries once we get the real numbers.  My money goes to trump so the RINOs know who the f-k is in charge!,fftux2a,iworkforgeotus,g3wju8j
"> He's a Biden supporter

How? Why? It makes me question everything about him. Great presentation, but what an idiot if he likes Biden for anything except jail.",Drekken-,8lsxe,ffti5nw,Yup. He's a Biden supporter but he's fair minded and respects the constitution.,ffsmszw,failedateverything1,4dl5fsza
Trump really did some long lasting damage to Jeb last election cycle.,Drekken-,8lsxe,ffti0t0,Not a single republican in that picture at all.,fftagnh,TraderPatTX,3cemuq8m
"I was browsing all today... female hair forum had some dude, receding to the max thanking them for telling him to get bangs. The guy looked like a guy dressed as a girl with a horrible comb over. All of the comments were commending him for how good it looks. Not one comment about hey guy, this is a female forum... or hey, dude... that looks like shit and honestly you aren't passing for a girl. These liberal forums are wrecking havoc on society with their lies and agendas that they push. It is fucking disgusting.",Drekken-,8lsxe,ffrhu9g,"As far as she said, it was mainly Reddit and other internet forums",ffrarwt,JackHadders,2mq4r7rq
