child_body,child_screen_name,child_user_id,child_tweet_id,parent_body,parent_tweet_id,parent_screen_name,parent_user_id
Culture or Mob Mentality.  Groups of any kinds of people never were the brightest bulbs.,DualityOfLife,gdyhy,fkyyyis,Virtually all racial stereotypes originate as a problem from culture rather than anything endemic to individuals of a certain race. Nurture over nature all the way.,fkyse1j,ginja_ninja,3qsl7
"Gonna be paying for a lot of shit imo.  Our ancestors had shit technology, and don't wanna insult them, but their solutions were shit too.  They acted like Jesus takes care of the problem.  Example 1.) They bury garbage in pits.  Acting like it'll disappear.  Example 2.) They spill sewage into the lakes, oceans and rivers, acting once again, like it'll disappear.  Example 3.) They let gases and smokes into the skies, like some Miracle Man is gonna scoop that all up and make everything okay.  Those are problems we're gonna one day have to deal with.  Taxes are just another thing yo.  Fucked up social policies, whatever.  But, I still like this Era.  The information, the technology, the accessability.  It's pretty tits to be alive right now, even in all its chaos.  Imo*",DualityOfLife,gdyhy,fkxtarm,"I think we are going to be paying for all of this in increased taxes for years to come.  But wow, I don’t think we have ever seen a disruption to the economy for generations.",fkxqhul,Bravovictor02,1trs3dvv
"That's the plan.  A lot of complicated shit though.   Exhibit A, in 16 years, Obama/Bush sent 60,000 factories out, and in only 3 years, Trump brought back 10,000. Those were lots of jobs gone.  Exhibit B, you saw the illegal immigrant horde from Mexico.  Can't give aid to your neighbors when billions of foreigners can enter, which would bleed you dry and collapse.  It's a huge mess.  It's like that saying, as many years as it took to build a problem, is as many years it takes to solve it.  But I think we're speeding along imo*",DualityOfLife,gdyhy,fkxhef5,All I’m sayin.  Can’t they bail us out vs the big boys?,fkxf6yn,Bravovictor02,1trs3dvv
"The money ain't free yo.  You can't just print money, give it out, without facing consequences.  Yes, I know about the evil bail outs.  How Obama gave what, 3 billion dollars to Iran?  I understand, just use bailouts on American Citizens, the homeless.  That's part of the plan - Help America first.  But printing  money causes consquences.  Adding another dollar makes the current dollar less, it's complicated and preffered to be avoided.  Easier to bring back jobs that went to China, India, Illegal Immigrants, to increase the pay wage without illegal competition.  China/India don't exactly obey American Safety work laws - that's how they're cheaper.  And the politicians got paid to pass laws in America, so no travel tax/tarriff from that product as they come into the United States to compete even harder...  

Fuckin' politics, man. >:/",DualityOfLife,gdyhy,fkxbtl7,"Except now he is giving out 2,000 for free.  And I bet you will take that money.  And when you retire you will depend on Medicare and social security.  So what’s the difference?  We are paying for Trump to bail out the banks, and financial institutions, and letting the super rich get hand outs.  Why can’t that money come to us instead. You have been listening to too much fox and friends.  Shit is going down right now.  And we are the ones who will be missing out. 

If this is what trump was talking about as “great again” I don’t want it.  

And when he lies about not saying that this virus was a hoax.  I sick of hearing him talk. 

As a registered republican.... Never TRUMP!",fkwj5vi,Bravovictor02,1trs3dvv
That's why I wanna personal grow during legal period.  Make your own endless supply of quality ganj.,DualityOfLife,gdyhy,fktu5fl,Gonna be so hard to pick anything up unless you're a medical card holder though :(,fkt5lhz,kinkerbelll,4ntkwxk
Then what are you doing here? Don't forget to wipe your chin after.,DualityOfLife,gdyhy,fkttf8k,He's a board line retard... Fucking followers need to stop sucking the orange mushroom head...,fkt4zpk,robert7107,17cm6d
"Who's saying we're trying to earn the favour of the Godless?   We don't pander, Trump has a ""Fuck the donours and bosses"" motto.

If you want Godlessness and Pandering, you can go to Socialist Bernie or ""Don't Even Count Your Vote"" Biden.  But to go to the only religious non-pandering Presidential 2020 Canidate, and ask him to be less religious and self righteous and to pander to them?  Seriously?",DualityOfLife,gdyhy,fkjyeux,"Oh, for Christ’s sake, STOP already!  Seriously, though, even if their were some omnipotent God, what makes you think it would take sides?  Again, it’s that self-righteous attitude that is such a turn-off.",fkjjcxc,Wants-NotNeeds,13vi4u
"Can't even take a blue pill.  Everything's in chaos. The blue pills method was 'stuff the problem under the rug'.  Well now, shit's so overflowed, it's coming out the damn walls.",DualityOfLife,gdyhy,fkh63al,Welcome to the deep state.  You have two options.   Take the blue pill and everything goes back to normal.   Or take the red pill and see the truth.   It's up to you.,fkgddz6,knumberate,e3ax1
"They're unemployed cucks paid by George Soros to spread hate to innocent Trump Supporters.  They're the types that believe, ""hate the innocent all you want, just ask God for forgiveness in the end"".  Eye for an eye yo. :/  What you give in life, you get back~",DualityOfLife,gdyhy,fkh0bce,Now I'm kinda wondering what all these all-too serious cucks are doing in a Trump sub,fkgate5,DBMlive,toq0x
I'm surprised people never viewed passing the blunt as similar as passing a beer bottle.  You really want your own.,DualityOfLife,gdyhy,fkdvbcn,Archaic rituals are irrelevant because my blunt is not being passed.,fkchhiq,oopvote,4zq8joo9
Growing looks so fun with all the modern tech.,DualityOfLife,gdyhy,fkdv847,it’s times like this that i’m eternally thankful i grow. i don’t need no weed man,fkco1qu,Xodiis,1z892xl7
"If something was made illegal 50+- years with an excuse that includes the word 'coloured', and it's still illegal today, does that count as still saying coloured today? ;D",DualityOfLife,gdyhy,fk46bwl,"lol, Imagine using the term “colored women” in 2020. Lol",fk461as,daphillymann,506u98jo
"The sheep's shepard is dumber than the sheep, apparently, imo*",DualityOfLife,gdyhy,fk3lge4,Why toilet paper. Why not just like buy like soap or something,fk21kyy,topitup303,21qy40xr
"He tweets constantly hate at Trump, daily, and for some reason, Twitter puts him as top commenter most the time.   Even with like 30 likes Vs. 300+ likes, he's still top commenter.  ""Coincidence"" ""No election meddling"" said Jack.  Hmmm..... :/",DualityOfLife,gdyhy,fk3lan6,I wonder how many times a day Jeff tweets at GEOTUS.,fk2puce,preppyprepface,2h1krehy
"SOMA was a grand psychological horror to me.  The idea on how we define our sentient existence.  I loved Pigs but man, they gutted that game.  Shifting the devs back and forth with Chinese Room and Frictional, grabbing the wheel, fighting over which direction the game would go, impacted and gimped its final product.  Imo*",DualityOfLife,gdyhy,fjp4ohn,My thoughts exactly. SOMA was cool but I want more Amnesia. “A Machine for Pigs” is still a top ten horror game to me,fjo10un,chicagogamecollector,11k5zs20
"So T_D is heavily censored, quarantined, off the fuckin' ass.  They make Donald.win to counter this - to provide an enivorment with zero censorships, because we are not treated equally here.  And the conspiracy is - if we go to this free enviroment, its to make the Donald.win's rich?   Like the conspiracy that Trump only built the wall to make money to Construction Companies - a job's a job.  The demand was there and no one catered to it, is what the problem was.  Imo*",DualityOfLife,gdyhy,fjixbf7,"It's not compromised yet. T\_D mods are still in control. They supposedly put T\_D in restricted because they can't keep up with moderating all the spicy content that people were posting after Reddit put out their new policies.   


There is a conspiracy theory that the T\_D mods are doing this to push people to [thedonald.win](https://thedonald.win) so they can monetize it and line their own pockets. This is based on claims made by former T\_D mods who were ousted. Personally, I'm trying not to be too quick to trust anyone right now amid this clusterfuck.",fjgv9us,SuperMAGAPunch,453y66p2
Trump was preparing too! ;D,DualityOfLife,gdyhy,fipelaq,Lol they're preparing guys. Get your bookmarks ready.,fion1ta,jaykeith,nizee
"Bit of a scorched Earth tactic for the protesters.  The stories on this virus make you wanna believe people are making shit up.   Huge infection radius,  extremely durable virus?   China rounding up and cremating the infected?  I don't think there's much we can do to prepare, if the stories are true - this is one of the worst case scenarios.  Current society was built on sharing and worshipping dirt - the exact opposite requirements to combat a pandemic.  Why wash something thoroughly?  Not enough time, not enough money and it'll get dirty again is the mantra.  Bringing in a flood of immigrants for chances to provide cheaper labour in some careers,  who have no respect for the land and nation, trashing cities and whatnot, leaving garbage, fecies, and decay, doesn't help either.  All we can do is pray and watch imo.",DualityOfLife,gdyhy,fin8344,"To be frank, this virus seems like a last-ditch effort to derail Trump/MAGA before 2020 as a lot of people stand to be shuffled in front of a firing line..

Hard to know for sure, but if Castreau allowed Chinese to steal the virus from winnipeg and release it...    

Those HK protests sure wrapped up quickly eh!?",fin69ql,RiverFenix,1vnfw2a
She could be a time-traveler but her mind got left behind in the future.,DualityOfLife,gdyhy,fikp3r7,AOC is a time traveler. We just didn’t know it yet. She unified the GOP.,fijxu57,makemyday007,145703
"I don't get the Anti-Pot guys.

Some people that they're judging as 'junkies', could be medicating off of marijuana.  There's a lot of undiagnosed mental illness due to the Health Care System not being cheap.  

If people are happy on weed, smiling, why not just leave them be?  

I don't get it... :/",DualityOfLife,gdyhy,fihwret,https://www.google.com/amp/s/hightimes.com/culture/ben-stein-is-an-anti-pot-idiot/amp/,fig0ao4,leknarf52,ej0g9
"Oh there is life out there. We are not alone.  But for a queer reason, we are LEFT alone.",DualityOfLife,gdyhy,fi9vh1w,"What makes me laugh is anyone who still thinks there’s any way we’re the only intelligent life out there. Look at that shit. I don’t care how rare we are, the dice have rolled that number a lot more than once.",fi9i1pt,Theothercword,rcly9
You using the MSM's actions as a defense?  Fake News is hardly inspiration material.  It's about preventing further Civil Wars without these 'secret' racist attacks.  The Trump movement is seperating themselves from White Supremacists and Nazis.,DualityOfLife,gdyhy,fi84hkr,While attacks by non-whites get downplayed or ignored by the MSM.,fi7sp3x,StBlops2cel_is_Lord,4tauehrr
"Russia and Poland too, but their methods of making their nations white majority aren't the best... Reports of many racist based attacks in those nations.   Need to have 'white majority' or whatever places without resorting to threats and violence, but this goes for whatever imo*!",DualityOfLife,gdyhy,fi7sje0,">  It's only in America that white people outnumber anyone at all 

Seriously? Ever hear of Iceland, Finland, and a few others?",fi7d96y,StBlops2cel_is_Lord,4tauehrr
"Remember when young Bush said ""Don't get sick"" as a healthplan? XD",DualityOfLife,gdyhy,fi09ymd,"Bloomberg - If old people get sick we should just send them home to die...

https://twitter.com/Breaking911/status/1229284896356675584?s=20

Black and Latino men don't know how to get jobs or behave in the workplace...

https://twitter.com/Breaking911/status/1229536180749946880",fhz62o5,Opothleyahola,145ijc
"Such a coincidence that this Jeff fella is top of Trump comments, spewing anti-Trump hate daily.  Lottery ticket level luck, a mere coincidence.",DualityOfLife,gdyhy,fhzyvok,"And there's Jeff, right at the top. Does this guy have a job?",fhyxl3q,BiffChristmas,xfn5a
"Having a job to work that pays average, a trained monkey can do that.  Doesn't define a ""strong independant women"".   Women aren't dependant hands and knees for a man to save them with their wallet.",DualityOfLife,gdyhy,fhswog0,"A 3.6% unemployment rate is hardly a ""scarce"" job market...but please, by all means continue to humiliate yourself by white knighting for these strong independent women. All the ""strong independent women"" I know live off their man and don't work, yet feel the need to express how empowered they are...don't be the punchline in that joke dude.",fhsvkxo,DontFearTheRepo,4vyx68zw
"Jobs scarce = low amount of jobs.  Lowest Unemployment = Least amount of people looking for work.  The Democrats/Globalists were fuckin' jobs for a good 16+ years, still more work to be done.",DualityOfLife,gdyhy,fhssm6d,Jobs scarce during the lowest unemployment on record? *inhales to laugh*,fhsrkgw,parishiIt0n,gvyvk
"I know it's a joke but I do not like how people accept that, jobs are so scarce, women have to resort to prostitution just to get by.  We can do better than that imo*",DualityOfLife,gdyhy,fhslxep,She’s gonna have to sell her body to the night,fhs8myc,sedwards1981,2fyuslu9
"Most likely this.   The Democrats love to throw their shit in another person's neighborhood, but when it eventually comes full circle back into their backyard, they join the ""Forces of Good"" to ""Combat Poverty"", which, 9 times out of 10, they had a big hand in starting and causing it.",DualityOfLife,gdyhy,fhoftkp,"That’s your backyard falling to shit, Govenator.",fhnrhti,Jblaze056,u1nms
"I think all of Hollywood is infected with the STD Cocktail.  I mean, if Weinstein wasn't ""sharing the wealth"" with all newcomers...",DualityOfLife,gdyhy,fhczwwa,The numerous STDs Carrey is carrying have rotted his brain.,fhc6lho,PressureMaxwell,36kxgcgv
"Democrats run a lot of poor black districts....  ""Poverty Pimps"".

Do you wanna vacation to Russia? Nah, cause it's a poor white ghetto.  Do you wanna vacation to Poland? Nah, cause it's a poor white ghetto.   These nations are unofficially segragated - if your skin colour is too dark, you will be targetted.   

Skin colour is just a colour.  Blame culture, if you have to, but going full szitso and saying ""I saw your skin colour, therefore I can predict your future"" is just, yea.  :p",DualityOfLife,gdyhy,fhco1ou,"Except poor white areas dont have nearly the amount of crime that poor black communities do. Also, why are so many blacks poor? Is it because employers are muh racist?",fhb9aoe,Notathroway12345,2aakd29w
"I still say it's insulting as fuck to call Americans, of all people, Nazis.  American Ancestors put Nazis on the endagered species list.",DualityOfLife,gdyhy,fh7knw9,"It's what the libshits do, they take words and twist the meaning all around so they don't mean the same thing any more. See also: racist,  nazi, hitler, etc.",fh7j10h,Nameless_Mofo,j7d88
Small world.,DualityOfLife,gdyhy,fh7i9ci,Fucking hell how do people even find this shit?,fh78iyw,crimsonpowder,la172
"Shut up, fat.  Let's see you do some push-ups.",DualityOfLife,gdyhy,fh6z7m3,I thought the title was a joke but he literally did say that. What the absolute fuck? Is that a phrase that was once said by people???,fh6wfik,carb0ncl1mber,13esrbbw
"The soul belongs to God.  Memeing is the art of the soul.  Democrats betray their soul.  They betray God.  When Democrats try to Meme like us, ""just repeat the same back at them!  I know you are but what am I!"", they end up betraying themself.  No amount of drugs and alcohol can undo the betrayal they do to the soul, the nightmares, the pain they feel and hide.  Meh.",DualityOfLife,gdyhy,fh6eqsu,"We need all the Terminator memes. 

Lefties thought [this](https://imgur.com/a/fkCUkYm) was insulting. 

I beg to differ!",fh371st,ithrowawaay,bun26ox
Could be left handed. :o,DualityOfLife,gdyhy,fh6dv74,"The gun should be flipped over to point towards the outside. As is, it would have to be repositioned before it could be picked up, unless you're going to pull the trigger with your thumb.",fh2l5pl,RapidAsparagus,4h2482is
"It will be only spoken of once at the village's campfire, amongst the Elders.  There, the Elders will choose wether to share the tale of Cory Feldman with the Next Generation. As is tradition.",DualityOfLife,gdyhy,fh25wy0,"Even if this is legit, what does “aired only once” mean anymore? This isn’t 1962. It would be archived by a million people all over the world, uploaded everywhere overnight, and scrubbed only in whichever deep state channels could manage it. Nothing can be aired “only once” anymore.",fgzkz9s,DrCosmoMcKinley,exkb0
"They always downplay precious items of American tradition.  Wasn't it Heels-Up Harris that called Kavanaugh's Constitution ""a little booklet""?   Illah Omar called 9-11 ""Some people did something"".  And...again.    A Presidential SOTU, the God Emperor's himself, "" a piece of paper"".  Meh.",DualityOfLife,gdyhy,fh20h50,"I keep hearing ""it was just some pieces of paper."" I ask ft their reaction would have been the same if Paul Ryan tore up Obama's SOTU speech. Mouths drop open, blank stares....",fh1jzuc,grammyphoo,vgkg5sx
What about when they call you 'fag' because you don't reciprocate their advances because you sense something amiss?  :x,DualityOfLife,gdyhy,fh0b32i,"And if you point out this aspect of our culture, you're a misogynist incel virgin.

They get mad when it's pointed out because they know the people pointing out are historical the type of people who would be their ""last meal ticket"" before they have to become a crazy cat lady. They're calling you an misogynist incel virgin because they want you to do what they want.",fgxu2w3,Thelastofthree,estg8
"Her state is one of the mainliners for corruption - If I would guess, they don't even count votes in her state.  Just rig the whole thing, and then use the News to tell the people what their opinions are, and ""why"" they voted for Pelossi.  I don't think the people's voices get heard, at all.  Imo*",DualityOfLife,gdyhy,fgqjoy5,LMAO she will win in a landslide.  I would bet that she can't even remember the last time she had to campaign seriously for her position.  She's part of the machine.,fgpe5oj,thedaynos,wwu4c
Annie and Reiner we hated because they just started murdering the innocent.  Eren killed for vengeance.  There's a difference.  Imo*,DualityOfLife,gdyhy,fgq5gb9,"...but everyone left of the 104th is a murderer at this point. The only familiar character who we have definitely not seen kill someone is Hitch (and possibly Falco, although my memory is failing me).",fgpcyek,Friedcheesemogu,1qf95bf2
"That, and this alliance consists of Annie and Reiner - two known sociopathtic murderers.  The little kids are trained murderers too.",DualityOfLife,gdyhy,fgom761,"I can't tell if Isayama truly expects the reader to cheer for this new alliance. This entire time he made the point that there's literally no possibility of peace, the entire world hates Paradis and will invade the second Eren is out of the page. Are we really supposed to see their plan to stop him as something good? It's like if the villages in Naruto suddenly came together to stop him from killing Madara or something like that",fgnn3er,RobinKirsche,205z5vyi
"Yea, it needed a 2/3 majority but I was just uptight that it was 48 - 52.  Meaning nearly half are evil and corrupt and we had a slight win.  That's a fuck ton of corruption that we're gonna have to still fight!",DualityOfLife,gdyhy,fgofv30,"Uncomfortably close, but still very far from the required two-thirds majority.",fgocke9,fretit,jy2wf
That death was under her juristiction in her state.   The policies she pushed through let that happen.,DualityOfLife,gdyhy,fgkxnb2,Ripped through the part about a 91 year old woman getting raped to death by an illegal gangster. Classy lady that Nancy P.,fgkw0lh,SigSeikoSpyderco,13c6gpdl
You cut off your own foot if you follow other's made-up rules.  Following your own God given soul takes you further imo!,DualityOfLife,gdyhy,fgjolbz,"Honestly, it really shouldn't be a big deal, there is no law against it. The rest of the Repubs are playing according to the rules fabricated by the Dems and MSM, either because they are limp-wristed betas, or because they are part of the swamp.

Great speech by Rand though.",fgjlf48,SnowflakeJuice,2tg18k
"Well, they are known to murder and rape children, teenagers.  That's the definition of evil.  But the Lord rules the Universe - Eye for an eye is the Law of God.  What you do, will come back to you.  There's nowhere to run from your choices and actions - you pay in this life or the next.  Imo*",DualityOfLife,gdyhy,fg4uq3d,These people are pure evil. I've become less religious as I've gotten older but seeing this play out over the last 3 years has convinced me that real evil does exist in this world. It is the only explanation for people like Schiff.,fg4u4dt,crispcereal,47wx38ri
"Democrats stumble upon their own lies.  We end up repeating truths, facts, actual historical happenings.  :/",DualityOfLife,gdyhy,fg46ki6,"Elizabeth Warren is a lying, democrat hypocrite.

Oh, wait. I repeat myself.",fg3d31v,thewordwolf,12ktv6
"Oh, NJ is like 50/50, realistically.  But NJ is a heart of Democratic Corruption - Illegal Dead/Voting galore, so we're listed as 35-39%.  Less if more dead and illegal voters are required.",DualityOfLife,gdyhy,ffvs229,they are lost causes. NJ OTOH we have like a 35% chance to win it for the POTUS.,ffva85a,fastmandan,wbc1n
B-b-but they promised to solve the problems of the American people year after year for votes!  That counts as participation trophy right? :O,DualityOfLife,gdyhy,ffsakqc,"#Solve the problems of the American people

#DEMS : Pikachu shock face",ffsa8gb,RlzJohnnyM,xwsup
Exactly.  No regrets yo.,DualityOfLife,gdyhy,ffj06ze,"""unnecessary joints?"" Not a thing. They all serve a higher purpose",ffizill,Rx_Diva,37h42064
Weren't most of Trump's lawyers Jews?  Had a chuckle at that.,DualityOfLife,gdyhy,ffiqieu,"Checkmate Trumpkins.

CNN is bringing y'all down with this hard-hitting report => So striking: House Managers were diverse group in background and gender. Trump lawyers all white and (today) all men.

https://twitter.com/JeffreyToobin/status/1221112968815005696",ffipf8f,DaveJWilliams,f5mds5
"If you did your research, you would know that the only places in America that have violence, are the few places they don't allow guns.  Since when do Criminals obey the Law anyway?  Do Carnivores attack a challenge?  Or do they attack the weak and defenseless?  And look at China and U.K. - they remove guns,then have stabbing problems.  Shootings and Violence are known to be Mental Health problems too.",DualityOfLife,gdyhy,ff8xpsz,"Guys, I know you Americans are pro-gun. But please do a little research into crime in different countries. Here in the Netherlands 99.9% of the people aren't allowed a gun, same as the rest of Europe, and crime numbers (death by gun etc.) are so much lower here.

When will you learn that the reason there is so much violence in America, BECAUSE guns are allowed. In my opinion guns shouldn't be allowed unless you're a cop, and even just carrying a gun could get you a really heavy sentence. Wouldn't something in the lines of that be a lot better?",ff8mgae,Sperca,1bc3eb4i
This.  Just drop straight dirt on the Demorats/Swamp Creatures.,DualityOfLife,gdyhy,ff7jcuc,"The next Trump defense representative should walk up to the podium with a mic, play the Biden video of him withholding a billion from Ukraine, look at the audience, ask why Biden wasn't run thru the ringer, drop the mic and walk off.",ff7j9w6,Meltdownv2,3xcy5hhv
Aye.,DualityOfLife,gdyhy,ff7h8g2,What was Romney?,ff7h3zo,WiscDeplo,1275bn
"Law requires they do a House Vote.  They never did a House Vote. Instead, Pelosi held a press conference talking about it and that was their acclaimed justification.",DualityOfLife,gdyhy,ff79q3h,serious question: why didn't they?,ff78owz,PS19053,pttq2
And all those Mexican White Supremacists.,DualityOfLife,gdyhy,ff5vh9x,Look at all those women and children,ff465r2,tdr287,33kpxp6k
"Some people would let Evil in if it puts a sandwich on their table, but they forget, that others have sandwiches on their table with no Evil inside.   :/",DualityOfLife,gdyhy,ff2wtzi,"There is most definitely a black culture, are you daft?",ff2vq4z,NouveauOldFogey,4t96dtvd
"It's not fool proof yet at least.  We have these fake tits, plastic surgery people, injected with hormones that are visibally fake.",DualityOfLife,gdyhy,ff2v68k,"Biology can already be changed, remember that nazi scientist that made blond babies out of black couples in Brazil?",ff2tdsc,reinaldo866,3sj3dxkm
"Shaun White is Culturally Black but Biologically White.  He has the small mustache, the short haircut, but he's still white, posing as Culturally Black.  Anyone can do this.  Even a woman.   It's why I say - seperate the Biology and the Culture so Frauds like Shaun White don't influence you.",DualityOfLife,gdyhy,ff2v3nn,"""culturally black""

Uhm... Huh?",ff2tfx4,mmmhthatguy,16lrx3
"Keep all your tired, your poor, Your huddled masses yearning to breathe free, The wretched refuse of your teeming shore. Send these, the homeless, tempest-tossed, to someone else: I snuff my lamp beside the golden door.",DualityOfLife,gdyhy,ff2omok,Fuck Off We're Full!,ff0opba,Sea_Still,117mx6rw
Why stop at Black and White?  Do an Asian only. Spanish only.  Jewish only.  Muslim only.  Catholic only.  Let every one of these cunts segregate their hearts out.,DualityOfLife,gdyhy,feqgt12,Now do a white only graduation.,feouo00,JustAPeede,1ka68pq9
"""The people living in America are not the future of America.""  Que?",DualityOfLife,gdyhy,femefky,"Have we forgotten that Paul Krugman [gloated about whites ""losing their country""](https://www.youtube.com/watch?v=Y1zChJHqIkk)?

Traitor",felwg9o,HaHawk,ghqye
"Threats go two ways.   Do remember the entire planet is active - and Pelosi and the Rats threatened, exiled, banished a buncha people over the past 20-50+ years they were in power.  Lot of people want their Just Dues from these Demon Rats.  A lottttt of them.",DualityOfLife,gdyhy,fejsyds,Apparently the Republican senate isn’t even having a vote for the dismissal!!!!!! I’m livid 🤬😡  Saw it on Oan just this morning. It’s bc they think they don’t have the votes for it... I swear Dems have been threatening to kill a few of our senators’ families bc any Republican in their right mind beside the traitor Romney would’ve dismissed this shit weeks ago! Before the drunk Pelosi even sent the articles over to them! They didn’t need her to do that to dismiss it......,fejkyzw,FlipBarry,7bwde
"If they're spouting fake shit 24/7, it's likely they're paid to give an image that a buncha people share this fake opinion, to try to tempt normal folk into following them.   Trying to get people to stray off their own God given paths.",DualityOfLife,gdyhy,fej9a30,Do these people have real jobs? Or are they getting paid to be a nuisance?,feht1fc,monkeiboi,3eydj
"Could be Leftist Hypocrites stepping on their own words again, or maybe they want Communism, so it fails again, and then there would be Anarchy - Anarcho-Communism! ;D",DualityOfLife,gdyhy,fegy8yn,How can you be anarchist and communist? Lol,fegmhwe,myanimal3z,x7hqe
I'm Spartacus.,DualityOfLife,gdyhy,fegm3t9,I’m the homie and my homie isn’t homie he’s me,fefrvz9,bluntsANDtiddies,2u3bmd13
"You show up here illegally, you should have the same problems you'd have in your home country for showing up illegally - A.K.A. a really hard fuckin' time.",DualityOfLife,gdyhy,feczu64,"And the schools stop paying for children here illegally when your kids are not getting g what they need. 

You show up here illegally you should have a hard time buying a candy bar",fechby5,MAGA-Lady-Ok,4gqt4vuu
"That's what they use to 'hammer the nails that stick out'.  Any behavior against community 'guidelines' - you get called a deragatory term.  I was around Polish communities a chunk - and it's the same homophobia and racism.  I personally boycott it now and go my own way.  Live and let live, and if not, eye for an eye.",DualityOfLife,gdyhy,fe9m61w,"The black community, as a whole, hasn't gone completely for globohomo, frankly the only positive thing about that community. Gang violence? They have no problem with an outcome of systemic institutional racism and lack of social programs. Black Americans suicided when they followed Jesse Jackson and Al Sharpton down the path of oppositional culture. Single mothers, labeling any measure of a positive outcome for black kids as being ""white"", the list can go on.

Maybe they turn it around someday, probably not.

But Booker not coming out as gay is why.",fe9fuz2,gunpride_worldwide,58kf8bmw
"Third place, do I hear any takers for third place?",DualityOfLife,gdyhy,fe6q9yz,"Yeah, but it sure beats whatever is in second place.",fe2y16c,audionautix,b873a
"I saw Bernie as appealing to the people that wanna solve a problem at Step 3.  ""I'll give you free money!""  Step 1.)  People get jobs and work them.  Step 2.) These working people pay taxes.  Step 3.) Bernie uses this Tax money to give it back to you and you're supposed to suck his dick and thank him for his 'generosity'. lol",DualityOfLife,gdyhy,fe6knem,Bernie appeals to voters who think he can do miraculous things for a country of 300 million that he couldn't accomplish for a state of 600 thousand.,fe6i7mw,Opie_Cunningham,bgo3s
"Lefties bought that whole ""There are three lights"" thing.  Us Trump Supporters still say there are four. :/  When you tell your people 1 + 1 = 3, it's bound to cause problems that were never imaginable before.   Once they tainted one pool of information with lies, others shortly followed apparently.  And some of us are dependant on accurate, true information!   If a doctor doesn't have accurate information on what your symptoms are, or a repairman not knowing what's broken........Just catastrophes in the making.",DualityOfLife,gdyhy,fdzt7yy,Trump truly broke the brains of Lefties. They don't know their ass from their elbow anymore.,fdyyywy,Ghostphaez,z6wc0
"Do you like food and oxygen?  You stole that from ALIENS! :o  If you're not alien, you're engaging in theft. Hehehehe.",DualityOfLife,gdyhy,fdzpfmf,"Do you like music or sports? Whites stole that from blacks. Therefore, If you're not black you are engaging in theft. This is the basis of their argument. I wish I was kidding.",fdznou3,Ijustmadethis696969,4qlqpgb6
"Yea but guilt comes from the most basic question - Did you do something wrong? Did you hurt someone?  Rob someone?  No?  Then why feel guilty lol  Some of these people want you to feel guilty just for existing.  Expressing yourself, your thoughts, your opinions - these people hate you just for breathing imo*  Also, the sins of the parents are never passed onto the children, unless the children repeat the very same sin - but then it ain't the parent's sin, its the child's.  I personally get turned off when they try to say ""how evil whitey is"" - ends up being a cliche at this point.",DualityOfLife,gdyhy,fdz1gm8,"I actually think it's because of entertainment. No one has any guilt over the native americans because they aren't perceived to be responsible for producing entertainment that is widely consumed. Black people are heavily associated with entertainment and media. Whether we are talking about music or sports or comedy, they are (for better or worse) highly over represented in media and entertainment relative to their population. For example, many slang words and common informal phrases are perceived to be 'African American' in origin. Music and sports are some of the most widely consumed forms of entertainment products in the world and black americans are at the forefront of this media. Because everyone's face is glued to a screen and everyone is consuming media all the time, mindlessly, the amount of black people they see in media is much higher than the blacks they see around them. Therefore when an argument is made about how blacks are oppressed or their culture is appropriated, the average liberal dumbfuck is extremely susceptible to feelings of guilt over it because all the media they consume is full of black people. There is a certain shame in consuming ""black culture"" while not ""suffering the injustices"" that black people are perceived to be suffering. So young impressionable millenials just eat up anything to have to do with sympathy towards blacks, because they were once slaves but now we ""steal their culture"" with our ""white privilege"". White people who don't feel shame or guilt over this dynamic are seen as ""racists, fascists, etc.."" and sympathy for other ""oppressed minorities"" is just a bleeding over from the core guilt associated with blacks and their supposed oppression. This is why the term people of color is used to refer to anyone non white. They are trying to form a coalition against white people by bandwagonning on the civil rights narrative of blacks because its very effective and manipulating white people. Ultimately it's the black/white thing and always will be, so that's why they are trying to facilitate illegal immigration from the 3rd world. They know it burdens white people and compromises their quality of life and that's exactly what they want. They want to be punished. That's where ""white privilege"" comes from. I could go on and on but race and guilt is the entire basis of liberalism. Economic policy is a little different but the goal is still to punish white people and redistribute their wealth.",fdyxku4,Ijustmadethis696969,4qlqpgb6
"I got a theory on White Guilt.  Some humans,  whites in particular for this story,  have empathy.  Meaning, they can feel other people's emotions.   So, someone would go up to a white, and be pissed at them.  The white person would be like ""Why is this person mad at me?  Did I do something wrong to them?"" And you'd have White Guilt, birthed from their insecurity, confusion from the moment, and lack of understanding the situation.  I personally pinpoint who's being pissed at me - realize, they likely hate me for just being me or are trying to prey on me, and react right back whichever way I deem necessary - either ignore them, call them out, or whatever.",DualityOfLife,gdyhy,fdyun2r,"Its actually primarily because of white guilt. Trump doesn't have any. A white person without shame is unacceptable to them because their entire worldview is based on it. Demographics and immigration are the most important issues, even if a leftist claims otherwise, they are primarily motivated either by white guilt or by resentment against white people. Trump is like their mascot for all evil rich white people. It doesn't matter what he does.",fdy4xf6,Ijustmadethis696969,4qlqpgb6
"Your first bread, comes from the people.  For a bonus to be a bonus, it has to be People Money + Bonus Money = A Bonus.   CNN just lost that People Money for going too far for that Bonus Money.",DualityOfLife,gdyhy,fdtu6a8,"Last year

[https://www.dailymail.co.uk/news/article-2198137/Another-blow-CNN-theyre-set-lose-airport-monopoly.html](https://www.dailymail.co.uk/news/article-2198137/Another-blow-CNN-theyre-set-lose-airport-monopoly.html)",fds7g76,trump4allz,4fgatx62
"Between her fundraising and the Democrats, which one's more corrupt?  Both are probably signed by George Soros anyway to cause chaos on all sides.",DualityOfLife,gdyhy,fdsznnb,"I feel confident that her ""fundraising"" is a hornet's nest of corruption, likely funded by subversive elements.",fdsx6ii,mrsattorney,14aenp
"I wouldn't call it Symbolism.  Here's how it works - the human soul or soul in general, aren't accustomed to corruption.  The soul has a desire to express itself freely.   Now, when you go against the grain, go against this natural order, you get these 'errors'.  A corrupt Democrat/Pedo can smile as they 'believe' that they allowed themself to be evil and corrupt, but every time they open their mouths, they project their original programming of expressing themself freely.  The soul needs to be honest. You can put a mask of lies, but you will leak honesty every time.  Liberal Projection.  Symbolism.  It's the soul screaming out to be free again, and no amount of alcohol, pills, can change this.  Afaik* Imo*",DualityOfLife,gdyhy,fdsyje5,Symbolism will be their downfall,fdrtphk,BasedCEO,47uodihe
Because they're not Americans - we're infilitrated by the enemy and this is the enemy parrotting the Enemy Nation's Propaganda and Script.,DualityOfLife,gdyhy,fds8o4y,How can you hate America that much? If we had another 9/11 attack these people would celebrate and say we deserved it.,fdqnhin,kyle465,flbmg
"Will it be another ""Just the tip"" Impeachment or are they gonna at least bury the shaft half way in this time?",DualityOfLife,gdyhy,fdrup3s,Here’s how it will go. Iran names Joe Biden for taking bribes. Democrats impeach Donald Trump for using military to get dirt on political opponents.,fdqb8sn,Toughduck48,3mew8nyi
"I think marijuana is being legalized faster because of Trump.  When the Globalists were in control, they were also controlling how marijuana gets legalized.  Hence, the idiotic existence that marijuana has a somewhat political affiliation - Democratic.  But with the power of common sense, you know beer has no politics so weed doesn't either.  

But anyway, the Globalists can't play marijuana propaganda and deal with Trump at the same time. I got a feeling weed's being legalized faster because of it as a result.  Even Canada ended up legalizing, after 5+ years of false promises.   

Dunno! But to me, America is beer, joints, bikinis, and guns.  ;D",DualityOfLife,gdyhy,fdq1kqc,"Nice.

So I'm getting drug tested for cannabis to get my prescription meds now.  I use cannabis for a medical purpose and it reduces my prescription med use.

Can we just legalize cannabis already?  This is *beyond* ridiculous.

I can go to the liquor store, buy enough alcohol to kill myself along with a carton of cigarettes, and still get my medication.  However, if I eat some edible cannabis oil, I get my medication revoked?  Can we *please* legalize cannabis already?

Democrats aren't going to do it.  They are beyond useless.  We need a republican to legalize cannabis.",fdprl6a,Droneman42,12e8k0
"Gaetz is a cuck.  This ain't some Rand Paul going based on Principal, this is trying to limit the Presidential's powers during War Time.  And who's gonna limit Trump's enemies powers?  They've been stealing power for their families for generations.   That's what Trump's trying to stop in this war. :p  But he ain't gonna do it overnight and with zero body counts.  We are AT war - war means people will die.  No avoiding.  You want to not be at war, go back 50+ years or God knows when these Globalists Couped the United States.",DualityOfLife,gdyhy,fdq11e8,"I'm in Gaetz's district, he certainly isn't a cuck. There's some deeper investigation to be had here, he's been right by trump's side for years",fdpgp9k,PharmaGangsta,t6ujv
"Never understood this fetish of people wanting to control others.  Through fear worst of all.  My experiences with leading scared people always ended up bad - they usually just stood paralyzed in fear and watched, during critical moments.  Or trying to teach a retarded toddler - repeating the lessons over and over and over again to no avail.  I don't get it - I rather do shit myself personally and let people be.",DualityOfLife,gdyhy,fdozg0k,"Cities are decaying. Universities Anti-American. Entertainment morally corrupt and full of unnecessary violence. Media controlled by elites that dream of controlling the masses completely. Hollywood full of sexual deviants and pedophiles. Politicians completely corrupt and bought on their sins. They hold trophies to each other and congratulate themselves on who they had to murder to be standing there. No, we’re not listening to them. We’re watching, and we’ve seen what they’ve factually done to this country and society, and we will never have it. Fuck the hell off. 

That’s my morning rant lol",fdn211o,some_moof_milker75,3t3fco8f
"Cue Ricky Gervais ""You have no idea how the real world works"".",DualityOfLife,gdyhy,fdoz3i4,I'm still not convinced Warren isn't a rogue AI written by 80 year old blue hairs in the New England States.,fdn87vx,garhent,4bs2r
"Liberals projecting their guilt,  trying to emulate a Conservative.  The scary thing is, this made sense in their mind as they hit the 'Tweet' button lol",DualityOfLife,gdyhy,fdoyfwc,"why would you ever share something like that on twitter to begin with, even if it's 100% true

what is wrong with people",fdo1o95,JustAnotherPence,2ykraaid
They will only get uglier.  Hatred and wickedness does terrible things to the physical appearance and the soul.,DualityOfLife,gdyhy,fdorwei,"Damn, those women are ugly like they're stupid!",fdoqw0m,MythArcana,yxqx3
"And here's reason #1 why I never got into hacking or any of that hardcore illegal computer jazz - It's not fool proof worth a shit.  Every action you do is logged, catalogged, backed up, and can one day, eventually be traced right back to fuckin' you.  There's not even a slight chance of getting away with hardcore illegal computer shit in today's world.  Not a slight chance.   It's why I try to keep my ass clean~",DualityOfLife,gdyhy,fdoisav,"Can we just for a moment consider that he said that someone ""hacked his IP?""

That's literally not how any of this works. As a software developer who specializes in security, I can assure you, those are words spoken by someone who wants to SOUND like they were hacked, but who was not actually hacked.

You don't ""hack an IP"".

You could GIVE me your IP address RIGHT THIS SECOND, and there's a 99.99% chance that I still couldn't touch you. Standard routers (for about, oh, ever since NAT was invented in the mid 90's) don't forward any ports that would allow me access to your system, and if he had some RAT on his system, then it would be ""phoning home"" which means his IP doesn't actually matter (since it would be self-reporting the IP anyway).

And you don't ""hack an IP"" anyway. Any more than you ""rob my home address"". You may rob someone's HOUSE, but you can't rob their ADDRESS. Just as you can hack a COMPUTER, but you can't hack an IP. An IP is nothing but an address.

This guy's a pedo, and he's going down. And I need nothing more than his own deleted tweet to know that for 100% fact. He inadvertently admitted to it because he's a goddamned poster child for the Dunning-Kruger effect, and made the narcissistic mistake of trying to ""be smart"" with his lie, only exposing himself.

He also has no idea that absolutely every single child porn image that he's downloaded can be undeniably verified to be his.

There's things we in forensics can do to establish a pattern. For instance, when you download a file to your hard-drive, it's placed in a particular location in the harddrive's memory. If possible, ""chunks"" of data get kept together, and not fragmented.

If some hacker got into his system, and just uploaded a shitload of child porn, EVEN IF THE HACKER WAS PROFESSIONAL ENOUGH TO ALTER THE WRITE TIMES ON THE FILE, we can look at the physical location of those files, and see that they're all grouped into a single (or small series of) locations. Then, based on when they presumably dumped on his computer, we can rule out with 99.9% certainty that he was actually cruising porn, but rather this came in as a single dump, and then the files were never actually accessed by him after the dump.

However, if he downloads a picture one day, then a week later downloads another, and a week later another, etc., those pictures will have all KINDS of information available in them, including where they're physically located on the platter (it's even EASIER if his system has SSD since SSD always drops files sequentially) we can see a pattern of when the child porn is pulled down. Usually, we can even figure it out down to the minute, and then verify that those timestamps match up to when he was physically at home and doing other stuff on the computer. In fact, we can usually prove that the only time the child porn was downloaded was specifically when you were sitting at your computer. These idiots almost ALWAYS jump on some social media immediately after rubbing one out. It's like clockwork. And boy, does it make our lives easier.

So this guy is fucked. Full stop. I don't believe for a second that he was ""on the phone with his computer security service"" because people wouldn't say that. They would say, ""On the phone with McAfee"" or ""On the phone with Norton."" And nobody from a ""computer security service"" would tell him, ""Oh, yeah, man, your IP was totally hacked."" ESPECIALLY not over the phone.

Would he be on the phone, where they would need to be remote administering his computer RIGHT THEN, WHILE he's tweeting about it? What about that makes sense?

And why would ""The Times"" be ""on the case?"" This is FBI jurisdiction. Not some fucking newspaper's. This guy's absolutely a pedophile, and he just admitted to it because he was stupid enough to think he was smarter than the rest of the world.",fdn6thn,CNNWillBlackmailYou,64okfqd
"My favorite is after they aborted, they get all pompous and teary eyed ""You don't know what I went through so shut up!""  Yea, you just murdered your own child.  I have a good fuckin' guess lol",DualityOfLife,gdyhy,fdmtkcx,"hopefully it makes them think. Tbh, when there used to be laws forcing an ultrasound before abortion MANY mothers chose life after being face to face with their child.

People WANT to be ignorant of the fact theyre committing murder, which is why they get so emotional when discussing it.",fdmk5wz,FirosAhoge,kxilo
"They did the same with Weinstein. ""If I didn't fuck Weinstein for a job, I wouldn't have a career!""  They don't stop to hear what they're saying.  Same with Kamala Harris and her proud to be a role model to little girls for sucking dick up the political ladder as far as she can suck herself to.",DualityOfLife,gdyhy,fdmtgq2,"Actress (cant remember name) came up during most recent awards ceremony and said without her abortion she wouldnt have gotten her first job, as if abortion is what jump started her acting career.",fdm7nfh,8bitbebop,8ih2m
[Remember when Fake News did a take on Anonymous years ago?](https://www.youtube.com/watch?v=kRcdmbC0HHs),DualityOfLife,gdyhy,fdmaq1x,"Hacking before AlGore invented the Internet, that 4Cham was...",fdma1m4,T-Bear_Rexus,1ayd29ru
"Almost sounds like his script was to blame Anon, but he didn't know who Anon was, so he went with the only thing being mentioned - Qanon.",DualityOfLife,gdyhy,fdm4diq,"He tweeted out basically that his IP was hacked and they used his computer to download child porn. You kno the old these ain't my pants officer!! And then he tried to blame Qanon for some reason.  

He going to jail. 😂",fdllg13,14metstom,rsk1s
"Don't think she can fuck her way out of this one.  There's just...too many dicks but who knows, this might be her Destiny and Purpose.",DualityOfLife,gdyhy,fdm46z8,"This is effing huge. 

Is this where they take down kamala Harris? That’s what I’m waiting for.",fdlghnv,RyanLSumner,5246m
"Yea, there's more than one border being breached.   The Mexican-US Border is just the focal point.  You have the Canadian-US Border, stretches far further than the Southern One.  You have the Alaskan Border.   Airports can still be infiltrated through bribes.  You get heavy screening by TSA unless you pay for a Premium Pass.  And the beaches too - what's to stop boats, submarines or sea planes from docking on random coasts and shores all along the oceans and just marching into our nation?  A lot of work to be done imo*",DualityOfLife,gdyhy,fdl8i7p,"Probably some ""Canadians"" that Trudeau let in. Same with the ""Swedes,"" ""Germans,"" and ""Brits.""",fdjvqsa,flapsmcgee,5ght8
"I agree.  Weather Machines were conspiracy theories decades ago, but in 2020, with cutting edge technology, who knows the capabilities.  Never underestimate.  And also, our enemies have a weird way of having earthquakes the same way a lot of Clinton testifiers have a weird way of suiciding. ;D",DualityOfLife,gdyhy,fdl6qnv,I wonder if we had any part in the last two. Our enemies have a weird way of having earthquakes at their nuclear facilities.,fdjyx33,JUGGALO_4_TRUMP,2sm03zsc
"They just up and start murdering each other at funerals.

And they wanna keep our borders open and bring these people to the U.S.

Fuckin' nope.",DualityOfLife,gdyhy,fdjpaci,More people died at that shitheads funeral than in these strikes,fdjbekx,Frank_the_NOOB,3qvbk8ao
"How about don't blame fellow pedes when we lose a battle and blame the correct thing - Demonrat cheating and rigging?

But cheats and rigs are logged and catalogged.  No one gets away in this world.  Nowhere to run.  Can't delete a file that's  backed up in 1,000 places.

Only half of us would need to vote to beat the very few Demonrat populace.   But they have dead people voting, illegals voting, importing MORE illegals via Mexico, Canada, Ship or Plane for more voting.  And let's not forget Broward County's multiple and multiple votes.",DualityOfLife,gdyhy,fdin7dl,"#THIS...
Will be our demise. That and their voter fraud. 

Not the actual pussy foot asshats themselves.",fdh695b,Odani_cullah,3jayqdq3
"So hot chicks are just fat, out of shape humans, not much different than their male counterparts?  Say it ain't so! :O",DualityOfLife,gdyhy,fdb3qfx,"Nah I can say with 99% sureness it’s not.

Source: Was a fat kid. before I joined the football team in HS and started hitting the gym, I looked like that.",fdb27lt,I_ONLY_FUCK_PATRIOTS,10iie2
"Fuck the money.  A nice modern, factory-esque job would be better.  9 to 5, full benefits, coverage, weekends off with paid vacations - the American Dream.  

You know, like a job before this illegal immigrant, slave-esque policies took hold.  

Like how they give free money packages to illegal immigrants, but our homeless, veterans ""EhhhHHhh. We can't help ya"".   They have the solution, they just adamanetly refuse to point it toward America.",DualityOfLife,gdyhy,fd420s9,"I'm reasonable, I'll just take like 10 grand.",fd2phhb,_Dialectic_,j34h51h
Or how about deport those that don't know English for one.  Really detriment that people are here that don't know our most basic of languages.  And a danger too - Can't read Road Signs and need Interpretors to translate Laws??,DualityOfLife,gdyhy,fcwkx21,"The intention was never to deport them. They will be here for good along with their children who have US citizenship through our broken birth = citizenship loophole. I say we cut all immigration for 100 years. Start stripping citizenship from those with illegal parents and deport like mad.

Demographics are destiny.",fcwjdjb,ObamaDasGayBoi,2e570aq9
"Yea, once you realize, you can't please everybody, and some people just want you dead, then it makes complete sense.  Some people are still in LaLa Land thinking ""I'll just do what they say and it'll be good."" Nope. We do not negotiate with terrorist demands.",DualityOfLife,gdyhy,fculaff,"They hate America. Once you understand this, their actions make all the sense in the world.",fctyu87,HEXENACI,a662q
"Bill Burr made jokes about Hillary Clinton and still walks.  I disapprove of this fear mongering of everyone that speaks out against the Deep State ""will get Clinton'd"".  She's a slab of beef that hacks green into cups of water, and carries a bottle of hot sauce in her purse - she's a fuckin' walkin joke.",DualityOfLife,gdyhy,fcukenz,"Careful, Dave.  I love your comedy and don’t want you to get Clintoncided.",fcu0aak,AlohaChris,6eprg
I had to do a school report in New Jersey on the first American Black President - Lyndon B. Johnson. :/   I'd almost wish I was lying. XD,DualityOfLife,gdyhy,fctdqhj,"I remember when Clinton was elected and the media called him ""The first black president.""",fcswzpf,You-get-the-ankles,f0do7
