child_body,child_screen_name,child_user_id,child_tweet_id,parent_body,parent_tweet_id,parent_screen_name,parent_user_id
Ferguson is just too goofy to last against Khabib. First round KO. You heard it here first.,FEwood,16qeon,fl11qen,Yeah because khabib is such a great finisher he’s definitely gona finish his toughest opponent,fl0wc8w,Lostfrito,3e134bev
Bump them to 101K.,FEwood,16qeon,fkyouny,What is $1000 going to do for someone who makes 100k.,fkym1jb,TyGeezyWeezy,13k488
"No, I don't need any money. You never know, but my gut feeling is that Tony will get KOed in the first round. Khabib is just too much for him.",FEwood,16qeon,fkxivcb,Bet your house on it then.,fkwyptg,Cheese_on_toast69,4ehnv2ap
Maybe they don't want to make weekly trips to the store during a pandemic? Just a wild guess.,FEwood,16qeon,fkuk7vz,"What's the logic behind the toilet paper hoarding? (Okay yeah, there's no ""logic"" there, but what's their reasoning?)",fksnpub,baymax18,14b08x
"I don't read any authors that have a rape or murder in their books either. Or if anyone dies. Or had any diseases or mental illnesses. Or if there's any violence or threatening behavior. 

So far, all I've found is the My Little Pony books.",FEwood,16qeon,fkqag75,"I read the sword of truth books up to the fourth or fifth book, I stopped reading them because every book had to have a female character raped or threatened with it. It honestly came across as if the author had a rape fetish.",fkotfvu,VaultBoyNewReno,z18d3
No matter what your age you most certainly will die.,FEwood,16qeon,fklwal0,Also if you aren’t a boomer you have a 99.8% chance of survival,fklqcw9,dubious-d2,vtg0zly
Huge wheels ruin a classic car for me. I’m also not a fan of the lowering craze. I prefer not having to look for a way around a speed bump.,FEwood,16qeon,fkitgps,Its amazing what a set of wheels and proper ride hieght does for a car.,fki321n,Alextryingforgrate,g117rhw
It could be the most important thing in the world to them. We only know that it is possible for them to care less.,FEwood,16qeon,fki6ep7,“could care less.” So still cares a little,fkhaxpl,mexicantacoblend,1tz0tg0
That’s a big locust!,FEwood,16qeon,fkcugjp,Ethiopia is facing mass starvation due to swarms of locusts the size of cities.,fkcifll,westernmail,iwib2
"Welcome to Earth alien visitor! If hypocrisy irritates you, you’ve come to the wrong planet, bitch.",FEwood,16qeon,fk5c54z,"If they're bitches why do Mcgregor and Mayweather have tons of fans? Even though they both are wife cheaters/beaters and are much worse than Joanna. I can definitely see double standards here. Carlosmedrano is kinda right tho. Men think men being edgy and asshole is ""alpha and badass"" but when women do it they're ""bitches"" lmao very nice double standards, UFC comments and YT comments prove it",fk56mc4,jrym44,2a25pbgw
"No, they’re bitches too.",FEwood,16qeon,fk4n6al,Yeah and when guys do it their badass right?,fk4m43e,Carlosmedrano,lzqr3
Didn’t see it but I saw the stats that Joanna had the most significant strikes. I guess she didn’t spread them out enough.,FEwood,16qeon,fjz1dkz,"The Co-main event was the true Main event. I don’t care what Yoel had to say, he didn’t show any sense of urgency. Izzy had no style today, but he won the fight with those kicks. Anyway I’m not going to give any energy to that wack fight. 

Zhang vs Joanna was a real ass fight. It was so close, but I agree with the judges. I’m so glad I got to see this fight. It was two warriors putting it all out there.",fjwzjaz,jpxzer0,owc9m91
Blue,FEwood,16qeon,fjwenok,What's that paint color?,fjvz2nr,slumdog-millionaire,1208j4
That was going to be my guess too.,FEwood,16qeon,fjp0i55,Sunbeam?,fjox043,88Sammy88,2etxrtfg
"In addition to GEOTUS Trump until 2024, we should sue the shit out of them. That's a good way to hit back.",FEwood,16qeon,fjcu4wx,The only way to hit back at these cancel-culture-commie pricks is to vote DJT back in. Get organized and committed for Nov 2020.,fjc4zc6,lurkeronlyme,j61x2
"My ears were damaged in the rock concerts of the 70s and 80s. Or maybe it was hunting quail every weekend as a teen. At any rate, CC would be very helpful.",FEwood,16qeon,fitr47o,"Brather, you have to lil bit squint your ears then you can understand this Smesh Language.",fitndwn,Int_Medical_GOAT,5fhkf0ed
One of the many benefits of owning your own company.,FEwood,16qeon,fip2dpl,"You are now categorized as:

-	Racist
-	Bigoted
-	Transphobic

A copy of your downvoting history has been sent to your employer. Thank you for using Reddit!

/s",fioqb8a,Rendesi3,3d9nvg7i
My two boys are in their early twenties and are shopping for a house and a condo. They’re both big Trump supporters. Mechanical Engineer and a Finance Dept. Head for a developer. I paid for their college. I’m very proud of them.,FEwood,16qeon,fimzlhp,"Decent article.

Young people are drowning in debt and despair and all the modern day right-wing have to offer is ""muh bootstraps, muh GDP, muh avocado toast snowflake"".

Is it any wonder young people aren't attracted to Capitalism when it's likely they'll never own any capital?",fimvpmb,aydancashus,18ggraew
I disagree. Only the driver should be charged with attempted murder. For all we know the passenger was begging the driver not to do it.,FEwood,16qeon,figuz38,They should go to jail.,fifuaue,oldman17,129s1v
">Not trying to make excuses for the guy, but it's pretty obvious he's in the early stages of senility.

 FTFY: Not trying to make excuses for the guy, but it's pretty obvious he's in the LATE   
stages of senility.",FEwood,16qeon,figpvq2,"Not trying to make excuses for the guy, but it's pretty obvious he's in the early stages of senility.",fige3l7,P1smo,4wrb1
What does that have to do with what I said? The people that die of starvation today have nothing to do with overpopulation or with failed fifty year old predictions.,FEwood,16qeon,fhjjcmp,9 million people die every year from hunger and it's related diseases.,fhjcgzv,quantic56d,l07f1
He also predicted mass starvation due to overpopulation beginning in the 1970s. Remember all those millions of people starving to death?,FEwood,16qeon,fhj9z50,You can thank Paul Ehrlich for noticing that some dyes colored certain cells and others didn't.  He then went on to develop synthetic antibiotics.,fhj2jw5,quantic56d,l07f1
"No, it is a supersonic round that carries a speaker that plays an opposite sound wave that cancels out the normal supersonic crack perfectly.",FEwood,16qeon,fhgzk9r,Subsonic?,fhgi45t,JaakoNikolai,3d454rtj
What kind of tape? Duct tape? I hope they pull over before taping.,FEwood,16qeon,fhgyedv,"A motorcyclist tapping the top of their helmet is the equivalent.

Edit: Wow! Thank you, Silver God! Spelling, too.

Edit 2.0: Wow! Thank you, Silver Gods!

I'm happy that people learned something and found this valuable. Hopefully it will save you from a ticket, or an emergency. :)",fhgp0y9,thotless_rat_bastard,1c2tfyr0
So you get an arrow with equal parts on both sides of the target? No you don’t. You’re a lying dog faced pony soldier.,FEwood,16qeon,fhfib21,No? I have arrows stop halfway embedded in targets all the time. You cray?,fheyqis,Taleiel,xxvo3
"Mine too! I’m ready to see you kids get a big dose of socialism. I can’t fucking wait. Excuse me, Democratic Socialism. WooHoo, Bernie!",FEwood,16qeon,fhblgn7,He's not much older than Donald Trump. He also has a way bigger following than he did in 2016 so I guess we will just have to wait and see. He has my vote.,fhbgaef,Vandersnatch182,udll1
"I’m sure there were interesting things visible from Earth. The moon for instance, would have been much closer.",FEwood,16qeon,fh9ej21,"Exactly, it's 500 million light years away. When these signals originated, there would have been nothing of interest visible from our planet",fh7n2qo,Strificus,y617m
You fool! High capacity magazines allow someone to shoot themselves too many times. Who needs to shoot themselves more than ten times?,FEwood,16qeon,fh7h092,".....40,000 people a year.....the vast majority of those are suicides.... someone explain to me how that justifies banning magazine capacity sizes....",fh6s04o,searanger62,b6w3fhg
Yes,FEwood,16qeon,fgkc3wd,If one was standing where this was taken would one see the stars?,fgkbot2,thyjukilo4321,4vm1k3a3
None would take the care that I did.,FEwood,16qeon,fg9fb8c,"> A hired electrician would have cut out too much structural wood

Don't hire them off the street.  Hire a properly licensed and insured one, then you won't have these issues.",fg89v4p,Arrokoth,508iqzvi
"On my wraparound front porch a recessed can light needed to go at the corner so as to be in line with the rest. Unfortunately there was a beam composed of 3 2x12s running diagonally out at the corner holding the porch roof up. I was forced to notch the beam, but then installed a huge piece of 6 x4 angle iron through bolted to the notched beam. On my 2x12 floor joists I only used 1/2” holes to pull the romex. I used a commercial copper bus panelboard with bolt on breakers. I used all #12 with 20 amp spec grade devices. My service was THHN copper in EMT. When I wasn’t wiring I installed hurricane ties on the roof and extra solid blocking everywhere. I took a lot more care than I see in the average home.",FEwood,16qeon,fg750pc,"Bullshit. Thirty + years of wiring homes, and I have never  ""cut out too much structural wood to install the wiring and recessed lighting fixtures"". In fact the average new installation involves absolutely zero cutting of anything, and old work that requires notching of structure is clearly limited by code. As you well know,  99% of all competent professionals you hire will not damage any structure. Now when it comes to DIY electrical, I have seen too many code violations to count, many of them are of being significant life safety issues.  I have also seen DIYers do significant structural damage while attempting to install or modify everything involving mechanical trades. Especially HVAC branch runs and plumbing drain lines.  When I do find a real butcher job that has been done professionally, I can often guess who did it, since my market area had one or two legendary butcher electricians who only got work because they were dirt cheap, and avoided getting anything inspected.

Last week I did a service call on a home that was so hacked up by DIY work it was mind blowing. I removed a few device covers, pulled a few breakers, and traced a couple of circuits. I carefully put everything back where I found it, without modifying or repairing a single thing, and gave the customer the bad news. The electrical system was so off the charts sketchy that I wasn't touching it, or taking their money.  Seems they using grounds for neutrals, and t-tapping Romex feeding  a 220V  heating circuit to add a receptacle circuit was just fine for this DIyer.  There are other homes in that neighborhood where DIYers decided that lamp cord was just as good as Romex, so they ran it in walls and ceilings.",fg6m1y4,mollymurph,14s5tx
Did the guy trying to serve her lawsuit papers commit suicide yet?,FEwood,16qeon,fg6ih4u,"Just remember, the worst day in your own life is better than the best day in the life of a person with information which could lead to the arrest of Hillary Clinton.",fg6ezn1,Amm0sexual,12omoz
"I disagree. I wired my own home as it was being built 25 years ago. A hired electrician would have cut out too much structural wood to install the wiring and recessed lighting fixtures. Just practice lockout tagout, use PPE, familiarize yourself with the relevant sections of the National Electrical Code, watch a few videos, get an unrestricted electrical license in your state, and run a commercial electrical contracting firm for a few decades. You'll be good to go just like me.",FEwood,16qeon,fg66o0y,You should have a disclaimer that diy electrical is not a good idea.,fg6006o,HoggyOfAustralia,1bg65q
So what? Rates are below historic average. Now China will start buying American produce. Vote for Bernie. That’ll help farmers.,FEwood,16qeon,fg4jl89,"And yet the rate is rising despite the fact that literally billions of dollars of new subsidies are being given to them to make up for profits lost to the trade war.  


Edit: 2019 was the highest year for farm bankruptcies since 2011, way more than the 7 you listed, and the historical average isn't from a time when there were literally billions of dollars in farm subsidies",fg4jbyh,Staffloss,3gkx2
"There were 5 farm bankruptcies in Alabama. One each in Colorado and Wyoming. While the percentage may be up, there are far fewer than the historical average.",FEwood,16qeon,fg4j5iu,"Super strong economy when billions of dollars of farm subsidies can't stop the bankruptcy rates from continuing to climb. Just, so strong. And the rates climb higher higher ^(higher) ^(higher...)",fg4ea5j,Staffloss,3gkx2
"I’m doing great. I could have retired when Obama took office, but it would have been hard. Now I’ve put two boys through college and am totally debt free. I told my boys I was voting Bernie just for the lols of watching you kids in the soup lines. They are both voting for Trump.",FEwood,16qeon,fg4ikg1,"Super strong economy when billions of dollars of farm subsidies can't stop the bankruptcy rates from continuing to climb. Just, so strong. And the rates climb higher higher ^(higher) ^(higher...)",fg4ea5j,Staffloss,3gkx2
There are so few farm bankruptcies that these stats are meaningless. My farmer plans to hang it up too if his son doesn’t want to take over the business. He’s probably worth 100 million.,FEwood,16qeon,fg4dgzh,"Great! I'm glad you have a source of income. [Facts don't care about your feelings](https://www.reuters.com/article/us-usa-farms-bankruptcy/u-s-farm-bankruptcies-hit-an-eight-year-high-court-data-idUSKBN1ZT2YE), though, and it's a fact that farmer bankruptcy has reached an 8 year high.",fg4c5lo,Staffloss,3gkx2
I lease land to a farmer. Go spout that bullshit somewhere else.,FEwood,16qeon,fg4avsi,"Remember, when the government has to start offering massive subsidies to farmers because the trade war is costing them their markets but the subsidies aren't enough and farm bankruptcies hit an 8 year high, and when unemployment is down because more and more Americans need to work 70 hour weeks between three jobs to barely make ends meet-- that's when you know the economy is really booming.  


Edit: Dude maybe does lease land to a farmer, but also it's an[objective fact farm bankruptcy has reached an 8 year high](https://www.reuters.com/article/us-usa-farms-bankruptcy/u-s-farm-bankruptcies-hit-an-eight-year-high-court-data-idUSKBN1ZT2YE)",fg427ej,Staffloss,3gkx2
Read a history book.,FEwood,16qeon,fg02rpi,"Yeah, sure. Okay.",fg02n8n,Zomgtforly,k3dxn
"Anyone that thinks there is a continent-sized plastic pile swirling around in the Pacific Ocean is a retard. 

Yes, a retard. 

FTFY.",FEwood,16qeon,ffzikk9,"Anyone who thinks that continent-sized plastic pile swirling around in the Pacific Ocean is made of America's plastic straws is a retard. 

Yes, a retard.",ffyyf0p,mrr1,11gg35
Just basic physics. See if you can figure out how hot the atmosphere would need to be to raise the temperature of the ocean by one degree C in a thousand years.,FEwood,16qeon,ffugezh,What proof do you have that it doesn't?,ffufvoi,Negativefalsehoods,5atqz
We’ve set off over 1000 in Nevada.,FEwood,16qeon,ffmnrwl,"It's actually scary the amount of times we've almost accidentally nuked ourselves

Edit: typo",ffmni4s,PineappleGrenade19,5v7ss0t
He's a good dog.,FEwood,16qeon,ffmhpsq,You are the bravest boy.,ffjy85x,MadDingersYo,in0ix
A tough dog.,FEwood,16qeon,ffmhot2,We got a tough guy over here!,ffjv7u4,claytwin,ygm2y
My Mastiff is very badass.,FEwood,16qeon,ffmhnee,r/iamverybadass,ffjwmdj,milkdrinker3920,16bai5
"An aircraft collision with a F-86 fighter caused a B-47 to intentionally drop a 7000 pound hydrogen bomb in the waters off Tybee Island, Georgia in 1958. The crew were afraid a crash as it tried to land might set it off and requested and were granted permission to drop it. They did so and it has never been found.",FEwood,16qeon,ffmgpp7,Lost their nukes in a boating accident? Maybe we aren’t so different after all..,fflybl5,Fab_dangle,xsn24
"Could you explain please?

Edit: I missed the word bisexual. I was thinking lesbian instead of bisexual.",FEwood,16qeon,ffm7rcb,the null hypothesis would like a word,ffm6w8w,SpongeknobSquarenuts,dupa2
"It’s ok. The older you get, the less fear you have. Reddit is mostly kids. I’d have probably done the same when I was their age.",FEwood,16qeon,fflswbe,"Yeah, reddit, downvote a guy who's literally saying that he will put his life on the line for others. Wtf is wrong with you?",ffljdoe,IgnusIncubus,3l5z433r
The first portion of this comment did not age well.,FEwood,16qeon,ffik5h9,Evenly matched... Should be a banger!,fejht00,plato961,tz3cx
"Just accelerate it to near light speed from about five feet above the ground. Most of it will make it.

Edit: Stand back as you do it.",FEwood,16qeon,ffi1ecn,"Would it survive the atmosphere though?

Physics are cool. Interesting thoughts below.",ffi121w,FearErection,9cfmb
I’ve written it too.,FEwood,16qeon,ffgr5og,One of my college professors claimed to have written that sentence,fffl06j,Turbo-Slinky,51cvnian
"Bh5?? 

Fixed that for you.",FEwood,16qeon,ffctkb9,"Bh5!!

Fixed that for you.",ffcch84,madmsk,5kp7k
"If he was a bad conductor, there would be no sparks or smoke. - Electrical Contractor",FEwood,16qeon,fezxqbx,"So there was this man in Bulgaria who drove trains for a living. He loved his job. Driving a train had been his dream ever since he was a child. He loved to make the train go as fast as possible. Unfortunately, one day he was a little too reckless and caused a crash. He made it out, but a single person died. Well, needless to say, he went to court over this incident. He was found guilty, and was sentenced to death by electrocution. When the day of the execution came, he requested a single banana as his last meal. After eating the banana, he was strapped into the electric chair. The switch was flown, sparks flew, and smoke filled the air – but nothing happened. The man was perfectly fine.
Well, at the time, there was an old Bulgarian law that said a failed execution was a sign of divine intervention, so the man was allowed to go free. Somehow, he managed to get his old job back driving the train. Having not learned his lesson at all, he went right back to driving the train with reckless abandon. Once again, he caused a train to crash, this time killing two people. The trial went much the same as the first, resulting in a sentence of execution. For his final meal, the man requested two bananas. After eating the bananas, he was strapped into the electric chair. The switch was thrown, sparks flew, smoke filled the room – and the man was once again unharmed.

Well, this of course meant that he was free to go. And once again, he somehow managed to get his old job back. To what should have been the surprise of no one, he crashed yet another train and killed three people. And so he once again found himself being sentenced to death. On the day of his execution, he requested his final meal: three bananas.

“You know what? No,” said the executioner. “I’ve had it with you and your stupid bananas and walking out of here unharmed. I’m not giving you a thing to eat; we’re strapping you in and doing this now.” Well, it was against protocol, but the man was strapped in to the electric chair without a last meal. The switch was pulled, sparks flew, smoke filled the room – and the man was still unharmed. The executioner was speechless.

The man looked at the executioner and said, “Oh, the bananas had nothing to do with it. I’m just a bad conductor.”",feyaaov,SgtSkillcraft,ld76xlp
Four speed. Early voice to text programs were iffy. /s,FEwood,16qeon,fezpdsh,“Floor speed”?,fezdykv,ShadeTreeDad,n2md2
I have deja vu about Bum Fights.,FEwood,16qeon,ferb60v,"I worked at a non-chain pizza place for a year, and we did it for about a week:

* homeless people would hang outside the back door 24/7
* NOT homeless people started hanging out there during opening hours just in case
* the number of bad orders we got went up x10
* they would come into the store again and again just to see if there were any bad orders that we might be bringing out later
* we would bring out an Hawaiian and they would complain about the pineapple and ask us to make other pizzas that they would prefer
* people were pissing and shitting in the alley
* people were doing drugs right at the back door

But even with all of that, the main reason we stopped is because there would be full-on fights over who got to eat the pizza. No one got seriously hurt, but we could see it coming.",fepodwy,hokeyWB,9ezr2
"There should be a cost for violating the fourth amendment. May your chains set lightly upon you and may posterity forget that ye were our countrymen. 

The right of the people to be secure in their persons, houses, papers, and effects, against unreasonable searches and seizures, shall not be violated, and no Warrants shall issue, but upon probable cause, supported by Oath or affirmation, and particularly describing the place to be searched, and the persons or things.",FEwood,16qeon,feodcu9,What exactly would shooting at police during a manhunt after a bombing accomplish?,feobqr6,mememagicisreal_com,11iwr7
He was in blackface.,FEwood,16qeon,fen4tgu,Because we all know Jesus was probably dark-skinned...,fen2kcx,pongo000,5rpxo
*160,FEwood,16qeon,femu57h,99 members.  Elijah Cummings is no longer.,femk4ki,bmorepirate,144j1u
I’m not sure. It is difficult to find any news about it. I’ve scoured CNN.com but can’t find a thing about the great energy company executive Hunter Biden.,FEwood,16qeon,femdvcj,Serious question: what is happening to Joes sons case after the judge mysteriously and inexplicably  recused himself?,felstfb,missanthropocenex,3j8l22kj
Thanks. Corrected.,FEwood,16qeon,feknk14,"\* bleaches

Source: dude with brown hair who bleaches",feklect,PM_ME_MAMMARY_GLANDS,zhgha
"She’s a brunette that bleaches her hair.

Edit: Dyes was wrong. The correct term is bleaches.",FEwood,16qeon,fek1krf,A smart blonde joke? Interesting...,fejjpz3,ssscomptonite,1e7hc82
We have huge crowds. They’re mostly fans of the visiting team.,FEwood,16qeon,fegzv34,Yeah it would be so embarrassing to get caught using audience noises in the stands to make it sound like you have a bigger crowd.. ...,fefvd9s,xPUGNIPSx,knhym
Is that against the rules? We didn’t know.,FEwood,16qeon,fecbn00,Didn’t they get caught pumping crowd noise over the PA system? Lost money and had a pick taken?,fec501f,IveBeenGoosed,1di3kcmb
"Can we add Seattle, Portland, and LA?",FEwood,16qeon,febysdy,"So Detroit, St Louis, Chicago and Baltimore?",febfb58,findthewarmspot,14ofk6
Damn it! I’d almost forgotten.,FEwood,16qeon,feazuv5,"Idk whats worse, cheating in a big game, winning, and keeping the Ring

or 

Dropping a 25 point lead in the 2nd half of the Bowl to lose.",featkek,simple1689,nzdtq
"But whites, blacks, and Hispanics are just so ugly.",FEwood,16qeon,fe8z69i,It’s only racist if you demean other races to show that you prefer another group,fe8nncn,AngelsLoveDisasters,3scd0shs
I only like them because of true stereotypes.,FEwood,16qeon,fe8ys24,"Generally no although it gets a bit sketchy if you like them because of false stereotypes (ie, you like them because you think all Asian women are submissive and quiet).",fe8xwro,Gauntex,5wt8c
Looks like a mustang ranchero. Very nice.,FEwood,16qeon,fe89imo,It’s a ford falcon Ute,fe84jve,tmillsy1998,5ch3nhax
So you never clean your weapon?,FEwood,16qeon,fe7mez2,"Rule #1 of firearm safety.  There is no such thing as an unloaded weapon.

Rule #2. Never put your finger in the trigger guard unless you intend to fire.

Axiom - a belt acts like a finger in this case....

This is failed gun control.

Yes, you can make the argument that he really knows there are no rounds in the weapon, but still....",fe6si8u,pnht,6hmun
I love my Uncle Mike's. Getting a little floppy after three years though. Nothing lasts forever.,FEwood,16qeon,fe7mbdu,Even an uncle mikes would be an upgrade,fe6hpgm,random_life_of_doug,zft8l
\*brake,FEwood,16qeon,fe7l6oc,"People also need to recognise that not every use of the break is break checking.





If you see the light, be preapared for a sudden slow down as it is sometimes used as a warning.",fe7k9q5,BothersomeHelmet69,32xho17l
\*breathe,FEwood,16qeon,fe7l3hn,"The worst is when you have a column of cars in front of you and someone _still_ flashes and tailgates you. That's not only rude, but so brain-dead stupid I wonder how they remember to breath.",fe7jd4m,moaiii,1qih2r7x
George Washington too.,FEwood,16qeon,fdvnfyd,Pretty sure I heard this one when Bush was in office,fdu4aya,noobspree500,1mc2ekwb
"You thought it was a tasty placenta, didn't you?",FEwood,16qeon,fdvmrrs,"Placentious did not at all mean what I thought it meant. For that, I am pleased.",fdvjtw1,DenticlesOfTomb,3a152n4p
\#4. Always read. Seems difficult to read a book while arguing with someone. Since it doesn't have bold text can we skip that one?,FEwood,16qeon,fdvfaeg,"1. Learn the **socratic** method. Ex. Start by asking their definition of sexism and racism and proceed and poke them from there.
2. When citing anything, go to the original source/**primary source**.
3. Know **laws and rules** involved in the issue. Hard to argue with you when you're citing a law.
4. Always read.
5. Never get **defensive**. If you're answering in defense, you are losing. Instead, make positive assertions and back that up (with laws and primary source materials).
6. Practice your **tone**. Make the volume of your voice even. Try not to shout. Speak in a calm tone.
7. Be **genial** after to those you argued with.

You did  a good job with solid points. Kudos. So happy that there are still kids like you who are impervious to group think.",fdtmksa,lugifer,wrji2
Happy Cake Day!,FEwood,16qeon,fdv9wj9,Arrival,fdui08r,k-ae,2ywl15ok
"Yes, red giants are far less dense than our atmosphere.",FEwood,16qeon,fdsg65n,"So I take it our sun is just dense as hell compared to other, larger ones?",fdsffik,Black_Drogo,17hqyu
"I was talking about mass, not physical size.",FEwood,16qeon,fdsey5m,What??? There are stars billions ( 1000^3 ) of times large than our sun https://en.m.wikipedia.org/wiki/List_of_largest_stars,fdsdq86,rexmachina,tkuti
"I’m sorry. I meant in mass, not physical size.",FEwood,16qeon,fdsewea,We have definitely found stars way larger than that. Betelgeuse is very close so we can get a pretty good approximation of its size and it's about 700 times the size of our sun.,fdscyl7,clamdigger90,a1sgn
We’ve found no stars that big yet.,FEwood,16qeon,fdscl1f,It would just be a star at that point.,fdsb8kn,recualca,pw37q
Mercury has only 5% of the mass of Earth.,FEwood,16qeon,fdscb23,That wouldn't be considered a planet by them.,fds2fhv,chacham2,v7oy4
Practice in all stances with both hands. You could be injured or carrying a child. A modified weaver may not be possible in a gunfight.,FEwood,16qeon,fds7pp1,Horrible stance,fdrsnf4,RawBearClaws,316mvck2
Never cringe. Always stand proudly.,FEwood,16qeon,fdqo858,Bro you just posted cringe,fdqn404,DewLad,ugd9i
"It was an exaggeration too. He was attempting to brag about how attractive he is to women. If he ever said I'm so hungry I could eat a horse's ass, what would the CNN lead story be?",FEwood,16qeon,fdq0vju,"Oh, if you mean the ""Grab them by the p*ssy"" comment, he actually admitted to that and apologized that it was locker room talk. And even then it was taken out of context and chopped up to sound worse than it was.",fdp5c33,Ullyr_Atreides,3wis945t
Snipers will be watching carefully. Don't stumble!,FEwood,16qeon,fdq0f0s,"Serious question, what if they just... do it anyway. What’re the realistic repercussions? Stripping them of medals?",fdpj1qg,GammaZord,dwc2i
*right of way,FEwood,16qeon,fdosmjw,Obscure example:  Never put faith in having the right away when you're on a motorcycle. Cars will fuck you up.,fdoddd1,Ilikeyouyourecool,ezcbr
Qc6 is check. Can’t move your rook when you’re in check.,FEwood,16qeon,fdlh5h4,White can still draw by moving his rook back and forth,fdlcvsv,otherBallGod,rgso9
I do not have google and anyone can type anything into a title.,FEwood,16qeon,fdkzam0,its even in the title dog u have google,fdkryqq,maraschino666,yrogx
Link me up with your source. I’m happy to learn.,FEwood,16qeon,fdkh45r,“dozens” bruv try like 300,fdkg3pq,maraschino666,yrogx
I think I’ll continue using canary tail feathers.,FEwood,16qeon,fdjtl6v,Kilograms.,fdjqr5n,andyrocks,32jl7
"It doesn't matter whether we measure the universe in kilograms or canary tail feathers. The sun sheds 24,817 canary tail feathers of mass annually in neutrino emissions. All measuring systems are arbitrary. Do you think if we met aliens from another galaxy, they would use the base 10 metric system and talk of how many meters away they live?",FEwood,16qeon,fdjnr4s,"One pound is  0,454 kg.

Getting 1 hit in a million with ""equals 6 pounds"" does not justify using pounds in general.

I mean no offence to you, but imperial is illogic and arbitrary.",fdjmif6,MortarionSanchez,3aavp116
"Because it worked out exactly in pounds. What sounds better, 6 or 2.72?",FEwood,16qeon,fdjloi1,Why on earth don't you use metric?,fdj6gix,andyrocks,32jl7
Incorrect. The answer is six pounds.,FEwood,16qeon,fdiq3ot,"We don't know the mass of neutrinos. The ""mass"" lost to neutrinos goes into the momentum of neutrinos which is in the MeV range.

(Also, this snarky mod would point out that there are no HW questions allowed in this sub, but I'll let it go this time because it's about neutrinos (and because it isn't really a HW problem).)",fdi0gdc,jazzwhiz,386yh
I know what I learned about it from Professor Penn. People were commenting that it was a one sided race riot with evil whitey killing the poor downtrodden blacks. I know enough about it to know that it wasn’t that simple. Don’t like my comments? I know how to fix that.,FEwood,16qeon,fdikvpx,So why comment? You’re obviously ignorant to the facts of the situation which lead you to make an inaccurate comment that may misinform someone else. Did you just *have* to inject yourself into a conversation you don’t know much about?,fdij6r7,Theodore_E_Bear,4n00twby
Perhaps you would enlighten us with the truth of the matter and elevate us from idiots to merely ignorant of portions of history that everyone should deeply study. What actually occurred?,FEwood,16qeon,fdi8ghs,"Buried at the bottom is the truth 

Redditors are idiots",fdi0li2,MyRushmoreMax08,3wvpg8gv
"It is what I remember from a history class I was required to take forty years ago. Sounded plausible at the time, so yeah, I believed it. I may have misremembered some of it. Who knows, it may have been like To Kill a Mockingbird and the girl decided regret was rape. I wasn’t there.",FEwood,16qeon,fdhwl2q,"...and you believe that? 

That in the end it was a black person's fault for raping a white woman?? 

Like that lie hasn't been used before to justify murdering black Americans...

Jesus Christ",fdhoswb,asshole_commenting,er737
Next move from b6 to c6 to mess up the draw.,FEwood,16qeon,fdhk1fa,I am  a newby at this but just how does Q get to c6 in the first place?  She starts on G1.  The diagonal takes her to B6 to block.  What am I missing?,fdhi8k5,Enteratrisk,8fgkqb0
"They're worse off than many slaves were. Kept under constant lock and key and forced hard labor. Slaves in the south had their own housing and saw their wives and children at night. Just because they aren't termed ""slaves"" doesn't mean anything. Some are raped and beaten and occasionally murdered.",FEwood,16qeon,fdh6vom,"That may be and it's due to how the prison system has been managed ever since the 13th Amendment was passed, including more than a few case of corruption, profiteering etc as well as a lack of court decisions which would have enforced that provision. It doesn't change the fact that legally and historically, there is an important distinction between the two and that nowadays there are no people in the USA whose status is ""slave""; there are convicts, whose conditions one might argue are extremely simlar to that of slaves, but no census would ever consider them proper ""slaves""",fdh3wc8,KnightIT,46ckvy
There are lots of documents on the internet that disagree with your interpretation.,FEwood,16qeon,fdh2yvi,"Those are the words but the ""except as punishment for a crime"" part refers only to involuntary servitude. A prisoner sentenced to hard labor is not a slave nor can he be classified as such. That's one of the most common misunderstanding I see but that is how it works.",fdh2soo,KnightIT,46ckvy
"
Neither slavery nor involuntary servitude, except as a punishment for crime whereof the party shall have been duly convicted, shall exist within the United States, or any place subject to their jurisdiction.",FEwood,16qeon,fdh2iiq,"Nope, the ban on slavery is absolute. Involuntary servitude is legal as punishment for a crime, that's a very different thing from slavery.

The main distinction being that slavery would carry the total and absolute deprivation of an individual's freedom whereas that is not necessarely the case of involuntary servitude.",fdh1snu,KnightIT,46ckvy
Bad analogy in my opinion. The 13th amendment says that slavery is still legal as punishment for a crime. 2A is absolute.,FEwood,16qeon,fdh0v6h,"Do you believe in the 13th amendment and think that all laws that would allow slavery would be infringements, or do you believe in ""reasonable"" restrictions?

There are no reasonable restrictions in one case or the other. There is no space for debate as the Founding Fathers did not worded the phrase as ""the right to bear arms shall not be infringed except for cannons or guns above x dimension"". If they had there would be a case to say that in the original intentions certain types of weapons were always assumed to be off-limits; they didn't and such a case doesn't exist.",fdgz30m,KnightIT,46ckvy
