child_body,child_screen_name,child_user_id,child_tweet_id,parent_body,parent_tweet_id,parent_screen_name,parent_user_id
Yeah ... it’s dawning on me too that we really might see an economic collapse of the dollar ... The Great Depression part 2?,Freedom2speech,1110vy40,fl00f67,"Sorry you got laid off man.   This whole government response to this 'virus' seems intent on destroying the economy into oblivion.   Isn't it convenient in comes along right when the banking system was already starting to collapse.  Now they are getting bailed out to the tune of a trillion a night.   

To me the collapsing banking system and world economy reset is a bigger story than the 'virus' story.  And like you said, this is exactly why crypto was invented in the first place.     Hopefully us OG hodlers  come out the other end of this on top.    It's going to be a bumpy ride.  

Good luck bro.",fkz1da7,anchorman33,5cvjf0s
They are screwed in Canada too — except for a big boost ($300 CAD a month) to child tax credit.  Average child tax credit in Canada ranges from $250 CAD a month to $500 CAD a month per child based on household income.  So an extra $300 CAD on top of that.,Freedom2speech,1110vy40,fkyxsxv,What about stay-at-home parents that make nothing?,fkyx0id,Obtuse_1,edulw
They don’t want riots when the inevitable National Lockdown starts in the US.,Freedom2speech,1110vy40,fkywvjc,"My father could REALLY use this as his industry is affected. He pays payments to the irs for taxes (he accidentally under withheld with a new job, and admittedly simply doesn't understand finances)

Do you think he would still qualify, or would it just apply to his tax debt? I read the draft and I'm not seeing anything. Or if I am the language is confusing.",fkywfda,stackedtotherafters,x17w9
"No what I mean is that the US will give the same amount to everyone regardless of income and see that as “fair”.  Other countries will focus more money on at risk groups.

Different mindset ...

One might argue everyone pays taxes so everybody should get an “equal” share.   Whereas another would say it’s more important to share resources with those more in need (who may not pay any taxes at all) ... not arguing in favour of either way, just saying the different political ideology that may drive these decisions.

Edit:  looks like it scales based on income in US too",Freedom2speech,1110vy40,fkyvus8,"More equalitarian than... who? lmao, the fact we are the most income inequality country in the developed world, and rank 169 out of 178 on income equality in the entire world, smacks the irony right there.",fkyt60p,chriswmf,g33z1tz
America tends to be more equalitarian compared to other countries in that regard.   The idea that every person gets a cut as everybody pays their taxes.,Freedom2speech,1110vy40,fkys323,"Somehow I don't think millionaires and billionaires really need this, do they?",fkyrzmd,chriswmf,g33z1tz
It’s one time.,Freedom2speech,1110vy40,fkyrwf7,I want to know if it's one time or x/month. I just got notification from my school district that school may not reopen.,fkyrld7,ResidentLazyCat,47db602c
"In Canada the bulk of money is going to allow self employed who can’t work due to being stuck at home, access toEmployment Insurance (which they normally are not eligible for) for 14 weeks ... about 2000CAD/1400USD a month.  Everyone else working in Canada who gets laid off is already eligible for EI which lasts about 10 months.

The assumption is that people are going to need income for an extended period of time, especially if a national lockdown happens.",Freedom2speech,1110vy40,fkyro00,"Is this even going to help? I know its an economic stimulus, but when all businesses are closed or cities in lockdown, people are not going to spend it anyway! Why not give all the money to small businesses and help them keep payroll and hold onto their employees till this blows over?",fkyr7ax,kis897,kzpgk
It’s the same ... they had mentioned it might be more than $1000,Freedom2speech,1110vy40,fkyr3xk,Is this different from the $1000 one?,fkyqxyb,meemeechowa,33dioyio
"I guess it’s just making the point that couples/families will benefit.

Interesting comparing Canadian measures to US.  They are throwing money at us up here too but it’s way more targeted relief (student loan relief, child tax credit boost, self employed can get employment insurance, mortgage deferral for 6 months)",Freedom2speech,1110vy40,fkyr22d,"I love this title. ""$1,200 per person, $2,400 for 2 persons""",fkyqseh,ADarkTwist,dru61
"Personally I can pay, it’s just frustrating seeing mortgage holders offered relief while renters left hung out to dry.",Freedom2speech,1110vy40,fkwtbdu,"its going to be tough, some landlords use the income as their income, it won't be win win for anyone out there.

best advice will be to actually talk to your landlord about what is going on, and see if you can work something out.",fkwoywz,Tak7ics,7525p
"😢🤯🔫😵

🌚🐔🌝

🥇buy Łitec🐤in🥇",Freedom2speech,1110vy40,fkwj250,Wow I got here before that annoying upvote chicken comment,fkwfvi4,artistmattem,11xx1s
"/u/_scourge_ is correct.  I worked for welfare and we would often force people to apply to EI who were not eligible for EI — this was the “proof” client (might) be eligible for welfare.

Sounds like in this situation it’s similar reasoning ... can’t get special gov program if eligible for EI so have to apply for and get declined from EI to get proof.

With that said who knows how this new program will work.  Feds seem to want this rolled out ASAP so maybe it will be different what is needed to determine eligibility.",Freedom2speech,1110vy40,fkvv8bo,"In what capacity are you giving this advice? It seems like you know what you're talking about, but I don't want to go and panic and clog up the EI system more than it is already, just because on a hunch from somebody online I suspect that I need to go through the process of getting rejected.

My time doing this would be taking away resources from other people who need to apply for EI *right now*. If it's not actually a requirement, this would be a massive and sudden unneeded burden on an already stressed system.

Forgive me for being skeptical, but I think that's a prudent approach these days, especially with anonymous online advice. That said, thankyou for also taking the time to help.

This is such a confusing time. :(",fkv21oq,AndyJS81,i80zm
Wow.  I need twins stat!,Freedom2speech,1110vy40,fkvnnyc,Monthly per kid,fkuxcct,_AverageHuman_,5kam9vsl
Yeah I’m very worried about the backlog this is going to create.  I DID apply for EI on Friday so hopefully I beat the rush.,Freedom2speech,1110vy40,fkux8ad,"This.  Everyone is applauding today’s announcement but all I see is additional red tape.  Everything is being delivered in the form of new programs etc..

Setting up “programs” takes a lot of time and a lot of effort.  They don’t just magically appear out of thin air.

Expanded EI?  Ok... but you need additional EI staff to process applications and that will take time when 100x the people are applying for it.

Extra money in the child care benefit?  Wonderful, my ex-wife now gets more money to do her nails for her wealthy boyfriend because I don’t get a dime of that.

All they should have done is given every Canadian $2,000 in the form of a direct deposit when they file their tax return.

Edit: Downvotes with no counterpoints.  I don't think you guys really understand how long it takes to make changes like this and get it up and running.  I guarantee that in 2 weeks we are going to be hearing that people aren't getting their money, and that people who ""should"" qualify are being denied.  People missing rental and mortgage payments, business collapsing.  Just wait....",fku9490,vrnate,c6pj5
Is that an extra 300 monthly or annually?,Freedom2speech,1110vy40,fkuwaq9,"""For over 3.5 million families with children, who may also require additional support, the Government is proposing to increase the maximum annual Canada Child Benefit (CCB) payment amounts, only for the 2019-20 benefit year, by $300 per child. The overall increase for families receiving CCB will be approximately $550 on average; these families will receive an extra $300 per child as part of their May payment. In total, this measure will deliver almost $2 billion in extra support.
Together, the proposed enhancements of the GSTC and CCB will give a single parent with two children and low to modest income nearly $1,500 in additional short-term support.""",fkuowbw,_AverageHuman_,5kam9vsl
"Mortgage deferral is happening, albeit with deferred interest (so you’ll owe more in the long run if you take the offer).

Nothing for renters which sucks.",Freedom2speech,1110vy40,fkuuy2t,"That should be close to livable, if not livable assuming mortgage/rent is suspended.",fkub3td,Abraxas5,4e021
Single biggest thing I was hoping for was an increase to EI ... alas,Freedom2speech,1110vy40,fkuulez,"Anyone hear anything concrete if they are going to increase the amount of EI people are allowed to get?  
Right now it’s 55% of your salary.  That doesn’t seem like a livable wage

Edit. Confirmed.  From a question posed by the French press to the FM, EI amounts *will not* be increased.  

But, Access to the funds will be quicker, and they want to concentrate on folks who would not be otherwise qualified at all to be able to get them with the new fund that they created for people who are self-employed, etc. 
(This is what I could get from my piss-poor French comprehension)",fku8qa4,Tango_India_Alpha,9tq8b8e
"I wonder ... what about people who run a business that’s registered, but unprofitable?  Or barely profitable.  How will government figure out entitlement?  Still based on 55% average earnings?   Tv kept saying 900 biweekly ....

(Asking rhetorically ... I used to work for Income Support, I know how EI normally works)",Freedom2speech,1110vy40,fkutu8k,"Obviously this isn't concrete yet, but it seems to be that way from my *personal* opinion only. It was specified that these benefits were for people who don't qualify for employment insurance. The only way to know if you don't qualify is to get an official response from them. Only way to get an official response is through a review. Only way to have a review done is to apply.",fkuoxyd,_Scourge_,3kzvwsq9
That’s just it ... we may be moving into previously uncharted never could be imagined territory in terms of how low this could go.,Freedom2speech,1110vy40,fksndhj,"I mean it could easily go much lower. I'm not saying -45% is the bottom, I just pulled a number out of my ass that was lower than the current number.",fks0v7m,vinlo,15ayrm
I like Stack TV.  Decent selection of specialty channels.,Freedom2speech,1110vy40,fkslrpy,"StackTV rates pretty shitty for $14/month on top of a Prime subscription, but ya Crave is garbage",fklt923,Willywear,13szi4
"Well, tomorrow they are announcing the financial help packages.  A lot of speculation they will relax EI eligibility requirements ....",Freedom2speech,1110vy40,fkshfyq,There's got to be some extenuating circumstances from COVID-19 inhibiting her from aquiring a new job. No? Maybe just not yet?,fks6zm3,Drew-sco,3uhbna7p
"How can they give EI if yiu haven’t paid in?  Wouldn’t that bankrupt the system?

I do hope we see a rent/mortgage freeze.",Freedom2speech,1110vy40,fks7esu,"Best case scenario that i think will be announced over this week.

Freezing of Mortgages and rent.

Delay of Taxes

EI to all people who dont qualify(around 573 a week).

Should be rolled out in the next 2 weeks. 

Any longer and it'll  become a problem.

That's best case scenario",fkrmjyt,Fr33z3n,lavio
And it may be needed for multiple months ....,Freedom2speech,1110vy40,fks6wpx,"to give a one time payment to every person in Canada, 37,590,000 people,   of 1500, would cost 56,385,000,000 plus admin costs.

so 100 billion dollar aid package would work..

56,385,000,000 for us

the rest for business etc..",fks1kxe,CannaHaze,51bjjh3a
"Oh she quit.  Yeah that’s a different story then.

There are only a few exceptions if you quit:  https://www.canada.ca/en/employment-social-development/programs/ei/ei-list/quit-job.html#number",Freedom2speech,1110vy40,fks5irg,I just wasn't sure sure as she voluntarily quit her job and now can't be hired anywhere. Seemingly excluding her from EI.,fks2tbi,Drew-sco,3uhbna7p
"I heard.  Crossing my fingers we see a bump up in average weekLy earnings EI pays out on (currently 55% of average weekly earnings).

A rent or mortgage moratorium would also be HUGE.",Freedom2speech,1110vy40,fks2uaj,All of the financial aid plans are going to be released in tomorrows announcement from Trudeau,fks2ey8,miahopehazel,4oui0vtq
"It’s not the same comparison though at all.  

For most people, myself included, pay for the theatre for the theatre experience.

If you are going to watch at home 20 bucks gets you multiple premium streaming services for a month.

20 bucks, lol.  Good luck",Freedom2speech,1110vy40,fkpzxfm,"That will be very interesting. People will balk at the price, but if I was bringing two kids to Trolls 2, I’d be paying a heck of a lot more than $20.",fkphepc,DirtyThi3f,bw23o
UPV🐤🐤🐤🐤🐤🐤🐤🐤🐤🐤🐤🐤🐤🐤🐤🐤🐤🐤🐤🐤🐤🐤TTEDDDDDDDDDDDDDD,Freedom2speech,1110vy40,fkpvivn,"😷UPV🐤TE 😷THE 😷😷😷😷😷😷😷😷😷😷😷🚀🐔🚀😷😷😷😷😷😷😷😷😷DAIIIIIIŁŁŁŁŁŁŁŁŁŁŁŁŁŁŁŁŁŁŁŁŁŁŁŁŁŁŁŁŁŁŁŁŁŁŁŁŁŁŁŁŁŁŁŁŁŁŁŁŁŁŁYYYYYYYYYYYYYYY

🥇buy Łitec🐤in🥇",fkpsmyo,AllenOneDC,5ilshxb
"My mother called.  One of her girlfriends son is high up in the military and basically has confirmed the same thing (he warned his parents a couple days ago).  

Lockdown is coming very soon.",Freedom2speech,1110vy40,fkofjqd,"My hubby went early this morning to get coffee, and the store was dead! Yesterday, he couldn’t even get in. Unbelievable...I’m outside Toronto.",fko6u3u,Catlesley,3kdbsxsn
"I have gone out late night to get last minute supplies to top up what I prepped in January.  Starting today though I’m staying indoors.

Feel sorry for anyone that ignored what was coming.",Freedom2speech,1110vy40,fko32kr,Yup. Just waiting for PM to come out. I hope it’s done. I’m doing my part in staying home-haven’t been out in almost 10 days.,fko2mzv,Catlesley,3kdbsxsn
National lockdown is looking increasing likely.,Freedom2speech,1110vy40,fknmgqp,The PM is doing an address at 1pm Eastern/10am Pacific. I'll be curious to see what it's about.,fknlx0u,jello_sweaters,gi4mn
I’m not sure ... maybe to prevent civil unrest if everyone gets locked down?,Freedom2speech,1110vy40,fknkzd1,What are they going to do?,fkn36it,zinoozy,258pdjgm
Yup I think it’s happening tomorrow.,Freedom2speech,1110vy40,fkmyxbu,Expect an announcement regarding non essential businesses tomorrow.,fkmum55,fourfingerfilms,6hni8
Have to stay home.  Can only be out if going to grocery.   Everything except grocery and drug stores closed.  Need authorization papers if going anywhere else.,Freedom2speech,1110vy40,fkmy2s1,Can you please explain what a mandatory quarantine is/would look like??,fkmbq9p,itsonlymyname,3vzozbbh
Same,Freedom2speech,1110vy40,fklpiiz,Same,fklpfsz,bardisviable,148m6e
Yup.  I got laid off (sold cruises for a living 😩) and EI isn’t going to cut it at all.,Freedom2speech,1110vy40,fkkxsvg,Problem is EI won’t be enough to pay my and many of my coworkers bills. I’m living right at the margins already as is,fkg8yb3,dexter_the_cop,fv5q5
In Toronto it’s mostly been Asians wearing masks.  That’s going to change soon I think.  I had mine on while grocery shopping.,Freedom2speech,1110vy40,fkjkurq,"I live in Koreatown in Los Angeles and it’s a ghost town here. They know what’s coming. All the Asians at the grocery stores were wearing masks, and none of the white people lol. I’d wear one if I could find one!!",fkjhrrt,briannag2019,4pyue4t4
"Not really optimistic, just resigned to one more piece of bad news in a dizzying storm of bad news.  

I’m actually REALLY happy I can stay home right now as the panic going on in the stores is insane.  I prepped so we have reasonable supplies.",Freedom2speech,1110vy40,fkicv1n,"I think the only job that could have been worse about now would have been a Corona Beer sales person. I'm pleased you can be optimistic, well done 😌👍👍",fkibwct,Ipgone,10ibhb
"Downtown Toronto, a massive Loblaws in the core was completely ransacked by shoppers.   No meat, no eggs, no tp, few canned goods, pasta all gone,   etc ... it’s pandamonium.  

I was going to go grab a few more things today but I’m thinking if it was that bad last night, today going to be even worse.",Freedom2speech,1110vy40,fkiaxbn,"Living in the Quebec Province in Canada.

Shelves are empty for canned food, pasta, bread, vegetables, rice, and the rest are starting to get empty. Some restaurants are closed until the end of the month, coffee shops in general are less frequented and everything is costing around 0.5 to a dollar more than usual.",fkg5c07,CollapseHasCollapsed,5qi2cgq4
"Thanks.  It’s ok, I mean I sold cruises for a living so probably one of the worst fields to be in right now ... I’ll get Employment Insurance which means I can stay home so that’s good.",Freedom2speech,1110vy40,fki7hn5,Aw mate - I'm sorry to hear that. I hope it balances out quickly for you,fkhpj8j,Ipgone,10ibhb
"UPV🐤🐤🐤🐤🐤🐤🐤🐤🐤🐤🐤TEDDDDDDDD

Getting Layed off screwed up my daily vibe.  Been dealing with lawyer on severance and also last minute prep shopping as the grocery stores getting demolished with panic buying",Freedom2speech,1110vy40,fkglcbn,⛺⛺⛺upvote the daily and wash your hands ⛺⛺⛺,fkgh750,FishinoutNOLA,otri4
They will be cancelled.  All of them.  Alaska Cruise season is screwed.,Freedom2speech,1110vy40,fkex8ok,What about cruises departing from Vancouver?  Are they going to reroute us to Seattle?,fkewoay,early_birdy,di72v
UPV🐤🐤🐤🐤🐤🐤🐤🐤🐤🐤TTTEDDDDDDDD,Freedom2speech,1110vy40,fkdfa38,"🚀🚀UPV🐤TE 🚀🚀THE 🌝🌝DAIIIIIIŁŁŁŁŁŁŁŁŁŁŁŁŁŁŁŁŁŁŁŁŁŁŁŁŁŁŁŁŁŁŁŁŁŁŁŁŁŁŁŁŁŁŁŁŁŁŁŁŁŁŁYYYYYYYYYYYYYYY

🥇buy Łitec🐤in🥇",fkdahak,AllenOneDC,5ilshxb
"Yeah we get Employment Insurance up here ... it’s around 1700 - 2100 a month for 42 weeks.

Plus severance.",Freedom2speech,1110vy40,fkcz2fz,"I'm sorry to hear that. We are seeing a lot of businesses around us being very affected. Some will be going out of business I think.

Can you collect unemployment at least until you figure things out?",fkc34j1,Marvin2021,5j0g5bet
Agree.  It’s bunker down time. Hope everyone prepped.,Freedom2speech,1110vy40,fkabepa,Honestly I think we are past the point of testing. If you are sick stay home. If you are really sick go to the hospital. We are going to have to ride this thing out.,fk9lla4,Flo_Evans,10zdvp
I’m worried about my mom and dad both in 70s.  My dad had pneumonia last year and almost died ☹️,Freedom2speech,1110vy40,fkabdbt,If you want to be morbid it mostly kills older people. Older people own most of the houses. There will be lots of inventory soon and not too many people going to open houses.,fk9m1wc,Flo_Evans,10zdvp
I expect to be laid off tomorrow (sell cruises for a living) so a 20% trip would be fitting to usher me out.  Wish it wasn’t against the rules to say what Corp I’m with ... mass layoffs tomorrow,Freedom2speech,1110vy40,fkab5cm,My bet is the 20% one trips and closes trading,fk9xqb6,Marvin2021,5j0g5bet
They also banned the NBA season.  That got the attention of ALOT of normies believe me.,Freedom2speech,1110vy40,fkab2eo,Tom Hanks diagnosed with it. The world is about to rip itself apart at the seams. White people beside themselves driving around downtown.,fk9lf8k,flat_top,5olfj
Same,Freedom2speech,1110vy40,fkaay5t,"oh I know, I think we are going down way more than we have already (and will tomorrow).  Not to mention what happens when the 2nd wave hits, after we stop this shutdown in a few months.

The global economy is pretty fucked until a vaccine is developed, and that is at least a year away if not longer.  Selling my equities was the easiest sell decision i've ever had based on the public information.",fk9x28h,captainhukk,lp0bw
"Agree.  I got out on Monday feb 24th once I realized what was going down.  Fully admit I was in a panic and for good reason.  Knew the crash was coming and realized that weekend “this is it”.

Fully in bonds now (gone up in value thanks to rate cut).  I expect one or two more rate cuts I’ll make money off, then I will put everything back to equities.  Hopefully at the bottom.",Freedom2speech,1110vy40,fkaavgx,"it was prudent to pull all your money out at ATH during the longest bull market in history, while a virus that literally shut all of fucking china down (unprecedented).  I saw the PMI data in february for China and dipped the fuck out, felt confident in my decision not to buy back in thanks to Italy, and now am extremely happy with my decision.  


Black swans happen, and anyone that ignored this one was just being foolish.  You think China shuts down its entire fucking country (incurring massive economic damage and reputational damage) over a flu?",fk9puuz,captainhukk,lp0bw
Like winning the lottery.  But waaaay more interactive and therefore rewarding ... some luck but also some personal skill came into play ... and that’s why Wallstbets exists.   Beating the system.   You did it bro congrats.,Freedom2speech,1110vy40,fka6hsv,Yes I'm out.,fk4ne0p,SpeaksInBooleans,1bgspw0g
😭,Freedom2speech,1110vy40,fka173u,Hope everything works out for the best. I’m in the same situation in the limo industry. 😭,fk9ytwk,AllenOneDC,5ilshxb
Last chance for grocery prep if in North America.  Some cities already too late.,Freedom2speech,1110vy40,fk9ykq6,I feel like the seriousness of this situation has really jumped up a notch or two over the last 24 hours.,fk9ifid,theberge55,y9alj
"UPV🐤🐤🐤🐤🐤🐤TEDDDDDDD

Not on my game, likely being laid off tomorrow part of a mass lay-off.

Turns out selling cruises was a bad career choice.

Edited out: insider trading info",Freedom2speech,1110vy40,fk9yamg,"🚀🚀UPV🐤TE 🚀🚀THE 🌝🌝DAIIIIIIŁŁŁŁŁŁŁŁŁŁŁŁŁŁŁŁŁŁŁŁŁŁŁŁŁŁŁŁŁŁŁŁŁŁŁŁŁŁŁŁŁŁŁŁŁŁŁŁŁŁŁYYYYYYYYYYYYYYY

🥇buy Łitec🐤in🥇",fk9y0qw,AllenOneDC,5ilshxb
"Oh I agree with you.  It’s scary shit coming soon to a major city near you.  I live in one of the biggest cities in North America in the core in a death trap condo.

The Chinese number were lies, the Italy deaths per day is WAY higher.",Freedom2speech,1110vy40,fk9wdh3,Single neighborhood or a city a quarantine is a quarantine.,fk9u328,Senseisntsocommon,zqej0
Wasn't it just a neighborhood?,Freedom2speech,1110vy40,fk9t24b,That happened yesterday in NYC.,fk9srsc,Senseisntsocommon,zqej0
Europe is where China was at a month and a half ago.  We are next so he's taking extreme measures.   I think it's too late but...,Freedom2speech,1110vy40,fk9t0lm,Why Trump have to blamey-blamerton Europe?  &nbsp; Why not blamey-blamerton China?   &nbsp; Why blamey-blamerton __anyone__ ??,fk9sonq,kodaxero,149s24
"4500 a month tax free is 56,400 after tax take home.   Would need to make what ... 71,000 a year before tax to take home that kind of money?

Unreal.

FYI Child Tax Credit doesn’t count as income which means welfare doesn’t get rolled back.",Freedom2speech,1110vy40,fk2rwhe,"> through horrible social programs

What's changed, though?  It's even worse now because we're giving away money to people that never contributed a dime.  What is anybody doing about the present and future?

https://vancouversun.com/news/local-news/syrian-family-living-a-good-life-in-surrey",fk2kiwq,StartedGivingBlood,kayxips
Yup.  I bet the first breaker hits a few minutes after markets open.  Maybe even quicker.,Freedom2speech,1110vy40,fk03fh6,If the markets don't halt trading tomorrow I will be amazed.,fk036pt,Hisx1nc,33h68
Asian markets and futures.,Freedom2speech,1110vy40,fk020v5,"Just wait for NY to open, will go even further",fk018kv,Ithedrunkgamer,1vg8e22k
Think about what this will do to Alberta oil.   It’s not going to help our dollar at all.,Freedom2speech,1110vy40,fk01zte,"This is going to sound dumb and uninformed because it is, but does anyone know how this is going to effect the Canadian dollar versus the US dollar? We have been in a ~$0.25 loss pretty much solid since 2013 and I was wondering if maybe this will help our dollar.",fk01rta,MrCrix,9ehjp
"It’s going to be more than 4%.  Not even considering the last 2 weeks losses, watch the plummet tomorrow.  As somebody else said, tomorrow is going to get a name.",Freedom2speech,1110vy40,fk01xa4,Why did you do that and why on that date. Market drops 4% a couple of times a year,fk01bvl,10000yearsfromtoday,50dgt
"Yup.  I got out Feb 24th, put everything in bonds before the rate drop.",Freedom2speech,1110vy40,fk00yyy,"Gambling would be keeping your money in the stock market while the world suffers the worst pandemic since the Spanish Flu.  It doesn't take a genius to see that the downside greatly outweighs the upside right now AND that it is more likely.

Sitting in cash is less risky than being in equities right now.

> It's never the advisable path to take

Hot take.  Timing the market without information is a bit different than timing things because you know a virus is spreading uncontrolled and that it roughly follows math and probability.  I have data on the doubling rate (6-7 days estimated), I have data on the r0 (2-3), I have data on how the country is handling it (massive fail on testing), I have several other countries to learn from (Italy, SKorea, Japan, China), I have data from NASA showing massive reduction in pollution from China's quarantine, I have data on supply chain disruptions, and I have evidence the president is hiding all of this.",fk00hv5,Hisx1nc,33h68
And HAPPY🐔CAKE🐔DAYYYYYYYYYYYYYYYYYYY🚀🚀🚀🚀🚀🚀🚀🚀🚀🚀🚀🚀🚀🚀🚀🚀🚀🚀🚀🚀🚀🚀🚀🚀🚀🚀🚀🚀🚀🚀🚀🚀🚀🚀,Freedom2speech,1110vy40,fjzvfss,and,fjzuv5w,UpdootTheDaily,3d6fa12j
It’s a QAnon saying and a big one at that.  No idea why Trump retweeted it.,Freedom2speech,1110vy40,fjzv8kf,"Latest Trump tweet: ""my next piece is called 'nothing can stop what's coming'""

QE? New deal 2.0? tax cuts?

What's that tweet supposed to mean??

[https://twitter.com/realDonaldTrump/status/1236778368533700609](https://twitter.com/realDonaldTrump/status/1236778368533700609)",fjztxlc,HusarzKrolowiec,15fyk0
"https://twitter.com/TravelGov/status/1236739608794275846

I’m guessing pretty well",Freedom2speech,1110vy40,fjzv07h,How are my rcl puts gonna do tomorrow,fjzu9a1,marco_chao13,3x1urcx4
It’s been incredibly popular though and not just with boomers.  It will come back eventually once beer virus problem is solved.   In the meantime though anyone working in travel is FUCKED.,Freedom2speech,1110vy40,fjz3uad,RIP. I never will go on another cruise.,fjz3mqd,manlybeer,qtk9p
"It’s already started to get tougher as they die out, but this may be the nail in the coffin.   My company stock price is down 55% in the last year, 20% of that in the last 2 weeks alone.",Freedom2speech,1110vy40,fjz3kt9,Oof. Sorry man. Boomers and cruises are gonna be ded soon,fjz3eez,manlybeer,qtk9p
"What can I say, I like selling cruises to boomers 😭",Freedom2speech,1110vy40,fjz3d3y,What we have a travel agent !??,fjz37y5,manlybeer,qtk9p
"Apologies I edited.  I’m bummed out I sell cruises for a living.  Business is already terrible, but I’m thinking we are getting into everyone gets laid off territory.",Freedom2speech,1110vy40,fjz2hsl,Dude this is like 3 hours old.,fjz2c3r,manlybeer,qtk9p
"The point, is to open the eyes of people still asleep to the potential  severity of the virus.

The fact that a Chief Medical Officer is overwhelmed to the point of tears at what’s happening is a huge warning sign to anyone still saying “it’s just the flu bro”",Freedom2speech,1110vy40,fjy95he,"Wow I'd think the headline was more the info she was sharing, not that she was upset. She deserves more respect than to go viral because she cried on air, and specifically asked media not to lead with focus on her breakdown. I noticed on the news last night the stations had the good taste to do what she asked and focus on her messagen instead. 

Huge respect for Bonnie Henry and her team, not a big fan of this post.",fjxj9ff,dexmeister017,1qb0zqi3
https://youtu.be/3wiQT2nFtJA,Freedom2speech,1110vy40,fjx5d9f,The health minister was crying on the live version of their update. Freaky,fjtp9k9,smalltowngalca,4u3m3qem
"Wall Street, Boiler Room, Big Short are my 3 fav market movies. 

Margin Call was awesome too.  Oh and Wolf of Wall st.",Freedom2speech,1110vy40,fjq6a8b,One of the greatest films ever made.,fjpz7dq,salutebillfinger,3hko138s
RIGHT?!  I was like 😩 when I read that line,Freedom2speech,1110vy40,fjq3yzz,“Highly regrettable”,fjq2el0,AlphaZ33,2i3675gk
The presentation is legitimate even if you dislike the publication that went ahead and published WrongThink.,Freedom2speech,1110vy40,fjpw8bq,Business Insider is legit clickbait shit.,fjpswuy,DarkMoon99,fkqap
"I’m on an older $50 plan with freedom and get 15 gigs.  Started off at 6 gigs and they kept on increasing it every 6 months or so.  Data is technically unlimited but gets throttled after 15 gigs.  

I’ve never come remotely close to hitting my cap.

I do pay an extra $20 dollar subsidy for my phone (on top of the $50) but it will be paid off in 2 months.",Freedom2speech,1110vy40,fjpjhrt,I just upgraded my freedom 35 to 55$ plan with 9gb data.,fjp9mo7,ReddwarfXI,5s9fv
It is ... I have always walked home but in the morning in a rush so often took streetcar.   Not anymore.,Freedom2speech,1110vy40,fjphr3p,a 20 minute walk is probably super good for you in many ways regardless of hygiene concerns.,fjouzre,johnnyviolent,80tas
Yeah for sure I’m lucky in that aspect ... with that said I’m downtown which means millions of people around me ... maybe not THAT lucky,Freedom2speech,1110vy40,fjphosm,"I'm glad that you have the ability to do that, but most people in Canada do not have that luxury, so walking is simply not an option.",fjp2vu6,RandomCollection,o999j
It's the hardest part for me.  I'm so used to takeout :(,Freedom2speech,1110vy40,fjolhk5,Hmm what could you do to ensure 100% time your food isn't prepared or handled by someone with coronavirus? Hmmm. Hmmm.,fjoki5w,HillaryBrokeTheLaw,u86rn
Man did that video age poorly.,Freedom2speech,1110vy40,fjokpf9,"Italy’s countermeasures
https://www.youtube.com/watch?v=mNMdg4morQs",fjof1qw,Boomdiddy,1vpormvd
I've started walking to work (20 min) rather than catching the streetcar.,Freedom2speech,1110vy40,fjokj3r,"Christ. 

That's not good at all. Those are major routes, hell, I take one of them to work each day myself. 

Combined with the absolutely atrocious lack of public hygiene on the TTC- oh man, this thing is gonna explode.",fjoirfu,BrainBumbler,ulszf
It's ridiculous but also a sign of how bad things have gotten.,Freedom2speech,1110vy40,fjoia9h,"Thats what i said the other day, the whole day is meaningless",fjoi1fh,colantor,325m9
UPPPVV🐤🐤🐤🐤🐤🐤🐤🐤🐤TTTTEEDDDDDD,Freedom2speech,1110vy40,fjmg4yo,"Something something chikun, something something upvote, something something send kids to space, bury wife, buy Litecoin",fjmemwz,bobhoj22,2f44ygwe
"Think about what China did to stop the spread (and it's not even a sure thing the spread stopped or if it's all CPP lies).  Quarantine for more people than the entire population of North America.

That will NEVER happen here.  if anything is going to be worse in the west than it was east.

Look at the Spanish Flu.  That virus spread in waves across the world.  We are only at the start here in the West and it could potentially be WAY worse as the quarantines you saw in China can't happen here.",Freedom2speech,1110vy40,fjl0503,"I mean deathrate is still rather low and it is already getting better in China, not sure if it's needed to start a panic about it :S",fjkt6c3,DustyPopcorn,22849tg9
"The warning signs have been here for over a month.  The stores were packed with food and supplies to be bought and only now is real panic Shopping starting.  heck even NOW there is still a tiny window left in North America  and some parts of Europe to prepare.

It is not the fault of the families who prepared nor is it their responsibility to help the ""it's just the flu bro"" people who ignored overwhelming evidence.

Personal responsibility.  

PREPARE NOW.",Freedom2speech,1110vy40,fjkzq0s,"idk seems kinda selfish to me, what if not more than 1 week of food supplies is needed and some families goes without food for 2 days whilst you have several weeks left :/ just saying, it was only part of my comment though",fjksyhr,DustyPopcorn,22849tg9
"""Bad things only happen in those ""other"" countries.""

I think that's a part of it why nobody is worrying the way they should.   We've had it good for so long....",Freedom2speech,1110vy40,fjkx51v,"I like your ideas about the ""normalcy bias.""  I have been trying to figure out the psychology of why Americans are being so cavalier about this.  I might suggest the ""availability bias"" is a better fit, but for the same reasons you gave:  In my lifetime, I have only ever observed the media crying wolf about SARS, MERS, Zika, etc., and all of those diseases quickly fizzled out.  So when I think about claims of global pandemic, those examples most easily come to mind, and thus I expect something similar this time around.  It's harder to come up with examples like the Spanish Flu, because all of those happened long before we were all born.  What do you think?",fjkte68,SmartAZ,ce1yr
Luckily for me I don't give a shit what you think.  :),Freedom2speech,1110vy40,fjka6cw,"Oh nooooo. No. Oh no. So much KAH-wiiiinnngggeee. Oh, I have the face of sour from your cringe. 

Why are you even tuning in to this ""Zerohedge"" wally??? Or anything to do with *America First* or Steve Bannon?? Seriously. Please don't.

My embarrassment for you is so painful. smh.",fjjlljf,ReginaldJohnston,gdnsz
👍,Freedom2speech,1110vy40,fjcbpkp,"> Both the government and private companies can censor stuff. But private companies are a little bit scarier. They have no constitution to answer to. They’re not elected. They have no constituents or voters. All of the protections we’ve built up to protect against government tyranny don’t exist for corporate tyranny.
>
> Is the internet going to stay free? Are private companies going to censor [the] websites I visit, or charge more to visit certain websites? Is the government going to force us to not visit certain websites? And when I visit these websites, are they going to constrain what I can say, to only let me say certain types of things, or steer me to certain types of pages? All of those are battles that we’ve won so far, and we’ve been very lucky to win them. But we could quite easily lose, so we need to stay vigilant.
>
> — Aaron Swartz (co-founder of Reddit)

https://streamable.com/ny568",fjbubvm,FreeSpeechWarrior,1ww3fe
Some meds are running out.  On my advice my 73 year old mother and 76 year old father got their blood pressure and heart meds refilled for another 3 months.   Doctor told them shortages were coming.,Freedom2speech,1110vy40,fjc7lra,"People believe what they want to believe, they see what they want to see. What I can't understand is how people somehow think things have changed since the outbreak began in China. That the virus is somehow different now that it is being recognized on US soil. 

Cities and countries are taking unprecedented measures against this virus and we sit here blind to that. Unbelievable. China quarantined hundreds of million of citizens. Shut down their economy. Built quarantine and medical centers. Were openly clear on numbers of infected / dead even while being accused of not being transparent. Testing to their full capacity. All the signs are there that this a really big deal and yet we somehow believe it's different for us?

Even with a 7% death rate being super high economic and social impact will be enormous. The burden on the healthcare industry will be epic. You think a visit to the ER takes too many hours now, wait until visits exponentially increase and staff stop coming to work out of fear or no childcare because schools have shut down. Supply chains could stop. Pharmaceutical prices are on track to skyrocket because demand will out weigh supply. Not to mention that we depend on China for something like 80% of all medicine either directly or indirectly. 

This fight is coming even if we chose to ignore it. 

People don't need to panic. What they need to do is stay informed and educate themselves. Understand what could come and how to deal. Ignorance will only make this whole thing worse. 

If you are walking across the road and a car is coming, the best thing you could do is look and determine what the best course of action would be. You don't need to panic, just need to act accordingly. Don't stand there and expect to be rescued.",fjbm529,roleme17,5baibfow
Wasn’t sure if that was what you were looking for.  I like that site.,Freedom2speech,1110vy40,fj98hs1,Ooooo,fj98biz,AlphaZ33,2i3675gk
If you walk in the house with your shoes on the outside of the shoe can possibly spread virus on your floors.,Freedom2speech,1110vy40,fj966ij,But the next day you go outside and put the shoes back on? How does this help? Do we not get diseases as easily from our shoes? Shouldn't we somehow cleanse our shoes?,fj8zhzw,agoogua,6irwz
I do almost every time and have done so for years.,Freedom2speech,1110vy40,fj963ux,"So Westerners would use sterilizer to clean their hands after touching buttons in the lift? 

I am not talking about knowing the term ""sterilizer"" lmao.",fj941f3,matthewhang,qmvob
Yup.  I’ll be asking to work remote very soon.  There’s no way this doesn’t spiral out of control in the West.,Freedom2speech,1110vy40,fj8yu9f,"Based on what I've read about the US healthcare system, pre existing health problems that make the virus more deadly, and the general no fucks given/free county I do wtf I want American attitude, a 10-12% mortality rate is not too exaggerated, some people are predicting in the 20% region",fj8hwig,xFluffyDemon,1qhiw59k
Shoes too!!  Take shoes off BEFORE entering home.  You DO NOT want those touching your floors.,Freedom2speech,1110vy40,fj8ym99,"I think your best bet is to avoid infection. That means meticulous hand washing and general cleanliness. It also means preparing to stay at home for a time and avoid contact with others. You needn't be extravagant. TP, dried beans and rice, some dried meat, and other basic supplies. Boil water. Buying bottled water is wasteful. 

You'll also want bleach and extra laundry detergent. If you go outside, when you come home wash your hands, get in the shower, and immediately wash the clothes you wore outside. Use diluted bleach on surfaces, especially the bathroom and toilet. Close the toilet before flushing, especially if you live in an apartment complex with shared sewage pipes as the virus is known to be shed in feces. Avoid buying masks until the state makes them available because health care workers and first responders need them first.

If it hits your community, stay home with family. Don't have visitors. Wait this shit out.",fj766cr,ParanoidFactoid,l48z4
"Yeah.  Even assuming the Chinese number are accurate which is a BIG if, the US will never be able to quarantine how China did.",Freedom2speech,1110vy40,fj8xnlv,"US definitely not ready for ""non-pharmaceutical intervention"".  Home of the ""can't tell me what to do"" Land of the ""pills can fix it"".  And trust of government/media is at all time low.  Sure Chinese don't trust gov but they follow orders.  

Stock up on O2 tanks",fj8gsz5,russellc6,165id0
Not me.  The measures China took will be impossible to implement in the States.,Freedom2speech,1110vy40,fj8xjod,Not sure about you guys. But this honestly makes me feel a million times better about the virus.,fj8qi0s,Tabbs33,bw270
Would individuals with sleep apnea (using CPAP) be more at risk?  Asking because um reasons ..,Freedom2speech,1110vy40,fj8wwf8,"Especially with 72% of the US population being overweight or obese with a huge subsection of that population having Diabetes, Cardiovascular disease or cancer.",fj6t9od,jerseyse410,au5jc
Hmm ... what about ex smokers?  I quit 3 weeks ago after smoking for 25 years.,Freedom2speech,1110vy40,fj8vuzs,"Roughly 48% of Chinese men smoke while only 2% of Chinese women.

Covid-19 appears to bind to the ACE-2 receptor in the lower lungs. Smokers have a higher chance of having ACE-2 receptors expressed, vs non-smokers",fj6w3m2,z57,6tirh
🤮,Freedom2speech,1110vy40,fj5uypb,[Holy fuck the pope has corona but for real this time. Link fixed](https://ibb.co/8PmBHjY),fj5up02,NickyBananas,6mrro
Yeah the supply chain news is baaad.  Guy over in /r/supplychain been updating daily - https://www.reddit.com/r/supplychain/comments/fbcc9h/covid19_update_29th_feb/,Freedom2speech,1110vy40,fj5td0z,"I honestly don’t know how you permabulls are getting hyped up about next week. Is there a chance we open green? Maybe. Are we ending the week green? Not a chance. All the news coming out between China’s manufacturing numbers being the lowest ever, to trump banning travel, and corona virus spreading does not inspire non-autistic people to buy stocks. Here’s what normal people see when they google “corona virus news”

https://m.imgur.com/a/gYtVlS2",fj5sfuo,MrCreateWealth,3fre3h7c
Yeah check immediately.  It’s very unlikely cancelling will be covered right now.,Freedom2speech,1110vy40,fj5kril,Hmm. I gotta look into this. Thanks. Will call up the CC company today,fj3vgpd,nickstrr,wl2h4
It’s been cheap to do an AI or cruise since from around the early 2000s.   Waaaaay cheaper than it cost 30 years ago.,Freedom2speech,1110vy40,fj5jvmq,"I think this is certainly one area where people's expectations have increased significantly over the past couple generations. Im early 30s. I never got on an airplane til my late teens (and it was a one-hour flight). Summer vacations with my parents and siblings were basically 95% camping or driving to visit relatives. I never left AB/BC until after I got a full-time job. I kind of thought this was normal, but now most people I know go at least to Mexico or another international trip pretty regularly. I've never been a big travel guy, but definitely travel a lot more than my parents were able to at my age. No massive mortgage like OP, but they had lots of kids on one income so had to be careful financially. I think big trips used to be a luxury and aren't as much anymore - you don't have to be rich to do it now, just priorities.",fj3io9c,Anabiotic,focil
