child_body,child_screen_name,child_user_id,child_tweet_id,parent_body,parent_tweet_id,parent_screen_name,parent_user_id
It should be.,grey-doc,4el8yljx,fl1rleh,"> I'm screening for plaquenil retinopathy constantly

This is routine?",fl1mfbv,HereGivingInfo,iqias
Last one out turn out the lights?,grey-doc,4el8yljx,fkzm0pz,"Depending on how salty admin is, walking off the job without handoff is Board reportable.",fkz6rfg,Intensive,6jgam
Eventually all facilities will be in the same situation if we don't get the supply lines running quickly.,grey-doc,4el8yljx,fkzlydv,"While I understand what you're saying, nurses specifically are in extraordinarily high demand right now. If there is any other facilities around, they can work there. It's not worth exposing yourself.",fkz5tjv,faco_fuesday,ssccs
They matter to me.,grey-doc,4el8yljx,fkzlsks,None of the ruled matter in a pandemic,fkzgnsq,CodeBrownInMyPants,4p1lbiul
The alternative is not to treat.  Or do you see a different option?,grey-doc,4el8yljx,fkzlnms,"Our n95s are under lock and key for anything except intubation or aerosalizing procedures. I don't understand how all around the world people are required to wear full pertex suits and PAPRS, but here even with confirmed COVID a dust mask is somehow enough.",fkzkjdb,K-Tanz,yhfae
"Eh, if fatality rate is your only outcome, sure.  Fortunately there are a lot of other outcomes we can measure.",grey-doc,4el8yljx,fky5pi7,"it's a preliminary data. So while it gives us an opinion it shouldn't be considered the messiah.

For example Lopinavir-Ritonavir, the AIDS drugs, were thought to be the messiah back when the outbreak began in china but as you can see

[https://www.nejm.org/doi/full/10.1056/NEJMoa2001282?query=TOC](https://www.nejm.org/doi/full/10.1056/NEJMoa2001282?query=TOC)

[https://www.reddit.com/r/medicine/comments/fkz92f/study\_from\_china\_shows\_lopinavirritonavir\_had\_no/](https://www.reddit.com/r/medicine/comments/fkz92f/study_from_china_shows_lopinavirritonavir_had_no/)

They have been proven to be ineffective. With 3-4% fatality rate, unless you have 1000 patients to use this drug on, you won't be sure that HCQ will actually be effective.",fky569w,notafakeaccounnt,17bg0d
https://panvent.blogspot.com/2020/03/design-for-positive-pressure-pandemic.html?m=1,grey-doc,4el8yljx,fkwcj4e,"Nobody is 3D printing ventilators. There are crowdsourcing efforts right now to see if they can do it somehow, but that is not happening any time soon yet.",fkw0rj5,ladyvinaigrette,3mn0acip
We need both.,grey-doc,4el8yljx,fkvx43x,"We need ventilators fast, but it is even more important to flatten the curve.

Exponential growth means whatever the 3D printers can produce will soon not be enough.",fkvw2bw,aberrantmoose,3yzr7krs
"No, I mean ventilators.  Not just parts.",grey-doc,4el8yljx,fkvx0yf,"They were not printing out ventilators, they were printing out one of the components.

Those help keep the current ventilators running, they don't help when you need to massively expand your fleet of ventilators.

We should be doing all these a month earlier and the administration did nothing, thats it.",fkvv6kq,photofluid,h9cri
"> Manufactured products like ventilators today are built to high tolerances and are often much more complex than manufactured items in the 1940s. They involve high tolerances, lots of various materials, and often complex computer controlled equipment to make the various parts.

Meanwhile there are groups on Facebook figuring out how to 3D print ventilators from scratch.

This is an emergency.  We need ventilators.  Fast.  Cheap.  In bulk.  Yesterday.

If it takes 3D-printed vents coming out of community Make shops and enthusiast garages, fine.  I'll consent to having a stinky print hooked up to my lungs for a couple weeks if I need it, while the professionals spool up their factories to make better ones.

The alternative, after all, is death.",grey-doc,4el8yljx,fkvtya6,">Ventilators are known designs. They don't have to develop anything. Just pass a law giving them power to compel manufactuers to act.

Manufacturing engineer here. You have no idea what you are talking about. I don't mean that as an attack, I mean that to point out that it isn't that simple and I'd like to inform you about some realities in Manufacturing.

Manufactured products like ventilators today are built to high tolerances and are often much more complex than manufactured items in the 1940s. They involve high tolerances, lots of various materials, and often complex computer controlled equipment to make the various parts.

Retooling a factory is not like changing your drill bits and now you're building ventilators. It may take a month or more to pivot a factory like that. You need a production plan. I had a college class where I made a production plan for a hydraulic press. A relatively simple one. It took us an entire semester about 40 hours a week with 2-3 people to create this plan. 

Also when you say ""manufacturers should act."" Let's break that statement down. Manufacturers is a broad category. They make a large variety of finished goods. Let's take the factory that manufactures MDF wood laminate table tops. That factory is not going to be building ventilators, or even parts for ventilators using their CNC routers, table saws, laminate press, and edge banding machines.

Neither is the factory that makes soda cans using custom, purpose built manufacturing equipment that literally only make soda cans.

The job shop with 60 CNC Mills could do it.

Factories today are often highly specialized, and have lots of secondary parts suppliers for complex products. A factory that makes power drills for example may buy it's battery cells from one manufacturer, the electric motor from another, and hire a contract manufacturer to make the molded housings.

The factory that fills the soda cans gets them from a factory that makes the soda cans.

Ford factories buy lots of parts from other factories.

You often have to coordinate multiple factories together to supply all that is required for a complex medical device like a ventilator. 

And then, medical device industry is highly regulated and has things like clean room facilities for assembly and testing etc. Depending on what's being made.

So it's very easy to log into Reddit and say ""Manufacturers should start building ventilators right away there is no excuse"".

The reality of modern Manufacturing is much more nuanced and complex than you know.",fkvl8lo,PlagueofCorpulence,nltgi
"Well unfortunately we see a margin of this crap everywhere, including this thread, even from people who clearly should know better.

Hell, I still have attendings who think COVID is a made-up scare tactic for a syndrome that doesn't exist (or rather has always existed and there is nothing new about it).  One attending in particular I am thinking of is particularly egregious about this, and he is definitely on the left side of politics.

Medicine and politics and education are all fairly independent axes.  That's all I am trying to say.  Just like devout Christians can be highly educated doctors and vote for Bernie Sanders.  Or any other combination.  People are strange and on an individual level quite unique.

The word for someone who groups everyone together by their voting record and assigns arbitrary negative attributes to that group is, ""xenophobic.""",grey-doc,4el8yljx,fkvrfg0,"It's not about ignorance. It's being proud and boastful of it. Ignoring reality. Numerous users have made quite racists comments, denied climate change, adopted wildly backwards policies. If you're posting the same crap despite all evidence, there is no reason you deserve kid gloves.",fkuw5s9,ifuckedivankatrump,wmts6
The facts as they stand support extreme social distancing.,grey-doc,4el8yljx,fkuvt3g,"Something like 7K people died in one week in Philadelphia during the 1918 epidemic. That, alone, should put this outbreak into perspective on several levels. 

I basically agree with policy makers at this point. Social distancing is crucial as scientists collect and analyze data and as health care systems consider their shortages and worst case scenarios. But that can be done calmly, based on facts as they develop, without displacing the 99% of healthy people through economic distress for the 1% who will ultimately be affected. Does that sound logical to you?",fktun7b,thepinkpantsuit,1wlba9y0
"The flu infects 30 million people yearly in the US, in a population with fairly widespread vaccination as well as immunity to similar strains.  Assume a 1 percent COVID CFR which is *extremely* conservative to the point of being farcicle, we are looking at 300,000 deaths.  That's kindof a big deal.

Unfortunately, the R0 of COVID is slightly higher than flu, in a population with no vaccination nor any known immunity.",grey-doc,4el8yljx,fkuvjx1,"But this will infect more people, we don’t have immunity. The lower death rate and mild symptoms in some cases are the exact reasons this will be worse then SARS or MERS. Yes the flu has killed more people at the moment, but we’re just beginning the pandemic. 1% mortality rate even infecting 10 million people in the US will be a worst pandemic, that’s why things are shutting down. A lot more than 10 million expect to be infected also.",fktohwa,Arzt92,qfnuspo
"I frequent the unspoken sub.  I was the first in my resident group to say, hey, this is going to be a problem in a little bit.  Just a data point.

If you go to the unspoken sub, it's mostly dead at this point, but they are taking it fairly seriously as well.

Ignorance is apolitical.",grey-doc,4el8yljx,fkuv3jc,This sub actually has a lot of posters which frequent the unspoken sub. I wonder if their idealogical or evidenced sides will make an appearance on this one. It's unfortunately proof that  education rid of biases.,fkuonja,ifuckedivankatrump,wmts6
"Sure, but that just makes the defer-testing-because-sick-from-something-else decision more untenable.",grey-doc,4el8yljx,fkur9y9,Agreed. Isn't it usually a co-morbidity that's being blamed for the actual deaths right now (ie bacterial pneumonia) for Covid-19 patients?,fkuhvqt,sofewusernamesleft,h503m
"Few that my patient population can use, who all have phones but installing apps and dealing with logins and passwords is a nightmare.",grey-doc,4el8yljx,fkur63x,"Naw. Healthcare privacy is very important.

As a patient, you really don't want your provider to be using a non-Hipaa compliant solution. At this point, outside of extreme measures, like this pandemic, there are many good options for telemedicine.",fksbz1y,SkyPuncher,iaqi3
This sub and /r/medicine.  It's all over the place.,grey-doc,4el8yljx,fkur1wz,Can you share your sources on this? Terrifying.,fku1p4c,qtip788,18ysx52f
If you have swabs left...,grey-doc,4el8yljx,fkuctpb,Anyone can order it through quest right now. Just have a colleague order it for you and get the right swab from the lab.,fksh40e,B52fortheCrazies,f9pga
What private lab is accepting testing?,grey-doc,4el8yljx,fkuco56,"Probably because they paid a private lab, which is what our academic medical center is doing and has 0 problems getting any tests. In fact they are moving to rapid turnaround 6-8 hour tests by Saturday. I’m starting to wonder if your hospital admins are being idiots and/or incompetent. Going through the cdc or the state is going to be the wrong way to go. Btw the state lost our first covid-19 patient’s test. Literally we called then 4 days after admit asking for a result and they said a lab tech “misplaced it.” You literally can’t make this shit up.",fkt4zso,lev0phed,wf8lv
"I don't know why.  How many flu patients will you see before you see comorbid flu?

That coinfection rate will go up quite a bit as COVID settles into our communities while we are busy only testing the sickest.",grey-doc,4el8yljx,fkuclve,Thank you for sharing! That gives me some peace of mind.,fks76g8,ememjay,4w5i6
"Which invites two further questions.

(1) Why did they do this?

(2) Why aren't we?

What did China see that makes total lockdown an appropriate response, that other countries are not seeing?",grey-doc,4el8yljx,fkucafu,What happened in China is straightforward. They went full bore lockdown.,fksorp7,jimmypesto10,g85f8
That's how the first community-infected patient in Washington got tested.  Docs and lab broke the rules.  They had a lot on the line but they knew their priorities.,grey-doc,4el8yljx,fkuafij,It's time to break the rules and ask for forgiveness later,fksrf0n,HealthsGarden,p4lfs
Frankly let's keep this rule change permanently.,grey-doc,4el8yljx,fksaf2x,"Trump announced today that CMS would be temporarily easing restrictions on Telehealth services in response to COVID-19. This has a billing aspect and a technology aspect. I'm much more familiar with the technology aspect.

> HEALTH INSURANCE PORTABILITY AND ACCOUNTABILITY ACT (HIPAA):  Effective immediately, the HHS Office for Civil Rights (OCR) will exercise enforcement discretion and waive penalties for HIPAA violations against health care providers that serve patients in good faith through everyday communications technologies, such as FaceTime or Skype, during the COVID-19 nationwide public health emergency.

In my opinion, this is really great news. Technology can be a huge challenge, especially for older people. This move allows providers to use technology their patients are more likely to readily understand and use on a daily basis.

You can cover 90%+ of smartphone users with Facetime (iOS/Mac) and Google Hangouts (all devices). There are also a lot of great business communication tools that require no download for your customer.


-----

I think every provider should take some time to read the official announcement today: https://www.cms.gov/newsroom/fact-sheets/medicare-telemedicine-health-care-provider-fact-sheet

This can significantly ease the burden of delivering telehealth services and help screen (keeping you and your staff safe).",fkrzatu,SkyPuncher,iaqi3
"> this is also a very specific shit hitting the fan situation that affects different services in extremely different ways.

That is true.

However, humans have been dealing with the problem of unexpected chaos for a long time.  That said, few people have adequately studied the management of chaos in any sort of systematic way.

A program set up to manage unexpected events will be able to protect its staff and residents and carry them through so long as it is possible to do so.  A program that is cobbled up and held together by arrogance and personality will burn everything it touches when something ugly hits.",grey-doc,4el8yljx,fkruypt,"The egregious examples might rule out a specific program at a specific location for you, but i dont think that any extrapolation can be made to the rest of the programs at that site, and to the rest of the sites for that program. this is also a very specific shit hitting the fan situation that affects different services in extremely different ways.",fkrkmhp,new_account_who_dis,wxh7i
"> TL;DR: I don't think this crisis can be used as a metric to judge specific programs or locations. Also, as physicians, we do have a *reasonable responsibility to help in this crisis (if provided appropriate protection and safety).

I think it is absolutely a metric to judge specific programs or locations.

The term for this is ""professionalism,"" and it is a standard that must be applied to both resident and program.  An unprofessional program is certainly worth avoiding, both for this and many other reasons.  A program that egregiously violates safety standards and duty hours is not a place one should go even when no pandemic occurs.",grey-doc,4el8yljx,fkrukpo,"to expand on my initial comments:

I interpreted your post as ""I am going to take into account how a residency program/specialty reacts to this crisis when choosing my future specialty"" which I think is naive, but this is understandable from a MS3.

Choose what you want to do and where you want to do it based on everything else but this (assuming this crisis ends by the time you apply). There's really no way to predict which programs are going to take more ridiculous measures than others in such a situation - this situation specifically is unprecedented in modern medical education. 

On one hand, as a physician, it is a privilege to have the skills and experience to help others in this crisis and even if absolutely necessary, be assigned out of my specialty to assist in the ED/floors/units (I hope it never comes to this). 

Unfortunately, the ACGME/""admin"" views us as cheap labor. It's not necessarily a program fault, since the PDs have to answer to their own administration. Yesterday, I was able to listen in on my department's faculty meeting (which they were doing remote and via speakerphone). My PD stated that GME is pulling the strings - not letting residents be sent home if not essential for service, and furthermore, if the situation becomes critical a la Italy, we will be assigned to different departments (ED/floor/unit). I love my program, but this shows how little control a program has on what can be interpreted as ""unfair"". 

If the need arises, we (all physicians not at very high risk)  should answer the call, if and only if our safety and protection (PPE etc) is provided. I am humbled by those physicians in China and Italy who continued to treat COVID patients without PPE and died in service to their patients. I'm not sure I would do the same...

TL;DR: I don't think this crisis can be used as a metric to judge specific programs or locations. Also, as physicians, we do have a \*reasonable responsibility to help in this crisis (if provided appropriate protection and safety).",fkrrja2,Scilencer,51krq
All you have to do is start causing pain and nobody will think about anything else.,grey-doc,4el8yljx,fkrtxrw,Nobody remembers the spine until everything happens.,fkrn9u1,cloake,3mu51
Anyone who worked with that nurse needs to be quarantined.  Else congratulations on starting a new cluster.,grey-doc,4el8yljx,fkpptzx,"I am debating going against the policy they set via email which is, essentially, “work unless you’re displaying symptoms.” I think any of us who came into contact with this nurse should self isolate but that would be a lot of people so I can see why they don’t want that.",fkplr2h,spicy-avocado,1wfnx2an
"Yeah that too.  Information is power, the right information can have big results with minimum expenditure.",grey-doc,4el8yljx,fknkin4,Or spending $0.00 to make an announcement directing people to isolate themselves.,fknfks3,lHelpWithTheLogic,46pptl1a
I only address misinformation if it is dangerous/harmful.  Otherwise people can do whatever they want.  That cuts out most of the work right there.,grey-doc,4el8yljx,fknkfte,"I’m trying my best to fight misinformation in my social media circle. Breaking down medical stuff for the layperson in a calm, polite way is my jam. However, when I encounter folks advocating or inquiring about Goop/Dr. Oz “remedies” like essential oils, I struggle.  Obviously, telling these folks that their remedy is horseshit would likely lead to them doubling down on said horseshit.  
  
Does anyone have any good ideas for this situation? Would love to put together a canned response I can tweak as needed. (I know I probably won’t change these people’s minds, but would like a measured response that won’t inflame them, and would leave the door open to further education.)",fkna6z2,greywoolhat,2xeexvyf
"
not 2T into masks and ventilators, mind you",grey-doc,4el8yljx,fknf39r,What do you mean done nothing? They cut the short interest rate to zero and injected $2T into the markets. /s,fknberr,lHelpWithTheLogic,46pptl1a
"I work in a hospital.  I salute you who work with the public ""in the wild."" Y'all are brave beyond belief and you don't get paid for it.

Thank you.",grey-doc,4el8yljx,fklwedr,"I work in grocery in the US. I made a similar comment to my husband last night, wishing for guards to be posted in my store. 

It would help with crowd control and to enforce limits to prevent fights over toilet paper, SMH.  
 
Panicking Karens do not respect the authority of a grocery manager.",fkloolo,Captain_Desi_Pants,14fnh9
"It's quite controversial in some settings, but depending on the problem can be quite helpful.  

Both chiropractic and homeopathy.

I found homeopathic gas drops to be absolutely magical.  Was it placebo?  Maybe.  I don't care.  It worked, he slept, I slept.",grey-doc,4el8yljx,fkkzylt,Taking baby to a chiropractor should Def not be top comment . They are not doctors. Are we gonna recommend homeopathy next?,fkkl35y,Potnotman,154wik
"A lot of people think you can't do refills on controlled medication when in fact you can.  For example, I think DEA rules allow 30 days with 5 refills for suboxone and in our practice we sometimes do up to 3 months for stable patients.  Your state may vary, but there may be more room for extension of these prescriptions than many of us realize.",grey-doc,4el8yljx,fkkkl4v,">Now is the time to think through larger script refills, text/telephone followup as well. Postpone visits when able at least 3 months.

Are they gonna lift the refill restrictions on Suboxone and/or ADHD meds? I'm not alone in having patients that have no choice but to have Q4W appointments because of rules that prohibit refills for these medications.",fkjcmt3,chickendance638,c9i7v
You still think it is not uncontrolled at this point in the US?,grey-doc,4el8yljx,fkkiomt,"That is possible. For example the women in ecuador left spain on feb 14th yet she tested positive yesterday. There was likely uncontrolled spread in spain and italy at that time and since then US had lots of flights from these two countries let alone korea and japan.

But I'd like to see evidence for it before jumping the gun.",fj65xyy,notafakeaccounnt,17bg0d
Anyone thinking to do this should consider the potential need right in their home community.  Just a thought.,grey-doc,4el8yljx,fkgx845,any idea if this would/could apply to residents? on vaca time or research months?,fkgnd9j,lookingforlolz,136n7r
"It will be, though.",grey-doc,4el8yljx,fkfw3og,Admins don’t get it because it’s not their ass on the line.,fkftjxj,mmtree,7pnxw
"This is why doctors need to be running these places.  We all took epidemiology.  We know what comes next.

Well, those of us paying attention know.",grey-doc,4el8yljx,fkfw30d,"Ooof. So even lower bound is about as many Americans as died in WW2.

My hospital system is still worried about their dropping outpatient RVUs. They just don't get it. This isn't business as usual with some front door signs and email updates. This is a pandemic where it's not unlikely that the military takes over your big hospitals to help coordinate things better when shit gets disaster-triage level.

I guess we have been so thinly staffed to maximize profit and minimize labor cost that it's going to be like a baseball bat to the mouth for these systems. The private US healthcare systems were not designed for this, and the anemic public/academic centers aren't much better.

I gaped at my manager today when I suggested she reschedule her vacation in April and she said, ""It will be over by then, right?""",fkfst2a,DrComrade,2pb6wv
"That's an order of magnitude too low based on my napkin math, unless they're planning on widespread quarantine.",grey-doc,4el8yljx,fkfvytg,"Half a million deaths is a lot more than I was expecting, even for a worst case scenario. Jesus.",fkfjek6,Machu-pikachuu,5lx3q09x
"Learned something new, thank you.",grey-doc,4el8yljx,fkfv796,"I give out ER metformin like candy.

Unfortunately, the best tolerated ER forms (Glumetza and Fortamet) aren't covered/affordable. The generic for Glucophage ER went down to $4/month, while Glumetza is $600/month - hence why you can't prescribe 1000mg ER tablets, because the more expensive forms are the only ones available in 1000mg form. It's fine - I just prescribe the 500mg ER pills and have patients take four at a time - but annoying.

The only realistic way to get Glumetza is in the form of combo pills - many of them have the super fancy metformin in them, like Empaglifozen/Metformin ER - Synjardy XR - actually has Glumetza in it, and often works great.",fkfuv3a,Rarvyn,t3ksl
Also the ER form is worth trying.  Less GI side effects,grey-doc,4el8yljx,fkfu1ho,"There's a myth out there it isn't safe in liver disease. No evidence whatsoever except for mechanistic theory regarding lactic acidosis. 

Also it causes diarrhea - which is absolutely a problem with it and the most common reason I stop it. but some people are too quick to blame metformin when the patient has been on it for 25 years and the diarrhea started last month.",fkfizys,Rarvyn,t3ksl
I can't tell if you are serious or [sarcastic](http://www.xinhuanet.com/english/2020-03/05/c_138846529.htm),grey-doc,4el8yljx,fkbww17,I learned so much from that movie. But thank god covid19 doesn't cause encephalitis lol,fk8ygqe,abelincoln3,yypzbvh
"To be fair, if we run out of basic sanitation supplies before the virus even hits, yeah it's going to be a rough ride and plenty of people will die this spring and summer from things other than COVID.",grey-doc,4el8yljx,fkbwsdu,I never said I did. But people are flipping out like this is the end of the world and that is absolutely exaggerating.,fkb9zwz,MichaelFlenderson,hcx5rkp
*sigh* still can't wear scrubs on inpatient,grey-doc,4el8yljx,fkbs5ea,"When I get out of a room with a COVID patient I wipe all the items in my scrubs with rubbing disinfectant for surfaces (on call phone, stetho, pen)",fka3vyb,inkqb,5tk9asm7
Quarantining early comes to mind.  But of course if we don't test anybody until everyone is sick then it won't matter any more.,grey-doc,4el8yljx,fkbqtgj,Problem is we are barely far enough behind Italy right now to make any policy changes to affect anything.,fkbe08l,babboa,4ekz0
That defeats the purpose.,grey-doc,4el8yljx,fkbqksn,"Children above 14 can stay alone at school, for them schools close on Monday. They will still learn at home via ""e-learning"". For kids under 14 school closes on Wednesday, but because grandparents aren't allowed to look after them and they don't want to force parents (especially the ones who work in the medical field) to stop working they will let the few kids who don't have anybody to look after them go to school, they won't be having lessons though.",fkbo91q,samerige,1u9bxzaz
Restaurants will be magnifying points as well.  Infamous for not giving sick pay or having decent sick policies.,grey-doc,4el8yljx,fkbqhtf,"It makes sense, and will be even more obvious in the US. We don't socialize as much, don't have crowds outside of a few select cities, public transport is trash and isn't as prevalent. That's why schools need to be shut down before anything else.",fkb47po,nottooeloquent,2yll9t5z
I don't know but it isn't zero and that's all I need to know. The likelihood increases every hour that we have no widespread quarantine nor adequate test parameters.,grey-doc,4el8yljx,fkafeda,What is the Probability of a 1918 style event?,fka8k26,paulreverendCA,xfb6h
That's some Hotel California shit right there.,grey-doc,4el8yljx,fk9o8uc,What happens if someone with a confirmed infection tries to leave AMA? Do you let them go because autonomy or are they an imminent danger to the public and do you hold them involuntarily?,fk9mq6f,ericchen,3j141
This has literally happened to me more than once and I haven't even been doing this for very long.  There is very little that brings me closer to profanity in front of a patient than this.,grey-doc,4el8yljx,fk9o6km,"*finishing up 15 min appointment basically shooting the shit with the patient because reportedly they’ve been doing great with nothing going on for the last year*

-me, about to walk out the door-

Patient: oh doc, by the way, I’ve been shitting blood on and off the past month, is that normal?",fk9lm71,Beelzebutthurt,qic6mu7
"I think only a single clause in /u/ds8pf's post has anything to do with capitalism at all.

I think what you are looking for is ""soft totalitarianism.""",grey-doc,4el8yljx,fk5cqaz,Fucking hell what stage of capitalism is this hell???,fk56he3,bluespudding,2r8mby4i
"> including laws that allow the president to deploy troops inside the country to subdue domestic unrest.

... or enforce widespread quarantine.  Which is likely now necessary in order to stop this virus.",grey-doc,4el8yljx,fk5cfi9,"I think we're not far off the USA declaring a national state of emergency whether or not the POTUS wants it. The market's already tanked, what else has he got to lose? And, please no one tell him that doing so actually [expands his powers](https://www.theatlantic.com/magazine/archive/2019/01/presidential-emergency-powers/576418/):

>The moment the president declares a “national emergency”—a decision that is entirely within his discretion—more than 100 special provisions become available to him. While many of these tee up reasonable responses to genuine emergencies, some appear dangerously suited to a leader bent on amassing or retaining power. For instance, the president can, with the flick of his pen, activate laws allowing him to shut down many kinds of electronic communications inside the United States or freeze Americans’ bank accounts. Other powers are available even without a declaration of emergency, including laws that allow the president to deploy troops inside the country to subdue domestic unrest.",fk4z06y,Chayoss,2xmrf
"I just tell them that our government isn't taking this threat seriously.

Is that eroding faith in our public institutions?  Yes.  

So go vote.  The reason our government is lackadaisical about this is because WE are lackadaisical about voting.",grey-doc,4el8yljx,fk5c8bn,"Family and friends keep asking me \*why\* the USA has done such a shitty job of testing, and I honestly don't have a great answer. What are y'all telling people? 

I mean I know the timeline and the statistics and all the stuff on this thread and the previous threads, but I don't know how to answer that question.",fk5aavw,RunningPath,u37ka
I suspect rather strongly that other parts of the country will disagree with this management strategy.,grey-doc,4el8yljx,fk57cim,"It doesn’t matter anymore. 

I work EMS in Los Angeles county, and while about a dozen crews were jam packed stuck waiting hours for rooms at a local hospital for their patients, one of the owners of our company came and talked to us-

He told us the Department of Health Services has told all of our first responders to REDUCE PPE precautions, because in their words, “we won’t contain the virus”. They have said it’s not a matter of IF we get the virus, it’s a matter of when. 

Basically, it‘s coming to be that the US is giving up on containing it, as this information was coming from the top people in charge of the frontline of this outbreak in LOS ANGELES. The rest of the world is going to be fucking pissed when they find out we aren’t trying to contain it when they are all throwing everything they’ve got at it. It is clear the US is not prepared to handle any outbreaks now or in the near future, and will be the reason the infected numbers skyrocket the next coming weeks.",fk4dqqi,llllPsychoCircus,28dxz0u1
"There's enough data to warrant significant concern.

Even if the risk is low from a personal level, there are (and will continue to be) significant logistical disruptions in every sector.  Also, the strain on healthcare is serious for us in healthcare, but also anyone who depends on regular medical care.  Folks who have DKA or a COPD exacerbation aren't going to get help if we're busy lining hallways with COVID patients.

2% of 300 million people is 6 million.  Think about that.",grey-doc,4el8yljx,fk3w3pt,"The problem I have with all this is that there just isn't very much hard data. 

Like most things in life, my colleagues have split into factions. One camp doesn't care at all. Complete uh... bliss. Yeah.  One camp thinks it's not a big deal. One camp is hoarding toilet paper, hand sanitizer and rice. ...and people from each faction come in spreading rumors or talking out their ass with no data to back it up. It's tiring. 

I do know one thing: this is negatively impacting our donor pool and having an extremely negative effect on our inventory. We're hurting bad right now.

If you are healthy and can donate, please do. 

Between the flu, coronavirus, and spring break impacting our collections we're having to make some very hard allocation choices, and nobody is happy.",fk2rt8u,monkeyviking,2rja63tc
"Travel may be restricted in a state of emergency is declared.

The way this goes is that everything is fine and under control, until the roads are closed and nobody is going anywhere.  The likelihood of advance warning is very small.

Plan accordingly.",grey-doc,4el8yljx,fk3vrxu,"It's not just the US, it is any nation with a large border and multiple points of entry. Some of our States are larger than many Nations. There is no viable way to police borders of a certain size. Things will always slip through. 

We also generally don't restrict travel. Freedom of movement and personal autonomy is fairly deeply ingrained into our National character. Unfortunately, personal responsibility doesn't seem to be too high on anyone's list of priorities.",fk3c63n,monkeyviking,2rja63tc
Then use Italian numbers.  Their death rate is closing on 5% as I recall.,grey-doc,4el8yljx,fk3vg52,"They're doctored... kinda ironic. 

However if they are, then you can't use them to make any conclusion. 

Also I'd argue that China has a whole sub culture of traditional medicine which is encouraged as a legit method for treating disease which is inherently effed up. 

https://www.pharmaceutical-technology.com/news/covid-19-china-traditional-medicine/",fk34odx,NocNocturnist,2ux2f2uc
"It's satire.  Cable news is all editorial, no news.  Also no responsibility to tell news or truth.",grey-doc,4el8yljx,fk3vams,"If it's been satire all along, I'm gonna start a riot.",fk3uus8,ViolentThespian,eds01
"You know the funny thing is that if folks actually read the CMS documentation guidelines, all our notes would look more like the column on the left, no need for the right-hand column at all.

What is actually necessary to bill a 99213 is shockingly little, and a 99214 only a little bit more.  Hospital progress notes are no different.  

This mass templating and questions upon questions and clicks and pages and all that?  Ridiculous bullshit, useless all of it, detrimental to patient care, totally unnecessary for billing, and in fact a liability nightmare because if you put it in your note then you are liable for it even if you never actually saw the data.",grey-doc,4el8yljx,fk2jamh,"We had something like this for a while in one of our PowerChart builds. Basically a two-column note with all the billing junk, labs, irrelevant history, etc on the right hand column and a clean, crisp left column for a concise SOAP note. I loved it but it never took off.

Found a picture of it online: https://i.imgur.com/rAZl1i5.jpg",fk0y3bl,msakl,179m0s
You flatter us with even a side thought.,grey-doc,4el8yljx,fk2iunl,"YEep. Billing first, flashy for admin second (who buy the product), then patient care as a side thought.",fk0v4wd,VaxUrKids_VaxUrWife,3w8o4f7
"Whelp, I was wrong then.  :)

Definitely doesn't represent *my* interests, in fact I find myself disagreeing rather vehemently with more and more of their position statements.  Unfortunately, I *also* disagree with many of the young up-and-coming physicians who are working so hard to change and modernize the AMA. I feel that the organization not only fails to represent me, but also will fail even more as time goes on.",grey-doc,4el8yljx,fk2io5u,AMA used to represent 95%+ of physicians during its inception. Currently it represents 12-25% of physicians.,fk29ohr,ridukosennin,3rp5v
"Oh, well, sure.  I misunderstood you.  My apologies.",grey-doc,4el8yljx,fk2gzk5,My view is based on the CDC requirements that make it damn near impossible to get tested. These apply everywhere. Carry on.,fk25szr,Hippo-Crates,fmyrp
"My view is based on patient conversations.  Perception is everything.  People don't know who is paying for this, and it costs money to go to the doctor and find out.

Your knowledge is also very localized and is not applicable outside your region.  The fact remains that there are questions about who is going to get the bill and it is not always straightforward and patients have been burned many times by surprise medical bills.

You are quite certain in your knowledge, but patients have different perceptions.",grey-doc,4el8yljx,fk25nnz,"My view is accurate and informed. Your view is based on a political view, based on zero evidence.",fk248q8,Hippo-Crates,fmyrp
The AMA no longer represents physicians as a majority.  Perhaps it never did.,grey-doc,4el8yljx,fk25azm,"Physicians combined dollars could easily compete with big money. AMA used to be the biggest most powerful lobby in the US. The issue is getting us to unite our dollars around a single issue, physicians as a whole seem much too cynical and unite like a herd of cats.",fk23cfx,ridukosennin,3rp5v
"What exactly do you mean by ""kick""?

Che Guevara was a medical student was was radicalized in Guatemala while watching the Western propaganda machine from the receiving end.  The overthrow of Arbenz was Edward Bernays' crowning achievement.  I do not know if Che knew who orchestrated that event, but that is when and where Che was radicalized.

Few doctors will be or can be that bold.  We are healers, not warriors.

So what exactly do you mean by, ""kick""?",grey-doc,4el8yljx,fk257l5,"Hence the ""kick"" instead of ""politely knock"". I mean, when the dust settles and potentially thousands are dead that might not have been with better coordination and fewer lies, what is a justifiable response? That's up to each person's conscience, but the only guaranteed failure comes from doing or saying nothing. And that's all I'll say, this is y'all's space.",fk1tapg,notabee,4jvov
"That is a stunningly shortsighted view.

From our perspective you are correct.  From the patient's perspective it absolutely makes a difference as to whether they present for testing in the first place.",grey-doc,4el8yljx,fk22vxe,"They are currently going to labs affiliated with Northwell. NYS has mandated that insurance waives all cost to patients for coronavirus treatment and testing.

As I've repeatedly said, it doesn't really matter though. In order to get testing, you have to be approved by the department of health. The criteria are extremely stringent, and even if you meet criteria there's no guarantee they'll have tests available to you.

The cost to the patient has almost nothing to do with the situation right now. The issue remains that the government has utterly failed to provide enough tests, despite weeks of lead time.",fk1nw1k,Hippo-Crates,fmyrp
Is your facility utilizing a private lab for testing?  Do you know?  How are private labs paid for performing tests?,grey-doc,4el8yljx,fk1n9a5,"You clearly have zero experience trying to get anyone tested. You almost certainly wouldn’t qualify for testing, so your insurance doesn’t matter.",fk1mh2y,Hippo-Crates,fmyrp
"If that was a joke, I'm still waiting for the punchline.",grey-doc,4el8yljx,fk1mx3h,"If there’s anything good to come out of the covid situation, maybe there will be a bit more widespread appreciation for the benefits of science. Maybe?",fk1k6hi,ExtremelyQualified,fx1a0
"And do what?

What exactly are we supposed to do?

Legislators don't listen to us, they listen to big-money donors.  Bigger-money donors than physicians.",grey-doc,4el8yljx,fk1moj6,"If y'all in the medical community don't start kicking down legislature doors after this, I don't know what it will take.",fk1k0qr,notabee,4jvov
"Sending infected cruise ship passengers back in a plane load of healthy people.

Still not having adequate test capacity despite THREE MONTHS of foreknowledge.

Maintaining strict testing criteria even when it became obvious that community spread was occurring.

Limited and mixed social isolation policies for an epidemic with a high R0 and high CFR.

That's off the top of my head.  There are a few smaller items but those are the big ones.",grey-doc,4el8yljx,fk1ml5q,How has the US dropped the ball? What more do you want the country to do?,fk1jw6m,BallerGuitarer,p9f9z
"> insurance has not been a burden on interventions at all for covid. 

Haha, what?

When it comes time for me to get tested for COVID19, guess what, I have a six-thousand-dollar deductible.  That's coming out of pocket except wait! I don't have $6,000 to pay!

Do you know what the COVID test costs?  I don't.",grey-doc,4el8yljx,fk1m8v5,"insurance has not been a burden on interventions at all for covid. The repeated attempts from the political left to make this into an M4A talking point is tired, and nonsensical. This remains a failure of the government.",fk1a13b,Hippo-Crates,fmyrp
Vermont is failing.  Passed a bunch of new gun laws.,grey-doc,4el8yljx,fk07fny,"Vermont is a good option if you want to be in the northeast, Main and PA too.",fjyw9ch,velocibadgery,11xj9t
"Over 65 has a rather high mortality rate.

Glad to hear they are taking good care of their health.",grey-doc,4el8yljx,fk06tkk,"Ah man. Alright then. This is for type 2 btw. I mean there A1C levels have recently went down back to normal so it is managed. They are also eating good and exercise daily. No other problems. 

Would you still consider them high risk? If so, I will quit the gym right now.",fjzwojj,ecemedical,5jk68cj9
"Not dumb at all.  

I don't think the current CDC guidelines will catch the majority of patients with COVID, considering that most do not require hospitalization.  We need to be able to test pretty much everyone, we don't even know where all the hotspots are.",grey-doc,4el8yljx,fjxvuj1,"This is dumb. Quest diagnostics and Lab Corps have been given the green light to make their own test. Their capacity will blow these guys out of the water, and physicians are already familiar with their sample collection/submission procedures.",fjxgnzh,MEANINGLESS_NUMBERS,2u9si7q5
Old school p.r. maybe?,grey-doc,4el8yljx,fjxss3j,But how we gonna put them in pulmonary edema via fluid bolus per sepsis protocol?,fjxs4fk,Sekmet19,o4yxd
Your parents can likely be considered high risk.,grey-doc,4el8yljx,fjxly8m,Oh thanks for the info. I am living with my parents who are both 67 who have slight diabetes but healthy. I am mainly trying to make a decision for them. I already cut out other big gatherings. I myself don't care if I get it..,fjwxxs2,ecemedical,5jk68cj9
Remindme! 2 weeks,grey-doc,4el8yljx,fjxe8bn,"I doubted it. I don't think a front line doctor could have this amount of time to write such long article. The US CDC said this virus is just a flu and people would cure by themselves in 2 weeks. We do not need to panic. The virus won't knock us down, but the panic will.",fjxc0ns,phantompainm,2hqt8kxb
"Ok this is concerning in light of the annoying and persistent rumor that it targets immune cells.

Is anybody ever actually cured from this thing?  Inquiring minds want to know.",grey-doc,4el8yljx,fjwdk1u,"> Again this is probably a really dumb idea, wondering if someone would mind spelling out for me why this is dumb.

So far there is no real timeline for ""recovered"".

""recovered"" patients are sent into 14-28 day home quarantine.

http://www.cidrap.umn.edu/news-perspective/2020/02/some-covid-19-patients-test-positive-days-after-recovery

> recovered 12 to 32 days after symptom onset. After meeting the criteria for hospital release or lifting of quarantine, the patients were asked to remain at home for another 5 days.

> RT-PCR was performed again 5 to 13 days later and repeated three times over the next 4 or 5 days—and all tests were positive

So 32 + 5 + 13 + 5 days and still no certainty.",fjupdct,nyaaaa,6wbxg
Post a link or it isn't true.,grey-doc,4el8yljx,fjwd3gi,"> now

Its been over 2 months.

And there is enough free air capacity now you can get them tomorrow cheaper than ever.",fjvvsgf,nyaaaa,6wbxg
"You and me both.

Work till we can't.

Crucibles build competence",grey-doc,4el8yljx,fjv3i0g,My residency starts later this month guess who's not gonna stay home,fjtmm5f,shivpiper95,ioywv
"If you own the lab, maybe.",grey-doc,4el8yljx,fju7ngb,"Sorry, doctors enrich themselves by ordering a CBC and TSH on every patient that walks in the door? News to me, must be why all the FM doctors drive porsches.",fjsgd4h,atopicstudyitis,15u6aa
"It's just a PCR test.  Every hospital with an in-house lab and every college with a biology lab has the equipment to run it, as far as I am aware.  We could easily be doing close-to-POC testing like we do for CMP's and CBC's.",grey-doc,4el8yljx,fjslh0u,"Singapore did it. But they have a functioning government that has long funded public health, so it would be hard to replicate in somewhere like America.",fjnznlc,MEANINGLESS_NUMBERS,2u9si7q5
"Well the mortality rate will go up when we run out of ventilators.

People who aren't infected but have exacerbations of chronic disease (CHF and COPD exacerbation) are going to have their ticket punched because there won't be room in the hospital.

As for when it is done running through the population, no it probably won't go away, but will end up becoming part of the normal background disease burden.

People die from coronavirus all the time, always have, always will.  It is a little unusual for a *lot* of people to die from coronavirus, but the stuff has been around for millennia and the new COVID strain will likely just join all the other strains in the background of day-to-day life.

That's what I think.  Perhaps I am wrong.",grey-doc,4el8yljx,fjskaod,"A med student from a developing country here. 

In the light of the Italy letter, in your opinion howw will things play out in countries that won't be able to scale up ICU beds and mechanical ventilation while COVID 19 continue to spread across the country ?

Critical cases will obviously have a high chances of being lost.

Edit : My point was not clear, I meant to ask is there available source, method that could predict how it will behave if the health system fails completely. And factors affecting it's fate ?

""I assume that it will continue to spread till it infect the whole population. 
Then what happens, will it just go 
away ?""",fjp8dlv,img_tway,5kx9bx35
"> “I have to say I am flabbergasted that a doctor that has flulike symptoms has presented to work,” Mikakos said.

I've been sick for weeks and have taken no time off nor will I take time until either (a) I physically cannot work or (b) someone places me in quarantine.

Not my rules but I have to play by them.",grey-doc,4el8yljx,fjsjn5p,"""Victorian health authorities are trying to contact about 70 patients of a Melbourne doctor who has developed coronavirus after returning from the US

The doctor is the state’s 11th case of the novel coronavirus and the state health minister, Jenny Mikakos, says he attended work and treated patients after he was symptomatic.

**“I have to say I am flabbergasted that a doctor that has flulike symptoms has presented to work,” Mikakos said.**

“He became unwell with a runny nose on an internal flight from Denver to San Francisco on February 27, US time, then flew to from San Francisco to Melbourne on United Airlines flight UA60, arriving at approximately 9.30am Saturday 29 February.”

The doctor saw approximately 70 patients last week between Monday 2 March and Friday 6 March at the Toorak Clinic on Malvern Road. The clinic has been since closed.""

https://www.theguardian.com/world/2020/mar/07/flabbergasted-melbourne-doctor-with-coronavirus-symptoms-continued-seeing-patients",fjpdqha,PastTense1,14taam
I don't know why folks aren't taking this more seriously. Do people including medical professionals really just not pay attention?  Are we as a profession that burned out that we just don't care any more?,grey-doc,4el8yljx,fjs7uia,"We are only testing a AND b, or travel AND b. 

The cynic in me thinks we're doing this only to avoid quarantining (and paying) staff. 

I find it hard to, in good faith, tell patients to go home and not work for two weeks and not even test them.",fjs3oz0,macreadyrj,wvt67
"> Dr. Sanjeev Sriram is senior adviser to Social Security Works.

Typical bullshit from the DC bubble.

Docs will be happy for Medicare For All when Medicare reimburses a reasonable amount and stops being the single most obnoxious pain in ass when it comes to paperwork, regulations, and red tape.",grey-doc,4el8yljx,fjs6yt4,Thoughts on this article? Is it safe to say medicare for all is dead given the recent primary results.,fjrj52a,Packrynx,1mm5hg4h
Everyone's gonna confuse them with the PA students,grey-doc,4el8yljx,fjs1wa9,Or a bunch of swole as hell med students,fjpa896,Yeti_MD,15bya7
"Yep.  You only get tested if either (a) known contact or (b) very severe illness.

The 80% of people who will be showing up this month infected but not severe, well they're just going to infect all the staff and move on.",grey-doc,4el8yljx,fjrz2r8,"Right now, at my department in the American northeast, almost no one will be getting tested. Our testing criteria are still very narrow and it feels like the institution just doesn't care who has the disease.",fjp0nc2,macreadyrj,wvt67
"Yes I am aware.  But we are pretending the sensitivity of solo testing is 100%.

[These numbers are probably too low](https://i.redd.it/7ndrra1dp6l41.jpg).

[Source](https://www.businessinsider.com/presentation-us-hospitals-preparing-for-millions-of-hospitalizations-2020-3)",grey-doc,4el8yljx,fjrgj8n,The sensitivity of *serial* pharyngeal RTPCR testing for SARS-CoV-2 is 78%.,fjrd6d4,aedes,31n7m
"Everyone becomes the second type of personality when they hit actual patient care.

We just call it ""efficiency"" but let us not fool ourselves.",grey-doc,4el8yljx,fjresa5,"Not angry at midlevels. But look, there's a certain personality type that decides, I want to go through the full rigorous training and learning that is available, and I welcome challenges. And then there's another personality type that decides, well I want to take shortcuts and good enough is good enough. 

When it comes to practicing medicine, especially the idea of practicing medicine independently, I just can't respect that 2nd personality type.",fjr18sr,buzzyolo,rdtlb
Scrubs and a nice fleece vest are the new white coat anyway.,grey-doc,4el8yljx,fjrdidc,"In the age of covid-19 and other easily transmissible diseases it is irresponsible to wear anything other than scrubs. The European countries with WAAY less nosocomial infections adhere to a “bare below the elbow” approach. 

I guess some people like being walking fomites carrying illness from the wards to clinic to home to the wards. Nurse admin can keep the flapping infection spreader that is the white coat...not like they actually do patient care anymore.",fjpvo0l,Crunchygranolabro,10l101ki
Hey I like this.,grey-doc,4el8yljx,fjr50s8,Start billing them for dry cleaning every time you get a bodily fluid on one of your nice silk ties or whatever the feminine clothing version of a nice silk tie would be.,fjpja8j,Broken_castor,11fkkl
Yup.  Or vodka in a hand pump.  Or actually wash my hands with soap and water for goodness' sake.  :),grey-doc,4el8yljx,fjnxmh2,99% Isopropyl alcohol and aloe gel = hand sanitizer,fjno4tr,Sp4ceh0rse,2h89dsqt
"It's working out exactly as one might expect considering the people who are screwing up our health care system to fill their own pockets *wrote and lobbied for the law.*

Those same people are still running the healthcare show in politics.  Any changes to American healthcare will be orchestrated by them alone, and we will suffer the price.",grey-doc,4el8yljx,fjnd95s,"How's Obama care working out?  I'm still getting less coverage with higher premiums every year, not a thing has changed.  Did I miss something?  We're still under his garbage last I checked, Trump hasn't changed that.",fjncn13,Nosimo,yp8k1
"It can get a hell of lot worse before it gets better, don't kid yourself.",grey-doc,4el8yljx,fjnaxl5,"Well the last group in there surely did not accomplish it, so why not give the current admin a shot? Can’t be any worse than that abortion of a bill, the ACA.",fjn44s3,UncleSnake3301,17eaur
"We are in America and Trump is president.  National health care at this point in time will be under his command.  Probably for the next 4 years.  After that who knows but America has demonstrated capacity to elect unruly reality TV stars to high office so .... Do you really want Trump to run your healthcare?

I don't.  I voted for him and will again but the point stands.",grey-doc,4el8yljx,fjnavwd,Where do i mention anything about Trump? I guess TDS is a real thing. Double yikes.,fjn3tkr,HonkinSriLankan,1mlnsace
"And you trust Trump's people to design ""affordable"" care.  Yikes",grey-doc,4el8yljx,fjn3boh,"Free is one thing, affordable is another. I think most Americans would take affordable healthcare over free. 

Unfortunately priorities look like reducing corporate taxes and taxes for the rich instead of even starting to provide some form of affordable healthcare. 

Personally I’d rather be “over taxed” with access to affordable healthcare instead of living somewhere that caters to the 1% and risking medical bankruptcy if I get sick or in an accident.",fjmykuv,HonkinSriLankan,1mlnsace
You missed the point.  He wasn't making that amount of money and having free healthcare.,grey-doc,4el8yljx,fjn3a4k,"you sound insanely privileged dude. if everyone could make that amount of money and have no healthcare costs or tuition/student loans to pay off, that would improve the lives of the majority of people.",fjn2lre,Zelthalan,37st95d0
"It can, depending on the hospital and situation.

In a week or two, we may need every single person possible of conducting clinical care to be on duty.  Italy (I think) is basically commandeering retired medical staff to help.",grey-doc,4el8yljx,fjmh0dq,"Does one person make that much difference in this situation? Not being snarky, I really don’t know.",fjmc9mz,Bone-Wizard,1g17780q
Then it will likely wash the continent.,grey-doc,4el8yljx,fjmgynw,"Influenza preparation is something we have been doing for decades and is routine at this point. Coronavirus is the opposite of routine so unless there is something I am missing, that seems like an apples to oranges kind of statement.",fjmadr5,u2m4c6,4i88tl8b
"Hey, somebody else picked up on that.  Thank you.",grey-doc,4el8yljx,fjmgr3q,Oh so on day 2 when she still has a fever and flu like symptoms she should return to work and spread the normal flu around?,fjmekcp,jewboyfresh,861et
"We are assuming so far that false negatives don't exist as far as I can tell.

For that matter, if it is COVID and she gets better in 2 weeks, she can still be throwing live virus.",grey-doc,4el8yljx,fjmgpdb,That’s a terrible thought process —-It might be a false negative.,fjmcfld,catbellytaco,17ajbo
