child_body,child_screen_name,child_user_id,child_tweet_id,parent_body,parent_tweet_id,parent_screen_name,parent_user_id
Are they still made in Japan? That might  up the price as well,Guilty0fWrongThink,41ajio6v,fl0vaxa,"It basically is. You're paying an extra $10,000 for what is just a Toyota with a different sticker on the front.",fl0ufg0,indoordinosaur,4h7o0
"As a White Nationalist myself, I look forward to more Tucker Carlsons and Steve Bannons to represent our views.",Guilty0fWrongThink,41ajio6v,fl0ruq3,Not a fan of Tucker Carlson in the least but the man is at least a principled (white) nationalist and calling out people who don't warn the nation and instead profit off the situation is consistent with his principles. He's also the one guy who got Combover Caligula to finally take this seriously.,fl0lgpb,vessol,7x1me
We also don’t have filthy wet markets with people eating bat assholes and mixing tiger blood for medicine,Guilty0fWrongThink,41ajio6v,fkzql0o,"No Western country will be able to pull off a Wuhan Chinese style lockdown. We just value our freedom to much, and are to individualistic.

Unfortunately that’s a bad combination for disease.",fkzie18,QuantvmBlaze,fedxs
Shut it down,Guilty0fWrongThink,41ajio6v,fkz3lqv,"they are perfect storm for epidemics like this, large families who live in close quarters, their daily prayer meetings and poor hygienic habits all aid in the spread of viruses like this",fkyjdmj,kort677,46tzedml
"Perhaps, an hour ago I found Ber in Cows - so maybe it’s just super luck!",Guilty0fWrongThink,41ajio6v,fky2ph6,perhaps it's a special spot - best kept secret in d2!,fky2lhr,MForMurderousness,1dnaaxui
A+,Guilty0fWrongThink,41ajio6v,fkvoz0f,"1. Take a deep breath.
2. Assume you have the virus.
3. The virus is highly infective. Minimize contact with other people, or any objects/surfaces that other people may come in contact with.
4. Do not seek medical attention unless you have symptoms. The hospital system is overloaded and we need to help them to prioritize resources for those people who absolutely need it.",fkvazpv,Thursty,3887f
"As an anti-globalist Alt Right Steve Bannon supporter. I wanted the borders completely shut and all illegal aliens kicked out

And majority of manufacturing returned

Fuck the GDP",Guilty0fWrongThink,41ajio6v,fkui5wo,"Obviously.     Of course no one here was actually calling for that a month or two ago,  but being a Monday morning quarterback always feels so good.",fkto2l2,ShlomoIbnGabirol,49o2o9o7
"Well, they did.

Those wet markets continue to exist. And not allowing information to flow freely when they knew of the virus didn’t help the global community at all",Guilty0fWrongThink,41ajio6v,fkuh7uc,China's response to the virus has been so vastly superior than that of any Western nation it's honestly hard to comprehend. Western nations are pushing the 'China caused this' narrative HARD for the sake of their own heads!,fku1mh8,Hafomeng,2m6ezrt9
Hoping for herd immunity,Guilty0fWrongThink,41ajio6v,fku1s54,"If by the end of April (or May, June, July, whenever) we decide to open everything back up because we passed our peak, won’t cases just begin to spike again? How could this worldwide shut down possibly come to an end before we get the vaccine a year from now?",fktryy3,doopledoos,ymi35
Plumber?,Guilty0fWrongThink,41ajio6v,fktyrnt,"Someone should tell my job, I commute from Manhattan from the Bronx and its buisness as usual for them. They won't let me stay home even though I put myself at risk every day taking the train.",fktxnpy,Spartan-000089,11z0o9
People are still donating to Bernie,Guilty0fWrongThink,41ajio6v,fkt7vj2,I know its wrong to laugh at how off base and out of touch with reality some of the radical berners were but my god just let us have tonight. Like no one expected Bernie to win but damn these losses are so bad it's straight up comical.,fkt7o5d,SandbagsSteve,eg9ct
Like Democrats laughing at Romney about Russia and then pulling a 180 that Russia is the largest threat to the US.,Guilty0fWrongThink,41ajio6v,fkszlvh,"It's exactly how a cult works and is cognitive dissonance in action.

These people can compartmentalize their brains in real time while accepting any volume of contradictory information. No pivot is too big when you're quite literally in love with your leader.",fks7u31,CannedMango,2zzz1
You’re not paying for the 20 engineers and 300 lawyers  that created it,Guilty0fWrongThink,41ajio6v,fkshp1a,Lol is there any downside to using a $1 3D printed part or are we just completely getting fleeced,fks9slq,glamourcat,d0o39
"China should be constantly lambasted for allowing these Wet Markets to continue existing. 

The Chinese Party State they stop it but the reality on the ground is that they’re rampant",Guilty0fWrongThink,41ajio6v,fkrwq9y,True and true. He still doesn’t need to call it the China virus when it has an actual name. Nothing productive comes from it. Only leads people to make associations between China and the virus at a time when the only thing that matters is that the world comes together to defeat it.,fkrveli,flyingspaghettisauce,9nxd6
That sounds like a nightmare,Guilty0fWrongThink,41ajio6v,fkqku6c,"People reportedly take a LONG time to die from this,spending an average of around 25 days in ICU.Take that into consideration to.",fkqigr6,Aravind9900,2wqpc8yy
Yet I’ll get the downvotes for pointing out disgusting behavior,Guilty0fWrongThink,41ajio6v,fko8dnz,"From what I understand, it is a common phenomenon in second or third tier (or beyond) cities in China. Very common to hock a lugi right on the sidewalk, no fucks given.  


From my time spent in NYC Chinatown, I can confirm that it is common.  I often hear that chilling sound of phlegm being pulled back in anticipation of spitting it out.",fknzsmt,F4ilsafe,4v4ig
"Not at all

It’s a good alternative to market volatility - but I recommend paying down loans first if you have any since those most likely higher interest rates",Guilty0fWrongThink,41ajio6v,fkmdjsy,Is it now risky to deposit money into Ally?,fkmdj4o,TheTonik,9ni4s
"It’s been slowly going down in interest because of the fed rates. So it’s 1.5% as of the 20th I believe. 

Still a decent credit union to have your savings into since physical bank branches offer far less interest.",Guilty0fWrongThink,41ajio6v,fkmchcz,"We juuuust started at Ally.. sorry I’m a little slow, what’s going to happen to it?",fkmccvi,thatdbeagoodbandname,ip32f
RIP my Ally savings account. Was so nice when it was 2.2%,Guilty0fWrongThink,41ajio6v,fkln4ll,"It is a shame, we were just starting to see online savings accounts with non-negligible interest rates again",fklksvu,CaputGeratLupinum,ojbjb
"“It’s just the flu”

The average response",Guilty0fWrongThink,41ajio6v,fkk9gum,"Most annoying thing for me atm is trying to explain to family / friends and they respond you don't need to be scared..  holy shit!! I'm not scared, I'm informed and they are totally ignoring everything about it..",fkjxzab,Northernnomad54,5s1kjwk1
Galvanized alone should be a concern because of the scale build up,Guilty0fWrongThink,41ajio6v,fki6eiy,"And my wife doesn't understand why replumbing our whole house that is a mix of galvanized, copper, and pex, is a priority over a new kitchen.
I should post it here, you all would probably appreciate it",fkhky56,Nullclast,g0y8c
Full Israel means not giving two fucks about the opinions of others and doing what is right to defend the State from the virus.,Guilty0fWrongThink,41ajio6v,fkhpr78,"What does ""full Israel"" mean?

Also, ""Trump didn't do something to stop the pandemic because the media would have called him mean names"" is probably the worst defense you can use. Because even if they did that, it's his responsibility to suck it up, shelter his fragile ego, and do the right thing. Instead he focused on optics and made it all about him.",fkgrznm,duckvimes_,erqf9
Threading dies,Guilty0fWrongThink,41ajio6v,fkgfw70,What are those?,fkgda83,Jean_Guy_Rubberboots,a7rpk0p
"If Trump went full Israel in the weeks leading up to this the media would have continued to just call him a racist xenophobic orange

But here we are, should have shut the borders completely and banned all public gatherings

He’s handling the situation like shit for sure though",Guilty0fWrongThink,41ajio6v,fkgbdvw,"Edgy? I would have said the same thing three months ago. You have to be an absolute fucking moron to not see how Trump has literally advanced the course of Covid in the country because 1. the tool wanted ""made in America"" more than anything and DENIED tests from other countries to ""stimulate"" the economy and benefit his election chances 2. underplayed the issue to also benefit his election chances. 

The whole impeachment thing was a joke. This is not. None of this is a joke anymore. I gave the dude a bunch of fucking passes but this time it's actually going to cost the lives of Americans.

Posted by  [BaaBaaSpaceSheep](https://www.reddit.com/user/BaaBaaSpaceSheep/) but deserves reposting here:

Obama  had it all setup for Trump to contain or defuse a pandemic.  But Trump  had to fuck with the safety nets that Obama had setup.

First, [Trump cut the global health security unit, whose role was to oversee global pandemics](https://www.msnbc.com/rachel-maddow-show/trump-struggles-explain-why-he-disbanded-his-global-health-team-n1153221):

>It was two years ago when Trump ordered the **shutdown of the White House National Security Council's entire global health security**  unit. NBC News had a good report on this recently, noting that the  president's decision ""to downsize the White House national security  staff -- and **eliminate jobs addressing global pandemics** \-- is likely to hamper the U.S. government's response to the coronavirus.""

Then:

>In  2018, the Trump Administration cut 80 percent of CDC funding used to  fight global pandemics. The funding support, which went to training  local health professionals and bolstering emergency response across 49  countries, was reduced to just 10 nations. China wasn’t included in the  revised list.

[Source](https://www.motherjones.com/politics/2020/03/here-are-17-ways-the-trump-administration-bungled-its-coronavirus-response/)

Then:

>Last  October, the Trump Administration opted to discontinue a Bush-era  program expanded under Obama—called “Predict”—that monitored the threat  of animal-born diseases to humans, the possible origin point of the  novel coronavirus. The program was behind the discovery of more than  1,000 viruses, including an Ebola strain.

[Source](https://www.motherjones.com/politics/2020/03/here-are-17-ways-the-trump-administration-bungled-its-coronavirus-response/)

He  fucking cut programs and cut budgets that protected us against  pandemics like this.  He gambled that there wouldn't be a pandemic and  he lost.  He is responsible for the deaths of Americans in this  pandemic.

[thefirstandonly](https://www.reddit.com/user/thefirstandonly/):

>And it will be bad because of Trump:  
>  
>1.  Trump eliminated the NSC and DHS global health epidemic teams.  
>  
>2.  CDC’s global health section staff has been reduced by 80%  
>  
>3.  Just this year Trump is proposing another 20% cut to CDC  
>  
>4.  Trump’s  ‘Coronavirus Task Force’ hasnt provided updates or new information in  weeks. One of its members was on twitter yesterday asking people to  provide him a map of the outbreak. The WH hasnt provided a press  briefing in nearly a year.  
>  
>5.   It  was reported last week that Trump is ordering staff to not discuss the  virus, because such planning may hurt the market and further hurt his  reelection chances  
>  
>6.  Trump was on twitter (Feb. 25th) saying “its all fine” and the CDC is saying “plan for a pandemic”  
>  
>Most  or all of the pandemic collaborative infrastructure, interagency teams,  experts who were brought in on past pandemics to facilitate Strategic  planning, logistics coordination, response, are gone.  
>  
>This may be the big one.  
>  
>And  the country may now pay a hefty price for electing this fucking idiot.  No worries though, we got a wall being built in the desert with rerouted  DHS/Fema/CDC funds and the estate tax theshhold went from $5 mill to  $11 mill.  
>  
>\*\*Edit. And our system  is structured to maximize the spread of such a disease. Millions of  people have no insurance, they will avoid seeing a doctor because they  cant afford it, or will be afraid of a false alarm but now owe thousands  in bills. People wont call out of work because they cant afford days  off: likewise shitty employers will force sick people to come in and  work. Nighthmare scenario. And we are relying on Donald Trump to “lead  the way”. This asshole not only gutted our systems but is actively  spreading misinformation RIGHT NOW and disagreeing with the experts.  
>  
>And I'll leave off with this:  
>  
>For  decades, the US strategic national stockpile pertaining to drugs and  supplies needed for a pandemic has been under the control of the CDC. [Except  until 2018. When Trump decided to change its control and management to  HHS in a move widely criticized by public health and officials in both  parties, because the admin wanted the ability to politicize decision  making, like with everything else they fucking do](https://www.washingtonpost.com/news/to-your-health/wp/2018/04/24/inside-the-secret-u-s-stockpile-meant-to-save-us-all-in-a-bioterror-attack/). Speaking of  which, the HHS secretary said just today during congressional testimony  that the stockpile only has 30 million masks, and they need at least 10x  that many.",fkfylt5,ziurd,3bgw88vz
"And the cruise ships, clearly that’s who needs the most help",Guilty0fWrongThink,41ajio6v,fkga7l7,They'll bail out the airlines but not the american people!,fkfa3g6,buizel123,idd68
We’re allowed to do that?!,Guilty0fWrongThink,41ajio6v,fkfim5l,All interest accrual for FAFSA loans was just frozen!,fkf8snv,txglasgow,dd7y0
Ages are on the bottom,Guilty0fWrongThink,41ajio6v,fkep6w4,"Oh I bet they love this graph, it gives the snap impression that deaths are increasing out of control.

A modern day hockey stick graph, if you will.",fke7m99,RhettOracle,4hz100cn
I like driving my car and parking - and I don’t care for the Brooklyn neighborhood nor the commute in Brooklyn,Guilty0fWrongThink,41ajio6v,fkd0o8q,Why does everyone hate it there? This is a legitimate question. I do not know the answer.,fkbyg21,TruthOrMythWithSmith,26ybnnp9
"Spent many games there with my father, good memories",Guilty0fWrongThink,41ajio6v,fkbs2hx,Fuck it I'll watch fisherman Isles games,fkbp6d6,eggy333,8hjze
This is like 9/11 type stress,Guilty0fWrongThink,41ajio6v,fkakwlr,"Hmm who knew being a leader, especially in time of crisis, could be this hard",fk9moba,Serinous,fvcyq
"Yes they should have, but doing it now is considerably better than nothing at all

Really disappointed but just a few weeks ago - days ago - this virus was considered a joke in the US for the most part",Guilty0fWrongThink,41ajio6v,fk9rdxd,This is too little too late I feel.. These steps should have been taken weeks ago..,fk9qs2m,flying_ina_metaltube,qikm3gz
Agreed,Guilty0fWrongThink,41ajio6v,fk94dz1,No one on either side should be happy with his not taking the safety of ALL Americans seriously until it affected him personally. Nor should anyone accept the fact he's been blaming people instead of shouldering responsibility.,fk94cl1,spoobles,e026r
That’s the point. Bernie is better off dropping out and putting the funds towards small progressive races,Guilty0fWrongThink,41ajio6v,fk8e6h5,"Ok. I mean, would expect nothing less than insanity from Florida.",fk8e2w7,rawbebaba,3fetgpzu
Florida will not vote favorably for Bernie,Guilty0fWrongThink,41ajio6v,fk8655m,You need to see math that shows a 10% delegate lead can be erased with 52% of the delegates yet to be awarded? Really?,fk85pg1,rawbebaba,3fetgpzu
We all hope so,Guilty0fWrongThink,41ajio6v,fk79cav,Her political career is over.,fk7580w,worksafemonkey,jvm79
I’m not progressive,Guilty0fWrongThink,41ajio6v,fk70m4r,"so you call yourself a ""progressive"" but hand Trump/the conservatives the Supreme Court for the next 20-30 years? how well do you think progressive policies laws (future and past) will fare then? what the fuck does the DNC have to do with the DEM VOTERS preferring Biden?",fk6qss3,breezeblock87,v2vd5
"The mods did ban all dissenting opinion users. So in a way, yes. 

There was a time this subreddit was all Ron Paul supporters.",Guilty0fWrongThink,41ajio6v,fk6lq3j,Would be interesting if the sub was locked for like a week. They ever done that before?,fk6kres,DietSeltzerWater,5v3p24wr
My vote should not be swayed based on her own hubris,Guilty0fWrongThink,41ajio6v,fk6iao9,Dude...Ruth Bader Ginsberg is 86. She’s had cancer...twice?  She’s not likely to outlive the next administration.  Vote Biden (or Sanders or Warren or who the fuck ever the Dems nominate) to protect the seat.,fk6i6s2,MidwestGuyDotCom,1xk86off
"Now is not the time to get just 1 point though.

We lost that privilege 

We need to WIN",Guilty0fWrongThink,41ajio6v,fk6hzsi,ONE POINT AT A TIME BOYS!!!!!,fk6hloh,isles1313,2x4gxem7
We must stay vigilant,Guilty0fWrongThink,41ajio6v,fk6h5u6,"The only reason we deserve 4 more years of Trump is if you guys all fall for **Russian troll farm efforts** pushing the ""Bernie or Bust"" movement ... Again. Take a look around. **They're here** ... sowing discord ... Again. Do you feel demoralized? Good. That's their goal. **All the intelligence agencies agreed, and Mueller testified** to their concerted and aggressive effort to manipulate discussion on social media platforms. **Don't forget America. This ... right here ... on this social media platform IS the cyber war battleground. You are the troops.** Vote blue no matter who.

If you're American and support the ""Bernie or Bust"" movement, please take the time to recognize you're a wedge issue. Your voice is amplified by propagandists because a divided USA weakens western democracy. Let's unite and push back. I voted Bernie. But America voted Biden. I consider SCOTUS. Roe v Wade. National Security, and securing future elections as my primary motivation. I'll enthusiastically vote for Biden.

*Keep repeating this and stay on message. The Russians keep repeating their mantra. Don't let it go unchallenged.*",fk6fx26,Engin451,4o7ncx70
I can only hope after Trump we gain an actual competent Alt Right leader and majority party,Guilty0fWrongThink,41ajio6v,fk5vfth,And my dreams of not living in a dictatorship.,fk5vb9f,Pure-Slice,58lu8zyh
Treasonous to your diversity dreams,Guilty0fWrongThink,41ajio6v,fk5uzj9,"Yeah we get it, you're a treasonous piece of shit. So what?",fk5uwnj,Pure-Slice,58lu8zyh
I Support Steve Bannon 100%,Guilty0fWrongThink,41ajio6v,fk5uqar,"Oh look, another Trump supporter who supports dictatorships. Shocking",fk5uhox,Pure-Slice,58lu8zyh
Might make a post later in the week or month. We’ll see how this plays out.,Guilty0fWrongThink,41ajio6v,fk5ulvv,Stay safe. Keep us posted if you can.,fk5udya,salty-maven,yv9pe
"I’m about 2 miles away, so pretty close
Haven’t noticed any strange activity yet - but I’m betting by Thursday it’ll be in full swing",Guilty0fWrongThink,41ajio6v,fk5tws3,Are you inside the containment zone?,fk5tjwk,salty-maven,yv9pe
No refunds,Guilty0fWrongThink,41ajio6v,fk4hjia,"Oh yeah how did we all forget Bernie's dad gave him a fuck ton of money


You imbeciles are as sharp as bowling balls",fk4gtud,RamminSalmon,5e7qzgrt
THat sounds a lot like Bernie,Guilty0fWrongThink,41ajio6v,fk4cizg,"What do you expect from someone who's never actually worked, had a boss, or been held truly accountable his entire 73 years of life.",fk3y3nx,letdogsvote,3zmim
"He’ll take your money knowing he isn’t going to get nominated. 

No refunds. 

That’s pretty corrupt.",Guilty0fWrongThink,41ajio6v,fk3z6hq,"Career politicians grow corrupt over time. Bernie is the exception here, as his behaviors haven’t changed since the 70’s, but *nobody else* has survived half this long in politics without becoming corrupt.",fk3qteb,trumpisabitchCMV,5mbhxr7a
“Worked”,Guilty0fWrongThink,41ajio6v,fk3urt4,"He did all sorts of shit, are you kidding?

After graduating from college, Sanders returned to New York City, where he worked various jobs, including Head Start teacher, psychiatric aide, and carpenter. In 1968, he moved to Stannard, Vermont, a town small in both area and population (88 residents at the 1970 census) within Vermont's rural Northeast Kingdom region, because he had been ""captivated by rural life."" While there, he worked as a carpenter, filmmaker, and writer who created and sold ""radical film strips"" and other educational materials to schools. He also wrote several articles for the alternative publication The Vermont Freeman.

https://en.wikipedia.org/wiki/Bernie_Sanders#Early_career",fk3ufh0,takes_joke_literally,b17fr
Bernie “worked”,Guilty0fWrongThink,41ajio6v,fk3tyfx,"Hillary was so petty and nasty and unlikable in that clip they played.  She was just smearing him like a bitter loser.  Eww.

He was such the bigger person.  Of course he worked before he was 41, but she was comfortable spitting out that lie as fact.  She called him a career politician like it was a bad thing.  I think she's the career politician who only cares about saying the right thing to the right people at the right time, whereas I see Bernie as a Political Activist, who has a message, and values and has been fighting for those values since before most of today's voting population was born.",fk3pghp,takes_joke_literally,b17fr
Well over 100,Guilty0fWrongThink,41ajio6v,fk2vtjl,How many toilets have you christened?,fk2uocf,FrankiePoops,89znl
"Death rate for people over 80 is around 15% and 60 over around 10% 

and it's not only about the death rate, it's about the patients that will need to be assisted at the hospital. Even if we're conservative and guess it will be around 8% total, - our hospital beds are nowhere near ready for.",Guilty0fWrongThink,41ajio6v,fk2gwmq,Death rate is less than 2% of confirmed cases. It’s not a big deal,fk2g5kw,ReasonablyAssured,8ctocui
Until those kids help spread the virus and get their parents and grandparents sick,Guilty0fWrongThink,41ajio6v,fk28tj4,"According to current statistics, there have been no deaths and very few infections in children 9 years and younger, and only 0.2% mortality in age range from 10-19 (if stats aren't limited to confirmed cases). It's legitimately not a thread to school-aged kids who are otherwise healthy.

This decision by the school district sounds dubious on its surface, but the kids are better off in school and properly fed and cared for rather than left to their own devices in (frequently pretty awful) neighborhoods and homes.",fk257v8,cooterbrwn,wf4hs
It’s the right thing to do given the circumstances,Guilty0fWrongThink,41ajio6v,fk28dda,My office just announced work from home will likely start on Friday. Crazy.,fk279pe,CactusBoyScout,1ppymy6t
Every week is an opportune time,Guilty0fWrongThink,41ajio6v,fk20n8n,"40% can't even cover an unexpected $400 bill, but I'm sure they're dabbling in stocks during this opportune time.",fk1wu13,albacorewar,16xb5l
Pathetic,Guilty0fWrongThink,41ajio6v,fk1cy6q,I'm sure everyone will be running to buy stocks in a cratering market while the majority of Americans can't afford a single unexpected medical expense....,fk1cvmq,TrumpsTinyTinyHands,10c4iu
Pathetic,Guilty0fWrongThink,41ajio6v,fk1bq89,thats the people living from paycheck to paycheck ... they dont have money to buy anything,fk1ba7m,Romek_himself,hh0kw
The irony is that Western media is heavily influenced and controlled by the very same people he sought to mass migrate out of Europe.,Guilty0fWrongThink,41ajio6v,fk19mx2,He literally still frightens me to this day. Imagine someone like him having today's capabilities for mass media manipulation. What a fucking monster,fk0ras3,KyloWrench,tz0nn
Juggalos swayed the election more than Hillary’s Billion dollars.,Guilty0fWrongThink,41ajio6v,fk14tgg,Where I'm from we call supporters of guys who paint their faces and say ignorant shit Juggalos,fk14orj,spiffyP,361yu
"Happened in Italy.   


It'll happen here, just give it time.",Guilty0fWrongThink,41ajio6v,fk11dn2,The ideas brought up here are most definitely by people without kids. Closing schools would have INSANE consequences and also paying staff half day pay would also be pretty devastating.,fk10ndx,CLSosa,8hqrr
"In due time we’ll have to do exactly what China and Italy already have. 

Frustrating to see it all play out when we already know what’s coming.",Guilty0fWrongThink,41ajio6v,fk0z2ft,">Should be closing down all schools

Problem is something like 100k kids rely on schools for 2 meals a day. Gonna cause a lot more issues closing them. Also why NYC hates doing snow days.",fk0yns0,OccamsVirus,n57jh00
I don’t know about the NFL...,Guilty0fWrongThink,41ajio6v,fjuzlf3,"Fuck this horseshit league. MLB, NFL, NBA are all more ethically ran",fju7eda,AvoidtheButtHash,qd2s2qh
Exactly,Guilty0fWrongThink,41ajio6v,fjpkxzh,"So, Charlottesville.",fjpkx3b,bridgen_tunnel,4mka3xbo
Most likely the attackers are raised in single parent households,Guilty0fWrongThink,41ajio6v,fjpj9xj,This is disgusting. And the parents of the attackers will probably go and say that their kid is a straight A student who’s done nothing of the sort ever in their lives.,fjp2s5p,apokeguy,1zc49sa1
I’m convinced he has no clue what to do,Guilty0fWrongThink,41ajio6v,fjm88in,Trotz doesn’t even look fazed,fjm86ra,banshe10592,6xwvo
We have some good guys in the AHL but Trotz is allergic to playing younger players,Guilty0fWrongThink,41ajio6v,fjm7lt7,It's not Trotz's fault that Lou built a bad roster.,fjm7k0z,PanachelessNihilist,7yxrw
Trotz is a fucking genius,Guilty0fWrongThink,41ajio6v,fjm69xd,Brassard can get ice time but Bellows can’t.,fjm698w,JoeBenigo,17i8uj
JGP worth it,Guilty0fWrongThink,41ajio6v,fjm480w,"So glad we have our first round pick... oh wait.

I know I know I love JGP, but man if we miss the playoffs and don’t have a first, that is disastrous",fjm3z34,xlittlebeastx,ebryl
"Mayfield, Martin, Brassard 

All look fucking terrible",Guilty0fWrongThink,41ajio6v,fjm34ca,"Mayfield has looked beyond awful tonight. Goal off him, turnover fucking galore, getting beat every rush. He’s looking like himself from three years ago",fjm2uux,ItIsSpelledBarzal,162e9125
“Why aren’t my veterans doing good”,Guilty0fWrongThink,41ajio6v,fjm3128,Barry looks like he has no idea what to do at this point,fjm2vvf,Iceman3116,kys0q
Why is Brass playing,Guilty0fWrongThink,41ajio6v,fjm1hfw,Why the fuck is brass on the power play,fjm1e2j,theceilinistheroof,mxa6rvl
Forever known as MINI MIKE,Guilty0fWrongThink,41ajio6v,fjjqgkx,Trump had nothing to do with his failure.,fjjfrn1,Ouroboros000,1373nl
They work. So they’re used to going out of the house.,Guilty0fWrongThink,41ajio6v,fjhosgi,How???,fjhnn9d,bruuuuuuuuuuuuuuhhh,4ur9unjo
The stronger the prayers the higher the walls go,Guilty0fWrongThink,41ajio6v,fjh7unl,Mike Pence is on it!,fjgxx0f,IvoShandor,7w9ks
"Went through this last election. Doesn’t work. 

Dems made a huge mistake not backing Buttigieg",Guilty0fWrongThink,41ajio6v,fjgycfo,"Trump grabs pussies and his base loves it, Trump was friends with Epstein, no one gave a shit, that's not an excuse for moderates to choose Trump over Biden, if they do, they would already be lost.",fjgxw8w,yyeeaahhhboiiii,h3d0f
"Bernie can still win. 

Match me! No refunds. 

Can not allow the DNC to take over, Bernie or Bust!!",Guilty0fWrongThink,41ajio6v,fjgxqgf,"An important thing to remember: No matter who is the democratic nominee, there is ongoing election interference in the form of trolls, bots, and misinformation. They want the Democratic party divided to boost Trump. Anyone who says they’re not going to vote if Bernie or Biden is the nominee, is either a russian bot or they’re echoing and amplifying Russian propaganda and doing almost as much harm. 

If they say their vote doesn’t matter, that kind of fatalistic thinking is exactly how they want you to feel. If your vote didn’t matter, they wouldn’t be spending more time and money trying to convince you. That kind of voter suppression is more effective and easier to pull off than physically rigging an election. It’s an active ongoing measure to divide us, and to make us lose faith in our democratic institutions and become bystanders instead of actively participating in democracy. Don’t help them achieve their goal.

The GOP is a dying and shrinking party. Their voter base is very united, but they’re outnumbered. We can win the general election if we get out there and vote. Whether it’s Biden or Bernie, we have the numbers to win. Some may be disappointed in the turnout for younger voters, but in many places across the country we had an extremely high voter turnout overall which is a very promising sign. If we bring this energy to the general election we should be able to win.",fjgjmxk,terror_rizing,10lnse
"Trump only has to post commercials of Biden smelling kids. 

It’s over. 

Biden is done.",Guilty0fWrongThink,41ajio6v,fjgwtex,"I disagree, I think Biden is significantly more put together than Trump, and prefer him to Hillary 100x. If that's the race, there's one clear answer.",fjgvous,yyeeaahhhboiiii,h3d0f
"Wouldn’t put it behind a wall ever or for extended use. 

It’s a temporary repair. 

It’s guaranteed to last 25 years? That’s significantly less than soldered or pro pressed joints",Guilty0fWrongThink,41ajio6v,fjgr4ng,"In that hole in the wall at the top of the picture, youll see that coupling looking thing on the copper pipe thats a sharkbite. 

Ive heard plumbers hate on these things on several occasions i myself dont know why they are so hated either",fjgggds,controlledchaos631,1165gl
"Us Nationalists have to stick together. We’re voting out the Romney’s and working together to vote for the Steve Bannon’s 

Trump is our best option, I can’t wait to vote for him again while watching the DNC endure a schism.",Guilty0fWrongThink,41ajio6v,fjfgva2,What’s going to lose dems the election (again) to Trump is that we are torn in 2.  The republicans stick together no matter what because they have zero conscious and will bend to whatever whim whatever current leader they have tells them to.  Dems actually give a shit and it loses us elections.,fjfgmpw,tunaboat25,4d6tidm3
"Trump is a genius. 

Downvote all you want. The man played the DNC",Guilty0fWrongThink,41ajio6v,fjffv0m,"Now people are realizing why Trump was supporting Bernie...

-


Big reality check tonight.",fjffmzu,103003sikjeO0drkjsae,361ro0l
So Bernie is the biggest loser tonight,Guilty0fWrongThink,41ajio6v,fjfde4v,"Colorado: 36% Bernie 24% Bloomberg 20% Biden

Maine: Bernie and Biden basically tied at 34%

Minnesota: 36% Biden 32% Sanders",fjfd7oq,makldiz,e6kqr
All those anchor babies doing their work,Guilty0fWrongThink,41ajio6v,fjfbcjx," 

Sanders still increasing lead in TX

47k votes",fjfb6ag,Starks,327mu
"Honestly his slap shot is a lot more of a threat than him in front of the net. 

I think he’s placed in the wrong spot",Guilty0fWrongThink,41ajio6v,fjfak8x,"Anders lee not being able to get his stick on that is the real shame here. Nobody even on him. No skill, been saying it for months",fjf9djw,M1lkBoyz,lgplgv6
Bellows,Guilty0fWrongThink,41ajio6v,fjf56bs,Need a lot more than that.  Goalies aren’t the overall issue.,fjf554x,RPLetsGoIsles,4wu2p0a
Sorokin,Guilty0fWrongThink,41ajio6v,fjf533g,Holy hell someone talk me off the ledge here,fjf4ybe,RPLetsGoIsles,4wu2p0a
Trotz hates young talent,Guilty0fWrongThink,41ajio6v,fjf4z40,Why bother with guys like MDC or komorov? Dead weight and a half. Get bellows up here. What’s the possible harm?,fjf4w6w,Hogartstrain,4r9656v4
Pretty sure Trotz is just telling them if they want to lose then just lose. I’m not expecting much out of Trotz to be honest.,Guilty0fWrongThink,41ajio6v,fjf2na6,"barry better be giving them the fucking riot act like, that was an absolutely awful period. down there with the end of Isles/Caps when we blew that lead",fjf2kca,nassaucoliseum,mguxr
California trip was the back breaker. We have never recovered.,Guilty0fWrongThink,41ajio6v,fjf2jmh,Nashville broke this team back in December. They haven't been the same since that period.,fjf2bx0,xjared45,bzz53
"Well, we had Lehner....",Guilty0fWrongThink,41ajio6v,fjf2fdx,"I know we can't blame Griess for the 3rd one, but it's crazy that neither of our goalies can handle the puck properly. Rask and Price are so great at moving the puck, and our goalies just ring it up the boards which just leads to more turnovers.",fjf2819,BeerIsAlright,pvtno
Just twists and twirls and the occasional pass into 3 defenders,Guilty0fWrongThink,41ajio6v,fjf2bvg,The guy can only do so much and hes not a shooter. Hes a passer so it makes it even worse when has no one.,fjf25bx,DGGuitars,jx50x
He is pretty damn good,Guilty0fWrongThink,41ajio6v,fjf1ict,Sorokin better be the greatest goaltender of all time,fjf1ewo,Chrisp722,h7rud
I understand the swing joint - but soldering there shouldn’t be a problem. I use a fire proof cloth for this very reason. Spray the wood with water - doesn’t need to get very hot to solder 2 couplings for 1/2” or 3/4” pipe.,Guilty0fWrongThink,41ajio6v,fjdz9x2,"I would probably have done something like this too to solve the problem, as as someone said soldering the joint will be difficult and also a unnecessary fire risk, I was thinking why they didn't just use two joiners and a straight piece of pipe.. then realised it would have been too difficult being between two fixed points, if the pipework is secure it will be locked in place and there would not be enough tolerance to allow for the joints, where as how they have done it you can spin one of the elbows onto the end of the pipe and make a tighter fit to ensure a better and more reliable joint..",fjdslcu,Questioning_Observer,2vxji81o
"Thank you for sticking to your guns, never give them an inch. Zerg players have benefited patch after patch with queens and maps - and ridiculous unwarranted buffs. 

The race is far too forgiving to play. It's simple as that. 

I don't hate the players for taking advantage of it - but the community is pretty vile for attacking you when you're only human and frustrated as hell at the state of the game for what feels like 3000 years. 

Member day9 ""zerg not zergy enough"" what a load of shit.",Guilty0fWrongThink,41ajio6v,fjc14z6,I was definitely wrong to say it that way and that’s why the drama went further because I won’t apologize for the point I was making since it’s obviously true. Dude definitely works hard but it’s not very fun seeing everyone cheer on only one part of a scene and say everyone else just plays bad or makes tons of mistakes every tourney for 4 years.,fjbti8q,nathanias,6onpp
"Almost as if the mods could have just made another subreddit and just clamp down on who is approved there

Don’t buy the whole .win argument cause we’re ALL STILL HERE",Guilty0fWrongThink,41ajio6v,fjb3cxe,"r / trump for those needing a fix.  Obviously not anything near as good as T_D, but it's something",fjarpvs,BiglyWinning,3pjhzavf
"Same, it’s driving me nuts that they still say “it’s like the flu”",Guilty0fWrongThink,41ajio6v,fj9qr1j,It is. And yet most of my family and friends still don’t care about it.,fj9i4jt,_brattyb_,i0l201m
Le orange man bad amirite fellow educated alphabet peoples,Guilty0fWrongThink,41ajio6v,fj7z4gm,Cuz it's garbage liberal garbage for garbage liberal people that I'm ashamed to share the same space with,fj7t4xv,chulocolombian,jw4zc
Always have,Guilty0fWrongThink,41ajio6v,fj7kjic,Queens defend everything now,fj7duv4,MedPassion,c99cbiw
Killed mine a while ago. Blizzard will never fix it,Guilty0fWrongThink,41ajio6v,fj7k3j4,"7 doesnt carry alot of weight? It's very obvious that if 2 players of similar skill plays the zerg should win 90/100 games.

Doing massive ling runby's while being down in army supply while still defending an all in is no way balanced.

Edit: And it annoys me because its honestly killing my love and passion for the game",fj76awv,erik_cartmanjos,uf8n3
I’m sorry to pop your bubble.,Guilty0fWrongThink,41ajio6v,fj7dc2y,"People trashing SNL: if you don’t like it, don’t watch. Problem solved!

Why do entitled losers think everything needs to cater to their specific tastes?",fj76cq8,somepeoplewait,q9bql
Lol,Guilty0fWrongThink,41ajio6v,fj6mpxk,"Zerg isn't overpowered, they have the biggest talent pool out of every race.",fj6kk4j,MelancholicMuffin,31025bn2
i have been,Guilty0fWrongThink,41ajio6v,fj5sf3w,Blame your coach for not challenging then,fj5jkmo,shaquaad,4fkueraz
