child_body,child_screen_name,child_user_id,child_tweet_id,parent_body,parent_tweet_id,parent_screen_name,parent_user_id
I’m about to walk to the Apple store,heyitsmecarlos,5ns4r,fjz4duv,And what “activities” are those?,fjz3qo2,MakutaC,2mtlarmw
There’s a Newark CA too,heyitsmecarlos,5ns4r,fjjj9o4,"Newark NJ, or Newark Delaware?",fji9459,Due_Entrepreneur,250coke3
Such is love,heyitsmecarlos,5ns4r,fjf70bf,">“I love you”, she whispers in my ear. “I’m dying,” I croak in return.

The juxtaposition. I am laughing so hard at this",fjczqvf,King_of_Avon,bhwzc2h
"I’m going to try to remember this for the rest of my life, thank you",heyitsmecarlos,5ns4r,fjdoji8,"Lol, needledick bugfucker",fjdnw5z,C9177,1pyzhwvp
"I’m new to the sub and after seeing some other posts, now it’s obvious",heyitsmecarlos,5ns4r,fjdnlzp,"""They"" obviously being every badass posted on this sub.",fjdnaaj,FatalJenny,1hjbowna
"Yeah it’s pretty well written compared the standard around here, it’s gotta be a joke


Maybe not a very funny one... we can call it satire",heyitsmecarlos,5ns4r,fjdn7mk,Clearly a joke.,fjd134t,tepnunia,2cp6f1fk
"“They” 


WHO?? No one interacted with the post",heyitsmecarlos,5ns4r,fjdl21i,How are they so oblivious to the cringe?,fjckwid,FatalJenny,1hjbowna
THATS GENDER NEUTRAL SHIFT JUICE TO YOU XIR,heyitsmecarlos,5ns4r,fjd5p0k,Don't forget tranny fluid,fjc8sxc,manbearpig_man,eeywe
"There are brakes installed on the trump train, they’re just so greased up they don’t stop.",heyitsmecarlos,5ns4r,fjd5neu,Excuse me??? Brake grease you say? This fcking train has no brakes...,fjc0ppl,Trump_InDa_Norf,zsie5
I can digg that,heyitsmecarlos,5ns4r,fjd1bel,Reddit is deddit,fjbqa4f,brnruhcount,2dvw0d9d
That’s pretty dope ngl,heyitsmecarlos,5ns4r,fjcuty3,"I'm in my 50's and I just learned that ""dope "" is now an adjective.",fjcd4bo,NmyDreams,1fj0gg5m
It was mushrooms that got me to start playing again (they don’t call them magic for nothing!),heyitsmecarlos,5ns4r,fj4t0vb,"Okay I've also done LSD and played guitar, and I fucking feel you. I have spent a full trip just on guitar and same deal, I just felt like it was my sole purpose. I'm so glad it got you to play again!",fj4pbjw,sother2,95a5q
"Even if you don’t get in an accident, at least in CA the ticket for texting and driving is like $1,000. Not worth it!",heyitsmecarlos,5ns4r,fj4o4m5,"And put that God damn cell phone away

I've had multiple friends have car accidents where cell phones were involved",fj44zq2,NoDontDoIt_fuck,50i96r3n
"Honestly, among all the laws we have traffic laws are usually the most reasonable.",heyitsmecarlos,5ns4r,fj4o1kz,"Traffic rules.
Please, take it tf seriously...",fj3tbgp,De5dByN5ture,5t8p11wt
"It’s kinda like that for me when I play guitar on psychedelics (which helped me start playing again after years of inactivity) my interest in other things besides my guitar melts away, the stings feel like they’re my bitch, when I’m just noodling my hands move in ways they never moved before, I’m more inclined to use different techniques, when I play songs I know it seems like there’s so much more time between notes to play around with.",heyitsmecarlos,5ns4r,fj4n5zz,"I smoke then play guitar sometimes, it makes me creative in different ways and then I don't just sit around and do nothing or just watch shows. It chills me out, makes me less self conscious, and overall makes me enjoy playing more. I play sober even more too because I'm enjoying guitar so much more. It may not work like this for everyone, but I'm happy to say it's worked out great for me. I also don't smoke every day",fj4crad,sother2,95a5q
"If you trip in shorts, they might be too long",heyitsmecarlos,5ns4r,fiyki94,I trip in shorts.,fiy9kvm,sekerzitski,aftmf
"“Why is that door knob so small?”

“Genetics”


Nice",heyitsmecarlos,5ns4r,fisj3hl,Same reason your knob is small,firuqmt,SirBallBag,1u702zwf
Found the Pleb,heyitsmecarlos,5ns4r,fi6whkn,Plebs will find other banks with lower fees,fi6wgq6,Pame_in_reddit,1tprlqck
It worked for my friend Martin,heyitsmecarlos,5ns4r,fi6sybf,Just buy a business and increase the net profit by 1000%,fi6rw68,penguin_chacha,5lr39zlz
You fortunate soul,heyitsmecarlos,5ns4r,fi6qkvq,It’s restricted for me should I be scared,fh1gzu9,BleedingEdge61104,1lcaiau8
"Cool, just increase all fees for the plebs",heyitsmecarlos,5ns4r,fi6om6n,"You are then in debt for 1 billion dollars since the previous owners of the bank have the billion that you paid them to buy the bank.

Edit: Corrected spelling",fi6mc8u,Ap0colypse,4cppl3yc
Slotzilla!,heyitsmecarlos,5ns4r,fi3bbpb,Is that the one you can zipline down?,fi336v9,russellgarrard,1910udc9
Listen here fuckerburg...,heyitsmecarlos,5ns4r,fi0m8aa,Zuckerburg on a truckerburg,fi0hstw,jayfreshest,4ez831sy
Fermi paradox?,heyitsmecarlos,5ns4r,fi0kz6g,I wonder why NASA did that study. Researching what type of government to install on Mars?,fhzfm0f,Thr0wawayGawd,jz67d
"LSD puts your ego in the backseat for a couple of hours and allows you to experience life in all it’s god given glory for what it is and not filtered through our senses, rigid beliefs, culture and various other things the world has projected onto you that are not fundamentally *you* , just other egos trying to shape yours. It increases feelings of empathy/connectedness with everyone and everything which definitely helps improve the quality of interactions with others. 
It’s almost like looking at your life through completely brand new eyes thinking “this person’s life is pretty great, I can count their lucky stars for them” and then you realize all that awesome stuff is yours! That life is yours!  You develop a deeper appreciation for yourself and those around you, it’s a beautiful thing.",heyitsmecarlos,5ns4r,fi0k7n7,Unironically believing that removing your mind from reality will save it.,fi0fziu,DarthWodan,552sw8qk
I came here to suggest some sort of bullet time effect,heyitsmecarlos,5ns4r,fi0fo00,I need a 360 view of this,fi02mtx,jooft_,11oyzu
What? They’re ribbed for her pleasure,heyitsmecarlos,5ns4r,fi04k91,Bro your fingers are scaring me,fhzmdrd,Srgtgunnr,yfl5e
No such thing as a wrong way to consume dessert you fascist!,heyitsmecarlos,5ns4r,fi042ov,This is the wrong way to consume dessert.,fhz4xa6,NickH6302,1jiacun
"LSD is so misunderstood, if only it wasn’t so difficult to describe.",heyitsmecarlos,5ns4r,fi02vid,"Hey, how dare you speak that way about acid. That shit will save the world.",fhztgvc,sargentpilcher,4ctkj
But not pointless,heyitsmecarlos,5ns4r,fhwqwk8,Apple pen without a Device seems fairly useless,fhwkasz,MaybeNotYourDad,15jvj4
"Right there with ya, I’ve seen several seas but snow has eluded me for 21 years",heyitsmecarlos,5ns4r,fhj1ny9,"Reading this kinda makes me realize how much I've taken the ocean for granted. I've lived in a few different cities in my life but they've all been next to the ocean. Still haven't been able to see snow though, that should be fascinating.",fhhlkx5,Pops4Pizza,2yazootn
"No you’re right, this is a son joke",heyitsmecarlos,5ns4r,fhghhc6,"How is this in anyway a dad joke, disappointed",fhga8kl,ZiouM,456fk6f9
"My grandmother has NEVER told me that :(



Probably because she’s dead",heyitsmecarlos,5ns4r,fhe3swj,when not even your grandmother tells you you're beautiful,fhdmce8,amonta,mko17iy
Which is way too easy to do to an unarmed citizen.,heyitsmecarlos,5ns4r,fh1bmxb,...and the military/local police forces will have no problem taking them down.,fh17i7u,MagicJasoni,hmtza
"Nancy Pelosi is the speaker of the House of Representatives, the Democrats have been trying to impeach the president since before his inauguration and after 3 years, they finally got the articles of impeachment together in the House of Representatives just for it to die in the Senate.  (The house is majority democrats, the Senate is majority republicans and you need a ⅔ majority vote in the senate to impeach and remove the president from office, obviously they never got it)

The President of the United States is constitutionally mandated to give a State Of The Union address, Trump talked about how great the economy is doing and all that, the usual. Why is kinda up in the air rn, some will say she’s BIG mad and classless, some will say she did it to fire up her supporters, she said she did it as “... a call to action for everyone who expects truth from the President and policies worthy of his office and the American people”

I’ll leave it at that",heyitsmecarlos,5ns4r,fgrzrsw,"Care for explanation of something else?
I'm not so into US politics and all I know this is some lady that publicly tore some speach or document? Would appreciate the context though.",fgrybjh,Filrean,2f1w222e
"I’m not at liberty to discuss my employment, you can call the Bureau and give them my name and badge number and they’ll confirm who I am, I’m not in DICNW, but this is a joint BLQW-DICNW operation and I have been given authority from the department.

That being said, you’re going to need a notarized letter from your county sheriff indicating that you are a person of good moral character in order for me to release my name and badge number. 
You’re gonna have to make an appointment too.",heyitsmecarlos,5ns4r,fgrtzrv,"Sir, I'm going to have to ask to see your registration and passport to confirm that you truly are signed up with the Bureau for License-Questioning-Warrants and the Department of Informing Citizens of the Necessity of Waivers.",fgrtl43,greylat,3up00af4
"You’re gonna have to come back with a warrant to ask for that permit
You’re also gonna have to sign two waivers and a NDA before that information can be released",heyitsmecarlos,5ns4r,fgrtf0j,You got a permit to ask for that loisence?,fgr58w7,greylat,3up00af4
MILFLOTUS,heyitsmecarlos,5ns4r,fgoq1ci,"God, we have the best FLOTUS.",fgm64bz,HumasTaint,20nituh2
"One of the girls: “can I touch it? Hehe”

*dies and takes the entire block with her*",heyitsmecarlos,5ns4r,fgk2xqb,Going to the club wearing my huge antimatter chain.  Ladies love it!  What's that you have? Platinum? I think it's past your bedtime.,fghe7tr,fudog,3hoec
*cocks gun* they won’t,heyitsmecarlos,5ns4r,ffyrgwf,How else will they learn?,ffyr3ct,BranCracker,15hsqp
More than meets the eye 😂,heyitsmecarlos,5ns4r,ffvxhp9,Transformers: Mental illness in disguise.,ffvj47l,Acala,9658r
I disagree only because I like telling people they gotta gtfo,heyitsmecarlos,5ns4r,fd4s1xd,"Not answering your own door. When there's like a salesman at someone's door, they won't want to answer but they will act like no one is home, and be really quiet so the person outside the door doesn't hear them. But it's your house. I could just stare at a salesman out the window as he rings my bell, who cares. It's my house. I don't have to answer my own door, for whatever reason I deem acceptable. You came to my house, not the other way around. 

My neighbor also came to my house the other day, rang my doorbell, and I was trying to put my son down for a nap so I didn't go down. But then she messaged my wife and was like, ""Hey, your garage is open, I can see someone is home. Why didnt you answer?"" So then my wife messages me asking why I didn't answer. What the fuck. For whatever reason I choose! I had a good one this time, but maybe I'm asleep. Maybe I'm taking a shower. Or a shit. Or in the backyard. Or maybe I'm scratching my nuts on the couch. Maybe fuck yourself. It's my house. You took your shot to see if I'd answer and I didn't. Move on.",fd0a1br,Waddlow,zaoup
"Believe me, I love the wild boy look on myself too (especially when it’s cold) but a trim all around turns you into a whole new man",heyitsmecarlos,5ns4r,fbype8p,A pure wilderness look hahaha,fbyal8h,maguire1997,v8qcqsd
My experience was exactly the same but substitute diarrhea for vomiting. I was the only one who didn’t get much of a trip out of it in my group,heyitsmecarlos,5ns4r,fbn1pqe,"My experience was underwhelming, not much visuals, but lots of diarrhea. So much so that I did not want to consume it on the second day of my retreat and opted for a different medicine instead. It did leave me with a couple of profound insights that I’m still working to integrate, and will continue to do so for years to come.",fbl9bsh,MDMAandshoegaze,zbp6a
"""... some, I assume, are good people...""",heyitsmecarlos,5ns4r,fblxhvh,A lot of stupid Dems out there.,fbl18ap,672-EVIL,q0du3
Dundee Mifflin,heyitsmecarlos,5ns4r,f1rfnsz,What does dm means?,f1poxr5,Jean_Guy_Rubberboots,a7rpk0p
Hell yeah!,heyitsmecarlos,5ns4r,f1cpwo9,Have fun!,f1cnfdx,Y05H1M4U5,lltvx
"Nukes are pretty clean compared to something like a reactor meltdown. Chernobyl will be too radioactive to live in for who knows how long, Hiroshima and Nagasaki are populated and safe today.",heyitsmecarlos,5ns4r,ezqvzuu,">They are designed so troops can go into the area afterwards.

Uhhh you first.",ezqqmtc,smilodoner,l0cqx
Your super hero name: Bra Man,heyitsmecarlos,5ns4r,eyw3oq1,I’m here to support the boobs as well.,eyvzgmi,Kissfan07,f5r1tbb
What?,heyitsmecarlos,5ns4r,eyvi77b,My first school dance my date did not look like that... but she did give me a handjob on the dance floor so I can't complain too much!,eyvhyw9,bobbob919191,4cmezuy4
"They are for game pass ultimate, my friend’s lil brother snagged one",heyitsmecarlos,5ns4r,eqlelnc,I think they are for game pass ultimate or they could be some random codes.,eqlap5y,ThelegendaryDOCTOR,2mw8997p
One time my lil game ended early cause I thought my friend sent me a GIF. It was a picture. Pretty obvious after that,heyitsmecarlos,5ns4r,eq95387,Some of the most interesting conversations and events unfold,eq8rsaf,Austaph,4j7j4
"The only hard liquor I can stand doing shots of anymore is Tequila, but nah I stick to beer and wine.",heyitsmecarlos,5ns4r,eoynbq6,"So every drug and its percs and at its appropiate time...
But do you do shots anymore? Cuze after all the other drugs the spirits smell like petrol... Eww",eoyn5ej,FlowerCyborg,3bdyq9bk
“Started from the bottom now we here”,heyitsmecarlos,5ns4r,elmftrg,Lmfao those asides are so nasty and unwarranted. Why did they have to call him a trailer park resident?,elmav9y,Noblesseux,pdw11
/r/watchpeopledieinside,heyitsmecarlos,5ns4r,e60lwmy,There's nothing to apologise for ,e5xkqa8,AMDownvote,10wnt1
"No one said anything about “every single person”  if the gang wants their snitch, they’ll have their snitch, doesn’t matter if you really did it or not ",heyitsmecarlos,5ns4r,e45obfc,"I don't remember any gang shooting every single person in a neighborhood because some unknown person snitched.  Do you?  If so, when?  Do you have a link to an article?",e44pahd,bryceguy72,6u938
"There’s only so many people that know about it, when everyone tells them “I don’t know, wasn’t me” I don’t think they’d just drop it. ",heyitsmecarlos,5ns4r,e44duwj,"What about giving the police an anonymous tip? This way the gang won't know against whom to retaliate.

",e44busq,bryceguy72,6u938
A duck you dismembered to turn into a shirt and a picture of a duck are not the same. ,heyitsmecarlos,5ns4r,e3w3dk1,">from my understanding if it was created as a flag (with your typical understanding of what a flag is) is a flag.

A duck is a duck.",e3w2alb,aroploen91,5tob4
And by the same logic it keeps the ice cream cold. ,heyitsmecarlos,5ns4r,e3pbgnp,"I see the reason for this being asshole design, but it could also be good guy design. The second cup insulates your hand from the cold of the ice cream.",e3p90pa,RafikiTheGrouch,8v878ir
"That’s one way to think of it, you could also say “I ordered a small and they gave me this extra bigger cup, why?” 

It’s not for their bottom line as it would be cheaper to only give you the little cup. 

It’s not for the environment, they’d also only give you one cup. 

What argument can you make after that? 

0) keeps it cold longer (same reason you stack cups for lean)

1) it makes it easier to hold? (Customer experience) 

2) you don’t feel cheap walking around with a dinky little cup (customer experience) 

3)they’re assholes?(what do they gain?)",heyitsmecarlos,5ns4r,e3pb9mn,I feel like wasting two cups to save a small amount of soft serve ice cream is not saving them much money in the long run. Assholes for sure.,e3paa9o,LooseSeal-,bcmd7
we've gone totally meta,heyitsmecarlos,5ns4r,e3dixra,But this is gatekeeping gatekeeping though,e3a6s76,Jakewake52,11fk5o
Just like the aztecs.,heyitsmecarlos,5ns4r,e3dcj62,not knocking. i want it. WITH THE SPINES ,e3c5uab,Konstantin-Levin,11e1mm
"At about 5 mph yeah, they may have been on some incline (?)",heyitsmecarlos,5ns4r,e3c6z94,"Excuse my stupid, but shouldn't a car just drive at the same speed if you let it idle in first gear?",e3c6cc9,iktnl,ae9u9
Do not knock nopales until you’ve had some,heyitsmecarlos,5ns4r,e3c5rbh,spines are a good texture yummy yummy ,e3c5lqv,Konstantin-Levin,11e1mm
It’s in your head!,heyitsmecarlos,5ns4r,e2t1jbn,Oh god! It's inside of us RIGHT NOW!,e2sh22x,Mr_Mantis,1njc7mz
Isn’t electromagnetism a universal field tho? Isn’t it ALWAYS everywhere? ,heyitsmecarlos,5ns4r,e2sesz6,#ELECTRICITY FUCKING EVERYWHERE ,e2s8jag,ldonthaveaname,6rs6q
Because you can still understand James,heyitsmecarlos,5ns4r,e2semng,Why would you use Metallica as an example of someone screaming? If you really wanted to shock them you should reccomend someone like analcunt,e2sborb,Hytyt,t9x7a
A true sexy mofo,heyitsmecarlos,5ns4r,e2s7zbq,Solomondrin helped make this happen. ,e2n0dgd,helloiisjason,hu6as
I hope someone in QC checks for that too,heyitsmecarlos,5ns4r,e281vy4,They have someone like this in the design stage.,e27z1y5,tomaytos,ryakn
Just open the door and use your feet fam,heyitsmecarlos,5ns4r,e27ve9j,What? You never heard of an air brake before?,e270f8p,cficare,3hb8h
"If i built cars, i would absolutely have a guy for this.",heyitsmecarlos,5ns4r,e27taxc,I've heard rumour that Ford also have a team/a guy that checks to be sure the noises things make when they close are satisfying. Like door *clunk* and boot lid *chunk*,e27sz10,smackywolf,3p8bq
King shit,heyitsmecarlos,5ns4r,e27mqwl,EMG 81/60 :),e27lpq6,makarickiri,2t8nxcu
Amazon has them I believe ,heyitsmecarlos,5ns4r,e1kk4k6,Those are pretty tough to find where I am! But they're definitely a must grab when I find them,e1j707a,BeejRich,6qj7b
\*Exxtra hot or not at all,heyitsmecarlos,5ns4r,e1iwiuw,"Lime flamin' hot Cheetos are still the best

Edit: I can't spell, apparently.",e1ifv21,BeejRich,6qj7b
"If you didn't, i would have. We really do put it on everything",heyitsmecarlos,5ns4r,e1ivfqo,Is it rude that I immediately thought about how of course a Hispanic would sprinkle chili powder on something?,e1i9u0j,WlkngAlive,imnmrj5
"Maybe a reason for changing it now is because Cortana rewrote that suit’s whole firmware, that’s just an unnecessary risk, who knows what she could do given that she knows his old suit so well. Better just give him a new one to be safe.",heyitsmecarlos,5ns4r,e0gft77,"I am happy they finally turned this around. 

Looks like the ""nAnOboTS"" thing was a load of shit just as an excuse for the ugly 4/5 armor.....as I thought.

It should have been like this from the beginning, but atleast they changed it. This was a huge hope for me that they would do this. 

I dont mind waiting a longer time for this game, but we need something this year. Lets hope they eventually bring MCC + Reach to PC. 

",e0gd7x3,Vikarr,ywn2l
It says something about drinking ovaltine regularly ,heyitsmecarlos,5ns4r,e0gfblh,Whay does it say?,e0g8e3n,AXELNZAGAIN,1330qh29
The head ,heyitsmecarlos,5ns4r,dzy2il7,then where does it store its pee,dzxok0v,Growlithium,ndv79
We’re really in the future just summoning our money wherever we go ,heyitsmecarlos,5ns4r,dzxviwj,With 0 withdrawal fees.,dzxmoeu,Th3BlackLotus,8p3n1
this foo really said arrivoto,heyitsmecarlos,5ns4r,dzwmerl,"I never expected seeing Maná over here.  
Toma tu arrivoto.",dzway8k,DaMangaka,88ggz
"Talking about the smallest things in the universe doesn't count as small talk.

This simulation is a joke",heyitsmecarlos,5ns4r,dz5na8i,Im not sure that qualifies as small talk. ,dz1ajd9,Kahmahniwannaleia,mhe1w
thank you,heyitsmecarlos,5ns4r,dynzm6n,Gateways lead in and out,dyns1yd,Demonnugget,fpqwa
what,heyitsmecarlos,5ns4r,dyai495,Also you can teach your dog whatever tricks you want without fearing for the government to arrest you in the middle of the night. ,dy9qxr2,IAJAKI,9o5pe
"This is both vengeful and wholesome at the same time, I love it",heyitsmecarlos,5ns4r,dxp8r43,So sorry you are going through this. Come back and post your heart rate during your first kiss with your new girl after you have had a chance to heal and move on. ,dxnlzyy,-k8-,arog7
I don't think mommy and daddy showed him enough attention when he was a child,heyitsmecarlos,5ns4r,dxiy163,"What is your major malfunction, numb-nuts?",dxi82xl,stereoroid,7mkp1
And they turned them off for their feet too since shields are slippery,heyitsmecarlos,5ns4r,dwoeyzs,"I'm not quite sure how Mark VI's shielding works, however I know with the Mark V as described by Nylund in Fall of Reach, the shield is always active. Chief had to adjust the thickness of the shielding around his trigger finger because it felt like there was an invisible layer there, IIRC. ",dwo88k9,DueLearner,lbp17
I had some cheap sunglasses that did something like this with tinted windows,heyitsmecarlos,5ns4r,dvl3tgm,"So there’s a good chance this is a real photo, it’s close to what happens when you try to use a circular polarizer (CPL) filter through an airplane window. The explanation is kind of complicated, from light being polarized in the atmosphere to birefringence affecting the refraction ofrlight with a particular polarity, but many an amateur photographer will stumble on this (you learn CPLs are useful for reducing reflections when photographing through a window, only to be confused when you try it on a plane).

So it sounds like a real photo being posted and people horribly misunderstanding it. ",dvkcifw,rirez,cxqj0
"Alright bet, i'll make my own and we'll race them",heyitsmecarlos,5ns4r,dvgdn22,Like the flyest most pimped out electric wheelchair.,dvgdkpi,rillip,9lqiy
Wall-E is a documentary sent from the future,heyitsmecarlos,5ns4r,dvgc0zr,Attach my gaming rig,dvcubvn,Illusions_not_Tricks,afdth
So an electric wheelchair?,heyitsmecarlos,5ns4r,dvgbyke,Fuck. If I ever lose the use of my legs I absolutely will build something like this (obviously not foot controlled) as a means to make the best of a bad situation.,dvcog0u,rillip,9lqiy
"that makes two of us pede, here have a coat",heyitsmecarlos,5ns4r,doqylyb,"I've seen it before, knew what it was and watched it again.",doqqylp,OhhNoThatSucks,159lac
So ironic,heyitsmecarlos,5ns4r,doeqga0,Shhhh we don't need a new wave of birthers,doei2af,Binski13,lhewv
Can't wait to make them feel stupid and get called a cuck!,heyitsmecarlos,5ns4r,dm6qy0n,Have no fear. Brave white American teenagers will take offense on your behalf.,dm6n0jh,Hatewrecked,betuv
F,heyitsmecarlos,5ns4r,dltsay9,#PRESS [F] TO PAY RESPECTS TO /OURGUY/ BANNON,dlt3zby,aznhomig,3q4ov
"I relate so hard to this, have a coat",heyitsmecarlos,5ns4r,dlt2cwl,"Same thing for any minority. I'm Indian and I'm cool as long as they don't know I'm a Trump supporter.

The second they find out, I'm now a white supremacist. You cannot reason with these people.",dlrovu8,Beast_Pot_Pie,5v8t8
"Play ""Don't Tread On Me"" by Metallica and watch this. Absolutely orgasmic.

Spez: Is r GifSound still a thing?",heyitsmecarlos,5ns4r,dlq0r7k,#[MAGA](http://i.imgur.com/d5Z4tEh.mp4),dlprgpv,definitelyright,l1ypy
**MAGA**,heyitsmecarlos,5ns4r,dlp1h53,#RENT FREE,dlosis1,milolita,1t3eudw
They got rid of it??? ,heyitsmecarlos,5ns4r,dloydcj,Except for physical_removal,dlokfhn,The_Living_Martyr,8kkmueu
Gotta love the people on this sub. MAGA!,heyitsmecarlos,5ns4r,dl9ahwe,[Here you go](https://imgur.com/a/CkTrG),dl8k1ly,ElectricTurtlez,flyry
I wish I could give you gold,heyitsmecarlos,5ns4r,dl8adf0,LOL this is literally the real life version of the scene where he's running into metropolis and decides to fuck up Superman. That is too perfect. ,dl85uyh,SmokeyTheBear420,9wyza
But there's nothing weird about that since they god called out HARD on it,heyitsmecarlos,5ns4r,dkyvt6i,"They've also gone silent on the Russia-Collusion narrative.
",dkyqxjj,Proton_Pack,14wtbw
