child_body,child_screen_name,child_user_id,child_tweet_id,parent_body,parent_tweet_id,parent_screen_name,parent_user_id
"I dont know who were claiming that .win modes are rogue, but I have been here for a long time and the mods there are some of the oldest people in this sub.",jamesvien,16dvyl,fjciu52,"Are the mods who were claiming the "".win"" site was created by rogue mods still active here? I'm planning to stick around here until things get back to normal.",fjchmzy,DisneyImaginerd,xnbirf6
IT IS MAAAAAM!!!!!,jamesvien,16dvyl,fhz1snf,"Libs: if a man wants to dress as a woman that’s perfectly fine

Also Libs: Haha look at rudy dressing as an old lady for a comedy sketch what a loser",fhxqjb9,mpyles10,rygd3
"I was hoping we could crowdsource a document summarizing everything related to the deepstate in ELI5 format for normie consumption.


Hillary clinton, awan brothers, Debbie Wasserman schultz, James Comey, Bruce Ohr, Peter strzok etc etc there is a long list. 

It will be better to have all the data in one place",jamesvien,16dvyl,fhsqbem,sure we will jump right on that for you. Now where is google,fhspag7,JGPapito,bzo66
THIS IS MAGA COUNTRY!!!!,jamesvien,16dvyl,fhfy6ao,"Deep State Hacks: ""Follow their example!  Stand up for yourself! Be a leader!  Don't compromise your values!  Resign from the administration!""

MAGA Country: ""Self-draining swamp?  FUCK YEAH!""",fhelkxf,HuggableBear,5rc7w
These were prosecutors from mueller's team.,jamesvien,16dvyl,fheinba,I guess I'm out of the loop. I heard that some lawyers resigned after Stone wasnt given the maximum sentence.What else am i missing?,fheftry,Beandip408,c24mv
I am going to reply every whacko I have the misfortune to come across on twitter with similiar logic.,jamesvien,16dvyl,fgyel2l,That is fuckin funny. Excellent work.,fgydx4h,scarmine34,d02ltyk
"Smh

I have debunked various headlines shared on reddit and elsewhere as they had no valid source or unnamed source having the knowledge of thinking of a person tangentially linked to the campaign.

Fell for fake news..",jamesvien,16dvyl,fe69n7u,Washington post in two different paragraphs said it was and wasnt over. Dont trust what the msm says. Its also all unnamed sources,fe4fd2y,RockinUSA69,7u6hhbw
I thought his investigation was finished and he charged nobody?,jamesvien,16dvyl,fe235ab,"Huber could very well have handed off his evidence to Durham. But im still not convinced hes got nothing. Unnamed sources, havent been any public leaks, hasnt even actually finished yet either",fe02nb2,RockinUSA69,7u6hhbw
Ciaremella,jamesvien,16dvyl,fde63y6,...and CIA.,fdb32e6,pdotuts,mr9ze
Pin? This shall be a side pane feature,jamesvien,16dvyl,fc0mkot,Parscale is a genius. Pin this,fc0lt3u,itchyjock,4civrguq
Did not understand the message... now wait for the response,jamesvien,16dvyl,fbchrjz,This didn't age well.,fbch4hw,SecretPotatoChip,urbws
A penguin?,jamesvien,16dvyl,fb6n5w2,"Well, Nadler could be the fattest man in the world and Sheila JL the bearded lady, what else does this circus need to be complete?",fb6jwia,LDDong,y94hfpo
Roger stone?,jamesvien,16dvyl,f8xt2hc,"Q was meant as disinformation to counter Infowars and Roger Stone warnings, all of which have proofed accurate.",f8x625r,havoc2bg,139qd8
"Here is some straight advise to deal with whatever you are facing- Do not do this.

Whatever you are facing, there are two factors that will always overcome any negative influences. First is time. If this is something happening now its effects will be over in time.

 If this is something that has already happened, it is a sunk cost and you shall move on with your life. Time heals.

Second is a bit tougher- location. It is possible that the influence is a running influence due to living with someone or somewhere. In that case it is advisable to change the location and let time take care.

I work in the financial industry and me and three of my friends had a thing going. When the recession hit, we were down to zero. Two of us contemplated suicide. Me and other told them that nothing else is permanent but suicide is permanent. 

You can recover from anything but you literally cannot come back from the dead",jamesvien,16dvyl,f8xsqwe,"Hello ladies, I've thinking bout killing myself. Yeah",f8xj7yg,ChelseaHubble,28vcnjp
"I got to this from foxnews

Whose source was wall street journal

Whose source was this article",jamesvien,16dvyl,f8v4oe3,Is this another Maggie Haberman placed circular reporting piece to back up Dems next bullshit narrative?,f8v4hkz,whoopies_tds,1u02f8ix
Message received,jamesvien,16dvyl,f83ykgo,"testing 123

https://theconservativetreehouse.com/",f83yh6q,DoesItWorkAlready,12hlm0
"I will give you the answer in one word

Lawyers.

Most of the people who are part of swamp are related to the legal field and  equipped with legal know how of how to get away with crimes on technicalities.

The swamp has legal as well as propaganda expertize.

Trump is taking care of short term propaganda but long term propaganda in educational institutions needs to be tackled.

Nobody has got to pay for their crimes because there has not been any honest , capable and willing person who is also well versed in law and can ensure that these swamp cretins do not go scott free.

I am not sure whether sessions was such a person or barr is. That will depend on results and only when results come we will know who played what role.

The willing part is essential, people can be honest and capable but they may not be willing to investigate the very institutions they control or their collegues to preserve the ""interagency"" and the ""institutions "". 

I put wray in such category. He goes out of his way to protect the reputation of his institution at any cost.

Basically just like trump was himself a media figure and knows how media works and is using that knowledge to defeat the media, we need a legal version of trump who knows all the legal gymnastics of the swamp and uses that knowledge to end it.",jamesvien,16dvyl,f7tf1lm,"It’s so beyond the pale that it makes me wonder if I’m brainwashed into thinking the Democrats are bad and, instead, in reality, it’s us that are the bad guys. Because why aren’t any of the Democrats being punished for spitting on our laws? It’s incredible. Am I the crazy one? Because only one side is ever being punished.",f7t9dza,BasedMedicalDoctor,1153s17g
"Drumpf committted impeachablr offense
...orange man bad
....Napol itano",jamesvien,16dvyl,f7dtsx4,Never interrupt your enemy when he is making a mistake. -Napolean,f7dt8lm,Big_Beardiful_AK_Man,3sg32g5
I have blocked a set of leftist users who spam the front page with propaganda. So as of now that post is showing on the top of popular for me..,jamesvien,16dvyl,f7dt71y,Funny but 10 hours too late to trigger leftists.,f7dsyzi,keithcu,4qkx
Maybe but the document is by the inspector generals. Lawfare is just publishing that,jamesvien,16dvyl,f67h9q9,"1. Barr is gonna Barr regardless of these guys. 

2. Didn't we discover that LawFare receives some or all  funding from Chinese money?",f67gdcq,skinagrizz,nwx4bqy
They are not inspector generals,jamesvien,16dvyl,f67h3l3,Where’s Huber and Sessions signatures?,f67fxn5,-AnD,q7oay
https://www.lawfareblog.com/inspectors-general-criticize-olc-whistleblower-opinion,jamesvien,16dvyl,f67eq93,What am I looking at here? How about a link to this document.,f67b1tk,covfefe_cove,50ins20
"Anyone who makes the statement that "" All X people are Y "" is  being intellectualy dishonest. X is a different circle of people and Y is a different circle. Yes there can be intersection between them. But so can there be Z intersecting with Y.

So some gay people can be pervert but so can be some straight people. Even not all leftist gay people are perverts. 

It is a series of intersecting  circles like in a vien diagram. But people who have a bias against a certain group will tend to generalize it to all people in the group.

For example there are people here who are against all immigrants, legal or illegal of children of immigrants.

But these people are a subset of the entire group which makes this community, which has immigrants and people of  color also.  

But they are the most vocal.  I have myself blocked some accounts which are plainly racist or bigoted before during the start of the community.",jamesvien,16dvyl,f61vn6q,">Any Maga lgbt person will not subscribe to a leftist ""rights movement""

So, as long as we're agreeing there are such things as gay people who aren't pedos or sex-obsessed voyeurs, and indeed that there are many, many such people, than I can acknowledge that context.

However, while that is the literal meaning I'm gathering here and can accept that, I understand that, what I then don't really like are people posting in this thread about how gay people are all secretly trying to fuck our kids. Like, that distinction of the ""rights movement"" that you made is, to me, significant enough to the point that to omit it suggests that one believes it's not just the ""movement"", it's gay people in general.

Do you see where I'm coming from there? I get that maybe that's what all the commenters here MEANT, but with the context of some of the posts it seems very clear that every gay person is guilty in their eyes.",f5zm06b,TrashAccount121,397hqes
Pedette,jamesvien,16dvyl,f3zvlx9,[Girl Pepe!](http://magaimg.net/img/97vl.png),f3zvabv,SheGuevara2020,36ypmy0u
Fuck!! I am going underground now,jamesvien,16dvyl,f25yupa,The t_d meme GEOTUS tweeted,f25yj7k,TrumpOrTreason,11gt8d
In the whole article they are not mentioning what information. The only reference is to the transcript which the article admits is not a direct witness.,jamesvien,16dvyl,f24jtab,"""that information was determined to be the fact that the referenced NYT articles do, in fact, exist.  Therefore the complaint was credible.""


Wouldn't put it past them",f24jn9f,bmorepirate,144j1u
"Sadly, for most of them at this stage, after the various retractions by the media, they do not question because they know and are complicit in spreading the lies

Socialism aka communism in disguise is a very tasty poisonous apple.

Spez: till 2018 I used to debate them but my various experiences has shown that they are not in this in good faith",jamesvien,16dvyl,f1vjuuo,"And using that statistic, nobody actually knows, with any degree of certainty, that it isn’t 100k or larger!

REEEEEEEE HE LIED: here’s a complete guess “proving” he lied.

I don’t understand how this shit hasn’t redpilled everybody at this point.  It’s so blatant.  

How many times does the left have to be wrong before its minions start to question the bullshit!? 

Where does it end??",f1vj354,ithrowawaay,bun26ox
"One must read scott adams' win bigly. It explains how media misrepresents what trump intended. 

Eg. 


Trump: 100000 people are crossing the border illegally.

Media: Fact check, pants on fire only 60000 people entered the border illegally.

Trump is using a persuasion tactics known as anchoring (where you give an exaggrated fact or a recognizable data to bring attention to the problem)  to persuade that there is a problem at the border.  His claim that there is a large number of people coming from the border is not false.",jamesvien,16dvyl,f1vh3g3,"The 12,000 claim is itself deceit. They say “12k lies or misleading statements.”

Misleading statements means nothing.",f1vcn5j,CATGRILL_4_TRUMP,277w8upz
"When I began to understand things like when I was  12 to 15 years old, bill clinton was impeached.

I supported obama twice


My redpilling started when I was following brexit.  Leaving the Eu seemed the common sense but there was a clear campaign by media against Uk's sovereignty which is still going on.

Then came trump with all common sense policies and medias lies about him.

I have personally research each media lie against him and debated hours and hours with leftists debunking them.

I have given that up because they have become hateful zombies as scott adams says

My corollary is that when media says trump has lied 12000 times or so, if you take each claim, debunking it proves that the media has lied or misrepresented his statement 12000 times


I has always believed the official version of watergate till last year but when I saw the entire playbook used by the media against trump and their constant reference to watergate I grew suspicious. You and other users who were present during that time have given an alternate version.

Nixon and kennedy, the left likes to rewrite history but I wish we can know what really happened and correct the record (hello brock)",jamesvien,16dvyl,f1v74ax,"I actually wrote a paper on this in grad school, I am very glad you brought it up.   Most people think Watergate was the worst thing that ever happened to America ....

In other words, most people have no clue what actually happened, that the MSM basically used the infinite power they had back then to take him down.

There was no independent internet forum where we could talk like we do today.

Those tactics are LONG gone and may never work again, we are truly entering a new ear because ""We the People"" can finally fight back against the media, AND WIN",f1v46iv,Banick088,4n8o7y9b
"Yes we know.

This game is not played on population but on electoral college.

Secondly land means basic resources like food as well as tactical advantage. Basically all big overpopulated liberal cities are surrounded by red rural areas from all sides.",jamesvien,16dvyl,f1uwuam,"Keep in mind that the blue spots are densely populated and that's where the majority of all the people in the country are. 

[Edit] I'm not pro Dem. Just pointing out facts, guys.",f1sckyj,HangsHeKing,rjx5edk
Started by a rino and led by a puppet,jamesvien,16dvyl,f1q2num,"How did leftist get these people indicted? Most of those were crimes brought up during the Mueller probe, which was started by a republican and led by a republican",f1pje62,grosskoft,4ehpu
"protesting never achieves anything. Action and informing people about what actually to be done to tackle the problem does. Protests just alienates people. 

What is being done to adjust people whose lives depend on coal and gas?",jamesvien,16dvyl,f1ppvl8,"Did you ever see 500.000 people on the street protesting for increased coal and gas usage? That’s what they’ve achieved, the common sense to prevent the race from extinction.",f1ppkz2,Et4ivell4,2n9aivf8
They are not journalists they are accomplices in treason and these people and organizations shall be treated as an enemy entity,jamesvien,16dvyl,f1on239,"I'm a strong believer in freedom of the press but when a member of the press becomes a tool for the deep state to ruin lives and careers and remove a sitting president without just cause, their 'journalism' becomes criminal and potentially, treasonous.

Here are archived links to Miller's 'breaking' reports over the last week on the Whistleblower. This is our enemy Pedes.

[Trump pressed Ukrainian leader to investigate Biden's son, according to people familiar with the matter](http://archive.is/5yuqo#selection-1307.0-1307.103)

[Acting director of national intelligence threatened to resign if he couldn't speak freely before Congress on whistleblower complaint](http://archive.is/p7N0L#selection-1307.0-1307.132)

[Whistleblower painstakingly gathered material and almost single-handedly set impeachment in motion](http://archive.is/p7N0L#selection-1307.0-1307.132)

[Whistleblower complaint about President Trump involves Ukraine, according to two people familiar with the matter](http://archive.is/hngZd#selection-1307.0-1307.112)

[Trump's communications with foreign leader are part of whistleblower complaint that spurred standoff between spy chief and Congress, former officials say](http://archive.is/r2u5T#selection-1307.0-1307.153)",f1okyn3,semlaw,xj1in
Wasnt he fired before that?,jamesvien,16dvyl,f1o9aki,Lanny Davis is out today saying Cohen wants to testify in front of congress because he has “information on Ukraine”.  Can’t make this stuff up.,f1o977u,qwertymcgerdy,117sda
Another xer appears who wants to impeach trump to fulfill xer's satanic desires,jamesvien,16dvyl,f1lsodx,"So Trump releases a transcript of his own conversation with Zelensky where he obviously says ""I want you to do me a favor, investigate Biden"".  That's confessing to an FEC violation of soliciting assistance from a foreign power to help your political campaign.  Not only is Trump plain-as-day guilty he corroborated the whistleblower in the process.

Game, set, match.",f1jpd0z,ocbro2,zec0m3j
I am steering clear of any cancer.,jamesvien,16dvyl,f1lsi2g,"[Top Basement Dweller's](https://www.reddit.com/r/TopMindsOfReddit/comments/d9l3pw/top_minds_are_out_in_full_force_today_have_to/) daddy issues rears its ugly head again.

*Note: this is a direct link to another subReddit provided for informational purposes only.  You should not vote or comment in the linked thread as that may be against reddit's TOS*",f1in5hh,tehForce,4csj7
"Yes candace owens, diamond and silk etc are ok.

But left wing ones are really loud",jamesvien,16dvyl,f1jp5aw,"Eddie Murphy's shoe-throwing mother or auntee falling down the stairs. Madea. Shananay (Martin Lawrence?) I always thought those were stereotypes. TBH, the black women I know are all pretty cool and don't fit that mold at all.",f1jnwbl,GreatNorthWeb,a5kq5
Source is wikipedia,jamesvien,16dvyl,f1htl30,"anyone know the source of this?  
I""m guessing some recent poll?  


looking at these maps, it's not hard to project a small shift since the map data was collected would result in the map shown.

 [https://en.wikipedia.org/wiki/Red\_states\_and\_blue\_states](https://en.wikipedia.org/wiki/Red_states_and_blue_states)   
 [http://politicalmaps.org/](http://politicalmaps.org/)",f1hfsf1,AspiringGuru,jlbvt
"Teacher who is a republican.....

What magic do you possess?",jamesvien,16dvyl,f1d6tv9,"The poor ANTIFA member in my AP Gov class will be severely disappointed when the teacher (who’s a Republican) bursts his bubble.

I live in California fyi, and yes California is an official purple state now... just as many Rs as Ds and a helluva lot of Is (myself included).",f1d6p37,--Replicant--,xpl8s2o
After its nail filing response I am not sure if it is a human being,jamesvien,16dvyl,f17wact,Not clear if that is a woman,f17ozba,obsd92107,38jwqrw9
Ana navarro,jamesvien,16dvyl,f17j7lo,*Conservative* women.   Not all conservatives are Republicans.,f17eizn,Funqueybusiness,15m8rl
"My original content, we patriots can think for ourselves, instead of being sheeps who follow left wing propaganda machine just because they show them beautiful dreams of a free multicultural inclusive society",jamesvien,16dvyl,ezy5u95,"Lmao, new copy pasta?",ezy5p6n,alwndhs,4bwpxorl
"Ohh and putting us in quarantine has stopped us from voting?

Isnt that the final aim of you little stalinists?",jamesvien,16dvyl,ezy5dgw,"Redcaps are fucking psychos. Jesus.

Get back in the quarantine, scum.",ezy4uk7,2DeadMoose,161i11
"In the real life trump is the president and will be re-elected and retire after 2024 with much better life than yours

In the internet fictional life, you will remain a pussy as bitch mod of a sub which doesnt even represent 5% of Us voting population (assuming you are not some foreigner bitching about us politics).

You will remain a sorry ass loser who takes solace in his little internet world while we keep winning again and again. In the next 5 years we are going to wipe out everything you communists have done. You think this was bad, what happens next will give you serious reasons to cry.

 Well not if you can get off your lazy ass and start earning yourself instead of begging the government to pay of your loans(which you took by your choice) and pay for your bad life choices.

We will reshape the courts including the supreme court and deport all the illegals you love so much.

The real fun is coming so be happy with your stickied comment in a subreddit which is not supposed to he about politics.

And FYi I am least bothered about your pussy ass downvotes or pussy ass bans.",jamesvien,16dvyl,ezy3zqa,"[PABOTUS](https://www.vice.com/en_us/article/zmjm4x/the-president-of-the-united-states-is-feuding-with-chrissy-teigen-because-thats-just-how-we-live-now)

Reports so far: https://i.imgur.com/qPSoffC.jpg

Edit: I'm done normalizing his behavior, everyone. The president took a sharpie to a map to continue his lie to the people. This is not normal. This is not okay.  

If this were Obama, Republicans would have already impeached him. I would also be strong in my disapproval just like you see today.  

It's time to stand up to the lies and hatred. This president is unfit for office and deserves to be removed via impeachment or voting in 2020.",ezxp47a,TheMegaBenson,ba740
I remember there were two ships from both sides. What was the second ship?,jamesvien,16dvyl,ezw1vwz,"Wasn’t Blackbeard, it was the Flying Dutchmen",ezw1u6b,Spoona101,1tkgsoy7
Pirates of the Caribbean scene when jack sparrow and blackbeard ships join to destroy a fleet.,jamesvien,16dvyl,ezw1ipc,What movie is this from?,ezw162q,PM-ME-XBOX-MONEYCODE,2kplxdz6
"I just want to add here that mueller was a puppet, the show was run by andreq weissmann. Who is the worse prosecuter to ever walk on earth",jamesvien,16dvyl,ezuxtix,"This is General Michael Flynn, a patriot. He was entrapped by Mueller’s thugs into a process crime. “Obstruction”. Once they had him, they threatened to go after his son, unless he plead guilty to the bogus “crime”. So he did. Then, he fired his worthless attorneys, hired a badass who wrote the book (literally) on DOJ crime investigation, and now, God willing, she’ll help deliver justice to this man and his family, and expose the traitors. 

For more about Flynn, look into how he was treated by Obama admin. Shame.",ezuqm5w,RolandJOrlando,157tmf
"I got there through a rush Limbaugh article in fox.

He says it is backlash of russiagate. If his analysis is true then things will go worse for dems if spygate blows open in 2020",jamesvien,16dvyl,ezt9trm,"What's the difference between this year and last year? 

""I feel like it's just disrespectful, the disrespectful singling out of women of color.""

""CAIR was formed after 9/11 because some people did some things..""

""We don't need black faces that don't want to be a black voice! We don't need Muslim faces that don't want to be a Muslim voice! We don't need queer faces that don't want to be a queer voice!""",ezt9n1e,NeoSeraphi,lvv1f
A green new deal..not The green new deal.....reeeee do something about muhhh climate change but use your money,jamesvien,16dvyl,ezt97im,60% approval on the green new deal? Lmfao,ezt8atc,TwoScoops12Cokes,3b3qojcm
"Senate can also call, why is the senate not doing anything?",jamesvien,16dvyl,ez7zu55,"Yeah, right, like that’ll ever happen.  We GAVE the GOP the House, and they didn’t do shit, but NOW they want to talk about doing something, now that it’s impossible for them to do so.  Kinda like how they ALL talked about wanting to repeal Obamacare, until it actually came time to do it.  Fuck these pieces of shit.",ez7ujc9,1979FLH80,zw9av
"And to add, the problem with kashmir is that pakistan and seperatist leaders have taken many terrorists including suicide bombers in kashmir. It has been a target for terrorist attacks for a long time. Pakistan cannot win a direct war so it runs a proxy war in kashmir with help of terrorists (in afghanistan also it is exporting terror so it can keep getting us money).

So given the condition and the possibility of a pak orchestrated violent situation there was no other alternative but this to prevent violence in the state.

So there has been a humanitarian situation for decades in the state this government is trying to solve it by formally integrating it into mainland.

One counterpoint is that kashmiris shall have self determination. But that means All kashmiris shall have self determination, that includes both indian and pakistan part of kashmir.",jamesvien,16dvyl,eyqmxrt,"I dunno, I have a friend who works with this one Indian guy whose wife and family are located in Kashmir. He said he tries to stay in contact with them but recently no word has gotten to him from them due to the recent internet blockage. Maybe this is less of a national issue and more of a human rights issue.",eyqm212,Prusaianbleu17,13kw6o
"I am hoping for a quick resolution to normalcy. As I said in the last, the support depends on the situation. The more time the government takes to resolve the issue the lesser will be the support",jamesvien,16dvyl,eyqmfuw,"I dunno, I have a friend who works with this one Indian guy whose wife and family are located in Kashmir. He said he tries to stay in contact with them but recently no word has gotten to him from them due to the recent internet blockage. Maybe this is less of a national issue and more of a human rights issue.",eyqm212,Prusaianbleu17,13kw6o
It is not by will...it comes automatically.,jamesvien,16dvyl,eyqhww9,Who are you murmuring today?,eyqhjkm,ikemynikes,h63wd
Solution: Fire Wray,jamesvien,16dvyl,eypvzws,"It’s a security clearance thing. GEOTUS gets a list of people he’s allowed to choose. That have a security clear that is required for the position. If he wants a spot filled he has to choose from that list. 

Otherwise Christopher Wray has to clear any pick he selects and it take a long time.",eyom3sa,Ricksauce,50lnu
China and mexico,jamesvien,16dvyl,eyo0p66,"He tried too hard to weave in some crappy comedy in an otherwise fairly good take on the fentanyl/opioid crisis.

He was too anecdotal about his high confidence link between legal opioid manufacturers and the addiction epidemic destroying American lives. 

Many kids and young adults are now dying of fentanyl laced drugs that have never touched a legal opioid in their lives.

He places the blame mostly on American pharma and only mentions China as a ""supplier"".",eyo0mmk,el-y0y0s,kgb92
"Hint..see left of "" Trust""",jamesvien,16dvyl,eyifn0s,I get it. The circle of the Q symbolizes the never ending rehashed and reused delay tactics. The plan is to remove Trump with massive fraud!,eyifd63,OFFICIAL_CNN_REDDIT,12ecyp
This is mocking Qtards,jamesvien,16dvyl,eyif7uh,"If it were important it would not be hidden. That's for larpers, to give them something to larp.",eyif11y,developertest_04,5wta5xz
"Liberals report also more. They like to appeal to authority.

There is bias in tech, but whenever there is human moderation liberals reporting comments of conservatives much more than the opposite also plays a role in conservatives getting censored.",jamesvien,16dvyl,ey7m6mb,"I agree with the editors response 100%. Liberals do write, complain, etc more frequently. Thus it appears that their views are more prevalent. We as conservatives need to start writing in about the positive things we experience to balance that view. A good visit at your local restaurant...do a review for them. Big thing happens ar school or work, write to a local editor.

  


Also, he points something out I think most ppl forget. Trump is a human. He has his good points...and his bad. He's not 100% correct, or 100% wrong. Is he overall doing good for America...hell yes. Just be willing to recognize the failures.",ey79370,Ilanna79,ybyb4
All beards are equal..,jamesvien,16dvyl,ey4cniy,"Say what you will about communism, the man could grow an impressive beard.",ey4clar,drinkup4,y407o
Run or ruin?,jamesvien,16dvyl,ey31tju,"Yep, that’s enough of a voting bloc to run the country.",ey2zu9a,trublman,3qiqzpvn
Did not know that,jamesvien,16dvyl,ey31osf,"Karl Marx (born Levi) and Friedreich Engels, both talmudic scholars and Karl being the son of a rabbi did a great job producing The Communist Manifesto, which successfully secularized the Talmud",ey30qom,IFoz,6ocnb
I like the energy,jamesvien,16dvyl,ey2tw59,"#WE ALREADY KNOW THE GOVT WILL ABUSE ANY RED FLAG LAWS

#THEY ALREADY TRIED TO PAINT TRUMP AS ""INSANE"", ""MENTALLY UNSTABLE"" AND ""DANGEROUS"" AND TO USE THE 25TH AMENDMENT TO REMOVE HIM FROM OFFICE

#IF THEY WILL DO THIS TO THE PRESIDENT OF THE UNITED STATES, DO YOU BELIEVE THERE IS ANYONE THEY WOULD HESITATE TO LABEL AS INSANE AND TAKE THEIR GUNS??",ey2l9i0,USA_akbar,zrhuq
What did he do?,jamesvien,16dvyl,ewg5ue1,"Fuck Crenshaw, dude is a backstabbing cuck.",ewg1vej,Chernoobyl,7xe2p
I block if it is the same parroted talking point,jamesvien,16dvyl,ew07whq,"While it is nice to block, it's also good to hear them so you know them. Ignoring your adversary is not always the best option.",ew07gae,letrainwa,114ozc
"I am a person of color and I have seen crime and violence in a country which has one of the toughest gun laws. There is no way that I am giving up my right to protect myself because some lunatics splerges out.

Disclaimer: This post does not condone violence. There is a right of self defense under threat to life or property.",jamesvien,16dvyl,evy1ivi,"I hear you. From now on I am ignoring it all. They don't cry about murders in Baltimore and Chicago where black people are murdered week after week. Add those up and compare to ""mass shootings"" which don't happen in the hood. 

They are IGNORING mass numbers of shootings of black people and until they talk about that, all the coverage of these events is over the top. FakeOutrage. Don't black lives matter to them when they die in the hood??",evy17l4,ArmyLady,12shis
I have detailed the reasoning in another comment,jamesvien,16dvyl,evw5o5b,and yet you're still here,evw4m39,iamonlyoneman,tmnbp
He says it is not soros,jamesvien,16dvyl,evib8dv,Everybody knows George Soros is behind the Operation,evib7ac,DannyNog556,1l72p1h
I did not expect my random post to trigger this long thread,jamesvien,16dvyl,evccqv3,"Anarchy creates a power vacuum dude...

And most of the time the power that replaces the anarchy is worse than the original...

I would just destroy all humans, that'll make everything better",evbnqrt,TimeNikki,2w55j9u8
No that is why metaphorical,jamesvien,16dvyl,ev6y82d,This is in Baltimore??,ev6y55q,slippi89,3idj162q
Do they have anything in common with custard?,jamesvien,16dvyl,eub7abp,Missing a few letters on the end of that word,eub76s3,NotNolan,9us3f
So the media and probably our intelligence agencies were in bed with communists since before Nixon.,jamesvien,16dvyl,eub6p25,"He was a high-level State Department bureaucrat for 20+ years and had been selling US secrets to the Soviets, including as a member of the Roosevelt administration in WW2. A former Communist, Whittaker Chambers, named Hiss as a Communist spy and volunteered to testify against Hiss, but the media attacked him and defended Hiss. Nixon was in Congress and arranged for Hiss and Chambers to testify, eventually leading to the exposure of Hiss’s espionage. Hiss couldn’t be prosecuted for treason because the statute of limitations had expired, but Hiss was disgraced and the media embarrassed for  trying to protect him. The media despised Nixon after that and relentlessly attacked him until they were able to get him with Watergate.",eu60lu3,Sir_Psychotron,nrxlzdw
Elaborate on this alger hiss character,jamesvien,16dvyl,eu4l57g,"Stop bashing Nixon. He did NOTHING compared to Clinton and Obama. His crime was being a Republican that exposed a Communist spy (Alger Hiss), which the left could never forgive.",eu4h82d,Sir_Psychotron,nrxlzdw
Welcome to 2020,jamesvien,16dvyl,eshdncr,God reddit is a fucking shitfest lately,eshdm36,xSty864,dph63
Popular,jamesvien,16dvyl,eshdk9w,"Is this a **Popular** or **Unpopular** opinion? Please reply to this comment with either *'popular'* or *'unpopular'*

#**Please do not vote on your own submissions.**

Current Votes:

Popular|Unpopular
:--|:--
671|155",esgru5q,UnpopularOpinionMods,3myo4c5f
They will say James o keefe is fraud and refuse to see the video,jamesvien,16dvyl,erxowj5,This is so absurdly extreme. I can show this to my friends who lean left and they will simply ignore it or choose not to believe it.,erxofjo,sevrot,3m0mewo9
Good idea,jamesvien,16dvyl,epzdq70,r/YouGotRatioed,epz7b18,CoSter91,10wj4s
Would that be .... WHITE mayonnaise????????,jamesvien,16dvyl,epyvidj,"We don't want segregation, We don't care about you skin color, or who you pray to. Can't I just buy my Mayonnaise and Kale in peace.",epyuzvy,mysterylife23,2bt2lbzq
'Unpopular',jamesvien,16dvyl,epp2ate,"Is this a **Popular** or **Unpopular** opinion? Please reply to this comment with either *'popular'* or *'unpopular'*

#**Please do not vote on your own submissions.**",epp29xv,UnpopularOpinionMods,3myo4c5f
5 people did not get the joke,jamesvien,16dvyl,epp0ur4,"the pepe memes are pretty much done

let's move on 

downvote this post if you agree",epof81c,bobadobalina,43goo
"I am sure of that, but the question is whether all the dems have lost their minds.",jamesvien,16dvyl,epk50w4,"Unpopular opinion: GEOTUS will be impeached. The swamp will do everything they can to save their asses. It won’t work, the senate will bail us out, but it’ll happen.",epk4xiy,KINGGODTRUMP,avpq08q
They are already doing that. My issue is that whatever this clown has puked in his report is going unchallenged,jamesvien,16dvyl,epic1cg,can you imagine the shitshow that would be? The dems would be circle jerking all over him,epibg3s,highenergywinning,138yvd
I have a theory that there is one bad actor in all this.  The rest may have plausible deniability,jamesvien,16dvyl,eotzcpc,"I don't like how confident Comey is. We might've been barking up the wrong tree this whole time. I mean, he's full of shit about the Russia threat, but from what we've been hearing, Brennan is the one who's most culpable. Gowdy says he's seen an email chain between the two of them and Comey looks better, so take that how you will.",eooi9i9,rlbigfish,34fcl
"I think we can find evidence if we search this sub..there were lots of evidence posted

On Youtube

Which has been memory holed now.

This is the threat",jamesvien,16dvyl,eotz0b2,Illegal voting is a bigger issue in my eyes. But I don’t have any facts to back up this opinion.,eotnaoe,clarifyinCO,21entd38
This is not addressed to trump,jamesvien,16dvyl,eotkx0n,"A stupid way for people to get attention for an issue they want addressed.

&#x200B;

>If you dont magically use powers you don't have to do XYZ, then you can not win reelection!!",eotku1q,freemiumxxx,1sm72t50
Nobody is asking POTUS to do anything.,jamesvien,16dvyl,eotg7ws,"fuck off scott adams.

nothing the POTUS can do. up to congress or SCOTUS so bitch and moan to them.",eotg3ja,fastmandan,wbc1n
"You are not completely right. But yes India was not a nation for 1000+ year. 

This is a rough view

 It was ruled by emperors like ashoka and chandragupta. Their empire were vast covering india pakistan myanmar indonesia nepal bhutan etc.and traded with china and greece, egypt etc.

But then corruption happened in the dynasties and empire got broken.

Then there were multiple invasions like afghans , mongols, muslims and then the british.

So as the concept of nation itself is relatively new it was not a nation in the modern sense, but it has been an empire in the ancient time

Even the people who made the empire were invaders, aryans

The original people of India were the dravidians

But now new theories have come which say that aryans were next generation of dravidians which went to europe got married and came back (their children were aryans)

For eg. Punjabis in India have caucasian features 

Regarding pakistan, the first prime minister was a leftist and he emotionally blackmailed the founding father to support the partition.

That is the root of the whole problem. The drafter of the constitution was an ardent leftist. The first thing the first prime minister did was to dilute the freedom of speech


This is why the US constitution is so precious. It was very fortunate that it was made by wise and balanced people who were not interesting in codifying a document which gives power to them and their children",jamesvien,16dvyl,eotatbc,"India was never a nation at all prior to the British Raj. It was a geographical construct akin to Europe with a common unifying factor being its religious bind (the amalgam of traditions which fell under the umbrella of ‘Hinduism’).

Also, it wasn’t Muslims that stopped Hindus from being in charge. The Hindu Marathas had ultimately defeated the Muslim Mughals and re-established Hindu hegemony over almost the entirety of what-is-today India. Most of what-is-today Pakistan was under the control of the Sikhs who had routed the Afghans.....prior to the advent of the British Empire.

The biggest mistake that the British- who had modernized much of the world and possessed the most powerful empire in the history of the world- did was allowing for the creation of Pakistan/Bangladesh and the partition of Palestine- which should’ve rightfully all been granted to Israel and the Arabs evicted to Jordan.",eosx4e8,TrueTTiger,2vfzljyu
"If it was bad would people vote him in a landslide? He is overcoming 60 years of corruption and wastage. People on the ground see the steps taken and are wise enough to predict growth

https://48months.mygov.in/performance-dashboard/

He has done progress around a broad spectrum, from bank accounts to cooking gas to infrastructure to fdi to healthcare

Even tackled the poo in the loo meme by making toilets everywhere..",jamesvien,16dvyl,eomyk53,"I was listening to Democracy Now, an American literal commie radio show, and they were shtting on the Modi economy, saying it's been really bad for working people.  Is this true?  These people are against Modi because he won't suck muzzie cock, so they'll try to find anything to complain about, so I'm interested to hear your opinion.",eomx8bh,Notorious_VSG,15tk4263
"He stands for development and progress...one of his campaign slogan was ""good days will come"" and ""Make in India"" (sounds familiar?)

Ideologically wise he is a moderate right or centrist.  The country has seen 60 years of left wing rule.  Muslims are triggered but muslim women voted for him in 2017 in the biggest state (like california here) and probably now also (vote share have to come ) because he wants to free them from regressive islamist policies against women.  This was the first time that uttar pradesh, the california of india (same corrupt identity politics, crime debt etc) flipped to the right.

He has huge support among youth. He has won more than 50% votes in most of the states.  If this was a Us election, it would be equivalent to a electoral landslide ( Imagine the left having only new york and illinois and Trump sweeping everything else including california in 2020)

He is making good connections with foreign leaders and wants to make good connections

He is the most populour leader after the founding fathers


Now The Problems

First is he has support of the hard right also...which means pro hindus.as India was a hindu nation before it got invaded by muslims then by christians..they create issues

Second is that India doesn't have term limit.  The original left wing government had a dynasty rule. This elections looks like we have 15 to 20 years of Modi..so if he turns color....

Third and which directly effects Trump and here.

  Modi has been chief minister of gujarat, which has seen tremendous business growth.  Modi and his people are very experienced and shrewd businessmen. So like Xi, Modi is now a formidable adversary in the trade war.  Good thing for now is that China is against India.  But unlike Xi, Modi is more keen to open up India's economy to foreign investment.   But dealing him in trade negotiations is going to be tough. The guy is very smart.  Scott adams has done a small video of him and trump meeting, according to Scott adams, modi was the only world leader who could match trump in the persuasion game.",jamesvien,16dvyl,eomv3qu,"I'm not too familiar with Indian politics... What's the significance of Modi?  What does he stand for, and wasn't he already PM for the last few years?  But most importantly, where does he fall in relation to Trump?",eomqm9w,ORD_to_SFO,dkq7g
"Is there anyway for it to work with android? I have tried brave, yandex, kiwi

No app also",jamesvien,16dvyl,eoa7hah,use the new dissenter browser,eo90rni,SDsc0rch,g33go
One user has suggested start page..which is better?,jamesvien,16dvyl,eo9u0tq,"yes - they're getting soros money           
use qwant",eo90phj,SDsc0rch,g33go
"I am using android app of reddit.

Here is how I did it.

Go to the subreddit on the app, on the right top corner you will see three vertical dots. Click on that and there is an option to add to the home screen.

If you are not using the app you can browse to the subreddit using brave browser, it has an option to add any site to the home screen via three vertical dots in the bottom right corner",jamesvien,16dvyl,eo9tqv7,"Hold up, how can we set to open right to T_D?

I'm a little tech naive.",eo8usgj,dd756yut,zvg3k
"What is that? Is it related to Q?  I am pretty open about ANY conspiracy theory. All what I thought was just a fantasy till 2014 (when I was bluepilled with huffington post as homepage..) has come true.

So I am open, just want to be sure about the security.  That is why took so much time to shift",jamesvien,16dvyl,eo8rfto,Get Qmap,eo8r0z1,MisterUniverse1,2fsk23ov
"No...

They blanket  ban EVERYONE who posts on this sub. Even if you do not post on their sub

That is why I am surprised",jamesvien,16dvyl,eo54vvf,Don't worry I'm sure I'm about to be banned just for commenting that. Just ban everyone who disagrees right?,eo54rb2,RhynoOoO,n4x5a6l
Please trigger them till they ban,jamesvien,16dvyl,eo54oam,I thought I was for messaging the mods to make me a sandwich. I guess I wasn't for some reason.,eo54gwx,RhynoOoO,n4x5a6l
Dear uneducated filth...,jamesvien,16dvyl,eo1ghex,"As a labor voter i take some consolation in the fact that the dumbasses that voted this government in (lnp) are the ones who will suffer most. The uneducated, unhealthy, skilless right are more likely to benefit from a progressive agenda.",eo119j4,chunkytown11,ujpo6h
"Yes.

They have gone bonkers since mueller fail. It started with a 20 text diatribe. I was keeping quite but my liberal cousin said she is ok with marrying a muslim over trump supporters. I usually keep away from family arguments, but I lost my control. I look at her as my little sister. 

In.Very.Bad.Mood",jamesvien,16dvyl,eo182si,">cousin

I've got ~~retarded people~~ liberals in my family as well. If that dude's interaction is anything remotely like mine, he was goaded into an argument for the upteen-billionth time and had to do a eye-roll, forehead-headache-relief-rub with a ""Oh Christ..."" cherry on top after the opening volley. 

Not that I'm harboring a grudge or anything. :)",eo16kt8,excellent_tobacco,2uet2qqa
"And if you go out of line they will launch an investigation. If you protest, they will launch an investigation

##OBEY",jamesvien,16dvyl,enk8frj,"LOL It's SOO fucking ridiculous how bad the ""news"" is.. literally if you investigate Democrats your reputation is on the line... they literally just say it out loud.. you are not supposed to investigate Democrats or their allies or else YOU are the corrupt one.. 

I almost can't believe my eyes these days.",enk3xkv,NJ_LibertyProsperity,16ks5o
I wish to see him arrested on live tv,jamesvien,16dvyl,enhzhqx,Well I guess he still hasn't noticed the hammer flying straight into the deep state actors,enhzdgw,myanimal3z,x7hqe
Thanks,jamesvien,16dvyl,en4s4nn,R/listofsubreddits has a directory in the sub info :),en4rlr4,An11mal,13kct3
This made me curious... are you unable to make out borders also?,jamesvien,16dvyl,en4hggq,The last one is the hardest. I'm color blind.,en4h3wk,s4mp1k,1yyb5xf
"The problem is that they are strategically placed in the digital sphere to shut down the voice of the majority

Digital has created a false illusion of popularity",jamesvien,16dvyl,emz7zbb,Good thing most Americans still have strong values and these cunts are the loud minority,emz7soz,JeeroyLenkins4,1at479qg
