child_body,child_screen_name,child_user_id,child_tweet_id,parent_body,parent_tweet_id,parent_screen_name,parent_user_id
"He closed travel down from China back in January, so there’s that. That action alone is being credited with slowing down the spread of the virus immensely. 

And before you say he called the virus a hoax, go back and listen to his statement. If that’s not what you were referring to, I apologize.",John-Kreese,55pw4slb,fl23wbq,Wow it's almost like he didn't take it seriously at first and deserved to be criticized for his horrendous response,fl21n7u,Elodaine,1egk3wb5
"No? Not even if they have non-public information that the government is going to take specific action on a specific date that any prudent-thinking person would know will tank the markets?

Man, that’s pretty shitty.",John-Kreese,55pw4slb,fl0zzrs,And simply having non-public information doesn’t make it insider trading. It needs to be non-public information specifically about the stock they are selling. Non public information about the economy tanking in general doesn’t cut it.,fl0va2k,ChipsAhoyLawyer,3wh884kc
"I’m not too privy on much of the facts. There’s a lot of dates involved. Apparently, a confidential meeting occurred on Jan 24th, which usually means information being discussed in that meeting is not known to the public. As few as three days after that, certain Senators, Inhofe being one of them, who were in the meeting began the sell off. 

I guess you’d have to look at how many finance professionals who do this for a living sold their stocks during the same period. Regardless, it looks really bad. I hope they’re at least investigated.",John-Kreese,55pw4slb,fl0uxa3,But is there any evidence any of that happened? All you have is them selling stock weeks after they should have sold it.,fl0tclj,ChipsAhoyLawyer,3wh884kc
"Even if it’s not illegal as you say, it looks really bad. Being privy to information ahead of when it’s going to be released to the public and selling off stock en masse, is not a good look for a public official.",John-Kreese,55pw4slb,fl0t6bl,Apparently no one has any clue what insider trading is. This is not insider trading. Insider trading requires knowledge of non-public information concerning the company of the stock you sold. Not just general economic knowledge. It has to come from inside the company.,fl0rwj5,ChipsAhoyLawyer,3wh884kc
And bushmeat like [pangolin.](https://www.cbsnews.com/news/pangolin-coronavirus-scale-anteater-possible-host-of-virus-chinese-scientists-say/#),John-Kreese,55pw4slb,fkz28bs,That’s what happens when you make soup out of meat from cave bats,fkz1r11,searanger62,b6w3fhg
"Or maybe it’ll give people who are uninformed and have no idea about the wait times and long lines to just stay home and wait it out. 

I know I wouldn’t want to waste my time (or my health) waiting in line for a product that might not be there. 

And as for the other posts, if you check the comments, not a whole lot of people knew what was actually going on. There’s a shit ton of people out there on YOUR side that don’t care to necessarily own a gun, but will fight for your right to do so. Let’s keep them informed.",John-Kreese,55pw4slb,fkynwzn,"This is just another story about gun sales being up. How's this help 2A? I could actually argue the exact opposite; that all this exposure actually hurts it. Look what's happened in Champaign and New Orleans. You don't think that had anything to do with this shit being 'smeared' all over the internet? 

This kind of coverage only contributes to the panic-buying and sends politicians into a fear-frenzy that gets our shit banned.

So as a guy that's 'into guns', what I want more than anything is for people to stop talking about it so as not to draw attention to something that's already being threatened on a daily basis by fucking fear-mongers the world over.",fkylrdn,ChiefSkonchin,5o6iie0z
"Gunfights are usually sloppy. Nobody is just standing at the ten yard line waiting for the range guy to call it out. Things are dynamic and moving fast. Does one need 500? Maybe. Maybe not. But having 500 provides peace of mind for that time you do need it. That day may never come. 

And these f’n Leftists could put so many goddamn taxes and restrictions on it, one may never be able to easily get it ever again. Keyword: easily.",John-Kreese,55pw4slb,fkykynr,"Ammo shortages prevail.  Gus without ammo are simply for show.  And if you think you are going to get into a gunfight, do you really need 500 rounds?",fkyk8si,RobbyTheRedneck,yo10y
"Thanks Chief. Not everyone is into guns as much as you apparently are. And for somebody into guns as much as you are, you’d think you’d want this stuff smeared all over the internet, so the people who aren’t into guns as much as you are, are aware of what actually is going on concerning 2A.",John-Kreese,55pw4slb,fkyjpbs,Omg we get it. Every one of these fucking posts acts like this is new news. Stop posting about gun and ammo sales. Anyone who actually gives a shit about guns already knows this.,fkyc103,ChiefSkonchin,5o6iie0z
They can’t help themselves. They start ticking with Tourette’s Syndrome when they see people exercising their natural rights.,John-Kreese,55pw4slb,fkxenkr,"Officials are claiming there is no malicious intent, yet the official statement from the mayor is malicious.",fkxefgm,VenturestarX,16scix
Why?,John-Kreese,55pw4slb,fkx9e5u,disgusting,fkx8y99,whitbynutter,4pkvv70
"Does the interest of the State in a national crisis trump my individual liberty to have access to arms?

It’d be an interesting court case. I’d imagine the State would win, given the extraordinary powers it has during extraordinary times. 

Just have to ensure you’ve already purchased your firearm in case something like this happens.",John-Kreese,55pw4slb,fkx6nvr,Self-preservation is essential.,fkx4vwu,simplequietwork,3v3tesf7
"In NJ, as in most other states (if not all), it is illegal to utilize deadly force to protect property. The justification for the use of deadly force in an unauthorized invasion of an occupied dwelling is usually the immediate threat to human life. 

If this homeowner said that this burglar was raiding his fridge, he’d have been charged with murder in this specific instance, in the state of NJ where this instance occurred.",John-Kreese,55pw4slb,fkx5zph,"A sad event.  I never want to kill anyone, I am afraid it would fill my life with doubt and regret.   That said, I would not hesitate if someone threatened me or a loved one.  As for someone just stealing property, I traded part of my life to acquire those things, so they are stealing part of my life.",fkx5jtr,Grumpsh,6qgoy
"Ahh... the ol’ “hate speech” route. Yeah, I know.",John-Kreese,55pw4slb,fkwymcb,"Politics, or any of the mainstream subs don’t ban conservatives, what the fuck are you on about. You might get downvoted to oblivion, but that’s just because no one likes you. Still, you aren’t banned unless you actively use hate speech, which isn’t uncommon among the MAGA cult.",fkwks9j,Jayulian,15i4y2
">That's not what it originally was and not what the mission statement over there currently is.

[r/Conservative Mission Statement](https://imgur.com/a/Ys6E3tw) 

Not sure where you justify that comment when it clearly says what it says. 

>Now its just a trigger happy echo chamber for the GOP donor's talking points.

Not quite. Most conservatives despise the GOP and what they stand for. It’s more of a hold-your-nose-and-pull-the-lever, lesser of the evils type of the thing. 

The feeling is quite mutual from the GOP, who court conservatives out of political necessity.",John-Kreese,55pw4slb,fkw4vlr,"> It’s for those who share conservative views. 

That's not what it originally was and not what the mission statement over there currently is. It used to be a subreddit where you could discuss conservative views on subjects. It was full of all views but centered on actual classical conservative like r/libertarian currently does. Now its just a trigger happy echo chamber for the GOP donor's talking points. Its pathetic like the NRA. A shadow of what it was supposed to be.",fkw1f6e,voteferpedro,4heop
"Because the subreddits they get banned from profess to be neutral, and they’re not. That’s the point. r/Conservative is not a neutral subreddit, nor does it pretend to be. 

Subreddits like r/politics or subreddits for each U.S. state profess political neutrality, and they’re anything but.",John-Kreese,55pw4slb,fkvu0m6,But they constantly bitch about banning and censoring...,fkvtlm3,VRCdachande,4znc90xa
"r/Conservative doesn’t pretend to be a place for all to share ideas. It’s for those who share conservative views. It’s not a place for debate, alternative viewpoints outside of conservatism, or Leftists to post freely without consequence.",John-Kreese,55pw4slb,fkvs52w,That’s not really a big difference. A big difference would be one banning people and one doesn’t lol,fkvrnu0,VRCdachande,4znc90xa
"If she’s here legally and pays federal income tax, I don’t have a problem with her getting the benefit. 

Even if they halved it for legal residents who pay federal income tax, I’d be fine with that too. My father-in-law is a legal resident in the service industry who is getting crushed by the statewide quarantine. Every little bit would help. 

With that said, before we start doling a trillion dollars, I’d have rather seen some sort of debt holiday first. That would make more sense at the moment.",John-Kreese,55pw4slb,fkvi0zm,"Sounds like this is for citizens only?  I'd love for my wife to get it too, but she's a green card holder.",fkv5idh,BrockLee76,19zxlksr
"The problem is that this problem was directly the result of government policy. People are losing their ass because the government is saying they can’t do business, they can’t go to work, they can’t do anything. 

Normally, I’d agree with you. This is extenuating circumstances. Should the small businesses, big corporations, and the everyday consumer have better prepared? Absolutely, but nobody knows how long this thing will last; and it’s a lot more complicated than that, being that it’s global.",John-Kreese,55pw4slb,fks7esn,I’m not a fan of this. When will we try to balance the books again. It’s pissing away money for a reason I can’t  understand.,fks0zxv,TaleSpinAgain,ciwn6k8
">that is better than claiming a virus is a hoax and we will go from 15 cases to zero...and 2 weeks later declaring a national emergency.

Either you’re willfully displaying intellectual dishonesty, or you’re misinformed in believing the media’s twisting of what the president said. I’ll give you the benefit of the doubt. 

Either way, I think you need to go back and listen for yourself to what it was he actually said.",John-Kreese,55pw4slb,fkq3j2e,"I'm no fan of obama, but to say that trump handled c19 better than obama handled h1n1 ... is just blatantly absurd.

Even if I give the benefit of the doubt to say that obama did literally nothing about h1n1,  that is better than claiming a virus is a hoax and we will go from 15 cases to zero...and 2 weeks later declaring a national emergency. 

Obama is definitely not the super hero the left makes him out to be, but even he didnt screw up a potential deadly viral outbreak as bad as trump has.",fkpznbh,shigataganai13,4pzq2ivy
">I'm shocked to see the word subsidized on this r/conservative.

Free market and national security sometimes clash. This is one of those times. I don’t like subsidies any more than the next Conservative, but it’s what it is. 

Spend money on subsidizing our energy sector to maintain energy independence, or the cost of forgoing such policy could be far worse. 

I don’t know the answer. Maybe the prices rebound soon enough to where the whole argument is moot.",John-Kreese,55pw4slb,fki7hoz,"I'm shocked to see the word subsidized on this r/conservative. I agree that we need energy independence. Trump should pass a law saying no import or export of oil out of the US. We should be combusting our domestic energy before we give one cent to the Saudi royal family. That being said is oil is going to become an obsolete dinosaur. Our government should avoid subsidies otherwise we will have another case of surplus government cheese on our hands. 

Yes we need nuclear agree with you on that. As an electrical engineer I can inform you that solar is making massive strides. If you can store energy using the batteries of electric vehicles then you can 100% make solar our primary energy source.

What we really need to subsidize, or put a major investment, in is our power grid infrastructure.",fki1oet,cjh83,14ra0hpp
"Socialism has to be fed. In socialism, you eventually run out of your own money because it’s entirely unsustainable. You have to seek money elsewhere in order to keep it afloat. That’s where greed comes in. Italy sees outside money flooding in via tourism, and they can’t afford not to seize the opportunity.",John-Kreese,55pw4slb,fki6r4p,What does socialism has to do with greed . In fact the usa will propably be hit more because they took much longer and havent tested enough.,fki1g11,Africanvar,3v9ivqdm
"It’s either subsidize shale and maintain energy independence or subsidize nuclear, then, if you think electric vehicles will grab an increased market share. 

The increased strain on the grid will have to be accounted for somehow, and solar/wind ain’t cutting it.",John-Kreese,55pw4slb,fki0tx2,We should not bailout oil companies. Shale is an extremely risky investment that has been able to keep growing due to low interest rates. Electric vehicles will take market share in a decade or less. Bailing out shale producers would be like trying to pluck the titanic off the bottom of the ocean. We need to let the free market do its thing and keep government money away from the sinking ship.,fki003m,cjh83,14ra0hpp
">and not banning the chinese tourists because of greed 

I agree with you here. Socialism needs to be fed. Eventually, money from outside needs to be brought in to keep it afloat.",John-Kreese,55pw4slb,fkhf0k2,Yeah as if the immigrants brought the virus to italy . And not underestimating a highly contagious virus that could really harm you elderly people  and not banning the chinese tourists be ause of greed . However that south koreans are doing much better because of testing and lowering the infected on loose,fkhdh3c,Africanvar,3v9ivqdm
"Drives me nuts. Didn’t the 14th Amendment apply the Bill of Rights to the states? Words mean what they mean— “shall not be infringed.”

I’m venting. Sorry.",John-Kreese,55pw4slb,fkhd550,"The Feds passed a law stopping the federal government from attempting to seize guns in an emergency. You'd have to look at the Illinois Constitution and laws to see how far out of line the mayor is. 

Their bill of Rights has a huge loophole for the right to bear arms: ""Subject only to the police power, the right of the individual citizen to keep and bear arms shall not be infringed."" Seems like ""police power"" is what's been used to erode their gun rights down to nothing in Chicago so I see how another mayor felt they had the same legal cover.",fkhbem3,ngoni,86rj0
"—Ozzie Myers

>Myers was involved in the Abscam scandal in 1980. Myers was videotaped accepting a bribe of USD$50,000 from undercover FBI agents on August 22, 1979. On that tape, Myers is recorded saying that **""money talks in this business and bullshit walks.""** Myers was expelled from the House of Representatives on October 2, 1980, by a vote of 376 to 30, becoming the first member of the House to be expelled since 1861. Myers was convicted of bribery and conspiracy and sentenced to three years in prison in 1981.

[Source](https://en.m.wikipedia.org/wiki/Michael_Myers_(politician))",John-Kreese,55pw4slb,fkfa6wp,Money talks b*llsh*t walks.,fkf9hx5,NightBlade66,1o2f5dw0
Democrats keep adding [pork. ](https://www.reddit.com/r/Conservative/comments/fhpr70/speaker_nancy_pelosi_caught_trying_to_include/?utm_source=share&utm_medium=ios_app&utm_name=iossmf),John-Kreese,55pw4slb,fkdo2yr,We actually could keep a virus from spreading if we made preparedness a priority to fund. Republicans keep cutting said funding.,fkdkt9h,aviatortrevor,4eegk
"I agree. Major buying opportunity. I did the same thing in 2008. I was single with no kids with a good job. I upped my retirement plan contributions when the Dow was at rock bottom. The strategy paid off. I have ten years until retirement, so I still have time. This current slide in the market should help my dollar-cost averaging a bit.",John-Kreese,55pw4slb,fkcw5qz,I bought a fuckton of my company's stock today.,fkcuk9e,BelleVieLime,2q31i0sh
"No point. Your hero or something? I’m not busting balls. Just genuinely curious. 

Also, tread lightly here. You might want to read up on what this sub is not.",John-Kreese,55pw4slb,fkbzerj,Your point?,fkbyzhd,Socialist-Aotearoa,4gb5ysmz
Joseph Goebbels 3.0? That’s your profile moniker?,John-Kreese,55pw4slb,fkbysqs,"**Libtard:**
“racism bad”

**Also Libtard:**
“White people are going to have to learn to not give a fuck if they’re called a bad word.”

**Me:** 
Yeah ok mate....",fkbya46,Socialist-Aotearoa,4gb5ysmz
Cite the study before we delve into hypotheticals. I know where I’m leaning.,John-Kreese,55pw4slb,fk8plmd,"There was scientific study that made it possible for men to become pregnant by inserting the fetus with an artificial womb. This became an interesting idea since there are some women who can have babies but can’t carry them because it would hurt their bodies too much and possibly kill them. So the man could carry it instead, and the couple could still have a biological child. If a man was inserted with an artificial womb without his consent and he really didn’t want to have the baby for 9 months, would you say to force him to carry it or allowed to get rid of it? Just curious what your opinions on this would be.",fk7ql8g,FirstForBurgers,162ann
"You’re right. Why go through the Press Secretary when you can hear it right from the President himself— daily? And I’m not talking about Twitter. 

People will bitch about anything just to hear themselves bitch. 

But thank god for Twitter. The press twists everything that comes out of mouth of the President in an attempt to control the narrative. The fact that they can’t do that now has them perturbed to say the least.",John-Kreese,55pw4slb,fk8nisd,"Yes, because the President takes questions live from the press almost daily.",fk8l44u,MartinRiggs1984,xxw3h
">'They’ll just have to seek help elsewhere', like seeking help from the government?

No. Of course not govt. How about family? Friends? Private charity? Dare I say, church?

>How is dental care a nonessential service? Lack of dental care only leads to more poverty.

One can survive without dental care. Why do you think Brits have bad teeth?

Take care of your teeth with proper hygiene and diet, and your teeth will take care of you. I don’t have to tell you that. Poverty has nothing to do with how well you take care of your teeth.",John-Kreese,55pw4slb,fk7ypht,"True, but community service jobs can run out too. And those people providing dental care might be unwilling to agree to such a deal.  
There are also people that can't work at all, so also can't work a community service job.",fk7uaub,PyroGiel,zg46m
"For those that can’t work at all, like the infirm, they’ll just have to seek help elsewhere. I don’t know what else to say. Not everyone can be accommodated for a nonessential service. 

As far as community jobs running out, there’s always trash to pickup somewhere, curbs to be painted, properties to be maintained at government-owned land, school-owned, and along highways and waterways.",John-Kreese,55pw4slb,fk7x0jv,"True, but community service jobs can run out too. And those people providing dental care might be unwilling to agree to such a deal.  
There are also people that can't work at all, so also can't work a community service job.",fk7uaub,PyroGiel,zg46m
"Maybe the people responsible for providing the care can make an arrangement with the local public works department. Give them a traffic vest, a poker, and a few trash bags, and they can pickup all the plastic bags/straws that are killing the sea turtles.",John-Kreese,55pw4slb,fk7tfji,What about people that can't work or can't find a job?,fk7ss3u,PyroGiel,zg46m
">states don't have the right or authority to decide if something is a constitutional right or not. Only the supreme court can do that.

Hence the purpose of legislation like this. Whether this one goes up, time will tell. But you can bet the concept put forth in this legislation will lay the groundwork for future bills that most certainly will be challenged.",John-Kreese,55pw4slb,fk7qpjq,"I know this sub gets its panties in a twist over abortion but, states don't have the right or authority to decide if something is a constitutional right or not. Only the supreme court can do that.",fk7pj3f,theepicface2,mu277
">Me assuming the discussion taking place is about abortion, is not a stretch. 

Thank you for admitting you were wrong. If you’d have engaged in civil debate from the outset, instead of misinterpreting not one redditor’s comment, but two, in haste, we could have avoided this whole waste of time. 

>I'll let it go as you would rather not see the wrong here, and if responsibility is inconsequential to you, it paint's a pretty picture now doesn't it.

Yeah, you’ll let it go after the last word on the matter— an insult, no less. 

On that note, buddy, I’ll just block you, so I don’t have to be tempted into wasting anymore time with you. Thanks for engaging, and do me a favor... assumptions get you nowhere. Think before you comment.",John-Kreese,55pw4slb,fk7f0we,"We're on a post that is specifically talking about Kentucky removing abortion rights? Me assuming the discussion taking place is about abortion, is not a stretch. You claiming OP meant he was referring to an unborn child/miscarriage as a clump of cells is reaching, take responsibility or not, but to even claim because you're a fellow conservative, you deserve no correction, IMO is just more reason to correct this situation. I'll let it go as you would rather not see the wrong here, and if responsibility is inconsequential to you, it paint's a pretty picture now doesn't it.",fk7ds32,Brief_Contribution,5538nj8t
"My god. If anybody reached, it’s YOU, assuming OP was talking about abortion when OP mentioned nothing of the sort. 

Did you ever stop to think WHY his feelings would be different between miscarriage and death after birth??

Let’s agree to disagree. The debate is inconsequential.",John-Kreese,55pw4slb,fk7d2ks,"I'm not here to jump on a fellow conservative in the slightest, but you're reaching, in the sense OP said nothing of what you described as OP's opinion. Which makes me take it as your opinion, if so it's not the best opinion on the subject, I will say that. To claim I didn't read OP's comment when I clearly responded to it in a way that say's I read it, is just you dodging the fact your opinion of OP's comment is a reach and because someone calls it out, they must not of read said original comment is further reaching. Take some responsibility and not refer to early stages of life as clumps of cells, this is not warranted even if you want to reach and say this is what OP shooting for, when none of it was told in that fashion.",fk7cnlm,Brief_Contribution,5538nj8t
"Calm down. First of all. I don’t subscribe to that opinion that it’s a “clump of cells.” That’s why I referred to it the way I did. Let’s get that straight. 

Second, if you took the time to read OP’s comment, OP mentioned nothing about his baby specifically being killed by way of abortion. OP only mentioned death once the baby was born.

That would lead any prudent thinker to come to the conclusion that OP was NOT talking about miscarriage vs abortion, but whether or not the baby is actually a baby while in the womb. Especially since OP described his different feelings between the two. 

Before you start jumping all over a fellow Conservative, please do your due diligence first.",John-Kreese,55pw4slb,fk7c26k,"Clump of cells? Have you seen an ultrasound at 10 weeks in? It's literally a tiny human with all limbs, yet you claim it's just a clump of cells. The clump of cells you refer to are human cells not anything else. We all went through this process you refer to as a clump of cells to get where we are currently. OP never mentioned when miscarriage took place, nor did they refer to their wife's miscarriage as a clump of cells. This is all from your mindset, please tell us more about how you feel when it comes to the earliest stages of human life as being nothing more than a clump of cells. I'm all ears, but please don't state something that OP didn't say and try to justify your awful declaration on OP.",fk7be6r,Brief_Contribution,5538nj8t
"Haha. I hadn’t done it yet. I guess I needed to be prodded with the ol’ “I triple dog dare you”

I’ll do it now.

Edit: my account isn’t old enough. Mod bot instantly removed it.",John-Kreese,55pw4slb,fk7a5y8,Update?,fk7a3bl,majnyx,1mlmp8ps
"I think OP is referring to the opinion that the miscarriage is a clump of cells that is discharged, and that a baby dying outside the womb or some time after birth is more emotionally painful. 

Basically, OP is NOT talking about miscarriage vs abortion. OP is talking about clump of cells vs human being.",John-Kreese,55pw4slb,fk79yq7,"Maybe because choice was off the table, miscarriage is not abortion. Do you prefer miscarriage or abortion over the child living and growing up to be an adult.",fk78x8x,Brief_Contribution,5538nj8t
That’s a conversation best left for you and God.,John-Kreese,55pw4slb,fk7983c,Why is it that I felt less sad when my wife had a miscarriage than I would have if my (already born) child were to have died?,fk78o3j,zg33,uatyq
"Johnny is a recovering dope addict, and it would really help his self esteem if he had a new smile. How can he expect to be gainfully employed dealing with the stigma of his past? /s

Leftist logic: Providing Johnny with a new smile is cheaper than paying welfare benefits.",John-Kreese,55pw4slb,fk78sy2,"How long until they decide you have a ""right"" to a mouthful of porcelain crowns?",fk78cyq,SgtFraggleRock,1ho7udul
Shall we see how it goes? I’ll post it.,John-Kreese,55pw4slb,fk7600y,If this was on /politics they would bemoan how cruel it is to withhold dental care from disadvantaged people who have a right to healthy teeth by first making them work.,fk75x63,Bawk-Bawk-A-Doo,1bbfi1e
"Trump has removed 22 regulations for every new regulation implemented. 

He spends money. I’ll give you that. It’s the only thing I don’t approve of in his first term. 

To be fair, his trade wars will benefit the US in the long term at the cost of short term pain. 

Still too much spending, though, in my opinion.",John-Kreese,55pw4slb,fk6dp4a,If conservative is supporting small government then how do you go about supporting trump? Would you not say that he has expanded government more than most?,fk6csia,uncoveringlight,dhhjp
"Because, sOciaLiSm",John-Kreese,55pw4slb,fk6ap85,"Medicare has the highest copays! 50 percent out of pocket for ANY SPECIALIST ! MEDICARE  IS THE LEAST ""FREE"" healthcare program. Why is the news not reporting this?",fk6aacp,Clem422,4ryh0dbd
"You’re right in their perception of Obama or any black, for that matter. They judge people based on racial tropes. If you’re black, you must act a certain way, speak a certain way, you must be poor, in addition to being racially black. 

But I can be all those things without being racially black, and yet, I won’t be “black.” 

My point is, it’s not enough for these people for a person to be racially black. You have to validate the tropes. 

Black is black.",John-Kreese,55pw4slb,fk0vheq,"Obama didn't grow up in a black community- much less an urban one. And yeah- are you saying that black people in some ways don't have their own culture? Obama didn't grow up in that culture. I don't know if you're looking for some kind of gotcha, but Jesse Jackson isn't wrong. 

Even Biden is quoted as saying, ""I mean, you got the first mainstream African-American who is **articulate and bright and clean and a nice-looking guy**. I mean, that's a storybook, man.""

That in a nutshell describes how white and black liberals perceived him. Biden was just stupid enough to say it out loud.",fk0od81,EraGodLess1976,4qehye75
"So, outside of actually being black, there’s a stereotype one must subscribe to in order to actually be “black” enough?",John-Kreese,55pw4slb,fjz3lqw,Barry's half-white and raised by his white family. It's not that hard to figure out what he was talking about.,fjz1mes,EraGodLess1976,4qehye75
Boom!! I love it.,John-Kreese,55pw4slb,fjyq2lp,How many conservatives have you actually gone out and met?,fjy0sy9,TheDailyCosco,30vro8jr
Plastic straw men. None of that pansy-ass paper straw man bullshit. Plastic!!,John-Kreese,55pw4slb,fjypz3x,Goddamn you Conservatives are really on the ball knocking down these strawmen! Keep it up fellas.,fjy73b1,LeeStromn,y21tcap
"Because they demand special treatment as a protected class, they demand we subscribe to their nonsense, and they demand we give them rights that others don’t have. 

Males demand to use female restrooms. Males demand to be able to participate in female sports. No. We cannot allow that. 

If they want to delude themselves into thinking they’re something they’re not, they can have at it. Don’t force me to participate in the nonsense.",John-Kreese,55pw4slb,fjylnim,"Q u e s t I o n ?

If you have a problem with someone identifying themselves as trans, why would that be?

If you claim science, then why don't you just let them be delusional? After all, gender studies and the idea about it is a pseudo-science. 

If someone asked you to call them Sir or Ma'am, why would you care? If you go against their wishes, isn't that just choosing to be rude?

You claim Genders are an absolute and not a construct. Then why do we have two terms for the same thing? ""Gender"" + ""sex"".

I believe in a lassez-faire ideology. Why can't you just let people live how they like to live and respect it. Just like how the black communities have to live within areas that have Confederate statues.

I just find going against this sort of stuff is reactionary, but what can you do, conservatism is reactionary. There's nothing wrong with that, but I kinda find tiresome.",fjy935f,bitedamn,wznse
"Don’t jump to conclusions here. First of all, nobody has a permit to carry in NJ. Well, a very minuscule amount of people in the state have that ability. So few, in fact, that an officer will go his entire 25-year career and never encounter one. 

Ergo, when police encounter hand guns in NJ, they assume automatically that it’s unlawfully possessed until proven otherwise no matter who is in possession of it. Is that right? No, but it’s what it is. The state created that culture and mindset, and that’s how they want it. They hate guns here.",John-Kreese,55pw4slb,fjykonz,"Let's not kid ourselves here, this happened because the guy was black.  Legal black gun owners have the same gun rights as the rest of us.  So much for tolerant New Jersey.",fjxhe5u,joozian_,fk0z2
">When a school finds the lowest cost background check is it reliable?

When a crime is committed, the defendant is fingerprinted. Each time a defendant is printed, a record is created in the NCIC database. All criminal history checks go through the NCIC national crime database. It’s the same system law enforcement and the judiciary use. It’s administered by the FBI and overseen by each state’s State Police. If that’s not reliable, then nothing is. 

>I completely agree more government almost never improves a situation, but this is a single step that happens once before employment. It isn't something they have to prove every morning before entering the building.

I don’t understand what you’re saying here. What employer checks the sex offender registry every day/week/month/quarter/year? Nobody is that vigilant.

And as the employer, what’s stopping you from performing a periodic criminal history check if you’re that paranoid? Moreover, the criminal history check will encompass more than just sex offenses, so it’s a lot more comprehensive. You probably don’t want a teacher working around kids if he’s been arrested and charged with a hate crime while employed at the school. Sex offender registry won’t catch that. 

And if your employee is arrested and charged with a sex crime, and your place of business is one of those restricted areas for sex offenders like a school, you will most likely get notification from law enforcement and/or the courts.",John-Kreese,55pw4slb,fjyiuc3,"What about a parent that wants to protect their children? They have a resource to identify houses and neighborhoods to avoid or warn their children about. You'd have to sell me on the efficacy of background checks before convincing me another explicit check for a crime that is incredibly more common at a school isn't needed. When a school finds the lowest cost background check is it reliable?

I completely agree more government almost never improves a situation, but this is a single step that happens once before employment. It isn't something they have to prove every morning before entering the building.",fjy10x6,ngoni,86rj0
"I think everyone here has a hand in the insanity. 

New Jerseyans are a strong believer in “home rule”— a concept that has each and every municipality in control of their own police force, fire department, public works, water & sewer, and school district. So instead of service consolidation, say, at the county level, 565 different municipalities control their own destiny. 

“Home rule” is a very expensive proposition, but the politicians are more than happy to try and make it work for us. 

We seriously need to incentivize service consolidation. The problem is, mainly, the school districts. People move to certain towns for the good schools, and NJ has some of the best-rated public schools in the country. People are proud of how good their schools are, have spent a lot of money to move into those districts, and if you try to take that away from them, there would seriously be a revolt.",John-Kreese,55pw4slb,fjujva2,N.J. is punishing it's residents for living there?,fjuh8jc,MrMotely,38zphp5k
"Have you seen the maps created by these lists? There’s perverts, literally, everywhere, pretty much rendering the list/map useless because it’s unavoidable. And I could be mistaken, but I think those are just the mid to high tier offenders. The low tier offenders have an element of privacy that they’re entitled to. 

Whatever. We’ll agree to disagree. Just something to think about. It’s hard to show sympathy to a pervert, I know. My instinct is to have even worse done to them. I just try to look at it from 30,000 ft. Ineffective, double punishment, and a burden on our police.",John-Kreese,55pw4slb,fjtx697,"I agree with you in a way. There honestly is no way to prevent anybody from committing crimes at all. Whether it’s pedophilia or literally anything else.

But when a parent is living with their kids in a certain area or maybe even planning to move, they will want to be aware of these things. That’s why they can find a list on their local police department’s website. It lets parents be cautious and aware of anybody who may be looking to harm their children.",fjttrnf,gonzaliz,38fa3gys
"How does the list stop said pervert from going to a park and doing what it is he does just because he’s prevented from living next to it?

Would it stop him from getting a job as a janitor at an elementary school? Maybe, but so would a criminal history check. 

Would it stop him from having unsupervised visitation with his kids? Maybe, but so would a criminal history check. 

I can acknowledge recidivism without creating a burdensome, ineffective registry that acts as another punishment after someone has already served their prison time.",John-Kreese,55pw4slb,fjt3862,It acknowledges the compulsive recidivism and horrific impact these criminals represent. Don't let perfect be the enemy of the good. It is next to impossible to quantify a crime that didn't happen.,fjt1fu0,ngoni,86rj0
"Lemme ask you something. Did you just think of that shit when you were sitting there eatin’ that muffin?

[clip](https://youtu.be/YujYTVQ4_S0)",John-Kreese,55pw4slb,fjszn0d,"Every once in awhile, Bill Maher has what alcoholics call; a moment of clarity.",fjsqicl,EraGodLess1976,4qehye75
"Bill Maher, for all his disgusting views, has been a staunch defender of the First Amendment and has repeatedly sided with Conservatives time and again when it comes to Free Speech and denouncing Cancel Culture. 

**He’s very consistent on this issue**.

Do I agree with him on anything else? Mostly, not.",John-Kreese,55pw4slb,fjsxzlh,He’s only doing this because they’re bro’s. If it was a republican he would be on the attack,fjsrenq,CCCmonster,10ad77
"Depends on the tier level. They still have certain privacy rights. 

If a guy just took a girl home from a party who said she was 18, but wasn’t, and everything was otherwise consensual depending on what took place, he’d be a low tier.

If the guy is one of those jump-outta-the-bushes-on-the-female-jogger rapists, yeah, neighbors are usually notified when he moves in.",John-Kreese,55pw4slb,fjswdtp,Arent you supposed to notify like your neighbours and stuff? Idk anything about it,fjsux68,Dududududududududuel,42hobnf6
"He’s playing the role that Murkowski, Collins, Flake, and McCain all love/loved playing. 

In so doing, they become the most powerful senator in the senate during their holdout. 

And if they follow through on their threats to buck the GOP, they’re given 72 virgins by the mainstream media",John-Kreese,55pw4slb,fjo50bs,Is he so clueless?,fjo1lsz,jjharveyca,3yas29er
">Mueller said he couldn’t charge Trump due to the DOJ not allowing it.

No shit, Sherlock. You come late to the party and drop that weak ass shit in here? 

The question is, WOULD he have?

Read the thread, Sherlock. I can’t be proving you guys wrong all day long. It’s exhausting.",John-Kreese,55pw4slb,fjn6x9f,Facts are not your strong suit.  Mueller said he couldn’t charge Trump due to the DOJ not allowing it.  End of fucking story.,fjn5bb7,Modurrrrator,37mes2iu
Read the thread. It’s there for all of you to indulge in. I can only prove you guys wrong so many times. There’s too many of you. I’m not going in circles with you too. Sorry.,John-Kreese,55pw4slb,fjn2gpq,Dude thats bullshit. Youve been proven wrong and the comment i just pasted is from the report and directly states why you are wrong and refutes your literal argument.,fjn237h,Bnasty5,mf1a5
"Did you deliberately omit the rest of the testimony to suit your argument? 

Mueller retracted that statement.",John-Kreese,55pw4slb,fjn1uzc,"Ted Lieu
> I believe a reasonable person looking at these facts could conclude that all three elements of the crime of obstruction of justice have been met, and I'd like to ask you the reason, again, you did not indict Donald Trump is because of the OLC opinion stating that you cannot indict a sitting president, correct?

Robert Mueller

> That is correct",fjmd1or,antyher0,9lss1
Read the thread. I can only post it so many times.,John-Kreese,55pw4slb,fjn1b6z,"\> Because we determined not to make a traditional prosecutorial judgment, we did not draw ultimate conclusions about the President’s conduct. The evidence we obtained about the President’s actions and intent presents difficult issues that would need to be resolved if we were making a traditional prosecutorial judgment. At the same time, if we had confidence after a thorough investigation of the facts that the President clearly did not commit obstruction of justice, we would so state. Based on the facts and the applicable legal standards, we are unable to reach that judgment. Accordingly, while this report does not conclude that the President committed a crime, it also does not exonerate him. 

&#x200B;

This passage litteraly describes what you keep talking about but fail to understand. This is Mueller stating that no judgement does not mean he didnt commit the crimes but if it was clear he didnt they would say so. What are you missing here",fjn169g,Bnasty5,mf1a5
"Do you even know what you’re talking about? Here, read this:

[Special counsel vs. special prosecutor: What's the difference?](https://www.usatoday.com/story/news/politics/onpolitics/2017/05/18/special-counsel-vs-special-prosecutor-difference/329016001/) 

TL:DR. It’s semantics— like I said.",John-Kreese,55pw4slb,fjmbylq,You were already told the difference. A Special Council *can* exonerate. Muller didnt.,fjm9qnp,rmwe2,obisiyy
">You mean like Donald Trump did last week? Hippocrates, Hippocrates! Come see this!

Hippocrates was an ancient Greek Doctor. What are you talking about?",John-Kreese,55pw4slb,fjmazy3,"You mean like Donald Trump did last week? Hippocrates, Hippocrates! Come see this!",fjmaboj,Kattomatte,n9e5j
"And round and round we go with you people. 

If the evidence was so overwhelming, 

1) Why didn’t he say so in his report? He never said it rose to a criminal level— only that it was troubling. If I’m prosecuting a case, and I find overwhelming evidence of what I’m tasked to find, I think I’m stating that in my report and confirming the accusation of Obstruction. 

2) Why didn’t Congress impeach him based on the report?",John-Kreese,55pw4slb,fjmakza,"That's not true.  If they had found no evidence, that would be exoneration.  He didn't find no evidence, and the fact that Trump repeatedly obstructed his investigation is telling.

Trump is guilty, and everyone knows it.  Not everyone is honest about it, though.",fjm9s6a,jcooli09,44237
"Semantics. “Special Counsel.” Explain to me the difference. Oh wait. There is none. 

>As a special counsel, Mr. Mueller can choose whether to consult with or inform the Justice Department about his investigation. He is authorized to investigate “any links and/or coordination between the Russian government and individuals associated with the campaign of President Donald Trump,” according to Mr. Rosenstein’s order naming him to the post, as well as other matters that “may arise directly from the investigation.” He is empowered to press criminal charges, and he can request additional resources subject to the review of an assistant attorney general.


[Source](https://www.nytimes.com/2017/05/17/us/politics/robert-mueller-special-counsel-russia-investigation.html)",John-Kreese,55pw4slb,fjm6j57,You do realize Robert Muller wasn’t “Special Prosecutor “ right?,fjm2p3g,Deliciousbabystew,3hp4bquy
">Don't act like this is a standard prosecutor / defendant thing going on here

I’ve acknowledged that. 

He didn’t have enough evidence to prove his case to the appropriate legal standard—period. 

If he had overwhelming evidence to confirm the accusation of Obstruction, he would have said so. At which time, Congress would have done what it is they do. 

He didn’t do that. In fact, he refrained from making any judgment either way, only describing the action as troubling. Troubling does not equal criminal. Impeachable? Congress didn’t think so.",John-Kreese,55pw4slb,fjm5kcn,"Except he said he literally cannot prosecute a president. Don't act like this is a standard prosecutor / defendant thing going on here, it absolutely isn't. He clearly said he'd have said if Trump was totally cleared of wrongdoing, he didn't just say that for fun.",fjm4zlw,Upgrades,505zz
"I didn’t say he could be charged. I said if he had overwhelming evidence to prove his case to the appropriate legal standard, he would have said that the president did what he’s being accused of. At which time, Congress would do their thing. 

He didn’t do that and refrained from making any accusation whatsoever— only that the actions were troubling. Troubling does not equal criminal. Impeachable? Congress didn’t think so.",John-Kreese,55pw4slb,fjm4d4g,"The president is above the law. You cannot charge him. So, yes, the special council can exonerate a president.",fjm3ir8,Royal_Garbage,5gcf7vta
">Because we determined not to make a traditional prosecutorial judgment, we did not draw ultimate conclusions about the President’s conduct. The evidence we obtained about the President’s actions and intent presents difficult issues that would need to be resolved if we were making a traditional prosecutorial judgment. At the same time, if we had confidence after a thorough investigation of the facts that the President clearly did not commit obstruction of justice, we would so state. Based on the facts and the applicable legal standards, we are unable to reach that judgment. Accordingly, while this report does not conclude that the President committed a crime, it also does not exonerate him.

Prosecutors don’t exonerate. Prosecutors prosecute. If the evidence was overwhelming in being able to prove his case of Obstruction, he’s a prosecutor, he would have stated so. At which time, Congress would have done their thing. 

He didn’t find sufficient evidence to prove his case to the appropriate legal standard, so he chose not to make any judgment based on the flimsy garbage he accumulated.",John-Kreese,55pw4slb,fjm3g6g,"Mueller testified before Congress that the only reason, **the only reason** Trump wasn't indicted was because the justice department cannot indict a sitting president. It wasn't ""we can't prove either way so oh well"" it was ""Trump did it but I can't indict because only congress can do that."" Tats from congressional testimony, you can go back and watch it if you don't believe me. He was asked very clearly if the only reason Trump wasn't indicted was because it lied outside the powers of the justice department and he replied yes, without any hesitation or doubt",fjm2alc,Toxxxic_OW,4vv0y3eh
"*Enemy of the State* with Will Smith, Gene Hackman, and Jon Voight.",John-Kreese,55pw4slb,fjm0td8,Who here thinks US Intelligence agencies will stop spying on Americans if FISA is allowed to expire?,fjlv55q,RedBaronsBrother,2n5itl1r
"Depends.

See [McDonnell vs United States](https://www.scotusblog.com/case-files/cases/mcdonnell-v-united-states/)",John-Kreese,55pw4slb,fjlrk98,throwing money at people is not a persuasive tactic its just bribery.,fjlqeb3,Xero03,kai118o
"Petitioning the government is protected under the First Amendment, and lobbying falls under that. 

And are the lobbyists at fault for lobbying? Or are the legislators at fault for succumbing to their persuasive tactics?",John-Kreese,55pw4slb,fjloh6t,argument is usually just remove lobbying.,fjlnxox,Xero03,kai118o
"https://www.reddit.com/r/politics/comments/fdf5zw/the_trump_epa_is_restricting_epa_science_its/?utm_source=share&utm_medium=ios_app&utm_name=iossmf

Yeah. Sounds about right. Like clockwork.",John-Kreese,55pw4slb,fjkgnil,"I'm sure the headlines will end up reading ""Trump bans science from EPA!""",fjkdnid,SgtFraggleRock,1ho7udul
">""Pay the price"" is such a vague term... It means nothing.  He has no power to do anything to suppreme court justices.

No? Politically, you are correct. There’s nothing he can do to them outside of impeachment. That’s what makes the threat all the more dangerous. 

Knowing there’s nothing he can do to him politically, what exactly does he mean by his threat while addressing a mob? A threat, mind, you, in which he unmistakably addressed his specific targets by name. Mob justice, perhaps?",John-Kreese,55pw4slb,fjkd48w,"I feel like Trump makes similar statements to this all the time and the media always blows it out of proportion, i.e. ""threats"" he made against Schiff.  

I think its all media razzle dazzle.  Even with Shifty Schumer.  ""Pay the price"" is such a vague term... It means nothing.  He has no power to do anything to suppreme court justices.   

I'm just frustrated at the media for shoving this drivvel down my throat.",fjkaj6f,epiben,13fomt
">What's really funny though is Schumer tried to walk it back later, saying it was clear he was saying the Republican Senate majority would pay the price, and shame on everyone for misinterpreting his ramblings

Yup. If he didn’t call out **by name** the target of his threats, I might give him the benefit of the doubt.",John-Kreese,55pw4slb,fjjz211,"Left-reddit was spinning Trump's saying 'RBG and Sotomayor should recuse themselves for being vocally anti-Trump' as the same thing as these threats. Some were even saying there's nothing wrong with threatening Trump's picks because they don't deserve to be there, and the left will try to remove them regardless of how they vote

What's really funny though is Schumer tried to walk it back later, saying it was *clear* he was saying the Republican Senate majority would pay the price, and shame on *everyone* for misinterpreting his ramblings

Edit: Now NPR's Nina Totenberg is equating Trump's calls for recusal with Schumer's calls for violence. Kinda sad how blatant the bias has become",fjjx57d,WeimarRepublic,7z36i
"Riling up an angry mob in front of the building where the two people you’ve threatened go to do the thing you’ve railed against is not the same thing as describing the despicable behavior of others and how it affects that person, his family, and the nation as a whole.

Slate is terrible.",John-Kreese,55pw4slb,fjjq6lm,"Slate's headline:  

# Roberts Denounces Schumer for Talking About Kavanaugh the Way Kavanaugh Talked About the Senate

&#x200B;

Of course Slate has been operating from Fantasyland since their inception.",fjj3399,Eli_Truax,hdrtx63
Threats? Hardly. Insults? Yes. Complaints? Yes.,John-Kreese,55pw4slb,fjjpuv4,This is interesting because Trump has definitely done equal through Twitter,fjjctxe,ThirdeyeReddit,nr173
"Yeah. Riling up a mob in front of the building where the people you’re threatening go to do the thing you’re railing against is not just beneath the role of Senate Minority Leader, it’s dangerous knowing how crazy people have acted on both sides of the issue.",John-Kreese,55pw4slb,fjjpguv,Already gotten a DM about this. Haven't heard back since I explained why his premise was wrong about merely repeating what Kav said.,fjisq33,Sideswipe0009,1uhrusu4
"It takes a vill... ya... ya... you know, that thing.",John-Kreese,55pw4slb,fjjogx5,Can I stop paying school taxes then because I don't have kids?,fjjo25e,Ykesha,6r7su
"Roberts explicitly said regarding an insult from Trump, “We don’t have any ‘Obama judges’...”",John-Kreese,55pw4slb,fjigkpp,Trump has attacked liberal Justices many times and I don’t remember any “rebukes” then.,fji4nqv,NAmember81,ed302
Thomas has been raging over the power of the “administrative state” for years and has been very vocal about his dissatisfaction regarding SCOTUS refusing to take up 2A cases (assuming Thomas would like to rein in gun control).,John-Kreese,55pw4slb,fji6owo,Why? He's the one leading the fight on strengthening the separation of powers. That's a pretty big deal.,fjhl8ou,Silverblade5,1zal7yj
Hate chicken.,John-Kreese,55pw4slb,fjgex6s,"If they gave away a free chick fil a sandwich with every vote, they would show up.",fjgeqbv,BaltSuz,9ydlki8
"I thought it was a blessing when Trump signed the $10,000 cap. I got clipped by it, but only by a few hundred bucks. So it didn’t hit me as hard as some. I figured, finally, these motherf—rs lost their political cover to keep raising taxes. 

It really put the Dems here on blast. But the Dems, predictably, won big here in 2018 as a protest vote. It’ll take time for the people here to see where the real problem is. They haven’t felt the pain long enough yet to have that moment of clarity. At least, I hope so. 

Murphy, however, is doubling down on tax increases in his new budget. It’s unreal.",John-Kreese,55pw4slb,fje3ea3,This shit just blows my mind. All I ever hear from New Jerseyites is how shit their local governments are and how overbearing their taxes and CoL is... and yet they continue to blame it on someone else when it matters come election season. It seems like all of the reasonable people just leave eventually.,fje24y5,MackMizzo,dutyp
"Actually, I think he’s going for the House seats. There’s a few vulnerable Dems here, including Andy Kim (D), NJ-3. That was a seat held by Tom MacArthur (R), a staunch Trump guy, and John Runyan (R) before that. 

If he wins the state, which I doubt he will, it’ll be a bonus.",John-Kreese,55pw4slb,fje1ik7,"He's going for 40+ states, gotta try. 
He should have rallies in every blue state.",fje0y8z,theInteriorDesigner,bnbwih3
"The TDS is strong here, in part, because of the state and local tax deduction cap. 

New Jerseyans love the concept of Home Rule—a bunch of little towns scattered all over the state with their own little governments and school districts.

This makes property taxes outrageously expensive. The tax deduction cap hit this state hard. Instead of blaming Democrat rule for allowing this to happen over the course of decades, they blame Trump for costing them money in the short term.",John-Kreese,55pw4slb,fjdy2ra,"If it’s Sanders, he can totally win NJ.",fjdx52v,findthewarmspot,14ofk6
"They’re not babies in their eyes. It’s just a fetus or clump of cells. 

(Their argument, not mine)",John-Kreese,55pw4slb,fj8qtoj,How come the left claim they love human rights while asserting killing babies is good and deporting criminals are bad?,fj8lus8,dkffprtltm,5nm0crnj
"You NJEA? If so, he took your money. 

Remember, there’s always [Janus.](https://en.m.wikipedia.org/wiki/Janus_v._AFSCME)",John-Kreese,55pw4slb,fj8n12h,"Am a teacher in NJ. This guy campaigned on some pressure relief in education and has signed literally zero legislation since taking office. Fuck Chris Christie, but Phil Murphy is a smug do-nothing two years in.",fj8mklh,ERYKAH_BADONT,38z5waog
"It can be abused, like anything else. 

The alternative, as some have mentioned in this thread, would require Probable Cause AND a warrant (per 4th Amendment) to seize (detain) that person temporarily in order to confirm or dispel criminality. It’s the dumbest thing I’ve ever heard, and I feel dumber for even trying to explain that side to you.",John-Kreese,55pw4slb,fj8jrne,"Your description is a lot more reasonable than just stopping random people, thanks for the clarification. I can see the other side though, because police officers have been known to stretch things. Like how when a police officer wants to pull somebody over, technically they need a reason, but there's so many little things they could use as justification to pull you over that they might as well just be able to pull anybody over at anytime for no reason. The line just seems very subjective, that's all I'm saying",fj8j26e,davetn37,bwrbem
"Reasonable suspicion is a lesser standard, yes. But just because the standard is less, doesn’t mean it’s no standard at all. 

It’s not as if the officer who stops for Reasonable Articulable Suspicion (RAS)— the actual term— is stopping that person at random and for no reason. There’s a totality of the circumstances at play. 

>What time of night is it?

>Is the area not well lit?

>Is it a high-crime area?

>Is it near a closed business?

>What’s the person doing?

>Is he loitering?

>Is he looking around to see if he’s being watched?

>Is he hiding his face?

>Is he peering into windows?

>Is he wearing heavy, bulky clothing when it’s hot?

>Is he carrying anything peculiar?

>Is he taking photos of odd things/places?

None of these things, on their own, would raise an eyebrow. Marry a few of them together, and you have a little more— RAS. It’s something worth checking out— confirm or dispel criminality. 

Wouldn’t we want somebody checked out if they’re milling around on the sidewalk in front of your suburban home, hiding his face, in the middle of the night, and looking around frantically to see if he’s being watched? That’s RAS.",John-Kreese,55pw4slb,fj8iip0,"I'm not taking sides, but isn't probable cause a higher legal standard than reasonable suspicion? If so,  I don't think it's out of bounds to be agaisnt one and not the other. I think the idea of the argument is that if you're walking down the street minding your own business a cop shouldn't be able to stop you just because you could have something in your pocket. Please correct me if I'm wrong",fj8fbdy,davetn37,bwrbem
"It’s warrantless. For somebody who [claims](https://www.reddit.com/r/Conservative/comments/fc156z/black_voters_turn_their_backs_on_mike_bloomberg/fj89qj7/?utm_source=share&utm_medium=ios_app&utm_name=iossmf) to hold their Constitution to the strictest, most literal sense, that’s technically, based on your logic and interpretation, unreasonable in terms of the 4th Amendment. 

Just because Probable Cause exists, based on a strict, literal interpretation, that officer would have to go to the courthouse and swear or affirm under oath in front of a judge, who then determines if PC exists, and issues the warrant. 

Then, and only then, can the officer make the arrest under a strict, literal interpretation. 

Based on your strictness, if a police officer saw a man beat you over the head with a baseball bat, and rob you of all your money and valuables in broad daylight on a city street, he couldn’t do anything unless he first sought a warrant for his arrest. 

See how unreasonable that is?? I’m all for strict interpretation and originalism, but **letter of the law has to allow for the spirit of said law.**",John-Kreese,55pw4slb,fj8ggnn,That’s probable cause.,fj84smx,Doctor-Jan-Itor,4y0h0h99
"Let me see if I understand what you’re saying. 

You ARE NOT ok with a temporary investigative detention based on reasonable suspicion, declaring same unreasonable in terms of the 4th Amendment. 

But...

You ARE ok with a police officer making the stop if probable cause exists?",John-Kreese,55pw4slb,fj8av7s,"Detention is arrest, even if just temporary. It is a violation of one’s freedom. You may not be cuffed in the back of a car, but being detained is a form of arrest. 

You said probable cause *wasn’t* the only standard for police to stop people (read: detain), but that they needed more leeway to prevent crimes before they happen. 

Ergo, why not just arrest everyone so we prevent all crime? Detaining a free citizen without probable cause is unlawful arrest. 

And just because the judiciary said police can do whatever they want doesn’t make it constitutional or justified. 

And yes, I am strict on the constitution.",fj89qj7,Doctor-Jan-Itor,4y0h0h99
">It’s the extreme of your line of thinking.

No. No it is not. 

>If you can detain someone without probable cause, then the logical result is to just lock everyone away before they can do anything.

No. No it is not. 

If you go back to my [original comment](https://www.reddit.com/r/Conservative/comments/fc156z/black_voters_turn_their_backs_on_mike_bloomberg/fj81kfh/?utm_source=share&utm_medium=ios_app&utm_name=iossmf), of which I stand by 100%, you will see that I specifically stated that PROBABLE CAUSE is needed to make an ARREST or full SEARCH. 

In order for someone to be “locked up,” they must first be arrested. Merely stopping someone for REASONABLE SUSPICION does not constitute an arrest. 

>The right of the people to be secure in their persons, houses, papers, and effects, against unreasonable searches and seizures, shall not be violated, and no Warrants shall issue, but upon probable cause, supported by Oath or affirmation, and particularly describing the place to be searched, and the persons or things to be seized.

The question is whether or not an investigative detention is “reasonable.” Based on your strict, literal interpretation of the 4th Amendment, if you want to get technical, a police officer should stop and seek a warrant before any search or seizure is undertaken. An investigative detention, like an arrest, is a seizure. 

That’s ridiculous on its face. Even in 2020 when a police officer, if permitted by the judiciary, could feasibly seek a warrant telephonically via cell phone. 

If you don’t think an investigative detention is reasonable in terms of the 4th Amendment, I don’t know what to tell you. It sounds like some sovereign citizen “I’m allowed to travel” bullshit.",John-Kreese,55pw4slb,fj86e6l,"It’s the extreme of your line of thinking. If you can detain someone without probable cause, as you said above you’re in favor of them doing so as to prevent potential crime, then the logical result is to just lock everyone away before they can do anything.",fj84y9e,Doctor-Jan-Itor,4y0h0h99
">Better lock everyone in prison for potential crimes they haven’t committed then, eh?

Huh? What the hell are you talking about? Who said anything about locking people up for “potential crimes,” or locking anybody up for that matter?

The topic was **investigative detentions.** Stay on topic.",John-Kreese,55pw4slb,fj82s9r,">	If police could only stop for Probable Cause, they’d never stop any crime before it occurred.

Better lock everyone in prison for potential crimes they haven’t committed then, eh?",fj81t4y,Doctor-Jan-Itor,4y0h0h99
"No. If police could only stop for Probable Cause, they’d never stop any crime before it occurred. 

“Reasonable Suspicion” has been the standard for **investigative detention** since [Terry vs Ohio](https://en.m.wikipedia.org/wiki/Terry_v._Ohio), I believe, in 1968. With that, comes the “Terry pat” or “Terry frisk.” You cant expect a police officer to stand there defenseless, waiting for Probable Cause to trigger before performing a frisk, or even a stop, for that matter. 

Probable Cause is needed for an arrest or full search. 

I agree with how Giuliani carried out his policy. It wasn’t “Stop & Frisk”, which is a common misnomer brought about by anti-police activists. It was “[Stop, Question, & Frisk](https://youtu.be/lyZCdPamD3g).” That “Question” aspect of the policy creates a distinct difference, Constitutionally speaking.",John-Kreese,55pw4slb,fj81kfh,The ONLY correct stop of civilians by police is with PROBABLE CAUSE. Random stops without probable cause is just authoritarian police state tactics. Constitution loving conservatives should thoroughly reject abuses of constitutional rights,fj7xuzl,CCCmonster,10ad77
"That’s been the error that has hurt him the most while in office. His failure to perform a complete purge of the Executive Branch will haunt him well into his second term— and possibly after, if all their sabotage leads to them filing criminal charges for some bogus charge(s).",John-Kreese,55pw4slb,fj7yjiz,One of the big issues is that Trump cannot trust the CDC that they will not politicize it.,fj7xsq9,dankhorse25,5g07smxd
">Why can’t the Dem supporters see any of this BS?

I think most do. It’s either denial or a whatever-it-takes mentality to get orange man out of office. 

I was talking to my sister-in-law who happens to be a Democrat, last night. She said she’s ready to vote for Bernie over Trump, and she doesn’t even like Bernie or what he stands for. Usually I’d jump at the chance to spar over politics, but the TDS is strong in her.

Edit: And she’s no dummy in terms of academics. She’s “educated” with a graduate degree.",John-Kreese,55pw4slb,fj6nxvr,“The left is using the (insert words here) as a means to crash the economy”. Why can’t the Dem supporters see any of this BS?,fj6nace,maytrav,zstkk
"I think it’s quite obvious that he’s calling **the reporting of the virus** a hoax— not the virus itself. The virus is what it is. 

The Left is using the virus as a means to crash the economy via consumer confidence, knowing that’s their only path to beating the president. Will it work? I don’t think so. In the end, it’ll be in the trash bin of failed schemes in the corner of the media war room along with Russia Collusion and Stormy Daniels.",John-Kreese,55pw4slb,fj6eooo,He held an entire press conference about it along with the CDC and HHS. Anybody who says that he called the virus a hoax is being intentionally disingenious.,fj6e685,jivatman,3wt30
"The Left are a bunch of warmongers, even though they claim otherwise. 

They will not like this.",John-Kreese,55pw4slb,fj3ng06,"I can’t wait to see how the left is going to spin this as negative, or just shove it under the rug",fj3kk71,b5_avant,tk00sap
"Yeah, I contribute regardless with my deferred compensation plan at work, but this will improve my dollar-cost averaging.",John-Kreese,55pw4slb,fj1kxj2,Wait for the stocks to start picking up again and then invest like h*ll.,fj1k42q,bullseyes007,5encvgy
"Slippery slope.

The logical next step would be to offer minority-owned and/or gay-owned search criteria. 

This is how stupid they are. If you click all those boxes in your search, then search “All”, you know exactly which is white, heterosexual male-owned.",John-Kreese,55pw4slb,fj1f10d,Imagine if they added an option to search for white heterosexual-run businesses.,fj0raml,tenshon,9t4q6
