child_body,child_screen_name,child_user_id,child_tweet_id,parent_body,parent_tweet_id,parent_screen_name,parent_user_id
"Ahh, the N95 masks I use for construction work never have the exhaust valve, so that's a good point.",KnightKreider,179mub,fkri16g,"Those masks are only good for a few hours, after that, they are saturated and no longer offer protection. if they have the exhaust valve they are worthless for protecting others. But good for you, still only work for so long though.",fkr3yk2,XxSCRAPOxX,a80hu
Try to keep 1 though in case you do get sick and need to protect others around you.,KnightKreider,179mub,fkr0v4t,"Does your wife work in a hospital in London? I’m sitting on about 50 3M FFP2 masks (my mother bought them for me in a panic over a month ago), and I’m not using them. I know they’re just a drop in the bucket, but I’m happy to donate them if they’re useful.",fkqwovn,chisquared,5vjgd
"Interesting. A search turned up this though, which sounds pretty similar :

Can Briviact cause depression?

BRIVIACT can cause mood and behavior changes such as aggression, agitation, anger, anxiety, apathy, mood swings, depression, hostility, and irritability. Irritability and anxiety are common with BRIVIACT, and can be severe.",KnightKreider,179mub,fjznpbk,"I take Briviact which is a Keppra derivative.  It's a controlled substance too.  The reason why is because a certain percentage of people in the trial said it made them feel better.  If an AED makes someone feel better it shouldn't be controlled without proof that it was because it treated the symptoms.  Brivaracetam is closely related to Leviteracetam, but it doesnt make you rage out, so it's a controlled substance.",fjwk96i,jsmith1529,2ehgpatu
Never heard of that one. I wonder why it isn't used more. I assume it's less effective for most people?,KnightKreider,179mub,fjxipq2,"I take Briviact which is a Keppra derivative.  It's a controlled substance too.  The reason why is because a certain percentage of people in the trial said it made them feel better.  If an AED makes someone feel better it shouldn't be controlled without proof that it was because it treated the symptoms.  Brivaracetam is closely related to Leviteracetam, but it doesnt make you rage out, so it's a controlled substance.",fjwk96i,jsmith1529,2ehgpatu
It's a short clip though. Was there more context?,KnightKreider,179mub,fjxil4f,"That’s a twoferone gaffe there. 

1) We cannot win this re-election. 

2) We can only re-elect Donald Trump.",fjwjfcd,CannabisBarbiie,3fpz2gem
"I didn't even ask you to prove anything. I asked you to simply explain your reasoning, which appears to simply be ""lol fucking morons.""

The counter to your statement are anti-Asian policies, e.g. college admissions policies, created and still supported by Democrats.

https://www.latimes.com/opinion/op-ed/la-oe-yoo-asian-american-bias-harvard-20180624-story.html

This is how you should be trying to communicate your opinions with fellow humans duder.",KnightKreider,179mub,fjxe4pw,"You want me to explain why liberals don’t hate asians?

Seriously? You expect me to give the time of day to fucking moronic comments?",fjwvv4x,DistopianNigh,13mh3k
Care to explain your reasoning?,KnightKreider,179mub,fjwbqt6,LOL I’ve never seen such a stupid fucking comment before. And that’s saying something,fjw87b4,DistopianNigh,13mh3k
Oddly enough I'm older and don't remember this at all,KnightKreider,179mub,fjvydrj,"My 37th birthday is tomorrow.
I remember this at night.  The old is really setting in.  My poor heart.",fjvddvx,razorbladedesserts,53m1esy7
"Pro life conflicts with abortion. Having seen the miracle of life at what I believe most call an early stage of life, I better understand THEIR point of view. I think we all should strive to better understand each other.",KnightKreider,179mub,fjiqyfr,"You made it sound like pro-choice conflicts with the joy of pregnancy. Read again.

Edit: 'Upset' was the wrong word but I'm not inventing anything as far as the peculiar wording.",fjiptpj,HowTheyGetcha,6y5c8
Where did I say I was upset?,KnightKreider,179mub,fjip6ie,"Wtf pro-choice is not an anti-baby position, why would you ever be upset?",fjiouri,HowTheyGetcha,6y5c8
"Fuck yea, keep it up bud! We're all rooting for you!",KnightKreider,179mub,fjii3pa,"As someone who was diagnosed with terminal cancer (advanced stage 4 Melanoma) and given a life expectancy of 4-6 months, I find this video very inspiring.  I also hope to inspire others in similar situations because my diagnosis was 17 months ago and my 5+ year survival expectations were recently increased to 50/50.

Edit: Thanks for the bling!  Totally unnecessary, but it made me smile. :-)",fjha60d,wildgumbo,14au3x
Got to have some to blame other than no one believing any of bernie's plans are feasible or pragmatic.,KnightKreider,179mub,fjhd084,"No, that’s exactly what they’re saying, and it’s utter stupidity.",fjh3t0f,TIMMAH2,ah7uk
"Depends on how much we spread things out. If you can slow down the spread over time, you can treat more of the infected. Number one priority has to be to slow this down and buy us time.",KnightKreider,179mub,fjgixj7,"I think people are forgetting something... if COVID-19 infects tens of millions, and 5% of those need ICU treatment, the death rate will be much higher than around 2%",fjgiflq,julsboo25,4lu906n9
"I wasn't being sarcastic. If you're sick at home, you're going to need new content eventually and if you feel like shit your not going to care about the $10-20 dollars to make life slightly less miserable.",KnightKreider,179mub,fjgi42p,Ya arent people at home with the flu the target market for people open to changing services? When else are most adults gonna be able to work through their queue.,fjg4gu2,SwivelSeats,3iqn4ke5
Yea 70% alcohol. Higher percentage evaporates too quickly I heard.,KnightKreider,179mub,fjd3zte,I read that rubbing alcohol mixed with aloe is a great substitute. In general hand washing is more effective.,fjd2pjv,squirrellywolf,11fq5q
I assume people don't believe me or something.,KnightKreider,179mub,fjczni3,Why the downvotes? I don't get it.,fj9czeo,Portentia9,o9l3hi
"True, but we also have antiviral medications and vaccines to help combat the flu, in addition to just decades of knowledge on how to treat it. Here we have our bodies only and a novel virus that doctors are scrambling to even understand. So yea, we probably shouldn't be hysterical, but this is a good gut check for how the world works react to an even bigger threat. I think it just shows how unprepared we are to contain outbreaks. It's an interesting problem though. How do you contain a virus without literally welding doors shut like Chinese?",KnightKreider,179mub,fjczm5r,"Yes, you are correct, and I should be more careful not to sound dismissive regarding those who are at risk.  

I’m trying to target the hysteria around corona which is becoming a big problem.  The regular flu is dangerous to the elderly and immunosuppressed, and we don’t panic about it.  We wash our hands, take certain precautions and stay home if we are sick.  Corona ups the stakes, but is not the potential plague that social and traditional media imply.",fjcfqme,wohrg,52ywchzn
"The more people infected, the faster the spread, the more people die. There are plenty of young immunosuppressed out there, not to mention the old people all mattering to someone still.",KnightKreider,179mub,fjcd3gp,"Nobody at bonnaroo is at risk.  Only the elderly are at risk.  

Doesn’t mean you want to transmit a bug, so wash your hands, but honestly, you’re much more likely to get in a car accident on the way to the drugstore than you are to suffer from this bug.",fjcc67h,wohrg,52ywchzn
True. Still far worse than the flu.,KnightKreider,179mub,fja3y15,No it’s 30x worse .1 X 30 is 3%. The fatality rate rn is 3.4%,fj9xln4,CoronaVirusSexy,5kw4ix0m
"The death rate of the flu is 0.1%, so this 20x worse. OP is sadly not right about that.",KnightKreider,179mub,fj9irg8,Yeah you’re absolutely right. Even if the patients were in their 20s and died the had a *severe medical condition* and the coronavirus just finished them off. Just wash your hands. It’s surprising how many people bought gas masks that they don’t need. At least you might be able to use it for cosplay or something.,fj9hges,bigboydoot,5m2zykg0
"I did not. I don't have pornstar girth though, just average. Though I guess I may not know what that is either now.
All I know is that it was a pain for awhile.",KnightKreider,179mub,fj92oek,"Bro 8 is in like the top 1% or less, that is massive. You know pornstars dont actually have 10 inches right.",fj91z0s,Bigmaynetallgame,1gfdumj7
That sub should just be called neverdrumphets,KnightKreider,179mub,fj90q82,"I felt Conservative was full of cucks. They did not like any thought outside of what the mods supported. You toed the line or got banned.

Edit: auto-correct",fj8h5w5,Reefay,pi8wr
"Doesn't need to be massive either. I'm at 8"" and have struggled with some relationships because of it.",KnightKreider,179mub,fj90hjx,Agreed. I don’t enjoy my cervix getting beaten to hell,fj8gjzm,VitriolicWyverns,38wp72f3
They got it either way,KnightKreider,179mub,fj8zkuo,"*You should go, Disney needs your money.*",fj8whg7,BentSemicolon,3su3fs1o
"I'm supposed to go Tuesday. Wife is saying we can't hide from this, so we might as well go. I'm however thinking that's a horrible idea. I'm only 40, in good shape, but I have a heart arrhythmia and two little kids who can't keep their hands out of their mouths.",KnightKreider,179mub,fj8tpqc,"I got a trip to Disney world planned at the end of March, guess that might not happen.",fj8qs62,jackjekcal,do3lo
"Source. What you're claiming goes against every health organization that I've read. Also I'm in my early 40s and have a heart arrhythmia and thyroid issues, despite being physically fit. I'm at high risk. Should we casually blow this off for the millions like me?",KnightKreider,179mub,fj6sefx,"That number is inaccurate, it's only dangerous to those who are immunosupressed or that get repeated infections. The deathrate statistic of individuals who get nCoV19 and are at high risk vs. those who get the flu and are at high risk is incredibly in favor of the flu being more deadly.",fj6oiqh,mellogello14,4pox05mx
It's 200x more deadly than the flu.,KnightKreider,179mub,fj6o0vd,"Not. It's not even as dangerous as the flu, and I've survived several flu's. If you're really concerned about it and want to learn more, listen to the This Week In Virology podcast, they have tons of episodes on the nCoV19 and Drs. Ranciello and Barker are great at making it easy to understand.",fj6nj2d,mellogello14,4pox05mx
"Ahh, really appreciate the info. Mine is on Keppra and only 5. Stay safe or there!",KnightKreider,179mub,fj5n19a,"Ugh I'm sorry, I can't find any sources but its something I remember my sister's doctor mentioning years ago. [Looking it up now](https://www.ncbi.nlm.nih.gov/pubmed/21542845), though, it seems some of them actually lead to immune hypersensitivity and adverse immune reactions...? Carbamazepine being one of those, and that's what she was switching to.",fj5lkyk,MastersJohnson,dqjlq
You should get this story to a news outlet,KnightKreider,179mub,fj5l2jr,"Anecdotal account here: my brother just got home from a trip from hawaii  from Feb 16-23rdish. Came down with something the last day of his trip. Came home to LA and had a horrible cough with some blood in the mucus. Went to the hospital, has pnemonia. He's a healthy 32 y/o and has pnemonia....Hospital says he didnt test for the common flu and wouldnt perform a COVID-19 exam until he sustained the pnemonia for 5 days (5th day will be tomorrow). I cannot begin to fathom why this case wouldnt be prioritized for testing of COVID? And the hospital sent him home to his pregnant wife and toddler...",fj4s7ns,6strangerdanger9,3cqixcju
My daughter has epilepsy. Can you elaborate on that risk? Is it more than the risk of being sick lowering seizure threshold?,KnightKreider,179mub,fj5km0e,"People with asthma, cancer, HIV/aids, diabetes... those with organ transplants... those on some anticonvulsants for seizure disorders... The list goes on. Honestly, the list of reasons that a person may be immune compromised (beyond just being old) is much larger than some people seem to think and it's a little upsetting that there's this idea of those people being acceptable collateral. These are people's loved ones we're talking about... It's nuts.   
   
The bottom of the article mentions that a long-term care facility has been compromised, 50 people are showing symptoms after being in contact with infected persons.
   
[edit] Oh yea. I forgot the largest cohort of immune compromised people - pregnant women.",fj4vkwe,MastersJohnson,dqjlq
"I feel like if the world just hit the panic button early, we could control this. The economy will recover.",KnightKreider,179mub,fj4gslq,"With Corona virus spreading throughout the world, the cases and death are bound to rise. Listened to WHO press conference yesterday and got disappointed when they said out of 6 billion population only 4000 or so have been infected. I mean China had done a great job but this is a just the start of the epidemic outside of China. Now that the virus is reaching other parts where the same kind of resources and measures aren't possible at all, it has the potential of being a huge public health problem.  

We should panic? Definitely not but should we be worried? hell yes.",fj2ol7k,1uamrit,15zxfzls
...and this is why it will continue to spread here in the states. The US just stated no one should be traveling there.,KnightKreider,179mub,fj4gnfq,"I feel you, my husband and I have a trip booked to Italy in April.",fj43irb,yukonawesome,n0z14oh
"He fucking started the chapter. What a load of revisionist bullshit. Yes he apologized for it when he was an old man, long after the Civil rights movement. He was still a racist.",KnightKreider,179mub,fj3sksb,"He was never that high in the organization, and he's apologized for it multiple times, denouncing his stupidity in his youth and working for the rest of his career to help POC.",fj3phhi,fastal_12147,5hr1p
Trump never called the virus a hoax. My God if we can't even stop the spread of disinformation how will we ever stop this virus?,KnightKreider,179mub,fj3gy6o,"It may be too late to stop it, but not too late to contain it, assuming they get off their butts and get point of care diagnostics up to speed. But I am not hopeful with Pence supposedly in charge and Trump calling it a hoax.",fj2s49j,vauss88,zywttp2
"He was still a klansman, a grand cyclops or something. That part was very real.",KnightKreider,179mub,fj3gocf,Also that pic on the right is photoshopped.,fj2zoz3,oh_turdly,42i63u1t
"Non-obese person here who used to be an athlete prior to injuries. I don't drink but recently was diagnosed with NASH. My enzymes are are typically just outside the normal range, with my AST sometimes normal and my ALT around 60. Max those get to 120-200 respectively.

Doc seemed to think it was nothing to worry about, but I didn't like seeing anything on the imagining. Is this reversible and is it really nothing to worry about? I started exercising consistently again and eat fairly well.",KnightKreider,179mub,fiz0w9q,"General practice physician in the US here. I was mentally prepared to see lots of elevated weight, waistline, blood sugar, blood pressure, and cholesterol (together called “metabolic syndrome”). What I was not prepared for, and I find truly disturbing, is how common non-alcoholic fatty liver disease (NASH) has become in this country. I’d say at least half of my obese patients had the the profile of elevated liver enzymes typical of NASH when I first tested them. Even worse at least 20~25% of non-obese but not-optimally-healthy adults I’ve tested have this lab pattern also. Liver damage takes a real toll on quality of life and life expectancy, and really curtails the options for meds, since most medicines are processed by the liver.

Stay in shape and lay off the fast food, fellow Americans, even if you’re not fat.",fixb6a4,hononononoh,13yhht
"Cool so you're a genocide denier too. I know the terms perfectly well and it's a bit ironic that you can't connect ""their holocaust"" and a massacre ""particular one aimed at Jews"".",KnightKreider,179mub,fiypjqn,"Wow, you have no understanding of the termins yet use them.

>A pogrom is a violent riot aimed at the massacre or persecution of an ethnic or religious group, particularly one aimed at Jews

First of all, Holodomor is a term used only by the Ukrainians (who even wasn't the group which suffered the most) and was coined in middle 00's to make ""our own Holocaust"". Note than i'm of Ukrainian descent myself. Second, there are exactly 0 proofs that starvation was boosted by any form of persecution or massacres, let alone of Jewish population.

Just fyi: the Russian Empire experienced massive starvations roughly every 20 years during XIX and XX centuries. So-called Holodomor was just the last one, further starvations were prevented by modernization of agrarian industry and learning on mistakes of 30's.

> everyone living under Stalin is dead now 

But not everyone who lived in the USSR is dead now, and Stalin is the Sovietiest figure you can get. Moreover, new generations are taught by their parents.

Just get on with it, Stalin never was universally hated here, neither was the USSR. If the USSR was such a shithole, why the Reds are still quite damn powerful here?

>  I too know many old families from the bloc and they all fled here for prosperity, opportunity, and health. 

First of all, i wouldn't expect them to say smth like ""aww, man, why we even migrated to this shithole"" under *any* condition. It would hurt both yours (it's your country) and theirs (why we were so foolish) self-esteem.

Second, as i said, it was quite a miracle that the USSR and the Eastern Europe survived. Blaming communists for not being able to provide quality of life comparable to the Western democracies is ridicolous given they had to rebuilt country from scratch *twice* and keep Americans from winning the Cold War by investing at least comparable amount of money to military industry and science. Even if the USSR was democratic, fascist, communist, monarcho-anarchist, it couldn't catch up with the USA any fast.",fiynfu8,Rufus_Forrest,20zrrpi2
"Holodomor was a fucking pogrom. My God. Also, everyone living under Stalin is dead now, or close enough that this rise in some twisted romanticism of the good old days of gulags and scarcity isn't exactly proof people were happy in the past. I too know many old families from the bloc and they all fled here for prosperity, opportunity, and health.",KnightKreider,179mub,fiyknrh,"Holodomor is exactly what 30's starvation is. It influenced vast areas, and the Volga region took the most hit (and not the Ukraine).

Officialy only 800k were sentenced to death during Stalin's regime, and around a million overall. Even if NKVD-KGB lowered numbers thrice (which is improbable, why should they hide info from themselves?), it's still less than 6 millions. We may take one million who died during imprisoment or departation as well, but it's also includes ones who died from purely natural causes.

Pogroms? Yeah, this sounds very russian, but I googled ""pogroms in the USSR"" (because i couldn't remember any) and found exactly 0 results. The closest things to it was anti-cosmopolitism campaign during Stalin's repressions, and it wasn't any notable. You know, Marxist are strictly Internationalist.

Lowered life expectancy and standart of living are kinda expected after you lost 50 mlns citizens and around 800 billions $ (1945) in three wars over course of 30 years. The USA lost around 0.5 mln and 350 billions respectively, being in the better position from the very beginning, and yet the USSR was fighting it for 40 years. It's only natural that the USSR was behind during this race - and it's indeed very impressive that it could take a part in it.

Here is a CIA report about Soviet diet. They found it to be ""comparable"" to American. Were Americans malnourished until Glastnost?
https://www.cia.gov/library/readingroom/document/cia-rdp84b00274r000300150009-5

Also, you may be surprised, but pro-Red sentiements are growing in Russia at rapid pace, with Stalin beating his own popularity record last year (with around 50% of respondents seeing him as positive, and around 30% - as neutral or controverisal). Then, the USSR wasn't that bad as you were taught to see?",fiy8jm0,Rufus_Forrest,20zrrpi2
"Minus the pesky Holodomor huh...

Sure, so minus killing over 6 million people, minus the pogrom, minus the widespread malnutrition that occurred until glasnot, minus the lower standard of living, minus the lowered life expectancy, minus all of that, things were peachy. Got it. 

All sane governments are at odds with communists unless of course they are pro-genocide.",KnightKreider,179mub,fiy1izy,"Probably i should charge money from every elder person i have met, because i lived both in the Ukraine and Russia, and nobody seems to remember starvation other than one happened in early 30ies.

We are joking about ""no food communism"", but it's same category as rednecks jokes about dixie - everyone knows it's bs, but it's too funny stereotype to pass by.

And food problems in the late USSR never caused any starvation. It was more like ""huh, no sausages today"" than ""huh, it's the second day we are eating grass"". 

Maybe you will tell me as next line that Stalingrad was taken by unarmed hordes of conscripts?

Also, education is free here, however, school programm is pro-White and not pro-Red. Current government is at odds with communists, you know.",fixyodr,Rufus_Forrest,20zrrpi2
You need to ask for your money back from whatever shitty school system taught you the USSR didn't have food supply issues.,KnightKreider,179mub,fixqzjj,"Very funny that 6 poor souls actually belive that the USSR had food problems. The last starvation was in 30s, and it was in pattern with starvations that hit the Russian Empire roughly every 20 years. It was especially devastating due to hitting a country barely alive after 2 wars on its territory.

Other than this and wartime, the USSR never had any meaningful starvation problems.",fiwdxm0,Rufus_Forrest,20zrrpi2
"My wife and I are the exact opposite of the stereotype. She'll get in there and take care of things once shit hits the fan, but her instincts are awful. She'd also sleep through a hurricane, so I'm always on high alert. I think the partnership of two parents helping to balance each other is the key.",KnightKreider,179mub,fix0qz2,"As a parent of two, I can attest to a mom’s spidy sense.  Sometimes I am blown away at the level of (seemingly) extra sensory perception my wife shows when related to the kids.

Parenting level 1000 (Dad included,  he was right there for the bucket too).",fiw08pt,Admirable_Engineer,1lheytwy
Taps,KnightKreider,179mub,fino83d,I DON’T HAVE TO DELETE MY ACCOUNT!,findxq9,Kreids20,zorgl
"Careful what you wish for. I found out I was larger than average when sitting around with a bunch of guys I complained about the worst feeling in the world being when it dips accidentally into toilet water. They all looked at me like I was insane. The only girl I had been with at the time said it was the largest she'd ever seen, but I chalked that up to her being Asian and being with only a few Asian guys. We were both very young. As I got older I realized it was problematic for some.

Really most girls don't care, if they like you. Just don't be an asshole.",KnightKreider,179mub,fim6m40,"this is so true. I've been told by 3 women I was small. I've been told by more that I'm normal size and told that I'm above average by a few more. I'm not a big guy, 6 in 2 fingers wide at best. My wife says it's normal, and both of us were freaks in our 20's so we both been with lots of partners. I still can't look at my dick and not wish it was 2 in longer and way, way thicker. It doesn't matter how many times a woman tells me it's perfect for her, I'll always be self-conscious about it. I know my wife has been with much bigger guys, and it makes me constantly worry that I'm not enough for her even though she tells me it is the perfect size for her.",fim143o,bobadefett,mi9cx
Being shot on Central Park is more a comment stemming from concerns of electing a communist in his eyes.,KnightKreider,179mub,fim5dqt,">	Which makes it seem far much more like he was comparing Sanders to a Nazi

Because he was comparing Sanders to a Nazi. In pretty much any political conversation, if you make a comparison to Nazis, it *is* effectively calling the target of the comparison Nazis. Like wow, we’re not analyzing Chaucer here. It’s an idiot pundit on TV - he has to speak plainly. And he plainly called Sanders campaign akin to a Nazi takeover of France lol",fillzeg,Synackaon,4uj1j
Just filter out NSFW by default,KnightKreider,179mub,fikybwt,"Dammit, can’t even open Reddit in public now",fijz3lv,Adassan,3a0a5n93
Copying and pasting your bullshit three times doesn't actually make it right.,KnightKreider,179mub,fi64apv,"Why is it when a white person does anything bad, he's a lone wolf. But when anyone with a skin color even slightly darker than snow does anything bad, the entire race is to blame?",fi634yq,XxNissin_NoodlesxX,edwwauc
Only if he gets the nom,KnightKreider,179mub,fi4lmyc,That should be in a Trump ad.,fi40qnn,drinkup4,y407o
I prefer my Olympics preboned,KnightKreider,179mub,fhfsnlz,Can we get the 2020 Tokyo Olympics postboned as well?,fhffdtk,SliverCobain,ae5ps
"Good luck. They have taken over congress, Governor, and mayor in all major cities. We're like California without good weather or jobs.",KnightKreider,179mub,fh709xi,"Cuomo needs to be forcibly removed as well.

As a proud New Yorker, I can speak for pretty much every single person I know throughout the state-we are beyond fed up & done w/these politicians intentionally turning our beautiful state into a crime zone.",fh6scag,FeverBurn,4f5n5g
Worse? ... eh,KnightKreider,179mub,fgzikc3,"They don't realize a lot of us Pres Trump supporters are NOT REPUBLICANS! Repubs in the last 30 years 1986-2016 were SWAMP PUSSIES! Worse in my book then the PEDOCRATS! They KNEW  and were part of the UNIPARTY scheme to destroy america! Repubs in office BEFORE Jan 20, 2017 are really dems in better suits!",fgxf3f4,Sunfloweragain6873,yxz495c
"SARS is a coronavirus you twit

https://www.cdc.gov/sars/index.html",KnightKreider,179mub,fgxguzy,"You mean that link that had fuck-all to do with Coronavirus?

I mean, was that intentional? Does it actually make fucking sense in your head that you can take some article from two decades ago about a completely different disease and that somehow validates a wild claim you just made today about something different?",fgwa74q,MurderModerator,2gf9rz7o
Time to get it red flagged,KnightKreider,179mub,fgob848,Probably a Chapo fag.,fgo06ta,nakedjay,4mcav
This is back when liberals would sometimes listen to both sides to form opinions for themselves. Clinton red pilled her permanently.,KnightKreider,179mub,fgnfw0i,Was she in the car at the same time?,fgn861n,DTG_Mods_Blow,nbpyh
Back of my then liberal mom's car in the 80s.,KnightKreider,179mub,fgn38kh,"I remember laying on the family room floor as a child listening to his show during the summers in the 80s, and I still can't properly explain the positive impact this man has had on American politics and culture.  He's done that much for us.",fgmj0j0,DTG_Mods_Blow,nbpyh
Next and macos are really just different flavors of bsd,KnightKreider,179mub,fgl2yqb,"Steve Jobs was forced out of Apple in the mid-80s and didn‘t return til 1997 or so, first in the interim.  In between, he started Pixar and NeXT, the latter while never hitting big on its own is the framework that Apple up to still today is based on.  The Apple OS  before Jobs came back on board was an aging 80s OS that crashed all the time and in general a piece of shit.

Apple in the meantime was run by an ex-Pepsi guy and it only went downhill from there, losing marketshare and just being a bloated directionless company that would eventually die with no intervention — bad OS, slow expensive motorola chips instead intel, pointless RISC vs CISC debate that wasn‘t doing anything for customers, expensive, too many offering with too much overlap, selling their own printers and scanners, less and less stores carrying them.

Steve Jobs was the innovator (with Wozniak).

Also Microsoft wasn‘t forced to give Apple money.  It was just better for them to get anti-trust off their back since they did illegal shit to leverage their monopoly into getting monopolies in other businesses (whole internet explorer thing).  They also got to put Microsoft Office on Mac.  Genius move on Steve‘s part for breathing room financially.

Microsoft ended up making several billion dollars in Apple stock for that investment, not bad.  Iirc, about $10B but may be wrong.

I use Linux, so I have no interest beyond this except having lived through it.",fgkzxpk,StarchRunner,3ig1wp5d
"I enjoyed enterprise still, even if it wasn't up to par in many ways.",KnightKreider,179mub,fgk3mb8,The show is so bad.  Voyager was the last real ST show.,fgjrldp,phitnes,ex4ft
This is what I fear for November,KnightKreider,179mub,fghusmy,"They are rigging as hard as they can, using all their assets. What assets you ask? CNN will not tell you later.",fghoexw,TryNottoFaint,wye8iky
"It does fuck all for cluster headaches. I've never heard anyone have success with it, including myself. Mushrooms on the other hand...",KnightKreider,179mub,fghefa4,"I use it for cluster headaches, and it's really changed my life. It cannot cure them, but it makes the pain so much more manageable and less terrifying.",fgggxki,Oneireus,6puv4
Most lung cancer doesn't show up on an xray until you're fucked,KnightKreider,179mub,fgh5j5c,He stop cigs long ago but I know he loved cigars..Can't figure out how his doctors did not catch this earlier..Simple Chest Xray..,fggl6im,birdlady4trump,12ewxx
Nothing to do with race. Nearly everyone started young. My white grandmother had to drop out of school in 4th grade to raise her siblings. She worked in factories extremely young as well. At one point she was paid a hard boiled egg for her work. Shit was rough.,KnightKreider,179mub,fgcaixt,I think the 108 makes the most sense. He said  in the interview he started working in 1924. He would have been 23 yrs of age at his first job if we go by the 1901 birthdate. If you go with him being 108 when he died he would have been born in 1907 then he would have been 14. In the era didn’t people start working at a young age? Especially minorities/black people? 23 seem extremely old to start work back then. Just my uneducated and unsupported opinion.,fgangxi,Naptownfellow,a0wxd
"https://www.thelocal.fr/20130910/why-france-has-such-a-high-suicide-rate

https://www.cbsnews.com/media/worlds-most-depressed-countries/3/#",KnightKreider,179mub,fg6irwa,That’s quite an odd statement. Care to elaborate?,fg6hsak,April_Fabb,4u1cz
The French are one of the most depressed societies in the world,KnightKreider,179mub,fg6gjsv,"That’s what I admire about the French people. Whenever they dislike a crappy political decision, they take to the streets.",fg64dkz,April_Fabb,4u1cz
The trial wasn't about a blow job,KnightKreider,179mub,fg5pdu6,"No because he got away with lying about a blowjob, definitely impeachable since it was under oath but it wasn't a national security threat the way inviting foreign interference in an election",fg5k2zx,MeatsimN64,11x36yiq
I'll allow it,KnightKreider,179mub,ffv9cj9,Por que no los dos?,ffv8acb,God_of_gaps,3hb8b
"Not weak, corrupt.",KnightKreider,179mub,ffv83nm,"Yep. And they’ll string it out for months. Once Bolton is allowed, he will stall and allow more smears to emerge.      

Then when he finally testifies he’ll say something that requires so and so to testify. Etc.      

After what Schiff has done this should have ended upon arrival. It was a sham. But Republicans are such weakass pussies.",ffv23y1,couranto,zaxj1
Split dnc convention giving the second ballot to Hillary.,KnightKreider,179mub,ffuk5jo,Side O’ Beef wouldn’t announce a run until given the green light guarantee win by any means necessary.,ffth8t2,daves52380,178gm6
Irrational fears hate math,KnightKreider,179mub,ffpe0kg,The reality is that you're more likely to be beaten to death by a dildo wielding transexual than in a plane/helicopter crash...,ffpcx7n,Big_Beardiful_AK_Man,3sg32g5
Y'all aren't helping my fear of flying.,KnightKreider,179mub,ffpcp8d,"He didn’t suffer. We should all be so lucky to go that quickly. 

Source: Lost my older sister in a plane crash.",ffo070d,Big_Beardiful_AK_Man,3sg32g5
Think you need to listen again. That's a hard g friend.,KnightKreider,179mub,ffpcjp2,I heard “Los Angeles Nakers” and then she quickly corrected to Lakers. Just a tongue trip.,ffpcds0,Hschlessman,p22ad
The programming is highly effective.,KnightKreider,179mub,ffm75a3,"What gets me is no one gave a shit before he ran for president. You would think if people really cared how ""vile"" he was you would of heard them shouting long before 2016. But no, they're just mad their side lost and are now shouting about his awful character to feel morally superior about throwing a 4 year long temper tantrum. Now I'm not a fan of some of his policies but I don't hate the guy. But some of these people are actually unhinged.",fflggm7,vas_97,2ba2qoht
He's got mountains of words though so he must be right about something!,KnightKreider,179mub,ffm6p38,"You're not gonna argue with him, but you just wrote a hysterical, and not in a funny way, 5 paragraph reply and said absolutely nothing. Put Reddit down and take a nap bro.",ffjotbx,schwazay,i38gs
"I'm pro choice, but I don't pretend a life isn't being terminated. For me it's a choice between you and your maker. I'll let g judge that decision.

I have a hard time forcing a child into this world if they aren't going to be wanted and given a loving family. People are shit sometimes.",KnightKreider,179mub,ffgsp2d,"I used to be unquestioningly pro-choice. I'm still pro-choice on the principle of individual choice, but I now think it is a tragic decision that should be avoided at all costs. No matter how you justify it to yourself, you are terminating the process that creates a new human life. It really doesn't matter WHEN you consider it a life. There are too many abortions. I can't fathom the irresponsibility and lack of respect for life it takes to be ok with 600K abortions a year in this country. Like, god damn, what are people doing...",ffgbgpb,LostViking85,g3j55
I almost stroked out on that one,KnightKreider,179mub,ffg3n6a,"So now we're supposed to be mad about baseless investigations of US citizens?...

Their hypocrisy knows no bounds.",ffg3j51,Don_Key_Knutts,114mg7
Thank you grammar super friend. Don't wake and English without grammatical support folks.,KnightKreider,179mub,fff4u89,"Hi! It's still ""cast"" in past tense.

*This has been your daily dose of pedantics.*",fff2qz6,svedal,sc31tx0
"In fairness, she lied about her age when she was cast.",KnightKreider,179mub,fff2hhn,"When the show aired, the oldest 'teen' cast member was Gabrielle Carteris at 29 playing a 16 year old.

Edit: fixed name",ffezhez,elee0228,f18zz
I'm gonna call ma mom,KnightKreider,179mub,ff4wcb4,"I remember when that happened, couldn't help but laugh.",ff2ufr3,Blackkit27,16ujmn
But did you land better friends?,KnightKreider,179mub,fecnm4p,"haha, they actually did not! the one girl ended up going to jail for a bit, actually.. the others live normal lives :) I did get an apology from one person out of three, one other pretended like nothing happened but we never became friends again.",fean1u2,_alabaster,15r4u6
"I believe I read there were two missiles, so filming probably started after the first.",KnightKreider,179mub,fdw20l1,"To echo the top reply to that, why WAS someone filming that?!",fdupn79,penndotsucks,88ydb
"So much outrage for the death of a terrorist. A man responsible for the death of thousands. If Trump went back in time and killed Hitler there would be people like you running around all salty over the death of their chancellor. Sulaimani destabilized the entire region and helped fund, train, and plan terrorist acts for decades. The world is a better place without people like that and the only reason you are outraged is because you've been told to be.",KnightKreider,179mub,fdtjorq,"> Th...this is what Sulaimani was doing. He was the iranian general tasked with training, organizing, and arming proxy armies of Iran to act in Iraq and Syria. He was responsible for training and equipping insurgent forces in Iraq that have been responsible for HUNDREDS of U.S. soldiers dying from IEDs. Sulaimani was acting as a terrorist leader...in Iraq...where the U.S. has troops stationed in cooperation with the Iraqi government.

That's my point. Essentially he was doing what the US was doing. By the way in the same way we would define the groups he worked with as terrorists, those groups tend to call the guys we train and equip terrorists. 

> Do you just NOT read anything outside of your comfort zone. You truly don't know what happened? Sulaimani was NOT killed in Iran.

I'm well aware of where he was killed. Perhaps you don't realize this but Iraq is not a US territory or colony. I'm pretty sure the agreement we have with the Iraqis didn't allow for that airstrike which is why their parliament got upset. So in other words we flew a drone in their airspace without authorization to conduct an assassination.

> There was. A missile strike in the head of a state sponsored terrorist.

What are you talking about? Again I'm not sure if you realize this but training and equipping local forces to carryout your agenda is likely as old as war. While I think many of Sulaimani's methods terrible you do realize that kids in Laos are still losing body parts to unexploded ordinance the US dropped and we were never at war with Laos, we bombed their country to cut off Vietnamese supply lines with little regard for the native population.

My point regarding accountability is that if we can unilaterally assassinate a high ranking military official from a country we consider terrorists then there's nothing to stop a country like Iran, China or North Korea from doing the same to our high ranking military officials. IMO if there is no international rebuke of this action then the only thing protecting our high ranking military officials is fear of retaliation.",fdswof0,randonumero,34qeg1ct
True but the closer you get to 67 the younger it feels,KnightKreider,179mub,fdth33n,"Im ok.  He had a good full life, and brought great works to us all. 

Time to let him go in peace.",fdtcnof,EdwardOfGreene,x1yxf
"Also didn't explain why these asylum seekers never seek asylum at a nearby US consulate and instead trek hundreds or thousands of miles out of the way, further putting their child at risk. In reality policies friendly to illegal immigration encourage and reward illegal immigration, so more people choose the riskier path to file for asylum when the reward of making it through free and clear is so much higher. You may care about these kids and I'd hope you believe the same of me. We likely disagree with how to achieve that goal.",KnightKreider,179mub,fdt3zve,"Although available data suggests most trafficking in the United States happens with children born in the U.S., cross-border trafficking is also a real problem. However, that in no way justifies separating thousands of children from their asylum-seeking parents *without an adequate tracking system in place or plans for how to reunite them*.",fdsyvoh,so_i_happened,90rhb
Thousands of those child weren't with their parents. They were separated for their security in order to address human trafficking. I suppose following that logic human trafficking is Obama's legacy.,KnightKreider,179mub,fds9p8r,"Obama’s administration detained asylum seekers but did NOT have a policy of separating children from their parents. Those thousands of traumatized children are Trump’s legacy, period.",fds842s,so_i_happened,90rhb
Some of the missiles hit in an open field,KnightKreider,179mub,fdpkt1v,"Except they actually hit what they meant at the bases in Iraq, they didn’t want casualties, so what’s your point",fdpgohk,Grandpaofthelemon,2ylsw3r6
"Obama's administration had the ""cages"" people now magically complain about.",KnightKreider,179mub,fdp786j,"Sounds like Obama’s approach to immigration is what you agree with then, not Trump’s. Obama led a major immigration enforcement crackdown. Trump has led a massive campaign of human rights violations under the guise of immigration enforcement.",fdp2mks,so_i_happened,90rhb
Thanks!,KnightKreider,179mub,fdfjk70,I can’t remember the brand but I used a semi gloss polyurethane coating that was the same brand as my stain,fdfdxqo,SkIt3l,epzlx
Just getting started on my research. What did you seal it with?,KnightKreider,179mub,fdero88,"Homemade due to my local Hardware store!

Bought a 7ftx3ft butcher block. Stained it and sealed it. Then used plumbing pipes for the legs. Super easy build. Cost me a total of $170 to make!",fdcrjd3,SkIt3l,epzlx
*crickets*,KnightKreider,179mub,fdcxlxn," [https://apnews.com/452a336123d742718027f219f6dd256f](https://apnews.com/452a336123d742718027f219f6dd256f)  

 [https://www.dw.com/en/iran-violates-nuclear-deal-what-comes-next/a-49456218](https://www.dw.com/en/iran-violates-nuclear-deal-what-comes-next/a-49456218) 

There you go",fdcnvrh,Vanquishhh,gm9a9
"Yet that still ignores the fact that Cubans rely on black market jobs to stay afloat. Down voting doesn't make you correct, it just makes you petty.",KnightKreider,179mub,fc9nf9t,"> I do care, because you are making a false correlation between economic systems and motivation for fleeing. Are people leaving Central America because of corruption and violence or because of economic opportunity?

This is my point. All of the reasons you cited apply to every country. The entire thing about Cuban refugees is some of the worst cherrypicking ever. Every Latin American country, virtually all of them capitalist, has immigrants to the US because the US is the richest country in the hemisphere. People leave Cuba for the US for the same reason people leave Mexico for the US: better economic opportunity. True, people left Cuba in the past after the civil war too, but this has always been the case immediately after a civil war in which one political side triumps. Many people left Argentina after the right-wing pro-capitalist junta took over in the 1970s, and similarly for other countries (El Salvador, Guatemala, Chile, and more). There have always been political refugees after an ideological civil war, and to only focus on Cuba and [ignore literally almost every other Latin American country](https://en.wikipedia.org/wiki/Operation_Condor?wprov=sfla1) is cherrypicking of the highest order.",fc9cc63,Conservativist,179f7y
"I do care, because you are making a false correlation between economic systems and motivation for fleeing. Are people leaving Central America because of corruption and violence or because of economic opportunity? Everyone in Cuba is forced to have illegal black market jobs to survive because their utopic state funded job is a fucking illusion.

bUt yOu dON't cArE aBoUt tHaT",KnightKreider,179mub,fc9abhu,"Comparable or exceeding numbers of people have fleed capitalist Mexico, capitalist Honduras, and capitalist El Salvador per capita in the past but I see you don't care about that.",fc96sur,Conservativist,179f7y
Imagine thinking Cuba is a shining beacon the world should follow. The greatest utopia anyone ever tried to flee while sailing across an ocean on tied up garbage.,KnightKreider,179mub,fc95ir4,"There's no atrocity denial here, as I've already argued from the position that the USSR did many immoral things, but that doesn't automatically make every bad thing said about it true. The Black Book of Communism has been thoroughly debunked [by even its own authors](https://en.wikipedia.org/wiki/The_Black_Book_of_Communism#Criticism), and the comparison of deliberate Nazi mass-murder to natural disasters that were at worst exacerbated by policy, but importantly, were ended by it (Russia and China had [famine after famine](https://en.wikipedia.org/wiki/List_of_famines_in_China) for centuries under capitalism and feudalism until the communists took over) is to draw a false equivalence and legitimize Nazi mass murder.

No one has ever been able to counter the fact that, if you accept Courtois et al.'s methodology and apply it to capitalist countries—considering a ""capitalist country"" as one where there is the *attempt* to realize capitalism even if the specific free-market paradise is never achieved—you would get a ""capitalist death toll"" in the billions for all of the famines, wars, natural deaths, and so on that merely happened under such countries, as they are counted for nominally communist countries.

No one has ever been able to counter the fact that nearly every nominally communist country (Russia, China, Vietnam) has industrialized faster than its neighboring ""attempting-capitalism"" or ""more-capitalist"" countries with similar levels of development.

No one has ever been able to counter the fact that, when you [actually ask](https://www.pewresearch.org/global/wp-content/uploads/sites/2/2019/10/PG_10.15.19.europe.values-01-011.png?w=620) a majority of the people [who lived under socialism](https://www.pewresearch.org/global/wp-content/uploads/sites/2/2019/10/PG_10.15.19.europe.values-01-015.png?w=640) and not just ask the minority of people who left it because they didn't like it in the first place, most people agree that [capitalism has made their economic situation worse](https://www.pewresearch.org/global/wp-content/uploads/sites/2/2019/10/PG_10.15.19.europe.values-01-013.png?w=624).

No one has ever been able to counter the fact that socialist countries tend to do better in life expectancy and other health outcomes compared to capitalist countries with similar levels of wealth, development, and history ([Cuba](https://www.indexmundi.com/map/?v=30&r=ca&l=en), [China](https://ourworldindata.org/grapher/life-expectancy?time=1930..2019&country=CHN+IND), [Vietnam](https://ourworldindata.org/grapher/life-expectancy?time=1950..2019&country=IDN+FSM+PHL+WSM+THA+VUT+VNM)). Or that implementation of socialist policy in the USSR, as is the case in other socialist countries, has [drastically improved the standards of living time after time again](https://ourworldindata.org/grapher/life-expectancy?time=1896..2019&country=RUS).

I don't make these arguments much at all for Leninism, the *political* system. Rather, I separate it (as much as possible) from the economic socialist policies, just as one would separate sharia law from capitalism in critiquing Saudi Arabia's economy. And the notion that ""socialism has failed"" and that everywhere it was tried it reduced standards of living and so on is simply contradicted by *mountains of evidence*. You don't ""fail"" and raise your country's life expectancy from [41 years to 66 years](https://ourworldindata.org/grapher/life-expectancy?time=1930..2019&country=CHN) or from [20 years to 68 years](https://ourworldindata.org/grapher/life-expectancy?time=1896..2019&country=RUS) in two or three decades. [You don't ""fail"" and eliminate malnutrition when your neighbors still have it](https://www.indexmundi.com/facts/indicators/SN.ITK.DEFC.ZS/rankings/central-america). You don't ""fail"" and massively industrialize your country in a single generation. You don't fail and be the first country to innovate your way to outer space. You don't ""fail"" and have most of the people want the system back in some form once they've experienced the alternative. [You don't ""fail"" when people are eating less under the alternative system now than they used to eat](http://euromaidanpress.com/2017/02/06/russians-consume-700-calories-a-day-fewer-now-than-at-the-end-of-soviet-times/). We can discuss problems these countries had, yes, but they were *simply not failures in the slightest*. 

Why do I care about all of this? I view it as extremely important to counter this narrative as it's the first line of attack against much more moderate socialist or social-democratic policies.",fc7hufc,Conservativist,179f7y
"I think all of these scenarios will be handled eventually, but it's going to take time. Before it's all automated for a number of common threats, I imagine some type of emergency mode will be available to occupants. Imagine all the cars being able to communicate with each other when an event occurs and the mesh network collectively helps to move things out of the way to resolve a threat?

The main problem is going to be the ethical dilemma around life and death choices the systems will need to make.",KnightKreider,179mub,fc1krpz,"Homeless guy?  As someone who lives in Florida, I'm a bit more worried about how an autonomous car reacts to a shootout in an intersection.  If these things aren't programed to haul ass out of there, regardless of other stopped cars or stray dogs, I'll stick with the old fashioned whip I have full control over.",fc1ietn,My3rdTesticle,7015j
How's the smell of those rubber mats? Are they from recycled rubber?,KnightKreider,179mub,fbxxx8k,"Garage is 550 sqft (9 foot ceilings) and the gym uses about 75% of the floor space in the corner. The other remaining wall is saved for storage shelving. Built my wife and me who both are into powerlifting.  There is plenty of room for both me and my wife to lift inside and outside of the rack at the same time which was the motivation behind buying the R4 over the R3. Only downside so far is Matador can only connect to the sides of the rack and not the front and when benching from the front of the rack the 45s on the long pins get in the way a bit. I remember coming here for a lot of advice and having a lot of questions so I hope to answer any questions below. Feel free to ask me my opinions on anything or any difficulties I've had.

**Floor:**

4’x6’ ¾” Rubber Mats from Fitness Depot [https://www.fitnessdepot.ca/K51SDH3273859/northern-lights-rubber-slab-mat-72-x-48-x-3-4-mtrs724834.html](https://www.fitnessdepot.ca/K51SDH3273859/northern-lights-rubber-slab-mat-72-x-48-x-3-4-mtrs724834.html)

Floor is so heavy it was cut using a sharp utility blade and chalk line. Just hammered into place, the walls aren’t perfectly level and the flooring was not always perfectly straight so there are some hardly noticeable gaps.

**Platform:**

Used art of manliness guide: [https://www.fitnessdepot.ca/K51SDH3273859/northern-lights-rubber-slab-mat-72-x-48-x-3-4-mtrs724834.html](https://www.fitnessdepot.ca/K51SDH3273859/northern-lights-rubber-slab-mat-72-x-48-x-3-4-mtrs724834.html)

Top piece of wood is 4’x8’ maple. Ordered sticker from Stickers Canada and used a Rogue logo from google. Made a mistake and it came with a glossy white background. My wife had to carefully cut it out and leave all the letters attached and then we removed the excess after sticking it on. The finish on the lifting platform is satin Varathane water based clear finish ([https://www.homedepot.ca/product/varathane-professional-water-based-clear-finish-in-satin-clear-236-ml/1000686124](https://www.homedepot.ca/product/varathane-professional-water-based-clear-finish-in-satin-clear-236-ml/1000686124)) Used 3 coats and just used a roller to put it on after the sticker was on. It took 5 minutes per coat and was super easy.

Connected the rack to the lifting platform using lag bolts (3/8” x 3-1/2” and a washer I think). Racks seems very very solid so far but haven’t maxed out squats or anything.

**Speakers:**

Got a Black Friday deal on a pair of Sonos Play 1s and paired them in Stereo mode using the app. They sound incredible and fill the room very well. Mounted to the wall using the following: [https://www.amazon.ca/VIVO-Black-Speaker-Designed-Brackets/dp/B07B43VL8N/ref=sr\_1\_1\_sspa?keywords=sonos+play+1+wall+mount&qid=1577150563&sr=8-1-spons&psc=1&spLa=ZW5jcnlwdGVkUXVhbGlmaWVyPUEyMFdVRU1ORFhGNDVIJmVuY3J5cHRlZElkPUEwMjAzNjc0MTlCRUhTVzQyTkczWSZlbmNyeXB0ZWRBZElkPUEwNjQwMTM4R1YwRlJWUlNBUFg1JndpZGdldE5hbWU9c3BfYXRmJmFjdGlvbj1jbGlja1JlZGlyZWN0JmRvTm90TG9nQ2xpY2s9dHJ1ZQ==](https://www.amazon.ca/VIVO-Black-Speaker-Designed-Brackets/dp/B07B43VL8N/ref=sr_1_1_sspa?keywords=sonos+play+1+wall+mount&qid=1577150563&sr=8-1-spons&psc=1&spLa=ZW5jcnlwdGVkUXVhbGlmaWVyPUEyMFdVRU1ORFhGNDVIJmVuY3J5cHRlZElkPUEwMjAzNjc0MTlCRUhTVzQyTkczWSZlbmNyeXB0ZWRBZElkPUEwNjQwMTM4R1YwRlJWUlNBUFg1JndpZGdldE5hbWU9c3BfYXRmJmFjdGlvbj1jbGlja1JlZGlyZWN0JmRvTm90TG9nQ2xpY2s9dHJ1ZQ==)

**Equipment:**

* Rack – Rogue R4 [https://www.roguecanada.ca/rogue-r-4-power-rack](https://www.roguecanada.ca/rogue-r-4-power-rack)
* Red Cerakote Ohio Power Bar [https://www.roguecanada.ca/the-ohio-bar-cerakote](https://www.roguecanada.ca/the-ohio-bar-cerakote)
* Pink Cerakote Ohio Bar [https://www.roguecanada.ca/the-ohio-bar-cerakote-pink](https://www.roguecanada.ca/the-ohio-bar-cerakote-pink)
* Northern Lights Beater Bar (came with weights) [https://www.fitnessdepot.ca/K51SDH3273859/strength/weight-plates/sets-packages-bundles/northern-lights-215lb-olympic-rubber-weight-set-zk215wporset.html](https://www.fitnessdepot.ca/K51SDH3273859/strength/weight-plates/sets-packages-bundles/northern-lights-215lb-olympic-rubber-weight-set-zk215wporset.html)
* Weights are Fitness Depot Olympic Rubber Weights 10x45 2x35 2x25 4x10 4x5 2x2.5
* Powerblock Sport 90lb Set (Facebook Marketplace)
* Powerblock Stand Fitness Depot [https://www.fitnessdepot.ca/K51SDH3273859/northern-lights-medium-dumbbell-stand-nldbsmed.html](https://www.fitnessdepot.ca/K51SDH3273859/northern-lights-medium-dumbbell-stand-nldbsmed.html)
* Rep Fitness FB5000 Flat Bench [https://www.amazon.ca/REP-FB-5000-Competition-Flat-Bench/dp/B07NRST7V6/ref=sr\_1\_1\_sspa?crid=2GPAP7Q0AD07U&keywords=rep+fitness+fb-5000&qid=1577149398&sprefix=rep+fitnes%2Caps%2C149&sr=8-1-spons&psc=1&spLa=ZW5jcnlwdGVkUXVhbGlmaWVyPUExRVBESE4yQ1lUSVIwJmVuY3J5cHRlZElkPUEwMzYyMDk0QzFZMlkxVVBQWlNUJmVuY3J5cHRlZEFkSWQ9QTEwMzM1MTYyQTBHUEhOUE01R05UJndpZGdldE5hbWU9c3BfYXRmJmFjdGlvbj1jbGlja1JlZGlyZWN0JmRvTm90TG9nQ2xpY2s9dHJ1ZQ==](https://www.amazon.ca/REP-FB-5000-Competition-Flat-Bench/dp/B07NRST7V6/ref=sr_1_1_sspa?crid=2GPAP7Q0AD07U&keywords=rep+fitness+fb-5000&qid=1577149398&sprefix=rep+fitnes%2Caps%2C149&sr=8-1-spons&psc=1&spLa=ZW5jcnlwdGVkUXVhbGlmaWVyPUExRVBESE4yQ1lUSVIwJmVuY3J5cHRlZElkPUEwMzYyMDk0QzFZMlkxVVBQWlNUJmVuY3J5cHRlZEFkSWQ9QTEwMzM1MTYyQTBHUEhOUE01R05UJndpZGdldE5hbWU9c3BfYXRmJmFjdGlvbj1jbGlja1JlZGlyZWN0JmRvTm90TG9nQ2xpY2s9dHJ1ZQ==)
* Rep Fitness AB3000 FID Bench [https://www.amazon.ca/Rep-Adjustable-Bench-AB-3000-Incline/dp/B00YNS7D9G/ref=sr\_1\_1\_sspa?keywords=rep+fitness+Ab-3000&qid=1577149423&sr=8-1-spons&psc=1&spLa=ZW5jcnlwdGVkUXVhbGlmaWVyPUE0M05OUjBQVU44RjkmZW5jcnlwdGVkSWQ9QTA5NDExOTUyVllTTkgxM1daVTkwJmVuY3J5cHRlZEFkSWQ9QTAwNTM5MjcyNlhSOTVFVDVYRlVPJndpZGdldE5hbWU9c3BfYXRmJmFjdGlvbj1jbGlja1JlZGlyZWN0JmRvTm90TG9nQ2xpY2s9dHJ1ZQ==](https://www.amazon.ca/Rep-Adjustable-Bench-AB-3000-Incline/dp/B00YNS7D9G/ref=sr_1_1_sspa?keywords=rep+fitness+Ab-3000&qid=1577149423&sr=8-1-spons&psc=1&spLa=ZW5jcnlwdGVkUXVhbGlmaWVyPUE0M05OUjBQVU44RjkmZW5jcnlwdGVkSWQ9QTA5NDExOTUyVllTTkgxM1daVTkwJmVuY3J5cHRlZEFkSWQ9QTAwNTM5MjcyNlhSOTVFVDVYRlVPJndpZGdldE5hbWU9c3BfYXRmJmFjdGlvbj1jbGlja1JlZGlyZWN0JmRvTm90TG9nQ2xpY2s9dHJ1ZQ==)
* Rogue Echo Bike [https://www.roguecanada.ca/rogue-echo-bike](https://www.roguecanada.ca/rogue-echo-bike)
* Bodycraft Xpress Pro Home Gym (Facebook Marketplace) [https://www.bodycraft.com/xpress-pro-strength-training-system.html](https://www.bodycraft.com/xpress-pro-strength-training-system.html)

**Misc Accessories:**

* Collars are OSO Barbell Collars - [https://www.roguecanada.ca/oso-barbell-collars](https://www.roguecanada.ca/oso-barbell-collars)
* Rogue Landmine & Single & Double Handle [https://www.roguecanada.ca/landmines](https://www.roguecanada.ca/landmines)
* Rogue Matador & Hanger - [https://www.roguecanada.ca/rogue-infinity-matador](https://www.roguecanada.ca/rogue-infinity-matador)
* Rogue Vertical Bar Hanger - [https://www.roguecanada.ca/vertical-bar-hanger](https://www.roguecanada.ca/vertical-bar-hanger)
* Rogue Chalk Stand - [https://www.roguecanada.ca/rogue-freestanding-chalk-stand](https://www.roguecanada.ca/rogue-freestanding-chalk-stand)
* Rogue Multi Use Hanger -  [https://www.roguecanada.ca/multi-use-hanger](https://www.roguecanada.ca/multi-use-hanger)
* Rogue Long Storage Pins [https://www.roguecanada.ca/sp2358-plate-storage-long-for-infinity](https://www.roguecanada.ca/sp2358-plate-storage-long-for-infinity)
* Rogue Change Plate Storage Pins [https://www.roguecanada.ca/bolt-on-double-change-plate-storage](https://www.roguecanada.ca/bolt-on-double-change-plate-storage)
* Rogue Deadlift Jack (not shown) [https://www.roguecanada.ca/bar-jack](https://www.roguecanada.ca/bar-jack)
* Extra Rogue J-Cups
* Rogue Bar Cleaning Kit

**Stuff On Multiuse Hanger:**

* 2x Izner Forever 10mm Belt
* Slingshot Bench
* SBD Wrist Wraps",fbwizy3,memento17,hou5c
"Our completely organic protests don't materialize because we weren't paid, bused in, and handed pre-made signs.",KnightKreider,179mub,fbx53ji,"The supporters are not protesting because not only are they more mature than the left, but they know the Impeachment is a total sham.",fbw6jrg,Lord_Zahkrosis,3kxbmgms
You know how many illegals we could give free health care to with all that worthless innovation money you fucking bigot??,KnightKreider,179mub,fbr1hdg,OMG WTF I HATE ELECTRIC CARS AND SPACESHIPS THAT CORRECTLY HIT ORBIT NOW!!!!,fbpavmq,SitelessVagrant,1akejd0x
Can he now?,KnightKreider,179mub,fblxvh7,How does Edelman keep escaping the concussion protocol? Dude won't be able to spell his own name when he's 50.,fblxrzn,drainbead78,ck3di
"Stuck listening to NE broadcast where one announcer is normal and the other sounds like someone's drunk uncle. After the touchdown I hear...

""I can't believe he let that bum make that throw""

Believe it bitch",KnightKreider,179mub,fbltw4u,"josh dropping that dime was so satisfying, the amount of hate he was getting was absurd",fbltfyt,henriquecomeback,15im1hmf
"I used to see them, I still see them, but I used to too",KnightKreider,179mub,fbltoah,Patriots aren't as invincible as they used to be. I don't think they will go far in the playoffs,fbltk2l,baker10923,6uirk
The Rising Sun,KnightKreider,179mub,fbimkfu,"With today's technology, this tape might well as be reel 4 of the Lord of the Rings, or some other green screen epic.
I want it authenticated by unbiased and neutral experts, to see if tampering has occured.
It has taken too long to appear to be taken at face value.",fbht0l7,S_E_P1950,q2vj5nh
"They honestly bother me the most. The dog people have serious mental health problems, the little girl doesn't know better, and the white saviors in the background are just lapping it all up. Leave the kids alone.",KnightKreider,179mub,fbh7kig,"Look at the retards in the background smiling away... These people are fucking sick in the head, brainwashed, losers.",fbgliou,DerrickPiaramella,59ff4660
Last I knew emby app didn't support direct play.,KnightKreider,179mub,fbgl8d4,"what do you mean lack of direct play keeps you on kodi?  the emby app isn't direct play?  I have add on's for kodi that don't integrate with emby, so that's primarily why I keep it.  I like having everything in one place.

Give Aeon NOX or MQ8 a try if you want something that's really nice to look at.  There's a lot of settings and customization available (even more so if you're willing to dive in to the actual skin folders and start replacing things, like I've done with some MQ8 fonts I didn't like) so you can really get something that looks quite impressive.",fbfu45w,kamikaze2112,fqo3s
"You said nice skin. I assumed you still wanted what kodi brings that isn't in the emby app. Lack of direct play keeps me on kodi but I love embruary, so I'm quite happy.",KnightKreider,179mub,fbftx1b,but I'm trying to not use the emby interface....,fbfte6o,kamikaze2112,fqo3s
