child_body,child_screen_name,child_user_id,child_tweet_id,parent_body,parent_tweet_id,parent_screen_name,parent_user_id
"I'm not sure why, but I was waiting for ""...And then my Dad beat me with jumper cables..."".",Kurthog,16v9j0,fl00ws0,"It’s no wonder the ancients were fascinated with thunder, and why so many gods, usually the strongest ones, were associated with it. These include Zeus, Jupiter, Baal, and Thor. In fact, Ancient Greek and Phoenician generals often earned the epithet or cognomen Keraunos or Barca (meaning “lightning” or “thunder”). 

Perhaps the most notable example of a general earning this name is that of Hamilcar Barca. He earned the epithet because of his swift and decisive victories against the mercenary revolt in the Truceless War, saving his Phoenician city of Carthage from destruction! His sons became distinguished as Barcids. His most famous son, Hannibal, crossed the alps with 37 African elephants and 70k troops (baggage, cavalry and all) during the winter and into Italy, almost destroying the city of Rome itself. This dude was a legend. When reading about his war against the Romans, you almost think you’re reading a fantasy novel because of how badass he is. r/PhoeniciaHistoryFacts",fkzad49,PrimeCedars,15jdyp
"I live on the coast of Lake Huron, about 70 miles North of Selfridge Air National Guard Base, and these bad-boys come screaming up the coastline almost a couple times a month.....sounds like a train is passing by!  I love hearing/seeing these things roar by!!",Kurthog,16v9j0,fjqbouv,"These are the planes you can hear flying through the sky, even though they are so high up.

I got to see some flying at the practice range. Shit, they were flying so close to the tower I could have spit on it. Loud as fuck when they fire.",fjq0zyj,cherrybomb921,8ebtw
"Mine called hers a ""Chesterfield"".",Kurthog,16v9j0,fhyxcx0,"my grandma had a couch just like that, she called it the “davenport”",fhy1q3m,raven_thoughts,zp9l0
Love autocorrect!  Tubal ligation,Kurthog,16v9j0,ffnm85h,Vasectomy....wife was the final ligation.,ffnm5bu,Kurthog,16v9j0
Vasectomy....wife was the final ligation.,Kurthog,16v9j0,ffnm5bu,"They deny 100% of the population ""birth control"" healthcare. They wouldn't pay for my tubal ligation...so at least they are consistent.",ffnlzz0,Kurthog,16v9j0
"They deny 100% of the population ""birth control"" healthcare. They wouldn't pay for my tubal ligation...so at least they are consistent.",Kurthog,16v9j0,ffnlzz0,"Or maybe companies shouldn’t systematically deny half the population healthcare? Just a thought.

(Also man, you don’t have to suck up to your wife’s company online. They aren’t reading your posts)",ffnhbcn,Eev123,110815
"Seriosly?  Unemployment is at it's lowest in many decades, and jobs are hard to find??  Maybe you don't want to work for a living...",Kurthog,16v9j0,ffngn77,"So just get another job. Sure. Why don’t I strap on on job helmet, and squeeze down into a job cannon and fire off into job land, where jobs grow on jobbies. 

Such helpful advice! Thanks bootlicker",ffn2de4,Eev123,110815
https://thegaybar.com,Kurthog,16v9j0,fcy7ev9,[I wanna take you to a gay bar](https://www.youtube.com/watch?v=49rhRF4bkf8),fcy1o2b,discerningpervert,20wb52a
Well said!!! I believe there are a lot of people that have that same viewpoint.,Kurthog,16v9j0,empmctf,"> but we don't understand it nearly as well as we think we do

What is your basis for this? There is an extensive collection of experts from all around the globe (IPCC plus many more) who *do* understand this well, are constantly measuring and observing more data that adds to the already irrefutable mountain of evidence, and then you come along and say ""we don't understand it""

Why should anyone believe you over literally the entire body of work coming out of the scientific community?",empha3o,here_for_the_lols,6tsa3
"Just like with the Russian collusion.  This is a Democrat fishing expedition, plain and simple, since they came up empty with their last one.  The dems and the media won't be happy until he's gone.....",Kurthog,16v9j0,empl3i6,"Doesn't matter.. because Pelosi won't impeach because it looks bad. .... Fucking bullshit! There is clearly something going on, and when it gets uncovered.. she needs to do the job we elected Democrats to do.",empjjap,GoldenFalcon,19jrt
"You mean Windsor, Ontario?",Kurthog,16v9j0,eikivn9,Born and raised in south Detroit. Cos she’s a homie.,eikbyog,HappyMcHappyPants,91r2jsb
"The ""c"" word?  You have the little white chick call the much larger black chick a ""Cun%"", and she still gets her clock cleaned............
Without knowing the entire story here, you don't really know who started it and is the bully.  But from what we see, it can be argued either way. But the larger chick appears to be the aggressor.",Kurthog,16v9j0,eh3w9vl,"Sure, but it is the bad word of bad words. I don't know a single other swear word that is ""startingletter-word"" like the n-word.",eh3ss7w,DPSOnly,b11hz
My kids went to college and took astronomy....they were just taking up space. ,Kurthog,16v9j0,egtwjzc,I dated an archaeologist once. She wasn't that old.,egtqh21,lenojames,55gg4
Shoots .410 shotgun shells and\or .45 caliber bullets. Mainly good for home defense....,Kurthog,16v9j0,egrj7rk,"It's a revolver that uses not just regular bullets (forgot which caliber) but it also uses shotgun rounds (not 12 gauge or anything, something like calico?)",egqy3cz,PheonixOverload,1iinq9tg
"Well, at least they're not Koalas......

https://old.reddit.com/r/unpopularopinion/comments/9w20kg/koalas_are_stupid_leaky_sti_riddled_sex_offenders/",Kurthog,16v9j0,eghy3wa,Theyre actually kinda dicks. They do gang rape and they mess with their prey before killing them. Fuck dolphins ,egh2p3d,yutyo6,yuiqy
"Turn Parry Dodge Spin

https://m.youtube.com/watch?v=8cuihrjLNAo",Kurthog,16v9j0,ecuz8nv,"Dodge, Chevy, Ford, Dodge.",ecuy779,TangoWhiteTrash,fm4se
"You know that dogs can't use a Magnetic Resonance Imaging Machine, but cat's can...",Kurthog,16v9j0,ec5wmjm,Guess you could call it a... cat scan!,ec5edas,Herr_Mullen,1guuwh20
"Great scene!! One of my favorites in that movie!
",Kurthog,16v9j0,e7pc9xi,"I watched Three Billboards Outside Ebbing Missouri the other night and I think Frances McDormand summed it up perfectly.

>Y'know what I was thinking about today? I was thinking 'bout those street gangs they had down in Los Angeles, those Crips and those Bloods? I was thinking about that buncha new laws they came up with, in the 1980's I think it was, to combat those street-gangs, those Crips and those Bloods. And, if I remember rightly, the gist of what those new laws were saying was if you join one of these gangs, and you're running with 'em, and down the block one night, unbeknownst to you, one of your fellow Crips, or your fellow Bloods, shoot up a place, or stab a guy, well then, even though you didn't know nothing about it, and even though you may've just been standing on a streetcorner minding your own business, what these new laws said was you're still culpable. You're still culpable, by the very act of joining those Crips, or those Bloods, in the first place. Which got me thinking, Father, that whole type of situation is kinda like your Church boys, ain't it? You've got your colors, you've got your clubhouse, you're, for want of a better word, a gang. And if you're upstairs smoking a pipe and reading a bible while one of your fellow gang members is downstairs fucking an altar boy then, Father, just like those Crips, and just like those Bloods, you're culpable. Cos you joined the gang, man. And I don't care if you never did shit or you never saw shit or you never heard shit. You joined the gang. You're culpable. And when a person is culpable to altar-boy-fucking, or any kinda boy-fucking, I know you guys didn't really narrow that down, then they kinda forfeit the right to come into my house and say anything about me, or my life, or my daughter, or my billboards. So, why don't you just finish your tea there, Father, and get the fuck outta my kitchen.",e7pbm91,vector_ejector,12ogf4
They will blame the Republicans for that too!,Kurthog,16v9j0,e7c3nhc,NO I TELL YOU WHAT'S DISGUSTING when they put raisins on chocolate ice creams. That shit is brutal.,e7c0xhq,aiman_jj,115y1p
Tell that to these guys:  https://m.youtube.com/watch?v=2aSAtcLbTCo. The one spent 10 years in prison. ,Kurthog,16v9j0,e7bn9jz,You should believe all accusers and treat the accused of being innocent until proven guilty.,e7b136y,MavEtJu,bqkex
"And he lied under oath about what?  Drinking or the claimed assault?  He did state he liked beer and sometimes had too many, like a lot of folks do in high school\college  And nobody stated he ever said he couldn't remember what he did after a night of drinking. Slurring is one thing, but blacking out is a level up. The assault is a he-said she-said, and can't be proven either way. And don't get me started on the 80s lingo either, as ""boofing"" was farting when I was growing up in the late 70s and 80s.  ",Kurthog,16v9j0,e79jv0e,"It sounded.reasonable, but it wasn't because most of them were alternative facts. She also forgot to mention he lied under oath. One of the rationale she listed (among many others, I can't write them all down) was that the American Bar Association deemed him qualified (qualified, not the best fit or outstanding, she didn't mention that). Which they did initially, but after the allegations came out, they wrote a letter to the Senate to tell them to delay the vote. Today, they are also reevaluating their statement because of his temperament, they don't think he's fit to be a judge in the highest court. 
And tossing him out isn't the only alternative. Why not wait until a proper investigation was done? They kept a seat empty for months, almost a year just to feck with Obama. ",e79b8zy,m3ngnificient,jsg74
