child_body,child_screen_name,child_user_id,child_tweet_id,parent_body,parent_tweet_id,parent_screen_name,parent_user_id
The Roman Catholic church and Chinese bishops springs to mind.,labiator,8sk9e,fje0lrg,"That's also the way Iran works, with the Shura council vetting candidates.",fjc1t2b,lowrads,2uz1z
Roberts needs to go now too.,labiator,8sk9e,fix1u9r,"Dear Admins, 

Donald Trump will be your President for another 4 years. Ginsberg will croak out and we’ll have a Trump dominated Supreme Court for a generation. Republicans will hold the Senate again. And, if Sanders is your nominee, we’ll retake the House. Enjoy.",fiuh9aa,doctors4trump,xnfen
Spez jizz?,labiator,8sk9e,fix1g1r,Yes it was. This is straight from dickface spez's mouth.,fiugxhi,Prime67,t97uq
">The Shittiest Generation

Ill menials?",labiator,8sk9e,fhwd447,"It’s easy to laugh at them. Just remember, a growing number of The Shittiest Generation™ are ready to follow this guy off a cliff and take the rest our country with them.",fhvjw9a,randomwithaj,gxjth
chaff and countermeasure as sundance at tcth calls it,labiator,8sk9e,fhoffj9,"I forgot all about that piece of scum. Fuck Lindsey Graham. All talk and no action. All he’s there for is to slow walk everything Trump wants to do. It’s no coincidence that he suddenly sucked up to Trump after mccain bit the dust, he wanted to continue McCain’s bullshit but while putting on the facade of being an ally. I see graham on tv for months talking about all the things he’s going to do and all the hearings he’s going to have, it’s been months and still nothing. He’s a piece of shit.",fhm1a33,ryetoast914,ijl3f
"Cut her some slack, pede. Like all Liberals she thinks money grows on trees.",labiator,8sk9e,fhf5tq8,Harvested gold? She does realise that it doesn't grow on a vine right?,fhec21t,Australianclassic,2v9dzr61
More than a passing resemblance to Max Headroom,labiator,8sk9e,fh92gy5,C. Montgomery Burns,fh7pjh5,PressureMaxwell,36kxgcgv
But keep right.,labiator,8sk9e,ffjmfpj,Tolerate left.,ffjlgw4,bluetincan,115ldy
Native American elder.,labiator,8sk9e,ffjmdbk,Have they revealed the name of the driver?,ffjke5q,sandmanviscera,lebir
"He would pull the ""executive privilege"" pass. Funny that.",labiator,8sk9e,fffvru9,Can obama be called as a witness?,fff8xsg,frankenboobehs,6dser
https://www.youtube.com/watch?v=e9l8QnGbImQ,labiator,8sk9e,ff3iewz,"Greetings, 'pedes. Which stream is everyone watching?",ff3hc0u,FrontHolePetriDish,4suxbryn
didn't have to wait long,labiator,8sk9e,ff3gebi,"Is that your maiden name Michelle, or....",ff3g8xo,ithrowawaay,bun26ox
https://www.aljazeera.com/news/2020/01/qassem-soleimani-iran-elite-quds-force-leader-200103033905377.html,labiator,8sk9e,fcyzwle,"i've been digging all morning for an actual answer about who he was. with all the shit going off on CNN, it makes it look like we actually did a bad thing, and something wasnt adding up. thanks, meteorknife

edit: is -> was",fcy7u4i,chronic_bowls,9nawz
It's not clear from that that it was Muslims who did it.,labiator,8sk9e,fcpr1t8,This post is a good excuse for me to share this again that pisses me off.  Earlier this year unidentified people/person raided the tomb of one of the soldiers of the crusades and beheaded him. 800 years after his death the Muslims finally got him. https://www.bbc.co.uk/news/world-europe-47364081,fcklavh,Tellsyouhow,pr7f0
https://welovetrump.com/2019/12/27/third-kevin-spacey-accuser-dies-suddenly/,labiator,8sk9e,fcjjg5g,"I lost count.  Are these *four* different accusers dead, or are some of the articles about the same one?",fcj4cmm,highsandyground,47w1lffd
From those three million votes reckoned to be fraudulent? Good to see her get a taste of her own medicine in any case.,labiator,8sk9e,f968npz,"She officially had the overall (popular) vote though, and margins in some states were razor thin. That she lost despite every crooked trick and material advantage demonstrates how hated she was, and how well Trump's campaign gamed the electoral system.",f95jwhq,the_letter_6,e5fgc
"Well, howzabout that popular vote there eh Hillary?",labiator,8sk9e,f968gu7,"This is a perfect reminder of how much bs Democrat primaries are.

http://magaimg.net/img/9ruw.jpg",f95vwca,Crybabywars,pqqp9
Thunderbergs are doh!,labiator,8sk9e,f7h78h5,"> Weaponized. Autism.

It just dawned on me that the left took this literally with Greta.",f7fyz3l,PostHackAcct,1wi9e2oh
">  native 

you misspelled naïve",labiator,8sk9e,f7goh7d,"This is where you mock them. Talk about how European borders are magical lines drawn by powerful Nordic elf magicks that rewire brains as soon as someone crosses them. Then the melanin vampires come to suck out all their skin tones, the bone sorcerer reshapes their skeleton, and an appelomancer renames them to Sven Helmsgarten or something equally metal. 

Because that's what Swedish borders are, lines that turn brown people from the middle East into IKEA assembling, Volvo driving, metal playing native Swedes.",f7axi4r,PMmepicsofyourtits,16j1qw
Poland.,labiator,8sk9e,f7bt6lg,Hey now give Austria some credit.,f7bswng,anytownusa11,962lbnt
They did.,labiator,8sk9e,f7bnr3c,"So, maybe they should explain that in the article instead of making it seem like it's actually closed. Hyperbole is not the way to go in journalism.",f7bbba3,binford35,135spx
Hardly outrageously fake. It's a big deal that a Skandi country being party to the Schengen Agreement should need to reimpose border controls on another Skandi party.,labiator,8sk9e,f7bnnzu,"Yeah, it’s a bit difficult to defend Breitbart from leftist claims that it’s “fake news” when Breitbart insists on making these outrageously fake headlines.",f7b3iqr,DeplorableCaterpilla,11sqw3
Any Amish in Malmo?,labiator,8sk9e,f7bn8hp,"I hope they don't use racial profiling to select who gets ""randomly"" inspected!",f7bej5s,residue69,6kygz
Dumb bint great tits and ass been co opted to 'the struggle'. It's just the way we do business in the propaganda world.,labiator,8sk9e,f6wbgx0,"Feels like there’s a lot of money being put into the whole “Epstein didn’t kill himself” bit. Widespread social media campaigns parroting the phrase repeatedly, even saw Emily Rajitowski (very famous super model and standard liberal snowflake) made a post on Instagram with that phrase.",f6w8h4y,PhishermansPhriend,x9oud3r
deals to missing children,labiator,8sk9e,f6tc067,Podestas nephew works closely with an agency that deals with missing children.,f6t7kwf,whocaresguy,e29oj
Is this the way to Ciao Ramella?,labiator,8sk9e,f6hklix,ERIC **“CHARLIE” CIA**RAMELLA,f6dcexd,Seven_Millionth_Pede,16nrln
"> ungrateful family members blaming Trump for everything

Sounds like a vote winner for Treato.",labiator,8sk9e,f44eg9w,"This is just terrible news: now we have to endure another 5 day funeral thru  the streets and monuments of Washington DC. Because that demon McCain got the works, along with horse drawn caissons.military bands, 21 gun salute, sulky, ungrateful family members blaming Trump for everything.",f41mxpb,WunjoRolls6,6wwrbq6
Good ol' Joe; he's down with the knee grows.,labiator,8sk9e,f0julh7,Can someone fill me in on this because I don’t get it and I feel dumb...,f0ixnvr,vengeancerider,itgxt
">Instead they just act as tho he's old.

I noticed this too! The attack line against him is ""he's stuck in the past"".

Dems hate independent thinkers, especially when they're not white.",labiator,8sk9e,f0jsu7m,">Instead they just act as tho he's old.

I noticed this too! The attack line against him is ""he's stuck in the past"".

Dems hate independent thinkers, especially when they're not white.",f0jpjdk,CantStumpIWin,1c8d4vmy
"The very same prosecutor who shares a surname with everybody's favorite broadcaster. He had to resign from Secretaryship of Labor over the fact that he'd negotiated a plea deal with Epstein's lawyers that wouldn't have even been made had State Attorney Barry Krischer, who was hesitant to prosecute Epstein, not been urged to do so. That SA was also in charge of Florida’s Crimes Against Children Unit.

https://dcdirtylaundry.com/media-blackout-detective-who-led-epstein-investigation-died-after-brief-illness-at-50/",labiator,8sk9e,f02plju,"When prosecutors came after him during the Obama administration, they were ordered to make it go away because he belonged to intel.",ezxkgqt,ProudLikeCow,2yoy8iaq
"I have seen plenty of evidence. Fully gassed up large planes hitting buildings that 
they were not designed to take the impact of for example.",labiator,8sk9e,ezx165k,Why are you closing yourself off from the possibility before even looking at any of the evidence?,ezwzwsy,Tiller9,13dgsc
The buildings fell at free fall rate! (No they didn't.),labiator,8sk9e,ezx07eu,"Why did they announce building 7 collapsing before it did? Why did they find no plane wreckage at the Pentagon? Why were military aircraft all conveniently doing exercises far away so they were unable to respond? Why did the Pentagon's anti-air defense not work? Why did 76 cameras fail to capture a plane hitting the Pentagon? Why did those buildings have nanothermite  found within the debris? Why were there steal columns cut diagonally? Why was there molten steel seen pouring out of the building and found months later still hot? How is it that the black box from the aircraft was destroyed but a passport was not?

Questions don't make you anti-American. These questions were never answered and just because we want those answers doesn't make us conspiracy theorists. Just Truth seeking.",ezwi4sq,LaskotheGreat,2i2pnbw6
As far as I am prepared to accept any conspiracy theory it is that the Intel's knew an attack was imminent and stood by to let it happen.,labiator,8sk9e,ezwyi5p,"Indeed... For a sub that realizes ""fake news"" is a real thing, they somehow still buy into this narrative no problem. People need to read into it more and look at the 3rd party studies that have been done by engineers. Things don't add up. Hell, a lot of people dont even realize that WTC7 collapsed that same day.

[https://www.ae911truth.org/evidence/videos/video/2-architects-and-engineers-solving-the-mystery-of-building-7](https://www.ae911truth.org/evidence/videos/video/2-architects-and-engineers-solving-the-mystery-of-building-7)

This site has a lot of good information researched and tested by engineers. (I know you might already be aware of the site, but for others that may not)",ezwqib8,Tiller9,13dgsc
Randomly? Have you seen the huge gouge taken out of one corner of it and the fires that raged for hours? Too dangerous for fire crews to go near who fully expected it to come down. Hardly random my friend.,labiator,8sk9e,ezwy5kr,"And probably others as well, bldg 7 randomly fell down",ezwj1g0,Tantalus4200,165pxm
Or your pilot take you on a one way trip.,labiator,8sk9e,ezwvtdj,"I think it breaks the bubble of the world being a safe and protected place. A LOT of young people have absolutely no clue what happens in our world or how privileged they are. 

It reminds people, Yeah, one day a skyscraper you’re working in could have a plane fly into it, you could have a truck run you over.",ezwekq7,ISolvedCollatz,3zqii0ua
"Some people have a problem with Wagner, some do not.",labiator,8sk9e,ezwulp9,"As a religious person, it's hard for me to wrap my head around the idea that someone claiming to be Christian could separate and remove all meaning behind the call. Imagine if a politician said that the anthem of the Nazi party is a beautiful song because it sounds good.",ezwkdfj,DenSem,gcjy6
"> It wasn't a slip up or an admission of muslim faith. 

Then why did the interviewer correct him and he respond in kind?",labiator,8sk9e,ezwua7s,"The actual quote is something like, ""When people ask me about my muslim faith, I tell them... blah blah, I respect muslims, but I am not one, blah blah I am a christian, blah blah.""

It wasn't a slip up or an admission of muslim faith.  People who know the whole quote and still criticize it just pick on the way he chose to word it, ""my muslim faith"", claiming you wouldn't say it that way if you weren't a muslim, but its probably a nothing burger.  He was asked by the interviewer what he says in response to people asking about his muslim faith, and he responded in kind.

Far better to pick at how buddy buddy he was with muslim leaders and muslim nations, because whatever his personal faith, which he always claimed was christian, buddying up with those leaders/countries is NOT in America's best interest.",ezwby9x,Tethrinaa,arqhm
"https://www.youtube.com/watch?v=bMUgNg7aD8M

Interviewer corrects him.",labiator,8sk9e,ezwtxkr,“My Muslim faith” should be in there- he said it out loud,ezwoscg,DrCosmoMcKinley,exkb0
Buzz Aldrin would like to speak with you.,labiator,8sk9e,ezwsata," ""It means NASA would not be able to travel beyond the Earth's lower orbit without international assistance and need the help of allies to make it to Mars.""

HMMMM ....IS THAT SO? When are people going to wake up and realize the entire moon landing story was a complete hoax? We did it 60 years ago with negligible technology (a rocket and a film camera) but we can't do it again with the help of our allies? Especially Muslim allies?",ezwpe29,spamshampoo,e18wu
That may be explained by the fact that most of the women you're seeing sentenced are young and proximate in age to their victims as well as being first time offenders; all mitigating factors for sentencing. Wait awhile for repeat offender sentencing to see if there is a discrepancy and discrimination.,labiator,8sk9e,ezr3h43,I agree that is part of it. When women are involved in this stuff there is a general assumption that they are coerced or forced by a man and are victims themselves. i.e. the Pussy Pass,ezpc481,Heavens2MAGAtroid,15a1j0
"> MIT stuff regarding Epstein

Over the course of 20 years, MIT received approximately $800,000 via foundations controlled by Jeffrey Epstein.

https://news.mit.edu/2019/letter-regarding-jeffrey-epstein-and-mit-0822",labiator,8sk9e,ezr3176,Been seeing the MIT stuff regarding Epstein in the news at least.,ezph13u,KingWolfei,tjq37
You mean the photoshop pic?,labiator,8sk9e,ezr2nyn,"My best guess is that if she's arrested, some spooks will wind up dead. So she walks. 

I believe that her being photographed in public with that book was both a taunt and a threat.",ezpg5p0,iseeberliner,12wqxa
#believethatwoman,labiator,8sk9e,ezr16h2,\#believeallwomen,ezqnq2u,slickbilly777,14mi2v
A joint operation is most likely scenario.,labiator,8sk9e,ezr0ryc,Mossad/CIA connections I'm sure,ezpeys5,Gstreetshit,doip6
 Which admin passed the Telecommunications Act of 1996 allowing for the consolidation of the media into fewer hands?,labiator,8sk9e,ezqx8ng,"It's easy when you own the DNC, Media, Education System, Military Industrial Complex, etc, etc, etc, etc.",ezpx3eg,phalanX_X,g1d6v
That's why the 7d chess master moved the emabssy to Jerusalem. Keepin' those Jews guessin'.,labiator,8sk9e,ezquttk,Fun fact: Israel participated in the coup against Trump.,ezps13h,Theeeantifeminist,jwic6
the 3rd man in Jeffy's cell,labiator,8sk9e,ezqu3u3,"Sorry, out of the loop. Which Wexner?",ezplyon,UndercoverGovernor,f2h9c
"> death by yachting

A new cause of death has been discovered.",labiator,8sk9e,ezqtp4i,"It helps to note her father’s well known connections to Mossad, suspicious death by yachting, and state funeral in Israel.  Then you just need to ask who would setup a prostitution ring with underage girls for prominent and powerful men that was free?

Seriously, free.  Because they weren’t out to make money off the girls.  They were spending money to get prominent and powerful men by the short hairs.",ezpc5sl,LaurentiusValla,pgfvi5y
And the Left will no doubt fanfare this fact and also the first immigrant president just to upstage orange man. Ha ha.,labiator,8sk9e,ezfw53z,***Second*** gay president.,ezerha1,defmacro-jam,xj114
"Yes and my point is that your newly won 'rights' are at the whim of the ruler and not constitutionally protected. One only has to look at Turkey, which was far more advanced than Saudi, to see how easily things can go backwards.",labiator,8sk9e,ezdg3dm,"The Crown Prince is part of the reason why these changes are taking place. The religious citizens have criticized these changes, but they are a minority within the country.",ezc9c8b,spacecherub,9iu8e
"So, given the fact that the royal family relies on Wahhabi support, how do these reforms go down with that very conservative interpretation of Islam?",labiator,8sk9e,ezbnirm,They are able to travel alone. This was changed when the government ended male guardianship laws. Withdrawing the decision would impede businesses and investments.,ezayacu,spacecherub,9iu8e
The only good democrat is an out of office democrat.,labiator,8sk9e,ezaxi80,How is this upvoted? Tulsi isn't even close. Tulsi is a good Democrat,ezao9n2,xzibit_b,kp4mc
Travel without a male family member chaperone? Are these rights or privileges (There's a difference - one can be withdrawn)? How far down the food chain does this go? So many questions.,labiator,8sk9e,ezavl9d,"And own your business, travel, take out loans, go to any top universities around the world, and participate in government.",ez9w7vd,spacecherub,9iu8e
Well you can drive now. That's a start.,labiator,8sk9e,ez9ptjl,Saudi women are gaining more rights by the day.,ez9mw4v,spacecherub,9iu8e
"Maybe in the west you do but not in sharia land. No cherry picking there. Em, so to speak.",labiator,8sk9e,ez9m60e,"I'm Muslim, and my Muslim community doesn't see me less than a man. It sounds like a cultural problem to me.

I am biologically dissimilar to men. I am physically weaker than men. These are facts. If you and I lived in 600AD I would expect you to protect me because I am the weaker sex. Now we live in 2019 when I am able to arm myself, now I don't need your protection. 

Islam GAVE women more right at the time. Now it is outdated and we have the ability to choose what parts to follow in the Quran. Either way, you can't treat me like cattle.",ez9cy1g,spacecherub,9iu8e
#Lots of reps,labiator,8sk9e,eya51lw,"# #Resistance training
Poor guy doesn't want to pull a hammy when they lose 2020 and march on Washington.",ey9pirm,BernillaryClanders,w9mgb
the pushers,labiator,8sk9e,ey9ewzk,Sex is shoved in everyone’s face non stop from childhood till death.  Who’s behind this evil?,ey9bsu1,Iswag_Newton,14g0jg
Lived in separate apartment buildings iirc.,labiator,8sk9e,ey50n8k,"ya no...

her passport indicates a date of birth of 8 October 1970. In 1978, following the change, Previn was adopted by Farrow and her then-husband, [André Previn](https://en.wikipedia.org/wiki/Andr%C3%A9_Previn),

In 1979, Mia Farrow ended her marriage to André Previn and began a long-term relationship with [Woody Allen](https://en.wikipedia.org/wiki/Woody_Allen).

made her 9...when he and farrow lived as a family, they had a child together...he, thereby becoming her ipso facto parent...",ey47f1f,odilonlaure,1n9k2xtj
"Three Americans hailed as heroes for thwarting a jihadist attack on a train between Amsterdam and Paris were officially welcomed as French citizens on Thursday in a ceremony in the US state of California.

https://www.france24.com/en/20190201-americans-who-thwarted-thalys-train-terror-attack-become-french-citizens",labiator,8sk9e,ey50bbs,French TGV train Thalys from Bruxelles to Paris. Not metro,ey4jnls,tancredi88,8028q
Ask Chief O'Hara,labiator,8sk9e,exrz85a,Did the villains get due process?,exrgesj,SAW2TH-55th,mlxa8n8
Vigilantism is taking the law into your own hands. Batman and Co were acting more like deputies delivering up villains to the authorities.,labiator,8sk9e,exreyht,OK I'll give you Superman.,exrekdy,labiator,8sk9e
OK I'll give you Superman.,labiator,8sk9e,exrekdy,"Superman wore a mask?

While those fictional characters are “heroes”, vigilantism is still considered a crime, which is the hallmark of Batman and the like.",exr6huc,SAW2TH-55th,mlxa8n8
"> universally in history and fictional movies/books it was the bad guys that wore masks

you didn't think that one through did you? Zorro, Batman, The Phantom, Superman....",labiator,8sk9e,exqw5nb,"Can some one tell me a single instance in all of history where good guys wore masks to hide their identity?  I have racked my brain and universally in history and fictional movies/books it was the bad guys that wore masks to hide who they are.

Spez: the guy on the left looks like a giant human phallace with a face peaking out of a foreskin.",exezipf,SAW2TH-55th,mlxa8n8
Got links? if that other comment flew past you.,labiator,8sk9e,exqut45,Look up Tarantino sucking on those baby toes- it’s the same couch from the plane,expou1e,DrCosmoMcKinley,exkb0
Erroll Flynn,labiator,8sk9e,exq4d6a,Charlie Chaplin,expnte1,Tunderbar1,n6hei
If he ends up on the Mount of Olives like Maxwell you can take it to the bank he was.,labiator,8sk9e,exq386x,He had to be Mossad.  Especially being mixed up with Maxwell (almost assuredly a mossad asset also) and her father was Mossad.  Couple that with pics of the former PM of Israel sneaking in and out of Epstein's NYC apartment.,exp8ah1,Collusion_illusion,1iyp6gl3
French Connections.,labiator,8sk9e,exq203r,Gotta wonder what DeNiro is hiding.,exprjqd,Petrarch1603,325l7
Rinky dinky?,labiator,8sk9e,expuq0k,Look up Tarantino sucking on those baby toes- it’s the same couch from the plane,expou1e,DrCosmoMcKinley,exkb0
"He wasn't exactly high profile though. Maybe to us but not really in the greater scheme of things. Besides, his talents were of more value he being alive. Just a tragic set of circumstances really and a vulnerable personality type.",labiator,8sk9e,exo2u5d,"Sure, maybe it really was a suicide. I’m just not convinced so much anymore. We are seeing how the globalists have been taking over everything in secret for the last couple decades, so it’s all on the table as far as I am concerned. Every high-profile suicide that gave the globalists more power should be looked at.",exm3g8v,sun_wolf,ruvus
Hehe forgot about the #formatting,labiator,8sk9e,exle0ga,#arkancide or #clintonbodycount would be my preferred choices,exldu5l,labiator,8sk9e
#arkancide or #clintonbodycount would be my preferred choices,labiator,8sk9e,exldu5l,"Somebody tell this guy if he wants to attract Hillary's attention on Twitter, he should use @Hillary and not #Hillary",exkt4sg,reagan2024,t8fc0
He was a co founder only and more of a junior partner I believe.  Zero's DoJ was hounding him over his theft of Stanford's IP. The server in the cupboard.,labiator,8sk9e,exlculk,"One problem is any alternative to Google that starts to get popular just gets bought up by Google. That’s one of the reasons why the idea of making our own platforms doesn’t really work. If Bitchute becomes more popular than YouTube, Google will just buy Bitchute. It’s not like they bought YouTube because it was so awesome; they bought it because that was where everyone was. Facebook didn’t buy Instagram because they really love Instagram; they bought it because that’s where everyone is. 

These multinational conglomerates that are against national sovereignty are just going to buy up anything that gains steam. That is the problem. Money is no issue for them because they are in cahoots with the banks, and the banks are just printing money out of thin air. The whole free market model is completely fucked up. Say Instagram doesn’t want to sell to Facebook. Zuckerberg just has his handlers print another two or three billion and makes Instagram an offer they can’t refuse. And that’s just the fiat currency problem. There’s also blackmail and murder happening behind the scenes too. The founder of Reddit was probably murdered because he wouldn’t sell the platform. And look at that. Now China owns Reddit. Magic! 

They have so much power that they are able to get the banks and monetary system to shut down the accounts of their competitors! Anyone who thinks there is a purely free market solution here is naive.",exkpbl1,sun_wolf,ruvus
YT did it better.,labiator,8sk9e,exlciik,People seem to forget that Google Video was a thing at the same time Youtube was starting out.,exkygox,liquorbaron,exgj9
So presumably you are for late term abortions then and on the delivery table?,labiator,8sk9e,exi6dbo,"Science without bias is near impossible these days. 

There isn't enough money, people willing to adopt, and space to manage every single unwanted child or child that is doomed to abuse or neglect.

Not all humans are created equal  some are born murderers, some are born incapable of raising and supporting a child correctly even with massive social safety nets.

The problem is humans are essentially animals so expecting them, especially those on the side of poverty  to not have sex is expecting the near impossible. Family planning and contraceptive education is not widespread enough to cover for that animalistic nature.

Sure, if every well off family with fertility issues decided to adopt instead of IVF and surrogate then maybe an abortion ban would be fine  but as it stands I don't wish 1 million children a year born toto parents who don't want them at all or can't raise them properly.

Then there is the matter of illegal or refugee children..sorry but common sense and the greater good keep me from being pro life",exhts7k,axrevolutionai,10rdts
All alarum bells should be ringing! It's but one step away from social credit scores.,labiator,8sk9e,exi23f3,Universal Basic Income.  A form of wealth redistribution-socialism-in which everyone is given a minimum amount of money from the central government.,exhpz2f,jamesruglia,ipr5avj
I would have thought they were the base of the Ukipperss. Labour has shed a lot of the traditional voters leaving a rump of extremist nutters like Corbyn.,labiator,8sk9e,exhyv5p,"I think he truly believes in socialist programs but he doesn't buy into the politically correct, intersectional bullshit that the left has aligned itself to ie these days he would be considered a social Conservative but a fiscal Liberal. This type is surprisingly common in the UK : types who will always vote Labour because they support the increasing welfare state, the NHS, etc but actually hate immigration, the EU, LGBTBBQ+ mania, etc.",exhdfh8,anarchy404x,x8a4klr
You mean like Alex is with his guests?,labiator,8sk9e,exhy0qc,"That Jones interview was great. Eddie Bravo drives me insane when he's with Alex though, like stop pushing the dudes fucking buttons and let him speak.",exhuqbb,kyuss80,jjkfr
That could explain it. Try the old.,labiator,8sk9e,ex3lxc9,New,ex2huda,WavesOfBrain,2h8kx9dt
Are you on the old or the new?,labiator,8sk9e,ex2gwiu,"Reddit desktop has removed T\_D from my favorites dropdown menu.  I think this has happened to others as well.  

Anyone know of a fix?",ex2cy58,WavesOfBrain,2h8kx9dt
Never did never did did,labiator,8sk9e,ex2gg0l,"2019 pro-tip:  Stop using Facebook, Twitter, and Google.",ex1rouy,stealthboy,1mhy4
"Her name was Āʾishah bint Abī Bakr and her memories formed the basis of the Koran, allegedly.",labiator,8sk9e,ewtetkf,"I spezzed this out of my comment earlier to today because I wasn't sure if plebbit would allow this truth to be posted because *muh raycism*.

So happy to see that we can remind the world that

#MOHOMMED FUCKED A CHILD

... for years.",ews40w3,Toughsky_Shitsky,13mnkb
The Golden Rule covers this.,labiator,8sk9e,ewtceak,"I do agree with this. If you read any of those old religious texts, *actually* read them, you'll be mortified. 

If I had a write a new book, the first commandment would be: ""Don't be a dick"".",ewstiwz,OSUfan88,akfsq
Deus Vult!,labiator,8sk9e,ewtc801,"Lol. We're not allowed to say Deus Vult but it's fine to say Allahu Akbar.

Nice one Reddit...",ewsucti,mmmhthatguy,16lrx3
"Shooting blanks just like his show, probably. No idea what people see in it.",labiator,8sk9e,ewsxc8n,Crowder is controlled opposition. He's also probably a closeted homosexual. He needs to give his beautiful Christian wife some babies.,ewsrepo,Tullipso,14jlfs
He's a coward AND a fool then. If America falls Israel is doomed.,labiator,8sk9e,ewswtjt,Shapiro doesn't even respect his audience enough to hide it. I remember him responding to an audience question about what he would do if things got bad here. He said he'd move to Israel.,ewsqpg2,smilodoner,l0cqx
"He got owned by Andrew Neill of the BBC. Totally. Not a man you go into circus maximus against, unprepared.",labiator,8sk9e,ewsw3ay,I don't understand how people enjoy listening to him. I tried. His voice is worst than Hannity and spits a million words a second. Then he virtue signal like and msm host. It's terrible lol,ewsnqh8,myanimal3z,x7hqe
CUNTrolled opposition,labiator,8sk9e,ewsvdih,LOOKING AT YOU HANNITY!,ewsjwyq,texapede_yall,5jmefl0
Dresses and sure bets.,labiator,8sk9e,ewr08wv,"Former FBI Director J. Edgar Hoover: ""There is no mafia.""",ewqjcgi,thekillingjoke__,4vtds1o
Sesh was going to town on the pedos.,labiator,8sk9e,ewqjh6x,"Word is he spent 26 million blowing the tunnels out months ago but just investigations now...

Wait until the corrupt FBI find out Military Intelligence + NSA have ALL the necessary video and phone metadata already - which was obtained through a LEGAL FISA under ""Sleepy"" AG Sessions.

Enjoy the show.",ewq1sx4,dzbadman604,yte8b
The .1 of 1%? That elite?,labiator,8sk9e,ewqj69w,The CIA and FBI’s job is to protect the elite. Change my mind.,ewpnoqv,Edge27,6dedf
La Cosa Nostra did. Know what I mean? Taps nose.,labiator,8sk9e,ewqj2nr,People had faith in the FBI?!,ewplv5l,Theeeantifeminist,jwic6
She's servicing Ghislaine.,labiator,8sk9e,ewq12v4,"Kek!

Is Comey's daughter along for the ride?",ewpj1wj,Toughsky_Shitsky,13mnkb
29 raiders you mean?,labiator,8sk9e,ewptxu1,"I dunno. Could they come to your house right now and arrest you for a totally made up reason, fabricate evidence against you, and lock you up for as long as they wanted to without breaking a sweat? I'd say they have us pretty much in check",ewpkd1t,SuPeRbRiZ,ipvsy
"He seems to like the limelight. I think I saw him on a documentary re the last tsar. Here's an older piece on him https://www.nbcnews.com/storyline/michael-brown-shooting/who-dr-michael-baden-coroner-examined-michael-brown-n183516

>But Baden’s success has not been without controversy. In 1979, after just 11-months as the chief medical examiner of New York Mayor Ed Koch fired Baden. He claimed that the hot-shot examiner had lost evidence and worked poorly with prosecutors. Baden later won $100,000 in a wrongful termination case, but he was pushed out of the office nonetheless.

>“He is very bright, but he has a propensity for giving out statements and testimony which are not entirely accurate.”
A few years later, Baden was fired again, when he worked as the deputy medical examiner in Suffolk County on Long Island, according to the Los Angeles Times. An article in Oui Magazine quoted him giving advice for getting away with “high tech murder.” He later denied the quote, but one of his fellow pathologists grumbled about the ethics of a medical examiner giving “advice on how to kill people,” and Baden was forced out.",labiator,8sk9e,ewpto5k,"Anyone have dirt on this Dr. Michael Baden? Supposedly he's the same mofo who was present during JFK, MLK and apparently Epstein's autopsies..",ewpmr0s,EternalKidP_D,ytwhwb3
"The real purpose of the ""raid"". Confined to Fantasy Island. Haitian handmaids on the standby.",labiator,8sk9e,ewpryqb,I'm guessing they escorted him back and told him to stay put.,ewpjvk7,SmithWessonMP,ag9d9
"It's all about smearing William Barr. Sure, as with any professional, particularly lawyers, he may have found himself in a potentially conflicting situation, given his firm's relationship with Epstein but going after his father? That sounds like desperation to me and who would even be in the know as to such a footnote in his biography as to pass it to the media?",labiator,8sk9e,ewprl5t,"Now I want to just say with respect to this article, just because he wasn't working there doesn't mean he didn't help get him a job there, however this is exactly the type of shit I wanted to see because now I am looking deeper into the proof that he actually DID hire him and finding that a lot of places that have ""proof"" are quoting ""sources"" and we all know how that goes.....",ewpj1bn,MrPapadapalas,o2p54
https://milnenews.com/2019/07/15/what-if-we-told-you-william-barrs-father-didnt-hire-jeffrey-epstein-and-could-prove-it/,labiator,8sk9e,ewpi2sa,"Just curious what other people think about this, but has anyone seen the connection between Barr's father and Epstein? And also Barr's fathers book? I'm not saying William Barr is complicit but thats kind of a weird connection his father had and an even weirder book right?",ewoxn4c,MrPapadapalas,o2p54
https://milnenews.com/2019/07/15/what-if-we-told-you-william-barrs-father-didnt-hire-jeffrey-epstein-and-could-prove-it/,labiator,8sk9e,ewpi1wq,Is Barr's father the same guy that hired Epstein as a teacher? Or worked at the school around the same time?,ewp04fz,bbpg24,15y7n9
"They all know now what to expect. No jail can protect them, should they seek a plea bargain. Hell, even if they don't.",labiator,8sk9e,ewpe20c,"I don't think people realize, it actually makes it easier for them to prosecute any co-conspirators.  With Epstein alive his lawyers could have tried to postpone trial and evidence until next year. With him gone, he doesn't have the right to a fair trial, making all of the evidence against others immediately admissable.  (I am not a lawyer, just what I read)",ewp3itt,omnipotent_1,6j54e
With you on that. Particularly given her family history.,labiator,8sk9e,ewpbp0z,"Anyone who researched at all into Jeffrey Epstein should recognize the name Ghislaine Maxwell.
She hasn't been touched at all, even during his initial sentencing. that's kind of weird.",ewp37bx,Wolfhoof,837s9
You mean in 1974 after he had resigned? What relevance does that have to things now?,labiator,8sk9e,ewpbk3q,Is Barr's father the same guy that hired Epstein as a teacher? Or worked at the school around the same time?,ewp04fz,bbpg24,15y7n9
