child_body,child_screen_name,child_user_id,child_tweet_id,parent_body,parent_tweet_id,parent_screen_name,parent_user_id
Wild fires,LobotXIII,20jkc1xp,fkw9c8c,"I forgot, what happened in February",fkvwy4t,Mercury925,1fse7reu
"Haha Idk how anyone donated to Bernie again and expected a better result. Honestly, these people do it to themselves. Lol",LobotXIII,20jkc1xp,fkmaw5a,No refunds v2.0,fkktnqr,Cyrus2112,12apsi
??,LobotXIII,20jkc1xp,fk32ygc,Absolutely. Whispers in the UK that Feldman may be slightly.... predatory himself after his uk tv appearances  few years ago,fk2d5ba,TvHeroUK,35k61bsv
Another out of context quote talking about gold diggers. Not exactly pedophilia.,LobotXIII,20jkc1xp,fk0ne3l,"""Grab em by the pussy""",fk0nc2u,Soft-Gwen,3qy06w47
Biden is on camera touching teen girls and saying disgusting things. Trump isnt.,LobotXIII,20jkc1xp,fk0lqqv,"Funny how your definition of a molester is so distinguished that you can call Biden one, but not Trump. They're both disgusting.",fk0lo9r,detective_lee,i5b1zqa
Lol another out of context quote talking about gold diggers.,LobotXIII,20jkc1xp,fk0ljv2,"And recording of him admitting to grabbing women ""by the pussy"".",fk0l47q,nakedinatube,3d1w1h9t
"You know, THE war",LobotXIII,20jkc1xp,fk0ixno,"Enlighten us, which wars have Trump gone into?",fjzwa9i,fjantelov,2ij5311a
....,LobotXIII,20jkc1xp,fk0ihta,What does that have to do with anything?,fk0ig8x,Zredbird13,5e3j6zw
"Go look at who owns pornhub, and most of the film agencies.",LobotXIII,20jkc1xp,fk0ida5,Source?,fk0hy9v,worstsupervillanever,h0xjp
Trump isn't molesting little girls on camera like biden. Nice try tho,LobotXIII,20jkc1xp,fk0hhfp,Have.... have you seen the guy in charge?,fk0h9gm,nkdy,wsa2h
Yeah I agree. Still was satisfying to watch,LobotXIII,20jkc1xp,fjtmy7g,got to stop creating penalties,fjtmani,mrfuzzyshorts,kqchx
"Whoa, that would be a lot of grit",LobotXIII,20jkc1xp,fjtccsp,"Would love to see him, Hathaway and Wilson on the same line. So much damage would happen",fjtc1yk,MUHerdAlum703,hrmiq
Dillon has the grit,LobotXIII,20jkc1xp,fjtbp0g,So happy we have Dillon. Hopefully he can stay,fjtb9yp,MUHerdAlum703,hrmiq
Scratch that,LobotXIII,20jkc1xp,fjly81q,...at least there's no pk now?,fjly6iu,6Plus6Equals1,eyt1h
You are not worthy of Wednesday frog!,LobotXIII,20jkc1xp,fjhsqpz,Wtf,fjgpjta,troe_uhwai_account,46maso4p
"7 and 8 still messed plot lines up and suck, so it doesn't matter. The whole trilogy sucks. The only good Star Wars to come out of Disney is 20 minutes at the end of R1 and Fallen Order.",LobotXIII,20jkc1xp,fj8umiq,"Episodes 7 and 8 don't ruin the prophecy of Anakin, Snoke and Kylo aren't Sith. Darkness will always rise, but his prophecy was of destroying the Sith. Until Palpatine shows up in 9 with no explanation.",fj7zf54,SupremePalpatine,1gls2g77
Ok?,LobotXIII,20jkc1xp,fj5ii1i,https://www.esquire.com/news-politics/news/a47407/american-nazi-party-supports-trump/,fj5gm83,lolabulldoza,42pmf4y4
You literally just posted a wall of hyperbole,LobotXIII,20jkc1xp,fj4v9n3,"Because hes been blaming immigrants for everything in the same manner jews were. Not to mention, yes, immigration can spread a disease, but that is neither what he said nor a complete truth in this case. It comes from China (building a wall doesn't help with that), and typical cases are completely unrelated to immigration policies (what he was actually talking about) in any way. Once the disease has reached another place, any further spread cannot be blamed on the source of origin. Just like it doesnt matter what animal it came from because now it's in humans and that's how it spreads. Trump is linking it to immigration (the entire reason he got elected was blaming immigrants to the south for everything) when it has nothing to do with it. 

Yes. Immigration causes the spread of diseases. That's true in a vacuum. Many other things are too.",fj4tp62,Luceon,mpdld
Promising free Healthcare and college and comparing it to countries that aren't actually socialist is propaganda.,LobotXIII,20jkc1xp,fj4j3wg,"No. I’m talking about Trump and his divisive rallies that create an enemy within. All politicians have rallies, but the theme isn’t how they are being attacked and loaded with lies and propaganda.",fj4gofn,dakandy,1zz5jz17
Do you disagree?,LobotXIII,20jkc1xp,fj4j0ne,An unusual response in this sub.,fj4hxgl,dakandy,1zz5jz17
"Bernie is all about division until it's inconvenient for him. His whole shtick has been millionaires and billionaires being bad until he became a millionaire, owned an audi and three homes. Now just billionaires are bad.",LobotXIII,20jkc1xp,fj4hp26,"Is Bernie spewing divisiveness? Trump’s rallies reinforce division and further create an enemy. Sanders does not. All politicians have rallies, but instead of a divisive nationalist atmosphere, he’s mostly into health care, education, and corporate greed.",fj4gfnd,dakandy,1zz5jz17
I'm literally shaking right now and dropped my tendies all over the floor,LobotXIII,20jkc1xp,fj4dsz6,"I also heard he....wait for it... eats food.

Its almost as if he has Hitler's playbook.",fj4cwrz,TrueDeceiver,gjr6p
Because talking about immigration spreading disease (which is a fact) and jews in nazi Germany are totally comparable.,LobotXIII,20jkc1xp,fj4dpaz,Yes obviously comparable,fj4ataf,Luceon,mpdld
They removed all the mods on this sub and are replacing them with reddit approved mods.,LobotXIII,20jkc1xp,fj1pk8z,"Yes, what’s up with that?",fj1p7ib,LeighDeplorable2,4thfviy
"One of your posts makes you look like a pedophile. Lmao

Why are all of you such degenerates? 😂",LobotXIII,20jkc1xp,fj1pbc7,Your tinfoil hat is very stylish. Watch out for gay frogs and pedophiles in pizza parlors!,fj1gqou,Steeltrap666,puha9
Let's see their business cards,LobotXIII,20jkc1xp,fiz1c9m,Joe's suits > Craig's suits.,fiz181i,DJ_L3mtastic,gchgo
"Never give up, never surrender. - Tim Allen",LobotXIII,20jkc1xp,fiv2ffe,We will never surrender. KAG2020,fiuen18,G-from-210,4c1j81td
That would have been a save if oshie didn't knock Holtby back with the puck :/,LobotXIII,20jkc1xp,fikmmrx,HOW TF DO WE ALLOW THAT PAST US?!?!?!?!?!,fikmjlg,0_Olivier_0,4m72fp6v
Lol,LobotXIII,20jkc1xp,fiimhxj,You publicly spoke out against trump on those issues in the_donald? Have a link to the comments?,fiie17q,AnorexicBuddha,7c9ih
"Like when he thought the red flag laws were a good idea, Iran, Syria.",LobotXIII,20jkc1xp,fiicr4a,Like when?,fii2m4q,AnorexicBuddha,7c9ih
"I've personally seen his supporters disagree with him on things, including myself, so I don't think that's true.",LobotXIII,20jkc1xp,fihiglf,The people on that subreddit will change their opinions on a dime if it means defending trump.,fihcles,AnorexicBuddha,7c9ih
Why not? You really believe the one subreddit that is constantly shouting blue lives matter is going to threaten cops?,LobotXIII,20jkc1xp,fiha1ys,There's no way you can possibly believe that.,fif2o7z,AnorexicBuddha,7c9ih
"Even Ovie tonight was taking a dumb penalty  against a team that you don't want to have to PK against. The puck was cleared from the front of the net, he didn't need to do that. Hope we don't do anything wise like that again. *knock on wood*",LobotXIII,20jkc1xp,fi8t0qv,Welp holtby looks great. Dillon looks good...everyone else looks like they’re struggling horribly against the freakin Habs so uh. Wtf now coach?,fi8sr6a,basketcase2121,dy6tu
I agree,LobotXIII,20jkc1xp,fi8si47,Don’t crucify me for this but I feel that Wilson would be better on the 2nd line and bring Oshie up to the 1st. 2nd line needs physicality and Oshie would be better with Ovie and Backy,fi8sgrg,imbothslimandshady,15y9xp
https://www.nbcsports.com/washington/live-stream,LobotXIII,20jkc1xp,fi8o5fz,"Anyone have stream link, Hulu blacked out the content for me on nbcsn",fi8o0bg,FrigidArctic,3nbth2o3
I have a sneaking suspension it's going to have some form of identity politics undertones in it as well. Bleh,LobotXIII,20jkc1xp,fi70lhf,And both of theses characters are suppose to be dead. Unless this is apart of the matrix program after it has rebooted itself again and they are going to do something differently this time (which they did last time too). No one even wanted the second or third ones neither. Now we’re getting this because why? Money? Sad to say that what might be Keanu’s swan song is just a cash grab,fi6z1db,smoozagoozle,kltkhyw
Trinity looks like a grandma lol,LobotXIII,20jkc1xp,fi6yn4c,I love him as an actor but this movie is going to be so bad. They literally ended the franchise. The story is over,fi6j4xy,smoozagoozle,kltkhyw
"dEmOcRaTiC sOcIaLiSt!! 

Fucking kys retard",LobotXIII,20jkc1xp,fi2k2wz,thank goodness retards like you who don’t know the difference between a democratic socialist and a communist invariably knuckle pump yourselves out of the gene pool,fi2j4ep,FrozenBubbleGuy,hw58v
... what?...,LobotXIII,20jkc1xp,fi17a0x,"Allegedly, there are reports of the main administration knowing of said cases but, like the Catholic Church, instead of dealing with said cases they shuffled around possible perpetrators in an effort to quiet down the problem.

Sure, I get your point where it was 30y ago and so.. but you can't just brush the cases off due to them being far back in time. We're talking possible child abuse here, that shit sticks. The alleged victims need this closure, and they have the right to take it to court.

Your actively participating in victim blaming when you brush it off like it's nothing",fi14ema,Breadslice98,397mk2aj
We just need our effort to match our talent lol,LobotXIII,20jkc1xp,fhz06ps,All I'm asking for is the effort not the talent!,fhyzv7u,MicSing21,7licz
Time to fire Papa John!!... wait...,LobotXIII,20jkc1xp,fhyy3f8,"It's a conspiracy by papa john's to not have to pay out the discounts when the caps win.  I don’t know how they’re doing it, but i blame papa john's.",fhyy014,keyjan,mlz96
... wooosh,LobotXIII,20jkc1xp,fhyy03c,"Yea, I do. I don’t see how what we were discussing has anything to do with fighting in hockey? We’re you asking me to drop the gloves? Cuz I’m not wearing gloves and we’re not in the same place",fhyxw6e,capsfan1213,16w21i
... you watch hockey right?...,LobotXIII,20jkc1xp,fhyxl8l,"To be honest, I don’t know what this means",fhyx3cw,capsfan1213,16w21i
"But he has Capsfan in his user name bro, that's how you know he's a true fan",LobotXIII,20jkc1xp,fhyxbwf,"Support your team through thick and thin, can't be there for just the good moments",fhyx8pw,Irishtommy,bx8ic
Bye Felicia,LobotXIII,20jkc1xp,fhyx857,"All you silent downvoters that don’t have an intelligent opinion to share so you just downvote criticism, go ahead and downvote. This game is over and anyone here that goes to the game Thursday is an idiot and wasting money watching this team. Night y’all",fhyx21h,capsfan1213,16w21i
What is this? a game for ants?!,LobotXIII,20jkc1xp,fhywmsk,Great camera angle here,fhywkss,BowmasterDaniel,vimf1
Do we throw our gloves off yet?,LobotXIII,20jkc1xp,fhywj83,"When the team is playing the way they’re playing, it gets frustrating. People are just venting those frustrations",fhywapv,capsfan1213,16w21i
I don't even disagree with a lot of the complaints aside from people throwing Holts under the bus and the quiting attitude pisses me off.,LobotXIII,20jkc1xp,fhyw0kx,"Lol yea, I forgot you’re the only person who supports the team when they’re not playing well. Also, I think it’s funny how you decided to pick a fight with me when all I said was this team won’t win anything the way they’re playing right now. If you disagree with that, you don’t know hockey, cuz they’ve been playing dogshit hockey the last 3 weeks and if not for Ovi winning a game himself and probably Jensen’s only productive offensive play this season, they’d be on a 6 game losing streak. Tell me how that’s good",fhyvcuu,capsfan1213,16w21i
Okay fairweather friend,LobotXIII,20jkc1xp,fhyuxnt,"Wow, you’re angry, ok. Sorry for trying to have a discussion like an adult.",fhyurxs,capsfan1213,16w21i
That's still quiting you retard,LobotXIII,20jkc1xp,fhyuejs,“Can we just forfeit the rest of the season and start the postseason?” At least accurately quote. Makes a huge difference for context,fhyu98q,capsfan1213,16w21i
"""Can we just forfeit the rest of the season?""",LobotXIII,20jkc1xp,fhyu0u0,"Who’s quitting? Seems to me OP’s just venting his frustration with the way this teams been playing recently, the same way a lot of us are",fhytrph,capsfan1213,16w21i
"No, but I don't act like a little bitch and quit when it isn't going well.",LobotXIII,20jkc1xp,fhytmto,Lol why is his name ridiculous? Do you think this team would win anything playing this way right now?,fhytee5,capsfan1213,16w21i
Your name is fitting,LobotXIII,20jkc1xp,fhytbiu,Can they just forfeit the rest of the season and start the offseason already? That would be less embarrassing than the garbage they're putting out on the ice lately. There's 0 chance they're winning anything playing like this. Smh.,fhyt4hx,Jackassintheb0x,162ptv
"I still stand by what a lot of people have been saying. It's been our defence this whole time, not so much Holtby",LobotXIII,20jkc1xp,fhyt6aj,Goddamn monkey’s paw. Now we have Holtbeast back but we still suck,fhyt2ed,basketcase2121,dy6tu
"Ah, I guess I was generalizing too much. I guess I see more western European news, which is definitely left.",LobotXIII,20jkc1xp,fhy3kf4,Hungarian media is right wing.,fhy30k6,Iwanttobefree27,52lppbkh
"... ultra right wing?..... as far as I can tell, almost all the media out of Europe is far left garbage. What are you talking about?",LobotXIII,20jkc1xp,fhy2tcb,"we have a lot of propaganda here and the state media is not that reliable they have a clear ultra right wing narrative and they have been caught using falsified videos and statements multiple times.

I told multiple people on the bus that this has to be fake no way something like this is happening 20km from us but it is from the looks of it",fhxhzlv,Iwanttobefree27,52lppbkh
We travel in herds,LobotXIII,20jkc1xp,fhjuyx9,I was talking about the crowd.. lol,fhjuwdh,demondeacon336,5kbs16te
What why? He's head multiple good blocks this period?,LobotXIII,20jkc1xp,fhjqqmx,"Honestly, I'd have pulled Holtby and gone 6 on 4 there.",fhjqkyz,Zither74,jpchi8g
"Would be cool to see tonight, but I'd rather see it at a home game. I mostly just want to see our defence actually do its job tonight and for some decent power plays.",LobotXIII,20jkc1xp,fhjj3x7,I don't give a shit about 700.  Just show me a team that plays well.,fhjiwdx,caadbury,92m6a
"Another user on this sub made a really awesome jersey I would love to see used.

https://i.imgur.com/A3zKrOo.jpg



https://i.imgur.com/e9QR1EV.png

I love old school 90s screaming eagle combined with the tradition colors. So it's still rocking the red.",LobotXIII,20jkc1xp,fhbkn2x,Maybe the ones they wore in the Stadium Series?,fhbh4v7,DaniCapsFan,3ik7nccl
You're*,LobotXIII,20jkc1xp,fh1fjzv,Your wrong,fh1fbq6,Fragglerockisbad,1kmokd3e
Me,LobotXIII,20jkc1xp,fh1f5ww,"So, anyone still defending Holtby?",fh1enja,Knight_Hawke,zrc9j
Well done!,LobotXIII,20jkc1xp,fg59y78,"Might as well get on this train.

Ovechkin is due for a goal",fg5665g,Hightowerer,d6j9m
Gotcha,LobotXIII,20jkc1xp,fg57m0j,They beat the Sabres 5-2 on Tuesday,fg57c6y,JRockPSU,4byex
When was their last game? They looked tired just going into the first period,LobotXIII,20jkc1xp,fg5785b,Crazy to think we have almost double the points standing wise than Ottawa.,fg57059,Necx999,ahm39
How do we even know she's alive? She's basically on life support. Lol,LobotXIII,20jkc1xp,fg0ypmm,"Good for Rand for posting this, and fuck Roberts.  Can't wait until Trump replaces RBG.",fg0nqka,physical_kid,127nbj
Jinx,LobotXIII,20jkc1xp,ffsaz84,what a save!,ffsavb3,esims42,6amwy
God is the ultimate scientist. The two don't contradict anything.,LobotXIII,20jkc1xp,fffm37j,"Remember the Catholic church funded the first telescope looking into the stars, the first scientist to think about the big bang theory was a priest, the first mechanical clock was invented by a priest, the first expedition Charles Darwin had was funded by the church, and evolution itself has been praised by Pope Francis as being the work of God. 

https://youtu.be/OcJDWKv4gUY

It is so funny to hear that people think science is anti religious. All of our scientific discoveries can be traced back to the church. And they somehow think science proves God wrong. Science proves that God is wiser than anyone.",fffj2hd,Xtorting,aqjow
*these,LobotXIII,20jkc1xp,fetldya,This power play is ridiculous.,fetl8mk,kodiakgrappler,29xcliac
"I can sympathize for people who are going to college, genuinely trying and getting a degree in something meaningful and reasonable that struggle, like becoming a doctor, lawyer, something in stem, etc. 

People that go to college and don't know wtf they are doing, get art degrees or some kinda of stupid social science, gender studies and rack up a ton of debt, I have zero remorse.

That being said, only go to college if you know what you want to do. Otherwise, just get a regular job and wait until you have come to a conclusion. Don't waste your money and everyone else's changing your major and classes non stop, and don't act surprised when Joe shmoe doesn't want to pay for it. Not everyone one needs to go to college. You can get perfectly good paying jobs being a blue collar boy or girl, some decent white collar jobs don't need a degree either, and won't rack up massive debt.",LobotXIII,20jkc1xp,fegztga,"“Cancel Student Debt”

How about instead - and hear me out here - you fuck off, get a job to pay for the education you knowingly took loans out to receive (education isn’t cheap and uses a ton of resources and I don’t give a shit if the job is in your degree’s field or not), and stop bitching about how you have to make good on a promise you made? Is it really asking the world of these people when you ask them to act like adults and pay the debts they signed up for?

Zero respect for this “cancel debts” platform and this alone is enough for me to never consider Bernie or Warren in any capacity for any office. Utterly stupid.",fegewh7,BudgetPea,1s77gxm1
Sadly,LobotXIII,20jkc1xp,fefwz92,Was this actually said?,fefvo7e,lucaskhelm,h9l77
"... how are they fascist or white supremacist?..

Lol how about actually answering my question?

Bunchy salty a-holes",LobotXIII,20jkc1xp,feelm22,Yeah because people who support QAnon and other lunatic fascist/white supremacist conspiracy theories are definitely not currently serving in government and law enforcement agencies.,fee5bqg,OK_Soda,ifo8u
"I didn't say it's impossible, I just meant it's unlikely.

Idk why you decided to argue over something stupid like this",LobotXIII,20jkc1xp,fedy7xz,so? that doesn't prevent *black and white photographs from being taken in (current year)*,fedxvxe,nmagod,4clpv
"No shit, look at all the images though. All the ones of Castro are black and white, all the ones of Justin are color.",LobotXIII,20jkc1xp,fedxsfd,"> Justin isnt old enough for it to be black and white

you know you can literally find black and white cameras *and* film right now

RIGHT NOW

yes?",fedxb3s,nmagod,4clpv
"Justin isnt old enough for it to be black and white. Other than that, yeah, it's really difficult to tell.",LobotXIII,20jkc1xp,fedw5uj,Thanks for confirming. I genuinely couldn't tell.,fedti1q,thesleepingsatellite,pw04x
"... you're supposed to separate adult criminals from children. This has been going on way before Trump, and it isn't any presidents fault.",LobotXIII,20jkc1xp,feb0x50,"You are correct. Though it's understandable, considering one is the president right now and is having families separated at the border and kids disappearing......",feayzl2,InfrastructureWeek,39aeu0qk
"He's holding it, you just can't see it. So it's accurate.",LobotXIII,20jkc1xp,fe65bzd,"He's missing the 200 lbs of random stuff I picked up that i ""need""",fe60cpq,Twist161,jguxk
He made it up,LobotXIII,20jkc1xp,fe3mqv3,"> Yes but most people

I'd love to see how you got that percentage.",fe3en9z,TheSkipRow,sitr3
No u,LobotXIII,20jkc1xp,fds7tx1,you are the only one bitching here lol,fdrkpvr,Javonetor,hw50h
"Trust me, it doesn't.",LobotXIII,20jkc1xp,fdryhr6,"Trust me, it does.",fdrksdf,FinchoDM,hyc05hl
"No, it actually doesn't.",LobotXIII,20jkc1xp,fdrgi3u,it actually does,fdrfdv3,FinchoDM,hyc05hl
No it doesn't.,LobotXIII,20jkc1xp,fdrcp1v,It does,fdrcdht,FinchoDM,hyc05hl
"As a total that's low.

Tell me what TF your energy solution is besides just bitching at the US for not living in stone huts and being vegan.",LobotXIII,20jkc1xp,fdray62,"i don’t care if your pollution per state is low, your total as a country is high, if we can lower that, it’s a win, nobody has said china isn’t a problem, but you get triggered when i say you should try to do something for it",fdratti,Javonetor,hw50h
"Lol you're an idiot.

It's just equivalency.

Yes, I know what that is. It doesn't change anything I stated.",LobotXIII,20jkc1xp,fdrakjg,"It's clear you don't know what CO2eq is, if you don't understand basic atmospheric chemistry then you can't give meaning to those articles.",fdr9pi2,FinchoDM,hyc05hl
"https://www.smithsonianmag.com/science-nature/natural-gas-really-better-coal-180949739/

https://homeguides.sfgate.com/natural-gas-cleaner-petroleum-coal-79371.html

https://morningconsult.com/2016/09/30/yes-natural-gas-cleaner-coal/

The US also abides by far more regulations than China when it comes to power plants that make them way cleaner and efficient than China.",LobotXIII,20jkc1xp,fdr8fer,you know how CO2eq works?,fdr70k5,FinchoDM,hyc05hl
"You can see in the links I gave, they show the US coal consumption compared to China's, and yes it's a big difference.

It's sad when you can clearly see that China is the problem, but you idiots want to be mad at the US for having and using air conditioning.

F off.",LobotXIII,20jkc1xp,fdr54q8,"hahaha, it's not a ""huge difference"", it's not two times more green, not by a long shot. Also the US still uses coal",fdr4jrd,FinchoDM,hyc05hl
"China is using coal, the US is using gas. That's a huge difference.

Around 2005 China skyrocketed past the US on emissions.

Chinese cities are far less energy efficient than the US.

Have you seen what Beijing looks like with it's smog? You can't see what's 10 feet in front of you. Even when we have alerts about polluted air in the US, it's never been anywhere near what it's like there.

29% of California air pollution and smog is drifting over the Pacific Ocean from China.",LobotXIII,20jkc1xp,fdr2pqb,">at least complain to the right people.

That would be the US since its CO2 per capita emissions are more than two times of China's",fdr2ej5,FinchoDM,hyc05hl
"It's far more efficient and clean, China mostly uses coal, the US uses mostly gas. Western countries are typically more environmentally conscious than everywhere else, despite what you might hear. The US was the first country to create natural reservations.",LobotXIII,20jkc1xp,fdr2d2i,"yeah, but CO2 per capita of the US is A LOT higher",fdr08is,FinchoDM,hyc05hl
"The US doesn't release a lot of pollution. We just went over this. 14% split between 50 states is low. It's also lower than our European counterparts. 

Yes, it would be bad because we would be losing thousands of jobs and become dependent on other countries for energy.

We literally just became energy independent.

Again, if you're so concerned with climate change, at least complain to the right people.",LobotXIII,20jkc1xp,fdqz625,"we are going by insults now? you didn’t even last 5 comments

china contaminates a lot? yes

usa contaminates a lot? yes

china contaminates more than eu and usa combined? yes

usa contaminates more per capita than china? yes

would be bad if usa and eu lower their pollutions? no

would be bad if every western country lower their pollutions? no",fdqyfr7,Javonetor,hw50h
"... It's amazing that despite spelling this out for you, you still manage to not understand why 27% is worse than 14%. Even with all the western countries combined we still don't hit 27 or 30%. I was just breaking it down for your small brain to understand.

Do you not understand graphs and statistics?",LobotXIII,20jkc1xp,fdqw8tg,"oh so know we are counting per capita, let’s ignore everything that china polutes just because it has a lot of people in their country, is that how it works?",fdqv5yi,Javonetor,hw50h
No one said that.,LobotXIII,20jkc1xp,fdqu0jn,"oh yes, me and my supporters just edited a ton of wikipedia pages with falses sources and documents to win an argument on reddit

you sound like my highschool teacher lol",fdqtraz,Javonetor,hw50h
Per capita and land mass 14% is low you idiot. Like less than 1% per state if you divide it evenly.,LobotXIII,20jkc1xp,fdqtbgf,"not a reliable source when everything is referenced at the bottom? ok

and even your links shows that USA is second, idk why are you saying like it wasn’t one of the countries that contribute more to contamination, of fucking course it won’t change everything if north america stops with the emissions, but the planet would be greatly grateful",fdqsoa7,Javonetor,hw50h
"Wikipedia is not a reliable source bro. I gave you two links showing China pollutes more than the entire west.

China alone produces 27%-30% of the emmisions, the US is only 14% with most European countries only reaching just over 1%.

Here's another. https://www.epa.gov/ghgemissions/global-greenhouse-gas-emissions-data",LobotXIII,20jkc1xp,fdqrk4f,"Ok, so according to the map, USA and EU are second and third for Mt CO2 / year

Just China is far worse than those two

[link](https://en.wikipedia.org/wiki/List_of_countries_by_carbon_dioxide_emissions)",fdqrgfw,Javonetor,hw50h
"Go look at a map of where the Carbone emissions are coming from. Basically everywhere is far worse than the US and Europe per capita and land mass.

If you want to change minds, maybe stop lecturing the more responsible side of the planet and go convince the ones with the serious problems. Such as China and India. They are the worst about Co2 emissions and plastic waste. China pollutes more than all the west combined.

Also, just complaining without offering any feasible solutions is just dumb.

https://www.forbes.com/sites/rrapier/2018/07/01/china-emits-more-carbon-dioxide-than-the-u-s-and-eu-combined/

https://www.visualcapitalist.com/all-the-worlds-carbon-emissions-in-one-chart/",LobotXIII,20jkc1xp,fdqponr,"I’m not a native speaker so i’m not sure exactly what you mean with “support her doom agenda” but if i’m interpreting correctly you say that nothing that she claims about CO2 emissions is being backed up by studies, but c’mon, we are talking about the COP here, were is supposed to be experts in the topic, it’s like going to a quantum physics convention without knowing about classic physics, there are a lot of studies [(wikipedia page)](https://en.wikipedia.org/wiki/Attribution_of_recent_climate_change) about emmisions of greenhouse gases being responsible about warming pur atmosphere , is not like we need to show it again to people that know about the matter",fdqg61p,Javonetor,hw50h
Holtby is the best at passing on the team 😆,LobotXIII,20jkc1xp,fdb9ymc,Holtby with the assist lmao,fdb9vsi,NirvZppln,diifw
3 dimensional hockey,LobotXIII,20jkc1xp,fczo8bc,"That was really just a secret pass from Ovi, he has those 500 IQ plays.",fczo130,Misled_Titan,5fwcu
She's just happy to be there,LobotXIII,20jkc1xp,fcznsgi,...was that canes fan behind their bench applauding their penalty? 🤔,fcznnx9,6Plus6Equals1,eyt1h
It's our golden rule,LobotXIII,20jkc1xp,fcb8ixb,"Once again it feels like we are playing down to another teams level, not our potential.",fcb88l0,admire816,12bhjw
Yes :),LobotXIII,20jkc1xp,fcb5dgg,"Is your pp big enough to close the gap?

*looks down*


Mine isn’t.",fcb4qlv,caadbury,92m6a
X to doubt. Let's keep this about hockey bud. :),LobotXIII,20jkc1xp,fcazxou,Idk I didn't mean to write that. I'm sticking with it though,fcazh63,BlueJinjo,8d6me
[http://stream.nbcsports.com/rsn/nbcs-washington-capitals?utm\_tags=nbcswash1398](http://stream.nbcsports.com/rsn/nbcs-washington-capitals?utm_tags=nbcswash1398),LobotXIII,20jkc1xp,fcawqs4,NBCSWA is showing basketball again! Where else can I see the game broadcast?,fcaw8ah,CaptainDroopers,12h5n3oo
