child_body,child_screen_name,child_user_id,child_tweet_id,parent_body,parent_tweet_id,parent_screen_name,parent_user_id
She only fails because of the systemic racism that prevents the full embrace of her policies.  Also sexism. /S,lyintedscrews,wvoqg,fkv1fey,"She made Portland less safe, couldn't deal with it, and moved on... She will do the same thing in Philly. She will leave in 6 months after it becomes too much to deal with.",fkuwm8d,wolfofwallstreet0,2bkgixe6
"I watched it live, I almost spit my covfefe out.",lyintedscrews,wvoqg,fkuttet,"You should have seen it when the woman asked ""do you support the term 'Kung Flu'?"" he made her repeat it 3 or 4 times. She looked like an absolute joke saying it. Like do these people realize how petty they look through all this?",fkuo82k,molon-labe7,12h0ijia
Biden bids $2001.,lyintedscrews,wvoqg,fkts5kf,Like it's an auction for your vote.  Do I hear three from Biden?,fkswi4a,IBiteYou,8is6t
"With zero context that might apply, but in this case it denotes a place of origin.  Aka, german measles, Spanish flu, etc etc etc.  I despise how the left removes context to twist meaning and its almost always a smear (that's racist you bigot!).",lyintedscrews,wvoqg,fktqfd0,"It is an ethnicity though, that's not a good defense of racism my dude",fkst7j1,blind_retriever,43w3gqpy
Adderall,lyintedscrews,wvoqg,fkml27h,"It's unbelievable really. I was totally expecting a gaffe within the 1st 30 minutes.

I'm wondering if they doped him up on some drugs that keep his brain from misfiring.",fkm8ri3,bladerunnerjulez,1741bl
Dang automotive removed it for being boring and repetitive.  Should have typed 'Ok Kaboomer' instead.,lyintedscrews,wvoqg,fkkih1i,This made me spit out my coffee 😂,fkkg3l0,Jackniferuby,1972k0a0
"Ah, thanks for clarifying.",lyintedscrews,wvoqg,fkc7cpa,"""Drops"" in the case means releases and runs. He's helping Trump. It's an anti-Biden ad.",fkbwwk1,Starky_McStarkface,8b11gox
"He was already a citizen, so I'm positive you are correct here.",lyintedscrews,wvoqg,fkb7u0c,Probably married the guy so he can’t testify against her.,fkassng,BiPolar_RockNRolla,1g42qr4p
They made it easier on themselves by having you write party affiliation on the outside of the ballot so they knew which ones to throw away,lyintedscrews,wvoqg,fk6vqp7,Because the DNC has to count all the votes before they know how many mail in ballots they need to find to get the result they want.,fk6t88b,berkeleypede,f6kzkbc
"You are defending an ideology that has killed over 100 million people in practice.         You can try to spin it all you want, you are defending this.  Please re-evaluate your life.",lyintedscrews,wvoqg,fk6880h,"You're taking the quote out of context, he wasn't stating that his ideology required violence to enforce, but was reacting to the Austrians fighting back against monarchist fascists from Germany who imposed their rule on them. Marx was advocating that workers should fight back if they're being repressed and controlled by the bourgeoisie, and fight back with all the means at their disposal. Again, Marx was not saying that communism required violence to enforce, but that the average person should fight back if they're being repressed. Those are 2 very different ideas. 

And in response to ""That wasn't real communism"", I know it sounds overused but it really wasn't. There was still a head of state controlling everything in a dictatorship like rule, which completely differs to what the communism stated in the communist manifesto is like. Stalin was not an equal to his population which he controlled. So how can one say that was real communism? It's like saying the U.K is a fascist dictatorship. Sure, a country can claim to be socialist or communist, such as the Nazi Socialist party or the communist party of china, but neither of these states are what Marx envisioned in a communist state. If it doesn't fit within his guidelines, then one cannot call those true communist countries, which the same applies to the USSR.",fk66oom,Reaper919,11spz6
"He'll stroke out right before going on stage, and hill-dawg will emerge from the shadows to pick up the gauntlet only to have a seizure and fall over flopping around in her own excrement.",lyintedscrews,wvoqg,fk65f8u,I can't wait for the first Trump/Biden debate. Senile Joe is going to get destroyed.,fk60m9h,Vulpinox,sizsa
"All versions of Marxist ideologies require violence to enforce.  You can't separate the ideology from its effect.  You are basically saying 'but that wasnt real communism.'  To think otherwise is naive.  Marx said so himself:

“there is only one way in which the murderous death agonies of the old society and the bloody birth throes of the new society can be shortened, simplified and concentrated, and that way is revolutionary terror.”

-Carl Marx

Edit, 't",lyintedscrews,wvoqg,fk64e7y,"I think assumed what you meant by holding a the USSR hammer and sickle  to the same standards as a Nazi flag.

If you want to say the USSR was as bad as Nazi Germany, but didn’t mean to throw communism in there I totally agree.

Communism shouldn’t be viewed the same as Nazism, but Stalin’s regime should be viewed the same as Hitler’s regime, which is what I’m assuming you’re saying, and again I agree with that.",fk5pwv1,Reaper919,11spz6
Far be it from me to criticize the holy book (Racks a round and looks over my shoulder).,lyintedscrews,wvoqg,fk52344,What's wrong with family love and Polyandry? Read the Koran you bigoted facist,fk4vrwg,Ilhan_Omar_,490qjukp
Preach.,lyintedscrews,wvoqg,fk4qbbk,"For the good of the nation and for the good of the coming generations, the democrats need to get slammed in 2020.  I mean lose the house by vast numbers and lose more senate seats and more governorships.  The party needs to just collapse and then get rebuilt by people who are reasonably intelligent and capable of working with numbers.  No more radical ideas that cost multiples of the GDP.  Seriously, if the nation has a two party system, then the GOP and the Dems need to be functional enterprises.  The Dems have been failing for a long time and this the result.  The other parties have no ability to function across a wide swath of the population or are not taken seriously.  We need the two main parties to work.  If the dems keep being crazy, all the GOP has to do is not be crazy.  They can get fat dumb and lazy (and they are off to a good start on all three) and still retain power.  Our nation needs effective leaders.  We need people who care about how our nation will be in 10 years and whether a given program will actually work before they pass it.  We need a media that respects the learned no vote.  Obamacare was a known failure, but if a congress critter voted no, they were evil in the eyes of the media propagandists.  

If the dems keep drifting to the extreme, the GOP has no stone to sharpen itself against and we will be the ones who suffer in the end.",fk4m1kx,riverfan2,2fmw89or
Gasoline powered vibrator.,lyintedscrews,wvoqg,fk4hc45,"""allowed""

Democrats love this word.

&#x200B;

edit: what's a ""twin gauge?""",fk4d3jo,PressureMaxwell,36kxgcgv
Our primary is today.  I'm going to go vote for the old commie because I'm going to enjoy watching them rip the nom our of his crooked commie fingers.  His base is going to lose their collectivist shit and will burn whats left of the DNC to the ground.,lyintedscrews,wvoqg,fk4g5ni,Declining old man still has a better shot than an old commie.  Democrats can only blame themselves for those being the only options.,fk4fqos,BenAustinRock,10zb0q
I think you made my point for me.,lyintedscrews,wvoqg,fk473f6,"I disagree with this idea, and here is why:

Nazism/fascism inherently hold a disregard to human rights, which is the 2nd characteristic of fascism, and by extension nazism. While in Karl Marx’s Communist manifesto, no such parallel exists. 

You then could argue about Stalin’s regime, and its self proclaimed “communist” regime. In actuality, it only vaguely overlapped with Karl Marx’s idea of a communist state, such as Stalin allowing women into the workforce and collectivized farming. Aside from these, Stalin disregarded core communist principles, such as there being no head of state.

It would be more correct to called Stalin’s regime an authoritarian regime or a dictatorship, with the occasional communist influence thrown in.

Therefore since the Stalin’s regime and communism are not the same, it would be unfair to treat them similarly. It would be like if I treated Nazism/fascism the same as conservatism, which is an unfair comparison, as they are not very similar.

Also, to extend this, by your line of thinking, any ideology associated to a vast number of deaths is bad. For example, during the Vietnam war both the democratically and conservatives both had presidents during this time. Does this mean anything associated to both of these political parties shouldn’t be represented anymore due to there past involvement with many deaths? Looking at a whole, what about how many deaths have occurred under capitalism? Such as both world wars. Should we despise capitalism due to that? I would say we shouldn’t, since they they aren’t the cause of those deaths, but simply occurred under them. This ties into my point with communism, as it wasn’t the cause of all the deaths under Stalin’s rule, but simply because Stalin was a dictator.

With both my points, I hope you can see why I don’t agree with communism being vilified alongside Nazism/fascism but I want to hear your thoughts on the matter. What points do you disagree or agree with?",fjpoqua,Reaper919,11spz6
"Dont assume it's his choice.  I find it odd how fast the others dropped out, almost like they were afraid.  Only thing i can think of that would instill that level of fear is Arkancide.",lyintedscrews,wvoqg,fjih55t,"Biden already has a corruption problem, Biden already has an angry Bernie supporter problem, Hillary would be a horrible choice.",fjig6ja,tau_decay,134n2hdn
Booty might be doing the same....,lyintedscrews,wvoqg,fj8efbw,"Warren is going to try to suck some dick to get Bernie VP spot, which is a high likelihood it would turn into a POTUS position since the dude is 5 months removed already form a heart attack. Trump will crush. Life’s good again.",fj8dkjl,szzzn,2ctvvmge
She actually references some award she got from a high school science fair.  Also used 'litterally' wrong in her first sentence.,lyintedscrews,wvoqg,fj4ihs4,"Apparently AOC knows more than anyone. Economics, science, politics. Amazing what her bartending career taught her",fj4hk3e,swag-and-tag4545,3x2p1g2u
It all depends on how his contract was written.  If there is language about the facility and surrounding area being kept safe and clean as part of the agreement then he will own them.,lyintedscrews,wvoqg,fj3tznt,Anyone with some legal background know how this would play out in court? I’m assuming he’d have to pay but it’s pretty interesting,fj3tlru,swag-and-tag4545,3x2p1g2u
Donkey anus.,lyintedscrews,wvoqg,fisb8cg,Look at that face.,fis8xkx,deep-rabbit-hole,bfuc9k5
I have family there.  There are conservatives but they live in fear of being found out.,lyintedscrews,wvoqg,finjzlm,I was there the night Obama was elected. Everyone dressed as Sarah Palin that Halloween. What a monoculture.,fin8mg8,humblehonkpillfarmer,4zzk9yha
Outlier.,lyintedscrews,wvoqg,fhozgcy,Ted Bundy was a republican.,fhosp7v,cgaengineer,155kuv
"In the context of the Podesta brothers, Epstein, Ed Buck and pizza, not really.  Evil people cover the political spectrum, but these super evil ones seem to cluster in the party of Jim Crow and segregation.",lyintedscrews,wvoqg,fhoyt78,"This is stupid.

Ted Bundy was active in the Republican party

>#Ted Bundy

>Political Connections

>Ted Bundy served on the Nelson Rockefeller (1908–1979) presidential campaign in 1968 and the successful reelection campaign of Washington governor Dan Evans. Bundy was appointed to the Seattle Crime Prevention Advisory Committee, and later became an assistant to Ross Davis, the chairman of the Washington State Republican Party.

This is a stupid point to make.",fhorkj6,UhtredRagnarok,3vu20005
Ding ding ding.,lyintedscrews,wvoqg,fhlbdew,Must be a pedo. These weird outbursts usually precede a news story about diddling.,fhl7kjn,SuperDad_dadadadaaa,cipqq
Even his band mates cant stand him.,lyintedscrews,wvoqg,fhlb9h2,"He’s always been a douchebag, especially when he left the band in 1985.",fhl44dt,OutInLF25,wz419
"It means nothing.  They still have to comply.  It might get complicated, but bankruptcy does bot absolve you from lawsuits or illegal activity.",lyintedscrews,wvoqg,fhicdk5,Please tell me that the bankruptcy means nothing towards the discovery phase of the trial. Those private comms need to see the light of day!,fhiar8s,mongolian_usa,4b72xi5
There was that transformation scene in conan....,lyintedscrews,wvoqg,fhibhvr,Nobody has ever seen Kim and Thulsa Doom together.,fhi4lqm,tasteslikeham,a3cab
There is more evidence he's a child molester than there is for Trump colluding with Russia.,lyintedscrews,wvoqg,fhf5nww,"That fucking kid diddler and pervert.  They are so used to being above the law, would not be surprised if we caught him with his dick in a dead kid.  Probably has immunity for child murder signed by comey himself.",fhf5kfg,lyintedscrews,wvoqg
"Them too!  I grew up in rural CA, my first job was at a video store and we handed out 'Rush is Right' bumper stickers.  They were everywhere.  I knew this day was coming, I've had his show on in every office I've ever had.  Going to hit hard when he leaves the air.",lyintedscrews,wvoqg,fgnt86l,"[>  I've listened to Rush since the 80's.
](https://i.imgur.com/mGHq8ZS.jpg)",fgnqtl1,someauthor,4j65m
"Yes, shit right on her desk.",lyintedscrews,wvoqg,fgn8uoa,I’ve heard the Dems call it Nancy’s House. So Trump gave the previous most hated man that medal in “her house.” It was a master stroke.,fgmzb7h,zarghed,zjgpq
Taquiya.,lyintedscrews,wvoqg,fgmas5z,Why isn't this harlatan not covering her hair?,fgmao11,RedditISanti-1A,4auebswz
"That's their base, emotionally stunted brats with a sense of entitlement.",lyintedscrews,wvoqg,fgm5ke4,"It amazes me how its almost universal that liberals can not control their emotions. I've always viewed this as sign of weakness but never understood why. It makes me very uncomfortable when I see people lose their composure. In certain situations its absolutely understandable, but in others its so over the top it looks fake and phony. I wish I had studied psychology so that it may have been explained to me. THis man lost a child, and his emotions closer to that event are expected, but now too much time has passed so these outbursts just look rehearsed.",fgm4xed,TwoMinutes,a9lih
"IN THE LEFT CORNAH, WEIGHING IN AT 450 POUNDS, THE BLACK AND DECKER PECKER WRECKER, THE SULTAN OF SCISSORS, THE GODESS OF THE ALL YOU CAN EAT BUFFET, THE SHEEBAH OF CELLULITE, SIMOOOOOONE SAAANDEEEEEERRRRRRRRRRRS",lyintedscrews,wvoqg,fghex1y,You sound like her personal announcer. 😜😆😆,fghejya,quebert123,xtibd
"LOL, and pork is haram :-)",lyintedscrews,wvoqg,fggk6lw,"What a beautiful picture... Now, we just need porky pig declaring, 'Dat's all folks!'",fggfsfb,Industry4,13oizj
"That's awesome, because we welcome anyone into the fold.  That's probably why baldy went nuts, a tranny for trump probably melted some of her circuits.",lyintedscrews,wvoqg,fgg8b3x,I’m not 100% sure but I think the one that’s taunting the bald freak by clapping in its face is some kind drag queen for Trump.,fgg1lu9,NYY817,4plafogk
"Yep, they were paying taxes NOT refugees.  Agenda on display.",lyintedscrews,wvoqg,ffwwp26,"No. Jesus came from a tax paying family.

Joseph was in Bethlehem for a census where he would have been expected to pay his census tax to the Roman Empire.",ffwqalc,unmaskedpanda,2u3gu24
"Likewise.  Odd inflection, mumbles, whiney.",lyintedscrews,wvoqg,ffk4swf,How that woman is a United States senator is beyond me. I swear she’s functionally retarded. She also makes my blood boil every time she opens her mouth.,ffk39y7,DYMNO,et6d65m
How many were inciting violence?,lyintedscrews,wvoqg,ff43cg6,Lotta patriots had bandanas on and other means of obscuring their identity.,ff3zd7a,PleaseBanMyAss,1e51dq7e
I must have missed the slave market.  I'm only aware of them in Islamic countries.  Maybe that's what she's protesting.,lyintedscrews,wvoqg,fenwe3h,deleted  ^^^^^^^^^^^^^^^^0.6116  [^^^What ^^^is ^^^this?](https://pastebin.com/FcrFs94k/19865),fenr0po,txTxAsBzsdL5,484yfds6
"Yes, that's why everyone in Sanders camp is losing their shit and calling CNN fake news",lyintedscrews,wvoqg,fejob0r,"Then it is a leak. Interesting. If Sanders supporters accusing CNN to be on favor of Biden and Warren, mostly Biden I guess, then they were helping Sanders out by leaking.",fejl4aq,Zlatan4Ever,15xiv3
"Not at a CNN event, no.",lyintedscrews,wvoqg,fejjdxi,Other journalists  than CNNs could film right?,feja3zi,Zlatan4Ever,15xiv3
"No.  Its bullshit.  They want to bring in more liars.  Fuck them.  Fuck them all.  Use the same rules the dems used in the house against them.  Cocaine mitch should hold veto over all requests, and veto everything and schedule witnesses only behind closed door under secret and only after the vote to dismiss the whole shitshow.",lyintedscrews,wvoqg,fdrwqho,"It’s a trial. There should be witnesses. And then Trump will be acquitted. Manchin and Jones will vote to acquit, Romney, Collins, and Murkowski *might* vote to convict, but I don’t think so just yet. Hell, if uselessly voting to convict is what gets RINOs re-elected in purple states, I’m fine with that. Trump and T_D subscribers won’t like them anyway, may as well find a good use for them.",fdrr2k2,Loyellow,2w4qs7gc
He's considered one of the best chefs in the world.  Backed out of a place at Trump property because he's a hateful bigot.  This is the trump curse in action.,lyintedscrews,wvoqg,fdkq4dr,....and?,fdkpjt6,MSP_Generalist,gzgca39
"But 12 years, TWELVE, as a broadcast meteorologist (weather girl).",lyintedscrews,wvoqg,fdgn22t,"Wow, a WMO climate course? STFU and give an accurate prediction for tomorrow and next week, not your opinion for the next decade.",fdgh0qr,Rookie_2,wut7m
And damn they are arrogant.  And racist.  Never mind that whole caste system.,lyintedscrews,wvoqg,fcu643q,"He's Indian, I've only known super Leftists from there.",fcu3eeo,RuleoVicus,x4n6g1f
"They are ignorant, that's a given.  Shills gonna shill, but if they pull that shit quote the mother from her interview.",lyintedscrews,wvoqg,fanzub5,"Yes. I understand all that. I read the article.

However, MOM says that the video portrays her son being beaten up for wearing a MAGA hat… and the MAGA hat is nowhere to be seen... 

No child deserves that kind of treatment. But don't lead the tweet with a story about a hat that isn't in the clip being shown. It becomes fodder for the shills.",fant2md,Liberal_cesspool,sx5h0
"Read.

“He was proud to wear it,” she tweeted. “He wore it to school, but due to immediate bullying he put it away & didn’t wear it to school again, sadly the damage was already done & was now a target.”",lyintedscrews,wvoqg,fansj8q,I dislike the fact that the mom claims this was over a MAGA hat when a MAGA hat is nowhere to be seen anywhere in this video....,fanrswv,Liberal_cesspool,sx5h0
Yes. Aka Exculpatory information.,lyintedscrews,wvoqg,fabctrw,Page worked with the FBI as a paid informant to break a RUSSIAN spy ring in 2013. The FBI intimately knew Page wasn’t a RUSSIAN asset.,fabcmd2,mrnewports,93qu3
"I understand that, but your average low info Democrat doesn't.  Mark my words, they'll try to invalidate everything he's done because of peach mints with zero legal basis for any of it, just like this sham peach mint.",lyintedscrews,wvoqg,f9u3xpq,"Until an actual conviction, he is considered innocent.  Therefore, all his actions until that point are enforceable. He will have cause to fire anyone who does otherwise if they are in that type of position.  I hope they do.  As far as appointments, they are confirmed in the Senate, run by Republicans.  Of course if they are planning on retiring Ginsburg, the TDS will reach CDC crisis levels.",f9u2aki,Deplorable_scum,11f4m0
Or sleeping with your superiors.,lyintedscrews,wvoqg,f9f9cm8,"Funny how they’re trying to paint a picture of her as a feminist. 

I always thought that feminism meant not fucking another woman’s husband.",f9f96n9,Funqueybusiness,15m8rl
"Yes, despicable people that earned a lot more then they've gotten.  Melania on the other hand, perfect example of immigration success story.",lyintedscrews,wvoqg,f8t221x,"from what I've seen,  she seems like the most condescending,  disdainful first lady we've had. Melania's only bad press I've seen is these jerks booing her at public appearances.

its classic Democrat.  i dislike the Obama's not for who they are but for their actions and lack of character. they hate trump because he's trump and hate people associated with him because they are associated with him",f8syzlf,cartak,7jth3
"It was over 100K

https://www.businessinsider.com/nancy-pelosis-in-flight-food-and-drink-costs-101000-2010-1",lyintedscrews,wvoqg,f8ngipq,What was Pelosi last years bar bill?    How does it compare ?,f8ne3fn,msgtlefty,43are2b1
Same thing,lyintedscrews,wvoqg,f75e4s4,I prefer ok retard,f75ckzq,ButtFart88,131f71uo
It all shifted after amnesty was granted in the 80's.  I watched it all happen.,lyintedscrews,wvoqg,f757tx7,"Its called downtown LA and SF. 

I got a few family friends who moved out to Cali in the 80s. Pro-immigrant Democrat valley girls who speak like 80s Cali never died. They're now pro-Trump simply because Democrats decided to give their/others healthcare to illegals. Now they've got MAGA hats on, registered Republican, and watch the rallies

Which was hilarious watching my dad trying to wrap his head around them being republicans.",f74rtqk,oblivionrecurs,f3jeb
"I grew up there, left in 2001.  Even the rural town I grew up in is dominated by gibs-me-dat culture.  Walmart destroyed the small businesses, now largest employer in town is social services/welfare office.",lyintedscrews,wvoqg,f757mdd,"I’m from California and I love this State for many reasons, our politics is not one of them. I sadly agree we are totally fucked. 

We the people seem powerless though. I haven’t met a single person who wants to give healthcare to illegals, or wants the gas tax, wants sanctuary cities or any of the other BS. 

I’m honestly not sure weather it’s all voter fraud or people have some strange retardation when it comes to voting.",f74p1rw,rareiamgery,36k28
Stretch marks and joint failure from being a fatass.  Enables victimhood status from a self I inflicted set of obesity related illnesses.,lyintedscrews,wvoqg,f6fcwm8,What's that?,f6f8vyh,StartingOver095,34f479r
Different committee.,lyintedscrews,wvoqg,f5tdda9,"Yeah, but with the new rules that the dems have come up with say that Schiff can veto any of their witnesses. So, Schiff wont testify because he will just veto it",f5t7nqj,roldham,5w17u
Its tradition!,lyintedscrews,wvoqg,f43e2pe,"Millions of democrats do vote from beyond the grave, why not Elijah?",f437509,RussianBot12,rgrqkf8
It exposes how the launder money for influence.  Look for the wives and children of politicians on the boards of companies getting irrational approvals/funding from the US government.  Clinton's and China kicked things into high gear with his first presidency.,lyintedscrews,wvoqg,f3fbwtp,IntelCommunity is afraid of something. Ukraine must hold the key to something.,f3fbcsd,JustInTime2_,10pdsj
She struck me as a garden variety leftist.,lyintedscrews,wvoqg,f2ggeiz,"Idk if it was a purposeful troll or not, she seemed like she definitely had mental issues, apart from advocating cannibalism and infanticide. 
Why the fuck are we at a point In our politics where that sentence has to exist anyways?",f2g7fgu,that_other_guy_,60hnx
"Oh that guy, thanks :-)",lyintedscrews,wvoqg,f2a148v,"This guys kid and kids friends shop lifted in China. They were going to be charged. Trump stepped in and the Chinese government let them go via a negotiation

They were all ungrateful",f29xdzs,2SCOOPS2TERMS410,3kng01j
He read an economics 101 book.,lyintedscrews,wvoqg,f28ln3a,Warren sent him nudes to knock him out of race...prove me wrong.,f279xim,RoboPEDE,2l92lnk
Free publicity.,lyintedscrews,wvoqg,f20hn80,Shouldn't they stay together then?,f20gcir,winst0nsm1thL984,c4j1r7g
Second coming of Hitler.,lyintedscrews,wvoqg,f19l82b,"So are we to believe that this ""child"" is the second coming of Christ?
With all the hype they are associating with her Apocalyptic UN speech.. Should I be prepping for the ""end times"" ?",f19krpl,dradis84,b35yu
Unelected global governance and socialism.,lyintedscrews,wvoqg,f19idb4,What did she think would be “done”?,f19f7sx,MBKUltra,129jna
She was just a passenger.,lyintedscrews,wvoqg,f0txetz,"Yep, with her support crew all flying over to join her? Ha ha",f0tsuax,SomeoneHasToStandUp,2pds6jwb
Jury nullification is a thing.  No thanks.  I would rather have people that were capable of bot commiting crime serving on a jury.  I know too many people that vote to hurt the country intentionally already and I dont believe for a second that this would benefit society.  Dont want to lose your rights?  Then dont commit a felony.,lyintedscrews,wvoqg,f02pb1p,"Incorrect....   restorative vs retributive has nothing to do with prosucution.

Jury Selection is still a thing..

The data coming from a few cases with felons on the jury should be interesting.

I have a feeling that a felon is going to be far more likley to convict.",f029nkw,soldio101,30hqxbsd
"That's part of their debt, and also people that disregard the law should not be trusted to not subvert the system.",lyintedscrews,wvoqg,f021dxz,Full civil rights should be restored after a debt to society is paid... if they are too dangerous they should not be on the streets.,f0211jb,soldio101,30hqxbsd
"She's trying to do both, just like her daddy.  You k kw she's got a team and they have been waiting for her to gain enough popularity to run for office.  Her stint on the view was to that end.",lyintedscrews,wvoqg,ezzrhws,"Since her father, father, father died, 'The Meg' is just trying every possible way to stay relevant.  'The Meg' and her husband should just move back to Arizona and drink from the financial teet of her whore mother.",ezy3u2k,SixteenBeatsAOne,9oa0t
Full of shit that ran down her leg.,lyintedscrews,wvoqg,ezxlay1,And a scuffed shoe on sidewalk,ezxdvdf,everydaywhatever,1b2jwdh
"1000 gallons of reparations, you mean...",lyintedscrews,wvoqg,ezqzabq,"Turns out they were stealing diesel fuel. No bomb. 


https://mobile.twitter.com/RealSaavedra/status/1171166498385096704",ezquk3h,TDSisReal,19c41gx2
"No, those are just the sex slaves.",lyintedscrews,wvoqg,eyi9dws,Haitian children.,eyhxggr,Hitlery4Prison,12wd5f
Several.  Mostly from Nigerian children.,lyintedscrews,wvoqg,eyhg1xv,She has a heart?,eyhf1bn,shunopoli,j8wxr
That would explain some shit.,lyintedscrews,wvoqg,eychkmc,Miley Cyrus,eych0zb,geylourd,2t7xa9xd
She wanted some dick that hasn't known any goats or other livestock.,lyintedscrews,wvoqg,eyc8p55,so she hates white men..but has this strange habit of sleeping with them.,eyab09n,-StupidFace-,10w8fh
"Race hustling, photo ops, getting homeless black people to kiss his ring, etc.",lyintedscrews,wvoqg,exhk10a,What’s he doing there?,exhid71,littleirishmaid,i3d84
I'm very familiar with that race hustler and his district.  Hes taking notes because people living in tents aren't thanking him yet.,lyintedscrews,wvoqg,exhjwhq,"Al Green’s district includes the Houston VA hospital, he’s a disgrace to his office",exhfdg8,va_armydude,1voqytgz
"Shes a fucking liar.  Up is down, right is left, some pigs are more equal than others.",lyintedscrews,wvoqg,exd13xr,Is she ignorant or just a fucking liar?,exczoqo,findthewarmspot,14ofk6
And Mexico has done more to secure our southern border than the democrats.  What a timeline.,lyintedscrews,wvoqg,ew5spps,"I’m not a fan of the Daily Mail, but they do more investigative reporting than any of the American MSM.",ew5j5yj,Bothloveocean,fayce
BPD.  Symptoms include blind adherence to thoroughly debunked economic sytems.,lyintedscrews,wvoqg,ew5fv3i,"Since she's admittedly mentally ill, it makes me wonder if she has an attention-seeking disorder as well...",ew5fhqb,witchism,rh5x8
Her pit hairs are dyed either blue or pink.  I'm not going to look.,lyintedscrews,wvoqg,ew5flrr,She doesn’t shave her pits. Guaranteed.,ew5fbif,OutInLF25,wz419
We'll know if they start throwing rocks.,lyintedscrews,wvoqg,ev24a1u,"Is this a legal separation, or a faith based in culture spiritual separation?",ev1y68v,CAD007,8bjwe
It wasn't 'he' it was 'could a',lyintedscrews,wvoqg,ev1ss0x,"Yep.  They didn’t say “will,” or “might,” or “would,” just “could,” which is subjunctive and conditional.  “He COULD be indicted (if he’d committed any crimes).”  The answer is an obvious yes, because after a president has left office they are once again able to be indicted.  No one said it was possible that he *will* be indicted after he leaves office.  Word games.  They used can/could intentionally to confuse the situation.",ev1sbwm,JwPATX,13fph6
If I said you would not only know what company I work for but which group and my team is relatively small.  Anti-conservative hate is a thing and I dont EVER talk politics on social media.  I will say I work with cloud and digital tranformation.,lyintedscrews,wvoqg,euhutja,What subfield?,euhtj67,denshi,33kpd
Anti-semites gonna anti-semite.,lyintedscrews,wvoqg,eu2mymc,"Sheesh! So a few days after she gets called out for being an anti-semite, she pulls this stunt? How dumb is she?!??!?!?!?",eu2mtry,andyring,1o7q60xj
As old as Moloch.,lyintedscrews,wvoqg,etyyvb7,Centuries old.,etysz55,B_Sack,9s6n3
I thought her husband wore it around his neck on a chain.,lyintedscrews,wvoqg,etysxue,Her clitoris is in there.,etxwhq2,Fap_Left_Surf_Right,54879
"Book by Nabokov, lolita.  Look it up  :-)",lyintedscrews,wvoqg,etavfmr,What’s the significance of the word Lolita?,etav8w3,Ricksauce,50lnu
Right after is was wiped down with bleach I'm sure.,lyintedscrews,wvoqg,et583nq,I heard this place went up in flames not too long ago,et57ul3,myanimal3z,x7hqe
I have knowledge of this subject from my employment as well.,lyintedscrews,wvoqg,esq2qw6,"I won't go into details but vpns are bullshit when up against the government. If Uncle Sam wants you, he can and will find you no matter what Nord VPN tells you. 

This is part of my job.",esq2hxj,YamaCT,ynf5r
"Yeah, his mom and her sisters.  His dad thinks hes a bitch.",lyintedscrews,wvoqg,esp8314,He has a base?,esol0we,mockyovelli,hz7f2
Yep. I've had the same conversation and got the same stunned silence.  It's pretty clear they dont care to solve this.  Free market would also make the schools i.prove their quality to attract students.  That would require them to make teachers accountable.  I think THAT is why teachers unions are so fiercely against vouchers.,lyintedscrews,wvoqg,esl32w6,"I went over this in class one time years ago and the only opposition stated was that, ""not all kids will get to go to the good schools.""

I then responded that if we used vouchers and those vouchers were as good as cash to educators, the free market should allow for more of the ""good schools"" to be built. 

Nobody responded",eskpbs2,Texbound,xrgj7mh
They were there to protest a free speech rally.  No shit.,lyintedscrews,wvoqg,eskj7xr,"My question is, wth was Antifa even protesting against in Portland? I still haven’t heard why they did it",esjskqs,mcpat21,ng6st76
Messages like this would never come out of the blue.  I'm sure this woman has given her parents holy hell for years and was probably a nightmare child/teenager growing up.,lyintedscrews,wvoqg,esbmpy8,This is heartbreaking.  I have 2 little girls and if I ever got a message like this I would be absolutley destroyed,esbl1h9,Seuvyx,fbp01
"You have to use their tactics against them.  Not my inclination either but this is exactly how they would react if you fell for the bait.  You would be painted as a anti-LGBT and likely written up or even fired.  Imagine if the roles were reversed and how they would react, then do exactly that.",lyintedscrews,wvoqg,es16hmp,"Lawsuis??  Are you joking?  That's a very SJW reaction.

I'd just make fun of Kenyatta for being a loser dipshit while sharing a box of Chick-fil-a w everyone at the office (I'd even tell Kemyatta she's welcome to some Chick-Fil-A herself because fuck her)

spez: Kembtata whatever",es11r70,StunLikeanAntelope,6n1tb1o
Then they'll get you fired for creating a hostile work environment.,lyintedscrews,wvoqg,es11mdo,"Na, just bitch them out in front of the whole company.",es10w2u,trevieze,185q3bvv
Spicy chicken breakfast biscuit is where its at.,lyintedscrews,wvoqg,es0u8db,"Man, I don't even like Chick-fil-A's food.  But I've been eating there twice a week all month 'cause I love their style and their protein content is pretty good.",es0ikss,The50Gunner,u4c26
"Then straight to HR, then hire some asshole greedy attorney that works on comission.",lyintedscrews,wvoqg,es0crjy,"This is not a small company, this is a massive multi-billion dollar corporation",es0bhdq,notgordonbombay,1y8bxm4q
"And this is when the militia mobilized.  I hate to see this, but they are going to start it.",lyintedscrews,wvoqg,eryy77b,"Republican Oregon State Senator Brian Boquist told KGW he had discussed Governor Brown’s threat with Oregon State Police Superintendent Travis Hampton.

“This is what I told the superintendent,” Boquist said. “Send bachelors and come heavily armed. I’m not going to be a political prisoner in the state of Oregon. It’s just that simple.”",eryxiga,M_i_c_K,avxx6
