child_body,child_screen_name,child_user_id,child_tweet_id,parent_body,parent_tweet_id,parent_screen_name,parent_user_id
"I wouldn't bother with YouTube for copyright reasons, but Vimeo or Dailymotion are less anal about it, or just use Google drive - most modern browsers can stream video from there. There's bitchute too but they don't support full HD (720p only) yet. 

GDrive is ideal IMO because you won't lose any quality from compression or encoding etc.",malioswa,bsle6,fkifj59,"If anyone can give me advice on how to stream, I have the 2010 finals, entire 2013 season, and the 2015 playoffs/finals and I would love to share them and watch them with yall.",fkia6gq,Im-a-molecule,v5ur77t
"I have the entire Anaheim series, lightning* too iirc. Happy to share if there's a demand",malioswa,bsle6,fkd4x6c,Ive been looking for full games for a while now with no luck. At least not from 2015,fkciqrq,floodlenoodle,16r5bo
"I'm going to tell you not cause I'm a Biden guy (Trump, but went Bernie in '16 IL primaries; I come in peace, no flames pls) but because it's the truth: Bernie is too radical, very simple. So a bumbling idiot is more palatable. They may be mistaken, but that is the perception. It is what it is, Bernie will have to overcome this sentiment. I hope he does - he deserves it. But Biden is like a derp version of Hillary - well connected.   If they try to steal it again I hope yall say fuck you and go independent in the general. 

Anyway cheers from a former Bernie voter who still appreciates the man and, you all, the movement. Truly.",malioswa,bsle6,fjmpo7k,How the fuck did people come out and vote for this senile old man? Has anyone watched him speak in the last 4 years?,fjmo3rq,nomorepii,4vrmeynh
I don't think you understood or even read my post,malioswa,bsle6,fjjjfdu,Of course. The people against hate speech are always the one that want to speak hate.,fjjj6vc,theKalash,5g6tn
"I'm an asshole for posting Trump  memes, got it.",malioswa,bsle6,fjjjc6g,This assholes most recent post calls Trump a “God-Emperor”.... forgive me for not valuing your shitty opinion in the slightest,fjjj4ir,patsye2000,2ntganfy
I respectfully decline,malioswa,bsle6,fjjj4ff,Please stop talking.,fjjj2e0,theKalash,5g6tn
"I am allowed to ask anyone I want not to vote. I can ask they please stop driving, stop talking. Everyone is still allowed to and should be allowed to.",malioswa,bsle6,fjjivkt,">This stupid term is just divide and conquer bullshit

Yeah, about has decisive as requesting your fellow citizens not vote. Or maybe less so.",fjjiiw2,sibre2001,7byxo
here's your ban,malioswa,bsle6,fjjipch,That's hate speech,fjjiimx,BattlNerd,2wr9ohxp
Nas is my favorite,malioswa,bsle6,fgsr7qk,What’s a good one to begin with ?,fgrnzi6,rodrigo34891,zy6du
I do. I will share when off work,malioswa,bsle6,ffuee8f,"I was going to actually make a post for this but this post is probably a better place to ask - does anyone have any large GEOTUS wallpaper, preferably either this pic or the Warhammer armor pic?",fftwap2,raybiker73,46qnb
"You typo'd ""Relapse"" fyi",malioswa,bsle6,fftjv0i,For me this the best since Recovery. Otherwise I fully agree with your comment.,fftf9ta,guntis,ar30s
"Oh word, sounds like a less than casual topic, haha.",malioswa,bsle6,ffsux06,I guess some people were using it to try to pull anti-matter into our universe or something. Still trying to figure out the why and how for all of that. Mostly I just remember there is creepy symbolism with the logos and signs for the building.,ffsur75,songofsixpence,xnufs
How dare you speak of cleetus that way,malioswa,bsle6,ffsup2o,"""Cleetus, you still fooling around out here!? i told you to wrap up the \*shooting war in the neighborhood\*.. We gotta VOTE!""",ffsul8z,howmch41rib,hohs5gf
"What is that and why don't I know 

Pls",malioswa,bsle6,ffstths,Will this help um cancel the secret CERN anti-matter project?,ffstgpx,songofsixpence,xnufs
"Joke taken, lol, but read the report, they actually acknowledge bussing in voters etc. on the topic...",malioswa,bsle6,ffstrnj,So the dems are registering space aliens as well as illegal aliens?,ffstb5z,BaldLurker,zwqs2or
Go on...,malioswa,bsle6,ffssztt,"This is why he started space force, 4D chess.",ffsstxt,EternalRecurrence024,5c2xrgkq
"le dank trolling m8 

/eyeroll",malioswa,bsle6,ffpbf4f,Every em intro》》》》》》》premonition,ffk5wn4,Looter806,3ylxjd6z
"Fair enough, but as far as ""just an intro"" goes Premo is a more fitting track, even though bad guy is without question a better track in general. Bad Guy didn't get my giddy like a school girl for the album, lol. But I'm not really even disagreeing cheers",malioswa,bsle6,ffpba4w,"As much as I absolutely ADORE Premonition and its tied for I Will as my favorite from the album, Bad Guy is my favorite Eminem song hands down and one of my favorite songs in general so I just personally have to give it to that. Premonition would be #2 tho",ffn9w0i,cmbucket101,8j1ts
"CWB is great but doesn't ""feel"" like intro the way others do. It's also just about the context and timing... Recovery, em really had nothing to prove and nothing to fight about. It's a great album but doesn't have the pissed off/combative energy of Kami/MTBMB",malioswa,bsle6,ffpb1ex,"I’m a big recovery fan so of course imo cold wind blows. But man, my name is has to be the greatest artist intro ever",ffmb6ft,tesuacher,35mwqb6g
"It's not a dig at him, lighten up.",malioswa,bsle6,ffpaqez,Uhg. Give it at least a day or two.,ffpamn6,leavetheshoeson,1x3lxqre
I agree and did the same. I still put it on repeat damn near every day at some point,malioswa,bsle6,ffp5ejq,"The ringer is a better song, because it's actually a full song and I had the ringer by itself on repeat for months after kamikaze dropped. For the purpose of an intro though, premonition is better.",ffk6764,Tiingy,kwa9t
lol,malioswa,bsle6,ffp51k3,Why wasn't Fack mentioned yet?,ffln0wg,balabub,u4jp8
"Well obvi I don't agree but hey, em reaches a lot of people in a lot of different ways, so, cheers",malioswa,bsle6,ffk5s1b,Idc wow is best version of Em,ffk5mzn,sniper376,3dc249x2
">WoW reference

funny",malioswa,bsle6,ffk5ki1,The ringer on my list is up there with kill you and walk on water in terms of opening,ffk5eut,sniper376,3dc249x2
I disagree but believe the strength of Premonition relies on The Ringer,malioswa,bsle6,ffk5h65,"The Ringer > Premonition

Edit : “ LET ME EXPLAIN “",ffk576p,xdemon87,j47p9
"Yes, they are fronting as playing nice until big bad Trump killed their guy; really they were likely NEVER, even before Trump nixed it, obeying Obama's bullshit. Why would they? They get money and know he wouldn't have ever taken action. 

Trump knows how to deal with a threat that is acting in aggression.  Thank God. MAGA 2020.",malioswa,bsle6,fdcmdtt,Iran was pretending that they were still following the restrictions under the JCPA in the hope that Europe would agree to pick up the USA's share of payments to them.,fdclsys,KyCats336,1ww5rc7n
"And Iran is insinuating they were  followed restrictions anyway, lol. If they were they're dumb as hell, if they weren't, they're liars!",malioswa,bsle6,fdclym7,EXACTLY!! Trump negated the deal,fdclqtd,TryinAsIGetOlder,17hqnj
"Pretty much. It's a wonder they were following any of the ""restrictions"" this whole time, if they actually were (they weren't, just using it for publicity, imo)",malioswa,bsle6,fdclnhw,"This is Iran’s version of “No, you”.",fdclibk,chriztee,45ben1u
Sharia LaBouf,malioswa,bsle6,fd80uu7,Didn't this 4 chan stunt eventually lead to old Shia LaBeouf's admittance into the loony bin?,fd6zg4c,PharmerDerek,2cz4xece
"No it isn't, it does seem that way, but it's the 40 million Brock put into this effort as outlined by the leaked sb playbook.",malioswa,bsle6,fd80sfm,"4ch is currently divided on the opinion whether Trump is a shill.

Ironic, really.",fd7metd,zeibb,3162e70g
Impressive length.,malioswa,bsle6,fcwnkx0,"Yes a motion to dismiss/strike-down House Peach Mint Resolution, but in the Courts not Senate; is where the Constitution says to do this.

VSG DJT is not impeached. According to what is written in the Constitution:

1. The House can vote for Impeachment, but Impeachment requires a crime.
2. The Senate doesn't even need to vote or take up the matter. Senators (and Executive Branch people), in order to uphold their own Oaths to Uphold the Constitution can ignore this current House Peach Mint Resolution.
3. Legal matters arising over the Constitution is the jurisdiction of the Courts. The Courts have jurisdiction over dismissing the House Resolution as UnConstitutional since it doesn't contain a crime as required for Impeachment; ie not following the sentence(s) of requiring a crime for Impeachment; just as any other issues where someone doesn't follow a sentence in the Constitution.

POTUS' lawyers to file in court to ask for three things:

1. Have the House Resolution tossed out, AND
2. To ask the Court to find those who voted for it in violation of their Oath's of Office; AND
3. For major bonus points, can ask the Court to strike down it's own unconstitutional guidelines the [Ashwander Guidelines](https://en.wikipedia.org/wiki/Ashwander_rules), written by (IMO) the worst Justice in American history; which tell the Court(s) to violate the Constitution in many ways, including telling the Court to not do their highest job of enforcing the Constitution, and be lazy and allowing the crud to pile up. This crud is very real and very dangerous, to the point right this moment The House is peach minting without a Crime.

The DEM's House Peach Mint Resolutions is as unconstitutional as if the House Resolution voted to order the US Aircraft Carriers to all sail to Hawaii; this is not within their Constitutional Powers to do so. The House could redo & rescind the issue themselves.

The precedent of turning Impeachment, into ""no crime Peach Mints"" similar to a parliamentary ""vote of no confidence"" is NOT set, since like bad case law, breaking or ignoring the Constitution, doesn't give others an excuse to do so later. We wisely don't have ""votes of no confidence"" in our American Republic. We are not a parliament, we don't have nobility, we have separation of powers, we have a written Constitution, we have Oaths/Affirmations of Office, we just need people to read our Constitution and follow it.

**The strictly-Constitutional redpill basics as written:**

[Article 3, Section 2:](https://en.wikipedia.org/wiki/Article_Three_of_the_United_States_Constitution#Section_2:_Judicial_power,_jurisdiction,_and_trial_by_jury) Judicial power, jurisdiction, and trial by jury

>**The judicial Power shall extend to all Cases, in Law and Equity, arising under this Constitution,** the Laws of the United States, and Treaties made, or which shall be made, under their Authority;—to all Cases affecting Ambassadors, other public Ministers and Consuls;—to all Cases of admiralty and maritime Jurisdiction;—to Controversies to which the United States shall be a Party;—to Controversies between two or more States;—between a State and Citizens of another State;—between Citizens of different States;—between Citizens of the same State claiming Lands under Grants of different States, and between a State, or the Citizens thereof, and foreign States, Citizens or Subjects.  
>  
>In all Cases affecting Ambassadors, other public Ministers and Consuls, and those in which a State shall be Party, the supreme Court shall have original Jurisdiction. In all the other Cases before mentioned, the supreme Court shall have appellate Jurisdiction, both as to Law and Fact, with such Exceptions, and under such Regulations as the Congress shall make.  
>  
>**Trial of all Crimes, except in Cases of Impeachment, shall be by Jury**; and such Trial shall be held in the State where the said Crimes shall have been committed; but when not committed within any State, the Trial shall be at such Place or Places as the Congress may by Law have directed.

I put in Bold, the two basic parts which specifically give the Supreme Court power to review peach mints; as any other sentence in the Constitution, such as if congress doesn't follow impeachment's requirement of a crime as written in the Constitution. And Nixon v The United States is NOT relevant case law either (and again case law can't trump the Constitution).

[Article II, Section 4](https://en.wikipedia.org/wiki/Article_Two_of_the_United_States_Constitution#Section_4:_Impeachment) provides:

>The President, Vice President and all civil Officers of the United States, shall be removed from Office on Impeachment for, **and** Conviction of, Treason, Bribery, or other high Crimes and Misdemeanors.

The Constitution requires a crime for both impeachment to be lawfully used, **and** for removal. So the Courts can toss-out/stike-down the House Resolution out as UnConstitutional, as well as find those whom voted for it to be in violation of their sworn/affirmed **Oaths of Office-the Oath also written into the US Constitution**. Voting for the House Peach Mint Resolution, made those DEMS voting yes, a violation of their Oaths of Office; as VSG DJT spelled out for them in his [the 6 page letter](https://www.whitehouse.gov/briefings-statements/letter-president-donald-j-trump-speaker-house-representatives/) he cc'd and sent them 24hrs prior, they can't claim ignorance on it.

**LONG LIVE OUR REPUBLIC!! MAGA On! - Quaker Pede**

A few things to keep in mind according to the Constitution, and not Case Law or other sources:

1. The Senate is where the trial is, with the Chief Justice (in the case of Impeachment of a POTUS) presiding, and Senate sworn in oath (as jurors, instead of a normal jury trial).
2. America is founded on a private prosecutor system, not the public prosecutorial system. So there doesn't need to be a House Person as prosecutor.
3. The Legislative Branch Legislates. Executive Power is in the Executive. And Judicial power is within the judiciary. So things which are judicial in nature like perjury require a courtroom, judge, case, material facts, intent, etc. Perjury isn't something which can occur in the legislative branch (eg House Hearings) or Executive Branch. Same goes for subpoenas, they are a judicial branch function. These judicial branch functions come over to an a Senate Trial about Impeachment via the powers of the Chief Justice (judiciary).
4. So the Trial in the Senate, is a Trial and has all the basic standards of any US (Federal) Trial. Keeping in mind significant amounts of todays trial procedures also don't comport with the Constitution in many ways, but are put together through Case Law abuses over generations and repeated.
5. The Senate still has it's power while sitting as jury; so they can do things like say motion to recess; or pause to say vote on something else.
6. The Senate cannot vote to override rules of Trial; as in witnesses or evidence; this is the job of the presiding judge to decide (but again, these days this power is often abused too in nearly every courthouse. As most all legally obtained (material) evidence should be available to present, if a side wants to present it); but again cannot override the Constitution (ie even judges have limits to their power, even Chief Justices).
7. Much of the Senate's power structure today was put in place by LBJ when he was head of the Senate; and most of the rules do not comply with the Constitution either. (Same goes for in the House, since things like the seniority system/chairmanships in itself doesn't comply with equality of membership.)
8. The Powers of congress' ""oversight"" is for legislation: Past, present, future legislation. It's been abused as an expanded loophole by Case Law, the same way say the commerce clause has been.
9. Again the Constitution specifically requires a crime for removal, not just impeachment; so removal is not possible even with a Senate vote to do so.

LONG LIVE OUR REPUBLIC!!! MAGA On! Vote Life, Liberty, and the Pursuit of Happiness! Vote Republican!",fcwhdrt,540k,o3nqimk
">Correct me if I'm wrong

Corrected. 

Find a wife/partner that will be loyal to you and have kids, this is literally common sense, which is really just natural instinct.",malioswa,bsle6,f9xoi5i,">Birthrates are down.

Correct me if I'm wrong, but isn't the birth rate going down a GOOD thing considering it'd mean our existing resources would last longer?  Pretty sure there's zero danger of humanity dying from lack of fucking.",f9x71nc,KamuiHyuga,g2igl
Thanks lol,malioswa,bsle6,f9ih4kc,the harder truths always melt the karma down so dramatically.  nice work.,f9i6umv,jeckleson,3js5rt80
Amen. They are jesters and should be treated as such.,malioswa,bsle6,f9i5n3n,"Shut up actor and do your job.

In Rome, actors were considered like prostitutes and weren't even allowed to attend many official events. 

I like that policy.",f9i1ljj,GrinningLion,16zx0p
can you explain more,malioswa,bsle6,f9feoje,Now do malarkey,f9f249p,Starkgp,16ix48
"ya like backcheck, lol. love u showtime!",malioswa,bsle6,f94qnmq,Kane can’t do everything,f93xd81,Vomelette22,103o1pzu
"Well, I upvoted your comm because it's not an uncommon view; it's quite logical and sensible on the surface. It's unfounded, though;

Now, I'm not in the military but I have many friends and family who served or serve; if you live in the US you are, I'm sure, able to relate. 

Point,

The biggest hole in this fallacious 'tanks > pistols' cop out is that the people are the military, and they won't just light up Main Street with the artillery on command, lol. 

Refresh yourself on the war of 1812, war is about allegiances more than military prowess. Hell, the entire founding of the United States of America--refresh yourself on it. 

Cheers",malioswa,bsle6,f8xbid1,"So those tanks were so good at getting rid of Al Qaeda and ISIS.

&#x200B;

Oh wait.",f8x7o26,Foxyfox-,bkei4
a* solution,malioswa,bsle6,f8uq7x9,Thedonald.win is the solution,f8umowj,TrumptraintoDC,vtt3p
"Hm I may just be thinking of the specific case when those Antifa soys plotted to gas Trump's Inauguration (to some degree or another). 

Funny thing about Antifa and the Left is that they are so frustrating and unpleasant that they have become more intolerable than the so-called ""Nazis"" they purport to fight. 

Yes: I'd kick it with adolf hitler before any of these antifa freaks. Hitler wanted to exterminate jews, did to an extent, a truly terrible genocidal and despicable leader from the rest of the world's standpoints.  

But the left wants to exterminate conservatives, who far outnumber Jews, so yeah. 

They've become more repugnant than that which they admonish.",malioswa,bsle6,f8uq08o,I thought Antifa was designated domestic terrorists already? Maybe not by POTUS I guess -- FBI iirc.,f8upeu9,malioswa,bsle6
I can recite that interview pitch perfect I've watched it so many times.,malioswa,bsle6,f8uldt1,"Back in 2015 when I started reading back through his tweets I fell in love. 

Then he told Don Lemon ""somebody's doing the raping"".
(https://www.youtube.com/watch?v=2O6Nmx_kZMQ)

The rest is history.",f8ul9ta,GasHands,1mto9pat
Gotta avoid incitement to violence on the internet royt,malioswa,bsle6,f8ulaqq,Not pulling any punches there.,f8ukzia,Eli_Truax,hdrtx63
/thread tbh,malioswa,bsle6,f8ujbhh,"No, there's no crime to impeach for.  Stop wasting our money on ridiculous bs.",f8uiryr,sayno2lizardppl,51z9earh
Indeed...,malioswa,bsle6,f7jellb,Long story my fren,f7jav5i,Block_Helen,xb1ku
Welp. I got got.,malioswa,bsle6,f6jysbx,The joke was it's this sub,f6ji4gv,Abravia,13fcoz
#F,malioswa,bsle6,f6hjg3e,"Yeah, for saying he'd pay for some Clinton hair to prove Chelsea is a Hubbell",f6hh0sk,RDGIV,4y9ow
"I believe it was a day before or after the inaugural address, January 19-21, that window.

edit: see here -> [r\all on 1-19-2017](https://web.archive.org/web/20170119204646/https://www.reddit.com/r/all/)",malioswa,bsle6,f6hehv8,I don't have a screenshot but I remember the day when almost every post on the front page of /all was a picture of President Trump. I also remember the r /place site where we built a digital wall. They wouldn't dare to replicate r /place because they realise that the influence we had they would be minuscule to what we would have now. Better to keep us quarantined.,f6gykjw,Honkey_McCracker,52rhg9g
Sir. The link or name. Please.,malioswa,bsle6,f6heefi,There's actually a sub that shows you what the front page would look like if the site wasn't so heavily curated and it looks so much better.,f6h813e,Brulz_lulz,x9qvgo7
"This is extremely important, actually.  Good comment.",malioswa,bsle6,f6hecg1,Also a reminder: You must hash the exported files to validate they are not manipulated.,f6gyqw6,TheUnicornDinosaur,b8mrq
"they did pharma bro dirty, is he still in prison?",malioswa,bsle6,f6he5yd,"The lefties seriously thought we had hacked the site, lol. That was a glorious couple hours. I think we were the first 5-6 pages before politics finally showed up, then a couple more pages of our post before anybody else.

Edit: It looks like pharma bro still owes us a Wu Tang album too.",f6gjaah,BarbsFPV,3zhkdxdx
"No offense taken it's not OC. I agree we are not ""small"" whatsoever we've seen the evidence...",malioswa,bsle6,f6a7s4r,I wasn’t knocking your meme. But I do think we have a very large presence here.,f69a0k0,SCP0074,4e5gn04v
Yes.,malioswa,bsle6,f693o6d,"Member when they tried to suppress us further, and accidentally made the entire front page Donald Trump?",f692wou,xahnel,nixro
"It's an older meme, it was more applicable at the time",malioswa,bsle6,f691huc,I don’t think we are a tiny fraction of this site’s user based.,f6909ao,SCP0074,4e5gn04v
"I will agree on that, LOL, he was overpaid, especially his final contract. Shit wasn't he actually the highest paid player at some point? Most guaranteed in a contact maybe? Idk, hazy on the details. QBs are frankly all overpaid, even shitty QBs are paid better than marquee players in other positions. Teams invest too much in QBs, shame really!",malioswa,bsle6,f5obggj,"Without a doubt the defense has bailed Trubs out of poor decisions, where Cutty didn't have that luxury. My only real problem with Cutty was him getting paid more than his worth. At one point he was in top 5 QB pay, I don't blame him for this but rather the front office. Tom Brady hasn't chased the money and the Pats can afford to pay their lineman. The real shame of the season is how our stellar defense has been wasted and worn down",f5ndb6z,inquisitive_fucker,1083vh
"He was far from perfect, of course. But better than most realize. Wayyy better.",malioswa,bsle6,f5mdeft,Mostly agree w everything you say and Cutler definitely got a raw deal. They said let’s not ignore his picks in close games to well covered receivers,f5khyt1,LegendaryWarriorPoet,3yw3a
"I am happy to give Bis the benefit of the doubt, my issue with him is he hasn't ever shown true flashes of excellence the way a top QB would - even with subpar receivers, coaches, linemen. I don't hate him, I do think that many people are delusional if they think he will ever be a game winner versus manager. 

Fair points nonetheless tho",malioswa,bsle6,f5mctxt,"Biscuit has had shitty play calls and poor line play this year as well. Doesn't seem much different than Cutty. I'm not saying I have much faith left in Mitch, but this year seems to be on Nagy not Mitch. If he continues to play like this obviously I don't want them to pick up his 5th year but to say he's another Orton is absurd. Lest we forget he went to the pro bowl last year. Nagy is making this offense too complicated for everyone involved not just Mitch. Let him finish the year and bring in some competition next year at QB. It might be too late to save Mitch because it certainly seems his confidence is mostly shot, but he can't get into a rhythm with these stupid gadget plays. The defenses are figuring it out and Nagy doesn't know how to adjust when this happens.",f5m9ex1,inquisitive_fucker,1083vh
Correct,malioswa,bsle6,f5mapgj,Every mile of new wall is NEW wall because the old wall wasn't really a wall at all.,f5lkmin,Threadender79,bsq84
"Not that I agree with it but Cutler threw into triple coverage because he could actually do it and complete those passes a lot of the time. Few QBs have that talent, but yeah it didn't help his judgement. If he'd only have done it in desperate times I wouldn't have a problem but yeah, got cocky.",malioswa,bsle6,f5jz2aw,This is only Tittybiscuit's 3rd year. Really 2nd if you don't count the anemic offense under Fox. Cutty threw into triple coverage after a decade of experience. Trubs still has time to learn from his mistakes. Cutler didn't seem to care about getting better and didn't have the legs Mitchell does,f5jgwxj,inquisitive_fucker,1083vh
Has the records to prove it famalam,malioswa,bsle6,f5jyxvf,Jay Cutler is the greatest QB in franchise history I don't give a shit,f5jikug,gentleman_caller,7bhf1
"Cutler gets shit on because they don't understand context. 

Cutler arrived at the end of the Lovie Era. We had a good defense with Lovie - led by premier talents like Urlacher, Briggs, Peanut Tillman, a slew of upper tier rushers, and a consistent, if at the time aging/degrading, O line. Lovie Era lacked offensive ... flair. We did have the Sex Cannon who put up impressive numbers (thanks to the D - field pos. and constant 3 n outs help any O) but the bottom line: Lovie knows D not O and his years reflect this. 

So we get Cutler, and people expect him to walk on water. Well, he did, many times, given the shit he had around him. I mean consider:

- Cutler had a bunch of awful OCs and it was near yearly turnover on coaching staff, different system every year or two. Vs TB who has had consistency for like 15 years. Brees, same deal, Manning same: consistency. 

- Cutler had shit for protection most years. Only at the tail end w/Longs draft did it start to resemble a functional line. The Lovie Era guys retired. We had some terrible FA players on o line, barf! 

- Cutler had one truly good receiver, Brandon Marshall. For obvious reasons. Oh and the TE who went to Carolina. 

- Cutler took more punishment than any other starting QB in his time at Chicago

- Cutler won many games too

- the ones he ""lost"" due to turnovers were often playing behind (playing risky) to try and bring it back and win. 

- yes he played like an idiot at times and it was frustrating

- yes his attitude appeared less than ideal sometimes

But point = given the proper context, Cutty was a goddamn treasure that Bears fans foolishly condemned and ran outta town. Trub is another Kyle Orton, sorry. Kissin' titties or downing 5ths of Jack, they are game managers tasked with not fucking up vs winning a game.",malioswa,bsle6,f5jytit,Don’t get these posts. Cutty had his moments but threw tons of picks and cost us a lot of games. We didn’t have a lot of success w him lol,f5jgfcv,LegendaryWarriorPoet,3yw3a
Not even a possibility lol. Cook county is like 80% blue.,malioswa,bsle6,f5fo0kp,Chocago goin red this year?,f5f3cak,SocialMustardWarrior,br66dub
"True but it doesn't really resemble ""c"" lol",malioswa,bsle6,f59b41d,☭EO is more accurate.,f57dw7r,sub-collector,zq86cfe
I archive all my important shit tbh; so I'd have proof. But no I don't check diffs on my past comments,malioswa,bsle6,f59b1q2,"Do you check your comment history regularly? Spez does, and he will change it however he sees fit without leaving any evidence.",f570s8z,OFFICIAL_CNN_REDDIT,12ecyp
Yes and no. I should - in fact I will. But it'd be nice to compile a timeline of documented fuckery since 2016 and not just a single image with basically no context unless you were here for it.,malioswa,bsle6,f59az01,Have you thought about sending this image to the congressman calling for the quarantine to be removed? It's a clear example of conservative censorship.,f56yu3z,jedavis,5ciq3
"Yeah, this is really the most important point - we can't trust that any comments haven't been tampered with. Not that I think they are - but how can we ever know after his foul play?",malioswa,bsle6,f56pcsf,"Every ""violation"" has been put here specifically by Spez misusing his admin/ceo access. You can't prove me wrong. You can't even prove that Spez didn't type this himself as an admission of guilt to ease the burden on his soul.",f55z945,OFFICIAL_CNN_REDDIT,12ecyp
That I believe is called a clitoris m8,malioswa,bsle6,f56p2w8,deleted  ^^^^^^^^^^^^^^^^0.2705  [^^^What ^^^is ^^^this?](https://pastebin.com/FcrFs94k/47776),f55z2kv,CenkIsABuffalo,166aqi
"The Reddit API is one way to manually bypass the block page, but you would have to write your own web app. Existing web page archiving services do not let you 

A) log in (simple way to bypass)

B) POST data (you supply a URL and a GET is sent) 

C) pass custom headers (cookies in particular)

I have looked at this rather extensively and the functionality just isn't there, need a new service!",malioswa,bsle6,f55iw16,RESTAPI? Or RSA FEED?,f55dof0,BelleVieLime,2q31i0sh
"No shame in it, I certainly have been, lol. But 100% on point.",malioswa,bsle6,f54tmr8,People are often confused between reddit fucking up and true censorship.,f3o6aju,MatthewDiDonato,n0r4ydv
"Facts, actually. It's unsettling what he's become.",malioswa,bsle6,f3dv0gc,Maddow as a teen was actually attractive,f3dn6lf,MAGA_SpaceMarine,osgoq0a
"Because they are attracted to men but can't get one so they lie to themselves and pretend they are gay. Same reason some gay men are so flamboyant and effeminate. Old school gay men I know are just normal looking men lol. Lot of confused kids these days, however.",malioswa,bsle6,f3ca64n,I dont understand lesbians. If they are attracted to women why do the women they date look like men?,f3bqewo,Badjaccs,2o1f8y78
Yeah there are versions without the bottom floating around. This was best quality. And I'm lazy. Lol.,malioswa,bsle6,f3c9lwe,I did as well. I think it would be funnier to crop off the text at the bottom,f3c7ekj,hyperduc,56m1a
Correct answer.,malioswa,bsle6,f3c8tk1,I'm disappointed I'm not on this list.,f3c83dj,John-Paul-Jones,pvnba
Hubbell face*,malioswa,bsle6,f37argq,No it’s called horse face,f37am4k,Lauromartins86,xmh7g
"He isn't likeable for many people, that's it. He'd be a solid president, but he's too prone to mockery.",malioswa,bsle6,f3237bj,Why?,f31u1ch,Leonbethyname,cef3k
What the fuck,malioswa,bsle6,f29j7j7,"The deep state literally creates the thing to increase control and surveillance over their subjects.

https://imgur.com/KqUhdgD

Facebook for example, is a DARPA project disguised as a private technology company.

In reality the world does not operative as we believe on the surface. We are simply all unwitting rats in the cabals evil playground.",f29cbhz,UndercoverPatriot,9e8rgai
60% of it. Of our water supply. Is 'enhanced' with fluoride.,malioswa,bsle6,ezynct8,Something must be in the freaking water,ezxm2x4,slacboy101,186p7u
"What the fuck? How did I miss that. Muslims (leadership at least) have made their intentions clear, a global caliphate. How is the West so fucking cucked?!",malioswa,bsle6,ezwpkfq,"And the almonds *really* get activated when, after Notre Dame burned down, some people actually had the brass balls to suggest *modernizing* Notre Dame complete with a Crescent and Star at the top. 

Like, no fuckface. Out of all places *Notre Dame*? Have some damn respect for the Catholics (and I say this as an agnostic myself).",ezwct34,silverhydra,3ihue
"Trees and plants take in CO2 and produce oxygen, though. Many people forget that. If CO2 is so bad, they should plant trees to offset it, not ban industrial staples.",malioswa,bsle6,ezrvtbw,"It’s a greenhouse gas though. China’s emits the most CO2 in the world, and is a major polluter. Buts if that’s what you got from what I said, you do you.",ezqb390,akmmaeng,10ulzn6q
As I said this is frivolous argument. I understand what you're saying. I do not claim there is evidence china invented it. It is beside the point. Persuasion is the point.,malioswa,bsle6,ezr1cm8,"It's not a technicality. The entire thesis is 100% false. China did not invent global warming to hurt the US, although they did gleefully sign on to the Paris Agreement which would hurt the US and help them.

That quote where some guy said Trump's nose smells an odor is not a convincing argument either. There is exactly zero evidence China invented global warming. We look stupid when we go around spreading false conspiracy theories.",ezqkhrq,LibertyTerp,7mjhr
"You are missing the point and arguing a technicality, which is fine, but this is a frivolous debate. If you believe you know better than Trump, good for you. 

But I'll leave you with this, I think it'll help you understand (and references this very tweet),

https://www.scottadamssays.com/2016/01/07/trump-and-climate-science-master-persuader/

Edit - here is the pertinent part:

>The Chinese conspiracy doesn’t sound like the whole story to me, but I do buy the notion that China would be happy if the United States tied its feet together so it couldn’t compete. Trump deals with the Chinese enough to have heard inside rumors about their strategies. But my guess is that he’s making a Master Persuader assumption based on odor, not fact. And when it comes to odor, you have never seen a bloodhound with a better nose.",malioswa,bsle6,ezq1uk6,"Very poor argument imo. What is the evidence that foreign agents are the impetus behind climate change studies in the US? Most climate change scientists in US colleges are American. And even if they were, why the hell would they care about nationalizing industry? The bad guys shifted from foreign operatives to American socialists in the middle of the argument. Makes no sense whatsoever.

It's just socialists. Socialists want the US to stop being capitalist. They could never beat us at creating prosperity, so they had to find an area of weakness to attack capitalism from.",ezpwcsm,LibertyTerp,7mjhr
I would refer you to [this](https://www.reddit.com/r/The_Donald/comments/d1o0zh/trump_2012_the_concept_of_global_warming_was/ezp3nel) comment; it is the same tactic.,malioswa,bsle6,ezpkivk,"Sorry pedes, but this one is actually off the mark. Global warming was invented by European socialists, not China. Once they realized that socialism could never produce as much prosperity as capitalism, they realized they had to change the goal. If the goal was to reduce productivity, they could beat capitalism. But how to you trick people into wanting less prosperity? You tell them that their prosperity is evil. It's destroying the Earth, which has been worshipped by humans since cave men.

So now the goal of the Left is to reduce production to save the Earth. Socialism is amazing at destroying the economy, which will reduce carbon emissions.",ezpftc9,LibertyTerp,7mjhr
Who published it? Link?,malioswa,bsle6,ezcrwku,The report of the investigation on building 7 was just released. Check it out,ez8v6as,fugzshoes,14fhab
Lived in Albuquerque & spent lots of time in Rio Rancho and can confirm it's the middle of fucking nowhere and a desert. I played ice hockey at the rink in RR. Way the fuck out there.,malioswa,bsle6,ezcrcdb,There is no metro bus service anywhere near this venue,ezcotq3,BrandonTheBeast,716dx
"If you're going to torrent use PeerBlock, use it any time you have a torrent client running. It is magical and will save you an email from your ISP about copyright infringement. They don't really prosecute regular people these days, just scare tactics, but preventable... with peerblock",malioswa,bsle6,eyyjz0a,"Get a vpn, use a reputable BitTorrent client, never pay for Netflix again",eyxqbnr,JusticeBoned,4wap53
Based google leaked docs readers,malioswa,bsle6,eyf7x83,"> ¯\\\_(ツ)_/¯

What?  Google's answer to COVFEFE?",eyebkil,XCorneliusX,72ybo
#NO BRAKES!,malioswa,bsle6,ex16p09,"#MAGA LANDSLIDE INCOMING
#LOVE TRUMPS ALL THEIR HATE
#TRUMP/PENCE 2020
#KEEP AMERICA GREAT!",ex16ldf,TRIGGERED_BY_CHALK,wm30i
Legitimately lol'd,malioswa,bsle6,ex0s3n9,"So true. In the dark tower he actually writes himself in as his own deus ex machina for his deus ex machina to write the deus ex machina inside his deus ex machina.

Hey dawg, I heard you liked deus ex machina.",ewyw0lz,iMattApp,36it729n
"Exactly the same reason I am brother. The cold war is not over, and I now (as a late 20s guy) realize that us being told it's ""over"" as children was nothing more than communist propaganda. 

B but our own govt said that!! But xyz said it's over, too!! It was all about nukes!! 

How stupid some people are to not even consider the possibility that they (commies) have usurped many parts of American social and political infrastructure. 

Ayn Rand, btw, was based af and warned (not in her novels, in PSAs) us about their influence in HOLLYWOOD.",malioswa,bsle6,ewxf2wm,"I don’t know about you all,,

I’m just here to fight the commies",ewxbupp,ActivatedJoeBot,16i2r6
"Now we'll get banned for ""brigading"" - watch. 

Well done tho. This is what Reddit will look like after the inevitable perma-ban of The_Donald. x6-8,000,000.",malioswa,bsle6,ewxcxcz,"Well damn, it’s at 15 karma and I got my first silver. Total 180 from what I was expecting.",ewwqqpd,RedNumber0ne,7hvn8g2
Rookie numbers.,malioswa,bsle6,ewxcr9x,Surprisingly holding at -2 so far,ewwgujc,RedNumber0ne,7hvn8g2
"Why else do they need 

- illegal voters

- to resist voter id 

- to ensure their dwindling base thinks Rs and Trump are racists

- to ensure that defeating trump is a more important issue than oh idk, actual issues

- to hand out gibs like they depend on it (they do)

- promise 1k a month for voting for them (no other requirements! woo)

etc. etc. etc.",malioswa,bsle6,ewwvrus,"78.2M shifted, and they just took a narrow lead in the house and failed to flip the senate? They must be disastrously unpopular, absent propaganda and election meddling.",ewvjoq3,HereComeTheIrish13,1vy9bua4
Lmao I know right? I shoulda made a parenthetical note in the title in hindsight. Owell!,malioswa,bsle6,ewwveu2,This dude's name is so utterly unfortunate.,ewvopsk,orispy,239sisat
"Agreed, mostly. I'd say that because there is an aptitude for certain things like finance management and verbal communication (let's just be real here), and because things like those tend to elevate you to positions of power, corruption naturally occurs at a higher rate, too. If that makes sense.",malioswa,bsle6,ewtz6m9,"As I have heard it said before, ""There are Likud jews, and there are Soros jews."" Meaning there are leftwing and rightwing factions and it is not one monolithic bloc like some conspiracies allege. IMO jews are in disproportionate positions of power due to ingroup preference and high general IQ, people see this and assume some overarching sinister plot which is not true for vast majority of them.",ewtxhpx,dubiouslylegal,3b99inkc
"fyi he's trolling you and you took the bait hard, lol",malioswa,bsle6,ewtykm0,Hold up we got the pussy patrol over here. Remain calm everyone this guys ducks enough for all of us,eu8rlnu,Coolcat32123,11v4dh
"I attend the pride parade in Chicago every year, and you are frankly insane if you think it isn't absolute degeneracy. Young girls wearing next to nothing. everyone's wasted (myself included). Yes there are fucking dildos and BSDM attire, everywhere. Yes there are also normal people, yes there are many children there for who knows why (the parents). 

OP comm was only wrong about ""fuck Trump"" everywhere. Certainly not that blatant. 

My point is it's an ADULT EVENT",malioswa,bsle6,ewtyfon,Have you.. have you been to a pride parade? Lmao what on earth are you describing? 😂😂,eu8rp28,Coolcat32123,11v4dh
"I agree with your first statement; you nailed it. 

But if you think trying to fix legitimate problems is just a series of tantrums, I pray for you and hope you see past the nonsense, someday. 

Yeah I know, delayed response; acknowledged.",malioswa,bsle6,ewtxx7k,"I think the first black president was a special case. It wasn't a personality cult, it was a celebration of social progress with respect to racial equality. 

Kids could've also celebrated at the start of Dirty Donald's term: one of their own making it bigly. The first tantrum-prone toddler president with a preteen's grasp of foreign affairs and domestic policy.",eu7e7xs,RadicalDilettante,371lgrsk
ayy,malioswa,bsle6,ewtxn49,you werent a little girl growing up. and now you are in antifa lol,eu7izvd,FaRmErX2000,rni6z
Sadly I don't think he can unilaterally do this the way RU can (I'm no expert on RU gov tho..),malioswa,bsle6,ewtxh70,TRUMP - CAN YOU HEAR US BEG FOR THIS???,ewsbgsk,doingmypartMAGA,15gqz0
"Funny but tbqh CNN and the left are now the anti semites. Which, given the propensity of powerful jews to vote D, makes me wonder if it isn't an FF. 

That said I have met many AMERICANs of Jewish heritage that are conservative af. Many many based jews. Myself included. What a disgrace people like Shapiro are. Bennie you are book smart but clearly part of the globalist cabal. Jackass.",malioswa,bsle6,ewtwz03,"CNN: ""Trump now teaming up with Putin in antisemitic takedown of Philanthropist""",ewsd6yl,dubiouslylegal,3b99inkc
Exactly.,malioswa,bsle6,ewsa5ql,We NEED to do this too!,ews7daa,Rai_Leviathan,efivu
very low iq! spicer was awesome however,malioswa,bsle6,ewl35vd,"The best Scaramucci could muster for a retort seems like a slap in his own face. He works managing a fund and the Chinese want to take out Trump. Dear o'dear, how could someone manipulate dear lil'Anthony?",ewl0xmm,JamesBLomey,2v2w6ly
Pass,malioswa,bsle6,evwmn1v,"Ffs you have a legitimate point but you totally fucked up this post.

Just delete and re-post; it's no big deal.",evvr0jd,quarthomon,3ee1wgcd
