child_body,child_screen_name,child_user_id,child_tweet_id,parent_body,parent_tweet_id,parent_screen_name,parent_user_id
Because apparently in this state cops are above the law.,master_santa,4zwzibyw,fl5n6rj,"That's bullshit. We know they committed fraud, why haven't they all been charged? Their pension is based off these hours they were scamming.",fl4yb5v,Paranoidas,ujny4
"To tease us. Anyway, she kinda looks like trash now, so not a huge loss.",master_santa,4zwzibyw,fl4vp3m,"I still find it so weird she came back for like 5 scenes after like half a decade out of the game. What was the point? Quick ten grand? She doesn’t use her pornstar name for onlyfans or manyvids or anything like that so it wasn’t to market her name again. 

Seems so odd to me.",fib1xq3,Whatsgoodx,6dimj
The only 2 main human characters are Caleb and William. I'm going by who is credited in the opening credits.,master_santa,4zwzibyw,fl4rfhr,"Not sure I agree with you. There are exactly four hosts outside the park that we know of right now: Dolores, Hale, Bernarnold, and Mr. Bodyguard Guy (who’s name I totally forgot). 

Literally everyone else is human.",fl4oijj,0ne_Winged_Angel,kqwix
No I'm saying politicians and clueless actors.,master_santa,4zwzibyw,fl4iqct,So basically you're saying you hate anyone who has more money than you. Because it's really not that hard to be a millionaire.,fl4ikyf,Frankerporo,gbfkm
We can still hate both. Why do we have to choose one or the other?,master_santa,4zwzibyw,fl4h4tx,"Lol a person with a couple million is not the real issue. It’s those who have tens of millions or more that can sway elections and lobby congressmen/women and other deplorable shit. I could give a fuck if a doctor works hard for his whole career, invests his money, and retires a millionaire. That seems pretty fair actually.",fl4e3kj,3eechan,lfawn
🤦‍♂️,master_santa,4zwzibyw,fl2wld7,"Your post has been removed. Keep posts on topic. In general we don't need new posts that are jokes, memes, shitposts, or other unhelpful and unrelated comments. We may also remove low quality YouTube or social media commentary.",fl2waa8,KorgRue,3j3im
"Just out of curiosity, what was your job?

At least you can collect unemployment, correct?",master_santa,4zwzibyw,fkz4myn,"I’m sitting in a meeting right now, waiting to get fired. The VP is running late. So that’s cool.

Edit: they gave us basic info but are talking to everyone individually. So who knows still...

Edit 2:  laid off :(",fkymuk6,dorit0paws,85fd3
He wanted too much $$$ is what I've heard.,master_santa,4zwzibyw,fkro8zb,I frankly just don't understand.,fkqlap0,DreamClubMurder,5koi0
TBH it's not really his fault. *put sup flame shield*,master_santa,4zwzibyw,fkpr3p3,"> Leadership: Whatever happens, you're responsible. If it doesn't happen, you're responsible.

--[Donald J Trump, Nov 8, 2013](https://twitter.com/realdonaldtrump/status/398887965302091776?lang=en)",fkp8sbo,EvidentlyEmpirical,3wnskkvu
She probably fucks like 12 other guys on the side. Poor chump.,master_santa,4zwzibyw,fkhi2vd,"Yes, he's the middle eastern guy who got her a BMW for her 20th birthday",fkhgq82,joannaBJzanella,3pi7s03z
Well this looks like it is on Starkiller Base.,master_santa,4zwzibyw,fkg6xrp,"So when is this supposed to take place? If its between 8 and 9, Finn shouldn’t be seeing stormtroopers on Jetpacks yet. If it’s after 9, Rey should have her lightsaber. 

Not a big deal. I know these are cute, fun little cartoons for kids. But still, that seems like a weird little mistake.",fkemc2c,Kwyjibo331,15mcdb
Then how do people know if they have it? >_>,master_santa,4zwzibyw,fkfdfma,Except you forgot the fact that most cases are either completely asymptomatic or very mild symptoms.,fkfb3t1,myironlung6,11kj2e
No but I hear he was great in it.,master_santa,4zwzibyw,fjm3x55,Have you seen once upon a time?,fjm3w44,producermaddy,r731o9g
Please give her a tribute!,master_santa,4zwzibyw,fjm08e9,I’d cum for days on her!,fjly1gx,icywhite777,41bwwqkq
Trump literally passed one of the biggest criminal justice reform laws.,master_santa,4zwzibyw,fjlxvwk,"Because being soft on crime is not popular in politics left or right. I think the only one who is campaigning on reforming prisons is sanders and warren, what a surprise. Not to mention the amount of corruption and assault from guards that goes on there. If you get the chance, listen to Larry Lawton on YouTube tell his story about being locked up in federal prisons for 12 years. It's insane.

https://www.youtube.com/watch?time_continue=684&v=ip6oxjnhyPU&feature=emb_title",fjlbjcl,ScienceLivesInsideMe,a1jmc
How do you know she's a sugar baby?,master_santa,4zwzibyw,fjiks9v,Lmao cant believe this sugar baby has a subreddit,fj8xwb1,JTXPdev,2sas3krq
"> American Samoa 

TIL American Samoa can vote for the President...",master_santa,4zwzibyw,fjicwt4,American Samoa in shambles...,fjgu38m,askfjad,crnkj
What if it gets worse?,master_santa,4zwzibyw,fji8eie,"A seven month delay... wow. From a business point of view it does make sense, by November they will hoping that the whole 'Coronavirus' thing has not only blown over but that people are attending cinemas like normal",fjh5f3s,Stonewalled89,32c3xkdq
Where is the BTS from?,master_santa,4zwzibyw,fjey2t7,"With CGI on Billie Lourd's face, yes. 

Did you miss the part where Kennedy confirmed they wouldn't use archive footage either...? 

https://i.imgur.com/mRbMCMT.jpg",fjetsvo,ErikG96,32t0bo55
Why? It's clear at this point it's either going to be Bernie or Biden that wins the nomination.,master_santa,4zwzibyw,fj8j449,I’m actually surprised. Didn’t expect that,fj84gwf,JoeBob1-2,387fih8a
Zombies is dead.,master_santa,4zwzibyw,fj7tdwq,He will certainly be missed. Wonder what this means for zombies going forward,fj1tn7u,iLikepizza42,c0nnb
>!How did they do it in the book?!<,master_santa,4zwzibyw,fj5g9ip,"It was an awful choice of music.
 
Also they defeat IT in a completely different way in the book. The way they did it in the movie was very dumb.",f88zeb0,Akai-jam,2jgw6txo
Yes. >!I cried when he died. WHY?!!<,master_santa,4zwzibyw,fj5g5re,I thought James Ransone as adult Eddie stole the show.  He channeled that kid so well.,f89dy4p,LazarusKing,14sved
"He can come back to the US, right? He'd just be arrested on-site?",master_santa,4zwzibyw,fj5eiup,"Natalie says that she was lied to about why Polanski couldn’t return to the U.S. when she signed the petition. I believe she’s also said that while she regrets it, it’s still not an excuse and she should have been more careful.

YMMV may vary on if you buy it. Personally, I kind of do. Even in college, I’d have friends come up to me with petitions they’d ask me to sign and briefly summarize. Given I trusted them, I didn’t usually spend tons of time fact checking. Could easily see a pretty shitty person taking advantage of that. Outside this, she seems pretty consistent in her stances and beliefs

In contrast, Harrison Ford flew to Europe to hand Polanski an Oscar in person.",fj42cgu,ScorpionTDC,z1i93
Link?,master_santa,4zwzibyw,fj3i0y4,she has a tiktok aswell,fj2we0i,nighasloveme,5i7whieq
spiral,master_santa,4zwzibyw,fj2khxy,"Is it a straight or a spiral cable?

Flight mode turns off the cameras wireless connections.",fj2jryu,I_am_Nic,h5xbd
Nope. All the time,master_santa,4zwzibyw,fj2af97,Does the buzz come when you are zooming? I have ax700 and i have an issue where i can hear zoom motor/vibration through mic. I tested this with a cheap takstar SGC 598 and a Deity D3 pro,fizzpjw,Jokercy,s03q6
I use the cable that came with it. Not sure what flight mode is.,master_santa,4zwzibyw,fj2aelb,"You use a spiral cable?, Do you have the camera in flight mode? Wifi and BT can interfer with the mics electronics.",fizmye0,I_am_Nic,h5xbd
Sadface,master_santa,4zwzibyw,fiooxao,You're clearly part of the problem.,fioodjh,ncnotebook,u64zt
I am not a cop and I love donuts.,master_santa,4zwzibyw,fioobfh,"To be fair, cops love donuts. And fuck cops.",fiolsam,ncnotebook,u64zt
You are a piece of shit if you lick donuts that are for sale and then put them back on the shelf.,master_santa,4zwzibyw,fioh6a6,"This is reddit where if your parents went to college and had successful careers, you’re automatically a piece of shit who deserves nothing.",finwf7d,tgrote555,ncrjn
invite invalid,master_santa,4zwzibyw,fiimh3r,https://discord.gg/9xpzVc,fib1vyx,einstein929,4vj0fjw6
Yes we do. We see his corpse.,master_santa,4zwzibyw,fihnjjx,">Tom’s story on TBL is as dead as he is. I know he remains a favourite of some, but his arc in our show is over.

Never say never. We didn't actually see proof he's dead. He could be in hiding.",fih1v0j,maquisleader,4o21v1py
Unpopular opinion: I didn't like Dom at all.,master_santa,4zwzibyw,fic6e4q,But Leon and Dom weren't in season 1,fi9ykgp,Joshie8888,1hqvhkqq
No,master_santa,4zwzibyw,fi915ix,Was that the first time Hotch’s name has been said since the episode where they mention he’s “retiring”?,fi5pfs8,tribe47,xhcyd
With really crappy CGI,master_santa,4zwzibyw,fi91186,Ran out of budget blowing up a business jet.,fi607ej,AtomicFireBomb,gc5io
Dues Ex...Airplane?,master_santa,4zwzibyw,fi90zbd,"LOL what is this sorcery -- ""There are things none of you know about that jet""",fi5t02n,hintoflime3,4nxwu3qu
Who is PR?,master_santa,4zwzibyw,fi8tgdm,"Nothing. I don’t know why PR made a big deal out of her role when she was only ever going to be there for 2 episodes. They knew it before the season started but hyped it like she was gonna be Reid’s long-term
love interest.",fi677x0,DansoRoboto,bl2ayrs
Cyndi Lauper was on that show? And Sharon Osborne? Wow.,master_santa,4zwzibyw,fi26eln,"Of course he knows him. [He was literally on Celebrity Apprentice.](https://i.imgur.com/7eYMtDy.png) they are inches from each other.


Edit: Oh Jesus here we go.",fi1s76y,rathat,3hsqi
Unpopular opinion: The twist was really dumb and I think the writers pulled it out of their asses because every other season had a big twist.,master_santa,4zwzibyw,fht1e7o,"Same boat, I need to watch again knowing everything I know",fhrn4wj,nevergreene,ttlre
"The ""choke on your asipirations"" line sounds like something Anakin from TCW would have said.",master_santa,4zwzibyw,fht11dn,"Also has the best Vader. Is he cheesy cornball Vader? Yes, yes he is. Is he enraged death incarnate Vader? Also yes.",fhst4ya,gefunkt,bkd2h
Yes. Or else you cannot message anyone.,master_santa,4zwzibyw,fhnpdvh,Wait- SDs have to pay for SA?? 🤔,fhnlwb8,ddcheri11,3bx12opo
Look at that smile. Rami would make a great Joker...or Riddler.,master_santa,4zwzibyw,fhnp4rh,Two of my favorite actors! Cannot wait to see Rami as a villain in ‘No Time to Die’ and Robert as ‘The Batman’.,fhlxb2l,yam70,1354fy
Can’t tell if he actually said that...sounds like something he would say.,master_santa,4zwzibyw,fhknj50,"Look, black, wanna do push-up contest? No, you say, then go vote for Trump",fhjdhxq,stjdalen,4fe1n3
">Hoping sometime in the near future stay tuned.

So in 2037.",master_santa,4zwzibyw,fhix75g,"Hi! They have made a comment on this actually today. You can read it here. [https://www.reddit.com/r/modernwarfare/comments/f36i2s/calling\_card\_glitch/fhhw44c/](https://www.reddit.com/r/modernwarfare/comments/f36i2s/calling_card_glitch/fhhw44c/)  


\> Bugs aside with the green bread crumb. We are pushing to get a clear all current green dots in the menus button. Hoping sometime in the near future stay tuned.",fhi7k8b,Nathanw425,qiotss2
Why did they take a 2 year break?,master_santa,4zwzibyw,fhg0a65,if you followed this show from day one you could have waited 2 years for the final season so maybe you got lucky,fhfzxwb,DarkBigBoss2,3c6fsa9x
"Ghost, Elliot from Mr. Robot, and Mace...Windu?",master_santa,4zwzibyw,fh94h2p,"Infected Ground War? That's gonna be fun to play. 

Also, interesting new Operators.",fh8f1sm,the_blue_flounder,xfehe
"So are you saying in S2E11 when Angela was in the room with the kid that there was a mini-machine in there? It would explain the water draining from the fish tank.

And is the little girl an alternate-reality Angela?",master_santa,4zwzibyw,fh92ssa,"**I paste the answer (which it has already been answered many times by other people months ago)** 

A  parallel universe . Angela say to Elliot ""what if i told you we could  make it like none of this ever happened? "" "" ... i mean, everything,  including what happened to our parents. If we could take it all back  from the beginning, what would you be willing to sacrifice for that? .

It's a way of saying that Whiterose's machine is able to manipulate time ... by turning it back ...

She  (whiterose) left this world because she wasn't born in the right  body  and for this she lost her great love ( she says it in episode 11  (exit)  ).

Then I reviewed the episodes (S02Ep11  and S03Ep01) with my friends carefully 2 days ago ...  and finally I  understood what Whiterose meant ""... my machine requires a significant  amount of water, so it has to draw all the plant's power, including its  backup generators.... """".... our tests here were quite limited in  proximity "" ( in Exit ep 11 s 04).

**The machine worked** ...  but it could only do small tests .  For this reason the project had to move to Congo ...

In  your opinion ... if you watch  these two episodes, what do you see?   (Season 2 ep 11 - Season 4 ep 11  (exit) ) (Angela - Whiterose , Ellot -  Whiterose)

1. Both   encounters begin with Angela and Elliot's personal items on the desk .    Do you remember what Elliot says in Exit? ( he can't understand how   Whiterose got Qwerty, his first computer ext..)
2. In  season 2 ep 11,  Why the girl who entered in the room … is the same   girl who plays Angela   in the  third season (in the flashback between   she and her mother ...
3. Why blackouts occur after the meeting between Angela and Whiterose ?
4. Always   in epidose 11 (Season 2) ,  listen to tv ... minute 40:40 ""... give   economic relief to those most affected post Five/Nine, then ...   (Electricity hums) ... minute 41:23 the tv  repeats """"... give economic   relief to those most affected post Five/Nine"".
5. last observation I want you to make ...  Do you remember what Emily said to Angela before she died? (Believe with me)

You have to have faith ... but to have faith you have to see , and that's why

Minister  Zhang in **episode 1 of season 3 says**  ""... it was his (elliot)  impassioned plea to destroy ECorp, that  presented us with the  opportunity to set our plan in motion, and it has  taken his relentless  determination since to continue it. We may  possess the necessary tools  but what we do not have is his  unadulterated focused... **RAGE** !

then   "" Time presented us Mr. Alderson when we needed him. Therefore, his   will must be our guide. And after Mr. Alderson completes the great work   that we need from him... then he can die for us. Just like his father"".

That's why Minister Zhang lost against Elliot (in season 4 ep 9)... because he didn't believe in coincidences but in fate.

Instead   Whiterose believed Elliot's words ... she knew Elliot hated himself  and  hates society ...  life has been unfair to both ...and since Elliot  was  the guide ... she gave him a choice .

Elliot (MM) chose to stay ...

Whiterose   committed suicide because the machine was running ... she could not   move the project since Minister Zhang lost all the money ... the only   thing she could do was kill herself ...  the only thing she wanted to  prove to Elliot , was to have faith in her ... like Angela did .  But  she didn't know she wasn't talking to the real elliot ( he would have   chosen to leave but not our Elliot (MM)...  and that's why Elliot is a   superhero ...  he didn't run away as Mr robot wanted ... he chose to   stay  and saved Washington township  from the merger .",fh7aovf,Eliot19R98,5md7dpsq
"> https://www.youtube.com/watch?v=iWuVf5QwZkM
> 
> Elliot and Angela are the same age as the first season ... this means .. that Sam had shot the same scene twice that day . It's clear ... in the second scene, Angela only says he is MM (because Elliot discovered the meaning of the key, he found out who his demon is ... and last thing , he changed the world !!!

Video is blocked.",master_santa,4zwzibyw,fh6d139," absolutely not  "" Honestly it makes me think that this wasn't really planned until at least last season. "".

watch this video

[https://www.youtube.com/watch?v=iWuVf5QwZkM](https://www.youtube.com/watch?v=iWuVf5QwZkM)

Elliot  and Angela are the same age as the first season ...  this means .. that  Sam had shot the same scene twice that day .  It's clear ...  in the  second scene, Angela only says he is MM  (because Elliot discovered the  meaning of the key,  he found out who his demon is ...  and last thing ,   he changed the world !!!

 MM's idea is there since the first season .

Follow this user [https://www.reddit.com/r/MrRobot/comments/f03q7v/the\_official\_mrrobot\_rewatch\_ep\_by\_ep/](https://www.reddit.com/r/MrRobot/comments/f03q7v/the_official_mrrobot_rewatch_ep_by_ep/)

 Sam couldn’t have revealed the presence of “THE OTHER ONE”, if he wanted to finish mr robot in the best possible way for us …

we’ve never noticed him, before the 4th season , or not?? ;)  
Krista (his subconscious) …  just explained Elliot’s disorder and the  order in which he created the personality…  that’s enough !!  
She didn’t explain the outstanding things, what was the point then? She  was his subconscious… Sam put she on to help us … but he didn’t give us  anything else,  because Mr robot was created to live in time…  
until… someone or Sam ,  will explain if we have ever really seen the real Elliot (the prime)... it is wrong to say ""real Elliot""...  because all the personalities are real, as explained here [https://www.healthyplace.com/abuse/dissociative-identity-disorder/understanding-dissociative-identity-disorder-alters](https://www.healthyplace.com/abuse/dissociative-identity-disorder/understanding-dissociative-identity-disorder-alters)  . 

 I think they used ""real elliot"" to avoid confusion .

So anyone trying  to figure out a 50-hour series, the first time, is ridiculous (i’m not referring to you, I speak in general) 

 I'm watching the end of season 2 ... and I finally understand ...  because Whiterose in eXit says "" the machine worked with limited tests """,fgvgm8t,Eliot19R98,5md7dpsq
You had a photoshoot with Kayla?,master_santa,4zwzibyw,fh0dpec,Yup. We had a photo shoot yesterday. She’s going back blonde this afternoon.,fgzroaz,bhopped1,esx4yua
"I don't, please explain.

I thought he was Eric Delko.",master_santa,4zwzibyw,fgz77ss,"Thats not Luke, that's Ray Vasquez

(not sure if anyone even gets that)",fgxscgy,Torbadajorno,1681oq
"I am sorry but almost all CNN polls said that Hillary had 2016 in the bag. I am not going to trust their polls again, lol.",master_santa,4zwzibyw,fgo2w7j,"Ya people forget that Conservatives have some very real Demographic issues regardless of the 2020 election. 53% of Generation Z is non-White, and [CNN exit polls](https://www.cnn.com/election/2018/exit-polls) found that 18-24 year olds voted for Dems 68%-32% in 2018, technically higher than 24-30 year olds that voted 66%-34% for Dems. Generation X has also barely become more Conservative. Asians and Jews also supported Dems 75%+. Even on extremely low Democrat turnout and high Republican turnout in 2016, the popular vote was lost by nearly 3 million.

Republicans are now doing worse among the educated (even losing college educated Whites, a demographic Romney won in 2012), [Democrats have almost closed the 50k+ income gap](https://www.nytimes.com/interactive/2016/11/08/us/politics/election-exit-polls.html), and Republicans went from a 2:1 advantage of those making over 200K in 2004 to winning this income group by just 2% in 2016. In fact, the [percent of GDP produced in Clinton voting counties](https://www.brookings.edu/blog/the-avenue/2016/11/29/another-clinton-trump-divide-high-output-america-vs-low-output-america/) was up to 64%-36% in 2016, from 54%-46% in 2000.

In short, Democrats seem to have a super majority on the under 30 crowd, not to mention holds on the college educated, a stranglehold on all non-White voting blocs, and Democrats are both taking control of the wealthiest regions of the country and are becoming wealthier in comparison to the Conservatives. Conervatives on the other hand are now becoming the party of half of the top 10% of income earners and poor, uneducated, Whites. Not exactly the demographic of the future.

The problem is for right now, the 45% of the population that supports Trump has as much power as the 55% of the population that doesnt thanks to the electoral college. But that advantage won't last. Eventually the midsize states will simply turn from Red to Blue (like AZ, NC, and GA are all slated to do) and even Texas is becoming bluer by the day. Still, if Trump manages to just hold on, possibly losing by even more of the popular vote but winning electorally, Republicans will do as much damage as they can. Hopefully, we can motivate the right people in the Midwest (especially Black folks) to scratch out an electoral victory.

**tl;dr** while we should fear a second Trump turn, Republicans should be terrified about where the country already is demographically. This sham pardoning of Trump for his actions are solidifying the vast majority of people under 40 will hate Republicans for decades to come .",fgn9w7w,flyingcowpenis,ame4a
Well now neither side likes Romney,master_santa,4zwzibyw,fgo2py1,This feels like a political ploy to vie for a presidential run.,fgnlsws,newnamesam,95i6o
"I really felt bad when Han died. Anyone who thinks Ford phoned it is lying, I thought his chemistry with Adam was great.

Luke's death was cheap and I was like ""really? They killed Han, they have to kill Luke too?""

And Leia's we all knew was coming.",master_santa,4zwzibyw,fgh6su4,"If I were told before TFA I would feel more emotion for the death of a droid in a spinoff than all the big 3 of the OT, I would have thought this is crazy and impossible. Yet here I am. I felt absolutely nothing when Han, Luke and Leia died compared to the Rogue One crew.",fgfkrwr,Venodran,ks6axxa
Does this one come before or after S2E2?,master_santa,4zwzibyw,fgecb7m,"I was thinking of a different one, but that one is good too!",fgebd3w,Silevence,2o7kg4
">!Was it the BDSM scene in Season 2, episode 2 where she gets smacked around? Just watched that one, lol.!<",master_santa,4zwzibyw,fgeb7bi,"looks can be deceiving, my friend. but one scene she was in was VERY entertaining, you'll look forward to it : )",fgeayhd,Silevence,2o7kg4
I thought they were speaking German. Does anyone know?,master_santa,4zwzibyw,fgdpkaw,I'm Swedish so I don't really know where she is from because she isn't talking Swedish to Tyrell. I first thought she was Norwegian though now I think shes Danish. I'm too lazy to look it up though lol.,fgdpdky,rover0,3xtqxc18
Can't unsee her as the chick with all the tattoos from American Horror Story.,master_santa,4zwzibyw,fgdng6q,"Huh, that's not a picture of Grace Gummer...",fgdf455,Worlds_Dumbest_Nerd,4uqutggm
Wonder if those were before or after her stint on Mr. Robot.,master_santa,4zwzibyw,fgdnasr,"*clears throat*. As a man of culture I would like to inform you of some information you may be interested in:
https://m.imgur.com/r/Celebs/uhWLq",fgdmq6i,P0l3cat,1sf3lu2i
"ELI5, what is ""the machine""?",master_santa,4zwzibyw,fgda97a,"This isn’t a personal dig but I’ve seen so many people comment about how disappointed they are for the show not going the sci fi route. If you really that set on it, go write some fan fiction. 
The whole building up hype and suspension surrounding the machine is a bit of clever misdirection, it’s obviously subverted a lot of expectations with people who were expecting a genre swap (“but it was dropping hints all along, it wouldn’t have been out of place!” That’s what a red herring is). 
I think it was a great season. From the episode without dialog, to the theatrical build up of the Vera hostage scene. The cinematography was amazing but also the way the writing eased you into the conclusion at the end. 
Again, nothing personal, you’re allowed your point of view and your opinion. Just so many people upset over falling for a red herring and complaining how the show is lesser for it",fg7felx,jaaaaameswilson,lu8k9xl
The owner of reddit literally admitted to editing user's posts.,master_santa,4zwzibyw,fgd61uj,No false information on this site. No sir,fgcmr2n,venicerocco,34gyt
yes,master_santa,4zwzibyw,fg7xqpj,Wasn't that after she took communion though,fg7eqrn,Dantalion1654,47hgz3fp
I feel bad for Kristen's mom...she obviously has problems.,master_santa,4zwzibyw,fg77xjt,"I hope they kill off Kristen's mom.

Oh and I think if a pregnant lady with twins was having that many issues, they would have done a c section before doing all this exorcism stuff.",fg2mvdg,ReturnOfTheMaction,t6bep
Unless the doctor was in on it.,master_santa,4zwzibyw,fg7772q,Right??? I love how the doctor is like “duhh yah it happens sometimes”. This show can be smart most of the time but that was just poor writing to advance the plot.,fg41ld5,TheAbysmalDemon,5eaawte8
Oh you are so niave haha.,master_santa,4zwzibyw,fg1xkcl,"""Flash just the number $5,000 in front of a 20 year old, you almost have them hook, line, and sinker.""

A few 20 year olds would be accurate.  That is certainly not the case for the majority of young women.",fef151w,rmartin00,5adpmzo3
Neither side likes Mitt.,master_santa,4zwzibyw,ffvjl4b,"If I were Mitt Romney, I would stand the fuck up right now. He could likely parlay it into another run for President! Why don’t Republicans realize that momentary political expediency will ultimately put them in a worse position with the electorate! 

I know the electoral college is bullshit—but—when poll after poll shows people want a real trial, and more and more want him removed...don’t Republicans see they are nurturing a Progressive Wave? 🤞🏻",ffvetu5,Lexymo,179ugd
How does he have access to the internet in prison after what he did?,master_santa,4zwzibyw,ffvip1k,"It could have been anyone. He got caught too late tbh but they got him. Please refer to him by his given name, Eric, which he hates. Apparently he check these for what ever reason",ff8ymzv,someonewith2knives,50q9l5fq
I think I'm gonna go with the NX80...a little cheaper and MP4 files are easier to edit for me on my Mac.,master_santa,4zwzibyw,ffmf7gf,"It has everything except the XLR-ports on the top as far as I'm concerned. I use it for press shooting, so there is no downside from what I can tell.",ffli6p4,I_am_Nic,h5xbd
"What is the difference? Does the AX700 still have the great autofocus and unlimited recording capability? 

Obviously there's got to be other differences with the $1,000 price difference.",master_santa,4zwzibyw,ffju1l0,"Why the pro model and not the consumer version (FDR AX700)? By getting the pro camcorder you already make e.g. the mic much more expensive since it needs to have a XLR port.

Power adapter is included.

Case, get a large camera bag.

Tripod - get a video tripod with a fluid head (around 200USD).

Boom mic - if you decide to go with the Z90, you need to get one with an XLR port, for the AX700 you need one with a 3.5mm audio jack.",ffj7e44,I_am_Nic,h5xbd
"How is the H4n? Would that work? 

Thanks for your help.",master_santa,4zwzibyw,ffiv60b,"the zoom h1n is handy for journalists. you can plug a lapel mic into it, but it’s not ideal for that.

it’s made for a mic in, not a line in. without attenuators, the audio will be super distorted.",ffipdf3,KnowMyself,4hk5n
I wanted to watch all of them but I got up until the prequel one (I believe) where they were all in an asylum and the opening scene was just straight up sensless torture porn that I turned it off and haven't finished the series.,master_santa,4zwzibyw,ffh7qw1,Oh cool. The original is a fun slasher movie with great practical effects so I'd be cool to see what they do with another sequel. At-least this one will be released theatrically and thus better quality then most of those garbage bottom of the bin straight to dvd sequels that most of this series consists of,ffggaya,PaulSheldonsFeet,15k34gb3
"> A H1N is probably useless, so I wouldn’t buy one specifically for this.

Why is that? Several people have recommended it.",master_santa,4zwzibyw,ffh2n00,"What you need to worry about is sound because it is not going to go well.

Ideally you record the house audio, but without knowing their setup, and without proper equipment, that may not work out.

Your Rode mic is basically useless except for reference.

Placing a mic on the podium is an option but it depends on the setup and the mic. If you use the wrong mic, it’ll pickup the amplified house sound and that will suck. If the presenters are on the move, you cant use a second mic.

Without experience recording audio at events, you need to accept that things will probably not go well.

The best thing you can do is call the venue yourself and speak to whoever knows the most about their system. Maybe you can get pictures of it? Or you can visit while it’s empty?

A H1N is probably useless, so I wouldn’t buy one specifically for this.

If you have the time, are able, get pictures of their setup and come back here for advice.",ffergqt,KnowMyself,4hk5n
"I have shot with it before and it continuously shoots, but the files are seperated.",master_santa,4zwzibyw,ffh2jvq,"You do know your 80D has a record limit of 29 minutes and 59 seconds so you'll have to stop and start a lot. It's not the right tool for a shoot like this. Realistically you need a camcorder with a servo zoom, you'll need to get an XLR feed out of their soundboard and into a recording device like a zoom or a tascam and sync it up in post if you're not using a camcorder.",fffzx1g,zblaxberg,6gzq7
Thank you!,master_santa,4zwzibyw,ffdtf5f,"Yes, I have that exact one and since they have an input 3.5mm jack, you can plug into the mixer with either one of the adapters I linked previously, (3.5mm to 1/4” or 3.5mm to XLR). Its good to have both as the techs would let you know what available room they have to plug into the mixer (sound system). Ideally they’ll let you plug into the main, but I’ve had to plug into the headphone jack before (which is a 1/4”).",ffdrl1z,Abecnik,14e9dl
"Can the Zoom H1 plug into their sound system? If so I would probably buy 2 of those, one to plug in and one to put at the podium.

Secondly, what cables would I need specifically to hook the Zoom H1 into their sound system?",master_santa,4zwzibyw,ffdoa4d,"You’ll actually want a recording device to plug into the mixer thats at the tech table in the back of the room. The techs there will be controlling the house sound and they shouldn’t have any problems with you plugging into their mixer, just ask nicely.

On top of your recording device (such as a [Zoom H1n](https://www.amazon.com/dp/B078PTM82R/ref=cm_sw_r_cp_api_i_5nJkEbNJYHK17) ), you’ll need adapters to plug into the mixer. 3.5mm [to 1/4”](https://www.amazon.com/dp/B000068O34/ref=cm_sw_r_cp_api_i_cmJkEb843S9N1) or [to XLR](https://www.amazon.com/dp/B00QMITC7G/ref=cm_sw_r_cp_api_i_VjJkEbH4ZNS18) 

You can get away with your rode mic, but you’ll also record every nearby cough, sneeze, rustle etc. If you truly want the audio from the presenters’ mic, you’ll have to plug into the mixer.

And use your tripod for the presentation*, it’ll save your back, shoulders or arms by using all those other options. Plus, you also don’t want to be moving around as you’ll be a distraction to everyone.

*For b-roll you might be able get away with just being handheld or even with a monopod (better if your tripod converts to one). 

Edit: Clarification*",ffdmzrn,Abecnik,14e9dl
"Can the Zoom H1 plug into their sound system? If so I would probably buy 2 of those, one to plug in and one to put at the podium.

Secondly, what cables would I need specifically to hook the Zoom H1 into their sound system?",master_santa,4zwzibyw,ffdo9kg,"I've covered this in the past, figure I should make a video about it one day, since I see the question so often. First, if this is mission critical: get them to hire a pro. If this is used for marketing, it deserves to be captured in the best way possible. If it's just internal/archival and you're comfortable with the gear, then go ahead and tackle it but WARN them that you're not a professional, and mistakes might happen.

Then watch this piece that someone already put together: [https://www.youtube.com/watch?v=SvF2Yxy3FME](https://www.youtube.com/watch?v=SvF2Yxy3FME)

If you can tap into the speakers, or split the mic, then you'll probably get the best results. On-camera audio is reference audio only, don't count on it to be useable.

Have a backup plan and gear in place. Single camera is a big risk. Adding a second camera facing the audience and close to the speakers is a reasonable backup...but if you aren't good with audio levels, input matching, adapters and recorders, I promise it will come back to bite you.

I typically will get a feed from house sound but also incorporate a recorder plugged into the speakers (if they have XLR or 1/4 inch loop-through)....AND a mini recorder like the Zoom H1 at the lectern. But if the presenters aren't talking into a mic, then it's out of your hands. Any experienced operator will tell you that whatever is out of your direct control WILL get screwed up. But the fun part is that you'll get the blame when they watch the footage.",ffdmian,Abracadaver2000,zgl07
Seems like a grade A certified whack job.,master_santa,4zwzibyw,ffdchfl,"I think that she said she didn't know what was in the garbage (BS) and she couldn't remember where the dumpster was that she threw it into (more BS). She should have been charged with accessory after the fact as well. 

She is now using his last name as if they were married.",ffd0in8,sweetsummerchild69,454738ae
Yeah Shayanna knew. Wonder why she wasn't charged. Surely destroying evidence is a crime.,master_santa,4zwzibyw,ff7k0ee,"Well the sister said Shayanna kept getting calls from someone (assuming it was Aaron because he went upstairs after she got there and he talked to her for a quick minute) 

Then she kept stepping out and came out with black bag full of stuff to her car. The ID channel said the sister was sitting in the couch while Shayanna was taking stuff outside.",ff7arkv,shatkbait8999,3otbm19g
"Is that true? They showed the security cam footage of it on the Netflix doc. If that is true, was the sister (Odin Lloyd's GF) in on it? That adds a whole other layer.",master_santa,4zwzibyw,ff7a9e8,On the ID channel Doc last night it said she did it while the sister was watching her do it.,ff6m99m,shatkbait8999,3otbm19g
Not at all. You don’t have to be a genius to tell when someone is lazy or disorganized,master_santa,4zwzibyw,ff5prjn,"Do you think it's possible that your lack of experience in the work place is preventing you from identifying those with more valuable skills, and you're mistaking efficiency and task-focus with laziness and disorganization?",ff5709l,Celtictussle,jiu6z
I have no desire to socialize with co-workers other than small talk.,master_santa,4zwzibyw,ff36g7s,"You mischaracterize those in the “inner” group. Social skills like those are legitimate, worthwhile skills. Work is more than labor.",ff35h9t,TabulaRasaRedo,r3z3dru
"I'm not a dick, I just don't wanna act fake to get ahead.",master_santa,4zwzibyw,ff2zlz4,I don’t totally agree with the blanket statement of “the hardest workers do not succeed”. It’s definitely true though that you’ve got to play the game in order to advance. Bosses generally want to promote the people they like and trust because those are the people they’re going to have to spend more time with. That rapport is built through socialization though so if you act like a dick or you’re standoffish to people of course you’re not going to have success,ff2zgz4,vLVw8MFI4P7SL2g9AW7u,52y6tbla
No it doesn't. Those were the ones captured by Mills' team.,master_santa,4zwzibyw,ff1plm7,The post-credits scene of Fallen Kingdom explain this.,ff1lgl2,VictorJackson16,16ulsg
Which athletes?,master_santa,4zwzibyw,ff1hp95,the various athletes she is banging,ff1g98r,PatekOnMyWrist,1gjiyn0p
Anyone know where she gets her money? Surely not that shitty sales call rep job.,master_santa,4zwzibyw,ff0ml9c,she literally parties every night and probably for free,few5pc2,PatekOnMyWrist,1gjiyn0p
"> I am not sure about why did they not mention the island....maybe the moviemakers want the viewers to forget about the island. 

They mention it in FK. At the beginning when Claire goes to the manor to meet Mills he says ""Let me give you a bit of history. This is where it all began. Before the islands, Sorna, Jurassic Park, all of it. Hammond and Lockwood built a custom lab in a sub-basement, extracted the first DNA from amber, right beneath our feet.""",master_santa,4zwzibyw,few6uru,Actually Sorna itself was a volcanic island....do they cannot risk the dinosaurs life by shifting them from an island which has an active volcano to an island that also can explode someday. And also the ecosystem on Sorna was screwed up due to the presence of the Spinosaurus. I am not sure about why did they not mention the island....maybe the moviemakers want the viewers to forget about the island. Still I want the Spino to return someday....,femulrs,Reddit-MultiYoutuber,4e8o8chs
"""Bands are a respectable form of entertainment!"" 

😂😂😂",master_santa,4zwzibyw,feviqzg,I literally LOLd at the very last scene 😂,fepgew4,GlacticGryffindor,4vhabu2d
>!*Jake's!<,master_santa,4zwzibyw,fevih8e,You can see the scar on Leland's neck 😂,felw7rj,HollyJolly12,26nijs1n
Wow. I hope the intention is to do an update and have local multiplayer.,master_santa,4zwzibyw,feu2s9m,"I think it's strictly single player, online or offline. I don't know what they were thinking.",feu20st,akran47,f6bip
"All of Massachusetts neighbors hate them too, except NY and CT.",master_santa,4zwzibyw,fer5xcx,Tied with California by having all of their neighbors hate them as well.,fenyzu7,Home--Builder,4b1xrf9y
It's a horror movie. The main character of a horror movie is typically the antagonist.,master_santa,4zwzibyw,fephc6o,"If that is the case, is the blind man supposed to be the protagonist here? Honestly, he deserves to die.",fenu7g8,SincereJester,1a2uu7kc
He wasn't an asshole. Dani was clingly AF.,master_santa,4zwzibyw,fep5664,Oh yea it is. Christian is an asshole in the Theatrical version but there are added scenes in the Uncut that show just how emotionally manipulative and toxic he is. Makes you dislike him even more and feel so much worse for Dani.,f23yzg4,dondo09,j04oa
Post it here.,master_santa,4zwzibyw,feb1zxz,Check out her new tik tok😈,feb0zph,jev210,5bb1wtmj
"> the humor definitely felt like it was coming from a 50 year old gay man who thinks he’s hip with the kids.

That's because...it was.",master_santa,4zwzibyw,fe6497g,"1) Asylum (masterpiece)
2) Murderhouse (close 2nd)
3) Hotel (I like Gaga and vampires and hotels)
4) 1984
5) Roanoke
6) Coven
7) Freakshow
8) Cult
9) Apocalypse (I’m still angry about how horrible it was)

I can genuinely say I love them all, expect Apocalypse.  It had shit writing. Characters, plot, and the humor definitely felt like it was coming from a 50 year old gay man who thinks he’s hip with the kids.",fe3a94g,planethorror,me372
"> There’s a vid of her galavanting around topless somewhere.

Gonna need that link. PMed or otherwise!",master_santa,4zwzibyw,fe630qn,"There’s a vid of her galavanting around topless somewhere. 

Princess Di allegedly had borderline personality disorder and I see some signs in Meghan Markle. 

Looks like Harry done went and hitched up with a girl like dear old mom and the fallout is already happening. 

The only think that surprises me is that I figured the Royal family would have an army of experts trying to prevent this kind of disaster. Marrying a grifting C-list actress who will cause nothing but trouble.",fe49cz5,Uhtred_McUhtredson,12n4v4
"After Disney's death, many rumors were spreading that Disney's body was cryogenically frozen, and that his frozen corpse was stored beneath the Pirates of the Caribbean ride at Disneyland. However Walt was in fact cremated on 17 December 1966 at the Forest Lawn Memorial Park cemetery in Glendale, California.",master_santa,4zwzibyw,fe61d9b,"I've seen it, it's in the tunnels under Epcot. Kinda creepy imo

Here's a documentary about it

https://youtu.be/cj0qwTmn0Ic",fe4pq66,Jordaneer,olprw
Easier said than done.,master_santa,4zwzibyw,fe5x4tb,"If you're unhappy with your job, put tons of effort into finding a new one ASAP.  Also learn to recognize toxic work environments. I once saw a guy quit his job in under 4 hours, just noped right out.",fe2xgqg,BitPoet,h5v4t
The boy was an unreliable narrator. We saw that in the scene he was introduced.,master_santa,4zwzibyw,fds152o,But the little boy at the crash site stated to the Israeli cop that he saved him and healed him,fdqw2ix,boxoutsidethink,4bnnzsqq
It already is in the ground. Let it die already!,master_santa,4zwzibyw,fdp2lnq,That's right we'll run this bitch into the ground,fdno7yp,Mike_Honcho_Overkill,4g4oiz29
194,master_santa,4zwzibyw,fdi3ioa,You can't just post this without a link... at least a name drop or episode # lol,fdft4kr,DemonRaptor1,jot67
Why? He was a great Batman.,master_santa,4zwzibyw,fdfmlqg,"I know everyone is lining up to work with Taika these days, but Bale had to be at the bottom of the list of people I'd expect to want back in the superhero business.",fdelp6u,zephyrinthesky28,wbacf
