child_body,child_screen_name,child_user_id,child_tweet_id,parent_body,parent_tweet_id,parent_screen_name,parent_user_id
"Ever heard of stuff called ""paydirt""? It makes their name technically true lol",Monk_of_Trump,cflhr0u,fks1wex,I've never seen them live up to their name. Shits always expensive on there.,fkre72v,AirFell85,e1xpy
Rent free,Monk_of_Trump,cflhr0u,fkdtqhy,Kaitlin Bennett did that some time ago,fk70iid,Anderson74,10wj4i
"That's not even the person I responded to, oh great and holy smart one.",Monk_of_Trump,cflhr0u,fk2cc7j,">  Which requires me to be out of the house until 9:30 - 9:45

Uh... no?",fk1leov,jsgrova,15h0oh
Is going to sleep earlier not an option or something? I have to be up at 3am for work and it hasnt been a problem for years.,Monk_of_Trump,cflhr0u,fk0rpbg,That's actually unhealthy for most people. I work at 6 so I also get up at 5 but they always tell me to mention it if I can't take it because sleep deprivation fucks you up mentally,fk0p15w,pwootjuhs,16ti4a
"Slamfire will just blow your gun up eventually when it decides to go off before the bullet is fully seated. So you really gotta decide. Is it worth it? I mean probably, but I dont know.",Monk_of_Trump,cflhr0u,fjqkm58,How about ensuring that it continues to “malfunction?”,fjpg3ix,Pray4dat_ass96,oau6zex
ʘ‿ʘ,Monk_of_Trump,cflhr0u,fjggzyc,"Dude, it’s ok. We shouldn’t be fighting. GO TRUMP!",fjff5gm,mddet,u8a14
Well you were ignoring my references so I didn't know lol,Monk_of_Trump,cflhr0u,fjggyiv,"One of my fav movies, why ya think I said Shake, tard.",fjfd91n,mddet,u8a14
"You do realize that we all agree that the black murder rate is way higher right? That's not what anyone here is arguing against. It's that you implied black people in general are murderers. We all know the stats, but that doesn't make ""THEM"" all bad people. It's a result of being stuck in a feedback loop of poverty, fatherlessness, and gangs. If Democrats could admit that we could start fixing it. But to refer to them as some ""other"" that is responsible for all killing, is just stupid.
Even if it was just an accident and you didn't really mean that, its a really bad look. But if it's really not what you meant, just say that and move on. No one's slandering you though, because you really did say it.",Monk_of_Trump,cflhr0u,fjf7qnd,"The graphic I provided above, if “THEY”are the blacks in that graphic, who is allowed to say what I said? Can a black person ask it? What if I was black? 
Why when “you” can’t or won’t debate or fix a horrible problem (like the homicide rate in Baltimore), thats where I live, you simply toss the problem aside by saying. Mddet is racist! What if I wasn’t racist? What if I wasn’t what you perceive me to be?
Wouldn’t you feel bad? Wouldn’t you be apologizing to me? You don’t know me, you don’t know my race, gender, anything, but you are judge jury and executioner all in a few comments on Reddit. Well shame on you.",fjengcq,mddet,u8a14
I guess you haven't seen there will be blood lol,Monk_of_Trump,cflhr0u,fjf76j3,https://www.google.com/amp/s/amp.theatlantic.com/amp/article/595333/,fjej16u,mddet,u8a14
DRAAAAAAAAAAAAAAAAAAAAAINAGE!!!!,Monk_of_Trump,cflhr0u,fjehbn5,"That’s because I shared it with you. I don’t know how old you are but here’s some advice. 

“Learn to harness the swirling hate you might feel inside you for another person, that person could actually be your best ally.”",fjebk6r,mddet,u8a14
"""Why do THEY always take life"" I believe is what you said, or something similar. That is not at all what you are saying now.",Monk_of_Trump,cflhr0u,fjeh2pj,"I implied:

The media releases the identity of shooters day of, when they are white christian pro trump male.

The media does not release the identity of the shooters when they are black.",fjec7l1,mddet,u8a14
"Dude, you literally implied all black people are murderers. I remember seeing that post. No respect for you at all.",Monk_of_Trump,cflhr0u,fjebfy8,"Just because I’m weird or I’m different the way I get my point across here on the donald, that gives you the right to start a witch hunt to try and get me banned? Or try to make me out to be a racist? You are exactly what we have defined the left as. Exactly what we are fighting against. You don’t know me.",fjearlt,mddet,u8a14
The funny thing here is that I was an actual junkies for like 5 years when I was a young stupid liberal. When I got clean my politics changed completely to the other side. Gets the noggin jogging.,Monk_of_Trump,cflhr0u,fje3ui8,"Read? Find information on their own? Use logic and deductive reasoning? This must be your first time dealing with a junkie, eh, fam?

spez- triggered some junkies, eh? Your ineffectual downvotes amuse me.",fjdxz4b,TheAssOfHats,otw8h
Thanks for spelling it out for him so I didn't have to. I'm getting tired of seeing so many people start their own conspiracies about Reddit locking down td when it's literally the top post explaining it.,Monk_of_Trump,cflhr0u,fje3mcv,"You do know eaton used to mod, right? Like, last week, right?

Since ""You read the fucking sticky"", you do know that the Admins demodded the most active mods(including eaton), right?

You do know that the majority of moderator actions involves comments, right?

You do know that the more posts, the more comments, the more shills/cucks, the more moderator actions required, right?

You do know that with only a handful of part-time, VOLUNTEER mods, there may be too much work for the normal amount of posting you've become used to, right?",fje1roy,TheAssOfHats,otw8h
"""can't""",Monk_of_Trump,cflhr0u,fjdvobw,"Except they can't if they want to retain Section 230 protections by being classified as a platform. If they want to be publishers, let them, but we can swarm them with litigation for defamation, harassment, and libel/slander since they're exercising editorial control of what goes on the site.

They can't have it both ways, and we need to make that known to them. If they want to shell money out for lawsuit after lawsuit, they can be a publisher. If they want to do the smart thing and get their grubby paws off the banhammer, they can be a platform.",fjd1pcu,fuzzywhiterabbit,rqhpb
Have you not gone to [thedonald.win](https://thedonald.win)? They explained everything.,Monk_of_Trump,cflhr0u,fj3600w,So can you tell us what the hell is going on? No regular pede can post right now.,fj351yn,OgieOgletorp,dlnvg
MAGNIFICOOOOO-OOO-OOoo-oooooo,Monk_of_Trump,cflhr0u,fiz7odr,Galil-ayoh vigarooooOOOOHHH^HHH,fiuoox1,The_Devin_G,q3lirmo
Something about movie tickets.,Monk_of_Trump,cflhr0u,fiz7kt6,what?,fitjgig,xboosh,4nnvb
admins\*,Monk_of_Trump,cflhr0u,fiyruee,GESTAPO MODS HAVE GOT TO GO.  HEY HEY.  HO HO.,fiyqvfp,Keystonepipe,4chvrckw
https://thedonald.win/p/469S7LG/weve-put-the-subreddit-in-restri/,Monk_of_Trump,cflhr0u,fiwc9l9,What on Earth are you talking about?,fiw7k50,yelloWhit,8wyer
The mods locked posting for a while because they lost half their team. It wasnt the admins of reddit that locked posting. Not sure what you dont get.,Monk_of_Trump,cflhr0u,fiwa3l1,What on Earth are you talking about?,fiw7k50,yelloWhit,8wyer
"It was the TD mods, not the admins that did it dude. Don't dive headfirst into victimhood. If it was Reddit that did it I'd be more pissed. Be pissed that they axed our mods, and now they can't keep up. But if you think the mods that locked posting are the bad guys, that means you think they've been compromised for a long time because it's the same people we've had for a while.",Monk_of_Trump,cflhr0u,fiw02yo,"> Dont be too mad about not being picked when there are thousands that fit your description.


[What a way to try calming dissent.](http://kekpe.pe/i/5e571ef002302.jpeg) 
We’ve done nothing wrong & have been targeted as a whole. Now, reddit is targeting individuals. I will always be “too mad” when this happens to **ANYONE** in America. What’s the saying?: *Injustice anywhere is a threat to justice everywhere*. There’s a big picture assault happening here & if anyone chooses to lighten their own individual frustration by making excuses as to why rolling over a little bit isn’t all that bad, they are useless to themselves.",fivuegt,yelloWhit,8wyer
"approved posters means they had to individually select who can post, its not by karma or length of time here. Dont be too mad about not being picked when there are thousands that fit your description.",Monk_of_Trump,cflhr0u,fivlpl4,"""approved posters""   3 years and 500K karma in T_D isn't enough to be an ""approved"" poster.  Reddit is shutting this place down.",fiviyfx,Necrovoter,12foyo
There are hundreds of them going back years. Search magathread in t\_d. You havent been paying attention.,Monk_of_Trump,cflhr0u,fivlbcr,Sounds like a leftist term,fivb627,SellTheSun,bbsn8
"[4 days ago](https://www.reddit.com/r/The_Donald/comments/f7wu0b/midday_magathread_salty_screenshot_saturday/)

[20 days ago](https://www.reddit.com/r/The_Donald/comments/ezup1i/magathread_president_donald_j_trump_public/)

[22 days ago](https://www.reddit.com/r/The_Donald/comments/eytiyg/magathread_florida_prosecutors_release_jeffrey/)

&#x200B;

If you search magathread in the\_donald there are literally hundreds of them going back years.",Monk_of_Trump,cflhr0u,fivl46n,When was the last time there was a MAGAthread?,fivees4,aveydey,3w03h
"Dude I've seen it quite a few times.
[years back even](https://www.reddit.com/r/The_Donald/comments/6z2r7c/afternoon_magathread_your_weekly_presidential/)",Monk_of_Trump,cflhr0u,fivdipg,"I have never seen a ""MAGAThread"" on this forum in the 5 years I've been reading it.  If I have I sure didn't notice it and it's certainly not a daily or weekly thing.",fivbmwc,aveydey,3w03h
"But youre going to pay for that healthcare by losing half your checks to taxes, and then the healthcare will suck because everyone will use it for every little thing, and wait times will go through the roof.",Monk_of_Trump,cflhr0u,fiuyghc,"Honestly I dont care too much about politics in and of itself. None of it effects me too much. I'm just a high school dropout who votes with his wallet. Yang was my guy becauze he bribed me with a grand. Until someone else offers me money I'll settle for a chance at some healthcare.



You guys are funny as shit though so I hangout here. Love a good subreddit and a good slur my man",fiuvysy,AMCrystalMeth,4srjl8f4
Dude its goatse. One of the unholy trinity of the early internet along with the harlequin fetus and tubgirl.,Monk_of_Trump,cflhr0u,fiuy9jg,This both disgusts and impresses me all at the same time.,fiuv0oi,DragonsAndDiamonds,3bwtf3kq
But dog faced pony soldier is such a hip and cool term! It could be the successor to his malarkey slogan!,Monk_of_Trump,cflhr0u,fiul01d,"All I said was dog faced pony solider and I was pretty much banded from all Biden subs, some I didnt even belong to",fiufyct,FrisbeeCheebaMonkey,5mltdsjy
That flea market bullshit was the first thing that caught my eye.,Monk_of_Trump,cflhr0u,fiuivw1,"The Indian knife really sells him as an ""Operator""",fitq43m,WolfeBane84,9wbws
The promise of deep state approved presidential power is strong juju.,Monk_of_Trump,cflhr0u,fiuisa1,You'd have to be pretty deranged to live our your life in an unfulfilling sexual relationship just to win some social points.,fiuegef,smellsliketuna,4rqpy
I guess you just arent as important to suppress as me. Lol,Monk_of_Trump,cflhr0u,firxi0o,I've yet to receive any and it's a insult!,firxc37,hearnoweevil,112rtbmv
"Yeah I got a message without links first, then later got this one. So stupid.",Monk_of_Trump,cflhr0u,firv8g3,Many people have up voted these but the email warnings are staggered.  This seems to imply their “anti evil” squad has to do this manually.  They also started linking to the posts in question but only after their original emails were made light of.  This looks very haphazard,firtcrv,kip_kip_puree,40xmars3
"Not only that, I got a warning for two posts that I upvoted a month ago. Time crime! I shouldve known theyd make a rule against upvoting!",Monk_of_Trump,cflhr0u,firulmt,"> Today, we’re making an update to address this gap: Users who consistently upvote policy-breaking content within quarantined communities will receive automated warnings, followed by further consequences like a temporary or permanent suspension. We hope this will encourage healthier behavior across these communities.

As if Reddit wasn't already geared toward generating groupthink, you're going to start threatening users for upvoting things that might violate your nebulously enforced rules? Obviously deliberate chilling effect is obviously deliberate.",fip5bkq,Pax_Empyrean,2itkubpk
I just got warnings from posts I upvoted a month ago. Its ridiculous. The posts werent even bad.,Monk_of_Trump,cflhr0u,firu846,">When we [expanded our quarantine policy](https://www.reddit.com/r/announcements/comments/9jf8nh/revamping_the_quarantine_function/), we created an appeals process for sanctioned communities. One of the goals was to “force subscribers to reconsider their behavior and incentivize moderators to make changes.” While the policy attempted to hold moderators more accountable for enforcing healthier rules and norms, it didn’t address the role that each member plays in the health of their community.

>Today, we’re making an update to address this gap: Users who consistently upvote policy-breaking content within quarantined communities will receive automated warnings, followed by further consequences like a temporary or permanent suspension. We hope this will encourage healthier behavior across these communities.

That sounds terrible.",fip6p77,LoptousTheEmperor,566i49xw
And a plague of frogs was loosed unto the world.,Monk_of_Trump,cflhr0u,firse6p,"And I saw when Spez opened the sixth seal, and there was a great earthquake, and Reddit was blackened like sackcloth of hair, and the whole internet became like blood.

The Reddit Overwhores don't realize the scrutiny they just caused themselves.  When they try to say: ""They are neutral"", this will not bode well for them.",firs422,gelber_Bleistift,7t6g1
"Time crime. The successor to thought crime. You shouldve known it would be against the rules in the future, slave!",Monk_of_Trump,cflhr0u,firrtkb,"So, the censorship is RETROACTIVE!",firrka1,TrumpOrTreason,11gt8d
Thats exactly what the two posts in my picture were about haha! Fuck spez.,Monk_of_Trump,cflhr0u,firrhn3,I got one for transmission fluid and one for voldemort. This is fucked.,firreo3,Magabigleague,15jeas
CYBER BOOG HOOOOOOOOOO,Monk_of_Trump,cflhr0u,fir8o7q,"And that's when I commit account suicide in the most glorious fashion man has ever seen. And I march myself right over to my waiting account at .WIN. 

BURN. IT. DOWN. If we can't have it, nobody can!",fir5icy,flaming_death,eufix
Just think. There's an infiltrator here RIGHT NOW  trying to get his 500 karma so they can be the poison pill.,Monk_of_Trump,cflhr0u,fir8l7u,Wow so they want to offer their own list of cucked mods.  WOwzer.,fir4y59,ShadyPollster,z8o0o
I'd much rather push them into making a blatant over step and let the internet shove it down their throats than just give up. They WANT us gone.,Monk_of_Trump,cflhr0u,fir8h34,"Honestly, I think it's better to delete this subreddit while we still have mods who have the ability and use .win exclusively.


Spez: just got ANOTHER message about upvoting",fir6mp4,phalanX_X,g1d6v
"Yeah but you know we were the main target, and the vast majority of Reddit doesn't belong to quarantined subs.",Monk_of_Trump,cflhr0u,fiqjcn0,I subscribe to pretty much every quarantined sub.  There's other subs that are getting the warning besides TD.  Most seem to be going to posters in the kung-fiu subs.,fiqdf65,residue69,6kygz
[thedonald.win](https://thedonald.win) IS the gulag my friend. And it is glorious.,Monk_of_Trump,cflhr0u,fiq9c1i,Or just see if that user name is available on https://thedonald.win/,fip11y9,turnpikenorth,9vgir
make sure to smuggle weapons in with your prison wallet. Prefereably some ar15s.,Monk_of_Trump,cflhr0u,fiq9aep,"Oh good, I will have friends in the camps.",fiooy2q,steveatthebeach,2v5m5ao3
"TWO SCOOPS. TWO TERMS. TWO FISTS.

&#x200B;

Now pound that upvote button.",Monk_of_Trump,cflhr0u,fiq8l4u,USE THE OTHER HAND!!!!,fipkxri,deathbymonty,am0z5
Im gonna guess hes in the perfume or cologne industry by his name. But thats just a total guess. He could also be in the fart bottling industry.,Monk_of_Trump,cflhr0u,fiq8jm9,Reddit work account? What line of work are you in?,fiq22rw,LongDongLikeKingKong,17as4n
"The rule only applies to us essentially, so its not like the rest of reddit gives a shit.",Monk_of_Trump,cflhr0u,fiq8god,I find it hilarious Reddit destroyed itself over our spicy memes,fipivgu,NotNolan,9us3f
"Im trying to learn how to do it right now, so I might just do it myself",Monk_of_Trump,cflhr0u,finnkit,YESSSS AND PENCE FOR THE GEINE!,finmwdd,TheRedHood66,7w22bsn
You can try though!,Monk_of_Trump,cflhr0u,finlwb5,"> a couple trump size ballsack loads of water

I don't think I can hoard the ocean for myself",fin945z,UltraCarnivore,135ult
Most of our rice is actually from the US.,Monk_of_Trump,cflhr0u,finls00,Rice may not be the best choice right at the moment.,fin47yw,doomsteel4,13yyl2cl
One of the biggest coverups in modern history.,Monk_of_Trump,cflhr0u,finllan,"Yeah, you mean like Las Vegas?  Where a guy under investigation for advertising selling converted full auto on Facebook & has a brother hiding from the FBI for kiddie porn seems to agree to meet someone in a hotel room, prepares 4 sets of three identical rifles (without optics), somehow fires sounding EXACTLY like full auto using a plastic gimmick stock with no recordings of the .308s he was claimed to have fired also, and was surprisingly found dead before the local PD get in while the pics do not show the 5,000 brass  casings on the ground in the hotel.  

Sure, the FBI had nothing to do with that.",find2pb,PriapismSD,59rxv
"Desperate for right wing nazis\*

And theres a reason theyre having trouble with that. Those two things dont go together, so you only find a scarce few that are dumb enough to take on both those labels.",Monk_of_Trump,cflhr0u,finlg7e,Antifa has extras.,fin4vo1,NewSouthernBelle,12nu30
Gotta break a few psyches to make a headline.,Monk_of_Trump,cflhr0u,finl45k,">The FBI already does this.

Yes.  It's called ""entrapment,"" and it's *supposed* to be illegal.  But this is the White Supremacist Crisis, after all, and you've gotta break a few eggs to make an omelet, right?",finc6a9,Ralph_124C,2maioyab
Lots of people have died that arent very young or old.,Monk_of_Trump,cflhr0u,fin3xl6,"I know you're kidding but it's the old people that are dying.

Also people will die more due to lack of medical care as the ICUs will be insufficient.. About 20% people will get pnemonia and will need external oxygen. Plus the medical infrastructure will be swarrrmed with patients. So that's why you don't want to get this virus. The lack of medical care will kill you..",fimzmzg,dmingod666,1pcetpd
"You act like people have had everything we do for all of time. You obviously plan to survive, if you dont, then who cares, youre dead. If you do survive, you have supplies. If you didnt plan to live and you live, then youre fucked because you didnt prepare.",Monk_of_Trump,cflhr0u,fin3sgw,"If 100,000,000 people die, why do you assume you'll survive and that your further survival hinges on food? You'll have no power, no water, no fuel, no transportation, no postage, no cell, no internet, no law enforcement.",fin3d30,SigSeikoSpyderco,13c6gpdl
Right? Those bastards will ALWAYS whack you in the head with a loaf of bread and take your guns.,Monk_of_Trump,cflhr0u,fin3mm8,"Take two families. One stocked up on food, the other on guns. Weird how one family ends up with both.",fimyvmn,Dunmurdering,206jrtzx
"Its not the actual voters Im worried about. Its the dead people, the illegals, and the boxes of ""found"" votes. We need voter ID, paper ballots only, and videos records of all vote counting.",Monk_of_Trump,cflhr0u,fin3gse,"Just to be clear, I completely agree, but also want to point out that this is a very dangerous mindset, and the same mindset the left/Democrats/HRC supporters had until sometime close to midnight on 11/8/2016. Just a friendly reminder to not get complacent, and always assume and prepare for the worst",fimv6jl,I_Used_to_be_me,3phy5t6v
"Those 3 things all go bad really fast. You want rice, beans, canned corned beef hash for some flavor. WATER. Ammo. Tannerite. Empty sandbags. Punji sticks. Proximity detectors. Night vision. You know... the basics.",Monk_of_Trump,cflhr0u,fin387m,"Same as with any impending threat: milk, bread, and eggs. Then, enjoy your French toast while you watch the world burn.",fin21u2,sensically_common,151na3
"Buy a couple sacks of rice, a couple cases of corned beef hash, enough ammo for a year, and a couple trump size ballsack loads of water.",Monk_of_Trump,cflhr0u,fin30ab,"There's an *exceptionally* long asymptomatic period in which this particular illness can spread. 20+ days long. 26 is the longest verifiable, so far.

That's not good, since it is a near guarantee that every single country with an airport or a boat dock now has hundreds or thousands of carriers without a single symptom.

Could be an interesting March.",fin1qic,DingleArmand,r53yim
Invest in hazmat companies today! lol,Monk_of_Trump,cflhr0u,fin2vph,If it can really survive that long on a hand rail or w/e and it has a 2wk+ incubation then it’s going to be a global pandemic and there’s pretty much no way to stop it at this point barring full blown quarantine,fin2b9v,PacmanZ3ro,efht7
"Set up a big tent with riot gear, milk, gauze, gas masks, and popcorn.",Monk_of_Trump,cflhr0u,fijrq08,Sell riot gear to the Milwaukee police.,fiipdei,weirdbutinagoodway,gcg3b
"I got an email from a democrat group that pays you to train to become an organizer or something like that. I was thinking about doing it but then I saw the closest one is like 6 hours from me. Wouldve been hilarious. Couldve pulled an okeefe. And I wouldve definitely let veritas know, in case they wanted in on it.",Monk_of_Trump,cflhr0u,fijroo1,"Don't waste this. 

#Wish pedes all answered the Democrats call for help. We could rule the DNC. Instead of the shitty memes.",fijrcmw,PLUSER,cnblg
I remember the name from playing hockey games on ps1 as a kid lol,Monk_of_Trump,cflhr0u,fijr0go,truly a forgettable memorable name,fij04d0,upermans,u7al2
"I just found this, would this work or is it the wrong type? I have no clue about this stuff haha.",Monk_of_Trump,cflhr0u,fijqj23,"https://www.robertrtg.com/store/pc/YUGO-AK-GRENADE-LAUNCHING-SPIGOT-USED-p2904.htm

Then you'd just need some blanks and a dummy rifle grenade!",fij3hsz,TerrestrialRover,duvvcg4
Now I gotta rewatch it at work today because its such a good movie.,Monk_of_Trump,cflhr0u,fijprz2, I can walk!”,fiijsm2,nachosamplerREBORN,4z54rfei
"I can no longer sit back and allow Communist infiltration, Communist indoctrination, Communist subversion and the international Communist conspiracy to sap and impurify all of our precious bodily fluids.",Monk_of_Trump,cflhr0u,fiicjbh,"One .45 caliber automatic; two boxes of ammunition; four days concentrated emergency raisons; one drug issue containing: antibiotics, morphine, vitamin pills, pep pills, sleeping pills, tranquilizer pills; one miniature combination Russian phrase book and bible; one hundred dollars in rubles; one hundred dollars in gold; nine packs of chewing gum; one issue of prophylactics; three lipsticks; three pair a nylon stockings; and one **GAU-5A.**",fihb01r,nachosamplerREBORN,4z54rfei
"Just go around saying ""i dont speak russian"" in russian lol

 **I don’t speak Russian.** – Я не говорю по-Русски. (YA ne govoryU po RUSski) ",Monk_of_Trump,cflhr0u,fiht5wx,I wish i spoke Russian 🤣🤣🤣 It IS one of the only accents i can do well tho.,figkaq1,Bill__DeWahl,57gysbrs
You think they dont try?,Monk_of_Trump,cflhr0u,fihssf0,"is this legal?  sorry.  newb question.

i mean, i def wld be upset if dems posed as R’s or trump supporters and took away delegates.",fih703s,robbinhoodlums,35u5q7a2
"Its now the authoritarian west, as all the social media censors are in cali.",Monk_of_Trump,cflhr0u,fihofpm,The wild west of the internet is long gone friend. What we're dealing with now is the first major settlements and the struggle for control.,fihfkc0,ButtFart88,131f71uo
Same. If I could time travel to any point in history... not counting seeing the pyramids in giza being built... Id go to when I was 18 and have a hard conversation with my old self. With my fists.,Monk_of_Trump,cflhr0u,fic0e9o,"As an idiot 18 year old in 2008, I never, EVER thought I'd find myself where I am today, politically.  If you'd told me I'd be 99% calling myself a conservative, I'd have laughed hard.",fibg40c,MAGAtheist,32eugueg
DMT was the only drug I touched after getting clean from everything ten years ago. Stuffs amazing. Ayahuasca is so crazy.,Monk_of_Trump,cflhr0u,fiblg4g,"Have you tried experimenting with weed and other ""psychedelics"" ik weed isn't a psychedelic, but is classified as one and I softly encourage research into the rest of them.",fi9ss4h,mighelss,4mk0h3rn
"I don't know man. If American communists are trying to kill me, i don't give a shit, they're still trying to kill me, American or not.",Monk_of_Trump,cflhr0u,fib8iyw,"This is my thing! I love guns! I am begging...begging everyone to calm down. I am disgusted by the very thought of using them against my fellow Americans. So much so, that I’ve decided that if there IS ever trouble, I’m ready and more comfortable just standing my ground and dying. I won’t put down my guns, but I honestly don’t think I can can hurt someone.",fiali03,russian_botski,1y0or5t0
Do any of them actually write their own lyrics?,Monk_of_Trump,cflhr0u,fi9sf8d,How did she write any lyrics if she doesn't make sense?,fi94j8p,el_beso_negro,h7wom
Thanks ted cruz...,Monk_of_Trump,cflhr0u,fi9selw,Its like shes inspired by all the ransom notes with cut out lettering,fi92tzu,Endoftimes1992,46z7hvto
Oooh i was looking at the original photo lol,Monk_of_Trump,cflhr0u,fi8lqzp,He blacked out his wife’s face in a photo in the comments.,fi8i76q,Cali_is_dead,4i85m0hx
"Well its a dead mans switch not an imprisoned man switch. Lol. But seriously, theres no DMS or if there was one of his friends disabled it years ago when he disappeared for a while.",Monk_of_Trump,cflhr0u,fi8kp0b,"he effectively already is. But really, he's locked up. So, he either doesnt have a DMS or the DMS doesnt require action for a LONG time.",fi8czwf,wcg,3xcsh
"comms on titties

Ballsack in the night

12/12 Big snakes in the frying pan

Dick in the ear.",Monk_of_Trump,cflhr0u,fi8kirr,"Right. Exactly.

WWI&IIJDG1GA

[blue32/blue32] hut hut hike",fi8glp5,thewordwolf,12ktv6
I dont even get the joke. The guy in the picture isnt black.,Monk_of_Trump,cflhr0u,fi8hohy,Even I was thinking “WTF dude” it took me a second.,fi8fn03,Cali_is_dead,4i85m0hx
That guy isnt black if this is a blackface joke lol,Monk_of_Trump,cflhr0u,fi8hmqy,"Uh, why did you post a photo of Don Jr and Justin Trudeau?

I bet your wife was stoked. I’d love to meet Don Jr.",fi852ne,BarbsFPV,3zhkdxdx
You kidding? That was one of the best things at shot show!,Monk_of_Trump,cflhr0u,fi8hjes,The AK-20 is so new (and not officially released yet) that I didn't expect anyone to recognize it.,fi804kd,VirtueSignaler,11ja7s
Those are man titties! Its a trap!,Monk_of_Trump,cflhr0u,fi5vdqo,TITS OUT FOR BERNIE,fi5uvr0,repoman,1navx
... on your record player.,Monk_of_Trump,cflhr0u,fi5vckg,"Biden: ""Text eight dot twelve to biden at twenty five or six to four!""",fi5uvsb,doctechnical,4a5re
Those were tittie berners. The female version of a bernie bro.,Monk_of_Trump,cflhr0u,fi5va42,Bet that was a Bernie bro doing all that yelling back there LoL,fi5uvub,LowlyPheasant1934,pafwx16
Cut to video of amy punching the wall of a factory screaming insults at it.,Monk_of_Trump,cflhr0u,fi5v5go,"Why would we elect you?

Warren: my daddy once saw a few bear cubs in the forest. Then, a giant grizzly attacked him and he had to heal himself by letting maggots eat away his decrepit flesh flesh before dragging himself 400 miles to the nearest trading post in order to.....PEOPLE OF COLOR ARE DYING OF FACTORY POLLUTION AND ILL FIGHT THOSE FACTORIES",fi5uwjw,DairyB0y,3h3gg62a
"You could see it in bernies face that he was thinking ""shit, that ones gonna haunt me in the campaign ads.""",Monk_of_Trump,cflhr0u,fi5sov2,LOVED IT,fi5ry0o,Jbird1992,lbrlg
asshoe\*,Monk_of_Trump,cflhr0u,fi5rxfu,**FUCK YOU I LIKE MY TAX CUTS ASSHOLE!!!**,fi5rve9,sgt_richard,jbezu
Lol hes not gonna stop doing that no matter what happens.,Monk_of_Trump,cflhr0u,fi5p70a,Shouldn’t have destroyed Bloomberg so much tonight. Let him keep spending money demonizing Trump for a while.,fi5oxhr,_Axel,fermi
Youll never see anything anywhere close to this at a democrat rally.,Monk_of_Trump,cflhr0u,fi5oixb,It's raining inside my eyelids.,fi59g3k,JediMasterGandalf,1hycnij
"Actually it's ""handheld anti tank grenade launcher"". The first word actually is manual but it means handheld in context.",Monk_of_Trump,cflhr0u,fi59li5,Not you the 5 billion downvotes. I'm assuming you already know the direct translation of ruchnoy protivotankoviy granatomyot is rocket propelled grenade. Right? Sorry for the direst reply.,fi52v7b,Tobinjdboi,vf5rqvt
That mysterious ellipses right at the important part is what they don't want you to see.,Monk_of_Trump,cflhr0u,fi5485f,"This is the entire statement they ran with.

“Mr Rohrabacher going to see Mr Assange and saying, on instructions from the president, he was offering a pardon or some other way out, if Mr Assange... said Russia had nothing to do with the DNC leaks.”


I’d like to know what the content of the “...” is. I give this story less than 24 hours before it’s DOA",fi4njcp,Snugmeatsock,3s8p12x1
"Wow, you've got some problems. All i did was correct your wrong information.",Monk_of_Trump,cflhr0u,fi52qcp,Oh fuck I should know my audience. HURR INSTAGRAM BAD EMOJI BAD ME ME VERY SMART BIG WORD CAKE DAY HURR. Fucking tools. Sorry I gave a little tidbit of info to op.,fi4yrox,Tobinjdboi,vf5rqvt
"Got a list of the worst ones? Im curious but dont want to go through a list of thousands of names, which I wouldnt recognize anyway lol.",Monk_of_Trump,cflhr0u,fi46jqo,"its worth looking at the list of people who Obama pardoned some time. that list includes a lot of people who shouldnt have been pardoned.

ALSO: its worth noting that like 600 of Obamas pardons were in the last 72 hours of his presidency.",fi3xqr8,valiantlight2,ry7v1
"No, actually it doesn't. It stands for ruchnoy protivotankoviy granatomyot.",Monk_of_Trump,cflhr0u,fi3jqu5,You don't have to say RPG round. RPG stands for rocket propelled grenade.,fi3coi0,Tobinjdboi,vf5rqvt
Is there a story here or...,Monk_of_Trump,cflhr0u,fi3jmql,Sandbags can stop just about everything minus a miata door...,fi2zwhn,aprost641,3d0h2c39
"Did you intentionally make your name ""always sometimes"" or did you mean ""sometimes loyal"" but changed the wrong word? Im curious.",Monk_of_Trump,cflhr0u,fi3jjhs,I am MCLOVIN,fi2de3j,SemperSometimes0231,5cssh37q
All of it. Fuck the entire fbi. Where are the good guy whistle blowers? Theyre all too busy blowing each other.,Monk_of_Trump,cflhr0u,fi2rma4,At least their HQ. Centralized power is a key ingredient in corruption *and* unaccountability. Not to mention the Hoover building is hideous.,fi2ijma,EtTudude,5nmjh2h2
I mean... we did. But still.,Monk_of_Trump,cflhr0u,fi2b44z,Listen buddy when we said buy em cheap stack em deep we didn't mean *balls deep.*,fi2akyc,FlashCrashBash,cw727
"Ive never heard of anyone having to directly pay the fire department regularly for insurance and I cant find any reference at all online to that. Fire insurance is private just like car insurance. It sounds like that might be a private fire department (those are real things). Its pretty clear we disagree on banks being essentially part government run though. Fight to get rid of the fdic and the fed but until then, I wont support banks discriminating against who can use them or get loans (that are made possible partially by their access to the fed). If they want to cut off their special access to those areas of the government then they can do that. But there is no comparison to a baker having private insurance and banks being federally insured and having access to fed funds when no one else does.",Monk_of_Trump,cflhr0u,fi1trli,"The fire insurance is not private it goes directly to the firefighters which are a government entity. I’m pretty sure the VA is a government entity too. You’re labeling it a special partnership which has no meaning except to serve your argument. Every business has a special partnership with the government. 

The point is that the FDIC shouldn’t even be a thing and we shouldn’t be weaponizing government programs, we should be ending them. What’s to stop Democrats from getting in and stripping FDIC from banks that don’t provide services to Planned Parenthood?",fi1qpvv,ithappenedaweekago,ck1wp
"Every whim != serving people without discrimination. And its still a special partnership with the government, end their access to the federal reserve and their FDIC insurance and they can discriminate freely. Also, fire insurance is private. Your uncles house is privately insured. Not by the government. Your arguments are very disingenuous and are just ignoring what I said already.",Monk_of_Trump,cflhr0u,fi1pvvt,"FDIC is funded completely by fees the government takes from the banks. The fact that a bank having FDIC insurance makes a bank subject to the government’s every whim is ridiculous. Is the local restaurant in town now a government entity because they pay a fire fee for firefighter protection. Is my uncle’s house now just open to anyone since he got his loan through the VA? 

Every business has connection to government, literally every single one. Just because they have a connection doesn’t mean the government gets to dictate their every move.",fi1o2wd,ithappenedaweekago,ck1wp
"Ok lets start over, so if they give up their FDIC insurance then sure, thats fine, they should get to serve whoever they want, but when you are partnered with the government you cant do that. Your argument about if somebody has to get insurance for anything that the government can tell you to serve trannies cakes doesnt make sense because for one, those are almost universally state laws telling you that if you want to drive or whatever that you need to get PRIVATE insurance because you are doing something that affects the public at large and not just yourself. STATE laws. The states get to set their own laws. And its not partnering with the government if you are buying insurance from  a private insurer. I totally agree with you that the government shouldnt tell you who you can serve with your business, EXCEPT if you are essentially a merger of private and government entity, in which case you need to serve everyone equally because you arent private anymore.",Monk_of_Trump,cflhr0u,fi1n0gi,"I’ve commented all about how free market principles are better than communism, how we shouldn’t be insuring banks, getting the government out of private decisions then somebody alerted you Bloomberg bots to start getting triggered at me.",fi1m5d4,ithappenedaweekago,ck1wp
Whatever. If you dont want to actually answer me thats fine.,Monk_of_Trump,cflhr0u,fi1lw10,You haven’t said anything worth saying yet,fi1loqk,ithappenedaweekago,ck1wp
