child_body,child_screen_name,child_user_id,child_tweet_id,parent_body,parent_tweet_id,parent_screen_name,parent_user_id
"It's really quite clever. Either they shill for competition or, delete it, and thus publicize their previously secret takeover. It's a lose-lose for them, and a win-win for justice.",MorosirusSquared,3qn1hyaq,fjfa21j,"And by telling them about it, you have ensured that it will never be changed. Reddit can handle giving another site that they don't like exposure.",fiwk4rb,Draygoes,4h0g71g
"I was a proud Democrat, yet Hillary hater, until I studied the Mueller Report. Nothing they say or do betters their position, makes any sense, nor seems in any way tethered to reality. 

It's like breaking up with someone unwell, watching them go off the rails and ruin their life, become completely psychotic, then repeatedly try to commit suicide, without any way to stop them. 

I guess we just watch the show?",MorosirusSquared,3qn1hyaq,fhs1ocg,"Can you imagine what will happen to the party if she pulls off the primary? And don't kid yourself, *SHE CAN!* She primaried and beat a deeply entrenched and senior party hack to get the seat.  

This is delicious.",fhrvwyc,BlueStateBoy,k0euo
"Ha, idealistic hearts still beat. No, it'll be replaced with more of his buddy's hardwood.",MorosirusSquared,3qn1hyaq,fhruqy9,"Hardwood in hospital? Some asshat bureaucrat had a buddy that sold hardwood...dumbest choice for safety, sanitation, and durability in a commercial environment. It will all need to be replaced now vs. waterproof standard cheaper hospital flooring that would have been fine.",fhriryk,nachosamplerREBORN,4z54rfei
"""Stop and Frisk is evil because there is no probable cause!"" - Democrats

""We must search Trump's tax returns, but won't know why until we see them!"" - Also Democrats",MorosirusSquared,3qn1hyaq,f7zq52x,"What kind of stupid document are you quoting here? Sounds like some kind of 'out dated' mumbo jumbo created by white cis males...

It's 2019 dude... we don't need out dated ideas like yours in modern society.",f7zc41m,dumb_trump_supporter,3dk0l6s5
"I thought the same thing about the shadows, but they seem consistent if the sun is coming from high and slightly to their left. Perhaps the 2 to 3'o' clock position.",MorosirusSquared,3qn1hyaq,f7lz725,"The shadows are all over the map.

The sun is coming from Barack's left side, casting a shadow on his right shoulder. 

But the baby's foot shadow is underneath the foot, it should be closer to the toes, not the sole.

The baby's body should cast a shadow on Barack's right chest, it's not doing that.

The baby and little girl have identical sunlit spots. The baby's left cheek is the same as the girl's forehead. 

Michelle's shirt is overexposed. In and of itself, nothing, but that explains why her shirt and the girl's are faded together. They faded Michelle's shirt to get the girl's shirt to mesh visually.

I'm not sure of this one but it looks like Barack's head is pasted in front of the brick building, i.e., they're not actually in the area the background says they're in.",f7ly0wz,dogrescuersometimes,nyx1c
"There's a great video on youtube from year's back called something like 'Never talk to the police.' It's a lawyer giving a presentation making a compelling argument, then brings in an actual former police officer to finish the presentation and basically James the point home. 

Everyone should watch it.",MorosirusSquared,3qn1hyaq,f7lwdgv,It was a perjury trap,f7lvt2z,t3h_moll,gtwrh
"No, we're not there. Hell, it actually expanded into a criminal investigation. These people have been spent years wiping their asses with the law and it'll take time to sift through through all their feces. Barr needs to do it right the first time, not blow it bc we're yipping at their heels.",MorosirusSquared,3qn1hyaq,f7jxt3r,"You guys just continue keeping hope alive. 

How about stop living in dream world, and start to understand the only true change will come by physical uprising not using your vote?",f7jx7lj,Quarantined_Patriot,40sihgke
"Yes, esteemed Congressman, that’s my understanding of what was originally said.",MorosirusSquared,3qn1hyaq,f7glrzo,"Two in the pinkage, one in the stinkage",f7fe2io,fortyfive_2020,48hn080f
"The President CAN'T be wrong about foreign policy. According to Democrats (when they were  grilling Pompeo) 'when the President speaks, that IS the policy.'",MorosirusSquared,3qn1hyaq,f7eribv,"The ambassador is currently telling us why supporting Ukraine is important. He may be right, he may be wrong. But WTF does this have to do with impeachment? The ambassador works for the President. The President has the right and the power to be wrong. Are they trying to make a case that the President is wrong about foreign policy and thus should be impeached? This is a power grab by the House. It’s making me angry at the House and the Democrats. Do the Democrats really want to weaken the office of President? Because what they are doing here will last past Trump.",f7er0vc,spyWspy,4cl9z
"The way I understand it, the CIA are supposed to be ghosts. Being spies, by definition, makes them most valued targets (even by some 'allies'). FBI are their face men able to work more in the open, and often intermediaries between spooks abroad and the US. Being United States Federal Law Enforcement (even in enemy territory) affords certain perceived protections as they are not definitively ""spies"" and are more prestigious than ""U.S. Citizens."" Capture a spook and international law for espionage is generally on your side. Capture an FBI agent, and you either keep it private or you may have to publically defend espionage charges. I mean, everyone expects CIA agents working behind the fence may get captured and 'them's the breaks.' But when we hear an FBI agent is locked up we (and other allied nations) are more prone to question the justification. Very likely why Iran had kept quiet about him this long. I mean, if we're sending them cash by the crate, why rock the boat?",MorosirusSquared,3qn1hyaq,f70pubf,"[Looks to be in the best shape of his life.](https://magaimg.net/img/9iz3.jpg)  Could he still be working for the CIA?  Also, why the fuck are there so many FBI employees working for the CIA too?

>The Washington Post first reported on the ongoing case. Levinson disappeared from Iran's Kish Island on March 9, 2007. 

>For years, U.S. officials would only say that Levinson, a meticulous FBI investigator credited with busting Russian and Italian mobsters, was working for a private firm on his trip.

>In December 2013, the AP revealed Levinson in fact had been on a mission for CIA analysts who had no authority to run spy operations. 

>Levinson's family had received a $2.5 million annuity from the CIA in order to stop a lawsuit revealing details of his work, while the agency forced out three veteran analysts and disciplined seven others.",f6zv8nx,residue69,6kygz
"Indeed.  Especially given the ubiquity of Charcoal. 

(Charcoal) - ""coal"" + (Marshmallow) - marsh 

I'm digressing pretty hard. Leftist morons can't logic. They just can't. Three years and tens of million$ spent trying to prove fiction has shown as much.

Poor things. I pity them the same way I pity rabid dogs. They can't control their sickness. However, there is a pill for that...",MorosirusSquared,3qn1hyaq,f70is7m,"Dude, you’re trying to hard, just say Eric Ciaramella",f6zmuoh,whoopies_tds,1u02f8ix
"I had a great conversation with a man from Mexico last night. He loves his home country, but says it's sad how on the streets the cartels have taken over and the government is so rampant with corruption and fear that there's no pushing back. They had principles back in the day, but now they are animals with no code, no morality, and no value for human life. You walk away, you take the money and walk away, or you die, your wife dies, your children die... Kidnapping is a regular side hustle. Political assassinations are increasingly normalized (150 last year) for anyone threatening the cartel's stranglehold. Working for Mexican police is not like here (i.e. protect and serve). He says it's more like working at McDonalds because you need a job and very few are brave or stupid enough to approach it seriously. You're up against the cartels on the street and corrupt law enforcement leadership ready to feed you to the cartels if you step out of line. Millions of innocent Mexicans live trapped in this hellscape. Their president came in swinging against the corruption, but it's so rampant, he's largely given up. The rot is so deep, Mexico may no longer even be capable of saving herself. It's very likely the only way Mexico can overcome all this is with American troops, American occupation, and the biggest, bloodiest, war against organized crime the world has ever known.

It wouldnt be solely fought in Mexico. The cartels are here, have been here for some time, and they're growing.

Aside: Mexican cartels are pumping so much meth into the US they've put most of our back woods meth cooks out of business. If you don't have a large scale volume operation, you just can't compete. The cost per ounce for even RURAL dealers has plummeted to between $250 and $300... which they flip for between $850 to $1000 each. There's a lot of people getting rich and strong off that soul stealing poison that's weakening and impoverishing our citizens.",MorosirusSquared,3qn1hyaq,f706jow,I think a wall between the US and Mexico is a little different than a wall through Germany.,f6zq901,jetpilot2112,33zkv40r
"Absolutely. I know that the ease of the metric system would probably offset the ease of the imperial system overall. But on projects, particularly small to midsize, I notice the fractional divisions and visual estimations are used very frequently giving imperial favor. Well, the U.S. is a free country, so nothing wrong with using whatever system works best for each of us. lol Officially we switched to metric back in the 60's (if I recall correctly). It just hasn't happened ""practically"" for our majority.",MorosirusSquared,3qn1hyaq,er42wer,"Well, your first two #s are prime & divide the rest...

I work in IT, and have to deal with decimal, hexidecimal, 2^x, and 10^x; octal is a thing too. A fair amount of the work comes from limitations of hardware & processing setups; vs what makes the most sense. I suspect your building issues arise from similarly built-in rules to your own work.",eqm364c,unquietwiki,3tg59
