child_body,child_screen_name,child_user_id,child_tweet_id,parent_body,parent_tweet_id,parent_screen_name,parent_user_id
It does seem scripted.,moshdagoat,6ktod,fkyc3yw,This is something out of a movie.,fky5jc4,iisvtee,7dq0u
I know right?,moshdagoat,6ktod,fky9mxw,Woah look out for mr big brain here. I was not expecting such a compelling argument.,fky7106,whoizz,6kun4
"Sounds like hippie faggot talk, but okay.",moshdagoat,6ktod,fky33lh,"Because some people aren't single-issue voters and the GOP has turned into a fascist cult that doesn't believe in science, lies about everything and has the biggest power-hungry retard in America at its head.

Edit: I thought libertarians hated the GOP and DNC equally?  
 [https://lawandcrime.com/covid-19-pandemic/gop-senator-kept-coronavirus-info-secret-for-weeks-but-shared-it-with-wealthy-donors/](https://lawandcrime.com/covid-19-pandemic/gop-senator-kept-coronavirus-info-secret-for-weeks-but-shared-it-with-wealthy-donors/)   


 

""On Wednesday, President **Donald Trump** [activated his vast store of emergency powers](https://lawandcrime.com/covid-19-pandemic/president-trump-invokes-defense-production-act-in-response-to-covid-19-pandemic/) under the Defense Production Act of 1950.

This act, previously explored in depth by Law&Crime [here](https://lawandcrime.com/covid-19-pandemic/the-legal-authority-trump-invoked-to-combat-coronavirus-is-extremely-broad/), affords the president nearly unlimited coercive economic powers during a crisis implicating the national defense.

Those powers are so broad and so vast that attorney **Tor Ekeland** dubbed the underlying statute “a socialist military relic from a time of global warfare and the Red Scare.”

Ekeland said the use of those powers should be a concern because the wartime statute confers “monarchical powers than what should be the more limited powers of a president under our constitutional system.”  


Y'all should be really worried about D Tizzy",fkxc85n,whoizz,6kun4
If it fits you'll never be able to wipe after you shits.,moshdagoat,6ktod,fkxlvgf,If it fits it ships.,fkws16g,tencentismydaddy,4rea3g3d
"China produces a shit ton of things we rely on and medicine is way up there on the list. Not saying we can't change that, but it is the current reality. Maybe this will be the catalyst for a resurgence in having more things made in the US.",moshdagoat,6ktod,fkxklcw,"That’s true for lots of electronics and cheap plastic crap... but not really for food and essentials

The only supply chains that really matters right now are food and medicine",fkw7s73,audigex,b3cs6
"Sure, back when he was having fun. He doesn't seem very happy anymore.",moshdagoat,6ktod,fkmjd7n,That sounds like a great Chapelle Show skit.,fkmihyi,necropancer,crhja
You're non functionally retarded if you think he is being discriminated against.,moshdagoat,6ktod,fklkucj,"lol, a black man in entertainment pointing out how he's discriminated against with humor and aplum is ""playing.""  You have beyond shitty taste and are functionally retarded if you think disliking him is the non sheep thing to do.",fklkmmx,Twokindsofpeople,koh7z
No he's absolutely not a beast and he literally plays victim Non-Stop. Keep worshipping like a sheep.,moshdagoat,6ktod,fkljbwh,"No Dave is a fucking beast and the best living comic.  I’m sorry he’s too mean spirited for you, but he’s always been vicious on his attacks on power.",fklj51m,Twokindsofpeople,koh7z
"I figured, but I was hoping it wasn't the case.",moshdagoat,6ktod,fkld88k,"Actually he isn't, it's a non- reciprocating charging handle there bub. Brazilian Imbel IA-2.",fkl97kj,LoneCoastie,vsi39
He uses it all the time and if his argument is that he is not one then he should have no problem with the rest of us using it just like him.,moshdagoat,6ktod,fklc3jj,"I don't quite follow this. And I'm not trying to be overly critical or racebait or whatever; I happen to be white too, not that it should matter. Can you explain your reasoning?",fkl6nw4,Mr_82,1vdk4b4x
I don't find him funny anymore either. There's way too much animus behind his humor these days.,moshdagoat,6ktod,fklbuth,If it was funny I’m sure he would.  The problem is white people who want to say nigger aren’t funny.,fkl6aty,Twokindsofpeople,koh7z
Who nose?,moshdagoat,6ktod,fkeoio1,That's called block busting. Guess what race came up with that bright idea,fkcqxfb,oG-Purple,1equcfn
"The toilet paper is trivial. Replace it with food, medicine, or water. Now picture your children sick or hungry. What would you do in a SHTF scenario and nobody to help you?",moshdagoat,6ktod,fkel6pz,....by robbing people at gunpoint instead of negotiating services for goods? Dont you think a better way to tell the joke would be; if I have 30 rolls of toilet paper and no guns I have 0 rolls of toilet paper. It makes it sound like you're a defender and not just a straight up violent thief. I'm not saying they're wrong but the delivery of the joke just seems kinda douchey.,fkekrhc,the_frazzler,156kvs
He is stating the reality of human existence.  Even the most upstanding citizen will do whatever it takes to survive.,moshdagoat,6ktod,fkek4uk,I'm confused. Are you just openly admitting you will rob people at gunpoint?,fkejl55,the_frazzler,156kvs
*3 sea shells,moshdagoat,6ktod,fkejurm,The world is your oyster,fkeitvw,AirFell85,e1xpy
You mean like Italy?,moshdagoat,6ktod,fkebsu4,This is what happens when you don’t guarantee universal healthcare.,fke5hr5,mrjosemeehan,7vcxv
"There will be fuckery, I guarantee it.",moshdagoat,6ktod,fk7i7l2,Biden can't be Trump. I'm very happy he is the nominee. 💯,fk7akgc,MagamangPrestige,369kgzp3
I know right? Where the fuck are her toes?,moshdagoat,6ktod,fk1ukmo,Terrible trigger discipline tho.,fk1n2sz,7uring,15garr
"I see a hair clip on the counter, so there is probably less than an hour supply.",moshdagoat,6ktod,fk1oobw,"So based on proper rationing techniques, you have 3 days supply. You're fucked.",fk1ex3t,TellMeToMyCrotch,ny6a4
It's not a conspiracy theory when it is a documented fact. Everything thing else is just revisionism.,moshdagoat,6ktod,fk0x62b,"Lmao, dude, Bernie is a self proclaimed socialist.  No need to go drumming up conspiracy theories about him being a foreign agent when he already admitted to being ideologically anti-American.",fk0vix3,TFWnoLTR,qsllr
Snopes..... But seriously who do you think dreamed up the sister city idea so he could go to Russia? I guarantee there is some damning evidence just waiting for him to be the nominee and that's why the Democrats are trying to keep him out.,moshdagoat,6ktod,fk0nqe3,"It wasn’t a honeymoon it was to establish sister city relations.

From Snopes
> What's True
>Jane Sanders and then-Mayor Bernie Sanders traveled to the Soviet Union shortly after their wedding as part of a government trip to establish a sister-city relationship between Burlington, Vermont, and Yaroslavl. Sanders has previously joked that this trip was a ""strange honeymoon.""

>What's False
>This trip was not a ""honeymoon"" in the traditional sense and did not occur during the ""height of the cold war."" The purpose of this trip was to establish a sister city in Russia, not for the newlyweds to enjoy a romantic getaway. Bernie and Jane Sanders took their real honeymoon in St. Lucia in the Caribbean the following year.

So while not technically a honeymoon it could count as one under certain circumstances or your definition.",fjzu05x,MutatedFrog-,15ph1jwa
Honk honk.,moshdagoat,6ktod,fjzi2ep,"Right, one was as simple as ""she is 100% too big to be allowed on any zipline,"" which wasn't name calling or disrespectful at all, it's literally just a fact. Downvoted.",fjzhalo,DietCokeAndProtein,mvc5n
You realize that that sub has been quarantined and had it's mods removed by the admins? They will ban for even upvoting unapproved content. That's the kind of censorship I'm talking about. This whole site is an echo chamber and it can't even tolerate one conservative sub to exist. Makes sense though given the Chinese money pouring in to the company.,moshdagoat,6ktod,fjnp7mm,">Your side is so pathetically weak that they censor any dissenting opinions.

That's funny, isn't T_D known for doing this exact thing? Rules for thee but not for me, right?

>Hope you enjoy your echo chamber

Again, you seem to be blind to the fact that T_D is just that. 

Is being a hypocrite part of your programming?",fjn5ew4,More_like_Deadfort,yvesp
And my side is labeled as the hateful homophobes.,moshdagoat,6ktod,fjmhdgg,You think you can suck trumps dick that long?,fjmgnp0,naderaid,9q1a8wk
We're getting the house back and keeping the Senate with a 6-3 SCOTUS pretty soon. Is that fair and balanced enough for you?,moshdagoat,6ktod,fjmgf05,Ya cause fox news is the epidimy of fair and balanced. Get trumps cock out of your mouth,fjmfumh,naderaid,9q1a8wk
Your side is so pathetically weak that they censor any dissenting opinions. Hope you enjoy your echo chamber along with another four years of Trump and a third SCOTUS pick.,moshdagoat,6ktod,fjmfrxt,Pure projection. Now go back to your shitty Facebook old Republican memes,fjme6hl,naderaid,9q1a8wk
Sigh... the left can't meme.,moshdagoat,6ktod,fjmdb7t,It's not as good as Hillary ds,fjmcu8r,naderaid,9q1a8wk
r/shittymath,moshdagoat,6ktod,fjm3s9f,"Instead of running for President, Bloomberg could have given every American $1 Mil.",fjm1bgq,Beels14,9zmau
We aren't supposed to tell them.,moshdagoat,6ktod,fjm3jp9,BMW turn signals emit a frequency that poor people can't see.,fjm2vkw,Dxcibel,17inuv
If you aren't deep frying them you're a commie bastard.,moshdagoat,6ktod,fjl74c4,Never nuke pizza tendies. Always bake. Nuke tendies gross.,fjko0kp,WafflesAndMarbles,ikk06
A toe would be even better.,moshdagoat,6ktod,fj40ecz,Should definitely have their finger on the trigger. Come on man.,fj3nx1y,bassacre,13wivh
">The ‘sub-culture’ has been highjacked by a bunch of faggots that don’t own guns.

Guns own me",moshdagoat,6ktod,fixfxbd,"The ‘sub-culture’ has been highjacked by a bunch of faggots that don’t own guns.

It’s fucking hilarious that people have come to expect flair for a 5 minute MS paint ‘sidequest’ post.

Show some creativity. In the age of glowfags and fedposters, I think it’s more than reasonable that flair be handed out conservatively.",fix084j,CanadianGunner,14hfde
Backwards into penis....,moshdagoat,6ktod,fiv4eiv,Reddit is run by faggots.,fiuv7l0,Blacktron5000,5fhjk
They also demod and insert their picks for mod while threatening to ban users for upvoting unapproved content.,moshdagoat,6ktod,fiv19rf,"Reddit is run by cowards now, they quarantine and oppress, but don't ban.",fiuojgy,RES_KnowsYourSins,tdeix
The same is true for people who come to the US from other countries and it's also one of the contributers to California politics in the first place since so many go there.,moshdagoat,6ktod,fitqd8b,Californians like to move to other states after making their own state a shithole,fisj70g,TurboSpeed42,e159bzp
He said black woman...,moshdagoat,6ktod,fisjgm2,Biden will appoint Michelle Obama to Scotus,fisje2d,MAGA___bitches,2e5nun49
"I'm in California, but I'm still going to do my part, as useless as it will be.",moshdagoat,6ktod,fisilid,"We gotta vote, itll be a golden era.",fisi9mj,ex-libtard,2m2u5f7a
Also a massive bundle of sticks.,moshdagoat,6ktod,fhxxpjd,OP = snowflake,fhxvq2n,IAMA_BAMF,blgjo
I like to think of us as just one big faggot.,moshdagoat,6ktod,fhldj6y,We’re all a bunch of faggots,fhkhc9t,CanadianGunner,14hfde
I'd rather have that one tbh. I'd buy a pink camo version if it meant I could have it in California.,moshdagoat,6ktod,fhfkffq,"Yeah you missed the deal last week, same price for the ODG

[Here](https://www.preppergunshop.com/barrett-m107a1-29-50-bmg-14555-od-green) is the link if you want a back in stock notification.",fhf2w81,KazarakOfKar,11vayz
The comment I replied to was about putting police where they are needed.,moshdagoat,6ktod,fhdu8ne,Exactly. You didn't say anything about it -- when that's what this thread is about. Misdirection indeed.,fhdh9l4,the_ocalhoun,j8jxl
Classic misdirection. I didn't say a damn thing about stop-and-frisk.,moshdagoat,6ktod,fhc139o,"This isn't about where the police are -- it's about the plainly unconstitutional and racist stop and frisk policies.

>You can't win when identity politics are in play

Lesson 1: Stop violating the constitutional rights of minorities.",fhc0bgl,the_ocalhoun,j8jxl
Well your fancy ass will never be able to swim as well as the rest of us.,moshdagoat,6ktod,fgup3vg,something like that,fgtmvia,alexboothaloo,533j1lyw
"Sure he's a douchebag, but it's impossible to deny the results. The Democrats are acting like even bigger douchebags and accomplishing jack shit. Be honest with yourself for a moment.",moshdagoat,6ktod,fgko0g9,"Just why man, just why? Why aren't you seeing the truth? The whole world saying he is douchebag and con artist who is scamming people like you and me and everyone",fgkn7xd,coolbeans851,8q22vj
"""us""",moshdagoat,6ktod,fgkeq62,This isn't a good look for us,fgj9hsn,tbonanno,79ke7
Don't have to imagine because living in California has made me one.,moshdagoat,6ktod,fggnq6i,Imagine being a one issue voter.,fggm564,SpiderQueen72,elt7avx
"Yes, an item is banned and criminals profit even more than ever from it. The point stands and is also strengthened by your own comment.",moshdagoat,6ktod,ffsfxsq,Lol this is wildly false. Do none of y'all understand how a black market works?,ffrklry,RatCity617,171b5jfw
I figure he already covered them with this description.,moshdagoat,6ktod,ffsfnqx,Same goes with governments,ffs2r2m,Morpheus224,2pgaqy6v
I guess we have to ban consumption of liquids.,moshdagoat,6ktod,fd4yp6i,"You can make gun powder from piss, charcoal and sulfur.",fd41x29,frothface,c3c7h
Those aren't necessarily going to be cases like this though. She was caught completely off guard and he was insanely close when she got a shot off. I'm done with this subject.,moshdagoat,6ktod,fcvjp9a,"Yet again, even low estimate studies show at least 200,000-300,000 successful DGUs every year, so this idea that the average person can't competently defend themselves against an attacker is complete nonsense.",fcvj67l,P1smo,4wrb1
"Most people don't keep up on it and they really don't get enough training in the first place. I feel like people are making the assumption that I am making an anti-gunner argument, which couldn't be further from the truth. My initial statement was that in that particular circumstance a blade would have been my go to. That's because I think I could get it out and inside him quicker than I could get my firearm out.",moshdagoat,6ktod,fcvi5o6,What do you think they teach in CCW classes? How to shake hands? Proper training and knowing how to handle firearms isn't exclusive to police you know.,fcvgpu7,P1smo,4wrb1
You're going to assert that in that particular circumstance that an average woman or man for that matter would have been able to pull that off? I call bullshit. That's a trained professional.,moshdagoat,6ktod,fcvfnon,">Your average woman would have never gotten the muzzle pointed at the attacker and probably would have gotten the it taken away. 

CDC studies on DGUs prove this to be completely false.",fcvf9ek,P1smo,4wrb1
Your average woman would have never gotten the muzzle pointed at the attacker and probably would have gotten the it taken away. Same boat as an untrained person using a knife. In either case I was stating that I would be more comfortable with a knife in that situation and I don't speak for the rest of the world.,moshdagoat,6ktod,fcvek7l,"You're completely missing the point. Most everyday people aren't John Wick with a knife. They're messy, require you to be right next to your attacker, and don't have the kind of immediate stopping capability that a gun does. Guns are the great equalizer, and put a 100lb. female on the same playing field as a 300lb. lineman. A knife should only be used if you have absolutely no other choice.",fcvcoq9,P1smo,4wrb1
Plenty of people get shot with their own firearms too.,moshdagoat,6ktod,fcvbzf3,"> because the attacker will be trying to get the knife

A good Samaritan recently got stabbed to death with his own knife on the BART out here after trying to defend a person getting robbed.",fcvakhm,P1smo,4wrb1
I would rather go to a blade at that distance.,moshdagoat,6ktod,fcuttpf,"that was super close, she almost didn't have time to draw... things happen fast..",fctmton,ClippinWings451,wzu2j
I'm sure my voat account is my workhorse in that competition.,moshdagoat,6ktod,fcob7sx,We should compete for who can be on the most,fco2sda,Maverick3090,5yxqj
You mean another list? We are all on several lists.,moshdagoat,6ktod,fcnu7uv,I wonder if buying anything from here gets you put on a list,fcneb0k,zipperkiller,1005e5
But this comment sure is.,moshdagoat,6ktod,fclxaoj,It’s not this sub needs better mods,fclums3,JBagelMan,wlchc
Funny how that works isn't it?,moshdagoat,6ktod,fckez8g,"So, Jews can have AR15s, but not gentiles in NY?",fckc6p2,kingkooka,4dxra
"I feel that way about adults that are into Star wars or any comic book related shit, but I usually just keep my opinion to myself. Let people like what they want to like.",moshdagoat,6ktod,fciogr9,That hoodie is cringey AF,fcfhysp,MenaFWM,bt58p7j
I would have guessed his shoes are in orbit.,moshdagoat,6ktod,fc7arm1,"Carjacking by a drunk/drugged moron. He survived, with serious, but not life threatening injuries.


https://kvoa.com/news/local-news/2019/12/26/tpd-carjacking-ends-with-vehicle-crash/",fc5horp,kristoferen,azt50
Cowabunga it is,moshdagoat,6ktod,fc6mq83,"Maybe stalling impeachment until they can send both Trump and Pence articles to the Senate where you'll see several 'republicans' flip without warning, ejecting both Trump and Pence and making Nancy POTUS which would without question kick off the second civil war.",fc6bigs,ChuckedBeef,1u7o00ij
You go right to the insults and that pretty much says everything I need to know about you. People pretty much dump their old off in these homes and everyone knows it. You're focusing on the minority of the cases.,moshdagoat,6ktod,fc0atoq,"Ok so let me get this straight, first you say families that use nursing homes basically do not care for their loved ones. But now we should exterminate people that need assistance in their old age?

You are one dumb individual.",fbzncff,Secret_of_Mana,9zvjg
What's the point of continuing to exist if that's the case?,moshdagoat,6ktod,fbzkzdg,"Ok so the people with advanced dementia living in our specialized assisted living senior community should just go back home to their families since all of them would have the training needed to deal with that shit disease, right?

Get your head out your ass dude. Fucked up thing to say when most families have no other choice, they can't spend all day with them making sure they don't fall, forget to turn off the stove, help them get dressed, wipe their ass, etc.",fbzjf2r,Secret_of_Mana,9zvjg
"If they don't have any family that cares enough then my point stands. I get that there are special cases, but it seems like a place where people are basically disposed of.",moshdagoat,6ktod,fbzimm4,where should they go when they can no longer care for themselves?,fbzi6lo,royalv4,hl8x9
And flipflops,moshdagoat,6ktod,fb7mryt,Are we not doing Hawaiian shirts?  I thought we were doing Hawaiian shirts.,fb7jd3f,sheepdogzero,a7fcf
Why not both?,moshdagoat,6ktod,fam1n26,Is he coming in blackface or wearing his Klan robes?,fal0hzt,EarlyCuylersCousin,zql7v
It was mud sliding out of his gaping ass.,moshdagoat,6ktod,fal9h7t,"It was ""a mug sliding over the desk"". I found it odd how he paused to squeeze out ""a mug sliding over the desk"".",fakrkls,scornucopia,6o3qh
His nuke came in the form of a loud on camera fart.,moshdagoat,6ktod,fakic1e,That was Swalwell. The most irrelevant man (ish) in Congress,fakd59h,I_AM_HENTAI_JESUS,4wz4sn1i
I wouldn't dream of opening any business in such a hostile environment. This is precisely why China will own us.,moshdagoat,6ktod,f8sxmbx,"Because it is illegal. Unionization, or collective bargaining is a protected right under the NLRA of 1973.",f8ssdoa,Hessian58N,4w0xo3z6
Good,moshdagoat,6ktod,f8pcz2e,The problem with that is that people would start really pushing the limits with drugs and fatalities would be frequent,f8p5v24,Quantum_Sync,13yp9tm
I'm already going through withdrawals.,moshdagoat,6ktod,f8hbgo6,Hey weekendgunnit mods shoot me an invite,f8gud4k,benderthedog3339,f9ndth0
You're not wrong.,moshdagoat,6ktod,f8haxbr,Why now? The government has been treading for decades.,f8h3xdi,Left2GetThisBread,3dfiuug3
That was my first thought when I saw them celebrating ATF busting them for foregrips. I was with them until that point.,moshdagoat,6ktod,f88b6hk,fuck the ATF,f86kj86,giny33,l9aa1
Makes me sick to even look at it really.,moshdagoat,6ktod,f85kyal,I'm pretty sure he could attach at least 10 offset rmrs on the top rail and more optics and lights on the sides and a nade launcher on the bottom.,f85jwu6,Scarlet_maximoff,y3b11
I immediately know I'm dealing with an ignoramus when they evoke claims of whataboutism.,moshdagoat,6ktod,f83r6yw,Whataboutism is a made up word used to dodge intellectual honesty,f83emmu,BasedKekistani2016,1srch0me
"I remember seeing televisions, shoes and various frivolites being labeled as looting.",moshdagoat,6ktod,f82cpmo,"Remember during Hurricane Katrina, where there were pictures of white and black people carrying loads of food out of flooded groceries, labeled “finding food” and “looting” respectively?",f827lyw,PhasmaFelis,3rh9c
Our country was actually founded upon these kind of ideas.,moshdagoat,6ktod,f7vyf3p,Only property owners should be able to vote.,f7vsp7p,kittydoses,dexdv
I knew for sure this comment was going to happen.,moshdagoat,6ktod,f7q3sh9,I have a sudden desire for Brazil nuts...,f7q0ltv,-Jodie-,1x71a57b
Pronounced exactly the way it's spelled too.,moshdagoat,6ktod,f7pk008,You are correct. He played Rad Thibodeaux.,f7pezl3,jessicamenius,5gzxc
It's probably my favorite,moshdagoat,6ktod,f7iyw8r,Amazon sells “Cowabunga It Is” patches.,f7il31f,Jeremy-from-twitter,jx1g5vj
Are you implying there's something wrong with pussy?,moshdagoat,6ktod,f7gapj1,Why would potential for injury discourage him?? Are you implying he is a pussy?,f7g6vl1,Curmudgeonitave,2zy0c5jg
"Cool, we can create civil rights free zones now, sounds awesome.",moshdagoat,6ktod,f7d1psd,"ok so how do u screen out the crazies out there?

allow every gun owner to bring their guns? 

then something happens?

im not sure if the secret service allows guns near the president 

what im saying is, u cant just invoke 2A anywhere or any rights for that matter",f7cnyhw,Payutenyodagimas,1e3dlbpf
"If we are  throwing constitutional rights out the window things could get a little controversial, but probably a lot more pleasant and safe.",moshdagoat,6ktod,f7cmdss,"i usually watch july 4 fireworks in Fullerton and every attendees are checked for contrabands

is there a better way to keep out troublemakers?",f7claxn,Payutenyodagimas,1e3dlbpf
By that logic they should be able to profile in order to keep out potential troublemakers.,moshdagoat,6ktod,f7cl6s0,its a private property. its their rule,f7aaopw,Payutenyodagimas,1e3dlbpf
However many it is it's not enough. We gotta pump those numbers up.,moshdagoat,6ktod,f7aj77d,How many people die a year from doing stupid shit to post on this sub? These are the questions I need answered.,f79rsg1,Scumbeard,12by0c
Don't discourage him this is glorious. If I did have a complaint it would be that there is no sound.,moshdagoat,6ktod,f7aiv5b,This could end in injury,f7adntg,Curmudgeonitave,2zy0c5jg
They use it to maintain the space their head usually occupies when they need to pull their head out.,moshdagoat,6ktod,f7a9fvv,I don't get what political positions have to do with toy preferences???,f7a8yuc,TheMerula,1r4tmilr
Taj Mahal ninja,moshdagoat,6ktod,f74ruzp,TIL they have malls in India,f73tgb5,dbpnz,6419j
Yes exactly globalism what's the issue I don't think you understand what that means. They are cultures being destroyed as we speak,moshdagoat,6ktod,f70cr9l,"and...i'm still waiting on your examples of non-US white majority countries who are as good as america.

you actually use EU countries for your examples? LMFAO!!!!!! that is globalist shithole headquarters.",f709ykg,fastmandan,wbc1n
Still majority white and more importantly culturally white.,moshdagoat,6ktod,f709vi4,"and...not a single white country in your list who is as great as america there, lite white supremacist. i don't see any of them having around 20% of their country already being black like america's is and still being the greatest country in the world.",f7098mt,fastmandan,wbc1n
And yet no examples of non-white countries on par with white countries are being offered. I'll give you Japan if that helps.,moshdagoat,6ktod,f708vcs,"yeah...UK and canada are such wonderful examples of white majority countries LMAO!

poland has their own pro-pedo catholic clergy cuckiness too.

'white is all right' is just as cancerous as the black supremacists and the israel fisters.",f708ife,fastmandan,wbc1n
"And Western society is overwhelmingly white. There are exceptions and I'm not implying that it is strictly genetic, but our culture is superior. This statement is supported by the fact that everyone wants to live where we live. Even people who live in a tropical paradise opt to abandon it for the opportunity our way of life provides.",moshdagoat,6ktod,f7079rm,Western society for the win.,f705bov,apparently1,2lg1s84e
Name some non-white majority countries that people are migrating to. Most of the examples of great countries are white. I don't care if that is perceived as a racist thing to say because it is true statement.,moshdagoat,6ktod,f6zth92,"""But muh white people only!!!!""",f6zbjiz,fastmandan,wbc1n
The craziest part is that the best case scenario is that he is the one in blackface.,moshdagoat,6ktod,f6xsy7i,You mean [this asshole](https://bloximages.newyork1.vip.townnews.com/richmond.com/content/tncms/assets/v3/editorial/a/c8/ac8cee24-ce19-5eed-8252-78de49f31c58/5c54bb4a74115.image.jpg)? How is he even still in office?,f6wxd6r,KinkotheClown,49aph
Unzip your pants and look down if you want entertainment.,moshdagoat,6ktod,f6vbac6,you're both fucking pathetic.  weakest flames ever.  when I sort on controversial I expect entertainment,f6vb1uo,f78thar,1s9e0sn
I detect a hint of homophobia. Isn't that verboten here in the people's republic of Redditstan?,moshdagoat,6ktod,f6uwxpb,Come to defend your boyfriend?  I see you enjoy the Boomer dick.,f6uvs3q,RonGio1,125821
Ok loser,moshdagoat,6ktod,f6ukoke,Ok boomer.,f6u87ws,meelp,kuj4e92
"Nope, not even a boomer, not even close. I do enjoy poking at entitled little pricks like yourself who blame everything on their parents generation.",moshdagoat,6ktod,f6u0q0o,"Oh is someone mad?  Seems like you're a real snowflake.

Sad, pathetic Boomer.",f6tzsnr,RonGio1,125821
Too bad it didn't happen prior to shitting you out.,moshdagoat,6ktod,f6tzbpx,Nah she's dead oblivion awaits for you Boomer.,f6tytod,RonGio1,125821
And you'll hear your mother moaning.,moshdagoat,6ktod,f6twnin,"When you're laying there at that sad height raging against the dying of the light...

You'll just hear ""okay Boomer"".",f6tu7cp,RonGio1,125821
