child_body,child_screen_name,child_user_id,child_tweet_id,parent_body,parent_tweet_id,parent_screen_name,parent_user_id
"Both gets hurt, man instinctively goes to help woman. This is what gets men killed in combat. Learn something you 2 pump chump.",mythrowxra,19e1624o,fjdpwx1,"Yeah, thinking isn't your forte, is it?",fjcuawh,VikingPreacher,1jkzpmdb
"Had nothing to do with legacy, you pathetic bottom eeder. Go back to your leftistsuckeachotheroff sub",mythrowxra,19e1624o,fjdpqfp,"So our legacy would be ADD and addiction to social media.

Their legacy is racism and climate change.

Do you see how one is a personal issue, and the other one involves fucking over someone else?",fjcu6e6,kent1146,t98jy
Imagine being so inept and stupid that words clearly project any emotional state. Oh well. Cant fix stupid.,mythrowxra,19e1624o,fj7hp2f,Goddamn you mad. Lol,fj6u2a5,SolluxCaptor2,8xx17
"Yea, says the internet troll who clearly is the true incel. Telling other people they cant get laid because you know them on such a personal level. Also, yes mu dick is long enough i could fuck myself, whats wrong with that you homophobe? You are beyond pathetic and you are the reason why we shouldn't have warning labels on things and let natural selection take place. Good riddance.",mythrowxra,19e1624o,fj57q8k,"Fuck yourself? I assumed, it's the closest you'll ever get to sex with another living person.",fj4fxpu,SolluxCaptor2,8xx17
Actually i do babes,mythrowxra,19e1624o,fj4f238,"> Also I'm male and your deductive reasoning skills are dogshit. 

*SWING* and a miss!

Oh and FYI you don't get to have opinions on other people's rights. Fuck yourself.",fj46bz9,SolluxCaptor2,8xx17
"Typical woman, thinking you are right because you have an opinion. Why are you so upset thinking i dont get laid. Again, what egotistical moron thinks for all other women.  Oh i forgot, the victim mentality ones that would go around accusing men of rape and that every issue is mens fault.

Gl dying alone cat lady.",mythrowxra,19e1624o,fj45e3p,"I'm so glad you're never going to get laid. You sound like a serial-killing rapist in the making. But honestly, so do most of the white, cis-het men who fall down the alt-right rabbit hole. 

Nobody will willingly sleep with someone so cavalier about their ability to create life. You're a disgusting piece of shit.

Also I'm male and your deductive reasoning skills are dogshit. 

Inb4 'you think women deserve rights?! WhItE kNiGhT!'",fj43qvs,SolluxCaptor2,8xx17
"Awe. Just because you ladies dont like the word cunt.. doesnt mean everyone else is as weak minded or thin skinned as you to be offended.

You would think women would be a little more responsible considering they are the ones getting pregnant with human life. But yes, its the mens fault when its only women that need to give consent in today's world. Hood logic miss braveheart.

Just because you project dying alone doesn't mean anyone else is going to. Others have better resolve than you and realize there is 3billion more vaginas around the world",mythrowxra,19e1624o,fj42u9t,"Hilarious pseudologic. It takes two to tango, cunt. But admitting that men are just as responsible for having kids as women are would tear your stupid little worldview of 'Women bad' to pieces.

Have fun dying alone, cunt!",fj406te,SolluxCaptor2,8xx17
Un ironically posts on hypocritical womens subs that take no responsibility for their actions.,mythrowxra,19e1624o,fj3zjt0,"Unironically posting in r/TheDonald? 

&#x200B;

Cringe.",fj3x689,SolluxCaptor2,8xx17
Guess you missed the part where you don't have sex. Typical woman.,mythrowxra,19e1624o,fj3wsqc,"Hate to break it to you, but you can still get pregnant in the various positions you can still have sex in with your legs closed.",fj3n623,nosferatu_askew,5rizfncr
"Oh well you are disagreeing with me and calling me names. guess that makes you a man hater, a racist, and a straighaphobe.",mythrowxra,19e1624o,fj2ny33,"Lol. Scratch a transphobe, reveal a misogynist.",fj2fixm,redwhale335,lrwane9
Okay mr navy boy who never deployed,mythrowxra,19e1624o,fj2myd2,You’re a shit bag lmao,fj2igqw,jacksonjabba,mtzg5an
I find it stupid.. what I mean is. Shaun has strengths that Leah finds as her weaknesses and she would connect him to the world.,mythrowxra,19e1624o,fisv2jy,I saw that reasoning from Lea coming from a mile away,fipcfc0,NuthinbutTreble,4t55ri3j
The ending killed me... as someone who has ADHD. It makes it very difficult for people to accept us and all our downsides. But whenever people do take on our negatives they see how amazing we can truely be even with such problems.,mythrowxra,19e1624o,fisuw9s,"1. That beginning was intense.

2. I am glad Morgan told Claire it was her. I am even more happy that she apologized. 

3. Park is my favorite character and I love his relationship with Shaun. I always felt like he had a special connection with Shaun. 

4. I honestly thought that adorable little Asian girl was a ghost and was about to say this show really jumped the shark. 

5. The autopsy scene was one of the few Shaun and Carly scenes that I actually enjoyed. 

6. The fight scene between Melendez and Claire was weird. I figured it was probably fake. Glad to see they are still hanging out as friends. I wish they would use the word ""platonic"" less though. We get it. You guys aren't having sex.

7. I am sure people will hate Lea for what she said but I am glad she was honest with him.",fipch64,Deafisnotdumb,34rb1doo
Thanks!,mythrowxra,19e1624o,fikkkiy,"Well I'm sorry to hear that. Hopefully you will find that right person soon, there is always someone out there for you.",fij88zm,TheFutaClub,1wwji6zi
Yea.. this girl has to many more issues that doesn't make her compatible to me.,mythrowxra,19e1624o,fij85nz,I converted my gf from a Trump hating leftist to a Trump supporter. Took a lot of facts and logic to destroy that brainwashing her parents and the MSM did to her but it was worth it in the end.,fij51nj,TheFutaClub,1wwji6zi
Yea... im a late to learn these things. Luckily it might only cost me $200 app and admin fee🤣,mythrowxra,19e1624o,fij83vz,This is why you never move in with anybody until your together for years.,fij4tl3,Blackkit27,16ujmn
Am getting out now! Vile things!,mythrowxra,19e1624o,fij81nz,Assuming you got out...,fij47ux,lilwagon,3cak3
"Imagine thinking you need to be top 10 to have great health care... rofl
Guess the top 10 best food dishes is accurate for the whole world too and personal taste huh?

read a book, have some common sense",mythrowxra,19e1624o,fhytpl7,We're not even in the top 10 for best healthcare mate.,fhqwc6n,TeenagerOnReddit03,3hsrvkcj
"Yeah your right, its not like we have most of the best doctors in the world here or anything rofl.",mythrowxra,19e1624o,fhqucfz,"Statistically, no one goes to the US for medical treatment.  That is one of the great myths that you have been fed to make you feel better about your system.",fhqua3s,Goldambre,cbvcz
Good think im not a leftist turd who need validation to feel good. rofl,mythrowxra,19e1624o,fgzw6x2,You are pathetic human scum.,fgqtt9g,DomeSlave,4oqbd
Imagine if i went around saying that the word Whitey was enough of a reason for me to beat someone to near death... Its astonishing the privilege they get all because of a word.,mythrowxra,19e1624o,ffyiwix,"Here's the thing you're not understanding about this. Let them have it. It's fine. Nothing they can call you will ever hurt you as bad as ""nigger"" hurts them. That's why they don't let you say it. They can call you mayo, vanilla, whitey, cracker, any other number of half-assed names that don't actually matter, and you don't actually care. You don't actually feel hurt by that. But say ""At least I'm not a nigger"" and their entire world falls apart.",ffpoi1e,Diarrhea_Van_Frank,h0dsu
"Shoot, lets start the list!",mythrowxra,19e1624o,fdgvp0j,"You realize naturalized Citizens can be stripped of their citizenship. And natural born citizens can be persuaded to renounce theirs. 

https://immigration.findlaw.com/citizenship/can-your-u-s-citizenship-be-revoked-.html


I have a few people in mind who might qualify to have their citizenship revoked",fdgo7t1,MAGA-Lady-Ok,4gqt4vuu
"Huahua, they'll storm our beaches on camels clad in armour!",mythrowxra,19e1624o,fdf50s4,"They cant even afford a war with the US economically, culturally, or militarily. I guess they got to bolster up to keep their followers believing the fallacy they've brain washed them to believe",fddj9bg,GavinVon,r55rc14
Are you telling me firing a rocket into space doesnt pollute the air...?,mythrowxra,19e1624o,fdf4b3e,But rocket fuel is not made out of oil,fdf01dp,rassver,169wfmx
"Well, i wouldn't expect them to really listen but fuckem. We dont need these people and they'll wash up like all the other celebs like them",mythrowxra,19e1624o,fde21q9,And it fell on deaf ears… Half of those pathetic fucks got up to accept their award and cried about everything from climate change to war. Fuck Hollywood. They’ll never change.,fde0ttx,TDSisReal,19c41gx2
"Go figure the elite owners of the most powerful sites... sitting in a room full of deviant pedophiles.

When he uses sweat shop workers. Cant make it up... they keep the company that fits them",mythrowxra,19e1624o,fde02z0,I wish the camera went back to Tim Cook when Gervais mentioned the sweat shops. 😂,fdcog5o,MmmDarkMeat,29gu8v4
When have they ever been? Or did i miss that?,mythrowxra,19e1624o,fdc4xgn,"The liberal traitors over on <redacted> are basically hoping that the entire Middle East unites against Trump as a way to get him out of office... In other words... Hoping our enemies are successful against us.

They aren't even Americans anymore.",fdbfeto,LiteralFuck,p6wyxvl
So just a celebrity by bloodline for their traditions?,mythrowxra,19e1624o,fdatdj3,"In practice and as in the UK she needs the backing of the Prime minister. In theory she could proceed without it in an emergency but as both our nations see ourselves as democracies, that would spell the end on the monarchy once and for all. The queen is essentially a figurehead both the UK and Australia.",fdaiynr,2017Momo,m5nrt2
"In the end, queen has a last say in austrila...",mythrowxra,19e1624o,fdaeygc,">Yeah, Australia is ran by england.

No, no its not. We have the same Queen but that's about it, and said Queen doesn't have much say in how either nation is run. That's the job of our independent governments.

You probably just insulted a fair few aussies.",fdaa9q5,2017Momo,m5nrt2
"I know they have detonation cord too... sure it would be a long shot, but a lot better than this",mythrowxra,19e1624o,fd9zuct,"Trees take too long to fell, and they'd need to chop down all the trees in a 100m x 100km path to achieve it.  It is too much for people, but they haven't 'frozen';  they just know that kind of effort would be futile.

(100m x 100km = ~330 feet x 60 miles in US measurements.)",fd8uva6,DegeneratesInc,hzdbu
"Made my point. You lose, again!

Dick means you are not a chick",mythrowxra,19e1624o,fd8qyrm,">	So gender isnt sex.

Thanks :)",fd8pamn,aidsy,3tgdg
"Ok fine, you want to play it that way wise ass.

So gender isnt sex. Regardless your sex is still male or female and you cannot change that.

Objective - sex

Subjective - gender

Guess what, we dont care. If you got a dick, deep voice.. you are a dude.",mythrowxra,19e1624o,fd8p7l4,">	either the male or female division of a species, especially as differentiated by social and cultural roles and behavior:

/r/SelfAwarewolves",fd8ohgn,aidsy,3tgdg
"It amazes me how the left doesn't understand how electoral votes work and districts.

They think because they had 2 million more, speaks for all those who didnt go vote.",mythrowxra,19e1624o,fd8kndm,"*polls 10 people*

We have determined that 50% of Americans humbly apologize for these barbaric acts.",fd5nrwe,iEnlightenment,47bhs3wa
"either of the two main categories (male and female) into which humans and most other living things are divided on the basis of their reproductive functions.

""adults of both sexes""

Similar:

gender


You guys really should learn when to just take the fat D in the face when your wrong.

You literally lost to the dictionary definition

Gender - noun

either the male or female division of a species, especially as differentiated by social and cultural roles and behavior:",mythrowxra,19e1624o,fd8hc0e,">	Gender is just another word used for sex.

No it’s not. Gender is not synonymous for sex any more than ‘electron’ is synonymous for ‘forklift’.

They’re different concepts. This is fundamental, basic stuff which, again, would be trivial for you to learn more about.

But hey, you’re just here to spew some shit in bad faith and move on, so it’s not like you actually care.",fd84nzt,hailtothetheef,16q524
Unless its being pushed...,mythrowxra,19e1624o,fd7qtjx,Because skin color has exactly zero impact on the story. Learn to care less about meaningless things.,fd30o24,-c-grim-c-,7lywp
Why would i tell a disconnected black woman that shes wrong... because shes wrong. Lawl. Eat shit,mythrowxra,19e1624o,fd7qoyq,"How are you as a white person gonna tell a black person that? Wow. What do you know about our people and our culture?

Based on your past responses, ""Google"" and ""so and so"" said...is all you got. Foh.",fd7pxo3,Romano16,11ctdi
"Cool, linking studies who cant site their own circumstances and information... rofl.

I dont give 1 shit about some hack job researcher who doesnt include all the facts and did a half ass job. 

Well, guess i better start transitioning my cat to a dog... oh wait, hes still a cat.",mythrowxra,19e1624o,fd7qj6h,"**Citations on the congenital, neurological basis of gender identity:**

* An overview from[ **New Scientist**](https://www.newscientist.com/article/dn20032-transsexual-differences-caught-on-brain-scan)
* An overview from[ **MedScape**](http://www.medscape.com/viewarticle/840538_3)
* [**Sexual differentiation of the human brain: relevance for gender identity, transsexualism and sexual orientation**](http://postcog.ucd.ie/files/Schwaab.pdf) \- D. F. Swaab, Netherlands Institute for Brain Research, Amsterdam
* [**A sex difference in the human brain and its relation to transsexuality**](https://www.ncbi.nlm.nih.gov/pubmed/7477289) \- Zhou JN, 1995
* [**Prenatal testosterone and gender-related behaviour**](http://courses.biology.utah.edu/carrier/3320/sexual%20diff.%20papers/Prenatal%20testosterone.pdf) \- Melissa Hines, Department of Psychology, City University, Northampton Square, London
* [**Prenatal and postnatal hormone effects on the human brain and cognition**](https://www.ncbi.nlm.nih.gov/pubmed/17074984) \- Bonnie Auyeung, Michael V. Lombardo, & Simon Baron-Cohen, Dept. of Psychiatry, University of Cambridge
* A[ **spreadsheet**](https://docs.google.com/spreadsheets/d/1d9KKqP9IHa5ZxU84a_Jf0vIoAh7e8nj_lCW27KbYBh0/edit?pli=1#gid=0) with links to *many* articles about gender identity and the brain.
* Here are[ **more**](http://aebrain.blogspot.co.uk/p/transsexual-and-intersex-gender-identity.html)

Get fucked, you anti science shit stain.",fd7nzaw,Why_U_Haff_To_Be_Mad,rjlrqim
It ls really sad if you are black and know nothing about your own people or culture.,mythrowxra,19e1624o,fd7ojnv,"I’m black to be specific I’m a black American girl .. In my paragraph.. there were multiple things that identified me as black such as the hair twisting. There’s even a picture of my arm in my post history but go wild dude. 

Maybe it’s the people around me but most don’t wear wigs or weaves. 

I occasionally wear braids but I know a lot of people who don’t. I’ve literally posted in this thread multiple times about the struggles with my hair and accepting my kinks and coils.. 

Yet someone you came to the conclusion that I wasn’t black? You’re going to call me ignorant when it comes to black experiences when I was sharing my own?

Wearing natural hair has become very popular with the girls around me. Going natural has too. It feels misleading to say most black women wear wigs and weaves my dude.",fd7l1mf,its_the_green_che,10rxme
"Why did twitter allow a threat against the president to trend?  

""# assainate 45""  would you deny it or just call me names?

The fact you mention trump tweets. How about all of you that literally post on every single tweet literally harassing someone, and promoting violence and lies.",mythrowxra,19e1624o,fd7nte4,Why the fuck is Twitter letting this lunatic use their platform to escalate a war?,fd61yx6,hrt-addict,5ab7txmz
"Hahahahahhahahahahahahahahahahahahha

He said what trump did is terrorism.

Terrorism - the systematic use of [terror] especially as a means of coercion

Last i check, me telling a bully at school the next time he tries to beat me... ill fight back and ill end the fight... isnt terrorism.

Good try tho, pick up a dictionary. You guys are really embarrassing us internationally.

Hypocrites and liars, cant think for yourself, you cant critically think, no common sense, absolute lack of comprehension and knowledge of words.",mythrowxra,19e1624o,fd7lxph,"Trump is threatening an act of terrorism. The man shut down all avenues of negotiation with Iran and is relying on terrorism. 

Openly threatening to destroy cultural artifacts is a literal war crime. 

This is not how you influence other countries.",fd5twry,dankykang42069,57xdyaoh
"From any of the top 10 sources on google...

From my girlfriend, from a friend too...

So are you just going to call a black person a liar... about their own hair?

Just because i didnt named the only 2 other methods... rofl

Hardly any black women in america typically let their hair out because of the randomness and dealing with it. It takes to much time and they can just swap put a nice wigg, or  extensions etc.

I hate people like you. Wanna be know it alls, who have not spent a moment in their life using their brain.

People like you give bad information when the very expert of that subject states something. Do us a favor... actually use your brain and grow instead of being ignorant and racist",mythrowxra,19e1624o,fd7kyr9,"Most black girls do not wear wigs or weaves. I don’t know where you got that information from. Well maybe it depends on where you live. There’s been a big natural hair movement in the African American community these last few years so many people are wearing their naturals in puffs and afros. 

There are a lot of women that do wear wigs or weaves and tho because black hair is a pain in the ass.. but I wouldn’t say most.. sometimes I legit just wake up and say fuck it.. and go as I am either with an afro or twists. 

Also.. this isn’t just to you but to a lot of people.. straight hair on a black woman doesn’t automatically equal weave or wig.. it can also mean relaxer, silk press, or they simply flat ironed it.",fd7cn1g,its_the_green_che,10rxme
"Gender is just another word used for sex.

God, i beg you... give trump the powers to do a education reform.. and if that doesn't fix these people.. mental health reform.",mythrowxra,19e1624o,fd7k9g5,"*Gender is performative.*

It’s not a hard concept. Since you’re interested in scholarship, any university in the United States can unravel this concept for you in a freshman level course. 

For much less dough, you could find pretty informative sources by entering those words in any public search engine.",fd79a8r,hailtothetheef,16q524
There is a reason for a 2nd amendment... protect you land. Add a will shoot trespassers... shoot said trespassers. Problem solved,mythrowxra,19e1624o,fd7jcnj,"This seriously pisses me off. We live on our own property in the backwoods of TN. We have no trespassing signs all over but it doesn’t stop hunters from setting dogs loose for them to chase raccoons or whatever all over our property. I’ve confronted several and told them they can’t hunt here but they act like I’ve got a stick up my ass cause I don’t want to hear their dogs howling at 2am. Cops won’t do anything because “well we didn’t see anyone up here anyway.” The one time the cops came while the hunter was still on the property they didn’t do anything because they knew the guy (small town USA). If a hunter gets fined for illegal hunting on federal property, they should be fined for illegal hunting on private property as well.

At least it’s off my chest now.",fd4wea7,Jobert725,3eiwkbtj
"By all means scholar of the internet... do tell me at any point and time why you ignore basic biology....

Seems you ignore science...",mythrowxra,19e1624o,fd72w4q,I see you never learned anything passed grade school biology,fd6s4u5,Beautiful-Musk-Ox,3jsgysww
"Pretending to be a plane, doesnt mean you can fly.

Just because you think your a woman... you never will be... ever.",mythrowxra,19e1624o,fd6rl42,"when they talk about basic biology but forget about advanced bio, sociology and psycology",fd523ov,Monvixelaaz,giegcrw
"Not hurting anyone... 

Kids being put on hormones.

Kids getting their genitals mutilated. 

Kids being grinds and humped by pedophile drag queens.

Kids not being able to think for themselves and forced crap information that harms them.

Setting inappropriate standards of sexual content for public...

Yep, no one is getting harmed here!",mythrowxra,19e1624o,fd63y97,"I mean shit, people get so mad over trans and gay people, but like, are they hurting anyone? Nope. Then it’s cool, let people be, man.",fd3i5xx,primofilly59,1955kmht
Oh true that!,mythrowxra,19e1624o,fd5x0cu,And caffeine,fd5kxo8,DogPaws155,503jwxvw
"Yea using someone elses hard earned money. Also, you seem to think people would use this free cash and invest when you same people cant even make good investment choices.

Im not paying for your poor choice of college courses.

You just don't get it. We should just tax everyone of you who are supportive of communism",mythrowxra,19e1624o,fcumqjk,"Then take your UBI and use it to fund a company. You will be taxed at what, 2% of your wealth over 50M? Poor baby.",fcsa971,chcampb,3fyb4
"Wrong, you know nothing. Wise up",mythrowxra,19e1624o,fcto1oy,Then you should be out campaigning for the end to all government spending that isn’t directly related to national defense.  All the cute little tax breaks and subsidies that help you get your business going?  Socialism bro.,fcs9p58,Mudder1310,17jzwz
Well i know where he got his source. He googled it and google manipulated a specific study to the top.,mythrowxra,19e1624o,fcotrdt,How many of those 400 times did someone shoot back?,fcotnjq,hildabeest_4_gitmo,166zil
So Wikipedia isnt even dependable anymore?,mythrowxra,19e1624o,fcjknpf,Historical revisionism,fcjk37s,slimline7,15djw9
"They know the majority doesnt approve of the bullshit. They want us to care that they are trans when in fact that's why they care.. because THEY ARE TRANS NOT A WOMAN.

Ugh, ill get cancer of the brain from the left if they keep this up for another 5 years",mythrowxra,19e1624o,fcj3xyr,"just saw this article in my google feed. . .love that the author immediately posts the top comment: 


12/29/19 11:42am
Just a heads up: If you get shitty or mean in these comments I’ll remove them. Go be an asshole somewhere else


. . . almost like he knows hes publishing bullshit hahha",fcj3g0g,pausedf2,1puha7yt
Right.. no one cares about that.. we have no interest if you were trans... were you a shitty person? Will you be missed? Bah,mythrowxra,19e1624o,fcj3tfv,"No, What's the point of bringing up the fact that they're trans? Someone died. That's the story.",fcj3anf,FlumpMC,zcn7m
If i had a pair of tits as nice as you can expect... id grab myself... lol im a perve,mythrowxra,19e1624o,fcj3r2v,That dude has a nice rack.,fcj2zsb,Apersonofinterest666,6j6ff
Whats funny is the 2 most democratic states.. California and ny are nearly impossible for any single low wage adult to survive.,mythrowxra,19e1624o,fc295fb,Socialists fuck up every state. It is like the horde of locusts. Destroy a state and then move on searching for the next host to destroy.,fc1oidl,vgcap,308254bo
"Yep, the left thinks its because its woke we are i tolerant... but they don't realize they betrayed the whole fanbase by focusing on their wokeness rather than the details of their movie",mythrowxra,19e1624o,fbux9bm,"Rey was randomly choking the grip like a microphone or way too low on the hilt. Between cuts, her grip changed quite often too.

I'm pretty sure she powered down her saber with the button not even near her finger.",fbue70v,Lulizarti,5ptjr
Thanks!,mythrowxra,19e1624o,fbua5zl,They seem to be taking the 2010 info and using estimates of immigration and invasion numbers over the past decade then extrapolating.,fbtwuoo,Batman-von-Pepe,22b4kw48
"Regardless, the man was saying you have vibrations in that spot.

Can be because of your central heat and air going",mythrowxra,19e1624o,fbtofom,Those are lights bud (:,fbszizs,cannamother,53ayl5be
"Yeah, pretty typical of the loud mouth morons to be the quietest once their bullshit is up.",mythrowxra,19e1624o,fbtb9h6,Has anyone noticed the lack of replies by the usual anti trump mob? Hey really struggle to say anything as it’s irrefutable fact !,fbscal2,Contrarian-Man,52et07oi
"Say it with me, ILLEGALLY entering and staying in the us on bogus asylum claims makes you a deplorable criminal.

Just as dense and useless as AOC",mythrowxra,19e1624o,fbrbf4m,"Say it with me, illegals and asylum seeker *are not the same thing*",fbr8jn5,PyroptosisGuy,48sun1b2
"You mean ""Mr.Corney"" ;]",mythrowxra,19e1624o,fbra08z,And cross-reference them with that damn Comey also.,fbqrsnd,MrMotely,38zphp5k
"Yeah its a shame we have to repeat very basic data for you NPCs to finally get it.

At least when we repeat things... they are based in reality instead of clear mental issues you have",mythrowxra,19e1624o,fbr3y62,"You all say the same shit, like a broken record replaying the same old song all day long. It’s like a cult following. Disgusting",fbr24ss,Jarl_Jakob,1614sl
"Illegally entering and staying... Are Crimes.

No, they arnt good people. Their country is so full o bad people.. and you think only good people come here... ignorant is bliss

Actually considering most of the pop is white and the typical illegals arnt.. 

Fbi, DOJ confirms whites commit the least race based on racw on race crimes.

Imagine being so wrong on purpose or unintentionally you would spout bullshit because some pathetic soul worse than you would believe it without ever checking",mythrowxra,19e1624o,fbr0dc5,"except by and large the criminals here are americans.  immigrants and refugees commit the lowest rates of crime. however they are very likely to be the victims of crimes, which happen to be committed by americans.",fbqyvht,ctkatz,8c4iy
Haha i know right!,mythrowxra,19e1624o,fbqzqk6,This is like inception.,fbqxhab,TheMagicNumber_,3nh77me4
"Imagine thinking calling someone names because they call out a lie... as winning. Lol

Lost 2016, lost to the wall, judges, laws... nit much for me to be butthurt when its you babies posting 24/7 ""oRAngE MaN bAd!""",mythrowxra,19e1624o,fbqzmlo,Spotted the butthurt trumpkin!,fbqvnhb,ChristopherPoontang,pgizi
"Your wrong, but okie.

You hit the legs to bring the suspect down.. like a dead leg",mythrowxra,19e1624o,fbormqh,"The first swing back by the cop was justice, everything after that was uncalled for, restrain her and do your job, she's drunk, he knew better.",f7p3x0q,TaterThotsandRavioli,33nf16pe
So a baby is going to easily.. pick up a gun.. and accurate aim it in a direction of someone... and then pull a 5/10lb hammer.. and get a lucky hit on someone which wpuld kill them.??,mythrowxra,19e1624o,fbohgyu,Absolute horror of an invention. A device so evil even a baby can simply press a button and end its own life or anyone else's within 100 yards. Not something to keep in the house when you're feeling down.,fblp5r7,EatsAllNearbyPies,7qxt2
I know! Totally wins over people and their kids with his pedophile behaviors,mythrowxra,19e1624o,fbo8wl9,Why write this after Biden's best debate performance?,fbl1f2b,Fournaan,hht56
Idk losing over 40+ to natural causes around you seems pretty bad my dude,mythrowxra,19e1624o,fbo7x09,Don the Con has more to lose from his association with Epstein than either of the Clintons do.,fbluymq,jgs1122,78jf5
"Imagine being as ignorant as you.

With your logic.. why lock your car... keep the window up? Why park under a light?

Its a deterrent and slows them down. This is also not the wall being put up.",mythrowxra,19e1624o,fbn3sbv,"People that cant understand the willingness to overcome a literal billion (s) dollar barrier, are the same people who have never had to leave their country to secure a future for their family. 

This is hilarious. I wish I could see the faces of the people that support the wall.",fblq1hf,HeartlessHoodlum,4aoihyr1
Awe i annoy you because its hypocritical. Pathetic.,mythrowxra,19e1624o,fb5hwb2,I know you think you’re dropping some truth bomb that no one wants to hear but really you’re just annoying and talking out of your ass,fb4ox2b,fapmastaslick,5ooys
"Literally burning trees which end up with CO2.

Funny how trees is being woke and downvoting me for a completely true fact. 

Guess being indirectly called a hypcorite isnt nice",mythrowxra,19e1624o,fb4dsvx,"I mean, every cell in your body produces carbon dioxide. You gotta prioritise balance in the carbon cycle; all or nothing will collapse complex life as we know it.",fb4cpz0,Rykaar,di3mo
"Lile the whole randa rousey moment.

You can only continue to win so long.. because in a real sport someone's going to get lucky or simply have the right technique that fight",mythrowxra,19e1624o,fb4akwv,"Twitter comments were cancer. Russian news source the Independent claimed ""The villain was defeated"" and Twitter was saying an immigrant beat him. They keep conflating illegal vs legal immigration...

Like anyone thought he wouldn't get beat at some point? No one in mma goes undefeated if they keep fighting.",fb2geew,nakedjay,4mcav
"Wrong, im done beating the dead horse. Bye",mythrowxra,19e1624o,fb1z7kg,The solutions are already there. You're just angry because she's calling out Trump for ignoring them.,fb1rkrf,Auntypasto,1dddaki4
"Sorry, but if greta a disabled kid gets intimidated by advice to take q chill pill and work on her lack of emotional control if she wanted to ever be taken seriously.. wow

How pathetic, so the whole world is telling a disabled autistic hold how to feel... and you wonder why she feels that way.

The left, exploiting kids and the disabled, sexualizing them, objectifying them and  manipulating.

Imagine cheering on an already emotionally entitled autistic child. Whom entered an adult stage, to have emotional tantrum as other kids her age actually make a difference. But because its trump any critism is seen as an attack, harrassment, bullying. When in fact non of those definitions fit and using them is blatantly  lying.. funny call trump a liar, but you can't even use the correct words and their definitions",mythrowxra,19e1624o,faz7mm9,"I’m sure this can be classified as intimidation under the definition that you have given, soo.... you’re wrong",faxzgy8,jsjdjdnkwokdkfj,aba5d7t
"And you are defending a child who entered a grown ass adult stage, made a mockery of world leaders who arnt disabled... to OFFER NO SOLUTIONS as there is 2-3other kids who have actually made a real difference rather than LITTERAL SHOW BOATING around the world being a fucking hyppxrite, just like all you plebs who walk the street for climate protests litter.

Go fuck yourselves. She entered the stage of an adult matter. She has npthing to offer but a poor pitty me the worlds ending while she throws a tantrum over something said to have killed us more than 5 times.",mythrowxra,19e1624o,faz6i1y,"Like I said, you're still defending a grown ass man from a 16 year old girl…",fawy6h3,Auntypasto,1dddaki4
"There is nothing to defend.. he simply didnt do it bub. Rofl delusional as fuck and the sad part is your an adult siding with a autistic child whose literally skipping school because she's ""sooo smart"" rofl a useless complainer who offers no solutions",mythrowxra,19e1624o,fawxzcu,I'm not the one defending a grown ass man from a 16 year old girl…,fawwzfz,Auntypasto,1dddaki4
"No rofl that not, just because you are an over exaggerating weakmind who cant handle anything",mythrowxra,19e1624o,fawwmwv,No… Mocking a child is.,fawur1e,Auntypasto,1dddaki4
Telling someone to go do something else... is bullying? Lol omg you are so sad.,mythrowxra,19e1624o,fawhjba,"Trump LITERALLY told her to stop talking and do some other stuff.

Literally bullying.",faw49sd,Auntypasto,1dddaki4
"Considering insults are very subjective.. so becauae she has no thick skin, let alone skin to take any criticism because bohoo ""poor kid""

Most of the time, hes not even insulting her by any normal persons standard... hes making observations and advice last i checked",mythrowxra,19e1624o,faw45z9,Ever herd of constantly insulting someone? Thats bullying,favxqnc,dompam,2rkffw6j
Born in 91.,mythrowxra,19e1624o,faw3qfo,ok boomer,favxte3,BlackGronk,zqli6
"Yes, now that i called you out on your own hypocrisy you want to go calling me names. Well done, just proving how awful people can be like you.",mythrowxra,19e1624o,favqkfq,Weird that it's always trashy racist people who take the time to do this weird shit,favi8nw,BlackGronk,zqli6
"If you are going to grammar police others.. try to make sure you at least are perfect.

I see capitalization problems, grammar and punctuation. Hypocrite",mythrowxra,19e1624o,fauxy3z,losing people cause of trash viewers like you always feeling the need to speak up,fa1qbaj,BlackGronk,zqli6
"Read the sub you inept reject.

I know its so hard for you to actually complete anything, do work, or acknowledge your wrong. Bye felicia",mythrowxra,19e1624o,faux4ak,Bro the subs called infowarcars for a reason. What did you expect when you came to a sub dedicated to making fun of alt right nutjobs?,fauw3k1,wi1lywonak,3khtkvzu
"Again you are missing the point.

A kid who chose to enter to political stage and make demands, throw a tantrum and point fingers with no solutions.

Vs

A kid on a field trip.",mythrowxra,19e1624o,fausnys,">And i swear to god if you say ""because shes a kid"" how does that make you look about the maga hat kid whos live was ruined for nothing? 

I 100% agree those kids should have been left alone. The 2 adult were fucking trash and the media jumped way too quick in to condemn the kids. Why would you assume otherwise?

They're both kids. And shitty adults look shitty around them.",fauo2uv,Centurychip46,1ji81ihp
"Exaxtly! Of the world is going to end.. it wont give 2 shits what we do.

Its almost as if there are other planets across universes that may be able to support life.",mythrowxra,19e1624o,faumy6k,"**Solutions to *what*?** 

https://i.imgur.com/TKDk3K6.png
https://i.imgur.com/jP56xeV.png",faume3b,AnthonyBoy,6q41h
"For your education purposes..

Threatened -  state one's intention to take hostile action against someone in retribution for something done or not done.

Also, why be kind to a political pawn who entered the world stage, vilified world leaders and threw a tantrum on international news. Who also offer no solutions... deserve niceness.

And i swear to god if you say ""because shes a kid"" how does that make you look about the maga hat kid whos life was ruined for nothing?",mythrowxra,19e1624o,faumqiw,"Why cant he be an adult and civil? She's 16, youth is her excuse. Why is a 73 year old man so threatened by a kid?",fauiuz3,Centurychip46,1ji81ihp
"You mean ""pull a ninja""?",mythrowxra,19e1624o,fau7q26,I love how his reaction is just to laugh it off. Most streamers would call the game trash and just be generally toxic.,faq67li,dandyson343,2a0743gy
They are the nazis... or at least behave like them,mythrowxra,19e1624o,faox9ye,Nazis?  What.  Fucking.  Nazis?,faose2v,wheredidiputit,bxhw3
Twitter users. And calling for the assasination of the us president.,mythrowxra,19e1624o,faox7fh,"Free speech does not entitle you to a platform. Also, who do you see calling for white genocide?",faonpix,Kelbo5000,5k0o18p
"Never said I was a victim. So, yeahh....",mythrowxra,19e1624o,faojctb,You poor victim.,faoi9cm,Iorith,5x7q4
How so? And wouldn't a top mind be a complement?,mythrowxra,19e1624o,faoic86,Top mind logic,faohx5d,ZebraWithNoName,11z0yw
Hard to be a nazi if im native american lol,mythrowxra,19e1624o,faoi55f,Ok Nazi,fao5fet,dooplex2,nepu2
"Suppressing speech, calling for the genocide of whites and a leader of a free world.

Yes, twitter is full of nazis",mythrowxra,19e1624o,faoi3z0,A non zero number of nazis is too many nazis.,fao5a2a,Iorith,5x7q4
Actively demonizing and vilifying their enemies is sane? These guys dont go on facts at all when they are name calling,mythrowxra,19e1624o,fanw7jx,"He debated Ben Shapiro in good faith in the face of a crowd that was overwhelmingly on Shapiro's side. I don't necessarily have a beef with this guy. His ideas are crazy, but I would rather have someone that is genuine than someone that's full of shit.",fanln0t,globulator,55co6
More fairness than they would ever offer back. But it speaks tons of the republican party.,mythrowxra,19e1624o,fanvxz8,Gaetz said during the hearing that it was a Democrat’s notes. Still despicable.,fangz4e,UnmoderatedCaucus,dwgmasl
"Na, there are plenty of people who just avoid politics because the shit is so fucking stressful because the deep state has turned a govt into a fucking joke.",mythrowxra,19e1624o,falmng7,">I would want this to be as fair and clean process as possible

That would be very difficult to ensure.  Also, people will be voting on it next November.  It will be a very rough time for Dems.",falkf9c,gelber_Bleistift,7t6g1
"SHHHH, you cant tell them that. 

&#x200B;

Also, im highly confident that if there was a true vote that everyone had to actually participate in... they would lose.

&#x200B;

They literally scream in people's face when they lose. Just because they are emotionally and vocally louder does not mean they speak as everyone.",mythrowxra,19e1624o,falme46,No.  We’re a Constitutional Republic not a democracy.,fallurj,MAGAtlanta,11ri16
"I dont get how someone cant see or care about the hypocracy.

we have a serious issue with our country.",mythrowxra,19e1624o,faljlpq,"Sickening how these rats keep trying to focus on the concept of it being ""against the law to ask Ukraine to investigate Burisma, Hunter, and even Joe Biden"".  Yet it has been perfectly fine for numerous investigations of Trump since before the election of 2016!  If Biden is/was innocent then this investigation would not be such an outrage, which confirms that they know he is guilty and corrupt!",falj8a7,abiffity,1av3a13
"Ah, so what about you?  
"" . "" \* you seem to be missing something... oh and you forgot to mention me not capitalizing letters too. I Dont need a hypocrite to criticize me for the same faults he shares. I already have Grammarly and I just dont care baby boy..

&#x200B;

P.s. Why are you sad, did the wall get too tall?",mythrowxra,19e1624o,faldxpj,You're*,falcfoo,SadMexicanCheesecake,zsgmjdl
"I agree, subjectivity blurs the whole process.

Never would i have thought, making sure a investigator continue their anti corruption goals was quid pro when they didnt even realize the money wasnt sent.

Then bidens are literally guilty of what they are accusing trump... but because they hate trump they are blinded by it and we wont get any fairness.

Because subjectivity isnt fair",mythrowxra,19e1624o,fal5t24,"When people who deal in opinions and feelings collide with logic and facts, it is never pretty.

We need to be serious: feelings and opinions have no place in court, policy, or government.",faksi4z,bmorepirate,144j1u
