child_body,child_screen_name,child_user_id,child_tweet_id,parent_body,parent_tweet_id,parent_screen_name,parent_user_id
Legend says that he is still charging his phone to this day.,saikumar_23,kbpkzg6,fkndtl0,ill charge the battery so meter appears full and make the screenshot,fkkggnz,Oniros_DW,4g6i9bda
Please master.,saikumar_23,kbpkzg6,fkkk8du,ill charge the battery so meter appears full and make the screenshot,fkkggnz,Oniros_DW,4g6i9bda
Totally. Apex anyday.,saikumar_23,kbpkzg6,fjo0vnv,What do you think about COD Blackout? Is Apex better than it?,fjndm3q,DeadBodiesinMyArse,44gyme7j
The dick* he needs,saikumar_23,kbpkzg6,fj62de8,I hope somebody gives you the hug you need,fj5xx74,PennFifteen,5pook
Which even the opponents have.,saikumar_23,kbpkzg6,fim4zxp,Eh id say the main advantage on pc is performance. Literally more info for you to work with and more frames to do stuff in.,fikyyy8,KaiserGlauser,q6jpw
"It's 800rs now, I think maybe I'll buy it.

Edit: is it worth though? I mean how's ping, playerbase & gameplay?",saikumar_23,kbpkzg6,fig8s5g,It's still on sale in uplay,fifud6u,Tanmayisjeff,xy1nv
Haha. Broadbands here are both good and cheap af.,saikumar_23,kbpkzg6,ficfh1g,The best ping I get is 68-70ms in Delhi. I'm on Zeonet. Local broadband and the connection is otherwise excellent with speed test pings being so low it shows 0ms a lot of times.,ficeedd,hardeep1singh,34li3
"157rs? Damn.
How much does it cost now? I would like to buy it",saikumar_23,kbpkzg6,ficeyhc,"No. It on sale upto 20th i.e. yesterday!
No luck brother you just missed it man! The Standard Editions costs only 157 Rs.",fi9l37l,Orneyfish,14ushc7n
Even I get 45ms. Hyderabad Hathway,saikumar_23,kbpkzg6,fice4xh,45ms? Where? how? Anyone i've spoken to till now has only got \~70ms on Apex. What ISP do you have?,fib0y89,hardeep1singh,34li3
About to comment that lol,saikumar_23,kbpkzg6,fi3swir,200 IQ,fi3ivxl,BARBiESiZED,8yj8znp
"Get it from 2gud like i did man, i got it for 95k.",saikumar_23,kbpkzg6,ffi654o,"I've used my brother's last-gen Nitro 5, and the build quality isn't that good, and the thermals are really bad. So although it's cheaper I don't wanna go with Nitro.

Sadly I'm not from Delhi, and the local dealers here are all selling it for 1L+.

And I thought the MSI had a good built :/ is it not that good? And what about the Helios 300?

Now that I compare, I feel like I should go with Helios, but it's currently 1.1L on FlipKart. Most reviews mention the price being ~90k during BBD sale, and even the GL63 is overpriced rn, so I guess I should wait :/",ffer49h,sArThAk882,xx7bi
International travellers warranty only works if you possess other country passport or visa.,saikumar_23,kbpkzg6,fff2fhx,damn I didn't forgot that! But I can still ask some of my friends to get it for me from overseas right?,fff21s8,maxed_out_nihilist,10oukqln
Thank you very much man! I was waiting for this answer.,saikumar_23,kbpkzg6,ffeq6q3,"> If not in any partition then how to activate my windows when ever i reinstall.

Your windows license is stored in [UEFI](https://www.intowindows.com/recover-windows-product-key-bios-efi/). Don't worry too much about it. When you re-install, Windows will silently pick it up and authorize itself.",ffeq002,garden_peeman,h8k46
Lol. You made me shit my pants for a second. It's Ryzen 7 3750H does not fare equal to i7 9750h,saikumar_23,kbpkzg6,ffepn97,"Sorry it's actually 99K
It's 15 inch version and I think G14 will be much cheaper!!!!!!!!!!G15 comes only with 1660 Ti
While G14 have options from
1650
1650 Ti ( aka 1650 Super)
1660 Ti
RTX 2060
https://www.asus.com/in/Laptops/ROG-Zephyrus-G15/Tech-Specs/",ffeoz9c,omgryzenradeon,51d3bi4e
Wooo! Please post the link.,saikumar_23,kbpkzg6,ffeoumq,Lol they already list for 98000 on their website,ffeo0c4,omgryzenradeon,51d3bi4e
But gotta wait like an year for it to be available at around 90k in india.,saikumar_23,kbpkzg6,ffemnji,"Ouch!!!!
Currently Asus's ROG G15 is annouced it starts at 
96K with Ryzen 5 and 1660 Ti !!!!
16 gb of 3200 of ram
Per key RGB keyboard!!!!
512 gb pcle nvme ssd
4 speaker systenm
As thin as a macbook pro!!!!!",ffeluy0,omgryzenradeon,51d3bi4e
Nope but i love it :(,saikumar_23,kbpkzg6,ffelkm2,Man is Apex legend still a thing ?,ffelcjn,K1ran4Ev3r,3tx8l667
Cool man! It's a great laptop.,saikumar_23,kbpkzg6,ffelil6,"Me planning to get Lenovo leigon y740 rtx version 
Can’t wait",ffednzz,itsTNKHollow,4jwb8og1
95k,saikumar_23,kbpkzg6,ffelhvr,What's the price you paid for it?,ffebahq,omgryzenradeon,51d3bi4e
Around 250 i think,saikumar_23,kbpkzg6,ffelh6q,How much fps in csgo on low “esports settings”,ffdrmai,sarthak-,18xxj3f8
"Forget about warranty, you gotta pay 40% customs first.",saikumar_23,kbpkzg6,ffelfk9,It is 75k Rs on Amazon.com with international shipping. Does anyone have any experience with international orders and do we still get warranty?,ffdfol1,maxed_out_nihilist,10oukqln
Yeah open it and blow it with hairdryer or something.,saikumar_23,kbpkzg6,ffekpbf,I have a noob question. How do you clean the laptop fans ? Do you open the laptop?,ffej01w,rohansamal,8y2fo
Same here but i said fuck flipkart and ordered in other place.,saikumar_23,kbpkzg6,ffd23hl,"Man I had been waiting for it to come down to around 90k on Flipkart for the past few months but it never did. Hell, the price increased during sales. Ended up buying MSI GL63.",ffd1xe7,BenignBrat,3dc9qyp2
"Brand new with 1 year warranty, they do sell few brand new products too.",saikumar_23,kbpkzg6,ffcu35w,"Hang on, so this is refurbished or new?",ffctt04,freakedmind,ixzdw
95k from 2gud.,saikumar_23,kbpkzg6,ffcrtre,Hey how much did you get it from and from where ?,ffcrqhj,lipchim007,1g7mdj8u
How's the game? And what about multiplayer?,saikumar_23,kbpkzg6,ff6cbln,The division 2,ff6a9ua,ollydicko25,2yfrgyr3
"Did you mention that in your post? Nope 
Did anybody give you extra input after you acted like dick? Nope

So instead of acting like a dick, you simply could have said thanks for your input but i dont need anymore similar inputs or you could have edited your post saying no more similar inputs are required. But you didn't

And instead of apologizing for being a dick to the above guy, you continued to argue.

So there's that.",saikumar_23,kbpkzg6,ff5jriy,I'm saying I don't need your extra inputs you're being rude to me by ignoring that,ff5j7bt,TheGreenYoutuber,27a1iu
"Are you 12 or something? As far as i've seen people are answering your question and no-one was disrespectful until you started acting like a dick. People post in public forums to get more number of inputs so that they can be sure, not just to get more number of unique responses. You never know that other's might be wrong and it doesn't hurt having few same responses in your post. 

If you're not kid then for the fucks sake grow up you moron.",saikumar_23,kbpkzg6,ff0kzk7,"Actually it's more like

OP: im looking for a gtx 1660ti. I know its a little bit expensive but im just wondering

modiddly: tHaT Will nEVEr hAppEn. wHY dOnT YoU BuY A luxuRy cAr fOR $5

OP: ok i was just wondering...

another commenter: YoU iDiot thaT Will NEveR Happen

OP: I understand you don't have to repeat what he just said

**another commenter**: yOu cAnT Do tHIS Only PosSssiBLE iN fuTurE",few9x5r,TheGreenYoutuber,27a1iu
9750h and a 1650 = GPU bottleneck.,saikumar_23,kbpkzg6,feyaae0,Probably the g531,fek13sw,AwesomeShizzles,tlwemml
You're absolutely wrong my friend. Never game on hdmi and hdmi is connected to igpu. OP is either using displayport or thunderbolt.,saikumar_23,kbpkzg6,fexd8ds,This is common on laptops the hdmi is connected to the dedicated GPU but other outputs are connected to the integrated graphics. Always game on the hdmi output,fev5121,Brady1408,thrzw
"Actually i agree with you.
Premium look, little better cooling and cpu < 120hz screen and 10k.

But I'm not sure regarding the build quality though.",saikumar_23,kbpkzg6,fes2e0e,True but imo the difference in fps wouldn't be large enough for him to shell out an additional 10k,fes1729,5ham5h33r,10vu84
"But it will give a good grip over cpu heavy games like far cry, ac orgins & bf5 etc.",saikumar_23,kbpkzg6,feq2o77,For gaming it won't matter to him as the bottleneck factor would be the GPU (1650) and not the CPU,feq1z0n,5ham5h33r,10vu84
"No thermal throttling at all in y540 as far as I have seen.
TUF throttles but under very heavy load and high temps.",saikumar_23,kbpkzg6,feq180v,What about thermal throttling?,fepyrsl,allipse,36077itl
More like 6-7 months for them to available at reasonable prices in india,saikumar_23,kbpkzg6,feq119d,wait until AMD released their 4th gen laptop apus (2-3 months i guess). It's gonna be worth it.,fepz160,S1Ndrome_,4pw450h5
"i5 9300h > Ryzen 5 3550h 
And with 1650 you won't be able to push 120 fps in AAA titles.

Nonetheless fx505dt is a good choice too.",saikumar_23,kbpkzg6,fepyc89,"Just asking, don't know much about laptops, why preferring y540 over fx505dt? U get 120hz also costs like 51k during sale.",fepx3ir,allipse,36077itl
Room temperature also plays as a factor you know?,saikumar_23,kbpkzg6,fepw5tt,"low 70s?? lol never, unless you play in eco mode lol. most optimal temp for CPU and GPU are mid/low 80s and mid/low 70s respectively",f8habdz,hongkhanhtrinhh,4h563315
"Yeah but games like battlefield 5 are cpu intense games not GPU and it may not be a problem for now as the device will not throttle due to heating but the life span of the cpu will be reduced by half l.

When you're aiming for gaming laptop, battery is a known sacrifice. Legion QC issues were only there in the initial shipment of the stock.

I agree that Nitro 7 is good choice if money is a serious constraint.

OP: if you choose to go with Nitro 7 then the thermals can be managed by both cpu and GPU undervolting, regular cleaning and repeating, using the laptop with max fans while gaming, using the combination of cooling pad at the botton and cooling vaccum on both the sides. With the above methods the temps will drop drastically :) 

Cheers",saikumar_23,kbpkzg6,felypc1,"I am not disagreeing with you but even if you don't do that, the thermal issue is cpu only. Most games you will play on this laptop will be using the GPU more which has good thermals.

Price to performance: Legion has had a bad ratio of breakdowns and the Helios is a GREAT deal but has a bad battery life so can't be used as a decent laptop and will remain plugged in",felxmjp,suddhadeep,38w3ujux
"Each silicon is different, everybody cannot push it to -0.165. throttling is not much of an issue here but high temperatures are as the cooling system is not that great for Nitro series.

Considering price to performance ratio, you can always go with Helios 300 or Y540 over Nitro 7 anyday.",saikumar_23,kbpkzg6,felwoy7,"Nitro 7's thermal issues aren't much if all you do is just game.

Undervolt the cpu to -0.165. And try to adjust power management. The good part is the GPU does not throttle, so games don't slow down and the laptops battery life is great when you are not gaming. The thermals are only really problematic if you stress the cpu with some computation work where it goes to 90-94 without throttling",felvi95,suddhadeep,38w3ujux
"HDMI is outdated if you are using the monitor for gaming purpose as it will not push high refresh rate. 

Always recommend displayport as it's directly connected to GPU.",saikumar_23,kbpkzg6,fejt8z7,"Here’s something from the internet:

 Thunderbolt is one way of connecting a computer to a monitor, but it's not very common. The more popular options include VGA, DVI, HDMI, and DisplayPort. ... 

 And according to some research I guess so thunderbolt supports sound as well but it is said that there is no reason to go for Thunderbolt over HDMI. Both r currently same while before HDMI 2.0 was released, HDMI could only support 4K 30 FPS. But I assume that u use 1080p. I think so u should go for HDMI since it’s well known. It’s not that Thunderbolt isn’t but HDMI is more commonly used on devices including many T.Vs and Computers etc",fejs1ua,AStudentAndGamer,551oqxtz
"With hdmi or vga you cannot get high refresh rate, use display port or thunderbolt then you'll get high frames.",saikumar_23,kbpkzg6,feiy30q,And what about thunderbolt? Is that a way to display in a monitor? Is there an advantage in hdmi or thunderbolt?,feijtar,Fitiman,4xhdhck7
I second this.,saikumar_23,kbpkzg6,fea0kt3,bruh you're overkilling your ram...16 gigs is fine for everything... I'd suggest you invest that money on a SSD or something,fe9y1bk,mohitreddits,4kwcy9bb
"The only advantage with SSD in gaming is the loading time. No increase in fps or performance.. nada
256gb is more than enough for the os and regularly used programs like chrome, media players etc.

So you know the answer :P",saikumar_23,kbpkzg6,fea06lr,yeah man I've wasted a hell lotta time researching both of them...main thing I'm really confused about is weather to pick 1tb SSD or go with the 1tb hdd+256 gb SSD.,fe9wtki,mohitreddits,4kwcy9bb
"Haha. 
I missed the new year sale too but this time im ready with everything, as soon as the sale drops ill get it. 
May the force be with you too.",saikumar_23,kbpkzg6,fe7f7mh,"u saved my life, and parent's money.",fdk8t5j,Yugvijay,13r21q
I second this.,saikumar_23,kbpkzg6,fe75vj4,Predator Helios 300 for $1072 about $127 off. One of the best reviewed mid-range laptops. It has the i7 9750H/16GB RAM/1660TI https://www.amazon.com/Acer-Predator-i7-9750H-Keyboard-PH315-52-78VL/dp/B07QXLFLXT/ref=mp_s_a_1_3?keywords=Acer+Predator+Helios+300+Gaming+Laptop+PC%2C+15.6+inches+Full+HD+144Hz+3ms+IPS+Display%2C+Intel+i7-9750H%2C+GTX+1660+Ti+6GB%2C+16GB+DDR4%2C+256GB+PCIe+NVMe+SSD%2C+Backlit+Keyboard%2C+PH315-52-78VL&qid=1578902277&sr=8-3,fe6rry8,Chrononaught,elwt6
Subko maar dalo.,saikumar_23,kbpkzg6,fdmwbh4,Why not Far cry 4? Though I might inform you that NPCs will curse at you in Hindi.,fdlvxsc,jitu366,10dr6g
It was available for 99k on 31st Dec. Good luck with republic day sale (it'll be around 22nd) get it then.,saikumar_23,kbpkzg6,fdh6pml,damn whennn,fdcu2mh,Yugvijay,13r21q
"Flipkart announced a sale on new year, maybe Helios 300 will be available for its old price (99k) don't miss the chance. I'm with you in this xD",saikumar_23,kbpkzg6,fcj307l,yall going over 100k T_T,fcewvox,Yugvijay,13r21q
"Both of them (i7 - 1660ti varients ) were 99k until last week.
So gotta wait for the price drop again :(",saikumar_23,kbpkzg6,fcf053j,yall going over 100k T_T,fcewvox,Yugvijay,13r21q
Just get a Helios 300 or Legion Y540,saikumar_23,kbpkzg6,fcecm1y,"Actually, my birthday is in two months so I’ll just get myself a new laptop as a present",fcap8i7,SolarPhoenix0207,4dd7adzl
Link please. I'm looking to buy one,saikumar_23,kbpkzg6,f9hjs2y,"Nah mate, lowest was 64k. I got it from TataCliq.

Only catch, it came with a 60hz display.",f9aqzrq,_DrShrimpPuertoRico_,aok87iq
"Acer predator Helios 300 i7 9th gen, 1660ti varient is beast. I'm planning on getting one when i find a good deal.",saikumar_23,kbpkzg6,f9hjbfd,"Under 1 lac, thanks :)",f93h7j6,arvan_c,e08k90z
Is croma still selling it for 80k? I want it so bad for 80k but can't find a deal which is less than 99k. Share some info to help this poor lad please,saikumar_23,kbpkzg6,f9hgdxr,"Just a quick update! 
CROMA is selling it for 80k but if you swipe your CC on a Friday there's a 10% discount and they offer free goodies too 😬",f6p5osz,jaysnip,46gf0uif
Teaching grammar?,saikumar_23,kbpkzg6,f4f53p2,Wonder what kind of projects he is working on ?,f4dw52d,ravenstark007,yss0f
It's incremental update for you and full update for him,saikumar_23,kbpkzg6,f3e54an,It's 2GBs for you? The update is literally 113MB for me,f3e3vet,ShrillJuxtaposition,3fu6iop
This is fucking tentacular,saikumar_23,kbpkzg6,f3282r1,That is fucking spectacular,f324qtr,AuroraLaNora,42x6dcyt
I'm in india too but it's not showing any update in oxygen updater. Do we need to change any settings? Like incremental update or full etc.,saikumar_23,kbpkzg6,f11juyf,No don't do that. There's regional patches. Wait for the official one or wait for the updater one. I live in India and I got it last night.,f11jn1j,anshuldwivedi,16ln2n
Which location are you in? I'm not getting android 10 in my oxygen updater. Maybe I'll try changing location to yours with vpn,saikumar_23,kbpkzg6,f11j9rj,Just tried doing both and it works fine on my stable build. I downloaded from Android 10 from oxygen updater app.,f0zdnjl,anshuldwivedi,16ln2n
"Camera design is same, they just added a new sensor",saikumar_23,kbpkzg6,f0zen0e,"Camera design is different and it's .o2"" smaller display with 2 less ppi. Not big differences but definitely not an upgrade",f0z0p5d,Cedric509,16xzqy
"Personally I prefer Spotify over YouTube music and I'm using a 2160p display so it's great to see the content in UHD. You'll also get PIP mode, swipe volume and brightness controls and background playback  with YouTube vanced. In my opinion the only useful thing i'm gonna gain over premium is no ads.",saikumar_23,kbpkzg6,f0xrrvf,"IDK about 2160p but I have YouTube Premium so I don't get ads anyways. Honestly, it's worth it if you can get a few people on a family plan since you get unlimited music streaming and ad-free YouTube among other things. I think it's like $12 a month split between 5 people. There's also a student plan not sure how much that one is though.",f0xrg3u,LinkofHyrule,5w1z0
But you cannot stop those annoying ads and play 2160p videos in native YouTube.,saikumar_23,kbpkzg6,f0xrbwu,I never really understood the point since you can get most the features natively in normal YouTube but ok I guess.,f0xr9n3,LinkofHyrule,5w1z0
To install YouTube vanced?,saikumar_23,kbpkzg6,f0xr82n,Why would you even want to disable YouTube?,f0xhi0i,LinkofHyrule,5w1z0
Best in android but nowhere near to iOS.,saikumar_23,kbpkzg6,f0vcz64,On par I'd say. Maybe iOS are a little better.,f0vb5pj,3dsm1th,iik1yia
Yeah that's the one but can't find it anywhere,saikumar_23,kbpkzg6,f0iczv1,"The screaming type of music? 

I Shazamed it last week and its called “You’re not God but Anna Calvi” 

It’s not anywhere on the Internet, that I’m aware of though",f0ibxe1,NortheusYT,3d67d4yi
Wondering about the same and please don't forget to reply if you find it.,saikumar_23,kbpkzg6,f0ians1,Any ideo of the songs in this episode?,f0ff2jd,Innocentdinosaur,smy5l
I don't know whether they are stupid or not but he's pointing out the facts.,saikumar_23,kbpkzg6,ezvdt7i,Stop with the stupid theories. He’s not getting blackmailed now please stop,ezvccja,23jfrench,46fd65fl
No buddy not possible. The edge isn't that curved,saikumar_23,kbpkzg6,ew6074d,"On this topic, thinking of PUBG and switching from iPhone

Has anyone successfully placed the fire and aim buttons on the top edge of the curved screen to mimic a shoulder trigger...

Its like using claw, kinda... By looking at the OP7 Pro photos I cannot stop thinking that it is doable

Can any PUBG player with the phone confirm? (sounds silly but actually would inspire me to switch)",ew5jryt,Ryltar35,455pwu5e
Thank you and any idea about how to transfer WhatsApp chats?,saikumar_23,kbpkzg6,evq24xl,Yes,evq0p60,irauld,3tlke6b6
Using OnePlus Switch right?,saikumar_23,kbpkzg6,evq0nsh,"That did not transfer IDK why but pics, contacts all that transferred.",evq0llu,irauld,3tlke6b6
What about messages?,saikumar_23,kbpkzg6,evq0in1,What they said. I just picked up my OP7P and it took me about 8min to get everything from my iPhone over to my OP.,evg5acs,irauld,3tlke6b6
If you love old-fashioned then try fossil q hybrid,saikumar_23,kbpkzg6,eua3af0,"I am looking for a good smartwatch to go with my 1+ 7 Pro but haven't fond one I liked. For now, I'm wearing my old-fashioned Citizen watch daily.",eu9wuz3,Jackarino,139q4o
And the video is on internet.,saikumar_23,kbpkzg6,eu7r8jp,My favorite part is the guy filming does nothing,eu7i1cq,TerribleAdviceHere,o21ota9
Thank you for opening my eyes master.,saikumar_23,kbpkzg6,et3e88a,i'm more interested in the dude in red shorts in full on plug walk mode,et37o2c,heh9001,1ir5rojf
"I think you don’t know much about ios.
Android may have many features but it’s never as secure as iphone and have you ever seen the benchmarks of the cpu? Apple is way ahead but the usage is restricted by the os and i use 4 year old iphone which has just 2gb ram but i can play pubg on high setting ( phone heats up ofcourse but not much).
Ram management is very good on ios, with this 2gb ram I’m able to keep pubg in the background and do a few tasks which is morethan what i can ask from a 4 year old phone
Android phone’s performance degrade with time ofcourse but apple not much

In your earlier comment you said we cannot change os in apple phones but so does android, the thing is you can only flash new ui which is based on android but cannot change the os

You can also root an iphone  ( jailbreak ) and get all those features android has.

Man the fluidity of ios is just awesome, you cannot get it even with the phone like oneplus 7 pro with best android os and 90hz screen.

I use both phones the reason i chose android is for the many features and less restrictive os and the reason for apple is better security, optimised apps ( snapchat and instagram are shit in android, so does many apps ) and the fluidity.

Sorry for bad English and wrong punctuation",saikumar_23,kbpkzg6,esnpq58,"I have seen tests and phone with more amount of ram always won if they were from the same era (aka 1yr vs 1yr old etc.). And as I said iOS is restrictive you can't do even half what's possible on android, and it's the price you pay for what you said. Android is open source and you can do whatever you want with it. Ios doesn't even come close to what you can do on android. Even simple tasks like emulation are impossible on iPhone because apple decided that it won't be a thing. On android no matter what Google says they cannot restrict users like that. Where as in ios, it's apple that decides what you will be able to install and how you will use the phone",ese9le5,Qik00,m4dvmgv
"Don’t forget the fluidity of iOS.
Android has many great features but fluidity isn’t one of them after using iPhone it spoils you coz android ui stutters compared to ios",saikumar_23,kbpkzg6,esnoykn,I mean how many times have the police had to ask Apple to get into old iPhones. How about samsung? Google?,esghpii,Dilka30003,1e7c35a3
You’re not the only chosen one.,saikumar_23,kbpkzg6,er42681,My idiot brain didn’t see the comma and read this as the beginning of a weird article.,er3vtv7,chaotic-stupidity,2rcbe75v
K...,saikumar_23,kbpkzg6,eqohbnt,Kean....,eqogkfn,cjrocks1231,3c9t7nm
Slapass!,saikumar_23,kbpkzg6,eq46qq5,"source??? Because USA has far, higher emissions per capita than China and India combined [https://en.wikipedia.org/wiki/List\_of\_countries\_by\_carbon\_dioxide\_emissions\_per\_capita](https://en.wikipedia.org/wiki/List_of_countries_by_carbon_dioxide_emissions_per_capita)",eq44ujj,thewirereal,xx5blth
Man tcs is a joke just like any other service based company. The same is happening with me no replies or late replies bla bla and legally they cannot do anything morethan collecting bond amount( which will be mentioned the service agreement form) and  making you serve the notice period. Value momentum is also a reputed company so I don’t think they’ll pull out some shady act.,saikumar_23,kbpkzg6,ep6vpof,"Tcs is a well established company also the bond is of one year, with 50k amount , The HR is not clearly stating what happens if i break the Bond , they don't reply through mail and when thry reply they do after weeks and then they don't pick calls.",ep6unh4,godAKS,3ffmietl
"Few service based companies do ask for the original documents and about the company, mostly you’ll get a support project as 90% of the projects in our country are support projects only (only in service based). 

And don’t worry about those documents even tcs is asking me to submit",saikumar_23,kbpkzg6,ep6tjmy,I applied through Cocubes and was selected through there!  This company didn't came in my college i went to different city to attend the event.,ep64bqz,godAKS,3ffmietl
This comment made my day! xD,saikumar_23,kbpkzg6,eocmnz9,Well even hackers need to train.,eobpb1z,Lokijai,15cuty
Watch,saikumar_23,kbpkzg6,en3hp9q,I’ll,en3gft7,Thefantheo2,2r9cy472
Same here!,saikumar_23,kbpkzg6,eh9llfc,Its still broken. Ive run restore rootfs on my iPhone X and i still get the respring loop,eh8snkn,drewlap,13mkon
"In his 845 matches he won 571.
By considering he’s not dead in most of the matches that he won his deaths decreases and k/d increases",saikumar_23,kbpkzg6,ee3zne7,">He just never dies and his team always wins.

really? *NEVER dies?* *ALWAYS wins?*  
thats your best guess? really?",ee3ukk8,geradical,989tegf
Yep,saikumar_23,kbpkzg6,e7e3lnj,I'm guessing this is iPhone only?,e7e3kvq,Rackmo,zqabo
Really? o.O,saikumar_23,kbpkzg6,e5ubz8m,"japan ios
it's here!",e5ubv9g,mikey-mooth,1ev2vilt
"Nope
This feature is only on iPhones with 3D touch support ",saikumar_23,kbpkzg6,e5hjlce,Cant see this option on my device... is this chinese version?,e5hgz2o,alt_air,1hvdbyb4
"I tried :( no use
I even tried no substitute ",saikumar_23,kbpkzg6,e3vriqr,"After installing the Liberty Lite tweak reinstall the app, it works",e3vernw,nkvamsi,nqlr2tm
No use :(,saikumar_23,kbpkzg6,e3vbccq,Try [[NoSubstitute (Electra)]] or [[Liberty Lite]],e3vaq6l,iJailbreakGeek,1jibibp7
"Y'all don't know about time zones or what?

The countdown has finished and still unable to select war mode",saikumar_23,kbpkzg6,e30w20u, Y'all don't read good or what?,e30n1n6,ArdyAy_DC,15n0k0
"Exactly that's what i wonder, Can't people read before posting?

He clearly mentioned the countdown has finished and he's able to select the war mode. Aaarg!! 🙄",saikumar_23,kbpkzg6,e30vhe1,"Can't people read? It clearly says Tuesday, Thursday, Saturday and Sunday only (in UTC)",e30s9e6,tryh4rded,yyxk6wi
"It used to be 900MB during it's initial release
Now It's 2.2 GB after just 3 updates 

I wonder what's my future going to hold? xD",saikumar_23,kbpkzg6,e2yit0m,"It’s a bunch of new content. A new crate, new finishes, the new achievements, etc.",e2yi6fd,CKnight011,10jgx3
I'd rather pay more and Git an 256GB iPhone than android,saikumar_23,kbpkzg6,e2yiktx,Git android.,e2yhqu8,UsmanSaleemS,17gmt9
"Your repo is no longer working! :(
Please help me",saikumar_23,kbpkzg6,e2c0gko,"Helllo there!  I actually helped make that tweak with Ziph0n. :)

If you use Flex 3 beta (Repo: http://getdelta.co/) then try any of the following patches...

- [ButtonDisabler - Volume Down Button (iOS 10)](http://getflex.co/patch/ButtonDisabler-Volume-Down-Button-iOS-10/app/SpringBoard/id/38298)
- [ButtonDisabler - Volume Up Button (iOS 10)](http://getflex.co/patch/ButtonDisabler-Volume-Up-Button-iOS-10/app/SpringBoard/id/38297)
- [ButtonDisabler - Volume Buttons (Both) (iOS 10)](http://getflex.co/patch/ButtonDisabler-Volume-Buttons-Both-iOS-10/app/SpringBoard/id/38299)

Or alternatively you can use the standalone tweak versions from /u/ipad_kid 's sinfool repo: (http://ipadkid.cf/sinfool/).

- [ButtonDisabler - Volume Down Button (iOS 10)](http://ipadkid.cf/sinfool/list.html#38298)
- [ButtonDisabler - Volume Up Button (iOS 10)](http://ipadkid.cf/sinfool/list.html#38297)
- [ButtonDisabler - Volume Buttons (Both) (iOS 10)](http://ipadkid.cf/sinfool/list.html#38299)",e0beyma,sinfool,cro9n
There are few tweaks that allow you to do that but your device must be jailbroken.,saikumar_23,kbpkzg6,e1pr2rp,How about haptic engine? Is there a way to make my iphone vibrates when I shoot?,e1pqlfr,__zz,1122vf
"After looking at all of your replies i think i should give it a try.
Anyway thanks for your suggestion.",saikumar_23,kbpkzg6,e1pdhe4,"Oh, so your fire button was further away. I see. So are you going to give it another go ? I mean you already played with it 3 days so it's not that hard to get back into it. I'm just trying to push it because I really enjoy it and I think all players that want to climb to high ranks and be competitive should use it.",e1olib2,Liutauriux,11c9tt
3D Touch uses capacitive sensors integrated into the smartphone's display to sense three degrees of pressure in a user's touch and respond differently based on the amount of pressure exerted.,saikumar_23,kbpkzg6,e1pdcvu,What does 3D touch do?,e1pcp2t,steeven_c,1hi2qk19
Yeah I'm going for Ace now.  :),saikumar_23,kbpkzg6,e1pd8os,It is very uncomfortable at first for sure. That’s awesome too man keep grinding! ,e1onlf2,lewkyy,1bkblhyt
"Nope, 😅 I didn't change the position of Map.",saikumar_23,kbpkzg6,e1oi9yw,"Maybe you had your controls set up badly, do they look at least similar to this?

https://imgur.com/a/VQARfja",e1ohqvm,Liutauriux,11c9tt
"3 days i think.
It's hard to reach the fire button with my index finger",saikumar_23,kbpkzg6,e1ohejr,How long did you play claw for ?,e1oha5p,Liutauriux,11c9tt
"Thankyou so much!
You're a lifesaver ",saikumar_23,kbpkzg6,e0bf0io,"Helllo there!  I actually helped make that tweak with Ziph0n. :)

If you use Flex 3 beta (Repo: http://getdelta.co/) then try any of the following patches...

- [ButtonDisabler - Volume Down Button (iOS 10)](http://getflex.co/patch/ButtonDisabler-Volume-Down-Button-iOS-10/app/SpringBoard/id/38298)
- [ButtonDisabler - Volume Up Button (iOS 10)](http://getflex.co/patch/ButtonDisabler-Volume-Up-Button-iOS-10/app/SpringBoard/id/38297)
- [ButtonDisabler - Volume Buttons (Both) (iOS 10)](http://getflex.co/patch/ButtonDisabler-Volume-Buttons-Both-iOS-10/app/SpringBoard/id/38299)

Or alternatively you can use the standalone tweak versions from /u/ipad_kid 's sinfool repo: (http://ipadkid.cf/sinfool/).

- [ButtonDisabler - Volume Down Button (iOS 10)](http://ipadkid.cf/sinfool/list.html#38298)
- [ButtonDisabler - Volume Up Button (iOS 10)](http://ipadkid.cf/sinfool/list.html#38297)
- [ButtonDisabler - Volume Buttons (Both) (iOS 10)](http://ipadkid.cf/sinfool/list.html#38299)",e0beyma,sinfool,cro9n
"Add Modmyi repo to your sources.

On the main page of cydia there’s a more sources tab  under there you will have an option to reinstall the default sources. 


When trying to manually add the default sources it won’t let you. Only way is the more sources tab on the front page of cydia",saikumar_23,kbpkzg6,e0adou7,Did you find it !? I need it. Same problems ,e0a327o,f0llows_you,zp5mt
