child_body,child_screen_name,child_user_id,child_tweet_id,parent_body,parent_tweet_id,parent_screen_name,parent_user_id
This is an older photo when he was thinner. Still epic though.,SeriousBlak,tch1g,fk4ozbq,kinda weird you lads photo shop him to be thin but whatever.,fk4nd47,toro682,lfi5obb
TVH is the best OG trek film of all.,SeriousBlak,tch1g,fk2l8z6,"I watched the first two JJ movies then TOS. I **hated** the third JJ movie because they didn't feel anything like the classic characters. Spock said ""Live long and prosper"" like once in TOS but much more frequently in the movies.

But also, the new movies will never be as good as The Voyage Home.",fk2jkma,MZago1,4eour
Chapter 11: Roasted Night Bird,SeriousBlak,tch1g,fk2l3ja,Chapter five: baking pizza in a 250F oven for ten minutes when it should cook for 90 seconds in a 900F oven.,fk2h672,SnowblindAlbino,7ild5
We do not know where Chakotay is during the time of the new Picard Series but we can be damn sure that Chakotay is far from the bones of his people.,SeriousBlak,tch1g,fk1tfnd,"Chakotay hasn't shown up. I don't want to spoil it for you, but let's just say I never expected an exborg who was a Borg as long as she was would assimilate (for lack of a better term) well into normal human society. I think they captured where she would end up perfectly, considering her only experience with humans post-borg was beyond the frontier of explored space with a ship half-full of terrorists.

But yeah, Chakotay and 7 was a very forced relationship. Hollywood had a bad habit of doing this ""let's have the two beautiful people hook up"" trope, and it really ruins a lot of plots.

 Also, Chakotay was also a boring character. You're telling me a man who grew up in the jungle exploring ancient rituals and then became a leader in a terrorist organization would end up being nothing more that a boring version of Riker? I'm not buying it.  We have plenty of calm, collected Star Fleet officers to play the straight man, Chakotay should have been a serious lose cannon who Janeway learned to reign in over time.",fk167qt,Lost_vob,inltud3
r/murderedbywords,SeriousBlak,tch1g,fjmal1o,Probably the longest piece of meat she's had in years.,fjm8nyp,NoJudgementTho,2hqh5ljo
*chick flip,SeriousBlak,tch1g,fjlyweh,Do a kick flip.,fjlv29w,SlarvingFartist,4v0lu3c1
Freedom 45!,SeriousBlak,tch1g,fjlyiio,That guy looks like Julian from TPB if he ever got away from Ricky.,fjlslsq,CHFCalvin,5heiiw9i
I thought it was just for me because I'm at work and my job tends to block anything political on youtube that it was some kind of spillover.,SeriousBlak,tch1g,fjl01hb,is thedonald.win down for anyone else?,fjkq62l,panamasucks,5t4y28gn
They said the exact same thing in 2016 about Crooked Hillary. How’d that work out?,SeriousBlak,tch1g,fjgwya0,Why? Because of the way you feel about the situation? All the data we have says he will. Look at the primary results and turnout and tell me that's not the exact person we need to run to beat Trump.,fjgwb19,yeahsureYnot,s876h
I don’t give a fuck about karma points. Especially here in the leftist echo chamber of r/politics,SeriousBlak,tch1g,fjgug6r,Don't say that here if you care about your karma lol,fjgt9up,CartonTRoyals,i2bfe
"Hell fucking yes!

#MAGA",SeriousBlak,tch1g,fjfw72t,It was a relief to watch the communism movement in the US wither away tonight.,fjfw37e,Vote_for_Dahnald,11upms
#MAGA 🇺🇸,SeriousBlak,tch1g,fjfuzbj,"If you aren't a bot or a troll:

If you honestly think just because Biden ***might*** win the nomination that means Trump is an automatic win in November.

Then you never had any real desire to vote in the first place. YOUR negativity is what's causing the problems we are having right now. YOUR inaction, or just typing on Reddit and doing nothing else, is partly why we got to this place the first time in 2016.

Stop being so fucking bitchy cause one of your candidates didn't fucking win. Stop being so god damn petty because one old man lost to another old man.

If you want the kids out of cages, if you want the courts to stop being packed that'll effect you forever, if you just want to make sure you have a god damn future in this country...Just fucking Vote Blue.",fjfuwx0,NextChamp,qe0n0
As a Trump supporter I still find this hilarious.,SeriousBlak,tch1g,fjfswuc,"""I don't like Peach. I don't like princesses who get captured, okay?""",fjf6tkx,AdmiralAkbar1,bunli
Oh fuck I didn’t even check. Wow... they’ve actually done it.,SeriousBlak,tch1g,fj5jsrn,They were locked on half the front page posts.,fj5jovy,HartianX,zm9q5
Doubtfire reference. Nice.,SeriousBlak,tch1g,fiy8n0i,I... Am.... Job.,fiy7txu,SuperZu78,9ke20
This is what America is all about. We don’t have to agree on the issues but we can all agree that we have a right to voice our opinion. Thank you Democrat internet Stranger.,SeriousBlak,tch1g,fixdwwk,"I'm a Democrat and I think this is bullshit. I popped in here because I heard this was happening on another sub. These people are already quarantined. They are entitled to support Trump and entitled to talk about their support of Trump with each other. You're obviously making up bullshit as a pretext to replace their mods with leftists who will hijack the sub. They're just going to make another one, and meanwhile you're making yourselves look bad and engendering sympathy of free-speech liberals like me toward a group I otherwise consider opponents. Check my post history if you think I'm lying. This is my one and only post on this sub.",fixcsnx,Thin_White_Douche,5e5o0ssq
The numbers don’t add up,SeriousBlak,tch1g,fixdfpl,I posted this before the approved submitters point. Your just paranoid. Youve all gone insane. Im just a pede.,fiwhrnq,mddet,u8a14
Wtf,SeriousBlak,tch1g,fiw7k8j,Same. ❤️DM ME CALL ME,fiw6e0b,ella101,5fmr8
This needs to be the top comment.,SeriousBlak,tch1g,fiv6774,Shouldn't this post be in Chinese?,fiv5nlx,Midwester,9994y
I feel like it disqualifies 99.99% of everyone on reddit,SeriousBlak,tch1g,fiuviin,"This canary is meant to show when the current mod team of /r/The_Donald is no longer in control of /r/The_Donald. As you can see, the Admins are working to take over the subreddit by posting mod applications that disqualify 99% of the community. When this canary is gone, /r/The_Donald is gone. Trust only the canary.",fiuq2m9,lalicat,5p1fu
#MAGA,SeriousBlak,tch1g,firbnsw,"No matter how hard you try, Trump is taking it by landslide this time.",firb8x4,RaceCarRIGHTNOW,5gbh1kl4
Approved mods? isn't reddit a *public* forum???,SeriousBlak,tch1g,fir953v,Please press F for the good mods who were removed.,fir4huf,SheGuevara2020,36ypmy0u
Wasted,SeriousBlak,tch1g,fiixdcy,Meghan McCain isn't gonna run,fiiw1z2,Psyk0Tripp,7she142
I’m not even mad.,SeriousBlak,tch1g,fiivuaw,"The DNC tactic has *always* been to slow boil the American people into socialism .. slowly, so as to avoid the open debate of capitalism vs socialism.

Bernie's candidacy allows Trump to run against socialism/communism. And the loss will set the dems back several decades.",fiivqf9,Toughsky_Shitsky,13mnkb
Nice,SeriousBlak,tch1g,fi8nqpe,69 nice,fi8hv57,curbstomp1993,58o1rt
Damn dude... too soon.,SeriousBlak,tch1g,fi7kdy5,Captain Nog? Commander Nog? ... Admiral Nog?,fi7ci7y,NickRick,7614y
Zemo sure didn’t.,SeriousBlak,tch1g,fi5vbzl,"Sokovia, Never Forget.",fi5v8kc,Trumposaurus,vsjtk
The one good thing W did was shut the fuck up when Obama was POTUS. Nobody wanted to hear from him and he respected that.,SeriousBlak,tch1g,fi2rkwi,"The fact that he even said this just shows how weak and insecure he is. Every president previous to him has traditionally left the public eye and refused to criticize the sitting president. Obama is a fucking egomaniac who is trying desperately to save his ""legacy"". 

He knows his legacy is dogshit, so he has to keep relevant in order to continue his bullshit propaganda. A real president fucks off and lets his record speak for itself. Obama is fucking Kenyan garbage.",fi2k613,Motafication,4w4z4
Shaka,SeriousBlak,tch1g,fhykbxr,"Nog and Damar

At DS9

When the shields fell",fhyddxv,Tom_Zarek,925x7
Fun and Fancy Free,SeriousBlak,tch1g,fhrg96p,What is this from?,fhrex56,Deneetro,rvwd76u
Ezri please! She’s my favorite,SeriousBlak,tch1g,fhqqtgc,"It's not Picard, but given the numerous Trills showing up in Discovery season 3's trailer I wouldn't be surprised if a Dax showed up there.",fhohe84,Chindasuinth,5dvmkuic
Is mayonnaise a gender?,SeriousBlak,tch1g,fho9buc,Why not? Everything else is.,fho8l2c,Bearsquare79,5hdscpt
I’d be so happy to see Miles,SeriousBlak,tch1g,fhmyae5,Miles would be great.,fhmu0np,jmsturm,wadq2
I don’t count Worf as he was a headlining TNG cast member. However I would count Miles as he was never headlining on TNG,SeriousBlak,tch1g,fhmokil,lets me fair it's going to be worf we all know that's coming.,fhmocjg,Wrathuk,bz7zk
CA,SeriousBlak,tch1g,fhla2rd,What state,fhiy4e0,thesavage68,5f7hbdtc
Even when I play as Light Side I complete this quest for the XP,SeriousBlak,tch1g,fhhzob7,"That's why I killed bendak starkiller, he died in battle doing something that he loves instead of some explosion",fhhzaeo,Sissinou,1i322m45
"Listen, fat.",SeriousBlak,tch1g,fhei4gu,Biden is a closet republican just like Gabbard.,fheh8hi,POLITICAL_STATS_BRO,4dqduqm8
I think they’re real tears because she knows she doesn’t stand a chance,SeriousBlak,tch1g,fguyoc1,Holy shit is she about to fake cry,fguymio,RedJourney23,537bvhn9
He’s got billions. Nothing to stop him from doing so.,SeriousBlak,tch1g,fguxjij,"If Tom Steyer wants reparations so badly, why doesn't he just go to some street corner in Baltimore or Detroit and hand out $100 bills?",fguxbj3,xkulp8,kcxez
He’s gonna have to drop out on Wednesday anyway,SeriousBlak,tch1g,fgux6gi,I wouldn’t blame yang if he just doesn’t come back.,fgux4ir,cyberworm_,9h5ru
But can they take the D?,SeriousBlak,tch1g,fguwtu5,"They cannot take the L, or give Trump a win.

Fuck these traitors.",fguwr27,el-y0y0s,kgb92
I’m not even mad,SeriousBlak,tch1g,fguue73,Is the moderator wearing a see-through blouse under her jacket?,fguu97i,ElectricTurtlez,flyry
Some of the moderators did I think,SeriousBlak,tch1g,fgutywx,#Has anybody told the truth yet?,fgutui6,webthing01,thnly
Can’t blame her,SeriousBlak,tch1g,fgutcu7,"Nah, she hates him.",fgutakc,cyberworm_,9h5ru
And zero mention of *China*,SeriousBlak,tch1g,fgurgeq,pool our resources globally....Bernie is a GLOBOCOMMIE,fgurdis,pray_for_kekistan,lea1s1i
Please clap!,SeriousBlak,tch1g,fguqt6d,No applauds for Biden's rant,fguqqi3,stjdalen,4fe1n3
"Yes, he should be back at the home.",SeriousBlak,tch1g,fgup6gc,"Aww, I do feel a little bad for Biden. I know, I know, he's corrupt, but I'm sorry, I'm a nurse and I care about people.",fgup4p7,HeWhoCntrolsTheSpice,174ayx
"To be fair, it only bothers the left",SeriousBlak,tch1g,fguob2h,"To be fair, we're listening to our billionaire",fguo9fr,BergenCountyJC,e0cxh
I’d die of alcohol poisoning,SeriousBlak,tch1g,fguo93l,Drink every time Steyer says stupid,fguo3z8,MajorGhost2,11tk8i
She’s mega nervous. It shows so badly.,SeriousBlak,tch1g,fgunvie,Amy sounds like she’s about to cry,fgunt69,MajorGhost2,11tk8i
New maps have been made in SA without Criterion. Every asset they need is already there for gameplay. New maps or modes would be a breeze.,SeriousBlak,tch1g,fgubo10,Please don't. Criterion is gone and SA has never been as popular as ground based modes. I'd rather get more maps and skins than anything SA related.,fgub5x8,Bernie_Berns,2wdz43ra
https://www.youtube.com/watch?v=5ufh8fctr3o,SeriousBlak,tch1g,fgube86,"It's like saying ""I thought humans stopped drinking by this time in the future"". Why? People can still enjoy it in the future, just like sex or taking a nap.",fgub9i3,31337hacker,22pshr2z
As I walk through the valley where I harvest my grain,SeriousBlak,tch1g,fgl1yv5,I would love to see weird al fucking kill a half time show! Amish paradise....right?,fgkruat,Alaska_Pipeliner,4dv7d70c
To eat Big Gay Ice Cream while standing on a box?,SeriousBlak,tch1g,fgjus7z,"Yo, what is Bloomberg’s plan?",fgjuhy5,Brooklyn_MLS,wnyjd
"""Hey! Listen, fat.""",SeriousBlak,tch1g,fgjfvag,"He doesn't want your vote anyhow, go vote for someone else! /probably what Biden would tell you",fgj8evi,necrotica,53ruf
"Zoidberg, you crafty consumer!",SeriousBlak,tch1g,fgip523,I'll take eight!,fgh5jeo,Talose,elip8
Yep. I’m sure they’ve got it set and ready to go right after the impeachment fails.,SeriousBlak,tch1g,fgho6ux,Get ready for the Turkey hoax thats sure to come up soon.,fghnyo6,jubelo,78p78
At least the Ukraine hoax made them forget about the russia hoax 😂,SeriousBlak,tch1g,fghgbox,They said the same thing after the Mueller report.,fgh8484,littleirishmaid,i3d84
Southern Strategy is a MYTH: https://youtu.be/UiprVX4os2Y,SeriousBlak,tch1g,fg5ot27,Republicans haven't been this excited since Lee Atwater deployed the southern strategy.,fg5ola9,Malaix,uiuvv
We’d love some new Starfighter Assault content. Please!!!!!,SeriousBlak,tch1g,fg4qzc3,"I've been reading this thread, but sadly I do not have anything additional to add right now. The moment I do, you will be the first to hear about it.",fg3jw1y,F8RGE,u6ovg
Very true... the Democrats *are* corrupt.,SeriousBlak,tch1g,fg3nir9,"What does it being split across partisan lines even mean? It’s not an argument, either one side is completely corrupt/oblivious, or it’s the other.",fg2nkrf,Taser-Lag,36jwf8m8
It's the perfect gift to say 'I love you',SeriousBlak,tch1g,fg0om8g,I liked their spatulas so much... I bought the company.,fg01r33,zomb13clown,ko3kv
super bombad?,SeriousBlak,tch1g,fg0ne8n,This is not okie-dokie,fg0k98x,the-SG,386yt9xc
Yea let him testify. Let everyone testify. It’s all good,SeriousBlak,tch1g,ffr2fim,So you ok with Bolton testifying?,ffqzmns,Azlend,gjkeq
"Ravi Zacharias, Based Apologetics Merchant",SeriousBlak,tch1g,ffqo3wa,"Here’s something I heard from Ravi Zacharias during a speech: 

Why do people get sadder when children or young scientists or bright college students die, and say it’s because of their unrealized potential? What about the baby in the womb of mothers who choose to abort them? Aren’t they also unrealized potential? The fact that the fetus has the potential to become a human being already gives them rights.",ffqdyu3,miggyyusay,12atho
To clarify... is there a “best of” video so I don’t have to watch the full 4 hours?,SeriousBlak,tch1g,ffizh3z,It was live streamed everywhere. [Here’s Fox.](https://www.youtube.com/watch?v=Tz52gS2KkfY),ffij6rd,pulledoutthe3rdleg,6qj1h
Google wouldn’t dare let that video show up in any search they provide 🤣,SeriousBlak,tch1g,ffgp8nc,I was only able to find the video by searching on bing.,ffgjtib,Violent_Blue,13837u
It’d be funny if this didn’t actually happen,SeriousBlak,tch1g,ffgbc5l,"Camera cuts back too fast:

whispers: *now say... america is great because we are good...*

puppet: WELL I JUST THINK HILLARY DID SO GREAT, SHE THINKS AMERICA IS GREAT BECAUSE WE ARE GOOD

___

Well you heard it here first- now back to you, Evan.",ffg1fby,Violent_Blue,13837u
You're an all star...,SeriousBlak,tch1g,ffd5z6x,Hey now...,ffd2i3j,MBKUltra,129jna
Yep he is.,SeriousBlak,tch1g,ffd5rqy,wait this motherfucker actually admitted to making up that conversation? Jesus fucking christ,ffd31mb,Icy-Move,5cbagsor
Executive Privilege only applies to Democrats I guess.,SeriousBlak,tch1g,ffd1k7c,The president can get advice from anyone he wants.,ffd1gup,mixednuts83,6ta73
His crime is wrong think,SeriousBlak,tch1g,ffczgju,How the hell could you ever say THIS is the worst charge ever brought against a president. Are you insane?!?!?,ffcoh9i,Rittmeister7,jvbfo
Agreed,SeriousBlak,tch1g,ff5bwgc,I wouldn’t go shooting with that guy again he seem unstable,ff56wzd,PresidentialMemeTeam,3v2dnrtv
No not this one. The Joe Biden thing. You have nothing to apologize for my friend.,SeriousBlak,tch1g,ff4q91t,Oh sorry I was browsing the sub for like 20 minutes so I would have missed it,ff4q6hx,Avdeya,37pnbmdh
Yes! I just made a post about it a moment ago.,SeriousBlak,tch1g,ff4q58l,"Also in Tech, they’re turning on Biden like it’s the next big thing.",ff4po0y,Avdeya,37pnbmdh
https://youtu.be/3DbE2SmV2bs,SeriousBlak,tch1g,ff37wwz,Wait till he hears about the army.,ff2xxvf,kalel1980,crund
"Where’s my burrito!?

Where’s my burrito!?",SeriousBlak,tch1g,fet7t9b,Dental plan......,fes1ptg,joestabsalot,apdxq
"Ok I’ll fix it

Roses are red, some piano keys are African American

Sorry illegals but you’re not allowed to come back here again.",SeriousBlak,tch1g,fepjf6g,"Black?

Racist bigot!",fepgekd,ShampagnePapi,1068f8
He’s such a badass that he’d buy one of them and then use it to sign some executive action to which she’s opposed.,SeriousBlak,tch1g,felmtd7,"No doubt Nancy Pelosi will try to auction off those pens she used for signing the impeachment articles- fundraising at the expense of Trump the duly elected 45th President of the United States.

She and her cabal are the swamp.",felmmj5,johnfox13,c6xqi
this guy Reddits,SeriousBlak,tch1g,fel12d6,"""Employed people tend to want to keep the money they earn rather than having it taxed and given to others.  This is an existential threat to our democracy, and possibly even a constitutional crisis.""",fel086w,PM_ME_UR_YARD_GIRL,4tqs11gd
Rob Schneider is a national treasure and we need to make sure that we all support his works.,SeriousBlak,tch1g,fekslb1,Didn't John Hughes attempt to molest him?... Rob Schneider is very relevant to our times.,fekshto,rimper,pcqxy
Holy fuck you’re supposed to roast him... not Murder him.,SeriousBlak,tch1g,fefkcqn,"Your face says divorced

Your body says ""from my waifu""",fedtjur,Spiceinvader1234,246worf
Thanks! I wanted to make sure that before I purchased the family plan that I wouldn't get screwed on the plan I already owned since I did it for a whole year back in September. You were very helpful!,SeriousBlak,tch1g,fee8wnf,"Purchase it via the system eshop. It will automatically pro-rate your existing subscription into a discount on the Family Plan.

[The exact calculation of $ = time remaining can be found here.](https://en-americas-support.nintendo.com/app/answers/detail/a_id/41203/~/information-on-changing-a-nintendo-switch-online-membership-type-%28individual-or#DT:t1-q1a1EP:t1-q1a1-c) Which is roughly $0.05 per day remaining.",fee8j7j,TemptedTemplar,q1t6u
Hulk.gif,SeriousBlak,tch1g,fdtk3dj,"Client didn't fall, I see that as a win.",fdqplxf,estemar,5klpqli
Filling a gym would be an improvement. Looks like they can’t even fill half of a single tennis court.,SeriousBlak,tch1g,fdt22f7,"2016 all over again, Trump fills arenas and dems can't fill a gym..",fdssuud,Whimsicl,pbt5s
Exactly why I voted for Trump,SeriousBlak,tch1g,fdpohk7,"Yup, both Bush and Obama where no friend to freedom.",fdp4we7,rbgnr111,zdhq6
Thanks!,SeriousBlak,tch1g,fdmbcej,"He is a lefty moron who works for the New York Times (but I repeat myself) and is allegedly an economist but is always wrong and driven by an agenda. Trump has personally called him out as a hack. I'm going to post one of those tweets in a little bit.
Does that help? Let me know if you need more info.",fdlpxov,Mrs_Fonebone,a3119
Agreed. Iran can go eat a bag of dicks.,SeriousBlak,tch1g,fdieybh," \- **We are not lawless...**

I think those homosexuals hanged in the street would beg to differ.",fdhqf12,Green117v2,hlzun
When is that?,SeriousBlak,tch1g,fdh7c5d,Probably when the OT content comes around,fdgyp4y,OnionGod181,19yo65xz
I hate sand.,SeriousBlak,tch1g,fdh76mk,I love democracy.,fdfqj10,Baron_Flatline,ju9ji58
https://www.wsj.com/articles/u-s-sent-cash-to-iran-as-americans-were-freed-1470181874,SeriousBlak,tch1g,fdcaeqg,"Their own money.... Seriously just google ""iranian frozen assets""",fdc8pl0,sandwooder,2zkjl7cf
Obama literally handed them billions of dollars in cash.,SeriousBlak,tch1g,fdc8l3s,You mean unfroze Iranian assets?  You know like their money.  How long do we have to keep hearing these uninformed chest thumping comments.,fdc8c1f,sandwooder,2zkjl7cf
Do you hate Trump so much that you’ll defend Al Franken assaulting a woman!?,SeriousBlak,tch1g,fbey1ev,"Of course he's miming for the camera. She's wearing a bulletproof vest, he wasn't doing it for his personal satisfaction.",fbessul,jakegh,6vt1n
"Oh... so he didn't resign over this?

Edit: There is no miming here. He is literally touching this woman. https://www.nbcnews.com/politics/congress/sen-al-franken-accused-forcibly-kissing-groping-woman-n821381",SeriousBlak,tch1g,fbesij8,"No he didn't. He mimed grabbing the boobs of a sleeping fellow USO performer in a photograph, without touching her. It was in bad taste and she was unable to consent, but it's a huge stretch to call it sexual assault.",fbese85,jakegh,6vt1n
"Ok Boomer!

This video shows Biden bragging about getting the prosecutor who was investigating Hunter Biden fired and threatened to withhold aid to Ukraine if they did not bow down to his demands.

https://www.youtube.com/watch?v=UXA--dj2-CY

Edit: no replies to *this* comment from anyone, huh? Weird how that works here. When actual evidence is shown the left looks the other way. Fuck all of you.",SeriousBlak,tch1g,fbczrwi,Too bad Joe Biden has nothing to do with this.,fbczdab,FenderPrecisionBass,1mkx1ujv
"Realistically... He stays in office because this won't pass the senate. Then he wins re election in 2020. Then all you crybaby liberals go back to being teary eyed bitches just like when Crooked Hillary got her ass handed to her in 2016. 

**MAGA**",SeriousBlak,tch1g,fbczaap,"Realistically, how do we get fascist Trump out of office?",fbcz57s,eat_de,11u1oc
Run by the same pollsters that said he only had a 2% chance of beating Crooked Hillary? 🤣,SeriousBlak,tch1g,fbcxd9m,someone hasnt been paying attention to the polls.,fbcww1k,deadbeatdad80,12di33
He will not resign. He will not be removed from office. He will not lose the 2020 election. The DNC has failed you.,SeriousBlak,tch1g,fb9e7jj,If Trump doesn't want to be impeached he should resign.,fb8jo0r,TheBiglyOrangeTurd,4wzr1otk
"November 8, 2016",SeriousBlak,tch1g,fb8o5c1,">Trump has committed some very serious offenses, from not being a Democrat to being a Republican. He also won the 2016 election, which rises to the level of high crimes and misdemeanors. 

When did Babylon Bee become a more honest source than CNN?",fb8m71u,Hanah9595,511nx05h
Good luck with that. See you in November.,SeriousBlak,tch1g,fap5gdg,"Impeached president Trump will have a very slim chance of winning a second term. His hateful, dishonest, pathetic behavior hasn’t been increasing his popularity. He has his blindly devoted base, sure, but I don’t think they are encouraging more support by threatening terrorism and civil war the way they do.",fap4m91,EsotericObfuscation,3v6d4z7a
"Yes, but JK Rowling recently revealed that all Wizard Phones are transgender and black.",SeriousBlak,tch1g,falvx2l,They use phones?,fals697,Freakin_Jedi,6nu28
