child_body,child_screen_name,child_user_id,child_tweet_id,parent_body,parent_tweet_id,parent_screen_name,parent_user_id
This virus will be in the same league as Spanish flu,sfasu77,3ssht,fl4t58g,"Thanks for sharing.  Through generations we quickly forget.  I'm not saying this virus is anything like the Spanish Flu, but we need to remember situations like this.",fl22rbi,appyah,2oj93heo
"Western Washington's curve seems to be flattening, they were expected to be northern Italy tier by now.  NYC isn't looking so good though.",sfasu77,3ssht,fl3xp4b,"> Pray the tide turns sooner rather than later.

Too soon to call it a trend but yesterday was actually better. We had fewer daily deaths and the rate of new cases across the US actually slowed a bit yesterday compared the previous few days. It's possible we are starting to see the effects of business closures and self quarantines, however it's still too early to tell.",fl3iub8,bak1984,mhbfw
Do you think they will place a moratorium on evictions for the medium term?  I'm sure this will move the pain around.,sfasu77,3ssht,fktxn3u,"things will work out. single people have much more flexibility in what they do and how they do it. theres safety in that.

If i were single with no kids, making 50k...or even 30k. Id just live in a van and bank everything until i didnt need to anymore. 

and if it got really bad,  id just go live in a tent, go to shelters for food, and continue working until it got better.

With dependents, those arent options.",fkt2w26,badtradesguy,ogpog
">virus

We are all going to get it, i'm just hoping i can postpone the inevitable until after the ""crush"" of patients.",sfasu77,3ssht,fktx7vp,"> The virus lives for 3 hours ~~in the air~~ **on surfaces**, too. 

It's not airborne",fkt0a8l,AhabFlanders,azysy
"Drive thru only is perfectly acceptable, and i plan on supporting these establishments..  there's going to be a massive generational divide over this in the months and year? to come.",sfasu77,3ssht,fktx55q,"As a general manager in a restaurant, companies are still out to make what money they can. The one I work for has gone to drive-thru only and will be that way until further notice. People who say they are sick, don’t work, period. Hand washing for everyone is done at short intervals whether there is a clear food safety need or not. Hand sanitizer is available but is never a substitute for proper hand washing. Dining facilities are being deep scrubbed and sanitized throughout. 

People still need income even if it is less than normal. I understand both sides of the issue.",fks7ajx,crichton9,7byo0
i hope they follow through.,sfasu77,3ssht,fknreut,AG says he is still planning to pursue charges. Stay tuned.,fknmbj5,herd423,1nfakby
Tell her you like the butt stuff,sfasu77,3ssht,fklfsv7,I'm gonna go have sex with my girlfriend instead.,fkl9og0,JJGerms,6ra6q
I'm pulling for you guys down here in TN.,sfasu77,3ssht,fklfjm9,"What we're doing right now is getting beds ready.  
Because of the testing debacle, Seattle is prepping for worst-case scenarios.

I'd repost this in 10 days.",fkkwzy8,nomismate,53029m44
"yea i don't know what he's planning, but he should declare an emergency and get those FEMA camps rolling.",sfasu77,3ssht,fk8w805,"Trump really did himself a disservice on this one. If he really believes this is all hype, then go with the hype, come down hard on it, make everyone feel good and use it to justify his America First rhetoric. Justify the wall, justify tight immigration etc, and them when it's all done and over, because it was just a big nothing burger, America will look strong, his policies will have been engaged, and all his haters will say ""well trump is racist/sexist etc, but at the end of the day my whole family are still alive because of him""

Such a win/win situation for Trump... Yet again it seems he prefers the 4D chess route.",fk748ux,Im_Justin_Cider,jrz35
"i paid less taxes, and it helped me spend more money on tacos.",sfasu77,3ssht,fk8w3mk,How did the low taxes affect you personally?,fk7c5ef,idreaminhd,ib40r
"Low taxes, pro-business slant to juice the stock market (worked until now ).  Before the Pandemic our employment numbers were fantastic and of course 401ks were looking great.  Now all that is moot and the Dems will easily win a crisis 2020 election.",sfasu77,3ssht,fk6xgie,"What economic policies do you like of Trump?  I am not trying to argue or get in a pissing contest, I am generally interested to hear.",fk5yyns,idreaminhd,ib40r
I love his economic policies but I'm very concerned that He's minimizing a world wide crisis,sfasu77,3ssht,fk5xtlb,"Relax, God Emperor says it'll be fine.  You don't believe him?",fk5j23x,Chocodong,1b27d0l
"I'm a Trump supporter and I'm really freaked out by this, I know it's the real deal Pandemic of our lives",sfasu77,3ssht,fk59oqj,"I'm looking forward to seeing all of the Trump supporters in here calling this fake news and saying the coronavirus is no worse than the flu.


Within the first two minutes he's saying it's 15 times worse than the flu.",fk53urw,davomyster,4et7l
Is that 480k for the year or 480k in the next 6 months?,sfasu77,3ssht,fk59j79,"480,000 is a relatively low percentage compared to 327 million people. 

&#x200B;

What I like about Micheal is he lays out the facts and stats.",fk53nxl,AVR_Man,18lm8hfz
"Coronachan, LW champion 2020",sfasu77,3ssht,fjt3hjg,"That's true.  
This is the tail end of a period when the LW division didn't have a true *undisputed* champion.    

How Khabib won it (beating Al who wasnt even top 10 at the time I think), and there being 2 other belt holders who did not lose (Tony and Conor) just made everything so complicated.  
Khabib dealt with Conor easily, and Dustin shortly earned a belt of his own (which Khabib dealt with easily too).    

This fight will be the final loose end of the LW division which has been unravelling since fucking 20fucking16.    

All the chaos and all the bullshit will be secondary in April, because we will finally have a true, undisputed LW champion.  
Not to say Khabib is not a good champion (I rank him #1 P4P personally), but being an undisputed LW champion in this era is not fucking easy to achieve with all the fodder making everything somewhat disputed.",fjr6rgs,BigDogAlex,g5mok
"Jesus, you must be an interesting guy if you think this story is boring.",sfasu77,3ssht,fjp5wuj,Another convoluted and boring episode,fj5pyrd,MGLLN,egaiy
You're crazy to want to be on a plane and in an airport .  Vegas is going to be a Corona hub in the coming weeks,sfasu77,3ssht,fjn2zc7,"I'm traveling to Las Vegas this week, and this really takes the pressure off of me for being Tennessee's Patient Zero.",fjkdhm5,phrankygee,6mu40
"
>avoid touching your face

This why I'm a future Corona-man",sfasu77,3ssht,fjkvcqg,"Remember to wash your hands, cover your mouth when sneezing/coughing, avoid touching your face, and leave reasonable space between others when out in public.",fjklvsu,Jahaadu,umrdp
is Discovery a python shop?,sfasu77,3ssht,fjknrr4,"You can get great jobs here too and many companies pay very well.  

I lead a team at Discovery and am trying to hire 4 software engineers for my team right now and I know Discovery has other open engineering jobs too",fjk10zr,derSchwamm11,h8og2
"I just got it, amazing so far",sfasu77,3ssht,fjes3rf,I'd highly recommend listening to *Batavia* by Peter Fitzsimmons. It's my all time favourite audiobook.,fj61jpp,retzed,387fi
"Too early to gloat dude , give it 1 year a d try those stats again",sfasu77,3ssht,fj4542s,"OBAMA PANDEMIC STATS:  The Centers for Disease Control and Prevention (CDC) estimates that swine flu infected nearly 61 million people in the United States and caused 12,469 deaths.

TRUMP PANDEMIC STATS: As of February 29, 2020 there have been 66 confirmed cases of patients infected with COVID-19 in the United States.  1 death.

Edit: death count.",fj3g5dv,KatsKlaw,lhs0txh
I'm noticing a pattern,sfasu77,3ssht,fj44m8b,https://theconservativetreehouse.com/2020/02/25/odd-coincidence-rogue-cdc-official-pushing-coronavirus-panic-button-is-rod-rosensteins-sister/,fivqsj9,-StrangerThanFiction,10ywnt
"Coronavirus might kill some of our loved ones, but it's nowhere near as bad as smallpox or polio.",sfasu77,3ssht,fiz53d4,"My sanity is slowly deteriorating

/s",fiyzugl,mythrowawaybabies,4h7t1f6w
Oy vey!,sfasu77,3ssht,fiz4hlc,DOWN,fiz10vf,parazitutm,4sbq2
I'm really concerned about the local schools,sfasu77,3ssht,fiuc4gs,"I was surprised it's only listed at $725k. But then:  

**Maintenance Fee:** $ 3488 / Monthly

What can they possibly do with all that money?",fitrzmf,shadracko,1ambuvky
"I'm taking my 5 yr old to downtown Houston NOW to witness the absolute dregs of society.  ""Honey that is an underprivileged man smoking crack and yelling at us.  Crackas is a disparaging term for white people "".   Education is crucial people.",sfasu77,3ssht,fiubris,What the fuck are you talking about. I’m talking about open drug use and not wanting to have kids witness it. You’re talking about gifted classes and being rich. Have a nice day pal.,fiu4s6o,Semper-I,24eo1jmm
"
>scout got mauled by a bear at a camp down the trail

Damn, did he leave peanut butter in his tent?",sfasu77,3ssht,fiu45m8,"I have been to Philmont three times 99, 00 (got that crazy patch with the red outline), and 01.  Each time was an incredible experience that I wish everyone could have.  Some of my highlights were: sneaking a cell phone to call home from Mount Phillips, staying up all night because another scout got mauled by a bear at a camp down the trail, hiking on a trail that I had helped build 2 years before, watching the sunrise from the Tooth of Time, having a troop of Japanese scouts breeze past us in a single file line as we are dying going up Mt Baldy, and so many more incredible experiences!",fiu2vv7,Dalton_Thunder,evwji
Wow that is low,sfasu77,3ssht,fiosksp,25-30k UK,fiomf4i,duccsuccfucc,2wzpnfnx
Standard check from Carvana LLC,sfasu77,3ssht,fiohmp9,"Do you recall what type of check it was? Was it just a standard check? Or a cashier's check? 

Also, thank you for your response. I appreciate it.",fiod4gs,garrett_fritz,65ukz
You don't want to lose weight when you have stage IV cancer,sfasu77,3ssht,fi84lv1,Sucks to say this but he lost some weight and looks great.,fi7vufc,SillyToni,72puy
I'll think I'll vote Drumph 2020 baby,sfasu77,3ssht,fhfqj6u,"Feel the bern! Or not, just get out there and vote!",fhezanl,method__Dan,kp00e
No mo #NEETBux,sfasu77,3ssht,fhe9pm0,Because he dropped out of the race.,fhe8n5d,TheFutaClub,1wwji6zi
"It rains a shitload in Tennessee, especially in late winter/spring",sfasu77,3ssht,fhb1gaw,How often does it flood in Knoxville?  We are moving there this summer and should probably be prepared...,fh9ncja,notyourcleaninglady,13fyxm
You must be a Houston judge,sfasu77,3ssht,fh1y935,Drunk af but 2-2,fh1y7js,donalddafuq,56lrhgjk
How dare you sir,sfasu77,3ssht,fh1ujx0,"I'm sorry but I cannot find it in myself to give a shit about female fights. Go on, call me a sexist bastard.",fh1ui7i,Penis_Painter,566dmxau
92 Buffalo Bills could,sfasu77,3ssht,fgugxkt,What defense could actually defend against that? I really can't think of one.,fgua7r0,rymaples,4heri
"I was wondering if they were still married , it's got to be so crushing to be reminded of your wife's infidelities by the President on a regular basis!",sfasu77,3ssht,fgrm3dx,And still married to a cuck of a husband.,fgra4o9,fretit,jy2wf
Whoa watch the antisemetic remarks,sfasu77,3ssht,fgicryh,Jennifer Rubin is a Corporatist piece of shit.,fgi1njs,MIGsalund,7dx8i
"True, Republicans have no balls",sfasu77,3ssht,fg36aqf,Let's be honest. No one's getting locked up.,fg2u5xu,Spindelhalla_xb,hy3ey
That job must have been a bear,sfasu77,3ssht,ffxe1hz,"As a former customer-facing employee, can confirm.",ffwxt93,senorzapato,n3xkf
Russia donating to the NRA?  I'll take it.,sfasu77,3ssht,fflx1sl,"Lawyer linking NRA and Russia helped lead Marsha Blackburn campaigns, documents show.

https://thinkprogress.org/new-documents-link-nra-and-russia-to-marsha-blackburn-ff68e923eb7e/

https://www.salon.com/2019/06/14/sen-marsha-blackburn-takes-one-for-trump-defends-flow-of-russian-money/

Another House Republican—and Senate candidate!—with potential ties to Russia

https://dailysoundandfury.com/2018-07-27-another-house-republican-and-senate-candidate/

https://medium.com/@LaddEveritt/from-russia-with-love-for-the-nra-ffc69088fe41",ffh8nvp,aDDnTN,3vpno
This guy has em,sfasu77,3ssht,ffikwbf,"Ohhh. Everybody good. I'm so bad.  I steal nada, yet I'm so bad.  Fuck you.",ffgkpa8,You-get-the-ankles,f0do7
Whoa racist??,sfasu77,3ssht,fezonio,You're a spade,feydi5e,Kagaro,65c3nj8
"Yep, I don't want to see Khabib own Conor again, I don't really see that fight turning out any different",sfasu77,3ssht,fezen2h,Some people are dumb and saying Khabib lmao no...masvidal is the bigger draw and makes more sense stylistically and it's what casuals and die hards want alike. There's also the weight class excuse if Conor loses,feyvhya,SmokinDroRogan,13agsq
"Best I've seen him, kinda shocked to be honest",sfasu77,3ssht,fewkhat,Fuck tell me those weren't some fucking hard punches as well! Conor is back baby,fewjo0v,Atmospheer,608ud
Yea thats the obvious play,sfasu77,3ssht,fewkayd,MASVIDAL VS MCGREGOR. MAKE IT HAPPEN,fewjndd,PM-ME-YOUR-FoUrSKIN,3ju3l157
Lol,sfasu77,3ssht,fewii7m,P4P worst walkout song,fewighy,CharlesBronsonBatman,ea85k6q
Co Caine is bad for the skin,sfasu77,3ssht,fewia6i,Conors face aged so badly. His skin looks like it lost 50 percent of its elasticity.,fewhv28,Scootinfruidy,4cz5ij2x
The same questions over and over,sfasu77,3ssht,fewi7rk,"Jeezus we get it.

Conor gonna ko him.

Cowboy might wrestle him... But conor has prepped for it.

Let's kick it off and see what happens and not run through 20 minutes of the same shit we've heard for the last 2 weeks.",fewhvgj,Joshyybaxx,4on0v
Yeah that's the most likely outcome,sfasu77,3ssht,fewi60j,"Predicting Conor KO in the first, but I'd like to see Cowboy take it",fewhw0c,Coffee_Crisis,pbotx
Hard to root against cowboy,sfasu77,3ssht,fewhi9z,"Damn 2 of my favorite fighters are finally gonna go at it

&#x200B;

My balls is hot",fewhfsm,Syphin33,kil2q
"The fights have been very good so far, nevertheless, this one is complete shit.",sfasu77,3ssht,fewff4k,"I don't understand how people are saying the main card has been bad.  ( Not including this fight)  There has been high level grappling, not laying and doing nothing",fewf7rp,fsufanatic11,1z4t1rw
"Cowboy all day , but it's hard to avoid the early knockout",sfasu77,3ssht,few80n2,"Getting nervous now, hope Conor can pull this off",few7abm,DullMasterpiece,1r97onh8
"I went once as a noob diver in Mexico, we had a German divemaster that scared the bajesus out of us into listening and following his every instruction, or we die.  It was an interesting experience but I'll never do it again.",sfasu77,3ssht,fegu5p3,Seriously though fuck cave diving you couldn’t pay me enough to do that. I’ll never understand adrenaline junkies,fefkjz1,Ishygigity,plcs5
"No, that was Operation Barbarossa",sfasu77,3ssht,fdiox90,What a mistake by Iran.  Possibly the worst mistake in the history of war.,fdiih5z,GaiusOrangeJulius,daqkn
If we invade our leaders are morons,sfasu77,3ssht,fdiot3g,Exactly. I hope Trump does the right thing and just blows a bunch of their shit up instead of invading,fdiimyd,TGordonShumway,22pekei8
"Man, I really hope you guys get Garrett, he's criminally underrated.",sfasu77,3ssht,fdhkvtb,Fucking end me lmao,fdgzbmv,alx69,15329w
"
> Everyone is on McCarthy's dick this fast?



 On and riding!",sfasu77,3ssht,fdgpqa8,"Still think Jim Harbaugh was a better choice

Edit: Downvotes really? Everyone is on McCarthy's dick this fast?",fdevpmz,ClevelandSteamers13,4s8rj6zc
Don't worry he's a stripper,sfasu77,3ssht,fdgjxj0,The fuck lol,fded9pp,Austin63867,3wpzptch
It's a shame that Nissan has declined in quality... I still love my 06 frontier,sfasu77,3ssht,fdeg5nb,"No. Buying a Nissan is a waste of money, unless it’s manual.",fd4z6dw,OpenSourceFather,4p9m8wnz
"Oh snap, I didn't know that was an option",sfasu77,3ssht,fde0plx,"In my 3, I believe it's Settings > In-Vehicle Displays > Instrument Cluster Display and then switching between Type 1 and Type 2.",fd485vo,Mister_Snoop,1o22ies
"Yea, after Bud Adams moved the team I disavowed the organization and became a cowboys fan.  I've been disappointed ever since.",sfasu77,3ssht,fcymmy3,"I was, as a Houston fan, joking.

You went from a Houston to Dallas?",fcylsll,2nd2last,ekdut
"At least you got to the dance, Oiler fans could only watch epic choke jobs on a yearly basis",sfasu77,3ssht,fcymeee,"You're talking to a fan that watched his favorite team go to four...Super...Bowls...in....a....row....and...lose...every....single.....time.....

And then - The Drought.

No one understands disappointment like a Bills fan.",fcy4eg5,Thangleby_Slapdiback,a0zn9
I listened to the game on the radio driving to Dallas... Our team was so fuckin stacked.. Horrible to listen to all the Warren Moon interceptions.  Frank Reich was Joe Montana out there...,sfasu77,3ssht,fcym8ft,First game I watched having just moved to the Houston area from Western NY. I was the only Bills fan in a room full of Oilers fans.,fcy0txp,Thangleby_Slapdiback,a0zn9
Neither.  Luv Ya Blue for life!,sfasu77,3ssht,fcylhne,"Who does this upset more, titan or texans fans?",fcy29i6,mve1,shogw
"Titans fans don't care.... I do, and we were supposed to play the Cowboy's in an All Texas Super bowl and f'in Warren Moon had to choke the game away, as usual.",sfasu77,3ssht,fcylf2w,"Lol, Titans fans must be pissed.",fcy1pun,2nd2last,ekdut
"I remember this game like it was yesterday, those interception from that horrible RunNShoot offense are seared into my mind.",sfasu77,3ssht,fcyl6gb,Look... this may not affect Titans fans one but but the people who were Oilers fans can’t help but cry endlessly when this is brought up.,fcy26d7,pbj986,hyrza
"Conan killed Al-Baghdadi, an Iraqi.",sfasu77,3ssht,fcxl2w6,"Conan, the terrorist killin dog disagrees with them being very tough.",fcxjm8m,Trump_Always-er,4wgrybr8
I think Iran is going to go full retard and attack USMC positions with drones and Quds infiltrators,sfasu77,3ssht,fcxab22,Lol shit is unraveling very quickly for the terrorist over there.,fcw46h7,SitelessVagrant,1akejd0x
We are about to be in another tanker war...,sfasu77,3ssht,fcx8hwm,"I don't know why we are still in the middle east, the whole thing is a huge mistake and is costing us TRILLIONS",fcx6xxh,Auss_man,115kjk
Accept the inevitable,sfasu77,3ssht,fcv7b84,With each passing day the reality that he'll be back sneaks closer.,fcv45ut,eletricboogalo2,2hehm2h1
"That team was the Oilers, the Cowboys were my #2.  Kill me now",sfasu77,3ssht,fcv2whu,"Back in my day, you picked a team as a kid and stuck with them no matter what cause that’s what sports is all about. You don’t get to duck out when shit sucks, even after 20 years. Suck it the fuck up. 

You are allowed to have a second favorite team tho

Edit: just to clarify here - I’m joking and really couldn’t care less who your favorite team is or how many you have",fcuww96,kaiush,ai020
"Bingo, take the blackpill people!",sfasu77,3ssht,fcv2ev6,Oh no....He’s gonna stay on as HC.,fcuymaq,NicholasPileggi,qlgrq
"JG 2020, baby!",sfasu77,3ssht,fcv280s,the dumbest possible thing that can happen is the thing that will inevitably happen,fcutvsi,Lohengren,5dz9j
"Get used to Jason Garrett, coach of the 2020 Dallas cowboys",sfasu77,3ssht,fcuwcca,He might be successful somewhere else. Good for him. Just not with the Cowboys.,fcuw6xa,nqt256,t2x3f
Lol,sfasu77,3ssht,fcqc15i,My current perspective of you- a jealous filmmaker. Your bashing this producer because he made something that was quite successful and important. I can’t trust what you have to say about him when you post pictures of your dick on the internet. Why not link some of your work for us? (Please not a dick pic),fcpncjk,FrogHermit1,sb6jc
That would be a hell of a curveball,sfasu77,3ssht,fcnpknl,Get ready. Jason Garrett is about to be Jerry Jones first ever GM. Which is a pipe dream but would be ideal I think!,fcnlwra,anvilST,15bn7wpj
This guy is a cowboy fan!,sfasu77,3ssht,fcnp5ow,"They’re just gonna jerk us around for far too long and ultimately make an anti-climactic move that leaves us all unsatisfied and even more pissed off, aren’t they?",fcnekt3,Angry_Walnut,84cjo
Great answer,sfasu77,3ssht,fcnj8he,There are lots of reasons. Craving excitement. Wanting to fit in. Wanting to have a good time. Social anxiety. Self-medicating for depression or mental illness. Peer pressure. Emotional or physical pain relief. Escaping from your problems. Wanting to die. There are lots of reasons people try things they know will end up killing them.,fcni4aj,morefetus,3l66m6nr
How does one even have the urge to try heroin the first time?  Did you get addicted to pills recovering from injury?,sfasu77,3ssht,fcneiny,"The cravings never stop. Ever.

They may occur less frequently or they may be less intense, but they never stop. I've been clean for 4 years and I still have cravings and I still have dreams of using.

And scaring a heroin addict straight isn't easy to do. I OD'd several times and the first thing I did after leaving the hospital every time was go get high.

Addiction is a disease that affects your decision-making processes, things most of us take for granted like the ability to assess risk vs reward and make a logical decision. Addiction massively distorts and impairs that process.",fcnafum,KarmaticArmageddon,erxzu
"Rich Dad, poor dad",sfasu77,3ssht,fcn5jln,"Rough math is $370 for 5 years would give you over $27,000@7% interest.   Imagine being in your late 20's and already on the way to $100,000.

The first $100k is the hardest to get.  


EDIT:  Then do nothing with the $27k and @ 7% interest, it would double roughly every 11 years.  Assuming he is 22 now, 27 when he has $27k, then:   


27 = $27k

38 = $52k

49 =$104k

60 = $208k

71 = $416k",fcmliey,redli0nswift,4i0kf
"It's fine, he probably financing for 9 years",sfasu77,3ssht,fcn5hnp,"I love the car but I'm feeling conflicted on upvoting this.  $370 a month right out of college.  

Ouch.  Shout out to /r/personalfinance and /r/financialindependence.",fcmk3v3,redli0nswift,4i0kf
Journalism majors?,sfasu77,3ssht,fcn5fp2,Most college graduates I know are working fast food or customer service jobs...,fcn4ojq,funnythebunny,br868
Found the eagles fan,sfasu77,3ssht,fcixvf9,I personally think Jason Garrett is a pretty solid coach - we should def consider keeping him,fcirsdm,MCMXCVI-,owlb3qv
They figured out who the Man really is,sfasu77,3ssht,fcijoaw,"It's very odd, there's a lot of videos on youtube of African Americans going off on Jewish people. Not sure why",fcgwbmi,meatduck1,bcg5x
"Not sure , they seem like good people...sprinkled with a touch of international Bolshevism...but good people nonetheless.",sfasu77,3ssht,fcijj8d,Why do people hate Jews so much? Anyone know?,fcietxw,brooklynblastfurnace,5aveimb3
I say worst case scenario you'll have one or two moving violations per state.  I wouldn't do it.,sfasu77,3ssht,fcg9j1l,Do you mind expanding on this a bit? I assumed worst cast scenario is I end up with a few non-moving violations along the way.,fcfhnkr,GreyThunder50,iw7qbr2
Lol isn't this the worst car Chrysler has ever produced?,sfasu77,3ssht,fc46xv2,"Here me out in this one! I promise it's insane. 

Background: I worked for Avis Car rental location during school that had a lot of midsize and SUVs and luxury cars. I got to drive Toyota Yaris to Lincoln Navigators. 

The car: One summer we got a PT Cruiser GT convertable. I thought it was a joke until a drove it. The what a blast to drive with the top down. It was an automatic but the thing had enough power (over 200hp IIRC) and the steering was like a go kart. I got so many smiles and waves from people on the street I felt like a (minor) in celebrity. Depreciation should have hit rock bottom on those by now and through entropy all the bad ones have died long ago. And it's built on the Neon/Sebring so parts are cheap and plentiful.",fc2z0i3,Zer0Goblin,5ky01
This is actually a lower statistic than I was expecting.  Men are obviously far more violent than women.,sfasu77,3ssht,fc3ho88,Because you don't ever hear anyone talking about how 80% of all violent crime in America is committed by men. They'll be racist towards black people but not sexist towards men.,fc3e06v,Jnyflrs,1ks8botl
"
>There will never be another Democratic candidate elected president.

Have you seen our demographics lately?",sfasu77,3ssht,fc2cywh,Just like Cuomo refusing to let judges in NY officiate weddings cause some were nominated by Trump... Peak clown world. There will never be another Democratic candidate elected president they might as well dismantle and rename their party,fc1nutk,TheSuperStableGenius,4t8piq87
He probably would have had more upvotes with the Communist Manifesto.,sfasu77,3ssht,fc1h1s6,ewww Ayn Rand,fc14ocv,Crk416,85c00
I'm selling my Xterra to them in the coming week or so. The offer seems higher than what I expected and just under kbb private party value.  I'm encouraged by experiences on this sub,sfasu77,3ssht,fc10gt4,They didn't even open doors to my car when I sold to them.,f9etacm,Vivace,8bal3
..and also a sure way to start a major war,sfasu77,3ssht,fbtx83p,Plus China has to import numerous food items and natural resources. The USA could effectively start a famine in China by cutting them off.,fbtb05g,xiao_ke_maga,4thosvnf
"Yes, and 90+% of athiest Jews (you know, the ones with all the economic success) vote against him!",sfasu77,3ssht,fbt4cpn,"Or [89 percent of Orthodox Jews to vote for Trump](http://www.israelnationalnews.com/News/News.aspx/273247) 
Mazel tov!",fbszce2,zpaladin,3niznopm
Rookie numbers ha!,sfasu77,3ssht,fbt49w2,And the 116 Jews who voted for Trump are very thankful.,fbsxnh1,MythArcana,yxqx3
This guy hasa solid work ethic,sfasu77,3ssht,fborlqv,"Used to work at Best Buy, absolutely loved working holidays. Always stuff to do, people to meet, and sale to. On top of that more hours= more money.",fbo3lza,PlaguedWolf,rzzll
"Your company does value you, obviously",sfasu77,3ssht,fbor2cu,The company I work for make billions in profit this year and we didn’t get a bonus.,fbo43j6,Chinateapott,xwd5t
"
>Should doctors, lawyers, CEOs, retail workers, teachers all be paid the same?

According to Reddit, they should all be paid a living wage of 50k year with 6 weeks vacation.",sfasu77,3ssht,fboqsvx,"Demand more money and don’t do anything more to get it? I’m not a boomer. I’m under 30 who did something else with my life than just sit in a job that would not pay enough for my dreams. I wanted a family and now I can provide them. But thank you for ”quoting me”. 

It’s a country’s problem you can’t educate your children. 

I know a few people from the states who works in retail and they all manage to live. In my country all retail workers manage to live. 

Do something with your life other than complain, call sick days and fuck other people because you won’t do shit.  Why on earth should you be paid as much as people with education? Should doctors, lawyers, CEOs, retail workers, teachers all be paid the same? You know what that is, don’t you? The more you put effort in your career the more you get paid. You just walk into walmart and expect 20$/h?

And edit. Are you implying every worker in retail do not eat, don’t have educated children, don’t live in rental house etc? Because that is bullshit.",fboigub,Ch33s3m4st3r,ge6m5q8
"This post reads like a Scotty video....he totally turned me off of German cars.
https://youtu.be/LnvHdaBI8eM",sfasu77,3ssht,fbim8aa,"2015 BMW 328d xdrive wagon, love the car to death but needed nearly $10,000 in repairs from 30-70k miles. Lost $6,000 on trade in. Next is my 2013 Audi A3 TDI hatch, had that for two months, been in and out of the dealership numerous times, a few thousand in repairs, it was still broken when I traded it in due to unavailable parts for a few months now, and I was upside down $9,000 (yes in two months), rolled that into this Mazda’s payment.  I also own a 2018 Alfa Romeo Giulia, thankfully that’s a lease but it’s already had a few issues but it’s Italian.
Lastly a 2016 VW Jetta I bought brand new, needed numerous repairs as well, bought back under lemon law but still lost a few thousand on that.",fbfzjf0,ImaginaryOdds,4i20spwe
"Use capatalist pig map? Never!
>This is very interesting, but why couldn't they have just used an accurate American map and just changed the words.",sfasu77,3ssht,fb9yfgf,"This is very interesting, but why couldn't they have just used an accurate American map and just changed the words.",fb9sppe,moleratical,8kyd4
You and your pup will know when it's time...give him a big hug !,sfasu77,3ssht,fb9xvu3,"She was beautiful.

Our boy is 14.5 and I am dreading the day.

Hugs.",fb8kfcq,yahumno,q0zm1
