child_body,child_screen_name,child_user_id,child_tweet_id,parent_body,parent_tweet_id,parent_screen_name,parent_user_id
":) In my case, though, the handle and gear are two separate pieces printed in opposing directions. But otherwise.. yes - always fillet!",TheOriginal_RebelTaz,ldqgq,fkw8uya,"Exactly what the other reply says. Essentially, with this if you create torque on the handle, the location it's attached to the body is where all of the force goes. Without a smooth transition such as a fillet or chamfer, that force gets focused into the one point of connection, which also happens to be a layer line. This can make it snap off really easily.",fkvduvp,DavidBittner,6dgft
"In my case, the handle and the gear shape are two separate pieces, but if they were one solid piece, you would want the point where the two meet to be a gradual, rounded intersection instead of a sharp 90° angle. This adds additional support to that point. Without the rounded fillets (or at the very least angled chamfers) that creates a sheer line where the part can more easily be broken apart.",TheOriginal_RebelTaz,ldqgq,fkw8r51,Can you explain this a bit more? Are you talking about widening the connection in a pyramid-like shape rather than just having a 90?,fkva6eq,Ye_Olde_Spellchecker,flbut
"I was using channel lock pliers on mine, too. This just makes it a little easier and less slippy :)",TheOriginal_RebelTaz,ldqgq,fkw8grf,"that was my first thought.

i've also never had an issue opening them just with channel lock pliers.",fkvca8t,chrwei,9qz6u
"lol... no problem :) I printed the walls at 1.6mm thick (4 walls) and the top and bottom layers at 1mm thick (3 walls). I probably could have gone higher, but really, my plugs aren't that tight so this works for me. But yeah... you are correct: more walls = greater strength.",TheOriginal_RebelTaz,ldqgq,fkw8bjm,"Whoops! Ignore me then. All I could really see is the screenshot when I saw this post. Ignore me then! Did you print with a lot of walls then? I'd really imagine that to be the main thing to increase durability in this case. 

Sorry that I didn't see the actual model :) I don't think a lot of people did considering how many upvoted me.",fkvzq02,DavidBittner,6dgft
"Oh, no.. the handle and the gear are two separate pieces with the handle printed horizontally.",TheOriginal_RebelTaz,ldqgq,fkvy6e6,Sorry. Away from my computer at the moment. Is what is screenshotted one piece? Or is the handle separate from the gear shape?,fkvx6un,DavidBittner,6dgft
"Where exactly? For some reason, I can't picture that. I thought I rounded all of the points that needed it, but maybe I missed something?",TheOriginal_RebelTaz,ldqgq,fkvv1lv,"I'd recommend adding a chamfer or fillet to the connection point of the handle and the base ASAP. Without it, you just end up with a failure point lining up directly with layer lines, which can make the whole thing break really easily.",fkv02ig,DavidBittner,6dgft
"Seems to work so far for me, but maybe the water barrel plugs aren't in as tight as the fuel drums?",TheOriginal_RebelTaz,ldqgq,fkvuueu,How well does that hold up to torque? The fuel drums I used to work with were frequently a bear to get open on top of the wrenches slipping if they weren't on just right.,fkuouah,SubaruTome,13zdzz
"As a ""redneck"" myself, I approve this comment.",TheOriginal_RebelTaz,ldqgq,fk83std,r/redneckengineering,fk7x677,it-praktyk,139n5y
This guy - https://drive.google.com/drive/u/0/folders/1-EocdemxDSDB8HkANfC1acPwKq3WeD6Q - does.,TheOriginal_RebelTaz,ldqgq,fk2u2oh,Does anyone have a link to a cias file for Fire Emblem Awakening DLC only? I don't want to have to redownload the CIA file with both the game and dlc. Thanks!,fk2nl2k,coolanant,ie35m
This guy - https://drive.google.com/drive/u/0/folders/1-EocdemxDSDB8HkANfC1acPwKq3WeD6Q - does.,TheOriginal_RebelTaz,ldqgq,fk2txnp,does anyone have a download for the style savvy:fashion forward DLC? (USA version) i deleted mine like a dumbass,fjwk3mh,godmaeda,dpcflkt
"Yes and no. They help with mineral deposits, but not so much with rust or other bacterium.",TheOriginal_RebelTaz,ldqgq,fk1wnzb,"Water softener systems are one effective tool for reducing these types of deposits though, right?",fjx3yby,Cburns6976,1922y6rn
"Dude.. have you ever taken you water supply lines apart? I replaced a faucet in the kitchen at my shop the other day and one of the pipes w3as so rusted, I don't think we're ever going to be wanting for iron in our diets. 

People have no real idea with what they come into contact on a daily basis. All that cleaning and disinfecting is not only useless but oftentimes counterproductive.",TheOriginal_RebelTaz,ldqgq,fjvpozm,"I'll never get a glass of water at your house then. Though most faucets are designed to have no crevices, this one has many",fjulk0z,drempire,6k1xx
https://en.wikipedia.org/wiki/CNN_controversies :P,TheOriginal_RebelTaz,ldqgq,fjtyr92,[https://en.wikipedia.org/wiki/Fox\_News\_controversies](https://en.wikipedia.org/wiki/Fox_News_controversies)  :P,fjtotx4,itsnotlego,3jsuav
"Unfortunately, CNN is too busy looking into what Trump had for dessert last night to report on topics that truly impact the nation :)",TheOriginal_RebelTaz,ldqgq,fjtflfz,But I don't trust Fox News.,fjtb8cz,itsnotlego,3jsuav
Are you saying that .win is running on open source code? ;P lol,TheOriginal_RebelTaz,ldqgq,fjktcia,"open source the ... open source code? 

What?

How do you even do that with open-source code?

Wait - are you not aware that .win is running on open-source code?

Because it's running on open-source code.

You don't need to open-source open-source code, because it's open-source code. It's already open-souce.",fjkfgx6,AtariArtist,2mrwnlrq
"> Its in the automod for every post

What do you mean?",TheOriginal_RebelTaz,ldqgq,fjkt8ia,Its in the automod for every post,fjkseom,helixsaveus,ff5ne
"Oh cool... Yeah, I have several of his models. He's real good.",TheOriginal_RebelTaz,ldqgq,fjiozla,"Can’t link direct as it’s on Mymini factory. But if you search for Rober Rollin, it’s one of his.",fjg3kwr,5yncr0,22zboodv
"Not the OP, but... Never tried that. Thanks.",TheOriginal_RebelTaz,ldqgq,fjg2p79,[meshmixer works fine under wine.](https://appdb.winehq.org/objectManager.php?sClass=version&iId=36865),fjcjamw,erck00,d3w5v
"Philips might suck, but compared to the flat head, it was given to us by the gods themselves!",TheOriginal_RebelTaz,ldqgq,fj54a4w,"Also, Robertson doesn't have the same patent bullshit.

The primary reason for both Philips and Torx being more common in the US is patent competition to edge out others.

And while Torx and Robertson might have some cases where one works better than the other - Philips pretty much sucks always.",fj53q35,Giovanni_Bertuccio,l80n00o
Whoever invented that freaking thing oughta be stung up by their flat head.,TheOriginal_RebelTaz,ldqgq,fj5477o,Be a complete savage and just use a flat-head.,fj50wcb,JoshZK,1ry1fk1t
Ain't it awesome! ;),TheOriginal_RebelTaz,ldqgq,fj4yvd7,Most American print I have seen till now,fj448uj,Huwark,1bkmfdd8
Came here just to say the same thing!,TheOriginal_RebelTaz,ldqgq,fj4yjax,Is this the 2020 version of a sock or a tie on the door?,fj4c5wy,jrobertson50,14441a
I would assume [G] is for Guest.,TheOriginal_RebelTaz,ldqgq,fj4ygq1,But I only see the ability for acknowledging when someone is home or not. It's there another color for if guests are over?,fj4wscz,letsplayyatzee,8l368
"I'd argue with that. As an American, I much prefer the Robertson [never knew that was what it was called] over torx. I can strip the hell out of a torx bit - with it's fine point teeth - but it's hard as hell to strip a square.",TheOriginal_RebelTaz,ldqgq,fj4yfis,Spotted the Canadian (P.S. Torx is far superior to Robertson).,fj4xan1,seathru,a0rh3
[Mine](https://www.thingiverse.com/thing:4176523) is specially a front pocket wallet. Think money clip.,TheOriginal_RebelTaz,ldqgq,fiwh8wk,"But why would you have a wallet from hard plastics? Can you sit on it, if you put the wallet in your backpocket?",fiwc0ne,lightuc,5eh9yas5
 I figured it out. I did a Mesh>Remove Duplicates after doing ctrl-j and it worked! Thanks again for your help.,TheOriginal_RebelTaz,ldqgq,fisq6wj,"I'm new to amateurs, but here are some options, that could help.

1. Try to paint where the bones are(I'm new to this)

2. Try parenting the objects together, first click on the main object(or parent), and then select the rest of the objects you want to be parented to it, this could force the models to move with the parent.

Could you give more insight into how the model breaks? Does all the model move awkwardly, or does not seem to connect right, and the objects would go in different directions?",fisgq11,Photo_Model_Maker,5bngzqpg
 I figured it out. I did a Mesh>Remove Duplicates after doing ctrl-j and it worked! Thanks again for your help.,TheOriginal_RebelTaz,ldqgq,fisq6hf,Try to Ctrl + J them to join all as one object. Join and keep transforms if prompted. Then go into sculpt mode and remesh it all into one object (it’s on the top right by dynotopology). You may have to uv wrap it again.,fisiyme,bonkerzrob,uiytz
I found dynotop (it's on the left in the Tools panel) but I can't find remesh anywhere. I tried ctrl-r and ctrl-alt-r (I found mentioned elsewhere) but that didn't do anything at all.,TheOriginal_RebelTaz,ldqgq,fismjus,Try to Ctrl + J them to join all as one object. Join and keep transforms if prompted. Then go into sculpt mode and remesh it all into one object (it’s on the top right by dynotopology). You may have to uv wrap it again.,fisiyme,bonkerzrob,uiytz
"I went to try that when I realized that that seems to not be my only issue. There is a ring on one finger and two of the five fingernails that, while joined together with the rest of the model, are not moving with the rest of the arm. It seems I am going to have to find a way to completely attach everything together for this to work.",TheOriginal_RebelTaz,ldqgq,fismc4l,"Try selecting both the objects, then try filling them by selecting the vertices that are near the arm error, and then pressing F.",fiskiuf,Photo_Model_Maker,5bngzqpg
OK... I did do the ctrl-j. I didn't know about the sculpt mode and remesh. I'll try that. And uv wrap... not sure what that means (still really new to blender) but I'll search it. Thanks.,TheOriginal_RebelTaz,ldqgq,fisk4p4,Try to Ctrl + J them to join all as one object. Join and keep transforms if prompted. Then go into sculpt mode and remesh it all into one object (it’s on the top right by dynotopology). You may have to uv wrap it again.,fisiyme,bonkerzrob,uiytz
"I selected all of them, and did a ctrl-J, but that was the extent of what I knew to do.",TheOriginal_RebelTaz,ldqgq,fisjzqd,Are the objects connected together?,fisimxq,Photo_Model_Maker,5bngzqpg
"For instance, when I bend the arm down, the arm separates from the shoulder. Otherwise, things bend like they should.

Here is a photo of what's happening: https://imgur.com/a/SEtKrBr",TheOriginal_RebelTaz,ldqgq,fish4mn,"I'm new to amateurs, but here are some options, that could help.

1. Try to paint where the bones are(I'm new to this)

2. Try parenting the objects together, first click on the main object(or parent), and then select the rest of the objects you want to be parented to it, this could force the models to move with the parent.

Could you give more insight into how the model breaks? Does all the model move awkwardly, or does not seem to connect right, and the objects would go in different directions?",fisgq11,Photo_Model_Maker,5bngzqpg
"Here is the stl if you want to try to get it printed, Shapeways maybe? 

www.RobotsAndComputers.com/temp/tail_4x1.stl

For the record, I've printed lego pieces in the past was varying degrees of success on an FDM printer.",TheOriginal_RebelTaz,ldqgq,fippn49,"You know, this makes me wonder how resin 3d printers would do, since they have better fidelity than extruders... hmmm",fipbfx3,OSU_Matthew,dzi5c
I know.. I was half kidding :),TheOriginal_RebelTaz,ldqgq,fipp6sg,You guys realize this is a baby monitor right?,fipecwt,grummle,3jhf2
"You can print pieces and in abs, but they're never as good as the original.",TheOriginal_RebelTaz,ldqgq,fip75cp,This may be a dumb comment I honestly don't know if it's possible because if u could everyone would do it. You'd think. Would it be possible to 3dprint it? Or do 3d printers print abs?,fiozh2z,WickedJester42o,5c2njkdv
The separate mechanical systems purpose has a lot to do with the possibility of a failure in the main hydraulic system.,TheOriginal_RebelTaz,ldqgq,fip3zg4,"If it was a cost savings, then using the existing hydraulic break system would be much cheaper than adding a whole separate mechanical system for this purpose.",fio3qrx,olderaccount,axxq1
"> Again, your intent is exactly what I do. Back in the day, I used graph paper and scissors to make scale cutouts of my furniture. 

Did the exact same think :) I no longer live in that house or even have the same furniture, but I still have those ""models."" lol",TheOriginal_RebelTaz,ldqgq,fiozj2m,"Whoa. I'm 100% with you on this goal. Physically printing it though? That's an enormous amount of wasted time and materials. 

I have had great results using [SweetHome3D](http://www.sweethome3d.com). It's also convenient that they have models premade. So, for example, you can just take their bed model and tweak the dimensions. It's easy to play with the colors and textures too.

Again, your intent is exactly what I do. Back in the day, I used graph paper and scissors to make scale cutouts of my furniture. 

Using a 3D printer for the execution seems like doing this on hard, slow, monocolor mode with the potential for randomly failed prints thrown in.",fil5gw4,GaNtabulous,5ipmzqeq
"> Those that have money curse those that don't...

lol...",TheOriginal_RebelTaz,ldqgq,fiavoq2,"The OP was trying to compare leadscrew lead with the equivalent of a belt

That calculation (or ""calibration"" if you like) is the number of teeth on the pulley.

Those figures will be different for different quantities of teeth

Also, a lot of cheap ""auction site"" products are not to tolerance in that their teeth are slightly over or under size. Those that have money curse those that don't about buying ""proper"" replacements rather than changes the steps value to correct for the discrepancy (you could consider this a ""true"" calibration)",fiatyb6,Havenview,24deu4vd
"Like I said... I'm not an engineer. 

Yeah, I get that (angle not distance). 

Yes, pitch does matter in that the pitch of the belt has to match that of the pulley, but you don't have to calibrate for it, which is what I was getting that the OP was asking.",TheOriginal_RebelTaz,ldqgq,fiat2ub,">Rotating the stepper ten millimeters

You do not rotate a distance, you rotate an angle

The distance the belt moves is determined by the effective radius of the pulley on the stepper shaft

Since the pulley has to contain teeth that match the teeth on the belt and there needs to be an integer number of those teeth on the circumference of the pulley then it ABSOLUTELY does relate to the pitch of the teeth on the belt",fi9oy4z,Havenview,24deu4vd
"The only way to get a smooth finish on a PLA print is to sand and fill it. For models that will be printed, sand down the model with maybe 120 grit sandpaper. The spray it with automotive filler/primer. You can sand that down again with maybe 220 grit or 400 grit sandpaper if you'd like. Depending on how smooth you want it, you can keep going all the way up to 4000 or 6000 grit wet sandpaper, but for most things, you won't need to go that high. Once it's primed, you can paint it. I like to use Plaid FolkArt Multisurface acrylic craft paints that you can get at any craft store for a dollar or two a bottle each. For me, they work great. Then, you can clear coat it with either a matte, semi-gloss or gloss clear coat spray.",TheOriginal_RebelTaz,ldqgq,fi27ylx,I’m making a robot and printing it in .2 I just want it to look clean and smoothish,fi27gws,aprav1,386dj407
"> The community is capable of managing what it wants to see.

Haven't you noticed the anti-social media trend of Big Brother (or Sister, no offense Billie :)) deciding what the public is allowed to see or not see? Adults simply cannot be trusted to make their own decisions.",TheOriginal_RebelTaz,ldqgq,fhzvqza,"Honestly, it sounds like the mods are about to take a great subreddit and over-moderate the shit out of it.

Not every print or time lapse I see needs to “...generate thoughtful discussion.” 

Trying to decide what kind of files people can post, and how many before it becomes too “low effort “ etc is exactly what the community is supposed to do with upvotes and downvotes. The community is capable of managing what it wants to see.

Edit: I’ve only been printing about a year now and part of what encouraged me to get started was seeing how many people were just starting out as well.",fh91kyp,judeccaengine,4u42r
"If there is anything I can provide that might help, I'd be happy to if you let me know what you'd need. Elsewise, how would I go about delaying startup on OVPN? Thanks.",TheOriginal_RebelTaz,ldqgq,fhxs6cr,"Without knowing details, if OpenVPN is starting and is configured to auto connect but you’re finding your connection is not active until restarting the OpenVPN process, it’s likely some routing rules are being overwritten or the internet connection wasn’t enabled when OpenVPN tried to connect. 

This is a guess since there aren’t enough details, but one option would be to cause OpenVPN to start later in your boot scripts.",fhxd21l,realrasengan,4imcm
"I have made knobs before (one for my grill specifically). Yes, just measure either the knob or the shaft with calipers. If you measure the shaft, remember to add a small bit (maybe 0.3mm) extra for fit. If you have a half moon, measure from the top of the circle to the flat if the shaft. I printed a small section of the piece for test fitting and adjusted as necessary.",TheOriginal_RebelTaz,ldqgq,fhpxgk1,"I'm trying to do this with my home theater amplifier volume knob. Did you just use a caliper, is it just a half circle shaft that you need to measure as well as the outside diameter?",fhowx2d,fishing4karma,m1dhg
"I forgot to add something. I don't know what the file you are looking at is, but if it's the gcode file, it won't work. If it's an STL, then just run that through your slicer (Cura, etc) to generate the gcode necessary for you printer. Didn't know if that was understood or not. Good luck. If you need any help... feel free to ask :)",TheOriginal_RebelTaz,ldqgq,fhpu87l,"Thanks for the feedback , I’ll def try:)",fhptu57,Prince-Ambassador,3r6x0wbi
"Yeah, well now it's slower than a glacier pre-climate change.",TheOriginal_RebelTaz,ldqgq,fhjeurb,That can't be possible. It was already slower than glaciers.,fhiwjop,inbred_red_panda,5kkmkzq8
Make sure that you set [lighter is higher] - the opposite of what you would do for a true lithophane.,TheOriginal_RebelTaz,ldqgq,fhctxey,Do you have to use an .stl or .obj? Or will it use jpeg and mp3 files?,fhbxiiz,Eodxshellshock,4d50tzd5
God bless unincorporated rural areas.,TheOriginal_RebelTaz,ldqgq,fh6pvjk,"Hopefully they don't have an HOA that dictates the exact numbers they have to use. (Yeah, that's a thing)",fh2jsim,FoxKeegan,fqyql
... and I feel fine :),TheOriginal_RebelTaz,ldqgq,fh5u8w5,It's the end of the world as we know it......,fh1s7qo,300BaudModems,9zavvgr
Is that like a wood filler?,TheOriginal_RebelTaz,ldqgq,fh54dz3,I use timber putty as well. It's already premixed in tub. It's too hard to fill as it is so I water it down a bit first and it's then fine to use.,fh2hhey,Manarin71,4usy3rd6
Huh... I have some of that in my shop. I'll have to try that. thanks!,TheOriginal_RebelTaz,ldqgq,fh25hnn,"Putty works pretty well most the time, sometimes along the edge of blade it falls out when sanding. But no issues with it sticking to the plastic",fh24fpi,nefarias_bredd63,16hq52
"In this particular case, the area is quite large - too large for that. But... I will check it out for smaller jobs. Thank you.",TheOriginal_RebelTaz,ldqgq,fh25a6h,Seoends how much filling you need to do but take a look on the tinterweb for Vallejo Putty. It is a miniatures putty made by a Spanish company but sold across most of the world.,fh244q5,Noob_to_3D,5b19a9ri
"Never thought of drywall putty. I wouldn't think it would stick to the plastic. A 3d pen would be good for big gaps and such, but in this case, I'm more looking to smooth out a really large surface.",TheOriginal_RebelTaz,ldqgq,fh23yo3,"I have used drywall putty, and am not super happy with the results I have gotten so far.a lot of places I have seen people recommend using a 3d pen to fill the gaps after assymbly and that seems like it would work well, but I have not personally tried it",fh1uqqb,nefarias_bredd63,16hq52
I suck at mixing equal parts. Kind of hoping for a single part product.,TheOriginal_RebelTaz,ldqgq,fh23v28,"The folks at Tested.com use Bondo, an automotive body filler. They seem to get excellent results. You apply it then sand the surface smooth.",fh1v6ns,randombadger36,13qo2g
"I've used Testors putty in the past. If the Tamyia is anything like that, yeah... I wasn't to impressed with that either.",TheOriginal_RebelTaz,ldqgq,fh23to3,I tried tamyia putty. Not pleased. Maybe try bondo next because should have some in the garage,fh1v8wf,luisij,2gd175cm
I didn't know that Bondo made a single part product. I'll have to try that. Thanks.,TheOriginal_RebelTaz,ldqgq,fh23rsp,I like using spot filler bondo. Air dries quickly and sands easy,fh1xdf7,Tweaked86,12e0lpbi
"I can't speak for their endurance under alcohol, but I do know that they (pla prints) hold up very well to gasoline. I would think if they can withstand a petroleum product, alcohol would be like water?",TheOriginal_RebelTaz,ldqgq,fh1jif6,"Well that really depends on a few things lol. How long it takes or how big of a pain in the ass it is to swap out being the big ones.

I was just genuinely curious what was used to print it because washer fluid is basically alcohol and methyl hydrate and the chemical endurance of these plastics is of interest to me.",fh0brsk,kmart_s,4zcnfzro
That the great thing about 3d printers. It breaks/wears out? You print another couple of dozen and you are still so far ahead of the game.,TheOriginal_RebelTaz,ldqgq,fh0akzx,What material? Any worries the alcohol in the fluid will deteriorate the plastic over time?,fgyfg18,kmart_s,4zcnfzro
why?,TheOriginal_RebelTaz,ldqgq,fghx68z,"Whatever you do, do 

#NOT

touch usenet.nl. never. It's a bad idea.",fgaun15,LoLlYdE,hglym
"I did contact them when I got it about a complete parts list (the manual for some reason doesn't include an all in one parts list, so I had to go step by step to create my own spreadsheet) and even though this model is almost twenty years old, they're sending me a manual in the mail. I was going to get in touch with them after I got that, but I wanted to have backups in line, just in case. I will try them, though. Thank you.",TheOriginal_RebelTaz,ldqgq,fgelks9,They actually have great customer service and replace missing pieces for free. You can do it all online. I would recommend trying that route.,fgeifmt,chemaster23,65wj6
lol... Is it bad that I wish I'd found more MegaBloks in the collections I've bought?,TheOriginal_RebelTaz,ldqgq,fgelez7,"Goodwill

Every time I buy a collection in Craigslist, I always end up donating the megabloks that are mixed in ...",fgeeogd,moonfallsdown,a2pmm
"Trust me when I say that I am on your side in this, but have you seen the number of people in stores now who absolutely **must** wipe their carts down with disinfectant wipes before they'll touch it? I have no idea how the human race ever survived before people started doing that. As for boiling your fruit... my dad had a friend who I swear would wash his fruit in rubbing alcohol before he would it.... because you know... isopropyl alcohol is so much better for you... 8|",TheOriginal_RebelTaz,ldqgq,fge82ap,"If it was that easy to poison yourself the human race would have died out.  Do you boil all your fresh fruit and veg in disinfectant?  Does a soil particle in your lettuce kill you?
An occasional rinse with a baby bottle disinfectant (Milton fluid ?) should be sufficient.
First see if you can actually make a waterproof container. You probably need 4 or 5 perimeters and maybe run at the top end of the nozzle temp range for the filament to get as good a seal as possible.  Maybe over extrude a bit as well by increasing the extrusion multiplier by a few percent.",fgcs696,Gt6k,nchwy
It was this one - https://www.thingiverse.com/thing:4059483 - on Thingiverse.,TheOriginal_RebelTaz,ldqgq,fgdwwm5,"Where did you find the STL for this? I recently bought a set of pewter MoTU minis off of Etsy, and this is perfect for a diorama!",fgco4ga,VonFunkenstein,5frt4
"Do you really think that the entire world runs every cooking and eating utens8il through a dishwasher on a sanitize setting? You do know that there are people who have lived generations just by hand washing their food stuffs in tolerably hot water, tight? My argument is that everything in life poses a risk to some degree. To keep harping on people about 3d printed items not being ""food safe"" is ridiculous. If we were talking about something that was printed in lead and covered in asbestos and rolled in mercury, alright.. you might have a point. My argument is just fine. You do you... I'll be me... and OP can be OP.",TheOriginal_RebelTaz,ldqgq,fg991q4,"You have to look at normal usage. People often will reuse measuring cups without washing them, merely wiping them out. My stainless steel measuring cups aren't porous and that isn't an issue for them.

People regularly wash cutting boards and knives, and you can absolutely put knives and most cutting boards into a dishwasher on a sanitize cycle. People don't wash measuring cups in the same way and you can't put PLA in on a sanitize cycle.

Your argument literally hinges on the concept that because people accept some risk, they can't argue against other risks. You're trying to pretend that ""acceptable risk"" = ""food safe"". It isn't food safe. Does that mean it is inherently an unacceptable risk? No.

You also can't pretend as if something is **equally as food safe** as another thing simply because it can be sanitized under ideal conditions.

Essentially, there are so many holes in your argument that I could drive a bus through it.",fg77agf,beldaran1224,p2sli
"Umm... yeah.. Are you trying to imply that a 3d printed measuring cup, for some reason, **can't** be regularly cleaned with hot soapy water - and would thereby be just as food safe as the products to which I pointed?",TheOriginal_RebelTaz,ldqgq,fg76dso,You mean things that are regularly cleaned with hot soapy water?,fg71yhy,beldaran1224,p2sli
And yet people still buy those non-food safe plastic cutting boards :),TheOriginal_RebelTaz,ldqgq,fg5tcmp,https://www.nytimes.com/1993/02/10/health/wooden-cutting-boards-found-safer-than-plastic.html,fg5svye,snowe2010,53c7i
"It's amazing how bullshit gets upvoted to the High Heavens, but speak truth and you get downvoted to hell.",TheOriginal_RebelTaz,ldqgq,fg57f4g,"show me evidence, because I'm pretty tired of the parroting masses repeating things they don't actually know. Show me a quantified report of the ***actual risk*** involved, that supports the ""food print bad because bacteria"" argument, then I'll consider it. 

Here's one on the additives, metals, and VOCs. no mention of bacterial concerns mentioned because it's an environmental impact study. I can find no similar resources actually proving bacterial concerns are greater than your fingernails are, which you don't clean well enough.

https://www2.mst.dk/Udgiv/publications/2017/05/978-87-93614-00-0.pdf

> Publisher: The Danish Environmental Protection Agency

> Editors: Eva Jacobsen, DTIInge Bondgaard Nielsen, DTI Jeanette Schjøth-Eskesen, DTI Christian Holst Fischer, DTI Poul Bo Larsen, DHI DenmarkDorthe Nørgaard Andersen, DHI Denmark

> ISBN: 978-87-93614-00-0

And here's an FDA resource you can cross reference for the chemicals stated in the report above, for posterity: https://www.accessdata.fda.gov/scripts/cdrh/cfdocs/cfcfr/CFRSearch.cfm?CFRPart=177",fg4xhnt,ubermeisters,b4483
Don't forget cutting boards with their knives cuts and wooden utensils.. No where for bacteria to grow in there...,TheOriginal_RebelTaz,ldqgq,fg56y3j,"Copy and pasting a previous comment of mine for the REEEEEEE FOOD SAFE crowd 

>Just sand it smooth and it gets rid of the grooves. Boom, food safe. 

>Epoxy sounds worse, it would chip off of any moving parts and you couldn't put it on the threads anyways. 

>Also its just flour.anything able to grow in the printed grooves would be able to grow in the rest of the bag. 

>People on this sub rage about ""food safe prints"" but literally every home kitchen ever wouldn't even come close to passing a health inspection. There's a very very good chance the grooves on a flour bag seal are the least gross thing in your kitchen.

>Actual proof: https://www.ncbi.nlm.nih.gov/m/pubmed/22082498/

>Everyone saying BuT wHaT AbOuT eCoLi!!!! Paper is a very good vehicle for cross contamination but i don't see you raging about herb/spice containers paper wrappers, or the paper of the flour bag itself. 

>Just wash your damn hands regularly and everything will be fine 

>Have you ever used your phone while shitting? Or checked it while cooking without thinking twice? Way way way worse https://time.com/4908654/cell-phone-bacteria/

The original post was about a flour bag seal but same shit applies to all pla prints",fg52y0j,rbcornhole,98oku
"I haven't done professional tests, but I printed a friend of mine a cap for a fuel pump that is constantly submerged in gasoline. Several months later, he is still using it.",TheOriginal_RebelTaz,ldqgq,ffw5hvx,"Nice idea. Is that for an automobile fuel line? Some 3D print materials will actually dissolve in contact with certain substances, which may or may not be a problem for a part that will be in contact with gasoline. This is just what 3D printing would ideally be used for, but parts like that are made of a material that is selected by their engineers based on specific tolerances. I'm very concerned about the printed part's durability compared to the professionally engineered part. Can we get some info on what the original part's materials are and so we can look at how the difference may or may not affect real world use?

While I'm commenting, you mentioned concerns about the print direction. [This guy](http://youtube.com/channel/UCiczXOhGpvoQGhOL16EZiTg/videos) has done about a zillion videos on how the strength of a 3D printed part will be impacted by the print material you use, the thickness of the layers, the direction of the print, and just about everything else you can imagine. You may find his information useful.",ffvyio2,DementorAsMyPatronus,5gpgrrmu
You need the Kindle DeDRM plugin for Calibre.,TheOriginal_RebelTaz,ldqgq,ffp2tls,"Yes, I use it to convert epub to mobi.

But I want to know is how to convert an ebook that I've bought for Kindle or downloaded from my library - how do others make them?",ffogtp8,IHeartKittenTummies,4buxq0p0
I just wanna know why the cat didn't tell you when s/he saw you doing it?,TheOriginal_RebelTaz,ldqgq,ffk2kpx,"I was talking with my cat (yes my cat) and made a comment “I saw a guy on reddit that forgot to take the cap off! Ha! We’re not gonna do that are we?” 


We did indeed",ffjnsoc,suicidebylifestyle,7069z
"I agree with you. I hate when perfectly beautiful inner workings are hidden behind covers because modern people think their not ""pretty"". Motorcycles and car engine bays come to mind - I would much rather rip all that plastic off and see the beauty within :)",TheOriginal_RebelTaz,ldqgq,ffjnu30,Idk why but I love that look. Makes it seem like theres a lot more going on than some plastic being smushed through a hot nozzle  ;),ffj8fos,squaredk2,7gqep
Could be... I know mmf manually checks everything before it's allowed live.,TheOriginal_RebelTaz,ldqgq,ffj4lit,"Maybe they have a manual check for copyright, nsfw etc?",ffiu09n,anomalous_cowherd,e1et0
"Awesome. One more reason to add to my list of ""get one, already"" pros :)",TheOriginal_RebelTaz,ldqgq,ffj4i5g,"https://www.3dhubs.com/knowledge-base/sla-3d-printing-materials-compared/

Equal strength to ABS but stronger than 3d printed abs because no chance of layer adhesion issues. More comparable to injection molded abs. So very very functional.",ffitmbv,rbcornhole,98oku
Man I keep threatening to get one of those. I was under the impression that resin parts weren't resilient enough for functional use. Have you done similar projects before? How did/do they hold up?,TheOriginal_RebelTaz,ldqgq,ffiocid,These are the nuts to go along with the bungs previously shown. Total unit resin cost is .52. Sale cost is $25.50.,fficaxi,tranz,1zv5d
"I've been using that for a while now. Not only do they import your designs, they automatically import your designs as they are uploaded. Oddly enough, though, for some reason, designed uploaded over the weekend are not imported until the following Monday. Odd for what I would think would be a computer task.",TheOriginal_RebelTaz,ldqgq,ffinusn,"Cults3D now has a page where you put your Thingiverse username in, then they go and import all your designs to Cults3D with the same sharing conditions.",ffingli,anomalous_cowherd,e1et0
Oh wow! I guess the enclosure might account for the thermal issues too - making it hotter than it expects it to be.,TheOriginal_RebelTaz,ldqgq,ffb46n3,Picture posted for you. Very... melty. I kinda assumed I was doing something wrong but wasn't sure what as I have gotten quite good at calibrating. Hopefully removal of the enclosure will help as I had some great prints with the Creality PLA.,ffb0792,amoacii,o5fkc
"I knew what you meant. That phrase just bugs me, though. Maybe not in this particular case but, a lot of times, even if you search something yourself, you might not how to properly word something to find anything useful or you still might not find what you're after. I just don't understand why people will take the time to tell someone to search it themselves rather than just ignore a request if they aren't going to be helpful. Asking questions is how we learn. I'm just sayin' is all....",TheOriginal_RebelTaz,ldqgq,ffayu85,"It's a saying, it means search for shit yourself like most people do because you have the whole worlds knowledge at your fingertips. Some people took it too seriously though lmao",ffarsmy,LeThisLeThatLeNO,8v8h9
g@@gle is no ones friend.,TheOriginal_RebelTaz,ldqgq,ffaqa82,Google is your friend,ff8h6xh,LeThisLeThatLeNO,8v8h9
"You mentioned to someone else that you are using an enclosure. If your ambient temperature is, say 60°or higher, you might not want to use that enclosure... or at least with it closed. I have an enclosure on my tarantula, but I only add the fourth wall when the temperature drops to about 50°... otherwise I experience heat creep that affects the print. Speaking for myself, I would love to hear how this print came out.",TheOriginal_RebelTaz,ldqgq,ff8hzrw,I'm trying out those settings now to see what happens!,ff899bk,amoacii,o5fkc
Do you have the link to these? I can always use something like this in my shop.,TheOriginal_RebelTaz,ldqgq,feukzo1,"I think it was designed for a Briggs and Stratton lawn mower engine, but it worked great on my 1nz-fe Toyota/Scion engine.",fesrpjc,Dbiked,11b27k
"Holy Crap!

1) Thank you so much! 

2) This is the reason that I do not own a vehicle newer than 1990. I had a 1979 Pontiac TransAm once that caught fire in the wiring harness. I stripped the entire harness out and ran maybe twenty wires. Can ran just fine. I don't know why on earth vehicles have to  have all this crap on them. 

3) Thank you again. Hopefully I can figure this out for him.",TheOriginal_RebelTaz,ldqgq,fet8fv3,"Here is a bunch of service documentation that someone printed off from Ford OASIS.

http://www.2gfusions.net/showthread.php?tid=1106

Some diagnostics you simply will need a OBD reader and software to read module error codes as it could be a module issue. Forscan can do this for free, if you have an OBD II adapter to connect to a PC.

Wiring is good place to start, but don't rule out a module issue. Modules can also point out wiring issues.",fesx4cp,Demache,6uql7
":) good luck. If you get it working, I'd love to know.",TheOriginal_RebelTaz,ldqgq,fepbevl,"It does not look that hard actually:
 https://github.com/stevenvo/DeDRM_lib/blob/master/lib/DeDRM_Kindle%20for%20Android%20Key_Help.htm

Stll some hope...",fep6mu5,ghiste,2kr6uh6e
"OK... how about this: https://www.epubor.com/3-ways-to-remove-drm-from-kindle-books.html#M4

After that... I'm out of ideas :) Sorry...",TheOriginal_RebelTaz,ldqgq,fep2wq1,"Avoiding having to install kindle via wine would have been the main advantage of being able to download the files directly.

I am able to transfer the keys from my old installation but unfortunately I can only download Kindle-files for my Android-devices and not for my this PC installation and for these the keys don't work.

The files are encrypted not per user but per kindle-installation and with my old keys from my pc installation I cannot decrypt the files I can download.

I would need to figure out how to obtain keys from my rooted android devices, but for the time being I guess I stick with my old vm.",fep0i2b,ghiste,2kr6uh6e
"Ah... Yeah, I have a Kindle, so I was able to use the serial number from that. I found this in the plugin archive that should help you:

----
**Linux Systems Only**

**Instructions for installing Wine, Kindle for PC, Adobe Digital Editions, Python and PyCrypto**

These instructions have been tested with Wine 1.4 on Ubuntu but are now very out of date. 

 1. First download the software you're going to to have to install.
    a. Adobe Digital Editions 1.7.x from http://helpx.adobe.com/digital-editions/kb/cant-install-digital-editions.html
       (Adobe Digital Editions 2.x doesn't work with Wine.)
    b. Python 2.7.X for Windows (x86) from https://www.python.org/ftp/python/2.7.13/python-2.7.13.msi
    c. PyCrypto 2.1 for 32bit Windows and Python 2.7 from http://www.voidspace.org.uk/python/modules.shtml#pycrypto
       (PyCrypto downloads as a zip file. You will need to unzip it.)
 2. Install Wine for 32-bit x86.  (e.g. on Ubuntu, Open the Ubuntu Software Center, search for Wine, and install ""Wine Windows Program Loader"".)
 2a. [update] Kindle for PC now requires Windows 7, so in the following setups, choose any option for Windows 7, not Windows XP.
 3. Run ""Configure Wine"", which will set up the default 'wineprefix'
 4. Navigate to ""Install an application"" and install Kindle. Alternatively, run `winetricks kindle`
 5. Install Adobe Digital Editions. Accept all defaults and register with your Adobe ID.
 6. Install Python 2.7.x using `msiexec /i python-2.7.8.msi`. Accept all defaults.
 7. Install PyCrypto 2.1. Accept all defaults.
 8. Unzip DeDRM_plugin.zip and move kindlekey.py to somewhere in drive_c, such as ~/.wine/drive_c/DeDRM/libraryfiles/kindlekey.py.
 9. Run `wine 'C:\Python27/python.exe' 'C:\DeDRM/libraryfiles/kindlekey.py'`, or wherever you copied kindlekey.py to.
 10. Import the resulting key file to the Calibre plugin through the Kindle for Mac/PC ebooks option.


**Instructions for getting Kindle for PC and Adobe Digital Editions default decryption keys**

If everything has been installed in wine as above, the keys will be retrieved automatically.

If you have a more complex wine installation, you may enter the appropriate WINEPREFIX in the configuration dialogs for Kindle for PC and Adobe Digital Editions. You can also test that you have entered the WINEPREFIX correctly by trying to add the default keys to the preferences by clicking on the green plus button in the configuration dialogs.",TheOriginal_RebelTaz,ldqgq,feozalx,"The problem I am facing is that as I don't have a Kindle installation I need to obtain the key files in to configure the plugin in another way.

How did you do that?

I",feotx0k,ghiste,2kr6uh6e
Calibre is 3.21 and the plugin is 6.6.1. Not a problem :),TheOriginal_RebelTaz,ldqgq,felmn3k,"Thanks a lot for this tip. I found it. So all I would need is calibre with the plugin.
Can I ask you what version of calibre and the plugin you are running?
Many thanks.",fekxrik,ghiste,2kr6uh6e
"If I remember correctly, and I think I do, you can go to your Amazon account and download the DRM'd files that you are supposed to offload on to your Kindle via USB. Just download those files and feed those into Calibre.",TheOriginal_RebelTaz,ldqgq,fek9jlw,"Aha. My case is that I don't have a Kindle device, but buy books on Amazon and obtain the files I feed into calibre via the Kindle for PC windows-software. And I remember I once tried to install kindle for PC under Linux with wine but did not get it to work.",fejbwzp,ghiste,2kr6uh6e
"As someone who used to use Photoshop and has been using gimp under linux for a decade, I'm just curious as to what it is about gimp specifically that you are so against?",TheOriginal_RebelTaz,ldqgq,feiuma4,"I haven't tried Glimpse (will do now), but Gimp is not what I'm looking for. I've tried to get into it a few times and I hated it with a passion each time I did. As for drawing, I don't do that.",fe1c0sj,Pipkin81,t0m3z9w
"By Kindle installation, do you mean do I have the kindle software installed to read the books? I don't. I read the books on an actual Kindle, but if I did want to read the books on the PC, I'd just use Calibre's built-in reader. 

You can connect your Kindle to your PC via USB. Calibre will detect the reader. You can then copy the books from the Kindle to your PC, with the DRM stripped, through Calibre.",TheOriginal_RebelTaz,ldqgq,feiu1j9,"Great, that's good no know, many thanks.
Do you also have a Kindle-installation on Linux or where do you get the books from that you feed into calibre?",feimzil,ghiste,2kr6uh6e
"Ah... Groot... everyone's favorite Baby Yoda :) And Bart... I can lol but only because I have worse that I was not going to post online for the world to see! lol... I didn't see an mjoinir, though? Maybe I overlooked it? What kind of paints do you use?",TheOriginal_RebelTaz,ldqgq,feho4nf,"yeah i was being a bit harsh - i know what you mean that the camera makes prints look much worse than the eye. i meant no offence and take no offence at your reply. [here](https://www.thingiverse.com/sej7278/makes) are my makes, Mjolnir is probably my best paint job, or the alien egg or groot (but groot is an easy paint+wash with no sanding as its supposed to look like wood!) bart simpson was horrific, no idea what went wrong there!",fehiplo,sej7278,4axdx
"You know what... I just realized something. I called this the wrong thing. It's not for the gas cap, it's the retaining ring that holds the fuel pump in. But... even at that, it's not supposed to be this tight. You might have to loosen it with a tool, but once it's loose, it is supposed to just spin right off. This one wouldn't.",TheOriginal_RebelTaz,ldqgq,feh8c7y,What sort of shitty engineering necessitated a wrench to get a gas cap off?,fegqb5k,ikvasager,5jnb9f
";( 

It looks much better in person, trust me. The camera and the lighting shows way more flaws than does the naked eye. 

The ""sub"" (it's actually a starship from the cartoon Futurama) is actually airbrushed and it's not that thick. I did do a few coats of filler primer, though, to get rid of layer lines. 

I know it's hard to tell emotion in text, and in today's world, every one is so touchy, so I want to preface this with - I am not being mean, sarcastic or an ass - but... have you got an example of anything you've painted? We all learn from each other and I would love to see some of your work. Maybe I might learn something.",TheOriginal_RebelTaz,ldqgq,feh7cpt,"Lol that first one is not a good example as loads of later lines still, sub looks good though (maybe use thinner paint). I agree you have to use primer or you'll be there all day trying to get acrylics to stick to PLA.",feg7kt1,sej7278,4axdx
"For some reason, this cap is super tight. I checked the threads on the cap and the tank to make sure they aren't chipped, stripped or otherwise marred, so I don't know why, but before I made this, I had to use a screwdriver and a hammer to get it off. Crazy...",TheOriginal_RebelTaz,ldqgq,feh6vui,What sort of shitty engineering necessitated a wrench to get a gas cap off?,fegqb5k,ikvasager,5jnb9f
... all the more reason :),TheOriginal_RebelTaz,ldqgq,fecsjub,"That's amazing. I want to print that, but I feel like my wife would be annoyed.",feclk22,Jmmcyclones,b69l0
"I'm just curious... why would you need more **holding** torque for a 3d printer? I mean, unless the printer is going to be getting bumped into routinely, that wouldn't matter would it? Or am I overlooking something?",TheOriginal_RebelTaz,ldqgq,fdu1byn,"The most important difference is the holding torque, which is a measurement of how much rotating force is required to force a stationary stepper motor shaft out of position. Usually, the bigger the stepper motor, the higher the holding torque.

This one, a 17HS4023 according to the label, is pretty weak with only 14 Newtons.centimeter (N.cm) of holding torque (at least that's the info from the datasheet I've found on Google), but that also depend on what application it'll be used. For 3d printers you ideally want steppers with holding torque in the range of 40 to 50 N.cm.",fdst99o,vinnycordeiro,d6syn
"Awesome. Thank you. And beautiful job, by the way :)",TheOriginal_RebelTaz,ldqgq,fdtm2u2,object/3d-print-summer-80679,fdtjolh,rojogrande79,zaoh1
Thank you :),TheOriginal_RebelTaz,ldqgq,fdf6977,This is a payed model - you can get it here [https://fundrazr.com/aliceinwonderland](https://fundrazr.com/aliceinwonderland),fddzq9o,joaoubaldo,ljfnaf3
No problem :),TheOriginal_RebelTaz,ldqgq,fd5n6m4,wow thank you so much,fd4wm1t,electricdom,2dfhjcq0
"lol... yes... yes,, I do :)",TheOriginal_RebelTaz,ldqgq,fd110ke,"That is a solid design

.. And with the text along the side - you truely have a geek inside you!",fd10fbn,troels_dk,i15c7qt
"That is true, but on every application I've worked on, I have found very few instances where there a provision to reroute the oil away from the frame. Newer models do usually have a spigot of some sort, but that isn't always a given.",TheOriginal_RebelTaz,ldqgq,fcll4uw,Because the same engine is used in dozens and dozens of different applications. If you wanted to relocate the plug your could just use plumbing fittings and tube.,fcle2pz,i_yell_at_tree,7bkfv
lol... sorry about that. It is so hard to know when someone is joking or just being sarcastic in text. But yeah.... right?,TheOriginal_RebelTaz,ldqgq,fcc5l9g,"lol, yes that was the point of my attempt at a joke; if the PLA is melting then his face is already on fire and there are much bigger problems to consider at that point in time than ""PLA won't withstand that heat"", ""PLA creep is gonna get ya"", and everyone's favorite ""but it's not food safe!"".  I understand your reaction because we see the same dire warnings in the comments of most posts, and no one has died yet (that we know of).  Perhaps no one follows up because they've all died of PLA poisoning?!  r/PLAconspiracy",fcbmzna,tropho23,8ceqgq
"Unless you specified Non-Commercial Use, unfortunately, s/he is within their rights to sell the printed models.",TheOriginal_RebelTaz,ldqgq,fcb0hgc,"Creative Commons. So just credit is due I guess.

https://creativecommons.org/licenses/by/3.0/",fcawd9j,fc3sbob,5lwys
