child_body,child_screen_name,child_user_id,child_tweet_id,parent_body,parent_tweet_id,parent_screen_name,parent_user_id
Nah. We need people to keep going out and then come home hug their parents and grand parents so I can finally afford a decent flat for less than 200k in Brussels.,TheRealRedditCEO,o8dce,fkkw25l,"Je m'en foutism is going screw us over so bad. Sometimes I'm just too ashamed of this country. I'm sick of all people who think they can be the exception, and in response say that they're simply ""not panicking""",fkkk3ak,Mixh2700,ncdh4
"From the very article. 

>There will be a coronavirus testing site, not from Google but from Alphabet sister company Verily. “We are developing a tool to help triage individuals for Covid-19 testing,” Google tweeted in a statement. “Verily is in the early stages of development, and planning to roll testing out in the Bay Area, with the hope of expanding more broadly over time.”",TheRealRedditCEO,o8dce,fkhve0l,It must not have been clickbait-ey enough because you didn't read the article.,fkhu4hh,GlitterInfection,tdjwkzf
Cheap oil ducks with my “green” investments. :(,TheRealRedditCEO,o8dce,fk3c10i,Nothing much :( was wondering what will be the oil's impact on our economy,fk3bply,N4040,15996bpi
The had a pretty bad year in 2019. Not so much to do with Corona. Now there might be some opportunity there as their P/E is now under 10 which is a bargain.,TheRealRedditCEO,o8dce,fk3aa6c,Poor Inbev getting shorted for its Corona beer.,fk215jg,steffoon,pqd86
Thank god for global warming!,TheRealRedditCEO,o8dce,fk39ymf,"Yeah, since it's a flu like virus there is speculation it might die down quite a bit when temperatures rise.",fk39923,FirnenY,h2k86
Try posting anything about water vapour or cloud cover impacting temperatures and watch how fast that gets downvoted into oblivion and/or deleted.,TheRealRedditCEO,o8dce,fjsohct,"Gotta control that narrative man. They don't want people in there asking shit like ""Can a group of gasses that make up less then half of 1% of Earth's atmosphere REALLY mess with the climate?""",fjs1e0c,Sandy_Knees,5ujogw1w
Condolences man. Had a friend pass away by slipping on their fucking shower. So many stupid ways to die. :(,TheRealRedditCEO,o8dce,fjji47p,"One of the mutual friends le boyfriend and me already had before we met died in a traffic accident past Monday. It's pretty damn rough.

Funeral on Saturday and I'll be dedicating the set I'm playing in Antwerp that night to him. Big group of friends is joining to pay the last respects in the way he liked so much - with going crazy on music.",fjjhnr9,Intergalaktica,26z3qs89
We deserve the same faggy rates Eurofags get!,TheRealRedditCEO,o8dce,fj3x8mq,negative rates or gtfo,fj3t2xl,stiveooo,9amaa
"Russians did it, clearly.",TheRealRedditCEO,o8dce,fj3ml7v,"Fully explains the trump administration, I will bet a months pay he will blame everybody else.",fj0gjaa,walter1950,15ufv1oz
"Do you realise that's not Reddit, the admins can't help you there?",TheRealRedditCEO,o8dce,fj3me1p,"That is pretty awesome - we have to take it over, somehow: make it into something like r/flatearth",fj2kx2q,Veilwinter,11pyvtq
Just block the users. The difference is there you’re the one in control.  Or the platform.,TheRealRedditCEO,o8dce,fj3268o,"That place is full of racist folk. Any topic you can think of escalates into either you being a jew, mexican who should be here or their favorite word for a black person.",fj2d6ch,lessyes,fvlsb
"There was an insightful comment here.

It has been deleted in protest of this website having turned into a fascist propaganda outlet.",TheRealRedditCEO,o8dce,fiv6zrl,"As much as i dislike joke schauvlieghe, i definitely think she works out of a personal mission to serve the country in some way",fiv6dd0,robinkak,8zw52
"There was an insightful comment here.

It has been deleted in protest of this website having turned into a fascist propaganda outlet.",TheRealRedditCEO,o8dce,fiv62qu,"I guess you are thinking of something like OpenCourseWare. Unlike OCW, courses on the edX platform are not just videos of 2 hours long ""magistral lessons"", they are made of short videos integrated with quizzes etc. I think it's better than just videos on Youtube.",fiu4brt,vlokm,kajzt
"There was an insightful comment here.

It has been deleted in protest of this website having turned into a fascist propaganda outlet.",TheRealRedditCEO,o8dce,fiuc3k0,"Could you give please examples of federal politicians with intentions beyond reelection? I am curious, because I personally have no clue",fitwph8,itSmellsLikeSnotHere,3lqbwnvn
"There was an insightful comment here.

It has been deleted in protest of this website having turned into a fascist propaganda outlet.",TheRealRedditCEO,o8dce,fiu4o54,Why would any tax adviser give you answers on reddit for free? Go find a fiscalist/bookkeeper,fitg3so,ThirteenthGhost,8v7v2
"There was an insightful comment here.

It has been deleted in protest of this website having turned into a fascist propaganda outlet.",TheRealRedditCEO,o8dce,fityisu,Every other time I own options it happens at some point. .15 price and somebody buys at 1.50,fitt2xz,64OunceCoffee,2y9fcyjr
"There was an insightful comment here.

It has been deleted in protest of this website having turned into a fascist propaganda outlet.",TheRealRedditCEO,o8dce,firok2f,Who is Digg? :),fiq3ysk,AzrielDemonis,46q39oh
"There was an insightful comment here.

It has been deleted in protest of this website having turned into a fascist propaganda outlet.",TheRealRedditCEO,o8dce,fir4h3o,Pretty cool technology,fir3w9d,chicken__soup,opgc4
"There was an insightful comment here.

It has been deleted in protest of this website having turned into a fascist propaganda outlet.",TheRealRedditCEO,o8dce,fiqhz56,"There it is. ""They're racists! They're xenophobes! They're anti-gay!"". Listen to me. If you've spent any amount of time on The Donald you'll realize we are anything **BUT** racists. The most ""racist"" thing (if you could even call it that) that you'll find is stuff like ""it's ok to be white"" which is a fact. So this boils down to 2 reasons: you have either never been on The Donald and are taking the word of deranged leftists on the rest of the subs, in which case, **Fuck you**, or you have been on The Donald and know we aren't racists and are just lying through your teeth for some reason. In which case, you guessed it, **Fuck you**. So, in conclusion, either one or the other, my response to you is as following: **Fuck you**.

Edit: and btw, posts from The Donald used to flood the popular page. Literally like 40% of posts on there came from TD. What happened in 2 years? We support the same president. Is it more likely that we changed or that you decided it's ok to censor us now?",fiqe0rk,yaboimankeez,2ofp5ax4
"There was an insightful comment here.

It has been deleted in protest of this website having turned into a fascist propaganda outlet.",TheRealRedditCEO,o8dce,fipz6j2,"> Cant really use nicknames with the last two digits of their year of birth without being labeled nazi.

I'm roughly of that generation. I remember the local ""social media platform¹"" we had when I was a teen, which showed age and gender next to the nickname. Whenever someone's name ended in 88 I double checked their age to make sure it's not a Nazi.

¹had direct messages via pop ups, a forum, party pictures, user profiles with guest books, and showed you the last ten users who looked your profile. What more would anybody ever want?",fipynvd,muehsam,10zmhw
"There was an insightful comment here.

It has been deleted in protest of this website having turned into a fascist propaganda outlet.",TheRealRedditCEO,o8dce,fipw2uu,Antibiotics for flu!?,fioxyrb,populationinversion,xpm5g
"There was an insightful comment here.

It has been deleted in protest of this website having turned into a fascist propaganda outlet.",TheRealRedditCEO,o8dce,fiod050,"You're better off asking in the Dutch sub indeed cause here it will be deleted for being in violation with Belgian law.

That said, Eeklo is not a great location to take public transport to the Netherlands and Belgian police occasionally check international passengers from the Netherlands (or maybe that's just a thing in Limburg, pssibly)",fioapax,41C_QED,4io1o01i
"There was an insightful comment here.

It has been deleted in protest of this website having turned into a fascist propaganda outlet.",TheRealRedditCEO,o8dce,fio351t,The EU exports its trash to these rivers.,fingfpz,PrittiLittleLiar,5qgt01xq
"There was an insightful comment here.

It has been deleted in protest of this website having turned into a fascist propaganda outlet.",TheRealRedditCEO,o8dce,finbfjv,"The outbreak in Italy is driving this morning's bloodbath.  

Because of the Schengen zone, the individual countries of the EU will have a much more difficult time trying to stop the spread from Italy to all corners.  

Wall Street baked in a 1 quarter blip; this is bleeding into Q2 and possibly Q3.",fin015t,gopoohgo,mh82p
"There was an insightful comment here.

It has been deleted in protest of this website having turned into a fascist propaganda outlet.",TheRealRedditCEO,o8dce,fimm7t7,"...which is amusing since that's actually how the Amazon [was formed in the first place.](https://www.dailymail.co.uk/sciencetech/article-3173398/Is-Amazon-rainforest-MAN-8-MILLION-humans-lived-farmed-basin-peak.html)

TL;DR The Amazon was a lot patchier in the past and the rise of slash-and-burn agriculture helped form patches of terra preta which, after the natives abandoned those regions, were overtaken by the jungle, creating the contiguous forest we know today.",fim5q4h,mct1,4o6k6
"There was an insightful comment here.

It has been deleted in protest of this website having turned into a fascist propaganda outlet.",TheRealRedditCEO,o8dce,fimm188,"The rainforest is actually a terrible place for agriculture because so many of the nutrients are locked up in pre-existing plants and not the soil. The only way to make it work is slash and burn agriculture, where you burn a section of the forest to the ground and then use the ashes as fertilizer.

Of course when you do that people lose their shit.",fim50ud,Proto_Sigma,y6x3k
"There was an insightful comment here.

It has been deleted in protest of this website having turned into a fascist propaganda outlet.",TheRealRedditCEO,o8dce,ficxxdw,She has a perpetual 'spoiled child on the verge of a tantrum' face,fic0010,PatWibbleWobbleTits,4r88a3d6
"There was an insightful comment here.

It has been deleted in protest of this website having turned into a fascist propaganda outlet.",TheRealRedditCEO,o8dce,ficxlr3,"1 trillion euros.  they're gonna need a lot more rapefugees for that. 

;)",fibffg5,CiceroVoltaire,j8qavm2
"There was an insightful comment here.

It has been deleted in protest of this website having turned into a fascist propaganda outlet.",TheRealRedditCEO,o8dce,fi9nstu,Is Doel actually ever gonna happen? I recall a Suske & Wiske album about it from like... 1997 or something?,fi7xcwt,Vordreller,3ycqo
"There was an insightful comment here.

It has been deleted in protest of this website having turned into a fascist propaganda outlet.",TheRealRedditCEO,o8dce,fi6qqfv,Source?,fi6ps32,leadingthenet,8vh3q
"There was an insightful comment here.

It has been deleted in protest of this website having turned into a fascist propaganda outlet.",TheRealRedditCEO,o8dce,fi6i6x7,"No, the problem is that some poeple dispose the plastic bags in the oceans/nature. Plastic bags in itself is not a significant climate or environmental problem.",fi6hunn,Giant_oarfish,1ol1iefu
"There was an insightful comment here.

It has been deleted in protest of this website having turned into a fascist propaganda outlet.",TheRealRedditCEO,o8dce,fi6g221,If it continues to be like this we will be the only ones using plastic bags,fi68yw5,LukaHrup,2nd4tqbj
"There was an insightful comment here.

It has been deleted in protest of this website having turned into a fascist propaganda outlet.",TheRealRedditCEO,o8dce,fi6fyiy,Someone has a hate boner for Hungary 😂,fi68uvd,leadingthenet,8vh3q
"There was an insightful comment here.

It has been deleted in protest of this website having turned into a fascist propaganda outlet.",TheRealRedditCEO,o8dce,fi4m7ic,Was thinking the same thing. Had to search for a thread.,fi4ie1u,ungoliant666,117o64
"There was an insightful comment here.

It has been deleted in protest of this website having turned into a fascist propaganda outlet.",TheRealRedditCEO,o8dce,fi3j4ys,"The ""let's pump this meme stock"" shit around here is ridiculous lately.. ever since r/all and news outlets have been showing up and watching",fi2lkfu,gravityCaffeStocks,4vtqk2e5
"There was an insightful comment here.

It has been deleted in protest of this website having turned into a fascist propaganda outlet.",TheRealRedditCEO,o8dce,fi3ahgu,"Yes.  The separation of powers of government of the US places foreign policy under control of the executive branch.  The President dictates foreign policy, and the state department falls under him.  Chris Murphy, and all members of Congress are a separate branch of government.  None of their duties include shaping or handling foreign policy, and attempts to do so, especially if it is at odds with what the president wants, is bad.  Chris Murphy’s job is to represent the state of Connecticut in the Senate.  That’s what our tax dollars are supposed to go to. Not for him to jetset around the world meeting with foreign leaders whose mantra is “death to America” while trying to undermine a foreign policy set by the president.  And this goes for all members of Congress. 

It hasn’t been raised as an issue in the past because typically they would meet with foreign leaders and support the foreign policy set by the president.  Obama’s they obviously supported.  But because all they can do now is “REEEEEEEE ORANGE MAN BAD” their TDS has driven them to the point that they just blatantly do it in the open.  

My opinion is that it is still all bullshit.  All members of Congress should be banned from this foreign travel on taxpayer dime bullshit.  Their job is to represent states and constituents in Congress, not travel the world with this shit.  I’m calling republicans out too.  I think it’s bullshit. What makes this worse is the blatant attempt to undermine foreign policy.",fi39huf,Logan_W_Logan,ki35h
"There was an insightful comment here.

It has been deleted in protest of this website having turned into a fascist propaganda outlet.",TheRealRedditCEO,o8dce,fi38kiq,"Dear /u/TheRealRedditCEO,

Your submission has been removed because 
of rule 9: Content is not relevant to Belgium or Belgians specifically.

You can find more information related to our rules on [our wiki](https://www.reddit.com/r/belgium/wiki/index#wiki_rules).

Kind regards,

Nerdiator",fi37eep,Nerdiator,bl165
"There was an insightful comment here.

It has been deleted in protest of this website having turned into a fascist propaganda outlet.",TheRealRedditCEO,o8dce,fi36qeb,"Get a cheaper car so that you can pay for a parking spot?

(Edit: also corroborate a sob story.)",fi04utx,Gotebe,2y75
"There was an insightful comment here.

It has been deleted in protest of this website having turned into a fascist propaganda outlet.",TheRealRedditCEO,o8dce,fi36o1e,Parked there for many years and never had any issue.,fhyea3z,PasLagardere,alo7vra
"There was an insightful comment here.

It has been deleted in protest of this website having turned into a fascist propaganda outlet.",TheRealRedditCEO,o8dce,fi1lo1m,"Blijft binnen de mogelijkheden van jonge mensen (jonger dan 50 jaar).

Well, at least I’m officially young again!",fi173nf,GentGorilla,16am9p
"There was an insightful comment here.

It has been deleted in protest of this website having turned into a fascist propaganda outlet.",TheRealRedditCEO,o8dce,fi0p6h7,"Good, more money for the ecological transition.",fi0ldki,Pampamiro,12fsqx
"There was an insightful comment here.

It has been deleted in protest of this website having turned into a fascist propaganda outlet.",TheRealRedditCEO,o8dce,fi0omb8,Seems like an oddly implemted piguvian tax.,fi05q8o,TVEMO,3bhgrz3f
"There was an insightful comment here.

It has been deleted in protest of this website having turned into a fascist propaganda outlet.",TheRealRedditCEO,o8dce,fi073ix,Oliver should take into account that after 5 years the newly bought car still has resale value. The fine money is just gone.,fi05bga,chicken__soup,opgc4
"There was an insightful comment here.

It has been deleted in protest of this website having turned into a fascist propaganda outlet.",TheRealRedditCEO,o8dce,fi031jo,"This sub has been invaded by normies 

I have seen this shit happen to other subs and if the mods don't do something, the sub falls into chaos. 

This sub won't be a haven for much longer if the mods don't introduce some type of process to slow the rate of newbies posting.",fhy9mjg,eyedontgetjokes,35vcax50
"There was an insightful comment here.

It has been deleted in protest of this website having turned into a fascist propaganda outlet.",TheRealRedditCEO,o8dce,fi02lrw,"except that I'm one of those weirdos that has an old ass phone without apps , without google. but you're right.",fhxl7pt,Lorenzvc,ctsuf
"There was an insightful comment here.

It has been deleted in protest of this website having turned into a fascist propaganda outlet.",TheRealRedditCEO,o8dce,fhxj1i1,"Check this post from an Instagramaccount with old pictures of Brussels: https://www.instagram.com/p/B7gi94vg5ql/?igshid=qu4htwgyz9ki

Situation as it was in 1897. Notice the arch: still the original (single) arch!",fhxih7k,ArtHistoryBrussels,w0ovso5
"There was an insightful comment here.

It has been deleted in protest of this website having turned into a fascist propaganda outlet.",TheRealRedditCEO,o8dce,fhx3q9h,That's legal though. They have absolutely no right to fine you for that...,fhx3e4p,oompaloempia,mojbv
"There was an insightful comment here.

It has been deleted in protest of this website having turned into a fascist propaganda outlet.",TheRealRedditCEO,o8dce,fhx3nok,"Oh, I thought it was entirely in their hands now as they broke all cooperation with another private company for parking in Brussels. My bad then :)",fhx31lx,Akorna,djr76
"There was an insightful comment here.

It has been deleted in protest of this website having turned into a fascist propaganda outlet.",TheRealRedditCEO,o8dce,fhww9io,"It took literally one week after the CH attacks for the global narrative to change from ""We are all charlie!"" to ""ehh, they kinda deserved it for being so provocative"".

&#x200B;

I consider that particular battle well and truly lost for posterity. We'll continue to see this shift further in the same direction gradually though.",fhkse55,PleaseEndMeArgh,5o0c5kh4
"There was an insightful comment here.

It has been deleted in protest of this website having turned into a fascist propaganda outlet.",TheRealRedditCEO,o8dce,fhwvt93,"So you first want to King, who has no real political power, to reform our system to one where votes don't matter at all?",fhwjkgd,Arrav_VII,ab51p
"There was an insightful comment here.

It has been deleted in protest of this website having turned into a fascist propaganda outlet.",TheRealRedditCEO,o8dce,fhwrx8x,"Insofar as NATO is really the US, I have no doubt an invasion of French Guyana would provoke the US to war. History has shown that the US will not accept meddling in the Western Hemisphere... because that's a US-only meddling zone (unless your prime minister is the bestie of the president).",fhur63h,udderchaos69,2udhdt6j
"There was an insightful comment here.

It has been deleted in protest of this website having turned into a fascist propaganda outlet.",TheRealRedditCEO,o8dce,fhsuc54,"To be fair, this isn't completely true. Belgium isn't expensive for multimedia, Germany is just cheap for that.",fhsg391,copydoge,fuq8f5s
"There was an insightful comment here.

It has been deleted in protest of this website having turned into a fascist propaganda outlet.",TheRealRedditCEO,o8dce,fhsgs8h,"Wow, here I was thinking CD&V were a bunch of folks without ideology or vision only interested in getting positions. Turns out I was right, but now they want concessions on ethical matters, meaning they do care about one thing: trying to ensure we all keep living in the dark ages.",fhsccnk,SergeantMerrick,wuy8lrf
"There was an insightful comment here.

It has been deleted in protest of this website having turned into a fascist propaganda outlet.",TheRealRedditCEO,o8dce,fhs0hun,Does the right lane even exist?...,fhrw4ct,typo_1,21zi8uzc
"There was an insightful comment here.

It has been deleted in protest of this website having turned into a fascist propaganda outlet.",TheRealRedditCEO,o8dce,fhotq8s,you're kidding right? right?,fhor8ft,Tajil,5y6a4
"There was an insightful comment here.

It has been deleted in protest of this website having turned into a fascist propaganda outlet.",TheRealRedditCEO,o8dce,fhn3yct,isn't it creepy how the left wing is always on the side of murderers and the corrupt?,fhkwjr8,CreativeLion2000,d5opmev
"There was an insightful comment here.

It has been deleted in protest of this website having turned into a fascist propaganda outlet.",TheRealRedditCEO,o8dce,fhiyko5,">Means there are definitely better ways to do that.

Still empty and meaningless naysaying.",fhik9z7,silverionmox,32nmh
"There was an insightful comment here.

It has been deleted in protest of this website having turned into a fascist propaganda outlet.",TheRealRedditCEO,o8dce,fhi9ibt,Money alone can't make you ~~happy~~ dank,fhhfktn,VitezVaddiszno,10vayp
"There was an insightful comment here.

It has been deleted in protest of this website having turned into a fascist propaganda outlet.",TheRealRedditCEO,o8dce,fhi8gqf,"Without even saying what a weasel word like ""worst"" even means and what criteria you use, that's a meaningless statement.",fhhw0br,silverionmox,32nmh
"There was an insightful comment here.

It has been deleted in protest of this website having turned into a fascist propaganda outlet.",TheRealRedditCEO,o8dce,fhhjkco,it's called Voat and it's SUPER racist.,fhhdwz5,ZeusMcFly,4nq88
"There was an insightful comment here.

It has been deleted in protest of this website having turned into a fascist propaganda outlet.",TheRealRedditCEO,o8dce,fhhcmto,I thought it was the sun.,fhh9sr5,Space_Turkey,fnyar
"There was an insightful comment here.

It has been deleted in protest of this website having turned into a fascist propaganda outlet.",TheRealRedditCEO,o8dce,fhh0g54,"There you are again! I don't know why, but I'm happy you're here! You should comment more often, it brightens and old man's day.",fhgnfj7,miejas,zx161
"There was an insightful comment here.

It has been deleted in protest of this website having turned into a fascist propaganda outlet.",TheRealRedditCEO,o8dce,fhh06le,"> Well there is no point but it's the law. 

So what can citizens do, if not complain on the Internet?",fhfku93,ElBeefcake,a0e3k
"There was an insightful comment here.

It has been deleted in protest of this website having turned into a fascist propaganda outlet.",TheRealRedditCEO,o8dce,fhgzvqe,"Really, they are anal about those technical inspections",fhf0gpj,Nuclear1975,d7fxl
"There was an insightful comment here.

It has been deleted in protest of this website having turned into a fascist propaganda outlet.",TheRealRedditCEO,o8dce,fhfg3a7,This is why they asked for his opinion.  They thought they had a Bernie supporter.,fheheus,Tredge,gnh0a
"There was an insightful comment here.

It has been deleted in protest of this website having turned into a fascist propaganda outlet.",TheRealRedditCEO,o8dce,fhfb44g,How'd they clone Beto so quick?,fhez6ea,six5_SMK,xcylp
"There was an insightful comment here.

It has been deleted in protest of this website having turned into a fascist propaganda outlet.",TheRealRedditCEO,o8dce,fhe5uyk,Can’t see buttplug going toe to toe with any world leader.... can you see him working with Netanyahu?  Putin?  Iranians?,fhe18ug,TryinAsIGetOlder,17hqnj
"There was an insightful comment here.

It has been deleted in protest of this website having turned into a fascist propaganda outlet.",TheRealRedditCEO,o8dce,fhdwtrz,Youre only as good as your worst idea. Hard pass.,fhdremu,SonOvTimett,1330jy
"There was an insightful comment here.

It has been deleted in protest of this website having turned into a fascist propaganda outlet.",TheRealRedditCEO,o8dce,fhdwqn8,He needs to learn how to do math first. UBI is a broken idea.,fhdafuf,sasslfrassl45,120x0c
"There was an insightful comment here.

It has been deleted in protest of this website having turned into a fascist propaganda outlet.",TheRealRedditCEO,o8dce,fhdwmdc,Welcome aboard the Trump train. This train has NO BRAKES!!,fhd507g,EquallyDivided,16d9yd
"There was an insightful comment here.

It has been deleted in protest of this website having turned into a fascist propaganda outlet.",TheRealRedditCEO,o8dce,fhdtno4,I literally put 100 bucks on this to happen at +1700. Come onnn hill-dawg!,fhdj9u7,HueyLewisSendMeNudes,2ogycypi
"There was an insightful comment here.

It has been deleted in protest of this website having turned into a fascist propaganda outlet.",TheRealRedditCEO,o8dce,fhdo269,Yang was the only sensible democrat running so I give my kudos to him fighting hard against the communist opponents but he wasn’t ever gonna win because in order to be a “democrat” you have to be a communist leftist,fhctuqt,JohnnyFloridaa,10l6b7cs
"There was an insightful comment here.

It has been deleted in protest of this website having turned into a fascist propaganda outlet.",TheRealRedditCEO,o8dce,fhba0e2,"Nope nothing to see but dam you for taking a new born calf away from its crying mother so you can steal the mother cows milk for your coffee.  

Fuck the left.  Grown up in my teens and to about my mid 30s I was a pro choicer, but recently with this late term and after birth abortion crap I’m no longer on that side.   Pro life.",fhav6ry,Kriptskeeper,qrt89k0
"There was an insightful comment here.

It has been deleted in protest of this website having turned into a fascist propaganda outlet.",TheRealRedditCEO,o8dce,fh88nd2,"It's not that. It's that they put things in PMD that don't belong there, when there's a picture list above the container with allowed and not allowed materials.",fh7v2kf,kekonn,6fspn
"There was an insightful comment here.

It has been deleted in protest of this website having turned into a fascist propaganda outlet.",TheRealRedditCEO,o8dce,fh7okoe,"What is this refusal to sort properly? In my apartment (big building) there are always people leaving tin foil and plastic wrappings in the PMD bin, while there are drawings above the bin that make clear it does not belong there...",fh7m3cp,kekonn,6fspn
"There was an insightful comment here.

It has been deleted in protest of this website having turned into a fascist propaganda outlet.",TheRealRedditCEO,o8dce,fh7cvvv,That's because they're from the 90's through early 00's.,fh6uele,Chilkoot,3ig44
"There was an insightful comment here.

It has been deleted in protest of this website having turned into a fascist propaganda outlet.",TheRealRedditCEO,o8dce,fh7ad6a,"No doubt about that. The problem is that the benefits still outweigh the risk of breaking the law. At least that's what they expect. GDPR has some massive limits to which a fine can grow, so I can only think they expect no one will ever be fined that hard.",fh79cga,deegwaren,12vi2y
"There was an insightful comment here.

It has been deleted in protest of this website having turned into a fascist propaganda outlet.",TheRealRedditCEO,o8dce,fh32wjg,Spez?,fh2rvtg,bovineblitz,79w7t
"There was an insightful comment here.

It has been deleted in protest of this website having turned into a fascist propaganda outlet.",TheRealRedditCEO,o8dce,fgs695e,"\> because its way cheaper.

Whatever money you saved, you just lost it on the transfer.

Flixbus to Delft is a 6hr ride, with a transfer in Brussels. Might as well take the shuttle bus to Brussels railway station and take the train to The Hague?

[Skyscanner.net](https://Skyscanner.net) would probably have given you a few closer options (Eindhoven?)",fgpf241,Kingfisher_ybw,9qvh6
"There was an insightful comment here.

It has been deleted in protest of this website having turned into a fascist propaganda outlet.",TheRealRedditCEO,o8dce,fgs1hru,That money was literally printed though.  It hurt the economy more than anything.,fgrxoxw,BarackHusseinBobama,12j5a9
"There was an insightful comment here.

It has been deleted in protest of this website having turned into a fascist propaganda outlet.",TheRealRedditCEO,o8dce,fgs1dfw,"Is it really fair to say that Trump has been playing under ""Nightmare Difficulty""?

The current interest rates are below 2%.  They were around 5% for most of Bill Clinton's time in Office, and went above 5% for part of Bush's time in office as well.",fgrz08t,PhysicsDude55,13b7rn
"There was an insightful comment here.

It has been deleted in protest of this website having turned into a fascist propaganda outlet.",TheRealRedditCEO,o8dce,fgs02c6,what the FUCK was going on 8 years before Trump.,fgr4pjt,wheredidiputit,bxhw3
"There was an insightful comment here.

It has been deleted in protest of this website having turned into a fascist propaganda outlet.",TheRealRedditCEO,o8dce,fgou7p0,"When I was doing a short internship for my studies it was explicitly mentioned in the contract that I, by law, am not entitled to any compensation.

Now, these are internships in an academic program, I do receive ""credits"" for these.

I believe for any 'regular' internships you can actually compensate your interns.",fgotdur,DustRainbow,105kgh
"There was an insightful comment here.

It has been deleted in protest of this website having turned into a fascist propaganda outlet.",TheRealRedditCEO,o8dce,fgnfrz5,"> “The Presidential Medal of Freedom is an extraordinarily sacred award. We're talking about putting someone of the same level as Rosa Park, for example, in terms of contributions to American progress. Rush Limbaugh is a virulent racist. But, even just on top of that, to do it in the middle of the State of the Union, and not even dignify it with it's own ceremony as it has, there's all sorts of norms that are being violated. Not just for people's humanity, but it truly just cheapens the value of it. Also, him pretending ti be surprised was such a joke. This has been news all day. There have been multiple reports from multiple news outlets, saying that Rush Limbaugh was going to receive the medal of freedom. Then Trump announced it and he had to pretend that this was some kind of ""Oprah moment"" was so disingenuous. And to do that, and give it to Rush, when there were plenty of people in that audience who have contributed positively to the fabric of American society, much more frankly than he has. But you know, it's red meat to his base. Trump knows what he's doing, and he wants to assert that Rush is somehow on the same level as Rosa Parks, and it's truly nauseating, and it's one of the many reason I did not go.""

\- AOC, watch the video [here](https://www.reddit.com/r/AOC/comments/ezb39o/aoc_slams_trump_for_giving_violent_racist_rush/?utm_source=share&utm_medium=ios_app&utm_name=iossmf)",fgmbn7p,nnnarbz,t22xckq
"There was an insightful comment here.

It has been deleted in protest of this website having turned into a fascist propaganda outlet.",TheRealRedditCEO,o8dce,fgjdvbq,"[If you google it](https://www.google.com/search?q=iowa+caucus+results&oq=iowa+cau&aqs=chrome.0.69i59j69i57j35i39j0l2j69i60l3.1884j1j7&sourceid=chrome&ie=UTF-8), Google shows 0% reporting; and this is 12+ hours after the fact.",fgjchcl,SWTORBattlefrontNerd,rardj
"There was an insightful comment here.

It has been deleted in protest of this website having turned into a fascist propaganda outlet.",TheRealRedditCEO,o8dce,fginhkt,"Sorry for my English, but do you mean unuseful?",fgikh4f,Propeus,10fwijek
"There was an insightful comment here.

It has been deleted in protest of this website having turned into a fascist propaganda outlet.",TheRealRedditCEO,o8dce,fgij1vt,Do a master degree will pay more in the long run?,fgigkdo,Propeus,10fwijek
"There was an insightful comment here.

It has been deleted in protest of this website having turned into a fascist propaganda outlet.",TheRealRedditCEO,o8dce,fgibxig,"Well, yeah, Brussels is a special type of clusterfuck where the wealthier communes block expansions of public transport out of fear of poor people moving into the neighborhood.    

Normally, I'd say:""public transport shouldn't be organized at a local level"", but given the mismanagement of De Lijn and the NMBS, I'm not even sure if that would fix the issue.    

All levels of our politics need to change their mindset and embrace public transport rather than shun it, or it'll never work properly.",fgibaoi,SuckMyBike,47d2ud4p
"There was an insightful comment here.

It has been deleted in protest of this website having turned into a fascist propaganda outlet.",TheRealRedditCEO,o8dce,fgib430,">I live in Brussels and I can't say how many streets are turned into one way because reasons. Lanes are getting removed for no reasons.  

This is pretty much exactly what the Dutch have done and it seems to have worked out for them.   

Yes, public transport needs to improve, but it won't as long as our Federal and Flemish level politicians keep gutting the budgets. Cities can't wait and sit around until higher-level politicians get their head out of their ass, so the cities are doing what they can to stop cars from taking over cities.   

I can't fault cities for doing what they're doing. The issues with public transport are higher up than what cities are capable of influencing.",fgiasy5,SuckMyBike,47d2ud4p
"There was an insightful comment here.

It has been deleted in protest of this website having turned into a fascist propaganda outlet.",TheRealRedditCEO,o8dce,fgiam76,">That however doesn't mean cars should be banned entirely from urban areas      

I don't advocate for that. Cars have a useful place in our society, but they should never be the easiest and most convenient way of getting around in our cities.   

Making it deliberately hard to drive in our cities will ensure that only those that truly *need* to drive, will do so.     

>like the current trend is.     

Where are cars being banned completely?",fgiaak9,SuckMyBike,47d2ud4p
"There was an insightful comment here.

It has been deleted in protest of this website having turned into a fascist propaganda outlet.",TheRealRedditCEO,o8dce,fgia5uz,Ok. That doesn't change my opinion though,fgi9su3,SuckMyBike,47d2ud4p
"There was an insightful comment here.

It has been deleted in protest of this website having turned into a fascist propaganda outlet.",TheRealRedditCEO,o8dce,fgi9mwz,">When will it be enough then?    

When our cities look more like Dutch cities in terms of traffic than US cities.    

>Why don’t you like cars in cities?       

Because our historical city centers were not made for cars, they're built for pedestrians. Trying to have so many cars drive through them is severely detrimental to everyone who lived in them.   
And as we can see with our congestion that keeps rising every single year, it's not even an efficient way of moving everyone around.      

Look at Brussels. Plenty of space to drive currently, but would people let their kids bike there? Of course not. Even though cycling is a far more efficient way of moving people around than driving.",fgi9h5i,SuckMyBike,47d2ud4p
"There was an insightful comment here.

It has been deleted in protest of this website having turned into a fascist propaganda outlet.",TheRealRedditCEO,o8dce,fgi9cvx,"Given the amount of cars in our cities these days, it's not enough.",fgi8zs5,SuckMyBike,47d2ud4p
"There was an insightful comment here.

It has been deleted in protest of this website having turned into a fascist propaganda outlet.",TheRealRedditCEO,o8dce,fgi97rs,"I love how every bit of news about the LEZ is about how much money they are making from the fines and the vignettes.

Guess it was never really about cleaner air anyway?",fgi8ass,DavidHewlett,nqvj8
"There was an insightful comment here.

It has been deleted in protest of this website having turned into a fascist propaganda outlet.",TheRealRedditCEO,o8dce,fgi8sxy,Ok. Then we need to significantly increase street parking costs in our cities.,fgi8cmq,SuckMyBike,47d2ud4p
"There was an insightful comment here.

It has been deleted in protest of this website having turned into a fascist propaganda outlet.",TheRealRedditCEO,o8dce,fgi8pkv,"Meanwhile

France: we'll charge 4.40 for a vignette , because of yellow vests

Gent: yellow is the color of the enemy we'll charge 10 for a week access

Antwerp: enemy ? Enemy? i'll show you what we think, we'll charge 30 for a week.

France: but ours is for the whole country ....

Brussels: ... hehehe wait just a little more and we'll charge 38, woehahaha",fgi333i,Twenty4C,f88pl
"There was an insightful comment here.

It has been deleted in protest of this website having turned into a fascist propaganda outlet.",TheRealRedditCEO,o8dce,fgi8kt9,Why would this happen? If they arrive at a station early surely they just wait to depart at the correct time?,fgi7x9z,sinogrammar,klc2s6y
"There was an insightful comment here.

It has been deleted in protest of this website having turned into a fascist propaganda outlet.",TheRealRedditCEO,o8dce,fgi5bk5,"""Oh shit he's gonna kiss me again..""",fgi0mvu,ChickenBaconPoutine,96s27
"There was an insightful comment here.

It has been deleted in protest of this website having turned into a fascist propaganda outlet.",TheRealRedditCEO,o8dce,fgf78nr,"the developers can show all their ideas they want.it's up to the decision makers (city hall) to go with one of them.

In this case they saw a nice and blitz looking 3d rendering of a developer supported with a  smooth sales person/team, but didn't have the intellectual capabilities to understand the sales team only wants their €€€ and ended up with final installation which is ugly as shit.

&#x200B;

ps.: i'm talking about the underground bycycle parking which is much more ugly then those  60s/70s style apartment blocks",fgf76un,Twenty4C,f88pl
"There was an insightful comment here.

It has been deleted in protest of this website having turned into a fascist propaganda outlet.",TheRealRedditCEO,o8dce,fgeznw1,"Freedom of movement does not equal driving everywhere you want by car. By your logic things like pedestrian streets, streets that ban big lorries, or local traffic streets would all be illegal.",fgdu3sf,Leiegast,1g86g66a
"There was an insightful comment here.

It has been deleted in protest of this website having turned into a fascist propaganda outlet.",TheRealRedditCEO,o8dce,fgdg3t1,"> Trust me

Ah yeah ""Trust me"", two words people only say when they're talking out of their arse but want to sound legit. Why would I trust you instead of people that actually dedicated years and years of their life to understanding this problem?",fgdefae,NOFTW,1mo0idvf
