child_body,child_screen_name,child_user_id,child_tweet_id,parent_body,parent_tweet_id,parent_screen_name,parent_user_id
"Hell no, they will never lower our taxes",thetrooper424,dasfv,fl5ph1t,"Assuming they can turn a profit, would that mean that much less in taxes for individuals?",fl5bty8,lamephoto,ikk64
"Retirement age atleast, 60+. Who, other than kids, seriously considers 40 to be old?",thetrooper424,dasfv,fl5c2o6,Thats generally true but not 100% true.   And what is the cutoff for “old.”  80? 60?  40?,fl56xdq,smhanna,2y2n9
"Those 20-somethings already had respiratory issues. If you have asthma, and/or are old, stay tf home and let things get back to normal.",thetrooper424,dasfv,fl4yli7,"You dont get it.  Yeah old people have it worse, but there are still plenty of 20,30,40-somethings sick and on ventilators.   They won’t die if they get proper care, but the issue is we dont have enough beds and vent. for everyone to get it at once.",fl4xr4s,smhanna,2y2n9
I can't believe people are so quick to believe the nonsense China puts out. Everything they have released has been hogwash.,thetrooper424,dasfv,fl3vfzl,"When China returns to work and we get a second wave of infections the markets are truly fucked. (Assuming China will release these numbers and not censor them).

 Our only hope if we want the markets to rebound in a reasonable timeframe is effective therapeutics. 🙏",fl3uejv,Kungmagnus,4x0b0
"It's serious, but not to the point where we need to collapse the global economy over it. That'll do a lot more damage than this bug could ever do. It's mainly a threat to boomers and people with respiratory issues so just make them lie low till we get it under control. It's going to spread either way because your average person has no idea how to keep their nastiness to theirself.",thetrooper424,dasfv,fl34nvh,"Regardless of what the market has done or will do. 

Do you autistics think this whole situation has been overblown. Or do you guys believe this is an actual threat?",fl34f0v,ProOrlando,3p0cunas
They announced they would use their ships as mobile hospitals. It'll surely tank again next week.,thetrooper424,dasfv,fl1jiga,Why is CCL rising so much when their earnings showed a loss? I’ve lost over 2k this morning cuz of my puts,fl0vgaq,DestroyYesterday,17gwxj
RIP DIS puts,thetrooper424,dasfv,fl0yjfp,When your put is ITM and still -30%... you hate to see it,fl0ydto,SkyBIueDreams,3em2gxkf
"Yep, I'll quit sailing the seas if they'd offer a fair price. SK is killing it in the movie biz right now and are making them at 1/10th the cost of their Hollywood counterpart. If they'd scale things back over here then we might get something reasonable. Good luck convincing the top actors to get a paycut though. If you look into it, the entire movie/theater business is a scam.",thetrooper424,dasfv,fl0pkgs,Yeah. A lot of people don’t realize that. Dying industry still.,fl0oirj,Maximus_Retardes,57d3n1vu
That's the only way theaters make money. They get hardly anything from ticket sales.,thetrooper424,dasfv,fl0o8ko,CEO says AMC needs government aid now lol that's what you get for charging $200 for a popcorn,fl0o4ba,medinabard,mp9de
Still made money off them but thinking about bailing soon. We shall see what next week has to offer them. Feel like they have potentially bottomed out (CCL).,thetrooper424,dasfv,fl0n9fs,easier to bailout cruise ships by leasing them at stupid prices as hospitals than as actual legislation where cruises can get hit politically.,fl0likt,ZT0931XK,3zhfvrp1
Good thing you bookmarked this so you don't make such a bad decision.,thetrooper424,dasfv,fkzzofb,"I bookmarked your post; some interesting ideas right there. I'm currently holding some UPRO and TMF on regular margin and am nowhere near 100k so for now this will be off the table for me anyway, but who knows, perhaps it'll come in use at some later moment?

Can you please share an update of how you ended up after the weekend? Personally I'm up just a little due to TMF, I hope the same goes for you.

Also, I was wondering if this strategy would work with just straight up buying TMF and UPRO in a PM account, instead of options?",fk0teko,kerstverlichting,59kfn7pf
Lmfao I love this thread,thetrooper424,dasfv,fkzzijc,Hey it hasn’t been 2 weeks but here’s a reminder and this went poorly,fkymsn7,ncreddituser,37etwwt7
"""how many people are above 0 here""

RIP OP",thetrooper424,dasfv,fkzz5ej,"Yes but how many are above $0 here, much less above $125k minimums for PM? Gotta give everyone some goals with all the insane put money being made.",fjq7xa2,Adderalin,3pd6y9b1
Lmfao I'm crying rn,thetrooper424,dasfv,fkzyzdr,"my new amazing quant algo takes as input a list of my predictions and predicts which one I would've went with anyway, then predicts the most opposite prediction of that which I wouldn't have put money on, and puts all the money on that",fkzi7gi,midnightketoker,c4ax1
Remindme! 6 hours,thetrooper424,dasfv,fkzyibk,Even for 4/17 puts??,fkzwj1b,CrooklynDodgers,73z3o
Hundred round clip magazines? Yes sir!,thetrooper424,dasfv,fkz51sc,Do you need a hundred rounds to go with it?,fkx6fy3,XA36,5eqxc
Ulta premiums are through the roof,thetrooper424,dasfv,fkyqjpb,"$ULTA puts $140 05/01

They have over 1100 stores in the USA. All stores are shutdown and all employees are on paid leave. Current market cap over $8 billion which is highly overvalued 

On average, if one employee makes $2k (Total 44,000 Employees), they will lose 100 million every month. Then the store cost for 11,000 closed stores and other stuffs. Over 500 million expense every month. Also, most raw materials come from China. 

Colleges are off. Neither Karen nor Stephany is buying cosmetics to impress their bulls.",fkynxb0,peace_seeker007,16lzg7
Monday should be blood red. Good luck.,thetrooper424,dasfv,fkyqb42,Look how fucked or unfucked my 3/23 SPY 240p contracts are and then make a decision. Hoping I can stop being stupid every time I hit 10k cause every time I do I make a dumb play and lose a couple grand and then have to work back to it.,fkyo344,Bobby_Margarita,305u297w
Don't listen to superstitions. You can't predict the market that easy.,thetrooper424,dasfv,fky40ph,So Friday red because today is pumping hard green?,fky39em,NC4Life078,4a6h87fd
"Don't be a bitch. You've got all next week, especially Monday.",thetrooper424,dasfv,fky3t54,Im wrecked and done. Was pretty much all in on 3/27 spy puts at 242. This sucks,fky3ap5,Davejacobs257,we7sev1
You can't believe any numbers coming from China. A state-run media isn't going to publish something that tarnishes the name of their dear leader.,thetrooper424,dasfv,fky2p4b,"It is offical , The Italian got more dead than the China now :O eventhough china got like 1.7bil people

 [https://www.cnbc.com/2020/03/19/coronavirus-live-updates.html](https://www.cnbc.com/2020/03/19/coronavirus-live-updates.html)",fky275c,mages112,oajoyz6
This is the way.,thetrooper424,dasfv,fkxxc0o,"Yes GTFO, PTON and APRN are better put plays imo

Edit - Scratch that puts in play!",fkxwy3g,where-didigo-right,ru70i4p
A good news org.,thetrooper424,dasfv,fkxvt3h,Lmao who is OAN???,fkxvivp,peanut-britle-latte,448kxv4y
"Do you even read into what ""working two or more jobs"" might entail? A lot of it comes from people working two part-time jobs. It doesn't mean everyone is working two full-time jobs. That guy who works part-time at Arby's and McDonald's is counted just the same as the teacher who takes pictures on the side. It's misleading to act like the world is in peril, and the USA is the worst nation in the world, just because 5% of the working population have a side gig.",thetrooper424,dasfv,fkxkife,About a 1/4 of that is still a lot,fkxgwdr,RoyalFail6,511lihkt
"Lmfao it's not 5% of the total population, it's 5% of the working population. Try again.",thetrooper424,dasfv,fkxg0j1,That’s 5% of 331m. 16.55 m are working that many jobs,fkxeqte,RoyalFail6,511lihkt
"What, 5% of people work more than two jobs? Hardly ""many""",thetrooper424,dasfv,fkx9rzf,Or talk about jobs since many ppl worked more than one to survive,fkx9ksr,RoyalFail6,511lihkt
That kind of money will get you an escort with a full set of teeth around here,thetrooper424,dasfv,fkw8xnh,Decent hooker,fkw8em8,HuskyPants,h24lx
You really think after-hours is the end all be all? Wait till open.,thetrooper424,dasfv,fkw8km0,bears? what? sorry didn't hear you through the sound of these green dildos,fkw8iif,djst3venn,ts365
"Yeah, true. I really wish people shared the same mindset as Socrates when it comes to physical health.

""No man has the right to be an amateur in the matter of physical training. It is a shame for a man to grow old without seeing the beauty and strength of which his body is capable."" or some gay shit like that",thetrooper424,dasfv,fkvqnjr,"I agree, but alot of people dont want to do an intense at home workout while quarantined, they want something they can do periodically while passing the time, thats why I suggested doing pushups/pullups/situps instead of listing a while workout regimen.",fkvpvpq,spiner00,kgxye
"Noice, good stuff.",thetrooper424,dasfv,fkvolk4,MSFT puts,fkvl3xy,nsrbigshot,o4se3
"You're better off looking up some more intense calisthenic exercises than spreading a ""workout"" over an entire day. Programs like Insanity are high intensity, and only require about 45-50 min of your time. Spreading push-ups over an entire day will barely do anything for ya. Like I was saying to him, intensity is greater than volume. Running one mile will give you a better workout than walking five miles. Same with push-ups. Busting out 100 in one sitting will make you more sore than 1000 spread over a couple of hours",thetrooper424,dasfv,fkvoieh,Thanks my dude. Just did 10.,fkvjjun,Impetusin,civn8
"Intensity is better than volume. Running one mile does a lot more for you vs walking 5. Better to workout hard for an hour than wasting time, barely breaking a sweat. 

There are plenty of great calisthenic workouts out there (or some that don't require much gear) that are geared to an hour or less (insanity, p90x, etc).",thetrooper424,dasfv,fkvo0jc,"Prison workouts work, especially when you have nothing better to do. 10 pushups every 5 mins is 240 an hour, if you do that for 8 hours during trading hours thats almost 2k pushups per day. You can alternate between pushups, situps, and pullups too if you want, its a good way to stay in shape and really doesnt take that much time.",fkviv29,spiner00,kgxye
"GD homie, what moves did you make to get that cheddar?",thetrooper424,dasfv,fkvkqdk,"turned about 2k into 25k in a weeks time, trying to continue the climb into tendie heaven so i can post one of those gains posts, wish me luck now that i can day trade unlimitedly",fkviwj6,nsrbigshot,o4se3
If anyone knew that they'd be millionaires,thetrooper424,dasfv,fkvja7y,When is that 50b airline bailout coming? When do we expect trump to order  entire country to shelter in place? Should be about a week from now yes?,fkvj7a2,totally-not-russian,1twkmzbo
"Earliest put I have is 4/24, let's hope!",thetrooper424,dasfv,fkv7pxa,This is just the calm before the storm. We haven’t even dealt with the virus yet.,fkv6z2k,dogthatbrokethezebra,5blgb
"RIP, lesson learned though!",thetrooper424,dasfv,fkv24ga,Far but I was up tendies. And kiss em goodbye,fkv0g8m,SquintsRS,1whlvceg
3/20?,thetrooper424,dasfv,fkv1tr9,"Gonna let my 15k calls expire worthless, deserves it for being a piece of fucking shit",fkv03dc,treefellonme,ifppj
"Sorry bb, how far were you off the mark?",thetrooper424,dasfv,fkuzo8o,I was being greedy with 3/20 I deserve it,fkuz9l4,SquintsRS,1whlvceg
"Don't be a bitch, it'll go back down. It's going to get a lot more worse in the next two weeks.",thetrooper424,dasfv,fkuz66i,Diamond hands failed me so fucking hard,fkuywoe,SquintsRS,1whlvceg
These fake pumps are giving me a heart attack but still gonna hold.,thetrooper424,dasfv,fkuyab0,"Diamond hands gang, how we doing?",fkuxxqc,Lufbery17,c04v3
"Take the green when you can. Who tf knows what's going to happen in these coming weeks. That being said, running this 251p into the ground",thetrooper424,dasfv,fkuvpzz,"SPY $135p 6/19 is up 55% for me.

This a retarded positions and cash out now, or let it ride?",fkuvlgl,nitsuJcixelsyD,el2bs
"Easy, just don't retire for another decade!",thetrooper424,dasfv,fkuuwtl,Lol I lost 30% of my retirement but at least I made a couple thousand on puts right....,fkuus2n,EdgyInsurgency,221jl8rj
Lmao you'll be in good hands then,thetrooper424,dasfv,fkusenq,">What purpose will you be using it for? 

Mostly tent defense,  hunting of small urban game like squirrels and feral cats, possible hairline modification.",fkuq13i,imgurslashTK2oG,83lde
You've got two days. Take any profit you can get. Don't be greedy.,thetrooper424,dasfv,fkuqa1n,"Have some SPY 235P exp 3/20, do I sell?",fkupqqr,IAWFT,1t0cllkt
"Damn, nice! I'm over here sitting with my measly 251p",thetrooper424,dasfv,fkuq1m9,"Sold my spy 280p for 800% instead of waiting  another month, would've been 1000% if I waited 2 more fucking hours",fkups3s,HereForMadden,10qlut
"No it doesn't, daddy wants a new washer and dryer set.",thetrooper424,dasfv,fkupyjd,I am full on bear gang but this is not fun at all. We're going into straight up depression territory. SPY has to recover by EOD.,fkupsn3,uglyloser567,19z8jevl
"The 590. It's objectively better than an 870 and largely considered one of the best pump shotguns you can buy. You will not be disappointed! Get the 590 a1 model though. They also just came out with a new version so make sure you are buying the most up to date model! What purpose will you be using it for? 

870s have been dogshit since that other company took over in 08 or so. Never buy one until they fix quality control issues.",thetrooper424,dasfv,fkupsbf,Remington 870 or Mossberg 590? Asking for a friend.,fkup88y,imgurslashTK2oG,83lde
Not yet.,thetrooper424,dasfv,fkuomvh,APRN Puts?,fkuogkc,WCC96,n1aa5
"Depending on how far out, could be a good call.",thetrooper424,dasfv,fkun3mm,"Wait, so some of you guys bought $BA **CALLS** yesterday? 🤣",fkumo9u,The_Chillosopher,qknlu
They just suggested no one have more than 50% of their workforce in at a time. We definitely have a little more.,thetrooper424,dasfv,fkumyce,"I don't know about you guys but I'm definitely feeling some peak fear right now. The only way this could get worse is when I start seeing dead bodies in the street or I'm having to eat moldy, maggot ridden bread to survive.",fkumpt9,StressPooper,2sopd27
Never bet against Instagram thots!,thetrooper424,dasfv,fkui89a,APRN is dogshit. who tf will be paying 80 for 3 fucking meals when most grocers can ship for half the price,fkuhxut,Warzeal,nvett
"Yep, got in at 125.",thetrooper424,dasfv,fkuc1k7,Anyone playing WMT puts today?,fkubrzc,Mirithyls,14x1u0
I'm wondering how far they will go. Have 99p till 4/24 but there's no way the government would let Disney fall,thetrooper424,dasfv,fkubeu8,"I'm surprised no one is talking about the Mouse finally dying, everyone get scared off DIS?",fkub2ig,Monster-1776,27uqvsuv
"Yep yep, ride it to the ground!",thetrooper424,dasfv,fku9qj5,"The plan was to hold my CCL 15P and 17.5P until it hit around 12-15, but I can't resist watching this bitch sink",fku9ocy,Zerole00,pwgg9
Please tell me those are puts lol,thetrooper424,dasfv,fku7wz6,"I did it, I just bought my first options. $13 AAL 3/20 for 0.90. A whole $90 worth.",fku7jf0,beep2daboop,yyjcn
Got in at 125,thetrooper424,dasfv,fku565h,walmart all time high time for puts.,fku34gb,Rtat,cbqb0
Strike?,thetrooper424,dasfv,fku4gwi,bought some DIS calls 4/17,fku39ya,plinko_champ,3f9einuj
This is the way,thetrooper424,dasfv,fku0wxw,I'm holding my DIS and LYV puts thru April idgaf. Get rich or die tryin. Jerome doesn't scare me,fku0uk0,HonestManufacturer1,16nh0f7d
"Thx bb, stay green",thetrooper424,dasfv,fku046z,"https://www.whitehouse.gov/live/

11:30AM",fktzr1v,Rhavoreth,he83j
What time is briefing?,thetrooper424,dasfv,fktznhj,"Cashed out my 3/20 AMD $39p and AAL 3/27 $13p. Probably could have held the AAL for a little longer but gains are gains.

Waiting for the briefing to see what to get back in on",fktzbsr,Rhavoreth,he83j
"It can go down more, holding out just a little bit longer 💎 🖐️",thetrooper424,dasfv,fktzl1z,Why is this sub suddenly selling their puts?,fktzc7o,EightOneZero810,11k4ya
It's barely taken its toll in the states. We've got atleast another three weeks for sure.,thetrooper424,dasfv,fkrwg4b,I mean it’s down nearly 60%...,fkrugjz,GiannisFishesInMay,586wooot
"We're probably halfway there, who knows at this point.",thetrooper424,dasfv,fkru9dh,"I’ve been waiting for the bottom for a couple of weeks... this has to be it, right?!",fkrrx2l,GiannisFishesInMay,586wooot
"Hopefully more, got tendies depending on it 😎",thetrooper424,dasfv,fkrpv3r,How far will USO fall?! Lmao,fkrpjhz,GiannisFishesInMay,586wooot
"I was making fun of retards trying to prefict it was going to be one. You're retarded for not picking up on that, retard.",thetrooper424,dasfv,fkrphxg,"It's not a head and shoulders, you retard",fkrfloi,illhonky,5qukaphv
More people will be ordering stuff online versus going in person. Ballsy move,thetrooper424,dasfv,fkr88kq,I bought fedex puts I hope I’m not wrong lol,fkr85j4,jacobg867,28r90z2o
Remindme! 72 hours,thetrooper424,dasfv,fkr80dd,Scooped up some 3/20 AAL 19 calls,fkr7x7j,Particular-Wedding,5gazryvk
"Don't blame him, love WV.",thetrooper424,dasfv,fkr6fru,Donnie loves West Virginia. He is going to buy land there.,fkr67jy,opiablame,g47mt
Massive buyback. It won't last forever 🐀 🔫,thetrooper424,dasfv,fkr19oe,disney is really starting to piss me off... this god damn rat just wont die,fkr143c,nomoneyball,53ymw5xw
He mentioned them in passing last press release,thetrooper424,dasfv,fkr0umu,"Why would the govt move to help cruise lines when we’re facing 2008 levels of unemployment, they know what’s in store for us, the think tanks have probably been working on this since December",fkqy1q1,taerin,4ezsx
4/24 far enough?,thetrooper424,dasfv,fkqxqo8,Guys use the pumps to buy long dated puts. You can get raped on a short term rally with near dated but take advantage of the rallies,fkqxme1,shamusotool,ss7kd
Wouldn't it be the other way since they are guaranteed to be saved?,thetrooper424,dasfv,fkqwcpb,Won't airlines rip up if he mentions anything about airline bailouts??,fkqw52a,Chillton,6lny5
Is there a good tutorial for that app?,thetrooper424,dasfv,fkqv4w6,Think or Swim lets you repeat trading days with fake trades to train.,fkquumq,lawhoo_,iqcsl
https://giphy.com/gifs/climate-crisis-greta-thunberg-un-action-summit-U1aN4HTfJ2SmgB2BBK,thetrooper424,dasfv,fkqrm69,"Me, I'm watching Frozen II on Disney+. Sorry dude",fkqqf2y,exe_1623,151ezk62
"Try as they might, this 🌈🐻 can wait.",thetrooper424,dasfv,fkqrhsu,Disney themself. Buybacks.,fkqpzz7,Brad7659,ceab0
They can definitely go below 80. In it for the long haul with this one! 4/24 99p,thetrooper424,dasfv,fkqqzt9,DIS DIAMOND HANDS!!!!,fkqquph,BuckinChuck,52gvv4
"Appreciate the write-up! Had a kid not too long ago and I haven't had as much time as I'd like to research everything. Next up is all the greeks and IV. Yes, you answered my question. That's awesome you're able to consistently trade enough to keep a weekly income though. That's what I'm trying to do atm but have to learn things the hard way from time to time.",thetrooper424,dasfv,fkq1zry,"Depends on factors like IV as far as how much profit margin you're going to have. But the market as volatile as it right now, it's pretty consistent. Due to IV being so high and contracts being so expensive, I've been testing it on $SPY with my paper account. I've had three running this strategy, two weeklies (last week and this week). Along with one expiring end of the month. Last week's was at strike $275 so that ended up in the money. Would have been worth around $2.5k I held. But I sold for around +$500 profit.

The 3/20 $SPY 215p I have is currently up around +$150. Same with the 3/30 $SPY $200p. So if I bailed out of both right now, that's +$300 profit and they're not even close.

One real option I have right now is a 3/20 12p $JETS option that I'm waiting to develop a bit more before flipping.

Not sure if that answers your question but I wanted to be as transparent as possible. Note, I also have a pretty small account ~$1300 USD. So my paper account is set up to reflect relatively the same buying power. I'm between jobs right now and its my only source of income. So I have to play like a pussy and take (relatively) weak gains when they present themselves. I only use around 5% of my real buying power to buy into an option. The rest is in small but diversified dividend positions and one growth position (AMD), since it's been holding like a champ and has significant alpha potential once corona subsides.",fkq15yt,BluechipData,5g77u7sv
"So, is that a consistent strategy? Just buy something so cheap, that probably won't ever make money come expiration, but the second the market leans that way it becomes instantly profitable?",thetrooper424,dasfv,fkq0t2e,Could have done that by buying a < $3.00 5% OTM weekly put option on $SPY last week if that's the bar you're aiming for brah.,fkp71nn,BluechipData,5g77u7sv
"You still have plenty of time to either get green, or atleast get close enough to recoup some loses. Just buy farther out next time!",thetrooper424,dasfv,fkowif5,I bought puts 80 strike March 27th. I feel like committing suicide.,fkol088,fadetoblack123,z7z5gnz
"Patience, my child. They have many more parks to close in the near future; plus, any movies being released are going to tank because no one will be able to go to the theaters. (pretty sure they already moved back some movies)",thetrooper424,dasfv,fkojk0s,Can someone explain to me how Disney is going up? I don’t understand the metrics on how this could close at $95 dollars? Am I missing something? This went up 6 percent since open. How ? How is this not below 90 dollars?,fkoizo2,fadetoblack123,z7z5gnz
"It'll break overnight like it did with 270, 255 etc",thetrooper424,dasfv,fkoj5xq,I think SPY 245 just became resistance.,fkoj0th,StanleyCup19,10q3z2
I have 99p 4/24 and I'm still not making money on it due to how high I bought it. Cut loss and rebuy is the better bet?,thetrooper424,dasfv,fko0163,"Closed out my DIS 100p.  Still holding May $85p, up 800% on them.  But those are riding free so no worries.",fknzcon,bzboy,4eazr
25% of Italy is geriatric. This virus mainly affects their demography. Comparing nations isn't necessarily a 1-to-1 ordeal.,thetrooper424,dasfv,fknzv8v,"398 deaths in a single day in Italy - that’s absolutely fucked. 

We fucked up so bad waiting this long to do anything. 8 week lockdown at minimum and even still we’re probably already fucked. 

Cases double in number every 6 days. 

Welcome to a once-in-a lifetime event, hopefully.",fknzd0k,tvvt,f44sa
Bump,thetrooper424,dasfv,fknzmmz,"Disney $100p 3/27, hold or sell?",fknzhev,CrownRoyalPapi,15dti4
"No doubt, have 99p 4/24 and I'm still down a couple 🤦‍♂️",thetrooper424,dasfv,fkntxbi,"I'm STILL losing money on my DIS puts, what even is this.  Go to 90 again you fucks!",fkntiuq,karmalizing,6uruq
150 is way too optimistic. Probably best to swap while you can.,thetrooper424,dasfv,fkntqk0,"Should I sell my last SPY 150p 4/01 while it's still worth more than I paid for it, or should I wait for another fall? Bought at $0.51 currently $0.59",fkntlxb,chihuahua001,t3znq
"Yeah, I bought into DIS a little too late and kind of got fucked (they'll be ITM but won't make near as much as what I could have).",thetrooper424,dasfv,fkn2q3u,Premiums on all those are so gd high though. Plus you need to look at volume and open interest when buying.,fkn09oq,SneakerHeadInTheYay,1054hs
Thanks bb,thetrooper424,dasfv,fkmmrh5,Thinkorswim,fkml89d,formerbuck,126g0q
"Ah, I see you like to buy high and sell low too!",thetrooper424,dasfv,fkmljhi,"didnt sell my dis puts before the pump friday, and even if it's red massacre tomorrow, itll only barely be below its starting point before the pump",fkmj6m7,Crabbing,h469l
"Hey man, what site/program are you using to watch the market? Looks nifty.",thetrooper424,dasfv,fkml51u,"This market is making me develop a drinking habit but happy to be using profits to buy Angel’s Envy 😤

Cheers to another big week of tendies retards 🥃🥃


https://imgur.com/a/yzZB5kg",fkmj7x8,formerbuck,126g0q
"Stick to stuff you know will take a shitdive (cruise lines, air lines, theme parks, etc). EZPZ",thetrooper424,dasfv,fkmj1mo,"You seem to know more than me, is buying 4/24 or 5/1 msft puts a good idea tomorrow? Thinking of doing it",fkmfamb,PersistantBlade,emlu9c
I was here!,thetrooper424,dasfv,fkmit0v,"This is crazy.  We have never seen such moves in the stock market before, and we may never see it again in most of our lifetimes.  This market will be studied for decades to come, and I guarantee you, us autistic asses will be mentioned in the history books.  Truly unprecedented.",fklj1p0,IWorkForTheEnemyAMA,twuul
Gay is the way,thetrooper424,dasfv,fkmigr8,This is the gay,fklzo4g,metalninjacake2,7lkpd
Lmfao what platform are you using?!,thetrooper424,dasfv,fkg5zsv,What platform are you using? My shit is delayed 15min and i have to call in my orders like im in the 70’s,fkfd29b,brokenarrow326,4dmg35t2
Appreciate the response! Now I gotta go back through and watch them all to compare...,thetrooper424,dasfv,fkg5q3k,"Plot holes and dumb story lines.  
  
1. Why would the commissioner have every uniformed officer and swat team enter the tunnels? It would obviously backfire.  
  
2. You can't just steal Bruce's wealth at the stock exchange. It's clearly fraud and would never go through.  
  
3. The police vs prisoners fight completely undermined a theme from the dark knight.  
  
4. Sending off every bad guy to jail doesn't solve the problem. There's a root issue as to why people go into crime.  
  
5. The destruction of gotham was a bit overdone.   
  
6. Robin figuring out that Bruce Wayne was Batman based on nothing but a hunch",fkfql4f,jondonbovi,dy3im
If I had a time machine I'd do a lot more than that,thetrooper424,dasfv,fkf2y3a,"take a time machine back to yesterday and sell at EOD, when you should have",fkf19zb,infamousnj69,e8kw322
"Thanks, figured that for the IV but have to do research on the Greeks this weekend.",thetrooper424,dasfv,fkf2rpl,"No, theta is related to time decay. There’s nothing to be done about IV, any options you buy right now are going to be crushed by IV. Just hold and hope volatility calms down. You still have a month on a 4/24 expiry",fkf0zoj,ThatsRich,6f20y
Good deal.,thetrooper424,dasfv,fkf0q3y,Hold the damn thing and average down if it’s fucking you. Warning: this can wipe your account. Only make plays with money you’re comfortable losing.,fkf0bfp,black_and_shredded,3crah6lt
Sounds like I better pucker up and hang in there then. Let's hope these eventually print too,thetrooper424,dasfv,fkf0j51,I have no idea on any of that stuff to be honest. It's alarming lol I just know i've been printing money holding on to puts,fkf08dy,contruc4,cbwky4i
It's -0.1275. What does that mean to an aspiring autist? Dump these and look for a higher theta?,thetrooper424,dasfv,fkf0ebm,Look at theta,fkf0886,HonestManufacturer1,16nh0f7d
"Yep, got 99p 4/24 and IV is bending me over.

Edit: How do you deal with IV? Should I sell now, cut my loses, and buy back in later?",thetrooper424,dasfv,fkezjcd,Probably bought blindly without considering IV rape,fkez44n,Six1Cynic,7i62c
