child_body,child_screen_name,child_user_id,child_tweet_id,parent_body,parent_tweet_id,parent_screen_name,parent_user_id
Hmm. Could be that BitwardenRS (which I’m using) doesn’t have that issue? I know it uses a different db. But I guess I’ve never tried beyond just upgrading (downloading and clearing) docker images.,txTxAsBzsdL5,484yfds6,fl1w5sa,"Just a word of warning, that won't work. The sa db password is regenerated for each new install, and the global environments file that houses the sa password will still have your old one. What you need to do is spin up your new containers so that the new sa password is written to the new env file, then stop the containers, copy the new pass to your old env file, overwrite the new bw_data folder with your backed up one, then start the containers.

Otherwise bitwarden will refuse to start. 

A little cumbersome, but worked for me twice.",fl1rx1s,feerlessleadr,93a6i
"And the brand new iPad Pro is barely better than the last. So this rumor makes sense, and the signs are there for people who are looking.",txTxAsBzsdL5,484yfds6,fl1hrde,"Bought the iPad 3 right away. Couldn’t believe the 4 came out a few months later. 

Now, with Apple products, it’s usually a case of “your product worked just fine so don’t complain” but it.... didn’t. The 3 was underpowered for its display and was not a great device. The 4 was better in every way and came 6 months later.",fl0kp0o,fadetowhite,4owaf
Right all you’ll have to do then is just point a new docker install to that folder and you’re up and running again.,txTxAsBzsdL5,484yfds6,fl0bv6l,Never thought about that mostly because i didn’t know what the other files were exactly. But i will look into this as well because that’s essentially exactly what i want,fkz4m68,chansharp147,18ovh4h
"Right, there’s definitely room for a 12-inch ultra portable machine in the Mac lineup. As crazy as it seems, there are plenty of PC laptops substantially lighter than the Air. Hard to believe Apple will cede that market for much longer.",txTxAsBzsdL5,484yfds6,fky2cap,I like the idea that's been floated around that the MacBook name will get revived for the first ARM laptop Apple does. Ideally with a profile similar to the 12 inch MacBook.,fkx9hfj,rappr,g5ydx
"No slowdowns in anything that I’ve noticed. So I don’t feel like I absolutely need an upgrade. It’s solid enough that the current regular iPad is using it (just a 10 I guess?) and no ones really complaining. 

I think it’s good enough to wait for something with 5G.",txTxAsBzsdL5,484yfds6,fkx9rwv,How is the 2nd Gen performing for you with its A10x?,fkx5obx,TechExpert2910,3eu8d4lu
"Since DSM 7 isn’t even having a preview until later I’m the year, I’d love for them to use 5.6 to enable WireGuard in their VPN Server.",txTxAsBzsdL5,484yfds6,fkvb1v8,"Depends on the kernel they will use.

Kernels since 5.4 do support r8125 (via the r8169 driver) out of the box.",fkv9xq5,vetinari,826z
"I don’t know what they’re doing. I guess I just don’t see as much differentiation in the two products as there was in the past. 

They could very well be about to jack up prices in the upcoming entry level MacBook Pro. It would be consistent with their Pro = Expensive mentality of the last couple years.",txTxAsBzsdL5,484yfds6,fkunewv,"Do you think they're trying to encourage people to buy this rather than a 13"" MBP?",fkumrc8,mediocre-spice,104yfosl
I think the new 11 is $799. Maybe $749 at the lowest. Sounds like you snagged a good deal!,txTxAsBzsdL5,484yfds6,fkukaff,i just snagged a refurb 11” from apple’s website for $549. not sure what it was priced at before but it seemed like a decent discount. i think i remember them being $699 before.,fkuha1u,owenparker3,ygw4aqg
"I have a 2nd gen iPad Pro and I’m waiting. There were weird rumors of another 5G revision in the fall. Given the CPU upgrade (or lack thereof) in this one, it does seem more likely now. Apple did update iPads this quickly once before (iPad 3 had a short life), so it wouldn’t be totally unprecedented.",txTxAsBzsdL5,484yfds6,fku7hv4,So should I wait then?,fku4zs8,NormieSpecialist,2j7byfkj
"Sure doesn’t look like it, but I think Apple has a return policy if you want the new one for the same price. I’d look into that.",txTxAsBzsdL5,484yfds6,fku7b7r,So I don’t have to hate myself for having bought a 11 pro half a week ago?,fku29go,and3rs0nL,j3a8w
"Most people (including myself) don’t upgrade every time. And the original Apple Pencil was upgraded after the iPad Pro was upgraded a second time (meaning it only lasted one upgrade cycle). So unless you upgraded from 1st to 2nd gen iPad Pro, the original 
Apple Pencil wasn’t something you could carry on to your next iPad Pro.",txTxAsBzsdL5,484yfds6,fku77j9,The first Apple Pencil didn’t get a revision for three years. How is that one use only? It’s also still compatible with lightning connector iPads.,fku6o07,redfricker,vv5nc
"Truth is I can’t tell. There’s no mention of it using the smart connector, but it seems reasonable it does. Couldn’t decipher it from their site.",txTxAsBzsdL5,484yfds6,fku1748,Won’t it be charging through the smart connector?,fktzyzs,allnutty,b3z4v
Sounds like something Synology could bake into DSM 7. Maybe contact them and/or post in their forums about this.,txTxAsBzsdL5,484yfds6,fktziu1,"Adding this driver to DSM would instantly add support for many types of USB Ethernet adapters, I'm all for it.

The consumer models don't have support for a 10 Gb upgrade, while most can easily saturate a 1 Gb link.",fks1ayf,donny007x,7z0dt
"Yes, the new keyboard works with the late 2018 models. Two usable cameras, one LIDAR camera for AR. So it’s an upgrade but not the same layout as the iPhone.",txTxAsBzsdL5,484yfds6,fktyxfk,the new keyboard works with it? isn't the camera array now 3 instead of 1,fktwurk,blebbbbbbbbbbb,4eid63jy
"That 256 GB has my attention. It should mean the elimination of all HDDs in iMacs coming up, because 256 is plenty for an entry level.

The weight is interesting though. It’s just that much closer to the MacBook, so I’m not sure what the point is if it’s not so light. PC laptops are coming in sub-2.5 pounds. I’m assuming a light (ARM or otherwise) MacBook is coming in the next six months, because that increased Air weight doesn’t make sense from a product line perspective.",txTxAsBzsdL5,484yfds6,fktul0u,"$999. 256GB storage. 8GB RAM. Scissor Keyboard. Retina Display.

Apple heard us.

Edit: more info

It’s 8GB **3733MHz** LPDDR4X memory — damn that’s *fast*, upgraded from 2133MHz in the 2019 model!

It’s also a *little* heavier, at 2.8lbs compared to 2.75lbs. Zero complaints for all they added. Apple. Heard. Us.

Edit 2: kind of wish they added Wi-Fi 6 but I guess that’s an Intel limitation?",fktswqj,Prof_Redd1t,3s8xr7sq
"[Yes](https://www.apple.com/ipad-keyboards/)


Compatible with
iPad Pro 12.9‑inch (3rd and 4th generation)
iPad Pro 11‑inch (1st and 2nd generation)",txTxAsBzsdL5,484yfds6,fktuhba,Does it work with the previous gen iPad Pro?,fktu84c,szzzn,2ctvvmge
Right. Once they came out with the Pencil 2.0 I resigned myself to the fact that all of these accessories are like cases - one use only.,txTxAsBzsdL5,484yfds6,fktufff,"And don't forget this thing will likely be useless if a future iPad changes its form factor/design. I was very interested in this but for that kind of money I'd expect to use it with several generations of iPads, but I have my doubts.",fktu9sf,Thirdsun,3ggt5
"[This page](https://www.apple.com/ipad-keyboards/) has better views of it. It’s some sort of fabric to cover the hinge, not a cable.",txTxAsBzsdL5,484yfds6,fkttrlh,"And [wtf is up with this cable](https://i.imgur.com/uRYG1vs.png)? That's not very Apple to have a cable showing.

Edit: Now that the images are loading for me, it's just the back of the case, not a cable. [Image](https://i.imgur.com/lQO3cYJ.png)",fkttmup,ElPimentoDeCheese,azfaw
"I’d like to know the gap between the A13 and the A12Z myself. That could cause controversy.

EDIT: Heck, I’d like to to know the A12X Bionic vs. A12Z gap too. In some ways this might not even be much of an upgrade (single core performance seems most likely). Might be good to grab one of the remaining 3rd gens at a discount while you can if you don’t care about the cameras, since the new keyboard will work with it.",txTxAsBzsdL5,484yfds6,fktswk0,"> A12Z Bionic chip.

Interesting. I would’ve thought they’d reserve Z for Macs.. wonder why they didn’t go with just A13X. Looking forward to seeing the performance gap between A12X and A12Z.",fktssh3,Prof_Redd1t,3s8xr7sq
"I don’t think you’re intentionally doing this, but it looks like you’re trying to segregate networks. Why isn’t everything (router, Pihole, switch) on the same subnet?

I mean, there are cases where you do want to segregate networks (and Edgerouters are the way to go when you want to do that), but you didn’t imply that.",txTxAsBzsdL5,484yfds6,fkrytfm,"I just could not get it to work.

All machines could send packets outside of the subnet with the exception of the pihole...   
So whitelisted DNS lookups would fail hard.",fkrj7ym,tareumlaneuchie,3o15m
"Slightly disagree. Allow the return, then cancel their membership on the spot. They don’t deserve to be members.",txTxAsBzsdL5,484yfds6,fkryc9y,But all returns of these items should be refused!  The hoarders have created this situation.,fkpjm1m,Tim-in-CA,1j8byh4i
"Universal’s doing just that for $20:


https://www.hollywoodreporter.com/news/nbcuniversal-breaks-theatrical-window-will-make-movies-available-demand-immediately-1284844

Suddenly it doesn’t look so crazy that Disney might do it, especially if theaters like Regal and AMC stay shut down/reduced capacity.",txTxAsBzsdL5,484yfds6,fkqey65,Yeah that was a joke. Ik about the contractual agreements between studios and theaters. But with the world being this crazy it makes you think…lol,fklobvl,jackramz,2whs0tnc
A few weeks ago the 2 GB model was $45,txTxAsBzsdL5,484yfds6,fkhc1r6,Maybe they did 0.01 instead of 10.,fkhauvg,mellejwz,i0e2lom
Not necessarily the case. I don’t think it’s showing up in anyone’s accounts yet.,txTxAsBzsdL5,484yfds6,fkh3l3a,Really? That’s too bad.,fkga5uq,frootz-cat,34oo5nlk
I know with my Ubiquiti ER-X that’s what happening. I have two Pi’s and one of them is getting 95% of the requests.,txTxAsBzsdL5,484yfds6,fkae9ic,"Typically this isn't how it's supposed to be at all.

In most dual deployments you'd expect to see up to orders of magnitude more requests processed by one client over the other.

At home here right now there's two literally identical deployments (they both boot off the exact same PXE image), both serving the exact same clients, same lists, same...everything, one with 100k requests and the other with 10k.",fka9xul,saint-lascivious,8zgfc
"Right, either POP3 or use IMAP and move messages off the IMAP server reasonably quickly.",txTxAsBzsdL5,484yfds6,fk6vvbq,"I believe is called POP3 and if you dont explicitly select ""keep messages on server"" it will delete them after downloading them on you client.",fk6t5p7,AndroAnimus,2t2su69m
"Worst case is you grab another one to balance the load a bit. When the 2 GB model price dropped a couple of weeks ago I picked one up as a backup for Pihole and PiVPN. They’re so cheap it’s not worth worrying about, though you probably won’t need to.",txTxAsBzsdL5,484yfds6,fk3nk80,That seals the deal as far as I'm concerned. I'm gonna order that bad boy right now!,fk2c5t6,Chmomsky4Life,5fgyd2tm
"All SSD isn’t the solution, but mixing in an SSD or two makes life so much better. 

Need speed for VMs or other performance? Use the SSD.
Need mass storage for videos and backups? Use the HDD.",txTxAsBzsdL5,484yfds6,fk0o05w,And why don't u change all the disks with ssd's (thats what i did) so no need for caching 😁 and everything is much faster🏎️.,fk0j74e,sisolutions,2mlrqijv
"Yeah that seems to be the consensus. It seemed promising from the blog post and all, but after looking at the data it’s not too well suited for use as a Pihole blocklist.

It *might* work well for those lists where someone wants to block Google or Facebook or whatever. When new domains get added, this *might* pick it up faster than other sources. But admittedly that’s a fringe use case.",txTxAsBzsdL5,484yfds6,fjo1yak,"Well yes, but no. Not really useable for pi-hole, it's really for element blocking, like for adblock. If you went through all the domains you'd have maybe .1% left that weren't included in current blocklists available.

But if you're fine with blocking google.com because it ""tracks"" you, go right ahead. Not worth the loss of useability if you ask me.",fjo18vc,hezekj,17if4w
"Looks like something to be parsed, but if it’s going to keep up with changes over time, it sounds like a good thing.",txTxAsBzsdL5,484yfds6,fjl2zc8,Can we integrate this already? Or is this a first step?,fjkyb7y,De_wasbeer,s3cc1
Thanks for this! Setting this up following your instruction was an absolute breeze.,txTxAsBzsdL5,484yfds6,fjgdipn,"I'm also using PiHole+Cloudflare in Docker on a Synology box.

I have my cloudflare container running on port 5054. On my Pihole I disabled all other upstream DNS providers, then entered ""192.168.1.3#5054"" for custom DNS #1. Obviously substitute 192.168.1.3 for the IP of your synology, and #5054 for the port you are running cloudflare on.",fjfa35a,terrydqm,2jh57b57
"Right, if he’s in the same network, just storing the images on an SSD inside the NAS as opposed to an HDD should improve things greatly.",txTxAsBzsdL5,484yfds6,fj9momz,"Maybe, but first you need to find out if it is indeed the caching that’s the bottleneck. Or maybe the cables or the way you’re connected to your NAS.

Are you on the same network?",fj9j4jq,Marc0687,3ehtplgb
"Truth is, both of those things you list as GUI really just use tiny web servers to show information. Neither requires the desktop.

But yeah, my first Pi I went for the 4 GB version. Just picked up a 2 GB one this weekend as a second. No regrets with either one so far.",txTxAsBzsdL5,484yfds6,fj8aix9,"Thanks for your answer.

Well, I can think of only two GUIs that I would use. The Grafana and the pihole. I won't be using it as a desktop, but in my country, the older versions are basically the same price as the 4B 2GB version, so it makes sense to buy the newer one.

But you reassured me about the scalability. I will probably buy the 4GB version to get started and later when I have idea about the resources needed, I can split project on multiple PIs (like buying 2GB version to automate the plants probably).",fj7nnbj,Crytexx,6gsuvw
deleted  ^^^^^^^^^^^^^^^^0.0689  [^^^What ^^^is ^^^this?](https://pastebin.com/FcrFs94k/24573),txTxAsBzsdL5,484yfds6,fiuqgfu,"We are going to win 2020 and the commie scum cant stop us.

Edit: www.thedonald.win",fiuq26q,SANDERS_SHRIVELED_PE,sombo
deleted  ^^^^^^^^^^^^^^^^0.7455  [^^^What ^^^is ^^^this?](https://pastebin.com/FcrFs94k/69944),txTxAsBzsdL5,484yfds6,fis1p11,Isn't this a Bloomberg quote ?,fir75zm,Foxbat40,15rvac
deleted  ^^^^^^^^^^^^^^^^0.7655  [^^^What ^^^is ^^^this?](https://pastebin.com/FcrFs94k/75397),txTxAsBzsdL5,484yfds6,firaaad,O Captain! my Captain!,fir9y6j,MagnusTBorovitz,zubo1
deleted  ^^^^^^^^^^^^^^^^0.3222  [^^^What ^^^is ^^^this?](https://pastebin.com/FcrFs94k/12949),txTxAsBzsdL5,484yfds6,fir7cck,F,fir74ar,Material-Average,5owo0gb2
deleted  ^^^^^^^^^^^^^^^^0.5151  [^^^What ^^^is ^^^this?](https://pastebin.com/FcrFs94k/99308),txTxAsBzsdL5,484yfds6,fiqwrdd,"Worse, the people he throws under the bus, like Obama and Hillary, will claim he is mental.",fiq3wtt,MAGADAD,3iirrwos
deleted  ^^^^^^^^^^^^^^^^0.1519  [^^^What ^^^is ^^^this?](https://pastebin.com/FcrFs94k/17796),txTxAsBzsdL5,484yfds6,finslcv,There should be federal voter registration cards for all citizens. We must clean up our voter logs to have accurate elections ASAP!,fingju9,ProudAmerican_MO,1zbcmlbv
deleted  ^^^^^^^^^^^^^^^^0.3419  [^^^What ^^^is ^^^this?](https://pastebin.com/FcrFs94k/55730),txTxAsBzsdL5,484yfds6,fins5dv,"JFK would be a Republican, today.",finditm,DisgustedByMisleadia,6w1tiqt
deleted  ^^^^^^^^^^^^^^^^0.2258  [^^^What ^^^is ^^^this?](https://pastebin.com/FcrFs94k/87587),txTxAsBzsdL5,484yfds6,fimse4z,"Interesting fact for those that don't know it, the 350 Legend was created for States like Ohio that don't let you hunt with regular AR Rounds (223, 556). 350 Legend is a blown out (""Straight Walled"") 556 casing with a 357 bullet in it.",filg1f2,Blackkit27,16ujmn
deleted  ^^^^^^^^^^^^^^^^0.1618  [^^^What ^^^is ^^^this?](https://pastebin.com/FcrFs94k/04563),txTxAsBzsdL5,484yfds6,fijy3lk,"Except Bernie voters, because they are cuckolds.",fijqnk8,TwoScoopsOfWin,4ktp79be
deleted  ^^^^^^^^^^^^^^^^0.9599  [^^^What ^^^is ^^^this?](https://pastebin.com/FcrFs94k/99524),txTxAsBzsdL5,484yfds6,fijx9sz,Tds infected women should be avoided at all costs,fijrn1k,SuperMagaVitality,5nee6ip
deleted  ^^^^^^^^^^^^^^^^0.3243  [^^^What ^^^is ^^^this?](https://pastebin.com/FcrFs94k/85865),txTxAsBzsdL5,484yfds6,fib1vr5,Context? Not sure I understand!,fiazt09,slimcoat,iei9e
deleted  ^^^^^^^^^^^^^^^^0.1393  [^^^What ^^^is ^^^this?](https://pastebin.com/FcrFs94k/98262),txTxAsBzsdL5,484yfds6,fiam37k,X that shit out...,fia1tyg,Warlord_Odinius,16o1cr
deleted  ^^^^^^^^^^^^^^^^0.3314  [^^^What ^^^is ^^^this?](https://pastebin.com/FcrFs94k/01320),txTxAsBzsdL5,484yfds6,fiacin1,DeBlasio is a fucking idiot! That’s what you get when you elect a piece of shit democrat,fia730m,BuDdy_T,kvx52
deleted  ^^^^^^^^^^^^^^^^0.4645  [^^^What ^^^is ^^^this?](https://pastebin.com/FcrFs94k/58346),txTxAsBzsdL5,484yfds6,fiaao6a,Wuhan will end their quarantine before t_d does,fia8l07,Muh_Wailing_MXbabies,1m9j8fw4
deleted  ^^^^^^^^^^^^^^^^0.7233  [^^^What ^^^is ^^^this?](https://pastebin.com/FcrFs94k/21989),txTxAsBzsdL5,484yfds6,fi7uhxm,"And one person crying.

That woman's name? Lady Liberty.",fi7iw5f,BitchimaPernis,o6fl2
deleted  ^^^^^^^^^^^^^^^^0.1012  [^^^What ^^^is ^^^this?](https://pastebin.com/FcrFs94k/11453),txTxAsBzsdL5,484yfds6,fi7prkc,Fat broads and horse faced lesbians.  Sounds like your typical female Bernie voter actually.,fi7k7u0,BCSinReverse,4rij3
deleted  ^^^^^^^^^^^^^^^^0.0604  [^^^What ^^^is ^^^this?](https://pastebin.com/FcrFs94k/54732),txTxAsBzsdL5,484yfds6,fi7lt2d,Sounds like he should be in jail,fi76a5w,myanimal3z,x7hqe
deleted  ^^^^^^^^^^^^^^^^0.3723  [^^^What ^^^is ^^^this?](https://pastebin.com/FcrFs94k/93896),txTxAsBzsdL5,484yfds6,fi7lly3,This is good.,fi72nuh,TitaniaDoyle,14o085mn
deleted  ^^^^^^^^^^^^^^^^0.9530  [^^^What ^^^is ^^^this?](https://pastebin.com/FcrFs94k/02993),txTxAsBzsdL5,484yfds6,fi7keo5,"Fat Broads

Horse Faced Lesbians

That's really empowering to use their Native American names",fi7j28o,kramph,co1e0
deleted  ^^^^^^^^^^^^^^^^0.7639  [^^^What ^^^is ^^^this?](https://pastebin.com/FcrFs94k/96578),txTxAsBzsdL5,484yfds6,fi6yyw5,That's your problem!,fi6uj0z,37214,oi30s
deleted  ^^^^^^^^^^^^^^^^0.1305  [^^^What ^^^is ^^^this?](https://pastebin.com/FcrFs94k/16771),txTxAsBzsdL5,484yfds6,fi6xgec,##**for the love of God someone get this mini-mayor a box!**,fi6v4gb,Ask_Me_About_Water,nek5i
deleted  ^^^^^^^^^^^^^^^^0.3679  [^^^What ^^^is ^^^this?](https://pastebin.com/FcrFs94k/75165),txTxAsBzsdL5,484yfds6,fi6wtq8,"OHHH I see, thank you for explaining that. So they would do it if others joined this ""compact"" ... But only once enough are in it to actually change the winner.

Thanks, I think I get it now.

The term ""compact"" in this context made no sense to me at all. What they really mean is ""syndicate""",fi6tybw,Disposable-001,2936s9o0
deleted  ^^^^^^^^^^^^^^^^0.1786  [^^^What ^^^is ^^^this?](https://pastebin.com/FcrFs94k/23906),txTxAsBzsdL5,484yfds6,fi6te2u,"I'm a simple man, I need you to explain it simply please... if trump wins the election, and the popular vote ... does he not get their electoral votes? If so why not?",fi6t57r,Disposable-001,2936s9o0
deleted  ^^^^^^^^^^^^^^^^0.1165  [^^^What ^^^is ^^^this?](https://pastebin.com/FcrFs94k/05532),txTxAsBzsdL5,484yfds6,fi6ssbz,"Didn't Cali pass that stupid legislation to give their electoral votes to the popular vote winner?

It can be made red with a spectacular republican turnout everywhere else.

Can you imagine the liberal wailing?",fi6rm8k,Disposable-001,2936s9o0
deleted  ^^^^^^^^^^^^^^^^0.5398  [^^^What ^^^is ^^^this?](https://pastebin.com/FcrFs94k/79288),txTxAsBzsdL5,484yfds6,fi6ri8e,"There's still one culture that is actively involved in the slave trade and they keep on ignoring it.  Worse, they think western nations need to welcome and accept this culture with open arms.",fi6o0g1,DragonsAndDiamonds,3bwtf3kq
deleted  ^^^^^^^^^^^^^^^^0.4971  [^^^What ^^^is ^^^this?](https://pastebin.com/FcrFs94k/78280),txTxAsBzsdL5,484yfds6,fi6ra2k,original https://i.postimg.cc/52Czp7gJ/5bad31a22400003000960bcc.jpg,fi6nvan,six5_SMK,xcylp
deleted  ^^^^^^^^^^^^^^^^0.0339  [^^^What ^^^is ^^^this?](https://pastebin.com/FcrFs94k/00268),txTxAsBzsdL5,484yfds6,fi6p0gh,"Compared to the others, maybe she has the most ability to fight, so I can't blame them for latching onto her like the last chopper out of 'Nam.

But she's in JV hoping to go up against the world heavyweight champ.  She's gonna get flattened.",fi6l5hl,Poldaran,2yhdgn6m
deleted  ^^^^^^^^^^^^^^^^0.1782  [^^^What ^^^is ^^^this?](https://pastebin.com/FcrFs94k/56242),txTxAsBzsdL5,484yfds6,fi6owgt,Islam is right about women and Google is right about Islam,fi6km6j,eddieblasphemy,lmvmn
deleted  ^^^^^^^^^^^^^^^^0.0701  [^^^What ^^^is ^^^this?](https://pastebin.com/FcrFs94k/77114),txTxAsBzsdL5,484yfds6,fi6ohow,"No, because seven was a registered six offender",fi6nbfo,HuggableBear,5rc7w
deleted  ^^^^^^^^^^^^^^^^0.1788  [^^^What ^^^is ^^^this?](https://pastebin.com/FcrFs94k/42562),txTxAsBzsdL5,484yfds6,fi6ljp4,"By the way, rooftop Korean here before one of you cucks starts popping off about my ""white"" supremacy. Bag of dicks bitches!",fi4u77o,gillymead,jd0mk
deleted  ^^^^^^^^^^^^^^^^0.2869  [^^^What ^^^is ^^^this?](https://pastebin.com/FcrFs94k/80774),txTxAsBzsdL5,484yfds6,fi6l361,Good idea. Maybe I'll put the old DS214play at my parents' house. That way I always have a remote backup + VPN to their Network when they need help with something.,fi4wndk,ClickHereForUpvote,y8w8p
deleted  ^^^^^^^^^^^^^^^^0.6822  [^^^What ^^^is ^^^this?](https://pastebin.com/FcrFs94k/24042),txTxAsBzsdL5,484yfds6,fi3ngi6,I don’t seem to remember that Trump ran his campaign on his sainthood. Only Dems are pretending to be the moral authority.,fi3grx2,yaxomoxay,ye0if
deleted  ^^^^^^^^^^^^^^^^0.7235  [^^^What ^^^is ^^^this?](https://pastebin.com/FcrFs94k/20677),txTxAsBzsdL5,484yfds6,fi3fsw4,Wrinkly faced California raisin,fi3ei9v,SigourneyPodgorny,12m4xa
deleted  ^^^^^^^^^^^^^^^^0.5056  [^^^What ^^^is ^^^this?](https://pastebin.com/FcrFs94k/40605),txTxAsBzsdL5,484yfds6,fi3f4n5,"illegals have already had free shit healthcare since 1986 thanks to ronald ray-gun, aka the greatest illegals-loving president in U.S. history. the infamous EMTALA act.

illegals go to all types of public and private hospitals already and they get treated and they get billed but they provide fake information and never pay a single fucking dime for the healthcare they receive.

https://en.wikipedia.org/wiki/Emergency_Medical_Treatment_and_Active_Labor_Act

what buttedgedge is proposing is pretty much giving illegals diamond-level healthcare plans, like them literally signing up for fucking free vision/dental/orthodontics/the works rather than just showing up to the ER and always getting free shit healthcare like what has happened since ray-gun in 1986.

if you know any illegals or people who know illegals simply go ask them what they do for healthcare. they will be shocked when they learn from you that americans and legal aliens have to pay an arm and a leg for healthcare while they, illegal aliens, get 'free healthcare' paid for by you and me and all americans and legal aliens.",fi2yqrk,fastmandan,wbc1n
deleted  ^^^^^^^^^^^^^^^^0.9798  [^^^What ^^^is ^^^this?](https://pastebin.com/FcrFs94k/55063),txTxAsBzsdL5,484yfds6,fi3e1n7,He's a felon who is permanently disbarred and can never hold office in Illinois again. The most he can do is talk.,fi2twx3,recoveringPHPDev,x7h8o
deleted  ^^^^^^^^^^^^^^^^0.3350  [^^^What ^^^is ^^^this?](https://pastebin.com/FcrFs94k/32359),txTxAsBzsdL5,484yfds6,fi3dso0,"Must be beyond INFURIATING for POTUS to watch these blatant crimes go unpunished.... I mean, we are all furious, so I can't imagine being at the top of the world and having zero justice being served. Praying for a miracle.",fi2hoon,Wfdeacon88,j9sks
deleted  ^^^^^^^^^^^^^^^^0.3080  [^^^What ^^^is ^^^this?](https://pastebin.com/FcrFs94k/02362),txTxAsBzsdL5,484yfds6,fi3dpby,"Rudy implemented stop and frisk and reduce murders from over 2,000 to less than 500 annually.  Bloomberg increased stop and frisk tenfold with almost no improvement.  Rudy’s stop and frisk netted 50,000 arrests out of 100,000 stops. Bloomberg netted 75,000 arrests out of nearly 1 million stops.",fi2slz0,ontothefuture,12r9k3
deleted  ^^^^^^^^^^^^^^^^0.9543  [^^^What ^^^is ^^^this?](https://pastebin.com/FcrFs94k/93015),txTxAsBzsdL5,484yfds6,fi37x4w,"Female privilege is immense because of the sexual power they have over men.

I went to a gay bar once and boy was it an eye-opener.  I just sat there and did nothing while all these men fell over themselves to try and buy me stuff.  Is this what life is like for hot women?  You just sit there and do nothing and men compete to provide you with cool stuff?  What the f**k are they moaning about?",fi2zwjl,Shockspeare1,2fieufy9
deleted  ^^^^^^^^^^^^^^^^0.0414  [^^^What ^^^is ^^^this?](https://pastebin.com/FcrFs94k/80866),txTxAsBzsdL5,484yfds6,fi1czu0,Isn’t there a longer or another version of this?,fi196vd,iRubGuacOnMyArmpits,1gzlg958
deleted  ^^^^^^^^^^^^^^^^0.0772  [^^^What ^^^is ^^^this?](https://pastebin.com/FcrFs94k/15153),txTxAsBzsdL5,484yfds6,fi1btiq,Libertarianism is a meme ideology,fi0sa4i,HOT-and-CREAMY,11y914
deleted  ^^^^^^^^^^^^^^^^0.9735  [^^^What ^^^is ^^^this?](https://pastebin.com/FcrFs94k/86940),txTxAsBzsdL5,484yfds6,fi1amp5,When did Bill turn into such a mouth breather? He almost looks like he's in a vegetative state.,fi0dots,mrsattorney,14aenp
deleted  ^^^^^^^^^^^^^^^^0.6180  [^^^What ^^^is ^^^this?](https://pastebin.com/FcrFs94k/09009),txTxAsBzsdL5,484yfds6,fi1af4b,Ah yes the whole I’m not white I’m Jewish mentality!,fi1a4rf,ironlabel1,c3w0bka
deleted  ^^^^^^^^^^^^^^^^0.0547  [^^^What ^^^is ^^^this?](https://pastebin.com/FcrFs94k/14048),txTxAsBzsdL5,484yfds6,fi1a940,I couldn’t agree more. The T has no place in the LBG. Two completely different life situations and life experiences. Nothing in common.,fi0wop5,Restlessredhead,1477aj
deleted  ^^^^^^^^^^^^^^^^0.4702  [^^^What ^^^is ^^^this?](https://pastebin.com/FcrFs94k/44546),txTxAsBzsdL5,484yfds6,fi19r1w,*Half a million dead white mens ain't enough to make up fo' yo' slavery!*,fi0mk1g,BitchimaPernis,o6fl2
deleted  ^^^^^^^^^^^^^^^^0.9779  [^^^What ^^^is ^^^this?](https://pastebin.com/FcrFs94k/92978),txTxAsBzsdL5,484yfds6,fi19bux,"UK?...yep, UK. They're so fucked.",fi0qhin,whiskey_shitz,2ffd09wf
deleted  ^^^^^^^^^^^^^^^^0.0416  [^^^What ^^^is ^^^this?](https://pastebin.com/FcrFs94k/78363),txTxAsBzsdL5,484yfds6,fi14tbu,"uPNP port forwarding is for casual users.  If you want a long term solution, set up a static IP and port forwarding.",fi0bcv1,Mylon,5dttf
deleted  ^^^^^^^^^^^^^^^^0.7713  [^^^What ^^^is ^^^this?](https://pastebin.com/FcrFs94k/37440),txTxAsBzsdL5,484yfds6,fi14mvw,"OK but antivirals used on HIV are also used on other viruses, too.",fi14deq,no_step_on_lion,40tanxua
deleted  ^^^^^^^^^^^^^^^^0.1751  [^^^What ^^^is ^^^this?](https://pastebin.com/FcrFs94k/94560),txTxAsBzsdL5,484yfds6,fi149pn,"Command strips are da bomb.  Especially the velcro ones for heavy items - I’ve mounted switches and PoE injectors with them, and buy them in the bulk pack on Amazon when needed.",fhzdr25,J0ul3s,r0wt89b
deleted  ^^^^^^^^^^^^^^^^0.5593  [^^^What ^^^is ^^^this?](https://pastebin.com/FcrFs94k/08391),txTxAsBzsdL5,484yfds6,fi0ysu1,I'm far from a biologist but I've heard that this paper was heavily criticized during peer review.,fi0mzeb,Duke_Cesare_Borgia,wn0oe
deleted  ^^^^^^^^^^^^^^^^0.5762  [^^^What ^^^is ^^^this?](https://pastebin.com/FcrFs94k/33807),txTxAsBzsdL5,484yfds6,fi0gjkp,"Luckily for Mini Mike, he’ll fit just perfectly in her tooth gap. They’re an exact match.",fhzr7dg,BarbsFPV,3zhkdxdx
deleted  ^^^^^^^^^^^^^^^^0.9725  [^^^What ^^^is ^^^this?](https://pastebin.com/FcrFs94k/93459),txTxAsBzsdL5,484yfds6,fi0dp6a,"All I see are retarded pack animals. Some people don't belong in society.

History won't be kind to the left.",fhz9bap,LoMatte,23fwsyap
deleted  ^^^^^^^^^^^^^^^^0.8030  [^^^What ^^^is ^^^this?](https://pastebin.com/FcrFs94k/34782),txTxAsBzsdL5,484yfds6,fi0db41,"They're not entirely wrong. Everyone *does* have a right to a nationality.

The one they were born in to.

Getting another one OTOH is absolutely a privilege.",fi01u2l,AscendedMel,2fxochpe
deleted  ^^^^^^^^^^^^^^^^0.7661  [^^^What ^^^is ^^^this?](https://pastebin.com/FcrFs94k/60818),txTxAsBzsdL5,484yfds6,fi09vkv,"I thought he was shipped here from the embassy.  Also, if she’s talking about protesting extradition of Assange to London, that doesn’t make sense.",fi09szr,JwPATX,13fph6
deleted  ^^^^^^^^^^^^^^^^0.7294  [^^^What ^^^is ^^^this?](https://pastebin.com/FcrFs94k/54133),txTxAsBzsdL5,484yfds6,fi09q8n,Wait are we sending assange to Britain now?!,fi07gz8,JwPATX,13fph6
deleted  ^^^^^^^^^^^^^^^^0.1358  [^^^What ^^^is ^^^this?](https://pastebin.com/FcrFs94k/34345),txTxAsBzsdL5,484yfds6,fi09gbb,Bernie is a literal cuck and a rape fantasist.,fi08q4z,BasedMedicalDoctor,1153s17g
deleted  ^^^^^^^^^^^^^^^^0.0461  [^^^What ^^^is ^^^this?](https://pastebin.com/FcrFs94k/25735),txTxAsBzsdL5,484yfds6,fhxunx9,Somebody really wants to lose their virginity and has no idea how...,fhxj2t7,DaoDeDickinson,dujyi
deleted  ^^^^^^^^^^^^^^^^0.9177  [^^^What ^^^is ^^^this?](https://pastebin.com/FcrFs94k/36050),txTxAsBzsdL5,484yfds6,fhxanfd,This seems borderline criminal.,fhwqrf3,Richiememmings,dvv2wmr
deleted  ^^^^^^^^^^^^^^^^0.1607  [^^^What ^^^is ^^^this?](https://pastebin.com/FcrFs94k/81611),txTxAsBzsdL5,484yfds6,fhwyyyy,"High skilled immigrants is an exaggeration. I have worked in software for 18 years and have made a career out of cleaning up their messes. I would say that a vast majority of foreign software people (specifically Indians) are not worth the reduced wages they pay them. The amount of fraud from them is amazing. During my career I have seen everything from reused and fraudulent resumes to having their friends do their phone screens. We recently discovered one worker was hiding and lying about being an h1b. He had come on a student visa, never gone to the school and the contracting firm he was through was helping him hide it. Many of these firms are owned and run by foreigners and they just want to get as many bodies in as possible. It is gross and needs to be fixed.",fhw8yb6,myaliasisnull,16if8j
deleted  ^^^^^^^^^^^^^^^^0.7694  [^^^What ^^^is ^^^this?](https://pastebin.com/FcrFs94k/92382),txTxAsBzsdL5,484yfds6,fhsm6c8,Winne the Pooh🤣🤣🤣,fhs3iec,rishakra,41sjrm4h
deleted  ^^^^^^^^^^^^^^^^0.6867  [^^^What ^^^is ^^^this?](https://pastebin.com/FcrFs94k/19319),txTxAsBzsdL5,484yfds6,fhlhv16,"That's actually worthy of his campaign. Too good for jokes. Make it horribly racist or sexist. Tie them to stop and frisk and patriarchy. Also, let the socialists know that the rich uber-captialist is their perfect candidate. Who needs universal health care when we can just ban big gulps?",fhkfot3,PoisedUncertainty,sfwk1p2
deleted  ^^^^^^^^^^^^^^^^0.6741  [^^^What ^^^is ^^^this?](https://pastebin.com/FcrFs94k/70745),txTxAsBzsdL5,484yfds6,fhlg5pb,"Is this tweet fake or did Trump delete it?

Looks like Nick's account was deleted.

[https://www.youtube.com/channel/UCsJ86N5n7fcEC\_Ds8dYJKzA](https://www.youtube.com/channel/UCsJ86N5n7fcEC_Ds8dYJKzA)",fhlergq,TelephoneNuke,13lm9t
deleted  ^^^^^^^^^^^^^^^^0.0903  [^^^What ^^^is ^^^this?](https://pastebin.com/FcrFs94k/00968),txTxAsBzsdL5,484yfds6,fhlftiu,Maybe it’s how old he USED to be.  People shrink.  Bernie was 7’1 back in 1860.,fhkwah0,thefunnyconservative,2poog0f5
deleted  ^^^^^^^^^^^^^^^^0.7412  [^^^What ^^^is ^^^this?](https://pastebin.com/FcrFs94k/14018),txTxAsBzsdL5,484yfds6,fhlf3y6,"Only 70%, she must really love me.",fhl2990,drinkup4,y407o
deleted  ^^^^^^^^^^^^^^^^0.4790  [^^^What ^^^is ^^^this?](https://pastebin.com/FcrFs94k/78970),txTxAsBzsdL5,484yfds6,fhletdb,The USS Top Kek,fhl28u1,tawburgle2,1yocyc1
deleted  ^^^^^^^^^^^^^^^^0.0080  [^^^What ^^^is ^^^this?](https://pastebin.com/FcrFs94k/93608),txTxAsBzsdL5,484yfds6,fhku0ug,"black people vote for trump, trump wins 43 states

Democrats call black trump voters Russian puppets 

democrat party goes back to being all white racists",fhjlfkk,nuhbin,vrqcs
deleted  ^^^^^^^^^^^^^^^^0.8829  [^^^What ^^^is ^^^this?](https://pastebin.com/FcrFs94k/08655),txTxAsBzsdL5,484yfds6,fhktkn6,Actually it's not a crime in California anymore. Don't use straws though or more than 50 gals of water a day.,fhjooed,friartrump,23cwhavq
deleted  ^^^^^^^^^^^^^^^^0.6371  [^^^What ^^^is ^^^this?](https://pastebin.com/FcrFs94k/59910),txTxAsBzsdL5,484yfds6,fhkkiay,"I actually do this with older, smaller capacity drives that don't make sense in a server. I will use Veracrypt to encrypt the drives, copy over either high value (or low value, depending on what you're doing), then I take them to work and store them in a closet. Can't speak for performance of this over time, but I would think consumer drives would be fine. I would avoid helium, as it's one more failure point. I don't think you need to power up spinning rust, only SSDs once a year or so.",fhixn5y,ET2-SW,5z5rj
deleted  ^^^^^^^^^^^^^^^^0.9736  [^^^What ^^^is ^^^this?](https://pastebin.com/FcrFs94k/70808),txTxAsBzsdL5,484yfds6,fhkde3n,I know it's like being a normal couple with a lot of extra steps....,fhkacf6,renob151,5mpwo
