child_body,child_screen_name,child_user_id,child_tweet_id,parent_body,parent_tweet_id,parent_screen_name,parent_user_id
How the fuck you gonna find volunteer writers LOL,vetdev,ajonx,fkp06vr,"Except press was never truely ""free"". It's always been fueled by ad revenue. Magazines and newspapers have always been plastered with ads, we've just become so desensitized to it at this point. The reason why media sites are putting up paywalls and charging for subscriptions is because ppc and ad revenue sucks now. 

Nothing in our world is free. If you aren't paying upfront with money, you're paying in some other way.",fkhneeo,BajaBlast90,h601d4v
"Between the two, I'm genuinely curious in this discussion... Why do you think that?

I personally think Biden would be the stronger of the two. (I don't like either of them, this is unbiased AF)",vetdev,ajonx,fkcyhm5,Biden *definitely* cannot.,fkckgcy,smokerofjoes,1fkdgbyb
Yup on both,vetdev,ajonx,fk2384n,"Oh, true dat, probably an earlier model of the VIC-2. My bad.",fk21m8x,Packtray,fauqz
"""walk like a retard""",vetdev,ajonx,fjv5j23,Why does whoever filmed this walk like a retard? It almost hurt to watch,fgzd0jo,trueburrito,166pja
They're the ones that get the press unfortunately... squeaky af,vetdev,ajonx,fjlk6gn,I'm not saying there aren't blubbering idiots on the left who would call that racist... There are plenty. Haha,fjlikok,LSUguyHTX,1o7zthvm
"Right. ""The borders should be secure, we're a country"" or ""I support ICE, especially as a law enforcement officer"" are pretty hard core. 

Much racist, so hardcore",vetdev,ajonx,fjlih1e,I mean... You must be saying and real hard core stuff to be called that...,fjlbk4x,LSUguyHTX,1o7zthvm
"Just like arguing with a hardcore left-*, it turns to ""RACIST!"" or ""Nazi!""",vetdev,ajonx,fjlbhib,"Pretty much. Anytime I get in a conversation with a hard core Trump guy and they start losing the argument it automatically turns to ""well they're trying to make guns illegal and kill babies!""",fi7w67x,LSUguyHTX,1o7zthvm
"much strength, so boss",vetdev,ajonx,fj3j22q,Go fuck yourself,fj3hbhg,mistershmi,8kj0g
Nice fucking job letting Reddit win,vetdev,ajonx,fj3dqd0,"No, fuck Reddit, thedonald.win for me from here on out.",fivy61a,mistershmi,8kj0g
"Now that wasn't very nice, what's your problem? I'm here to help, clown.",vetdev,ajonx,fiv6gj4,"Hey, go fuck yourself

-All of us",fiuzik2,nBob20,ld8dc
"I've got the same, with crimson trace grips. It's dishwasher safe, people yammering on about the water are just over sensitive crybabies.",vetdev,ajonx,fikdmas,"92 FS INOX.

Stainless slide and parts, aluminum frame anodized to match.

Probably the prettiest 9mm made to date.",fikam5r,Visolatte,13jv4d
Is it a stainless Beretta?,vetdev,ajonx,fik8n0i,"I think you took my comment too literally. A proper firearm should be able to work in adverse conditions. It's a firearm, not a porcelain doll. Maintenance is a given.",fik7l9c,MOnkiFi88,15i33j
"Happy 🍰 

Underrated comment, too",vetdev,ajonx,fi3dzpa,If it can be zeroed within the wings *its in spec.*,fhxchld,most_slotted_floppy,xog9hk5
oh snap,vetdev,ajonx,fgo4arn,"Van Jones is now Uncle Tom!

Tom Jones?",fgo44ok,maga_trump_curse,1kflzim6
exactly,vetdev,ajonx,fgmrnrt,The burden on him to make his decision was great.... crocodile tears.  Jagoff!!,fgmri2u,pghmommiedearest,1ymifra7
"wow.... i'd love to see the cocksuckers that downvoted this, and why",vetdev,ajonx,fgmre1v,"""thanks ottoman"" ?

Yeah, thanks for the stupid fucking bricks. Also thanks for massacring my family.",fft7did,vetdev,ajonx
yes. yes he is.,vetdev,ajonx,fgmqyci,what a fuckin piece of shit,fgmqvl4,esgotus,3tmqyqp3
I'm gonna go get the papers get the papers,vetdev,ajonx,ffzo07w,It’s jimmy two times sister everyone 🤣,ffys00p,TryinAsIGetOlder,17hqnj
Please shut up,vetdev,ajonx,fei21dg,"They can remove all they want since you already stickied on TheDonald.win haha!

https://thedonald.win/p/3wl0Kd4/man--and-woman-by-bernie-sanders/c/",fehq2hn,MacheteSanta,m3r46
"This is the most high resolution doggie ever mother fucker 

Fuck 
I love it",vetdev,ajonx,fei20jq,"Dude, you have guts posting this and the other sticky. Potentially sacrificing position on this sub and Reddit as a whole to give the truth about Reddit's censorship to us all. Kudos.

EDIT: Here's a doggo for you: https://i.imgur.com/yyK4cqx.png",fehmv6d,RedPillDessert,opgvw
Source please?,vetdev,ajonx,fdiktap,"Iran leaders are suicidal. They're literally threatening the UAE with retaliation because they let US jets take off from a base there. 

Sorry Iran, you have chosen elimination.",fdikrcj,SkaggAteMyPappy,fxp9q
How about no. It's a weak backup with weak hosting and weak experience in high traffic high speed low drag digital operations.,vetdev,ajonx,fdc5eq1,"Reddit Inc has gone from being some of the biggest supporters of free speech, to being easily the most restrictive, pro-censorship social media site.

**Here are some examples of what Reddit Inc considers violence:**

--- 

- ""Punch the terrorist.""

- ""Throw a pen at a communist"" (or a nazi, or any other human).

- ""CNN's headquarters needs a MOAB.""

- ""This mass murderer should legally receive the death penalty.""

- ""I'm prepared if they go forward with causing a civil war.""

---

Reddit Inc has abandoned free speech, and are blind to both context and satire.

To participate anywhere on Reddit, you must follow the Reddit Content Policy. Violations may result in community or sitewide bans.

If you see any rule violations, be sure to **DOWNVOTE & REPORT**.

For a platform reminiscent of pre-2017 Reddit, get signed up for [TheDonald.win](https://thedonald.win/registration).",fdadk4g,BotForceOne,arye1tm
Link pls,vetdev,ajonx,fcxeidn,"I saw the pictures.  To put it politely, his legs were entirely removed from his body.",fcx7is6,00xjOCMD,161pup
This is fucking amazing,vetdev,ajonx,fc05eq7,[I'm tellin' all of ya'll it's sabotage!](https://www.youtube.com/watch?v=KRMkBiz8Msg),fbzhulq,NonyaDB,nx1uq
Way way way too much,vetdev,ajonx,fc05edt,Too much auto-tune.,fbzhn9y,BasedBoyScout,y7epy
"it's not even a good backup. so, no.",vetdev,ajonx,fbzdley,"what are your thoughts about the impending TD ban? certainly there is an extremely high % that reddit bans this place in the near future. you aren’t on board with a backup?

did you prefer to keep it under wraps until after the ban?",fbz9d4z,xler3,i8urm
He sells shirts that say cocaine Mitch on them..... c'mon,vetdev,ajonx,fbygb41,Unlikely. Mitch is far too cucked to write something like that.,fbxibum,dcmasterandtrainer,l15xp
"Basically because this ""ITS HAPPENING"" bullshit has been going on for 3 years. 

It's not fucking HA🅱️🅱️ENING until it happens.",vetdev,ajonx,fb0d1d7,Why are people ridiculed for thinking that the swamp will be drained?,fb08spc,CATGRILL_4_TRUMP,277w8upz
"Putnam county has an insanely archaic tech/radio/communications system setup - I am tell you with absolute certainty that it did not happen. 

100% certainty that they do not locally possess the ability to do so, nor do they have the legal ability to tactically deploy jamming equipment.",vetdev,ajonx,f8r6ng5,"I would imagine if I were to deploy such a device I would make sure I have a communications device that worked though it.

Source: common sense

Are you saying its impossible? Or that they actually jammed themselves or is it more likely they had means to communicate so it was used tactically.",f8r2wbt,Aaronpolk5150,3ges1w0n
"One more thing, local cops aren't allowed to deploy something locally anyway - it disrupts 911 services for EVERYONE in the immediate surrounding area. 

So there's also that.",vetdev,ajonx,f8r1zwj,"Negative. One doesn't ""simply"" use a frequency that they're not jamming. Jammers used by police are specifically wideband and will block *services*, not single frequencies. 

If the police is using a 700-800mhz trunked system, a cellular jammer would likely screw their ability to intercept the trunking control channel, as evidenced by literally thousands of tests that showed the devices can cause alot more problems than they solve. 

Cell data is within 600, 700, some 800, 1.x ghz, etc. 
WiFi is 2.4ghz, 5.2/5.8ghz. 

Modern public safety radio systems are *mostly* in the 700-800mhz range, with various outliers now remaining on their legacy VHF/UHF systems. The fact that they're so close to cellular frequencies, any radios (especially portables, worn on the officer themselves), are especially subject to fringe area FM capture effect where those radios will no longer intercept their control channels. 

Source: RF engineer, specialty public safety communications systems and high bandwidth RF networks.",f8r1xkv,vetdev,ajonx
"Negative. One doesn't ""simply"" use a frequency that they're not jamming. Jammers used by police are specifically wideband and will block *services*, not single frequencies. 

If the police is using a 700-800mhz trunked system, a cellular jammer would likely screw their ability to intercept the trunking control channel, as evidenced by literally thousands of tests that showed the devices can cause alot more problems than they solve. 

Cell data is within 600, 700, some 800, 1.x ghz, etc. 
WiFi is 2.4ghz, 5.2/5.8ghz. 

Modern public safety radio systems are *mostly* in the 700-800mhz range, with various outliers now remaining on their legacy VHF/UHF systems. The fact that they're so close to cellular frequencies, any radios (especially portables, worn on the officer themselves), are especially subject to fringe area FM capture effect where those radios will no longer intercept their control channels. 

Source: RF engineer, specialty public safety communications systems and high bandwidth RF networks.",vetdev,ajonx,f8r1xkv,"Negative... Cellphone communication happens on specific bands of RF its easily possible to use multiple bands to communicate through a jammer not to mention wifi and cell data are different frequencies as well.

One simply uses a frequency that they are not jamming.",f8qvto9,Aaronpolk5150,3ges1w0n
"If they deployed a jammer, they would also be jamming themselves. duh.",vetdev,ajonx,f8ouikb,"Fedbois can, local thugs can't

https://www.fcc.gov/document/warning-jammer-use-public-and-local-law-enforcement-illegal

https://arstechnica.com/tech-policy/2008/11/cell-jammers-still-illegal-but-may-come-to-state-prisons/

So if signal jammers were deployed it's either a case of local PD breaking the law, or the feds helping the locals violate 2nd amendment protections and keep it quiet.",f8kjgry,FreeSpeechWarrior,1ww3fe
"Yeah, dont leave, and this is a bad idea. Both from a branding perspective, and functionally. 

Nice work, you played yourselves.",vetdev,ajonx,f8b3sp1,"Dont leave reddit. Make them kick us off. It's what they want to do, they're just afraid of the consequences. Matter of fact I dont think they have the guts",f8afk5o,doindirt,13moe1
"ONE.

HUNDRED.

PERCENT.

CORRECT.",vetdev,ajonx,f78uaqb,Yes thats because the ham license is the hardest thing those certain few have ever actually worked to earn in their life. They will lick the jackboot to keep their little badges of honor and would snitch out their own mothers to keep their chinese radios. This is when they turn a hobby into a job or a civil service in which they truely have no authority in.. Only the government (FCC in the US) has the authority to tell people when and where to operate radios not the basement dweller down the road.,f6zdc02,Elfnet_Gaming,kejuo
"Well, I might have a different opinion on the matter since I was a police officer, but you're right in terms of most (99%) of people. 

FYI- the only reason I ""used to be"" is because of 3 consecutive knee surgeries.",vetdev,ajonx,f6xaq83,"Agreed, downvoters are full of shit.

When you get pulled over on the ride home from grandmas, with your wife next to you and the kids in the back seat, you ain't gonna do SHIT when that cop calls his partner over with a shotgun and they ask you to step out of the car and explain what happened to those guns you never turned in.",f6wz97e,RolandDelacroix,11i20t
This right here is real talk. Downvoters are full of shit and they know it.,vetdev,ajonx,f6wcxtq,"No one with a spouse is going to go down shooting unless they’re both in on it. And if they have kids then you can forget about it. 

You go down shooting and actually kill a cop or two and your spouse is going to be in a world of hurt. 

So no, I don’t believe you.",f6w94rj,AncientCoat,42ul07qz
Ok bud.,vetdev,ajonx,f6rqvas,"Yeah. People have no time to entertain dumbfucks like you that deny reality that’s going on.

Everything that has happened I’ve known light years before you could ever phantom

Maybe get your head out of your ass. You people are pathetic.

What do you think is happening now? Lol",f6nzfu3,the-agitator,1vsgh6z8
EXACTLY,vetdev,ajonx,f6qde0b,"I try not to downvote any posts on this sub, but every once in a while, there is a post that is such obvious bullshit, that downvoting needs to be done. Posts like this, destroys the credibility of this sub",f6qcgnf,SnowflakeJuice,2tg18k
"You're a LARPing tool, please go back to the corner",vetdev,ajonx,f6nymjq,"When military intel tells me that there are, that’s evidence that there are.",f6nktv8,the-agitator,1vsgh6z8
"Doesnt look like that in any way LOL, wtf are you even seeing",vetdev,ajonx,f5sj9ub,"It’s frightening because Trump appears to be a grown man in power ridiculing the kid in the costume. Frightening was the best word I came up with at the time.

Bush cracked me up often. Like when he was in China and tried to dodge reporters at a press conference by attempting to exit though a locked door and got stuck smiling awkwardly. Also that time he again was at a press conference and dodged the shoe that was hurled at him like a Texas ninja. Funny times. But yeah, he’s also kinda war-criminal-ish.",f5s90bf,Terpene,cfsyi
"Yes, it was national news - I literally remember watching it on nationally syndicated CNN.",vetdev,ajonx,f5sj64b,"Are you kidding? The two scoops thing was hilarious, because it encapsulates Trump's egotism and infantile nature, but it wasn't more than a blip on the radar. It wouldn't even had time to be anything else, because later that week, the scandal broke that Trump revealed highly classifed military intelligence to Russian envoys, who were visiting the White House. Which their PR-Team of course immediately denied,only for Trump to directly contradict them and confirm it. Which prompted US-officials to warn US-Allies not to share information with the president. Each of those sentences should have been a fully blown scandal in their own right, but they were of course replaced by the unveiled memos that showed that Trump illegaly asked the director of the FBI to end an investigation into one of his associates. But if you forgot about that, no worries, it's understandable, because later that same week,
Trump allowed Turkey to beat US-citizens who were peacefully protesting on american soil, and later praised the authoritarian turkish regime. 

Of course, there were lot's of other negative news this week, like the continuation of the attempt to abolish net neutrality by ajit pai, a lobbyist who Trump seems to have appointed solely for that purpose, or the appointment of Robert Mueller to look into how much cooperation there really was between the Trump election team and the russian forces who influenced the election in his favor, but those were part of a longer story, not just that week, so I left them out.

So yeah, the two scoops thing was never national news, it was a funny meme, but in an administration where even ""children in concentration camps"" is edged out by the next scandal after only a few days, this pretty much stood no chance to begin with.",f5si05e,coldfirephoenix,kr8e6
"And what the fuck is i-290? 
And i-355? (Spurs and beltway's)

And my personal favorite, interstates H1, H2, and H3? 

Look it up - none (literally none) of that is fact. (Also obviously Epstein etc) 

But yeah, none of that is true. The ONLY part of what was said previously that's true is the even/odd, NS/EW distinction.",vetdev,ajonx,f4iq0j7,"From where i94 starts or ends, there's more than 6% of America leftover north of those points.",f4iper2,vetdev,ajonx
"From where i94 starts or ends, there's more than 6% of America leftover north of those points.",vetdev,ajonx,f4iper2,94 is north so there’s 94% of the land under it,f4if15a,JeffJefferson227,8ul1ls0
but 94 or 90 percent of anything doesn't work in the equation,vetdev,ajonx,f4ht14y,How? 94 is north of 90,f4hjv84,MinneMAGA,10q4mb
"Exactly.. 

Man, he is such a fuck.",vetdev,ajonx,f46ri0i,"Which is funny, because he's proving Trump right.",f46i5hw,MaverickRobot,hhzar
"he's literally calling her a ""house n\*gger""...

&#x200B;

what a fucking scumbag, seriously.

spez: fuck off",vetdev,ajonx,f467y9l,He's comparing the Trump supporters in the photo to Samuel L. Jackson's loyal house slave character in Django Unchained,f45plsg,throwaway-4858686,4opk07j1
hard no.,vetdev,ajonx,f41emcw,Shhhh... Were suppose to pretend like we totally give a shit.,f40se0a,Bendemova,153b3k
That's not what he did....,vetdev,ajonx,f2o9od6,Lmao the first rule of sales isn't concede everything for promises and compliments...,f2nvm73,shizzle_mcbobblehead,i9hs9
'rah,vetdev,ajonx,f26qysh,He is not talking about the actual heart. He is talking about intestinal fortitude.,f26q5ga,Sergeant_M,6jiit
"Has ANY of the ""Anon"" or Qtard bullshit EVER been timely/true/correct/anything?",vetdev,ajonx,f1i63ps,"Exactly. 

None of this shit pans out. Not ever.",f1h0xph,Citadel_97E,6kyvg
You were on your way out as I watched them fall and decided to go in.,vetdev,ajonx,f15t5xj,"I remember watching the towers fall                 
I was at my final command - being processed and out",f14v3zn,SDsc0rch,g33go
"Early 2ks, I joined on 9/11, boot camp a couple months later",vetdev,ajonx,f14t5pi,"late-90s early-2ks                  
you??",f14omv8,SDsc0rch,g33go
"Nice work, shipmate.

What era?",vetdev,ajonx,f14epzx,yepyep! that's where I got it from :),f13d0ck,SDsc0rch,g33go
"The tongue thing..... Nobody else sees this as potential desecration or abuse of a corpse? 

Instead of retarded fucking downvotes, why not offer a response",vetdev,ajonx,f142lau,Okay?,f0or0bg,DrunkBigFoot,chna8
I don't believe you,vetdev,ajonx,f0oewg6,"Hello I'm an embalmer

1st question,  why do you hate us?

But seriously our local ME removes all patients tounges and places them with the viscera. What is the purpose behind this? Always wondered but never remember to ask when im at ther office",f0nvumt,DrunkBigFoot,chna8
"LOL, what?",vetdev,ajonx,f0n5rnb,"Wherever you sell it; if you want to be sure just require that the buyer verify his/her callsign with you before shipping, if not possible, decline the sale.",f0m4n4z,JeepCrawler98,e536i
Fucking eh,vetdev,ajonx,ezv0gka,the 3rd is important because Trump won that by 12.  if he wins by 20 thats a very good sign for 2020,ezv0ebp,FazzMan23,170e7pbp
There's no more brakes my fren,vetdev,ajonx,ezv0d3c,"Conductor, please remove the brakes, time for ludicrous speed. MAGA",ezv04hk,Tilethewall,8lc7l6m
"Yeah, woah..... Saluteyboi2u",vetdev,ajonx,ez0q5du,Whoa . . . Hat's Off!,eyyxa5i,ENVYNITAZ,aff1lbw
Truth,vetdev,ajonx,eyco2um,">I'm not even gonna spez that

FTFY",eycfmx0,DankeVunterSlaush,q63x1
100%,vetdev,ajonx,eybr53f,I went.  And here are my findings.  I'm now a faggot.,eyblft4,inzyte,ujlnw
I'm not even going to edit that,vetdev,ajonx,eybqomn,Asus QoS is BULKSHIITE,eybqnv6,vetdev,ajonx
Asus QoS is BULKSHIITE,vetdev,ajonx,eybqnv6,"ASUS QoS controls are really solid.  You can control the bandwidth allowed by each device and also the type of traffic prioritized. 

&#x200B;

Will fit your needs nicely.",eyax01b,BernieCanStillWin1,2r1tnygp
"why is that downvoted? It certainly could have been used for slavery in a variety of forms. 

Just because slavery is bad, doesn't mean discussing it is also bad.",vetdev,ajonx,ey2egjb,As in slavery?,exzuesv,Eliese,3gwm7wwp
"Yeah, you don't even know??",vetdev,ajonx,ey12yyo,You don't know what cement is?,ey0wxmk,ravagedbygoats,423xws77
"Yeah, they really aren't",vetdev,ajonx,exyi4xp,Things aren’t that bad though,exwvt3r,NobodyCanHearYouMeme,15c96c
"Correct on lots of shit veterans - but they're ABSOLUTELY the minority. 

However, the shitheel kid you describe shouldn't be classified as anything - unless a few factors are true, such as serving a minimum of 180 days (weeds out shitheads and keeps the government from having to pay for scumbags claims), or having acquired a SERVICE-CONNECTED actual injury during active duty service. 

I doubt he's classified as a disabled veteran. Two weeks into boot camp does not a veteran make. 

First, they would've tried to help him before kicking him out. They'd try to remotivate him or beat him harder before giving up. Unless he's a real fuckup. 

If you fuck up that quickly in bootcamp, you're shit out of our system by what's called an ELS (entry level separation) and you do not typically get any benefits slated for actual veterans. 

Also, I don't believe ELS is considered a veteran anyway. Don't call him one, he's not. ""War time"" has nothing to do with it, he's lying to you.",vetdev,ajonx,exlut0p,"Ehhhh...

Knew some fucktard in highschool... total idiot / social moron.  Had no prospects, so tried to get into the navy.  He failed the physical, he couldn't do the ""duck walk"".  He ""trained"" at it, and finally learned to do it.  Went to whatever navy basic training is, and after 2 weeks they discharged him for ""medical reasons"", because he wouldn't eat anything other than pasta.  He also couldn't/wouldn't get on a plane, so he had to take the fucking train to and from whereever it was. 

But get this... since it was a ""war time"" and he was discharged... he is now a *veteran*.  

I know another guy, in med school with me now, that did 20 in the army.  Getting retirement pension.  Also he is classified as ""disabled"", since he has knee pain.  Guy is like 45 and gets around with no issues. He is using the GI bill to pay for med school, getting a full pension, getting disability pay on top of that... and is about to be a full doctor making that money. 

Hate me if you want, but there are a lot of ""veterans"" that are ""disabled"" that are total pieces of shit.",exlol8y,motram,3nth8zya
I straight up wee weed in my pantaloons my dude,vetdev,ajonx,ewoadm7,You see that photoshop? Fucking hilarious.,ewne7v4,TD_Account,vwpx8c
"Hey, I agree... Never understood the hate LOL",vetdev,ajonx,evvgpoy,"Zimas are zuper.

I'll see myself out",evuodf5,itp757,5mygu
"Well, except for the fact that what I said was true, no?",vetdev,ajonx,ev8ik0a,Must be nice in that echo chamber. All cozy and free from facts and objective truth.,ev85csp,Deltacomafia,76az3
You seen to be part of the vocal minority.... The majority elected the president.,vetdev,ajonx,ev6ms99,"That cheat code is as simple as showing up to vote. If all the people who know what an absurd asshat he is show up and vote him the fuck out, then his very vocal minority of shitwits won't get their way again. And we start living in a more reasonable world.",ev536ds,Deltacomafia,76az3
"[I made a few changes to mine, as you can see ](https://i.imgur.com/8mkKF1P.jpg)",vetdev,ajonx,eubh6no,"Quick and crappy bathroom pic. I opted for snake only, no words. Tattoo https://imgur.com/a/gmP5u1V",eu6posd,zomebieclownfish,682fiql
Pic trade? Lol,vetdev,ajonx,eu6ofdi,"I, too, have this tattooed on my forearm.",eu6jxuw,zomebieclownfish,682fiql
"So do I, on my forearm.",vetdev,ajonx,eu5jzly,[Craig Ferguson has it as a tattoo](http://magaimg.net/img/8i0a.jpg) but he's one of us now (naturalised in 2008).,eu58hz3,DiamondsOnTheFloor,130tpxge
"no.
just stop.",vetdev,ajonx,eu363qi,Q74,eu2yfxr,CrusadePrime,2qtyxjc
"Either way..... Trump said it, amirite",vetdev,ajonx,eu2dhqg,He’s quoting Senator John Kennedy,eu2cbcg,flibittyflobitty,b3dbb
 [https://i.imgur.com/Fst01S5.png](https://i.imgur.com/Fst01S5.png),vetdev,ajonx,eu2bzkl,Kennedy quote,eu2bu5r,JaneMancini,3vul5
well.... [https://i.imgur.com/Fst01S5.png](https://i.imgur.com/Fst01S5.png),vetdev,ajonx,eu2bv55,Senator Kennedy said this,eu2b3o9,ex-libtard,2m2u5f7a
"Yes, it was

&#x200B;

[https://i.imgur.com/Fst01S5.png](https://i.imgur.com/Fst01S5.png)",vetdev,ajonx,eu2buu7,Wasn't a Trump quote,eu2bkai,d0ugh0ck,z4lo9sg
Samesies,vetdev,ajonx,etxsxb7,This is a great question.  Commenting to follow the answers.,etxmkrl,jenycroisplus,1rorqnp3
shitpost lol,vetdev,ajonx,etxmnow,Lol is this a shitpost or is this real? Nothing surprises me anymore,etxlphd,throwawaystar1980,78yib94
"> Who knew that adding to the labor force increases both consumption and gdp?

increases both **rapes and murders?**

FTFY.",vetdev,ajonx,etxerhs,Who knew that adding to the labor force increases both consumption and gdp?,etxb2mv,itchman,bouef
"It's there, yes - it's real, but my point is that it shouldn't cause much concern, as the image can't do anything by itself. 

I did see that thread, originally found in 2014 or 2015 I believe.",vetdev,ajonx,etopgno,"You might be right.

But it's real. Here's a technical thread. https://stackoverflow.com/questions/31120222/iptc-metadata-automatically-added-to-uploaded-images-on-facebook",etonjo9,johnviku,w13wc
It's really not,vetdev,ajonx,etolu9h,Holy fucking shit. This is huge.,etodbjb,ShowMeTheTyrant,16zy6iz2
Where at? I used to be stationed there and can lend you some help perhaps.,vetdev,ajonx,etecoen,"Oahu, Hi",ep9mohf,HungryForChange100,yjn5p
"Lol, don't you see the pencil there?",vetdev,ajonx,ete8zu2,Half of a zipper,esf6k88,Versarious,5557t
He's correct. Sling swivel would be the proper nomenclature though.,vetdev,ajonx,ete45gr,That’s kinda what I was thinking. Thanks man!,et871zt,danes86,3hjw3s6b
"мцч Россия??

**МЦЧ**

**~~мцч гцсжиб~~**^РОССИЯ",vetdev,ajonx,etdq5m1,дезинформация,etd9bqq,ThatCrazyLibertarian,bhg6t
"idk, but they do:  [https://obamawhitehouse.archives.gov/blog/2013/01/21/second-inauguration-barack-obama](https://obamawhitehouse.archives.gov/blog/2013/01/21/second-inauguration-barack-obama)",vetdev,ajonx,eso5g3g,Why would one have a second inauguration?,eso4ew1,Bucky1965,sk0vv
>!sad.!<,vetdev,ajonx,esn19fh,Because it’s against the rules,esmxl3z,SuperMK8pro,vo7dx
Why not,vetdev,ajonx,esmxkjc,I don’t think you’re supposed to post death-related things on here,esmwsi6,SuperMK8pro,vo7dx
"This was an at grade crossing, level tracks to the walking platform. Train is at street level.",vetdev,ajonx,esmxifj,"So sorry to hear she died and hope your okay bro,but if I may ask how do people walk onto train tracks in the states?Where I'm from theres always a bit of a drop into the tracks so its really hard to Fall into it like that",esmurzt,Mesmeric_45,2yx8xdn4
"Forget that, I saw comments. Heard parts of the operations of this call on a police radio this morning. Recorded a bit of the chatter, too.",vetdev,ajonx,esmplps,"Was this Metra, Cary, IL this morning?",esmp8o3,vetdev,ajonx
They hate us cause they anus bro,vetdev,ajonx,eskh1ay,No wonder the self-loathing leftists hate us,esjh041,S2MacroHard,f6pym
Bruh,vetdev,ajonx,erx8c63,bruh 😎🍆💦💦😂,erx7vgg,bruh__bot,3zjsav99
Is a LARP,vetdev,ajonx,eruyo72,#qanon,eruq274,MAGATopKEK,x1gg4
"Yeah, no thanks",vetdev,ajonx,eruymyo,"Not op, but that's from Q.",eruq27v,wekulm,36xa1
"Is that what you appreciate about 'er, squirrley Dan?",vetdev,ajonx,ere4cgf,Your sister has great trigger discipline and that’s whats I appreciates about her.,erdko97,Im_le_tired,spl3i
Or.... You could go M2 like me and waste those $2-5 at a much much faster rate.,vetdev,ajonx,erbt5zu,$5500-6000 plus an optic that will have the range and $2-5 a round.,erbrvmw,pmr253,4m2iz
"Too Canadian for that, LOL - that's awesome. 

I get it, and that's fine - not for everyone. I do hope you've got some way of defending yourself I'm the event these fuckwits ID you and come after you. I'd bet you've got a better than 50% chance of someone looking for you if you keep interrupting low level shakedowns and low energy muggings. 

Mexico is a shithole. Source: Mexican extended family from marriage. Secondary source: my own observations.... Just be careful and carry *something* to disrupt an attack.",vetdev,ajonx,er721ac,Not really into guns. I’m a little too Canadian for that. I just have my... hands. *insert training montage*,er6weom,LosPesero,10l998
"I get that my dude... That's why I joined the military the day of the 9/11 attacks. I 100% feel your urge to do that. 

I can't say I'd be any different, but you don't have much means to defend yourself do you? Like, a weapon of any sort? What can you legally posess down there, and what can you easily, but illegally get ?",vetdev,ajonx,er6w49g,"Ha. Mexico isn’t that dangerous from what I’ve experienced. Most people just run away when you confront them on their bullshit. Playa del Carmen is way worse than Mexico City though. But either way, you can’t just sit around while your neighbours are being threatened.",er6rpfa,LosPesero,10l998
