child_body,child_screen_name,child_user_id,child_tweet_id,parent_body,parent_tweet_id,parent_screen_name,parent_user_id
One day I hope to get laws passed that make it illegal to dislike me,wankmastag,5l8tx,fkzk9rl,"Oh, poor persecuted nazi.",fkzfrgc,electricmink,a874g
It’s pretty funny,wankmastag,5l8tx,fkuv39b,It’s not hilarious whatsoever.,fkuubjw,KyleLowryHOF,5rx4fekl
The horror,wankmastag,5l8tx,fkuv0oq,"A White house official referred to covid 19 as ""Kung Flu"" to an asian american reporter the other day",fkutc27,foreveragoan,9153t
This is incredible,wankmastag,5l8tx,fjc7o6j,"> Both the government and private companies can censor stuff. But private companies are a little bit scarier. They have no constitution to answer to. They’re not elected. They have no constituents or voters. All of the protections we’ve built up to protect against government tyranny don’t exist for corporate tyranny.
>
> Is the internet going to stay free? Are private companies going to censor [the] websites I visit, or charge more to visit certain websites? Is the government going to force us to not visit certain websites? And when I visit these websites, are they going to constrain what I can say, to only let me say certain types of things, or steer me to certain types of pages? All of those are battles that we’ve won so far, and we’ve been very lucky to win them. But we could quite easily lose, so we need to stay vigilant.
>
> — Aaron Swartz (co-founder of Reddit)

https://streamable.com/ny568",fjbujro,FreeSpeechWarrior,1ww3fe
Looks pretty reasonable,wankmastag,5l8tx,fjbi8af,"So some of the other amendments being proposed are...

* Enshrine Russia's ""faith in God"". It is unclear if this will endorse a specific state church or simply enshrine faith in God in a vague sense. 
* States that marriage can only be between a man and a woman. 
* Banning the ceding of any Russian territory to a foreign sovereignty. 
* Outlawing the promotion of aforementioned ceding of territory. 
* Removing the consecutive clause of Presidential term limits, ~~effectively abolishing term limits.~~  Edit: limiting the President to two terms but resetting the limit, allowing Putin two more terms after his current one.
* The Russian Constitution should take precedence over international law. 
* The State Duma will have the ability to approve or deny any candidacy of Prime Minister, and the President may not overrule said decision. 
* Elected officials will be banned from having duel citizenship. 
* A person can only be elected President if they have lived in Russia for 25 years or more. 
* The upper house of Parliament will be able officially request that the President fire federal judges. 
* The President must appoint heads of law enforcement agencies. 
* The minimum wage may not fall below a living wage. 
* The government will have the right to regulate pensions. 
* Officially establish the State Council (think Presidential Cabinet) as a constitutional body as opposed to one of custom. 
* Grants the Courts the ability to declare laws passed by Parliament to be constitutional or unconstitutional.

Edit: Well this blew up. Haha. First time I've gotten an  award on Reddit. Thanks!",fjazgdi,Mal5341,yc1ne
"I now know that you are one of those people that is incapable of logical reasoning. You are an NPC. You can only parrot talking points and have no capability for logical thought or arriving at your own conclusions. Even a child can understand supply and demand when it comes to labor and wages but you can't. I linked that article not for the OPINIONS in it, or their theories. I linked it for the FACTS about wage stagnation. From those facts I inferred a different, far more reasonable hypothesis. The USA is currently 30% immigrants and their immediate descendants. This has been a disaster for native wages for very simple, uncomplicated, easy-to-follow reasons that you won't find discussed in common media because as corporate mouthpieces they will never elevate it to common national discourse.",wankmastag,5l8tx,fjb060w,"Yeah, because before then the US had absolutely 0 immigrants. Not like its a nation of immigrants or anything.

I really hate to break it to you but times have changed and low-paid jobs are never going to be high paid jobs, especially with such an educated work force.  Yet despite all your comments, you still haven't given one piece of actual evidence that immigration lowers wages because its just a right wing talking point that has never been proven! Imagine my surprise!

Edit: god you really are stupid.
Read your own article that you're linking - it shows that total compensation has increased (ADJUSTED for inflation) 22% since 2000 and thats the reason that wages haven't increased as much. Quote from your article
'Wage stagnation has been a subject of much economic analysis and commentary, though perhaps predictably there’s little agreement about what’s causing it (or, indeed, whether the BLS data adequately capture what’s going on). One theory is that rising benefit costs – particularly employer-provided health insurance – may be constraining employers’ ability or willingness to raise cash wages. According to BLS-generated compensation cost indices, total benefit costs for all civilian workers have risen an inflation-adjusted 22.5% since 2001 (when the data series began), versus 5.3% for wage and salary costs.'",fjayml0,tyger2020,xrm7a
"Broken record. Educate yourself. 

https://www.pewresearch.org/fact-tank/2018/08/07/for-most-us-workers-real-wages-have-barely-budged-for-decades/",wankmastag,5l8tx,fjaxb14,"Yes but its not just about supply and demand.
For a start most of the jobs that migrants are taking are in demand - they're either highly skilled or low skilled, migrants tend not to be in the middle ground. So there is no effect on wages.

Secondly, do you think if for example we had 0 migrants. Do you think strawberry pickers would start to earn 85k a year? Fuck no. Idiots like you seem to think the world is black and white but there isn't a chance in hell, regardless. Not to mention if you're the only person in the country doing said job then you're not going to want to do that job regardless of the compensation of it since the conditions would be fucking dire. 

Its amazing how you can come on here, claim that immigrants lower wages and yet the US, Australia, Canada have huge immigrant populations and some of the highest wages in the world. Don't try and blame the UK gov' shitty policies on immigrants, similarly blaming immigrants of the housing crisis while the UK is still having net birth rates is fucking idiotic too. The people are going to increase regardless of immigration or not.

Anyway, like I said, I dont care for your ill founded right-wing opinion that isn't based on fact.",fjawwgh,tyger2020,xrm7a
"Those are factual numbers, not editorials or opinions you doofus. You claim to know economics but you don’t even understand supply and demand. A larger labor pool reduces wages for everyone in that pool. How can you be ignorant of this? If I’m the only specialized worker in tech and a hundred corporations need my skills, will my wage be bigger or smaller than if there were suddenly a hundred workers like me? How about a thousand? How about a million? Do you understand the concepts now?",wankmastag,5l8tx,fjahyd9,"Ah yes the 'reduced standard of living and lower wages!' argument. The same argument that has literally never been proven.  We should definitely use that to create our immigration policy. /s

Ah great! A link from an anti-immigration think tank. No bias there at all. 
Clearly, if the ONS says unemployement rate for immigrants is 5% I'm going to trust that and not a random German source. 

Just get out of here with your bullshit man. Nobody is falling for it.",fjah6ov,tyger2020,xrm7a
"You’re so stupid I’ve explained it so many times that immigrants propping up economic numbers does nothing for the average worker that makes up for the lost wages or reduced standard of living. You’re arguing a “bigger pie” approach but stagnant wage growth over periods of mass immigration clearly shows you are wrong. And being employed doesn’t mean that they aren’t a net drain as evidenced here:

https://cis.org/Report/63-NonCitizen-Households-Access-Welfare-Programs

Or this (can’t find an English translation but the important point is that the unemployment rate for migrants is 50% after 5 years and 25% after 14 years. And most of those with jobs are still net drains on the treasury due to public assistance)

https://www.zeit.de/wirtschaft/2018-05/integration-fluechtlinge-job-beschaeftigung-pakistan-nigeria",wankmastag,5l8tx,fjagdg1,"I'm not arguing with idiots I'm afraid.

According to ONS, UK national unemployment was 4.1% and immigrant unemployment was 5.0% - hardly a big difference. Not to mention that raw data also matters, meaning there are a lot more unemployed UK nationals compared to immigrants. 

Secondly, there have been multiple studies showing immigration has a net benefit. One showed a net benefit of 2,300 a year. Now multiply that by about 150,000 a year (oh, only an extra 345,000,000). 

Similarly immigration is good for the economy which is good for the population. I mean it is surely basic economics to know why GDP growth is good for people, you're welcome to google that for yourself. I'm not here to teach you basic economics.",fjaf83h,tyger2020,xrm7a
"The only way that migrants can be “good for the economy” is by being good for corporations. This is because native worker wealth is redistributed to migrants via taxation and welfare programs. Migrants have an enormously higher unemployment rate compared to natives. The migrants then use this taxes wealth to consume products. Corporations a migrants and the GDP win with this. Native workers are the biggest losers. You’re one of those idiots that think the GDP is all that matters even to the detriment of actual people. If it’s easier for you, you can imagine this as the native workers being forced to spend more money in the economy, except it’s not the natives receiving the benefits of this spending.",wankmastag,5l8tx,fjadyqa,"Lmao oh share with me the wisdom of how 'hungary' is doing it right.
Not to be rude but its quite obvious you're a typical american because you're clueless.
The fact you think Japan is so different culturally to Europe (when Japan in reality is much closer to UK/France/Germany than Hungary is) is laughable. 
Also, migrants have been proven time and time again to be a net benefit to the economy. I think last time it was EU migrants are a 2k net benefit. 

Just admit you're out of your depth and clueless apart from what you've heard on FOX news. Goodbye.",fj0h031,tyger2020,xrm7a
If you can find me a segment of one of those two calling White people biologically superior I’ll grant it to you but I doubt it exists,wankmastag,5l8tx,fj2nvwf,"Dude those guys actually think white people are biologically superior. Calling them “true conservatives” is like calling Jessica yaniv a “true liberal.”

**edit:** tucker Carlson is fine and Michele Malkin idk be Stefan and Fuentes are no bueno. And no he wasn’t a never trumper. He speaks out against them on his show. He’s criticized trump when he does dumb stuff (frequently) but doesn’t hate the guy.",fj2lqxg,basura_time,k8xcl
"Nick fuentes, Tucker Carlson, Stefan molymeme, Michele Malkin to name a few. Matt Walsh was a never trumped for ducks sake",wankmastag,5l8tx,fj2i5gy,What?? I’m pretty conservative and I thought he was conservative. Who do you consider conservative?,fj2h4xj,basura_time,k8xcl
Matt Walsh is barely conservative. But this is reddit.,wankmastag,5l8tx,fj21whe,Is he?,fj20r5s,elkinsj210,4df63
"That was one giant non sequitur that was just so dumb at points it’s not worth going in depth. One guy building a house? Really? so I’ll try to be brief. All of your doomsday predictions are based on an ever decreasing birth rate. There are ways to do that without creating widespread social unrest that we are experiencing in the USA. Hungary is a prime example of how to do it right. Japan is so different culturally from Europe that it’s not a valid example. Even if we ignored the need to reverse the birth rate, the rise of automation will greatly increases the productive capability of a smaller workforce to support many pensioners. And, finally, your assumptions include that immigrants are a net benefit to the economy by paying more into the system than they take out. This is demonstrably not the case in much of Europe. Over 50% of immigrant households in the US are on public assistance as well.",wankmastag,5l8tx,fizdhxa,"Oh god, somebody has done their geography 101. 

Okay lets start with your first point. 
''Temporary'' is a ridiculous term to call something that will last decades, because yes you are correct old people do die (I'm quite shocked you was even able to get that right considering the rest of the inaccuracies in your post) but I digress. However what you fail to remember is that as those old people die, they will just be replaced by: more old people! As the 65+ generation die, they will be replaced by the 40-65 generation (who will STILL be bigger than the 18-25 generation, because people are 1) too old to have kids and 2) the death rate is higher than the birth rate. 

So yes, old people do die, that doesn't mean they're not replaced. Similarly, age demographics are changing regardless of if old people are dying - because there aren't enough kids being born. Which then also leads to: less government revenue. That means all the services that have government involved will be cut or significantly reduced! Fun times indeed!

Similarly, lets not forget that means less people working, clearly, because there are less young people and you have all the fun effects of recession: less people working! less people earning! less people spending! more job losses due to decreased demand of services! wow! all that fun!

Yes, wages may rise in the few industries that aren't seen catastrophic shortages but you're forgetting the most important thing - nobody will want to work there due to how terrible the conditions are! Just look at how great nursing is doing, and that's with a pay rise! Wow, all the workers rights. It'll be so fun when there is 1 builder to construct an entire housing estate, even if he does get paid 100/hour! 

Ah yes, housing - because the logical thing to do here is to just you know.. tank our economy and public services because immigrunts r bad!! Or like a totally radical liberalist propaganda idea could be that we use the money generated from the additional jobs (see lump of labour fallacy), the additional spending (even low-paid migrants have to pay for rent, food, which then in turns goes to business, and causes an increased demand and therefore more jobs) to build more houses and infrastructure to better cope with a higher population! 

If you want an example of how good it is to just let your population decline see Russia & Japan! (Oh sorry, I forgot to mention that even countries like Japan that are 99% ethnically homogeneous have started to allow hundreds of thousands of immigrants because the effects of declining population have started to kick in, and has lead to hundreds of thousands of people unemployed because the stress/working conditions of doing 50 hour weeks is so bad to make up for the lack of labour supply!) 

Jesus, some of you are embarrassing. Have you ever actually read something over than the sun?

Oh Japan - by 2050, it will have only lost 21 million people! I'm sure that will have no effect at all (except for the pensioners who are now having to work well into pension age so that they can 1) have money and 2) because of the lack of labour supply. Amazingly, even after losing 22 million people by 2050 - 1/3 of their remaining population will also be over 60! Wow, what fun times ahead! I'm sure you'll be able to afford a house for £2000 when the economy is in ruins because of fuckwits like yourself.",fiz61uu,tyger2020,xrm7a
"They really don’t lol. you just need to look at the stuff that reddit censors to figure out its not coming from China. Reddit censors “racist, homophobic, anti-Semitic, pro-nationalist” content even if it’s just memes. China doesn’t give a fuck about these things. Overzealous left wing freaks do. There’s no end to anti-China posts on reddit but this is the stuff that gets snuffed.",wankmastag,5l8tx,fiyrw3h,"You’re telling me China dgaf about the LARGEST pro Trump gathering online? 

Ok...sure.",fiyqvle,knightofday87,eg6za
"Ok I’ll break it down for you because you clearly have an infantile understanding of labor markets. A declining population means a temporary discomfort in increased taxes on the young until enough old people die that the population proportionally corrects. Or (my preferred method) you could cut pensioners public funds and tell them they should have had kids. 

In the mean time wages will rise for workers and rents will decrease. This equates to a higher standard of living. This is indisputable if you understand Economics at even a pre-uni level. Fewer workers means higher demand for what workers there are, means higher wages for these workers. Fewer renters means less demand for housing, means rents must come down to attract tenants. Your last point about wage growth is pants-on-head retarded. The USA is currently 30% immigrants and their immediate descendants. Wages have been stagnant yet corporate profits have been obscene for this reason. This is a policy driven by the wealthy stockholders and by corporations to the obvious detriment of the American worker. Both American political parties are complicit in this as it props up the GDP. The only reason that fools like you think otherwise is because media (corporate mouthpieces) would rather die than be forced to bring light to this topic.",wankmastag,5l8tx,fiykbc7,"LOL. So what is your plan for the declining population and higher taxes, but less money to spend, so less business, so more unemployed ? 

Also, wage growth has never been proven to have any link to immigration and ''standard of living to rise'' is just bullshit no matter what way you try to spin it.",fiyhxia,tyger2020,xrm7a
I can’t begin to argue with someone that doesn’t understand the basics of supply and demand labor economics,wankmastag,5l8tx,fiyj8ib,"You’re an idiot. 


A true fucking idiot.",fiyh13v,Odani_cullah,3jayqdq3
The UK doesn’t need any immigration at all. What are you talking about? The GDP and stock market Would take a hit but the average worker would see their wage and standard of living rise.,wankmastag,5l8tx,fiygry7,">It’s the same thing in the US. The horrible truth is there is no government representation for the native working class

No, the horrible truth is that the UK needs immigration and despite the thousands of genuine critiques of conservatives at least they realise that. 

Brexiteers just don't understand the UK will NEVER lower immigration at any meaningful quota.",fiydp8h,tyger2020,xrm7a
It’s the same thing in the US. The horrible truth is there is no government representation for the native working class,wankmastag,5l8tx,fiy5ipj,"the economy is propped up by immigrants. this leaves the government in the uncomfortable position of having to *give the impression* they're going to reduce immigration to brexitters, without actually reducing it.         
youll notice they dont actually say theyre going to reduce immigration, but they talk an awful lot about immigration policy.",fix40x1,heinzbumbeans,vo75v
Well you’re for sure correct that it didn’t happen organically. But it sure as shit didn’t come from China lol,wankmastag,5l8tx,fiy3ogx,"China isn't here to sing the praises of China. China is here to unseat Trump through ideological subversion. Chinese mock cuck Americans calling them the ""white left."" All this identity bullshit didn't happen organically.",fiy3d38,SnarkyBrainwasher,3e92svvw
"you just need to look at the stuff that reddit censors to figure out its not coming from China. Reddit censors “racist, homophobic, anti-Semitic, pro-nationalist” content even if it’s just memes. China doesn’t give a fuck about these things. Overzealous left wing freaks do. There’s no end to anti-China posts on reddit but this is the stuff that gets snuffed.",wankmastag,5l8tx,fiy2tec,If they don't give a shit about the largest pro Trump online community then why would the communist state government waste their time writing anti-Trump articles and publishing them in American newspapers? China is the biggest loser of this presidency.,fixztkt,SnarkyBrainwasher,3e92svvw
"Yeah I know the SPLC is evil incarnate but you just need to look at the stuff that reddit censors to figure out its not coming from China. Reddit censors “racist, homophobic, anti-Semitic, pro-nationalist” content even if it’s just memes. China doesn’t give a fuck about these things. Overzealous left wing freaks do. There’s no end to anti-China posts on reddit but this is the stuff that gets snuffed.",wankmastag,5l8tx,fiy2rfk,"China might not give a shit but do you honestly think that Reddit won't bend the knee to appease them! Reddit routinely allows pro-communist speech and calls for violence against those that disagree to remain on the site but God forbid you say their are 2 genders, not all cops are pieces of shit, or anything else that goes against the reddit leftist hive mind narrative lest you get banned, which again, is a violation of Al Is citizens Constitutional First Ammendment rights and National Origin Discrimination based on our support for those rights. 

Funny you should mention the SPLC as nudging reddit to do these things. The SPLC funds terrorism via Antifa (Dept of Homeland Security classified Antifa a terrorist organization FYI and considering they use violence to supress their political opponents it is an accurate label). https://youtu.be/peGIc6AQHa8  

The same SPLC that has already settled a multi-million defamation suit against a Muslim man, Maajid Nawaz for calling him Anti-muslim and is currently facing up to 65 other lawsuits for defamation, discrimination, and other things. 
https://youtu.be/aYSNFSkLhhM
https://youtu.be/UtPKU5lfADo",fixykwf,Usuqamadiq,e8q7l
You stupid assholes China does not give a flying fuck about censoring this sub. This is purely a reddit admin decision with nudging from the ADL and SPLC,wankmastag,5l8tx,fixjls4,"Reddit is a state actor of China. They accepted $300 Million to fund the site and regularly suppress content critical of the Chinese Government and actively allow pro-communist and socialist propoganda and posts to flourish. 


https://fortune.com/2019/02/08/reddit-is-blocked-in-china-but-may-land-a-massive-investment-from-tencent/


Their lack of action to outright calls to violence from the Socialists and Communists on reddit and failure to equally enforce the rules/TOS are a breach of implied covenant of good faith and fair dealing under the requirements of 47 U.S.C. § 230. 


Reddit is headquartered in San Francisco and thus must abide by US laws. It isn't in their Terms of Service or rules that they are acting as a Chinese State Actor, thus they are conducting fraud against US Citizens. 


This censorship of US citizens is a violation of their First Amendment rights and private company or not, they operate a social media company on US soil. In the 2017 US Supreme Court case, 2017 Packingham vs NC,  the Court stated that social media companies and cyberspace are the modern public square for discussing and disseminating ideas and this First Amendment protections apply.


Reddit acting as a state actor of China and censoring, banning, shadowbanning, or deleting US Citizens posts or quarantining communities is National Origin Discrimination pursuant to 42 USC § 2000a. US citizens and Patriot's have a right to free enterprise even on social media and it is a violation of US Federal Law to discriminate based on their National Origin, even Patriotic Americans whose pride and beliefs you may not share.


Please copy and share this everywhere. Feel free to improve upon it which better research as I am not a lawyer. Mods should really add it or a version of it to the bot post at the top of every thread. 


https://i.redd.it/x4qcco21oyi41.jpg",fivwcah,Usuqamadiq,e8q7l
I hate that these dummies think that the losing side is automatically in the wrong. Has the more virtuous side won every war? I doubt it.,wankmastag,5l8tx,fiwf1s4,"Hi, your doctor called. Said if you keep stretching that hard you'll pull a muscle.",fiweftf,mynameisethan182,gvo5i
Yeah fuck native americans,wankmastag,5l8tx,fiwe4z4,I will never understand the celebration of losers.,fivyopb,abcdefghig1,51dctjjj
An overwhelming majority of pioneers did not come on the Mayflower either.,wankmastag,5l8tx,fiavxe8,"Wow, that's some industrial strength crazy right there.  Most of the people who are here now did not come over on the *Mayflower*.",fiavqhu,xmindallas,crhng
"It’s a disservice to the revolutionaries, settlers, and pioneers that built this country to equate them to modern day immigrants coming to an already built and developed country.",wankmastag,5l8tx,fiav0e7,"You're absolutely right, and it's extremely sad that this mentality has driven our immigration policy in the U.S. for the past 100 years or more.  There is no moral justification for pulling up the ladder after oneself.",fiarehm,xmindallas,crhng
So to be clear if 99% of Germans vote for fascism then the 1% can just start blasting?,wankmastag,5l8tx,fiacva2,"The German Grundgesetz has enough mechanisms to prevent the abolishment of the demicratic order. If all else fails, article 20 IV allows every citizen to do what is needed to protect the democratic order",fi9pav5,carl_super_sagan_jin,67nya
"Well for the sake of argument, if 99% of the people (or even 70%) voted for a fascist or totalitarian government I have a hard time believing that they wouldn’t get their way. If they didn’t, I would hardly call that system “democratic”. This scenario makes me think that democracy is a method of governance and collective decision-making but it is not a virtue or end goal in and of itself. If another form of government would be better capable to realize the will of the people, why wouldn’t they put the new system in place democratically?",wankmastag,5l8tx,fi8crf5,"No, it isn't. That's the whole point.

If you would allow to abolish democracy by a Democratic decision (like a referendum, or a huge majority in parliament), that might be democratically legitimized in the very moment that it is done. However, future generations would be deprived of their right to make democratic decisions themselves.

This would mean that in such a ""democracy"", the democratic system would last only until the antidemocrats win for the first time. Imagine that in each election, there is a 99% chance of democrats winning and a 1% chance of antidemocrats winning. Seems not to bad, right? However, this means that after *n* elections, the probability of still having a democracy is (99%)^*n*. For *n*→ ∞, the probability of having a democracy goes to zero. This means, sooner or later, such a democracy would abolish itself.

On the other hand, making sure democracy doesn't get abolished may be contrary to the ""democratic"" will of the majority at the time of the vote, but it ensures that later generations retain the right to make decisions. So it's a net win for democracy.

Likewise, a party whose goal it is to end democracy or human rights is set out to permanently deprive future generations of their rights, so with no majority whatsoever at any given point in time can their decisions be democratically legitimized.

Germany may be unusual in this regard, but the preservation of democracy and human rights weighs stronger than any majority at any given point in time ever could. There are certain parts of our constitution that are unchangeable, for that very reason.",fi87duz,muehsam,10zmhw
What if 51% of the people vote for a fascist government? That’s still democracy in action,wankmastag,5l8tx,fi8bpc1,A democracy cannot be asked to allow undemocratic parties to exist. Those who wish to abolish the core values of the system cannot ask the system to tolerate them.,fi87t49,Bojarow,anu77dj
Abolishing a party with popular support in a democratic country is by effect “abolishing democracy” as you say so the point doesn’t really stand.,wankmastag,5l8tx,fi830bc,"> Ban actions, not political views,

Banning an organization doesn't mean banning their views.

The rule in Germany is pretty simple: if you seek to abolish democracy, you don't get to take part in it.

> I can certainly understand that it is a nice idea to just get rid of it in one sweep, but... yeah, this doesn't work out. The next AfD will follow, unless we make sure that people are educated enough to see their mistake.

The last time they got to power, the sweep came far too late, after tens of millions of people were dead, and the whole continent lay in ruins. Afterwards, it took them 70 years to become relevant again though. If banning AfD means fending off this danger for another 70 years, it seems like a pretty reasonable idea.",fi7wpiq,muehsam,10zmhw
You should find Watson and explain to him how you’re so much more knowledgeable on the subject than he is.,wankmastag,5l8tx,fi42sh3,Which pair of nucleotides in the DNA molecule control IQ again?,fhwinei,TaiTastigon,5df5tr8e
For real imagine being a reddit commenter and thinking you know more about the heritability of IQ than Watson and Crick,wankmastag,5l8tx,fhwi6mp,"What he did to Rosalind Franklin was hella fucked up. He did have to figure things out because all he really got was strange crystallography pictures. 

Also, IQ has been proven to be largely heritable. My ethnic classes told me it’s not true and that everyone is equal (because inclusion). My behavioral genetics class gave us papers and said it can be heritable. 

Watson stood his ground. Probably could have phrased it better, though.

Edit: Yikes. I didn’t know there was such a bug rejection to common genetics. It’s funny because most of you rejecting genetics probably make fun of how crazy anti-vaxxers are for rejecting simple science and choosing to believe what they like because it makes them feel better. Déjà vu...",fhw8lq2,ParallelTony,3pzih9m2
I just finished this book,wankmastag,5l8tx,fhhnvp8,"If not a friend, a fellow traveler. 

Thick as thieves.",fhhbrcn,chuckachookah,jrnadil
Yeah they all got together and decided to switch just for shits. We’re doing it again in 2022,wankmastag,5l8tx,fhg6wt4,Maybe somebody should explain to Hollywood that the parties switch platforms way back,fhf9tag,montybo2,28hbchqb
The reality is trump hasn’t been perfect. We need Tucker or Hawley.,wankmastag,5l8tx,fh4nr7d,"Donald Trump Jr has been the only one willing to back every single issue like his father.

Problem solved.

The bigger problem is getting MAGA in control of the House and Senate",fh38gab,RandomName1535,57bjzc9n
Yeah but slavery was legal and implicitly guaranteed in the constitution. Don’t blame judges or the law for slavery. Judges and the law were doing their job.,wankmastag,5l8tx,fh4gs5q,The Dred Scott decision set back years of progress for the abolitionist movement in the US.,fh3l43p,eZACulate,ir6aa
Unironically Tucker Carlson,wankmastag,5l8tx,fgnaogt,">longtime arch enemy Romney

Who has conveniently already had one fairly successful run for potus.  If Trump is defeated in 2020, who does the party turn to?  🤔",fgn8pyn,NN_was_bad_policy,obs6m3c
You say that but the diversity is only hitting white countries.,wankmastag,5l8tx,fgm39f3,"The idea that race mixing will eventually lead to everyone being basically the same vague shade of brown isn’t some top secret concept.

The disagreement comes from the idea its “white genocide”. Because if it’s “white genocide” it’s also equally “black genocide” and “asian genocide” and so on. 

Big whoop, we will still assign worth, discriminate, and massacre each other based on other arbitrary differences anyway because of our inherently tribal nature.",fglj111,Cloudmarshal_,509e312t
LOL truth hurts,wankmastag,5l8tx,fgeknxr,That’s most Raiders fans too,fgej93j,mthrfkn,4afv0
"This is completely incorrect. Look at any of the quotes of the founding fathers. Or the Chinese exclusion act, or the trail of tears, or slavery, or Japanese internment, or the mass deportations of Mexicans following ww2. You’re peddling a fantasy of America. A recent revisionist fantasy. And America has only declined in power and wealth as it has gotten more diverse.",wankmastag,5l8tx,fg1n9pr,"There never has been a common identity, culture, language, race or religion in all of American history. Period. That's what made America exceptional: anyone can come here and become an American, so long as they follow our values and pledge allegiance to our flag. We're the OG multicultural country. And that's why we quickly became the wealthiest and most succesful country in the world: because we attracted the entire planet's best and brightest. Now everyone else is scrambling to catch up to us.

The reason I love America is because of that: its acceptance, its celebration of diversity, its promise of freedom and opportunity for all, no ifs ands or buts.",fg0jptw,Amy_Ponder,yex73
"That’s a completely revisionist history. The “melting pot” term wasn’t even around until the 1900s. This nation was founded by setters and revolutionaries. They took an empty wilderness and build civilization, cities, spaceships. Immigrants came after in great numbers to work and build and settle when the country needed new citizens to do so. Modern immigrants come to what has already been settled and built. There is no comparison.",wankmastag,5l8tx,fg1mue4,"Of course! The whole point of America is unless you're 100% Native American by blood, you're an immigrant or the children of immigrants. Our whole brand is that we're the melting pot country, where anyone can come and build a new life for themselves. That's what makes America the greatest country in the world.",fg0j7wl,Amy_Ponder,yex73
"Stark political differences between the demographics will cause it to split. There is tremendous social pressure to not speak out about these kinds of things but people are bothered by it, primarily because of irreconcilable political differences. Right now a lot of people are also operating under the delusion that these new demographics can be persuaded to vote rightwing but nothing past or present exists to suggest this is anything other than wishful thinking. Texas will go blue and at that point “old Americans” are going to be forced to come to terms with the fact that they have lost their sovereignty in the country their ancestors built, and they weren’t even consulted. We are already starting to see some framework for this kind of Balkanization with the Virginia 2A sanctuary counties, and the offer from West Virginia to absorb them.",wankmastag,5l8tx,fg0g8jz,"First of all, the Hart-Celler immigration act is hardly undemocratic. It's true that over time, contrary to some of the promises of the politicians, it has changed the ethnic makeup of the country to some degree, but it's not like there's just nothing that could have been done about that since the bill's passage *50 years ago*. The truth is that most Americans simply aren't that bothered by slow demographic change.


> the consequence is that this country will Balkanize in our lifetime.

I... don't see how that follows. I mean, the demographic change is no more severe than it was 100 years ago. Why will it cause the country to break up this time?",fg0d1zi,Kamekazii111,12kxp9
Well looking around the world I think that white countries have far stricter laws regarding animal abuse than non-white countries so maybe he has a point.,wankmastag,5l8tx,fg0avxg,">I knew was that a black football player had been involved in something seedy and violent and white people were deeply and personally upset.
 
Oooh",fg09qva,Jay_________,qjm3v5b
1965 hart Celler immigration act. The public was repeatedly promised the bill wouldn’t change our demographics. That turned out to be a lie and the consequence is that this country will Balkanize in our lifetime.,wankmastag,5l8tx,fg02c9w,">This country is 30% immigrants and their immediate descendants...My vote counts for tremendously less

The same could be said if the population grew because people had a lot of babies. If people you don't agree with have too many kids, is that also an attack on your sovereignty?

Also, do you think people born in America to immigrant parents aren't ""real"" Americans deserving of a vote?

> (and no one voted to change the immigration policy to allow this)

Really? I mean, people did elect their own representatives right? And then those representatives presumably passed some legislation on immigration? That seems legitimate to me. 

When you say no one voted for it, what specifically are you referring to?",ffza3kv,Kamekazii111,12kxp9
"Using your reasoning, there is no such thing as an American. There is no common identity, culture, language, race, religion, shared history, set of values, or even allegiance to this country necessary to be called an American. By your definition, which is completely accurate from a legal sense, being an American is just a signature on a piece of paper. This is a soulless and relatively recent conception. Being an American used to mean something.",wankmastag,5l8tx,ffz2d89,"According to the US Constitution, absolutely. I thought the Constitution was important.",ffz0psy,movzx,352cl
"That is a good question. They contributed to the growth of this country when it needed growing, I would say they’re not as American as a veteran of the revolutionary war. They’re just as American as an Irish immigrant at the time. And they’re far more American than a 2020 immigrant. The Chinese that died building the railroad didn’t come here for something easy.",wankmastag,5l8tx,ffyy9nz,Honest question: do you believe that the immigrants that died building the railroads and factories and pipelines are less American because they came over on a different boat?,ffyxh9u,chortly,60luw
source on that 130 million? That seems absolutely impossible. There were not even indigenous cities in North America to my knowledge. The population of America in 1776 was 2.5million.,wankmastag,5l8tx,ffyxlkp,"> empty wilderness

There was 130 million people here that were genocided. North America wasn't empty and uninhabited.

You can miss me with your manifest destiny anti-immigration bullshit, but don't act like the settlers held hands and sang songs building the United States. I know you aren't that stupid.",ffyx1zj,TheSweetestKill,9btfl
Honest question: do you believe that an anchor baby or a naturalized citizen from the Philippines is “just as American” as someone whose ancestors were on the Mayflower and fought in every American war?,wankmastag,5l8tx,ffywqmz,"Also, loving the implication that naturalized American citizens -- who have to live here over a decade, commit no crimes, pass civics and history tests that American citizens routinely flunk, and jump through a million other hoops to get their citizenship -- somehow don't count as true Americans?

Hell, I'd say naturalized citizens are *more* American than us shmucks who were randomly born here.",ffyutlv,Amy_Ponder,yex73
We need to do away with the idea that an anchor baby or a fresh off the boat immigrant from Malaysia is “just as American” as someone whose ancestors fought in the revolutionary war. It’s ridiculous.,wankmastag,5l8tx,ff1iayr,I hope the people in America whose ancestors did not fight in her wars come to understand why Americans hold the constitution so dear. I'm not so certain we can remain a unified Country if we do not share the same values.,feys9ac,SnipedYou,33gty
My dudes!,wankmastag,5l8tx,fdbrbss,Gonna cry? Piss your pants? Maybe shit and cum?,fdbp488,ilovehenrique14,hsd0wsp
"Honestly this is a pea-brain take. It’s against the principle of free expression. Regarding against-the-grain politics or other principles that you hold dear, the fact that you need to keep quiet or hide your ideas is an imposition on your basic human freedom, whether that pressure to hide comes from the government or powerful people outside of the government or a threatening mob or otherwise. It’s an injustice that you should resent. You leftists of all people should know that the government does not have a monopoly on tyranny. This example in the article though doesn’t even broach that territory though. These guys made an uncouth joke. A world in which you are punished if you don’t conform is not what the founders of this country intended. The fact that this is nonconformity in humor makes it all the worse. We went from a mentality of “it’s a free country” to a mentality of “be careful what you say”. It’s gross.",wankmastag,5l8tx,fcl469j,"Actually that's exactly right.

They were free to do so... and then free to face the consequences.

People who shout out 'Land of the free' only mean 'Land of the free to do what *I* want without consequences'",fcl2ouv,IndyPoker979,ey05w
"Given what we’ve seen of the democrat rhetoric and the actions of the soon-to-be majority, I think you’re extremely foolish in not caring about becoming a minority",wankmastag,5l8tx,fc7g0wr,"When does the public conversation start on prejudice that White Americans face? I'll say it, I'm not comfortable becoming a minority in this Country if we can't have a public conversation on prejudices we face. I don't care about becoming a minority, but some people in this country want a free pass to be racist.",fc7firn,SnipedYou,33gty
Imagine what a bugbrain and backwards internet education you’d need to have to think that Leonidas sucked cock.,wankmastag,5l8tx,fc3ux9t,"It's also funny how they look up to heroes from ancient history like Leonidas of Sparta

*If only they knew that he'd fuck them up, fuck their bitch and suck their dick*",fc3rw30,SnakeEyes58,z7rdf
15 years though? That should be 6 months AT MOST,wankmastag,5l8tx,fblipzv,"Come on folks we're better than this.  The flag wasn't the reason he got 16 years.  The real story is he threatened to burn down a bar, stole the pride flag and set it on fire ouside the bar.  He has 2 prior felonies and so he gets habitual offender status which ups the time.",fbk5pkn,BC1224,awzfg
The riot was started by a group of black men firing into a white crowd that they (credibly) believed would become a lynch mob for a black man accused of sexually assaulting a white woman. This encounter left 10 white people and two black people dead and ignited the riot. I’m not sure where you came up with your explanation.,wankmastag,5l8tx,fb8tdcq,"Like many facets of American history, its really dark.  Tulsa at the time was known as “Black Wall Street” and was very prosperous, even more so than New York’s Wall Street in many cases.  Poor, racist whites saw that some black people were doing better than them and got really, really angry about it, gathered up their similarly poor, racist white friends and burned, looted, and murdered their way through Tulsa.  They call it a “race riot” to distract from the fact that it was a massacre on American soil",fb8i2qs,Drewyo567,j9qj7
She keeps him honest. The only reason we have a wall going up is because of her “gutless president in wall-less country” article. Anne is based. Trump does take his base for granted because he knows we are behind him no matter what. No one is at his rallies chanting about the black unemployment rate.,wankmastag,5l8tx,faj5g2d,"Her expectations are unreal...she wanted instant 100% wall, deport 100% illegals now..like send teams of ICE down every street with dogs throwing them into deportation vans... and end 100% all immigration from everywhere NOW.

Then when he doesn't do things he never said he was going to do, she develops instant TDS.

Shes a flip flopping LOON, that's always looking out for her BANK ACCOUNT.",faiu77k,-StupidFace-,10w8fh
.,wankmastag,5l8tx,fa933do,“Based trans” Jesus guys pull it together.,f9lmqn2,wankmastag,5l8tx
"Yeah imagine the reddit reaction when Zimmerman wins this case and is awarded damages, assuming this is all true.",wankmastag,5l8tx,f9oavma,"So, I mean, if that's the case it is pretty damning is it not?",f9o9dc5,flyingwolf,5mpwk
80 IQ,wankmastag,5l8tx,f70i9sd,"Nick has not been deplatformed like most people with an anti-israel platform and still has a blue check mark.

He’s a plant by Mossad",f70easz,auronmaster,9hku2
"Fuentes is like 21 years old and is gaining real traction in national discourse with his movement. He has no sponsors. If he wanted sponsors, he would have gone the Ben shapiro / Charlie Kirk route. Instead he has integrity.

Edit: perma banned for this comment. In true conservative inc fashion.",wankmastag,5l8tx,f6x2quw,"> Nick Fuentes

 I don't follow this stuff but when it comes up here these are always names I've never heard. Is this like a you-tube/twitter centric alt-right subset that has a popular following online but no traction in the real world?

 They always end up being very average or even unsuccessful people. I mean I'm not seeing anyone who ran a large or even small business (Trump), was a doctor (Ben Carson), had a valorous military background (Crenshaw, John James). 

 I think alt-grifter is a more appropriate term.",f6wuovm,zroxx2,zmynr
"https://www.channel4.com/news/factcheck/factcheck-black-americans-commit-crime

“ It’s true that around 13 per cent of Americans are black, according to the latest estimates from the US Census Bureau.

And yes, according to the Bureau of Justice Statistics, black offenders committed 52 per cent of homicides recorded in the data between 1980 and 2008. Only 45 per cent of the offenders were white. Homicide is a broader category than “murder” but let’s not split hairs.”

Disregarding black immigrants and US-born black people, immigrants both legal and non-legal, commit crime at a higher rate than natives. There’s a direct link to the bureau of justice statistics in there.",wankmastag,5l8tx,f4yz0on,*citation needed*,f4yxt9m,Fuck_Fascists,yg6b0
This is literally happening to every Western country.,wankmastag,5l8tx,f33bs35,Why use violence? You can just remove ethnic groups by changing their demographics and demolishing their history.,f32mk4x,kashbra,i4oh2
"Got you. Imagine my surprise. It’s a common belief among tourists that the shoe shines because people rub it. Every Harvard student knows that the real reason is uric acid. Harvard students frequently piss on the shoe at night as a prank because touching the shoe is a common tourist activity. This is actually one my two questions that can be found on google with a little looking, so maybe you’re not so great at that either. Every grad and undergrad student at Harvard knows this. Better luck next time",wankmastag,5l8tx,ewh4e4c,">the last two cannot be

> Why is is the shoe on John Harvard’s statue a different color from the rest of the statue?

Tourists often rub the toe of John Harvard's left shoe for luck, in the mistaken belief that doing so is a Harvard student tradition.

https://en.wikipedia.org/wiki/John_Harvard_(statue)


“No one knows the answers to my top secret Harvard questions!!!!!!!!”


So where is your source for your argument, ding ding?",ewh3vgf,TouchDownBurrito,9r476
NPCs get so mad when you call them NPCs. You can’t think for yourself even for a moment. No wonder you tried to convince me of your Harvard fraud. You thought it would lend you gravitas to make up for your inability to reason. Pathetic.,wankmastag,5l8tx,ewgzuhf,"> The NPC meme is real. 


Nothing requires less thought and is more scripted than calling someone an NPC. Like I said you have zero self awareness. 


Again, put up some evidence or shut up, ok kiddo?",ewgzn1r,TouchDownBurrito,9r476
oh man you even progressed to the condescending sweetie-posting. Next are you going to check my post history? The NPC meme is real. You literally cannot think for yourself. You are mentally incapable of rational thought. I don’t think I would even consider you human.,wankmastag,5l8tx,ewgybsx,"Again, why should I provide you with evidence when you can’t do the same for me? There is no “logic” to that. 


> And for the last time, you can’t disprove an opinion

Published and sourced arguments aren’t opinions, this certifies that if you graduated high school it was just barely. 


Again, back up your argument with sources or go be quiet and let the adults talk, ok kiddo?",ewgxxc6,TouchDownBurrito,9r476
"All of those things about me are true but they aren’t relevant. That’s what I’m trying to tell you. You need to process these things logically on your own. You took the OPINION of an assumed higher authority and passed it off as ordained-by-God EVIDENCE. That “evidence” of yours runs counter to Econ 1 concepts of supply and demand theory as regards labor supply. It attempts to diminish this glaring flaw by dismissing those as short-run problems and claiming that things will actually work out better in the long-run. I found that to be a highly questionable line of thinking and unlikely to be the case in a modern day, real world application. Do you see how I can think for myself in this regard? I don’t need to skim google looking for a Nobel laureate to have written the same words using the same logical processes that I just came up with in order to validate my argument? Res ipsa loquitur. “It speaks for itself”.",wankmastag,5l8tx,ewgkgvr,"If any of those things were true you would know the importance of evidence to support any argument. Shit like “Stop appealing to higher authority for all things and believing yourself to be smart or correct for doing so” would get you laughed out of the door when making any argument. It sounds like the self help crap they show on TV at 4am. 



Again, where is the evidence to support your claim? There is no need to respond if you’re not going to provide any.",ewgjixt,TouchDownBurrito,9r476
"See what I said about existing on a spectrum. Color exists on a spectrum. Individual colors still exist. Blue exists. Green exists. They are not the same. There are individual hues that cover the spread between them, connecting them if you will. Despite this, I am still aware that blue and green exist and are not the same. The same is true for race.",wankmastag,5l8tx,ewged7m,I just pointed out that there are many more skin tones than races with alot of overlap between racial categories. Racial categories are only useful for racism. It's what they were created for,ewgdtzd,Chele987,13yje8
"How can I not consider you an NPC? You can’t logically process Econ 1 supply and demand theory and at the same time you consider a higher authority’s bold assumptions regarding the long term as unassailable “evidence”. You can’t even consider that they may possibly be wrong, which is ridiculous considering the boldness of their claim.",wankmastag,5l8tx,ewge22s,">claims others can’t think for themselves 

>uses NPC unironically


Jesus, it’s like you have no self awareness. 


> someone who looks to higher authority as the first, middle, and last line of intellectual defense

It’s called evidence, genius. Your “logic” means nothing if all of the evidence proves you wrong. 


> especially when it doesn’t address the basic worker concerns

Those were easily answered, you chose to ignore those answers.",ewgdf7a,TouchDownBurrito,9r476
People very much identify with skin tone as a signal of race. It is one trait among many others but it is the most visible. Yes everyone categorized themselves and each other by skin tone. Whether they should or not is irrelevant. They’ve done it for all of human history and won’t stop soon. There is no getting beyond that.,wankmastag,5l8tx,ewgd687,"Theres a wide range of skin tones within each ""race"". Is skin tone a legitimate way of categorizing people anyway?",ewgcxfe,Chele987,13yje8
 If there were no “distinct unifying genetic” traits that existed then a black couple would have the equal probably of popping out a white baby as they would a black one. Skin color is a prime example of a “distinct unifying genetic” trait. The article is using a conveniently narrow scope to define “race”.,wankmastag,5l8tx,ewgcnl2,"""If separate racial or ethnic groups actually existed, we would expect to find “trademark” alleles and other genetic features that are characteristic of a single group but not present in any others. However, the 2002 Stanford study found that only 7.4% of over 4000 alleles were specific to one geographical region. Furthermore, even when region-specific alleles did appear, they only occurred in about 1% of the people from that region—hardly enough to be any kind of trademark. Thus, there is no evidence that the groups we commonly call “races” have distinct, unifying genetic identities. In fact, there is ample variation within races (Figure 1B).""",ewgaczh,Chele987,13yje8
"My 2 cents from this interaction: I see someone unable to think critically on a given subject matter, someone who looks to higher authority as the first, middle, and last line of intellectual defense. Any attempt at critical thought not coming from a higher authority is dismissed at “conjecture” no matter how logically sound. The word I’ve seen used to describe someone like this is “NPC” and I can’t say it’s not accurate. This whole time I’ve been trying to get you to think for yourself as opposed to just mindlessly quoting a higher authority not necessarily so that you’d come to my side, but because maybe you’d think of something that I’d missed. I’m not convinced my worldview is correct in all ways, but I do know that any article claiming that increasing the labor supply ad nauseam will economically elevate all workers is dubious at best, especially when it doesn’t address the basic worker concerns that I broached earlier.",wankmastag,5l8tx,ewgc4td,"So no sources then? Just conjecture? Then I think we’re done. 


> Much more highly decorated economists have been wrong before 

And instead we should listen to someone with less education and less experience? 



> Also the tax rate on the rich or corporations has no effect on wages

It has an impact on the tax rate of those in other brackets.",ewga3lr,TouchDownBurrito,9r476
"throw out all your evidence for a minute because it’s far from unassailable. This article is not Newton’s laws of motion and justifiably commands little gravitas. Much more highly decorated economists have been wrong before without making such bold claims about long term gains. We can logically progress through this though. Now, thinking about purely real world concepts, would you not agree that a single worker skilled in his field enjoys more leverage when negotiating a wage than if he was one of one hundred workers competing for the same job? Would you not agree that a landlord would raise rent when there are a thousand people looking for a place to live as opposed to ten people? Keep in mind that housing is limited and in the real world. construction is slow and expensive, city codes and ordinances and all that. You make a relevant and fair point about unions but what allows the erosion of workers rights? Workers are necessary. If other people are available to work for less or to work while accepting more abuses from their employer, why would the employer not turn to them? This is where you see legal and illegal immigrants working in atrocious conditions in chemical plants or meat packing plants. Also the tax rate on the rich or corporations has no effect on wages, that’s an entirely different socio-economic issue. Workers don’t get paid more because their parent business is taxed more.",wankmastag,5l8tx,ewg9ery,"> outside of this one article

So I have a source backing up my claim from a world class institution dedicated to economics. Do you have a source from a similar institution backing up yours? 


> Could it have anything to do with 40+ million laborers being imported in that time period? Could this dramatic increase in the supply of labor have depressed wages and driven up the cost of housing? 

Already presented evidence stating that is not the case. 



> How could this be?

Could it be the demonization of unions and erosion of worker’s rights?  Or the massive tax cuts to the rich and businesses that are enacted like clockwork almost every 8 years?",ewg74nt,TouchDownBurrito,9r476
"I think you need to think critically about the actual state of the country outside of this one article if we are going to have common ground. Since the 1950s, economic productivity has grown tremendously but wages have remained more or less stagnant and the standard of living has declined. How could this be? Could it have anything to do with 40+ million laborers being imported in that time period? Could this dramatic increase in the supply of labor have depressed wages and driven up the cost of housing? Surely you agree that it would at least have something to do with it.",wankmastag,5l8tx,ewg5rdb,"> I’m familiar with


And the people who wrote this have PhDs, real world experience, and teach this at world class institutions. Who to believe? 


> Note the frequent use of “may” and “suggest”.

Each word was used once in that paragraph, each is only used 6 times on the entire article, far from frequent.

> when applied in a real world situation

But they got that from the real world. It says right there “experience of the last few decades”.",ewg513t,TouchDownBurrito,9r476
"I’m familiar with supply side Chicago school economic theory. Your mistake is assuming the authors of the article are infallible. Note the frequent use of “may” and “suggest”. But this doesn’t take a degree to dissect, you should be able to see how the argument in your first quote would cause tremendous friction when applied in a real world situation with no guarantee of the positive consequences suggested.",wankmastag,5l8tx,ewg3xez,">average worker


“Indeed, the experience of the last few decades suggests that immigration may actually have significant long-term benefits for the native-born, pushing them into higher-paying occupations and raising the overall pace of innovation and productivity growth.”


> which I do not accept. 


Are you an economist at an Ivy League institution? Because they are. 


> This article also doesn’t address the housing crisis

If you have an increase in labor supply you have more people who can build housing more quickly.",ewg2yln,TouchDownBurrito,9r476
"It’s true that immigration raises the gdp, but the average worker cares little for the GDP. This model makes tremendous assumptions and leaps of faith regarding “the long term” which I do not accept. Even if those assumptions do eventually come to pass (and I’m not convinced they will) Keynes famously noted, “in the long term we are all dead”. This article also doesn’t address the housing crisis which is undoubtedly affected by a million more legal immigrants per year.",wankmastag,5l8tx,ewg2ags,"That is false:


Immigration also has a net positive effect on combined federal, state, and local budgets. Economists generally agree that the effects of immigration on the U.S. economy are broadly positive.Immigrants, whether high- or low-skilled, legal or illegal, are unlikely to replace native-born workers or reduce their wages over the long-term, though they may cause some short-term dislocations in labor markets. Indeed, the experience of the last few decades suggests that immigration may actually have significant long-term benefits for the native-born, pushing them into higher-paying occupations and raising the overall pace of innovation and productivity growth. Moreover, as baby boomers have begun moving into retirement in advanced economies around the world, immigration is helping to keep America comparatively young and reducing the burden of financing retirement benefits for a growing elderly population. While natives bear some upfront costs for the provision of public services to immigrants and their families, the evidence suggests a net positive return on the investment over the long term.


http://budgetmodel.wharton.upenn.edu/issues/2016/1/27/the-effects-of-immigration-on-the-united-states-economy",ewg0o5s,TouchDownBurrito,9r476
"Me. More immigrants means a higher cost of food, housing, a lower standard of living, lower wages. It’s just a supply/demand thing. Mass immigration makes life worse for people already living here.",wankmastag,5l8tx,ewfz3vr,Who the fuck would be against legal immigration?,ewfseu8,endless409,f1b9w
"A few points:

1. Babies prefer to interact with their own race before they can even speak. You can find easily studies on this. Babies are therefore “racist”

2. Race exists on a spectrum it’s true. So does color. I can still clearly note that orange and blue exist and are not the same. I can still clearly note that white European and black African both exist and are not the same.

3. There is tremendous genetic variation between races that has been genetically mapped. This is how companies like 23 and me work. You can find actual scientific studies on this, avoid articles from magazines with trash liberal arts editors. Their goal is to get you to think a certain way.

4. Interracial tissue donations are far more likely to fail. This is why it is so difficult for mixed race people to find organ donors. Why would that be the case if “race isn’t real”? You might as well be trying to tell me the sky is green.",wankmastag,5l8tx,ewftvio,Racial categories were created in the 18th century by some of the same people that thought up phrenology. If all you know about someone is what “race” they have been assigned to then you know nothing about them.,ewfs5yi,Chele987,13yje8
Don’t be deliberately ignorant of reality. Moving past race is a pie in the sky pipe dream. Humans evolved to be tribal. Race has been the most significant factor in how humans align their identity since the dawn of time. There has never been a human civilization ever in history that was able to “get over race”,wankmastag,5l8tx,ewfrbwp,"“White” isn’t a group. The racial categories are made up nonsense.
We can’t make progress towards ending racism until we stop categorizing people this way.",ewfqpx3,Chele987,13yje8
That’s not super relevant to the discussion of the nbc headline being misleading.,wankmastag,5l8tx,ewe4n2z,"OR it’s not.  I have re read it multiple times and one can say that what they did broke the twitter
tos.",ewe3w1u,Motiv3z,158flx
I’m going to take a huge and leap and reply as if you are engaging in good faith. The headline implies that McConnell is the one endorsing violence as opposed to spreading awareness of violent threats against him.,wankmastag,5l8tx,ewdljvy,How? His accounts post broke the rules.,ewdl40b,Motiv3z,158flx
"No ones playing dumb here. Early in the war Lincoln proclaimed that slavery would not be halted in any state that returned to the union. None of them took the deal. The war at that point was ironically about the South being free of rulers  that not only disdained them, but acted directly against their interests. Not unlike 1776.",wankmastag,5l8tx,ergek5n,The fact you have to play dumb about what the confederates were defending vs. the founding fathers only shows how desperate you know you are.,erge75y,slyweazal,4bx87
"You are either a troll or profoundly ignorant of history. State trumped country every time in that period. People would say ""the United States are..."" instead of the modern ""the United States is..."" There are no shortage of people from George Washington to Robert E. Lee referring to Virginia as ""their country"", per the vernacular of the time.",wankmastag,5l8tx,ergcbhb,Their homeland was the United States. The Confederacy attacked the United States. This is not a complicated concept.,ergc61m,Galle_,7s40x
Easily the greatest mental gymnastics I have ever seen. I would gild you if I cared to get up for my wallet.,wankmastag,5l8tx,ergc2mx,"But they enlisted in the hostile army attacking their homeland, and then fought against the one defending it.",ergbqww,Galle_,7s40x
These subtleties are lost on you when a hostile army is attacking your homeland. I refuse to believe that you can’t understand this.,wankmastag,5l8tx,ergajlo,You mean the United States Army. *Their* army. The one they shot at.,ergagys,Galle_,7s40x
Yeah genius. You get to defend yourself and your family from guys with guns shooting at you even if they’re Americans.,wankmastag,5l8tx,erga2dv,Invaded by Americans. They were being invaded by Americans. In America.,erg5txi,RBSchaf,aapko
Maybe they’re committing more crime? 🤔,wankmastag,5l8tx,er2kusc,"Your article said that San Francisco police are biased against black people because they mostly arrest black people. To draw that conclusion, you'd have to rule out the possibility that they are mostly arresting black people for some other reason, when several are readily available; most black people are poor, the police target poor people, and poor people have higher crime rates. I think it's fair to downvote it",er24uze,fancy-free,32um5
This needs to be the top post,wankmastag,5l8tx,eq4pifz,"I am the son of a (legal) immigrant from Mexico, and this is not necessarily good news. The citizenship process is absurdly easy if you have family here. 

Example: https://www.nbcsandiego.com/news/local/Jovita-Mendez-San-Diego-Immigrant-Passes-US-Citizenship-Test-Despite-Barriers-452171623.html

Allowing people who are not literate in our national language to become citizens just in time to receive social security is absurd. You would expect to see an article like this on Breitbart decrying the situation, but in clown world our mainstream media celebrates it. 

To not require genuine assimilation to this country's values is suicidal. For fucks sake, Ilhan Omar is a citizen.",eq4nv2z,nukesiliconvalleyplz,3snto3wk
imagine being a censorship cheerleader sharing the same politics as google and thinking you still have a soul.,wankmastag,5l8tx,eq4fmxa,Fuck yeah. Happy to hear it.,eq4cn9a,skonen_blades,797cs
"Applying your same logic to the American revolution, it seems that you would support the crown. Can you give me something in your mind that differentiates the American secession from Great Britain and the southern secession from the greater USA?",wankmastag,5l8tx,enaw69l,">Is your only argument an appeal to pathos?

My argument is that slavery is morally wrong and therefore the Confederacy was in the moral wrong. Nothing they did was justified or about ""freedom"" because what they were fighting for wasn't justified or free.

Saying that someone fighting to enslave people is fighting for ""freedom"" is patently absurd.

>In that case is it not also “disgustingly immoral” to invade, kill, and devastate the lands of your supposed countrymen for declaring themselves free and independent of you? Isn’t that tyranny be definition?

There was no invasion because the entire war happened in the US. You can't invade your own country.

It isn't immoral to wage war against people who refuse to stop enslaving people, no. And painting them as innocent victims, as if the south didn't both start the war and continue to fight throughout, is absurd.

>Far more people died in the civil war than there existed slaves at the height of slavery.

What are you talking about? There were more slaves in the US than there were total combatants in both the Union and Confederacy combined, let alone deaths.

The 1860 census counted 3,953,760 slaves in the US. The total death toll of the Civil War is generally accepted to be around 600,000, and up to maybe 1 million at the highest estimates. Regardless, that's far less people than the number of slaves at the onset of the Civil War. Where the fuck are you getting your facts?

The fact that you could even think that makes it glaringly obvious that you don't have the slightest clue what you're talking about.",en9o1ng,jmalbo35,4ptvd
"Is your only argument an appeal to pathos? In that case is it not also “disgustingly immoral” to invade, kill, and devastate the lands of your supposed countrymen for declaring themselves free and independent of you? Isn’t that tyranny be definition? Far more people died in the civil war than there existed slaves at the height of slavery.",wankmastag,5l8tx,en9mppm,">You seem to forget that chattel slavery was guaranteed in the constitution when they joined the club.

As was the ability to amend the Constitution, which the south apparently couldn't handle.

>The South had a legitimate beef that the north was trying to rescind their promised rights 90 years after the war for independence, regardless of the morality of those rights. 

If those rights are disgustingly immoral the beef isn't legitimate. If someone's idea of ""rights"" is contingent upon literally owning other human beings they're clearly in the wrong.

You're spouting apologia for one of the most heinous possible crimes. The Confederacy was fighting to continue to strip the rights of other human beings and treat them as property to be used at their whims. And that's the hill you want to die on.

There is no ""regardless of morality"". There is no ""freedom"" in owning human beings.",en959o8,jmalbo35,4ptvd
"You seem to forget that chattel slavery was guaranteed in the constitution when they joined the club. The South had a legitimate beef that the north was trying to rescind their promised rights 90 years after the war for independence, regardless of the morality of those rights. At that point too in history the north and the south were completely differently places with completely different cultures. Political separation made a lot of sense and it was certainly more appealing than living under the rule of “others” that openly disdained you and openly pushed an agenda to your detriment. Why would anyone stay in a situation like that?",wankmastag,5l8tx,en90tco,"> The north for the individual freedom of slaves and the south for the freedom of independence and self-sovereignty. 

The south was fighting for the ""freedom"" of owning other human beings and treating them as property. They had no desire for independence outside of their fear that abolition of slavery was coming soon. 

> Think of the hypocrisy of a country (North) that claims to be all about freedom but won’t let you dissociate. 

The southern states all agreed to join the union in perpetuity, then tried to leave unilaterally because they couldn't have their way about slavery. The North isn't hypocritical in that scenario at all.

>I know reddit likes to think of everything as black and white but this requires some open-mindedness.

Sometimes people can be so open-minded that their brains spill right out. Think about the fact that you're literally talking about the ""freedom"" of people fighting to continue chattel slavery. They had absolutely no interest in any real ""freedom"". Confederate apologia is embarrassing.",en8z0a8,jmalbo35,4ptvd
They wanted to disassociate and rule themselves because they (correctly) believed that the other half of the country was mobilizing to remove their constitutional right to own slaves. The morality of that right is obviously highly contestable but it was their right according to the rules of the club they joined in 1776. I would also try to leave any club explicitly allowed me to do something then walked it back and threatened me when they stopped needing me 90 years later.,wankmastag,5l8tx,en8uqtx,"How can anyone claim they want to be free while owning slaves?

It’s clear that the South wanted the specific freedom of holding slaves.

Sure, the South wanted to be free; but so did the black people they kept as slaves, and that wasn’t going to happen as long as the C.S.A got it’s way.

So why do the Southerns get to be free but not their slaves?",en8rz1w,StudebakerHotch,ukavi
It’s true it is ironic but both sides were fighting for freedom. The north for the individual freedom of slaves and the south for the freedom of independence and self-sovereignty. Think of the hypocrisy of a country (North) that claims to be all about freedom but won’t let you dissociate. I know reddit likes to think of everything as black and white but this requires some open-mindedness.,wankmastag,5l8tx,en8u9eh,"Wait, is this intentionally ironic? Did you mean to use the word 'free' there? Cuz, uh...",en8ownm,thisisstephen,8w4bt
"Burning down peoples homes for the crime of wanting to be free of you, while claiming you are the good guys. Nice.",wankmastag,5l8tx,en8ojuu,"That the failure to treat the south as harshly as it deserved resulted in another hundred years of oppression for black Americans, sounds like. 

All of the confederate states should have gotten the Atlanta treatment.",en8g1rh,thisisstephen,8w4bt
Lmao only on reddit,wankmastag,5l8tx,en8oabm,">stealing all the land of the people you needed that know how to work it isn't the best idea.

Oh, you mean the slaves then?",en8kg9b,Father-Sha,2ihkflao
"You say that but if I spend millions on a nice place to raise my family, I do it with expectation that the city will not dump hundreds of mentally unstable, aggressive people across the street from me. These guys have a legitimate beef.",wankmastag,5l8tx,em5fg9c,How dare NYC attempt to spread its low income housing around the city. Instead they should just build them in middle class and lower income neighborhoods that don't have the political clout to fight City Hall.,em4xttu,forrest38,amdvt
They probably read the crime statistics,wankmastag,5l8tx,ejtme33,Why are white people so scare of minorities? Is it because they have treated minorities badly and afraid of the same treatment. ,ejsq2v2,btscott456,6s4vn
That prop was passed overwhelmingly by popular vote and all it said was that illegal immigrants can’t access non-emergency taxpayer funded services.,wankmastag,5l8tx,ejls75s,https://www.latimes.com/projects/la-pol-ca-california-voting-history/,ejlrpol,AwwwwYeeeee,alhbp
Oh man you’re in for a rough six years,wankmastag,5l8tx,ej5sbp3,"The ""definitive answer"" is already publicly available information.

#Trump is a Traitor.

Trump fulfilled quid pro quo, arranged in Trump Jr emails and the Trump Tower Meeting, that Russia supports trump in return for lifted sanctions.

https://www.nytimes.com/interactive/2017/07/11/us/politics/donald-trump-jr-email-text.html

https://en.wikipedia.org/wiki/Trump_Tower_meeting

Deripaska sanctions lifted

 https://www.reuters.com/article/us-usa-russia-sanctions-deripaska/u-s-to-lift-sanctions-from-aluminum-giant-rusal-idUSKCN1OI2AS

 https://www.theguardian.com/world/2019/jan/27/us-lifts-sanctions-oleg-deripaska-russia

Here's a nice summary,

#60 Examples of Trump Russia Collusion

 https://www.reddit.com/r/worldnews/comments/8bucc8/_/dxa2e7q?context=1000

#Bonus blatant acts of treason:

Trump guts election-protection task force

 https://www.thedailybeast.com/trumps-dhs-guts-task-forces-protecting-elections-from-foreign-meddling

Analysis of how Trump's story on Russia has changed over time. The innocent don't change stories.

 https://www.cnn.com/interactive/2019/politics/trump-team-russia-then-now/index.html

Russians reviewed Emails leak w Trump Campaign

 https://www.justsecurity.org/53241/russians-previewed-plan-disseminate-emails-trump-campaign/

Russia paid hundreds of thousands to Cohen firm and also bought alt right domains

 https://www.washingtonpost.com/news/politics/wp/2018/05/09/russia-linked-company-that-hired-michael-cohen-registered-alt-right-websites-during-election/?utm_term=.5a950d0633a4

Trump team contacted russia 70 times in campaign + transition

 https://www.themaven.net/theintellectualist/news/team-trump-and-russia-were-in-contact-70-times-during-the-campaign-transition-dcIUx4UKC0yQ0BEkH7TGvQ/

Trump Secret Efforts to Lift Sanctions

 http://www.newsweek.com/trump-white-house-secret-efforts-lift-russia-sanctions-putin-619508

Right before election, Trumpf campaign staffers pushed Russian propaganda:

 https://www.thedailybeast.com/trump-campaign-staffers-pushed-russian-propaganda-days-before-the-election

Trumps Money laundering for crime syndicate https://newrepublic.com/article/143586/trumps-russian-laundromat-trump-tower-luxury-high-rises-dirty-money-international-crime-syndicate

Trump and Kellyanne actively spread Russian propaganda during campaign.

 http://politicaldig.com/trump-jr-kellyanne-conway-personally-involved-spreading-russian-fake-news-report/  https://www.youtube.com/watch?v=1BaKrbStL7U#t=1h34m7s

Trump Hunting Russia-Targeted Journalist https://shareblue.com/trump-officials-suddenly-revoke-visa-of-hero-being-hunted-by-putin/

Trump refusing to sanction Russia http://www.newsweek.com/trump-russia-sanctions-deadline-690730

Manafort contacting rus while under house arrest

 http://abcnews.go.com/Politics/paul-manafort-worked-russian-intel-official-special-prosecutors/story?id=51573409  http://www.cnn.com/2017/12/04/politics/manafort-bail-russian-intelligence/index.html

Crime syndicate laundered through Trump properties

 https://newrepublic.com/article/143586/trumps-russian-laundromat-trump-tower-luxury-high-rises-dirty-money-international-crime-syndicate

Top rus account ""ten_gop"" revealed as russian tool. Trump linked them 241 times. ten_gop was also linked on The_Donald thousands of times.

 https://www.reddit.com/r/russialago/comments/7y6ola/_/

Oligarch paid $50,000 in ukrainian cash to Trump inauguration:

 https://www.theguardian.com/us-news/2018/aug/31/paul-manafort-sam-patten-charged-cambridge-analytica?1234abcds

Trump refuses to defend our election systems for an advantage to his party:

 https://thinkprogress.org/trump-admits-he-will-put-his-party-ahead-of-national-security-to-win-the-midterms-cbc5a3afcf1c/

Reminder that Mueller's got plenty of guilty pleas.

#Russian Meddling is not a myth

Take a look at https://investigaterussia.org

Kremlin Playbook

https://csis-prod.s3.amazonaws.com/s3fs-public/publication/1601017_Conley_KremlinPlaybook_Web.pdf

WaPo summary

https://www.washingtonpost.com/news/politics/wp/2017/07/06/heres-the-public-evidence-that-supports-the-idea-that-russia-interfered-in-the-2016-election/

Wired summary

https://www.wired.com/story/russia-election-hacking-playbook/

Wikipedia for 2016 interference

https://en.m.wikipedia.org/wiki/Russian_interference_in_the_2016_United_States_elections?wprov=sfla1

CNN summary

http://www.cnn.com/2016/12/26/us/2016-presidential-campaign-hacking-fast-facts/index.html

TIME summary

http://time.com/4783932/inside-russia-social-media-war-america/

Business Insider Summary

http://www.businessinsider.com/evidence-russia-meddled-in-us-election-2017-6

Russia interfered in 19 country's elections so far  https://americanmilitarynews.com/2018/01/russia-has-interfered-in-19-countries-elections-over-2-decades-report-finds/

2018 Election tampering already underway (feb 2018)

 http://time.com/5155810/russian-meddling-2018-elections/

Mueller launches indictments against 13 russian trolls

 https://www.theguardian.com/us-news/2018/feb/16/robert-mueller-russians-charged-election?CMP=Share_AndroidApp_reddit_is_fun

Russia attacking 2018 midterms

 http://www.atlanticcouncil.org/blogs/new-atlanticist/director-of-national-intelligence-dan-coats-russia-is-attempting-to-influence-us-midterms-divide-transatlantic-alliance

Troll factory had 1000 workers back in 2015

 https://www.thesun.co.uk/news/6062302/inside-the-russian-troll-factory-where-workers-earn-980-a-week-to-pump-out-putin-propaganda/

July 2018, FBI confirms Russian interference still active:

 https://thehill.com/policy/national-security/397769-fbi-director-says-russian-influence-efforts-are-very-active

Russian hackers breached hundreds of utility control rooms:

 https://thehill.com/policy/national-security/398480-dhs-russian-hackers-got-into-control-rooms-of-us-utilities

======= Barr's Mueller Report:

It's a coverup.

Why Barr can't be believed:

* Barr is a GOP fixer, with a history of coverups.
* He got his job by publicly doubting the investigation.
* His summary was clearly misleading. It made no full quotes of Mueller's report and said that ""for obstruction, mueller could neither prove nor disprove"" and that Barr threw those charges out completely, admitting a coverup attempt.
* Since that exploded in his face and he's ad-libbed conditions for redaction, which are backed by no regulations.
* Gang of 8/HIC have security clearances and can view the full report.

A) https://www.commondreams.org/views/2019/03/26/has-cover-general-william-barr-struck-again

B) https://www.aclu.org/blog/executive-branch/william-barrs-unsolicited-memo-trump-about-obstruction-justice

C) The collusion quote wasn't a complete sentence: https://www.businessinsider.com/heres-attorney-general-william-barrs-summary-of-the-mueller-report-2019-3

D) His condition outlined in the above summary he names ""embarassing material"" as a condition for redaction. There's no regulation for this.

E) https://www.cia.gov/library/center-for-the-study-of-intelligence/csi-publications/books-and-monographs/sharing-secrets-with-lawmakers-congress-as-a-user-of-intelligence/3.htm

>Classified intelligence reports(1) are routinely provided only to the committees that have responsibilities in the national security area.(2) Members of these committees receive preference from the Intelligence Community in satisfying their requests on an individual basis.",ej5gi6d,bearlick,2n6vc2oj
Does someone really need to explain to you the difference between the host of a tv news show and a member of the White House press pool?,wankmastag,5l8tx,ehcfijk,"""Why can't they all be Tucker Carlson??  MAGA!""",ehcep2k,MostSensualPrimate,1y38ipg5
