child_body,child_screen_name,child_user_id,child_tweet_id,parent_body,parent_tweet_id,parent_screen_name,parent_user_id
"As long as they aren't violating the law or anyone's rights, then yes. However, that doesn't mean that libertarians or anyone else have to just put up with bad behavior from corporations or people within them, without complaint.",Wrong_Opinion,75lg5,fkgxgr1,Doesn't libertarianism mean Reddit can do whatever the fuck they want?,fkgv12p,immibis,dj2ua
SETH,Wrong_Opinion,75lg5,fiv86n4,HIS NAME WAS,fiv7wry,HAROLD-SHIPMAN-FAN,3izf5goh
Has Joe Biden Really Been Far Even as Decided to Use Even Go Want to do Look More Like?,Wrong_Opinion,75lg5,fis7f92,Is he there?,fis7adv,findthewarmspot,14ofk6
F,Wrong_Opinion,75lg5,fir606b,Please press F for the good mods who were removed.,fir4huf,SheGuevara2020,36ypmy0u
Thank you.,Wrong_Opinion,75lg5,fiqbce7,"I have to say, many thanks to u/Wrong_Opinion for running such a tight ship in an unobtrusive manner here. This is quite possibly one of the best moderated subreddits that I've seen and participate in.",fiq86vb,Kisafir,2kcx7wld
I have banned this user/business until they give a public apology.,Wrong_Opinion,75lg5,fioy6ao,"Lol what a train wreck. To OP, people were originally ticked off that you tried to pass off what is basically an ad for your business as a normal piece of social media content. I know, I know, it’s *technically* a customer review that you just wanted to share, but if it walks like a duck and quacks like a duck.... Reddit gets these types of self-promotion from time to time, and they are generally not well-received, especially because there are advertising accounts available for that purpose. Yes, it sucks to have to pay for advertising, but that’s how the rest of the world works, and we don’t come here for ads masquerading as interesting user-submitted content. So put on your big-boy pants and be prepared for business promotion to cost money. 

All of this could have been dealt with politely and respectfully, and your post could even have turned into a positive reflection on your business had you simply recognized your mistake when it was pointed out to you. Instead, you launched into an immature, egotistical game of *no u* with potential customers who merely wanted to inform you that you had violated the common courtesies of their online community before likely going to visit your website and check out your product. You shot yourself in the foot and followed up with a second round to your own head. My advice is to delete this post, take a *long* break from social media, and come back with a sincere apology when you’ve learned to act like a professional representative of your business.",fikcr40,Wily_Wapiti,2ozfeuey
I want to be wrong about Barr just as badly as I wanted to be wrong about Sessions.,Wrong_Opinion,75lg5,fillj14,can't wait to see you eat crow,fiknhvi,MNdreaming,33v361so
Yep. Soros and crew have payed for State's Attorneys and District Attorneys in key places all over the country.,Wrong_Opinion,75lg5,fill4j5,"If you think the deep state hasn't already infiltrated state and county level positions of government in each state, then you are naive.",fil3ehm,phalanX_X,g1d6v
"If Trump and the Repub House/Senate do not give us justice after 2020 elections, I will never vote Republican again for the rest of my natural life.",Wrong_Opinion,75lg5,fibcpqh,"I look forward to a President Trump re-election this fall. But I also look forward to  hey Republican run house, with Pelosi having to give up her gavel a second time.

So let the Trump retribution tour begin on Wednesday morning, November 4th.  President Trump has the personality that he doesn't forget and he's a superior counter-puncher. There've been a slew of individuals and entities that have crossed him during his first term.  So let the storm come as of November 4th.",fia9kms,SixteenBeatsAOne,9oa0t
"Technically? No. But I don't think it matters, no one uses this sub lol",Wrong_Opinion,75lg5,fi07l87,"No. I probably shouldn't be here, should I?",fhza990,MagnumPrimer,zk9jb
Were you ever a mod of a gun subreddit?,Wrong_Opinion,75lg5,fhz8vlb,Holy hell... What is this place? And why did I ever sub?!?,fhw7jas,MagnumPrimer,zk9jb
Every cop who enforces an illegal law is a criminal. Every cop who refuses to enforce the law is a criminal. Every cop who refuses to arrest and charge criminal cops is also a criminal.,Wrong_Opinion,75lg5,fhytzkg,"I really want to support cops, but they're making me want to less and less every time I see this shit...and I keep seeing it.",fhytel2,YEarightty,4olmyd0u
Shift juice?,Wrong_Opinion,75lg5,fhytwri,i think they are all high on gender fluids,fhyskum,Slangin_paint,12d4c4
Reagan is the most successful Democrat president since FDR.,Wrong_Opinion,75lg5,fhxqqyi,"

Reagan started the ball rolling. Fucking asshole. ( RIP once-red california )",fhxqfkd,Kekislaw,1t58w9
Perhaps it would be a better idea for the State to offer a voucher to every person who qualifies as a member of the Militia so that they can buy an AR-15 of their own.,Wrong_Opinion,75lg5,fhvx8aj,"Nah. I have several AR15's, strongly support the 2nd Amendment and would love to see the NFA repealed, but no one should ever be forced to buy anything. I get that this bill is an attempt to 'troll', but it would just be another example of the government interfering in the free market.",fhubv8r,MadLordPunt,y9bqa
Especially Chrysler trannies.,Wrong_Opinion,75lg5,fh9la6b,Trannies be fragile as fuck.,fh9foz9,kekistani_insurgent,15gn2u
"Hey friend! You might be caught in Reddit's spam filter and/or shadowbanned. Contact the admins for help.

Edit: it might have just been the link you posted",Wrong_Opinion,75lg5,fgiyfb3,"I may be wrong but I think the p07 slide release is the same as the p09. If so this should work.


https://www.shapeways.com/product/GP3X6DC2Y/p-09-extended-slide-release


But you may want to do a little research before listening to me.",fg7mt0f,jicty,64gcr
"""Do not forget that these people want you broke, dead, your kids raped and brainwashed, and they think it’s funny."" - Sam Hyde",Wrong_Opinion,75lg5,fgarxbb,on Twitter some lefty said Rand should go back to mowing his lawn. Insinuating he should get attacked again. He is asking legit questions. How are they getting away with this.,fga6a8s,mishaclara,49z1xot5
They'd fucking better or this was all for nothing and the Demoncrats will perform untold horrors on this nation come 2024,Wrong_Opinion,75lg5,fg3mj0o,Nah. The gloves come off during his second term.,fg3jpgt,RustyHotel,3ng6p8ix
Universal Suffrage and it's consequences have been a disaster for Western Civilization.,Wrong_Opinion,75lg5,ffzr9g2,"Men are doing worse than women in almost every meaningful metric. Suicide, crime, college attendance, graduation rates...",ffz14gr,NoPrisners,ixagd
Does the year 1844 still chap your ass?,Wrong_Opinion,75lg5,ffry362,"Scripture is also extremely clear that you can, and SHOULD know the season, unlike the Pharisees. It WARNS repeatedly to **WATCH FOR** ***THAT DAY*** as it approaches. It gives us dozens of very specific signs, it tells us to NOT BE CAUGHT UNAWARE LIKE THE WORLD WILL BE.

Yet so many, with little to no knowledge of actual Biblical prophecy will spout the ""can't know day or hour,"" which I have personally discovered is actually just used to hide behind. That way you don't have to put any effort out into watching as we are told to do, and you won't have to bear the inevitable weight that comes with this burden of knowledge too. But they are only excuses.

When it comes down to it, you don't know because you don't want to know. God has revealed everything we need, He leaves it open to us to pursue it or not.",ffrxqjp,TheCrazyChristian,12tpqp
"You don't have to write a book, I just want to trim threads of meme-tier comments such as this. I often accept single, complete sentences, if they make a coherent point. Even if they are downvoted!",Wrong_Opinion,75lg5,ffrx2an,"Ok sorry, I wanted to break from my traditional 100 paragrapher responses and actually be concise for once, but it's ok, I can flesh this out a bit.",ffrwwiq,RogueThief7,gvenr
"Please elaborate. Please no lazy one-liners. We're trying to maintain at minimum an amateur academic level of participation and decorum. Thank you.


https://www.reddit.com/r/AnCap101/comments/dafl9t/quality_of_participation_reminder/

I've not removed this Parent comment because I don't want to remove the context for the following discussion, which is good.",Wrong_Opinion,75lg5,ffrwtyx,Cryptocurrency,ffjt5oe,5boros,fbf86
"Please elaborate. Please no lazy one-liners. We're trying to maintain at minimum an amateur academic level of participation and decorum. Thank you.

You may revise your comment. If you do so, use the Message the Moderators function, and provide the permalink to your revised comment.

https://www.reddit.com/r/AnCap101/comments/dafl9t/quality_of_participation_reminder/",Wrong_Opinion,75lg5,ffrwpj2,"1. Bit

2. Coin

**TL;DR:** There are a number of viable options. We could return to trading precious metals such as gold or silver, we could use representative money back by gold or silver or we could even trade in precious metal coins. However, I think what is most likely is that we'll see a rise in cryptocurrency. Beyond being more secure than physical money due to it's digital nature, *crypto* has 2 massive advantages over conventional fiat currency such as USD.

1. It's so secure it's virtually impossible to hack it or steal it
2. It's decentralised so that no one can control it, especially the state.  Further, it's anonymous.

What makes certain cryptocurrencies invaluable to AnCaps is the fact that they can leave no digital trail, in the same way that trading in cash keeps you *off the radar.*

Edit: By request of moderator, I will flesh this answer out a bit for you.

Truth is we don't *know* what a stateless society will bring, we can only postulate. What we do, essentially, is look into the past, attempt to tease out relavent information and use that to attempt to predict the future.

When we look into the past we have seen a strong trend of *""monies""* being used that spans back centuries in order to facilitate trade. Grain has been used as money, livestock has been used as money, precious metals such as gold and silver can be used as money and even spices have been used as money. What these things all have in common is that they were commodity monies. 

This is an absurd simplification of history, but from commodity money societies generally evolved to use representative money wherein banks would hold your value and issue you an IOU, essentially, that could be transferred to another person who could then redeem the commodity the bank held.

Again, an oversimplification. If we look at the history of money we see a trend. There are things which make good money and bad money. Things that are good for money are durability, portability,   recognizability, and stability of value.

There's one thing in particular which checks three of these boxes really well - ones and zeros on a computer. It's durable, it's far more portable than cash, it's recognisable as a number and the money sign of a given currency and it's... As stable as the base currency digital currency is based upon.

We AnCaps think, *generally*, that all things decentralised and free market are good and that decentralization dissolves power structures to their flattest *reasonable* format. For that reason one particular system shines above all else - blockchain. Now, it's really hard to deacribe how blockchain works to someone who doesn't know, so it's best you look for a YouTube video, but this is a rough summary.

Remember in the old days how credit receipts would have to be checked manually? As in, signatures would be compared to authorise a transaction? Well, blockchain does much the same thing, with digital signatures in the form of number strings. A transaction is encrypted into the 'block chain' everytime an exchange is made. Then, really powerful computers worl extremely hard to essentially 'hack' and decrypt this recorded transaction to verify it's legitimacy. That's how blockchain get it's security - because it is very strongly encrypted and has to be verified by breaking the code. When that code is broken, the computer which verified the transaction is awarded a sum of cryptocurrency.

Like I said, not at all easy to explain in short form, very difficult to get your head around. But, cryptocurrency ticks all the boxes for an AnCap.

It's decentralised, which is one of the most important things, so the state doesn't control it.

It's incredibly portable - wether you have 1 cent or 1 million dollars, the weight and bulk of the data stick you use is identical.

It's extremely easy to recognise

It's probably *the* most secure currency option

And, it's durable, you can't tear data, you can't lose data (physically speaking), data doesn't carry germs on it, data can't be set on fire etc etc.

Data money is superior to physical money in virtually every way.

Though, it's not just *Bitcoin.* all *blockchain* monies are potentially viable options in a stateless AnCap like society. Blockchain money being *cryptocurrency.*

Of course, there *are* other options. We could return to gold and silver trading, we could have gold and silver coins, we could have gold backed representative money and these things are likely to exist in some capacity, but I feel most strongly that cryptocurrency will overtake fiat currency, aka the regular money we use today.",ffki53n,RogueThief7,gvenr
"You have to give them more credit than that, they've also been operating an international child sex slave market.",Wrong_Opinion,75lg5,ffrwf9m,Meanwhile... the only thing the Democrats have been doing for the last 3 years is try to impeach him.,ffqy141,Wrexxis780,vqj7xvh
"Never thought I'd see the day when Millenialist dogshit got posted to T_D of all places, and upvoted at that. 

The scripture is clear, no man knows the day or the hour, not even the Son himself knows.",Wrong_Opinion,75lg5,ffrwca3,">""For when they shall say, Peace and safety; then sudden destruction cometh upon them""  
>  
>**- 1 Thessalonians 5:3**

&#x200B;

There will only be a short period of time of a ""false peace treaty"" allowed that will eventually be made w Israel and her neighbors. Not saying this is ""that"" treaty, but I fully expect it will lead to it, or be renewed into the real one later on in the coming years.

God will NOT allow His Holy Land to be divided. There are multiple promises to that over and over in the Bible. We are living out the last of the last days of this age, thank God for that.",ffrbl10,TheCrazyChristian,12tpqp
"Anarcho-Capitalists use a more traditional definition of Anarchy than leftists do. To wit: Without Rulers.
This does not mean without rules, or even without hierarchy, as various flavors of leftist anarchism have.",Wrong_Opinion,75lg5,ffdc8hr,If that's the case you really can't call yourselves anarchists. It's fundamentally a revolutionary ideology.,ff5kw6d,ShookShack,qkyaa96
"This is certainly a mighty blow, but globalism is not anywhere near dead yet.",Wrong_Opinion,75lg5,ffdbn4n,Globalism = dead,ffcwbqw,catsfive,35h0a
It's obvious they want to read whatever material the executive branch has so that they can implement plans to destroy evidence and set up patsies/fall guys to protect themselves from prosecution,Wrong_Opinion,75lg5,ff9vm1r,"Schiff: ""The evidence of guilt is overwhelming.  It's in documents that neither I nor Mueller nor anyone in the House has ever seen.  But it's there... if you allow it!""",ff9pbbp,Freddy_Pharkas,l1p1n
"[""... And you are lynching blacks!""](https://en.m.wikipedia.org/wiki/And_you_are_lynching_Negroes)",Wrong_Opinion,75lg5,ferj28w,I don’t defend the gulags. Do you defend Guantanamo Bay?,fep5i5m,OneReportersOpinion,tv6gh
"I generally allow videos to be posted if they are explaining an AnCap position, or something to consider/ask what the AnCap opinion on it might be.

Minimum Wage is a common topic of discussion in political-economic theory.",Wrong_Opinion,75lg5,fengyql,Isn't this meant to be like a question sub?,fendpaw,geekoverdose,3keqgqqc
"I think there were lefties who supported Paul because he had a strong anti-war position that really appealed the few anti-war lefties before they all went extinct, and maybe they went over to Bernie, but that's just a guess. 

Source: Volunteered in my locality for RP2012 and met quite a few center-lefties who supported him

I tried to get involved in the LP after that but after witnessing the completely rotten and corrupt core of the LP, and getting familiar with just how many vultures/scam artists there are who exploit libertarianism, I ended up leaving that community in ~2014 and now I support the GEOTUS.",Wrong_Opinion,75lg5,fehznpg,I know several rabid Ron Paul supporters in 2012 who went full Bernie in 2016 and are even more communist today. It's weird.,feho135,Covefefe12,4zuifbwn
"Behold America, the Great Society that was promised us!",Wrong_Opinion,75lg5,feazuc0,"I gotchu fam. 

Never forget that blacks commit between 80 and 90% of the mass shootings in this country no matter what the media tries to tell you. Also don’t forget that they make up between 12% and 13% of the population and most of the victims are black.

https://www.bitchute.com/video/hwwSciRSAZ1B/?list=plifQsMtVrA0&randomize=false

https://www.bitchute.com/video/Ws1EWUeVHaJw/?list=plifQsMtVrA0&randomize=false

https://www.bitchute.com/video/ftuGqcnjG9b5/?list=plifQsMtVrA0&randomize=false

https://www.bitchute.com/video/qiCZ4CEUVi1n/?list=plifQsMtVrA0&randomize=false

https://www.bitchute.com/video/ymCU1WHY7laR/?list=plifQsMtVrA0&randomize=false

https://www.bitchute.com/video/0iWevPc9pXiS/?list=plifQsMtVrA0&randomize=false

https://www.bitchute.com/video/2QyuOpruW4mn/?list=plifQsMtVrA0&randomize=false

https://www.bitchute.com/video/SEQEOSVIXbLA/?list=plifQsMtVrA0&randomize=false

https://www.bitchute.com/video/7TEhJhfcl6Di/?list=plifQsMtVrA0&randomize=false

https://www.bitchute.com/video/pNotLnlJmXld/?list=plifQsMtVrA0&randomize=false

https://www.bitchute.com/video/cn3OQZpkjZYG/?list=plifQsMtVrA0&randomize=false

https://www.bitchute.com/video/01wwyYcmcg4f/?list=plifQsMtVrA0&randomize=false

https://www.bitchute.com/video/RuWmJWJ5lXpE/?list=plifQsMtVrA0&randomize=false

https://www.bitchute.com/video/wpUO7SeuFNlb/?list=plifQsMtVrA0&randomize=false

https://www.bitchute.com/video/Ud1FuwNwWnnQ/?list=plifQsMtVrA0&randomize=false

https://www.bitchute.com/video/ZWzdj5sXvIh1/?list=plifQsMtVrA0&randomize=false

In many instances, the poor children don’t stand a chance as you can easily see below. 😞

https://youtu.be/PlUqp2YnIP8

https://youtu.be/8Ebl6IqX18E

https://youtu.be/_VOl99mg0tM

https://youtu.be/K7IbLbHy3rw

https://youtu.be/Tqhs9xDsopI

https://youtu.be/b_r_xPtuOm0

https://youtu.be/wvWrMlwgBK0

https://youtu.be/mei-mjg8xzc

https://youtu.be/lwRkrXdmoOA

https://youtu.be/DtLIsT0c6RQ",feags3y,KekistaniKingKong,zvgksn
"I'm sympathetic to your feelings as expressed in the first part of your post.

I encourage you to consider that the OP may simply be making a small joke at no one's expense.

Humans can't read each other's minds, so it's important to exercise charitable interpreting, especially in the internet.",Wrong_Opinion,75lg5,fe5prq7,"Starting your questions with stating that “roads wouldn’t exist xD” is not going to make the folks here want to give serious educational answers. This sub is for learning about the basic principles of anarcho-capitalism, not for your thinly-veiled attempts to provoke an argument with and feel intellectually superior to those you disagree with. Your tone makes it clear that you’re not going to change your view on the topic no matter what we say, so why are you really here?

That being said, I will answer your question, if nothing else just so you don’t think we don’t know how to answer it. This is a question of basic property rights and how they will be defended and enforced, and there is a massive volume of academic/philosophical work on the subject that you could read. The responsibility in AnCap society would fall on you to take the necessary steps to clearly define what you own and defend your property from those who would wish to steal it from you. Note that this is not the same as competition.",fdw3g9q,Solo_Wing__Pixy,2y3vyou
"Don't worry, I'm sure all these crooks will vote to investigate themselves for corruption.",Wrong_Opinion,75lg5,fdzqosd,"Indeed.  Any politician that has become rich off of the system needs to be thoroughly investigated.  This should be a law on the books for any politician, right alongside term limits.",fdwvpfs,Pukeolicious,euc28
"Show me the money. Almost 4 years now and 0 indictments, let alone pressed charges. I'm holding out hope Trump will bring the hammer down in his second term. If he doesn't, I lose all hope for any political solutions in my lifetime.",Wrong_Opinion,75lg5,fds9cih,"People had every reason to not trust every single person on your list the *moment* they were brought on. If you thought they were on our side for even a second then that's on you.   
  
Barr is the real deal. He's straight up described Durham's investigation as probably leading to a watershed moment come early spring. He's a careful speaker and chooses his words intentionally. Look up the definition of ""watershed moment"" and tell me that Barr isn't planning on delivering the goods.
  
He's a professional who has to work within the process of the bureau he's the head of. I'm sure it'd be satisfying to see him run his balls on every single case that we want him to, but he can't realistically do that in his position.   
  
Memes are fun, but unfortunately when it comes to reality, justice can be *extremely* slow. It's like everytime Barr does an interview everyone is rightfully at ease, and then the second he does his daily work without going on TV we start getting *muh Barr is duh deep state cuz no perp walks yet wtf Barr why u not unilaterally start mass arrests that wuldlead to riots why follow rules hurrr* nonsense.  
  
I just can't wait for the shit to hit the fan and watch every single naysayer act like they've always believed he was the guy.  
  
Edit: added a sentence",fdro7c5,Moooooonsuun,2vhc2uqv
"Yeah, we couldn't possibly vote in someone who might actually audit the Federal Reserve and do a 100% real MidEast pullout. Gotta keep sending bodies across the ocean for Isra- uh, er, I mean to protect the USA!",Wrong_Opinion,75lg5,fds962z,Not paul,fdr6txn,notTrumpJr,10vjprsi
"Come to think of it, you're probably right. It would take a smart person to pretend to be that uniquely stupid for such a long time.",Wrong_Opinion,75lg5,fdlexvx,"I hate Krugman but he's not stupid. His opinions are stupid, but he's aware of that. In the same way democrats know they're lying about their political opinions, Krugman knows he's lying about his economic opinions. They trot him out to please the sheep.",fdlehjq,ButtFart88,131f71uo
There's no way someone as stupid as Krugman is a ring leader. He's just paid hack.,Wrong_Opinion,75lg5,fdledwg,Paul Krugman is definitely a prime target to take down the deep state. He's always been the #1 guy they trot out to make up economics based propaganda. I suspect he's a ringleader of the operation.,fdle5n8,ButtFart88,131f71uo
"Feel free to rework your original comment to better communicate what you mean. If I misinterpreted it as a neutral 3rd party, it's likely the OP thought you were simply insulting him as well.",Wrong_Opinion,75lg5,fd6bgim,I was saying the op was being an asshole in this hypothetical scenario and that being an asshole has consequences,fd6akkr,stupidrobots,67wbv
How do you know that?,Wrong_Opinion,75lg5,fcvvox4,"That first verse is open to interpretation because for that time it was written in, sleeping with men was looked down because it was treated as casual sex (as OP stated), gay people weren't getting married. I know plenty of Christian churches that are open to and accepting of gay people.",fcvl6en,WasKingWokeUpGiraffe,9v6eb
BOTTOM TEXT,Wrong_Opinion,75lg5,fcvvnf8,Bible also says you should be stoned to death for cursing at your parents. Its almost as if its a book written by men to influence society.,fcvoxgu,mrcooliest,b1yh2
">I don't believe Christianity is inherently anti-gay.

Let me help you with that. 

""You shall not lie with a male as with a woman; it is an abomination."" - Leviticus 18:22

""Or do you not know that the unrighteous will not inherit the kingdom of God? Do not be deceived: neither the sexually immoral, nor idolaters, nor adulterers, nor men who practice homosexuality, nor thieves, nor the greedy, nor drunkards, nor revilers, nor swindlers will inherit the kingdom of God. And such were some of you. But you were washed, you were sanctified, you were justified in the name of the Lord Jesus Christ and by the Spirit of our God."" -1st Corinthians 6:9-11

""The sexually immoral, men who practice homosexuality, enslavers, liars, perjurers, and whatever else is contrary to sound doctrine..."" 1st Timothy 1:10


EDIT: 1. I'm not a Christian. 2. I know what the Bible says. 3. My having quoted the Bible doesn't mean I hate gay people. Get over yourselves.",Wrong_Opinion,75lg5,fcviv44,"It's not the same people.  Also, all government marriage should be ""civil union"" as government does not marry anyone.  Marriage should be a religious ceremony and civil union the government rights.

The 14th Amendment required gay marriage rights because the term ""marriage"" is imbedded into the legal code.  Change the terms of all government marriage, straight and gay, to civil union and both parties would have been perfectly happy.

Also, I don't believe Christianity is inherently anti-gay.  I believe a lot of the passages about ""gay"" people are misunderstood and are condemning aspects of casual sex, not homosexuality itself.

The media does this to gay people.  The media doesn't represent gay people.  We're voting for Trump and America and for the rights of children to be raised intact (including circumcision).",fcuxfob,Shy_Guy_1919,erjro
"Dude, did you not read where he said there needs to be accountability no matter what? Stop with the friendly fire.",Wrong_Opinion,75lg5,fcmql6g,You are actively giving them excuses. No wonder you live in AZ yall cant vote a non cucked R if your lives depended on it.,fcmm89e,StrickeN303,75ad9
"Wow dude, yikes, not a good look, wow, saying Stalin is worse than Hitler just because Stalin killed way more people is a very anti-Semitic thing to say and you are horrible, yikes. /s",Wrong_Opinion,75lg5,fc3shr7,"I wouldn't even ""dare say"" Stalin was worse - he was objectively worse. The holodomor alone was worse than even the most liberal estimates of Hitler's death toll. The fact that the communist flag isn't looked at as at least just as bad as the Nazi flag is further proof that McCarthy was right.",fc3rq8c,WOMP_WOMP_FAGGOT,1nu4mmvk
He must be confused.,Wrong_Opinion,75lg5,fbz41ll,Shrek? You mean the kids movie?,f9uvise,CatalystEXE,8k8dj
"Why would you want someone who compromises principles in order to get elected to... uh, well, get elected?",Wrong_Opinion,75lg5,fbey69t,"Better?  Better for getting elected, obviously.",fbdzcyw,Finance_Clipboard,45tzercx
Whatever happened to gratitude?,Wrong_Opinion,75lg5,fao4znx,They do. There's a weird guilt associated with stuff you never did. It's more prominent in those whose precursors were slaveowners and such.,fanls33,Nether7,tslto
He had to be confronted by it repeatedly over years before he gave the ritual empty apology.,Wrong_Opinion,75lg5,fanew3v,Who said anyone was lying or misrepresenting them?  Cenk only went back on that stance because it got aired out in public.  Hold them to their own standard.,fandhbr,Yawnz13,tc0d7
"Exactly. Who is going to hold them accountable? Will GEOTUS do it in his second term? If he's unable to, it falls to Americans to enforce the law on their government. We did it once before, we may have to do it again.",Wrong_Opinion,75lg5,fai9vqx,Democrats: yeah so?,fahh2i7,Edge27,6dedf
"Gitmo is too good for them. Gitmo is for terrorists, after all. Traitors are even worse than the worst radical islamic terrorist.",Wrong_Opinion,75lg5,faf6q8g,"Not if they are in prison. 

We have spare rooms all spruced up and waiting for them in Gitmo.",faedx5j,NewSouthernBelle,12nu30
This is the House Democrat version of when Police bungle an interaction with someone so they arrest them on the sole charge of resisting arrest.,Wrong_Opinion,75lg5,faf619v,"Got it, but they are going to impeach him for not complying with an impeachment inquiry.  So why did they start the inquiry?  What was the impeachable offense that warranted an inquiry?

&#x200B;

What a damaging precedent they are setting.  The liberals impeach, they will regret it.  Horrible political move.  Horrible historical move.",faeuv79,HockeyMom4Trump,127v8k
Poor kid will probably join the 27 Club.,Wrong_Opinion,75lg5,fa81yvm,deleted  ^^^^^^^^^^^^^^^^0.4280  [^^^What ^^^is ^^^this?](https://pastebin.com/FcrFs94k/90084),fa63vg6,CenkIsABuffalo,166aqi
"Use Brave Browser, or Firefox with uBlock Origin extension. On mobile, use YouTube Vanced. No ads!",Wrong_Opinion,75lg5,f9qfjju,On youtube last night I probably saw 15 bernie sanders ads and 6 for Andrew Yang,f9qdy16,Z31SPL,f3sye
"You meant to say the Kalergi Plan, yes?",Wrong_Opinion,75lg5,f9hx0ui,"So true.  Destroying our kids, sexualizing & corrupting and confusing them at a super-young age, is allegedly part of the 11 step plan to destroy Western society, so of course that's easy stuff to access.  But also, I click on probably half of these posts here today and I immediately get a screen on my computer anyway, that says something like ""Oops, something went wrong.  We seem to be having trouble finding that page"".  Doesn't matter what it is, except if it is conservative and informative or supportive of the President, or slightly derogatory towards the Left, you can't just access it, or ""google"" it, they have to make what we want to know about difficult or impossible.  Censoring has reached a new ""high"", or ""low"" today.  Not quite sure which.",f9hl45r,MW23232,1h8hs9w
Let's also pretend that Africans (many of them Muslim) never happily sold their countrymen as slaves to Europeans for trade goods.,Wrong_Opinion,75lg5,f9hwrhv,The liberal scapegoat for why pretty much all of Africa is a shithole is colonialism and the slave trade i.e. whitey's fault. It couldn't have anything to do with facts like parts of the continent hadn't discovered the wheel by the 17th and 18th century,f9hqx23,NobelPeacePrizePepe,3nntciuc
"""The disorders and miseries which result gradually incline the minds of men to seek security and repose in the absolute power of an individual; and sooner or later the chief of some prevailing faction, more able or more fortunate than his competitors, turns this disposition to the purposes of his own elevation, on the ruins of public liberty.

Without looking forward to an extremity of this kind (which nevertheless ought not to be entirely out of sight), the common and continual mischiefs of the spirit of party are sufficient to make it the interest and duty of a wise people to discourage and restrain it.

It serves always to distract the public councils and enfeeble the public administration. It agitates the community with ill-founded jealousies and false alarms, kindles the animosity of one part against another, foments occasionally riot and insurrection. It opens the door to foreign influence and corruption, which finds a facilitated access to the government itself through the channels of party passions. Thus the policy and the will of one country is subjected to the policy and will of another.""

-President George Washington

His prophecy has come true tenfold. America groans under the perfidy of party politics, and it is never more true than today.",Wrong_Opinion,75lg5,f92ufvh,"Yeah it's a picture.  We got them with trump as well. Why the hate. Little letter in front of the name. (R). That is all. My team wins attitude has to stop from both side. There shouldnt be parties. At the very least their should be multiple parties. Trump has many democratic party ideas he would love to pass. They just cant stand that a Republican is now stealing their thunder in some areas. So now they are all commies. They had to move there ideas some where. So they went ""full retard"" and now they are commies. They just couldn't bring themselves to work with a man who would do what he said he would do. Screw both sides. Trump 2020 is more important now then ever before. We are all going to have to vote to keep him in. They will try to steal this election.",f92f235,cbonez416,4x0gv5cz
Not unless you are BallowGoob anyway,Wrong_Opinion,75lg5,f8zf289,i dont see why #1 matters at all. its not like getting more karma gives users ad revenue or anything.,f8yt4cd,fight_for_anything,c1q5j
"Who is in turn payed for by Soros, Clinton, and Saudi moneys",Wrong_Opinion,75lg5,f8vp2k5,You know who owns the justice democrats? The company that she auditioned at? Chenk fucking uyger of the young turks does.,f8vorpj,AetherSurreal,4bc06r3f
"YOU KNOW WHO ELSE PASSED LAWS AGAINST ANIMAL CRUELTY!?

...

HITLER!!! 

- The Left",Wrong_Opinion,75lg5,f8rm6pw,"Watch, the Democrats will come out against animal rights just to spite Trump!",f8r60r2,Sunset_Knight1,4bb5qwag
Twitter will suspend his account any day now for doing this.,Wrong_Opinion,75lg5,f86419z,Good for him. I'd be doing the same thing (and anything else I could think of) if one of those fucks had violently assaulted me.,f856u3f,Disposable-001,2936s9o0
"Uh, YiKeS, gUyS, wOW, dID thIs BIGGIT jUsT say *having a family*? YiKeS! WHaT a hoMoPhoBE!",Wrong_Opinion,75lg5,f7zqdi2,"They're good at having deep relationships of love and caring with solid connection?  
Or are they just ""prostitute level experienced"", but just don't charge for it?  
  
Sincerely, there's nothing to be gained by sleeping with someone who has ""lots of experience"", all you'll gain is an empty experience devoid of connection.  
  
Save that for people you think there's a chance it'll lead to having a familly.",f7y12nk,mishmiash,4v6ryn4t
Because that wasn't Real Communism ™ and therefore must be memory-holed,Wrong_Opinion,75lg5,f7ylnex,"If commies have been in control of primary education since the 60s, why wouldn't they teach you about Stalin and the greatness if communism?",f7xfebb,ASSIMON,1zco3psm
"AHS has never violated Reddit ToS, and if you present evidence to the contrary it's because you are clearly a BIGGIT",Wrong_Opinion,75lg5,f7ylejq,AHS?,f7xlf1o,brutusdidnothinwrong,1hir5a22
"Based on statements by their executive staff, engineering team, and their observable behavior, their corporate charter should be revoked. Alphabet Inc. and it's subsidiaries should be destroyed utterly as corporate persons and all their assetts seized by the US Treasury for Sedition and Treason.",Wrong_Opinion,75lg5,f7j4dgf,"Also look into their [banking](https://news.yahoo.com/google-wants-bank-2020-215609324.html) and [health record](https://www.washingtonexaminer.com/news/google-has-collected-millions-of-health-records) activities.

Google is already much larger than AT&T was when it was broken up.   It's long past time they were brought to heel.",f7j40q1,AbsurdOpinion,4uz74wjr
Universal Suffrage and it's consequences have been a disaster for the human race.,Wrong_Opinion,75lg5,f6o1iv4,Why are non-land owners and tax-burden degenerates allowed to vote?,f6npiaz,Texas-Centipede,xo9zo
"Because they're the only ones that don't have Republican (in the original sense of the word, *Res Publica*) principles.",Wrong_Opinion,75lg5,f61kvuc,"Tump Junior or Ivanka 

why should the left be the only ones with political dynasties?",f61knp7,penetratingthought,32f5facn
I've been telling my family on the down-low to get while the getting is good in this economy because after Trump is gone we don't know what kind of hell we might march into as a country.,Wrong_Opinion,75lg5,f61kptl,"Little money never told big money what to do. That’s the problem. Trump has fuck you money. He can’t be bought. I still don’t trust politicians, especially career politicians, everybody has their price, and unless we find another rich person who will do this as a hobby we are up shits creek.",f61khoc,I_ONLY_FUCK_PATRIOTS,10iie2
"I'd consider it but I think we can do better. Well, I hope.",Wrong_Opinion,75lg5,f61khig,Lion Ted?,f61jare,yurimodin,13bf0u
"I've been asking my IRL fellow pedes this lately, but I'll start asking it online now:

Who is our candidate for 2024 that is BASED, RED-PILLED, and 1776% Keep America Great?",Wrong_Opinion,75lg5,f61icti,Imagine what shit they will do if a democrat is elected after Trump so they can blame him. :/,f61ew19,Whimpy13,c2iud
You aren't doing imperial elective properly. Look up how that works and you'll see what you need to do.,Wrong_Opinion,75lg5,f618qzu,every time i play basileus i get yeeted by my vaasals(due to weird succesion laws). what DO?,f607rka,RaginBoi,j2lssdu
"The Kochs and other fake libertarian interest groups that are really just neolibs with a cheap, thin coat of Republican Conservative airbrushed on to trick us into legalizing even more immigration from third world countries. End goal? To keep wages suppressed, to make middle class Americans a minority, and import votes. Just like the Democrats, except the Democrats are allergic to doing anything legally.",Wrong_Opinion,75lg5,f60amrl,Where the hell are these nitwits coming from. When has this ever been a good idea.,f607vuq,Available_Hedgehog,47wb9mhw
"Ever notice that every time Trump gets a victory, a bullshit r/politics mega thread somehow appears at #1 All and stays there all day long? 🤔",Wrong_Opinion,75lg5,f5xbmgm,"Remember back when we were making r//all constantly they decided they couldn't have that. So they changed the algorithm and then censored us altogether.

But the constant Sanders and Anti-Trump spam? They didn't say shit about it back then and still don't, because they want more of it.

It still baffles me that Republicans are focusing just on twitter and Facebook given the insane bias of reddit and the traffic this site gets.",f5wlmro,oneUnit,g8151
"If China is right about Islam, and Islam is right about women... Hmmm.",Wrong_Opinion,75lg5,f5xb8xp,51% of all turns are left turns... except when they arent because China is right about Islam.,f5www06,gamblingman2,azle4
Because the American People have not enforced the law on their government for 243 years.,Wrong_Opinion,75lg5,f52gigt,Could you ELI5 as to why we do that?,f52chwd,T-Baggins415,i1g4m
"Look man, transubstantiation is complicated. Just take it on faith. *The Pope, with cannibal trait*",Wrong_Opinion,75lg5,f4ynkj1,"> Catholicism with ritual cannibalism

Isn't that just regular Catholicism?

---
^(Or have I been doing it wrong?)",f4yipi4,Xylth,6qjqe
Depends on how nice his balls are.,Wrong_Opinion,75lg5,f4yn76h,">Testiculos habet et bene pendentes

""From the testicles that he hath and well depending on the""

What is this supposed to say?",f4yf6fj,Sobriquet20,m90rwae
"He was in California, not America.",Wrong_Opinion,75lg5,f4uq7ic,"If someone pulls a gun on you, you do not have to stop until their heart stops. Well, at least in America",f4unesn,thekingjelly13,8a7uu
I would love to be able to start as a famous adventurer or peasant leader,Wrong_Opinion,75lg5,f4pwqup,"Alas, i always want to play as an unlanded character that can move freely in the map. looks like i'm need to wait for ck4 for it to happen.",f4pqgl2,skepticium,3qilonra
"To the wry and cunning King Isspam,

Tales of your foul deeds are told from Ireland to Cathay. 

You asked and I have answered. There is no need to impart motive where you cannot know it for true!",Wrong_Opinion,75lg5,f4o3tig,More words: if you are concerned or don't like where CK3 is going *just don't buy it and keep playing CK2*,f4o2puq,lsspam,mjmt9
Would you have said the same thing to your fellow men in 1776?,Wrong_Opinion,75lg5,f4o30ka,I'm amazed by all the people here in the West encouraging the people of Hong Kong to throw their whole futures down the drain for their own sick amusement. It reminds me of the new trend of filming people die for internet fame on a country sized scale. Bizarre.,f4ncvxt,Curious_Hermit,131macxs
*I'll spend all my free time playing games now!*,Wrong_Opinion,75lg5,f4a56sj,BANNERLORDS CRUSADER KINGS 3 I'M BORN AGAIN 2020,f49nts9,CatNostril,9wih6
"Study World War 1 and 2. Who enabled the Commies and Fascists? 

Liberals? Enabling degenerates in my society? 
It's more likely than you think!",Wrong_Opinion,75lg5,f485pxl,"Reminder that these people are **NOT** liberals, they are **LEFTISTS**, there is a **HUGE** difference. https://www.youtube.com/watch?v=tlIjMJBSnRE",f47jz5z,Sususu77,yzclm
"Discovery process can uncover evidence that they are de facto either an unregistered foreign advocate, an unregistered Democrat PAC, and giving in kind donations to the Democrats that violate  the law. Or all three.",Wrong_Opinion,75lg5,f4708ko,"Fuck CNN and all, but I don’t see how a lawsuit like this could have any chance.",f46yu6w,jwota,ehrl9
"Don't forget the History of Rome by Mike Duncan as well, which is followed-up by the History of Byzantium (the Eastern Roman Empire) by Robin Pierson.",Wrong_Opinion,75lg5,f3z18u4,"I've always found history fascinating. Even now working in science I fill my spare time listening to history podcasts, audiobooks, and documentaries (Hardcore History by Dan Carlin, best podcast ever. Revolutions by Mike Duncan honorable mentions). Nothing better than just taking a deep dive into the events of the past and just reflecting on the wild maelstrom of circumstances that lead up to events like the french revolution.

It makes me chuckle when people are like ""OH MY GOD AMERICA IS SO DIVIDED? HAS AMERICA EVER BEEN SO DIVIDED BEFORE? THIS IS NUTS"". It's like, we're not divided the media's just got you whipped up into a frenzy. Calm down and look at our history and you'll see you're being puppeteer-ed by big business interests, which is one of American plutocrats favorite things to do.",f3yqbj2,doctorcrass,40nq6
I try my best to live up to it,Wrong_Opinion,75lg5,f3vj5yf,Hm. Never had the chance to say relevant user name before. But it suits you well pede.,f3vhi4u,Butcher_Bear,4k0ukxkq
"Oh trust me, Zucker has some Berg in him, it's just that his forebears had the low cunning to drop the Berg to make themselves appear otherwise on paper.",Wrong_Opinion,75lg5,f3vbdsv,It’s like Zucker but with a pinch of berg.,f3uwfgq,xenophobe51,3bz8q
*A mysterious Jewish man has arrived at your court*,Wrong_Opinion,75lg5,f3o9wqu,"I have, but that is not important. We all know what he is capable of.

But keep it down, the merchants guild is always watching",f3nsmky,Antlergroin,i0mqb
"No, not really. We essentially live under a soft-tyranny in the U.S. How many times has the Constitution been violated and we have done nothing? How many times has this government prosecuted illegal wars and we have done nothing? Even now, they are in the process of a coup-de-tat and our reaction is to post PePe memes. We don't have the will, the sacred honor, or the stones to do anything remotely close to what our glorious ancestors did in 1776.",Wrong_Opinion,75lg5,f3kpown,"Exactly. 1776 isn’t a threat to the elite ruling class, it’s not a threat to an elected official, despite what the Reddit admins would have you believe. It’s friendly reminder that their own best interest requires remembering what happens to despots and tyrants.",f3kczbt,antariusz,8sirq
"1. That's not an account about Noah. 
2. That verse does not describe Noah's daughter's (or Lot's) being raped. Arguably, the daughters are the ones doing the rape here. 
3. You really make yourself look silly when you get shitty with someone when they ask for substantiation AND you fail miserably at it. You said ""Take off the God-defending lens and just read it"". 

You can't know someone's motives or thoughts any better than an Elder in a judicial committee, my friend.",Wrong_Opinion,75lg5,f316sm6,Genesis 19:33,f30yqs3,SteeveTwo,3rgo2ys
"Let's also not forget that Muslim men are to look to Mohammed (Shit be upon his corpse) as the ideal role model, which includes raping and ""marrying"" little girls.",Wrong_Opinion,75lg5,f30br48,"Islam can't have apostates, if Sharia Law allows for their murder *taps head*",f302mbo,BasedKekistani2016,1srch0me
"I pulled it from an online Bible website, I think they were using the New King James but don't quote me on that.",Wrong_Opinion,75lg5,f2ayamf,Which version is this from? Pls,f2awk4c,faderMs,22nzxqaw
"""If any man among you seem to be religious, and bridleth not his tongue, but deceiveth his own heart, this man's religion is vain. Pure religion and undefiled before God and the Father is this, To visit the fatherless and widows in their affliction, and to keep himself unspotted from the world."" James 1:26-27

Some example he is.",Wrong_Opinion,75lg5,f283j69,"The last CO who came to our hall when I was COBE was a right piece of work. As usual The Service Overseer is scratching around for afternoons to work with this guy as no one likes him so leading from the front I decide to help out and take an afternoon off work to work with him.

I had three RV's to my name and decided to call on them even though I knew there was little chance of them being in. So after half an hour of the allotted hour I've run out of calls and territory and say ""Why don't we visit Sister S in the care home? She has brought in lots of witnesses over the years and now she's a widow and I'm sure she would like a visit from you as the Circuit Overseer.""

He said ""I can't count my time if we do that, she's baptised.""

Something died in me at that point. I just knew that this so called Shepherd/Circuit Overseer was just an unfeeling, uncaring box ticker.",f27om4v,Overcrapping,zjebctd
"The Chinese Communist Government is involved, mark my words.",Wrong_Opinion,75lg5,f21yl85,https://twitter.com/TomFitton/status/1178692729267720197?s=20,f20aa7w,TFittonJW,7wo4uqg
"Tim Fool is Fooling the internet into thinking he's a ""journalist"" at this point. It's willful ignorance of a kind. He's performatively complicit in the seditious acts of the media and the North American branch of the Communist Chinese Party.",Wrong_Opinion,75lg5,f1nmjou,"and Tim pool: i still support tulsi because she is principled 

more like because jerk off into your hand n rub it on your head so your beanie stays put",f1n33k7,retardo85,3ds655mh
If they impeach the President.,Wrong_Opinion,75lg5,f1nlqci,"Welp, that's just about all the additional convincing I need.

Dissolve Congress when?",f1nkhm4,_Cabal_,gv3bf
Amen. I am personally loyal to The President. If the GOP doesn't put up another MAGA candidate for president in 2024 I will flip my registration to independent.,Wrong_Opinion,75lg5,f1kynwu,"This is why I don't consider myself to be a Republican. 

I'm a Trump supporter.  I have no love for the RNC.",f1jth9r,f3m1n15m15c4nc3r,2bibueaz
"If they remove him from office it will truly be a ""Let them eat cake"" moment in this nation's history.",Wrong_Opinion,75lg5,f1cmej2,"I’m so sick of this shit. They just throw anything at the wall and hope it sticks. I don’t foresee impeachment actually happening. And even if it does, removal from office certainly won’t. This just makes Trump’s base even more angry. The democrats are so corrupt and out of control it’s absurd.",f1cl6g9,Edge27,6dedf
"No, it's an argument against government granting special privileges to big businesses at the expense of a healthy market.",Wrong_Opinion,75lg5,f18ejjn,Isn't this an argument against the monopolisation of capitalism and therefore an argument against capitalism itself?,f18d9mn,MortalShadow,aid24
"It's not about the lack of knowledge on whether or not he could do it, it's about the ethics of it.",Wrong_Opinion,75lg5,f18e9ix,"The whole spez thing was way overblown. It was funny. It was his site, if you didn’t know he had the power to do that then you are ignorant and that’s your problem not his. Honestly can’t believe that people didn’t know that would be possible for the people behind the site to do things that users can’t do.",f189u2a,legendary24_8,ydqah
"What if we had a class of professionals who spent years studying the ethics of accurately publishing sourced information, and disciplined themselves to remove their personal, political, and economic bias from what and how they chose to publish that information?

Boy that would be swell!",Wrong_Opinion,75lg5,exfvpmw,">  societal institution to vet political candidates and accurately report their statements and stances on issues, amiright?

But where would we even find such a thing? What would it even look like?",exenfkl,Gstreetshit,doip6
