child_body,child_screen_name,child_user_id,child_tweet_id,parent_body,parent_tweet_id,parent_screen_name,parent_user_id
"Keywords in my statement ""at work""...I hear ya and agree otherwise.",zshguru,hta96,fkpjywn,"If a few racists using the boog meme is enough to make you stop then you should turn in your guns for the same reason. Its a vocal minority and the more validity you give this claim the more true it will become. The boogaloo is for every freedom loving, gun carrying american.",fkphign,elitemage101,iu76i
I'm rooting for you.  Let's just hope these crazy times don't last very long as it's going to hurt everyone.,zshguru,hta96,fkpd81q,Thanks for the reply. It seems hard to dial it back anymore then we have. We live on the bare minimum as it is! We def won’t be going out anywhere since everything is basically shut down anyway. So we will at lease save our gas money. But that’s probably about it,fkpct70,moserpup,bi4yl
"Ah, good to know.  Both wikipedia and urban dictionary didn't say it was racially bad to use which surprised me.  I'll have to stop using it, especially at work.",zshguru,hta96,fkpbx87,"Imagine the type of people who actively *want* a second civil war, and the reasons they would. It's a meme that originated on the chans for exactly this reason. It started with just a pro-2a thing behind it, but got pretty quickly taken over.

https://www.adl.org/blog/the-boogaloo-extremists-new-slang-term-for-a-coming-civil-war",fkpbpko,Angerman5000,ba1yu
I thought boogaloo refereed to the second (next) American civil war.  I wasn't aware of any racial connotations.,zshguru,hta96,fkpb4xv,"Probably shouldn't show them ""boogaloo"" memes at all since they're a reference to a race war the alt-right and white power assholes have spread around the internet.",fkp79dp,Angerman5000,ba1yu
"It's going to be hard.  You can't do much about your income but you're in control of what you spend.  Stop the debt snowball, focus on the four walls, and really look at that budget.  Dial it back.  Then dial it back again.  Then cut another $500 from it.  This is ""scorched earth"" time:  no luxuries, frills, or wants.  Just the extreme basics. 

That's all assuming we don't see any hyperinflation due to goods and services being down for an extended period of time.  Which I think is \*very\* likely at least for a small period of time.",zshguru,hta96,fkpauza,But like...we own restaurants in Maryland. We just got shut down as of 5:00pm. I am a stay at home mom to two under two. my husband and the management team have to cut their salaries up to 50% to make sure the business  doesn’t go under permanently. We had no additional savings cause everything we had was going towards our debt snowball. So now what do we do...,fkp7v0a,moserpup,bi4yl
Savinelli Roma (311 KS) ... It's a very nice smoker,zshguru,hta96,fklv73o,Nice rack! What’s the pipe 3rd from left on the bottom?,fklv12r,speedbagyourballs,k6v69g9
Savinelli 606ex baronet bruyere,zshguru,hta96,fkk9f31,"Nice...what's that on top shelf, far right? The sandblast bent?",fkk5ai7,Lunatcharsky,7oykp
I'd recommend these glock 45 over the 19x because of magazine compatability.  It's basically the same gun otherwise.  Gen 5  magazines will not seat in a 19x due to the lip it has on the front of the magwell.  The 45 will accept all generation of 17 round magazines.,zshguru,hta96,fkjjo1o,"I am looking to pickup a Glock 19x possibly tomorrow, is this a good choice?  Home safety, possibly apply for a CCP, I read this is not the best for concealed carry?",fkilq4t,LZ_OtHaFA,1b0zjt9n
"[This](https://www.etsy.com/listing/291465855/solid-oak-pipe-display-stand?ref=shop_home_active_3) is the one in the photo.  I have no affiliation with that esty shop.  I'm really happy with the build quality especially for the money.  Some pipes fit better than others but you're going to have that with any rack.

In general, I think etsy is your best bet.  Pipe smoking is pretty niche and only a somewhat small wood working business is going to bother making these.",zshguru,hta96,fkih34k,I've been individually casing my pipes and am looking into getting my first rack. Do you know of a good source for one?,fkigeqf,Gurglefurk,440mf6ni
"[This set](http://www.graceusatools.com/item-details.php?item_id=30&category_id=1) I believe has every size needed for a CZ.  It's Made in the USA.  I happen to own this exact set and it's good shit, feels like a tool.  Yeah, avoid that chinese shit because its garbage.

I'd also suggest getting a small hammer than the large hammers we use for driving nails and likely have around the house for easier control.",zshguru,hta96,fkhh3y2,"Cool, are there any notable brands for them or just ""don't buy chinesium""",fkhekuk,dootamin,5g0hjj35
Hope you feel better.,zshguru,hta96,fk9tc6c,"I just got back from about 12 hours in the ER. Turns out I have the flu (fucking H1N1 has risen from the dead) but being severely immune compromised and very pregnant gets me pushed up to high priority. It still took 12 hours. 

I had the unfortunate timing of coming in the day after the first cases were announced in my state. To say the ER was packed would be an understatement. I've been to this ER several times and never have I seen it like this. Multiple nurses told me this is the most patients they've ever crammed in there. 

Gurneys were all over the hallways, patients were left in wheelchairs when beds couldn't be found. Because I was getting screened as a potential COVID case, I got a lovely private room but it's so I didn't infect the entire ER. 

It took a public health team and a CDC consult to decide not to test me. I literally could've been tested, had it sent to the lab, and gotten the results in the time it took to confer with each other. I'm not being hyperbolic. We have an in-state lab that can run the test in 4 hours. 

**This** is what is going to kill us. I'm not even in a hard-hit state yet. I think we have 3 confirmed cases. 

I knew we were fucked but after going through all that with the ER today and coming home to watch his announcement, it's all starting to hit me just how bad this is going to be.",fk9sqn5,littlelupie,y6eao
I see what you did there and approve!,zshguru,hta96,fk6back,"I mean, he's right.

You need food, water, and sleep.  You don't need a gun of any kind.  You want an AR-15, and that's fine.  Go get five if you want.  But do you need one? Not in the least.",fk62rqi,TheDjTanner,h59y4j7
"That it's a political process and it's an election year would be why the dems pushed it.  I think they gambled and thought it would be less partisan than it was but its really only ever had support from democrats.  Most republicans never supported it and a lot of independents didn't either.

It doesn't help that the news isn't always entirely truthful or always tells the entire story because that doesn't sell ads like firing people up does.",zshguru,hta96,fk67v98,Thanks. That helped explain. I just don’t understand why even “IMPEACH” if it technically doesn’t DO anything,fk640ds,LMoore916,5fyhf
"Remember, innocent until proven guilty.  So the president is assumed innocent and the Senate found him not guilty.  Why would there be consequences?

If you were arrested, and then tried, and then acquitted...there wouldn't be any consequences to you.  You'd be a free person.

Closest thing to consequences for an impeachment is the next election cycle.",zshguru,hta96,fk63gqc,"I understand, but why no actual consequences?",fk61t2i,LMoore916,5fyhf
"[Try this](https://www.youtube.com/watch?v=eHPzADnAV5w)

It's a HIGHLY political process with multiple steps: the impeachment (aka the indictment) and then the trial.  This go-around the House either didn't have that great of a case or didn't present the case well.  Either way the burden of proof is on them.  Remember, you're innocent until proven guilty.  Not liking someone is not grounds for impeachment.",zshguru,hta96,fk629g4,"What the fuck does a second impeachment even mean?! It's almost like even the first impeachment didn't change anything. He got impeached, and he's still the president, still doing the same shit, if not worse. WILL SOMEONE PLEASE explain this to me like I'm five, or send a link to a video that properly explains what in the actual hell IMPEACHMENT even means, if the president still keeps getting to be the president?   Please?",fk5znba,LMoore916,5fyhf
Not on roller cossters,zshguru,hta96,fk14qaa,No carry then ? :(,fk14c18,niceloner10463484,gy3oj
You don't.,zshguru,hta96,fk13v0i,How’d you keep your shit locked in on roller coasters. Most holsters aren’t exactly locking like LEO holsters,fk13qiu,niceloner10463484,gy3oj
Totally agree.  Fuck even from a comfort perspective a belt makes it more comfortable because ain't no waistband gonna keep your pants up with a gun.,zshguru,hta96,fjk185n,"Yes, these are an unacceptable solution to a problem that doesn’t exist. There is no such thing as belt-less waistband carry. If you carry IWB, you need a belt, no exceptions.

It’s *neglegent* to not properly secure a firearm.",fjk0zmj,MowMdown,qn1i3
Recommending ulti clips?,zshguru,hta96,fjk0wej,"STOP RECOMMENDING THESE!!!

FUCK!",fjk0dn1,MowMdown,qn1i3
Oh!  It's a grain alcohol thats like 180 proof a,zshguru,hta96,fjh6l4v,Can you explain to EU-me what that is?,fjh6iqs,Lunatcharsky,7oykp
Everclear,zshguru,hta96,fjh6dvj,What kind of alcohol do you use?,fjgnyul,Lunatcharsky,7oykp
They're more difficult for me to shoot than just about anything else.  I just naturally shoot them dead left whereas I don't with any other handgun.  Nearly everything else is dead accurate so why fight the glock?,zshguru,hta96,fjgboup,why'd you sell the Glock?,fjfqxyd,PumpedUpKicks95,2uhzryp3
Nope just kosher salt,zshguru,hta96,fjfkhj4,"Yeah, you'll never get it to the point where the salt is pure white but maybe till its white in the middle. Also at first glance it thought it was tobacco in the stem and I was like God damn",fjfkfpz,darklink594594,77pq5
Epiphany is a latakia blend with a mild casing...it's my only flavored tobacco...and probably no coincidence the only pipe I smoke it in went sour,zshguru,hta96,fjfh6ty,"Damn, this really adds a drop to my not wanting to smoke aromatics.",fjfgx3y,R_X_R,ko8j9
It's not.  Coffee grounds would smell a lot better than ever clear and whatever casing is on epiphany,zshguru,hta96,fjfgr01,You cant convince me this isnt coffe grounds.,fjfg8nl,R_X_R,ko8j9
"The crazy part is yes...after every smoke.  At least one, if not two, pipe cleaners and then a q-tip to mop up the shank and drool reservoir.

I've even did some light reaming too but the cake buildup wasn't much.",zshguru,hta96,fjfdpun,Do you...  Do you clean your pipe regularly?,fjfctmn,Noble_Briar,5h62oiwm
"I could but I want an all commie AK.  Anything (legally) imported has been modified per U.S. federal code 18 USC 922R which stipulates that no more than ten major components of a firearm categorized by federal law as a ""semi-automatic assault weapon"" could be manufactured outside the U.S.",zshguru,hta96,fj7q5wp,Why wouldn't you buy a WASR then?,fj7ngev,seanie_rocks,22w49amq
Something like [this](https://www.gunvault.com/product/nanovault-300/)  is really all you need.  Loop it around something solid like a bed frame when you travel.,zshguru,hta96,fj7lecm,"Curious.. which vehicle safe do you recommend? A huge part of the discomfort with leaving my pistol in my car is the event of theft,",fj7cfak,nxckgxld,3kh2qs93
"I would get an ak47 but I want a real commie version, not this made in USA shit our laws require.

I wouldn't sweat Bernie though.  I honestly think trump would ""Mondale"" him.",zshguru,hta96,fj7752o,"I’m a super liberal (San Francisco) and I love guns but I really think people 
1. Misinterpret(or don’t read more than the first line of) the second amendment. 
2. If the government wants you dead your AR is no defense for the advanced military tech they have. 
3. The government is fucking us by taking healthcare, education and democracy which we need to fight by means other than guns. 
4. I’m buying an AK 47 before Bernie gets elected.",fj726j9,throwawaydfbbgfcv-BF,51cpgoyg
"You're right, it wasn't fair for me to use the word ""hatred.""  It might \_appear\_ that way but it's likely not the reason.  I just ""wish"" they would see gun ownership as an enshrined right and at least when they think about gun control they start from that position, i.e. we should do as little restriction as possible.  

Kinda tangential, it always amazes me when people believe ""healthcare is a human right"" and then they trust the government to uphold that right.  All the while completely blind to the government restricting and eroding an actual articulated/written down in the Constitution right (2A).  Do they really think the government won't restrict a ""made up"" right? (""made up"" in the sense it's not protected in the Constitution)",zshguru,hta96,fj700oj,"I don't think it's fair to characterize the democrat position as a hatred of the second amendment.  In an unfortunately two-party system, most people are going to fall into one of the two most easily identified buckets.  Since any kind of compromise or dialog seems to be out of the question in this political climate, every position is going to be met with a counter-position across the aisle equally far from center.  The no-compromise pro-gun side is met with no-compromise anti-gun.  Tea party with democratic socialism.  Coal-rollers with NPR sticker-adorned Priuses (Prii?).

I'd guess that the majority of democrats don't hate the second amendment as much as they hate the republican party seeming to ignore all their concerns about gun violence, and find themselves falling into the bucket that's closer to them.",fj6xw0s,etrmedia,ftgz4
"I don't know man, the absolute shit show that is going on in Virginia leads me to think that at the state level we might not have the time to fight it b/c they're just trying to pass this shit so damn fast.",zshguru,hta96,fj6wv36,Precisely. We will still have three branches of government and there will be a balance of power. We will still have a say to our state representatives on any gun control bills and debate that comes up.,fj6kutu,HerbertScytale,58n1bgdw
I'm not confident the Constitution will hold and even then it's hard to vote for a party that is so clearly anti-Constitution at least with regards to the 2A.  It's a shit sandwich no matter where I bite.,zshguru,hta96,fj6wnh2,"Nope.

Of all elections of the modern era, there's no dilemma present here.

There is absolutely no acceptable reason to vote for Trump. There is no acceptable reason to vote for any Republican who enables Trump. Vote them all out. Vote straight down the line against them, basically no matter what.

On gun rights, the courts will hold; the Constitution will hold.

Trumpism – however – represents an existential threat to our government, and thus to the rest of us.",fj6k5zl,jsled,6iqn
"Legalize pot to (help) fund healthcare and then full auto for all, I could get behind this platform.",zshguru,hta96,fj6wdc6,"I just want recreational marijuana, single payer healthcare, and a repeal of the nfa, is that so much to ask?",fj6uz4u,armchairracer,sbfpu
"Couldn't agree more!  (Obviously) I don't understand the deep hatred of the 2A among the democrat crowd but I'd wager that if they just dropped gun control as a platform issue they'd probably sweep the country.

I couldn't vote for a non strongly pro-2A candidate with a clear conscience so I'm really sweating November as there aren't any candidates, on either side, that are enough pro-2A for me.",zshguru,hta96,fj6vhjk,"Please be vocal in support of 2A among your liberal friends *and candidates*.  I really wish the democratic platform didn’t have such a deep anti-2A cancer in. Otherwise, I might actually be able to vote Democrat with a clear conscience.",fj6u2f7,dangerface,4ubgn
Appreciate it.  It's all about trying to improve.,zshguru,hta96,fj6q9es,I can respect anyone who shows their actual results.,fj4tltq,factorV,3l2t5
"What helps me with the flush fit 7, is my pinky grips the bottom of the mag and kinda pulls up, locking the gun into the meat of my palm.  It's like a weird claw thing but that gun don't move.",zshguru,hta96,fj6q4ea,Did you use the flush fit mag or the extended mag? I will not carry the flush fit mag for this very reason.,fj6l4qf,Cmonster9,dq12s
One thing i don't like about the shield is at least mine has needed a break in period.  I find I like it the more I shoot it but didn't really like it initially that much.,zshguru,hta96,fj6pxof,"I had edc'ed my XDs for a few months before I got a shield for $230 last summer with a deal. I shot my XDs way better than the shield where I knew in 100 rounds if wasn't for me. It felt the same kick wise, but I would have to adjust my grip each shot to stay accurate. Double taps were horrible for me with the shield.",fj57tzn,PonyThug,ia5sw
appreciate it!,zshguru,hta96,fj6ptxo,Fucking SOLID.,fj52zo1,WalkingDisaster1001,4w4ch7ky
"it's a great way to measure  your progress.  It tests all the fundamentals in marksmanship,  only takes a box of 50 rounds, and it'll tell you what you need to work on.  There's a lot of range days I'll warm up with this and then spend half a box to a box working on whatever sucked that day.",zshguru,hta96,fj6pswu,More people should use these simple print out training aids. It's a free way to become better.,fj5aype,lker5,3m3v6phk
"nothing like a pew pew stranger :)

but really what u/factorV said.",zshguru,hta96,fj6pc59,What's the point in using your weak hand?,fj66asn,beksh2505,4ddjgcap
"As a ""big hairy guy"" most people avoid me, let alone harass me.  In fact when I walk about people will move out of my way to give me room, almost like that scene in the Ten Commandments when Moses parts the Red Sea...ok maybe not that dramatic...my point is people leave me the fuck alone and get out of my way.

It wasn't until I had been with my (now) ex-wife for a few months that I realized just how different she experienced the world.  The \_constant\_ harassing, the \_constant\_ flow of people wanting to talk to her, etc.  Where I could just walk into a store and get in and get out without talking to anyone but the cashier, she'd have \_multiple\_ people strike up conversations that she didn't really want.  Guys were \_constantly\_ giving her unwanted attention and as you've said some of the creepier start setting off security bells by their following you or trying to box you into a corner when talking to you, etc.

I wonder if your fiance really understands just how much attention you draw?  If he understood how often it was and how creepy it was maybe he'd understand your totally valid security concern.",zshguru,hta96,fj6pal4,">People just aren't around violence so to them it doesn't exist.

I agree with this to an extent (I know you said most and all of what you said makes sense). My family is very anti-gun but they were frequently around violence in our neighborhood where I grew up. I don't understand why they are anti-gun but it's not something I would ever try to bring up with them. 

The times I have been harassed, stalked, and even chased were all in public places. There were times outside of my house in my neighborhood, but I was not allowed to go anywhere alone. First time was in high school at a train station with loads of people in broad daylight. No one did anything to help me when I was being cussed out by some girls and then chased. It was terrifying. Times after that were all men, cat-calling me, not leaving me alone, following me, etc after seeing me get off of a bus or in a parking lot. Scary. Thankfully after the first incident I began carrying pepperspray to scare people off and I have used it. Though spraying someone could aggravate them more and if they were armed, could shoot you...",fj5xusu,Sui2020,5ikr3inh
That's really good!,zshguru,hta96,fj5hufy,"Noice, my best is 49/50 at 5 yards with my carry 1911.",fj5g7ri,TheWheelGatMan,a35gxhs
If they have training classes they tend to be more ok than ones that don't have training...at least in my experience,zshguru,hta96,fj5azdl,How accepting are gun ranges to people drawing and shooting? I’ve never asked,fj58nzj,CalvinsStuffedTiger,56q7p
3 yards,zshguru,hta96,fj56qxg,How far away though?,fj56pvz,mattymofobro,5ch5lz58
Yes,zshguru,hta96,fj528t4,Is this at 3 yards?,fj527zb,avacadoclits,1qif1zv7
"Just the smaller nature.  More recoil, less surface area to grip, different trigger placement, etc.  Small guns are just harder to shoot and require a better grasp of the fundamentals.  I find myself having to diagnose issues more with the shield than my larger guns and honestly I'm glad I get to improve this skill.

As far as kick, it's not bad.  Though I did notice when shooting speer gold dot 124 grain that I could tell a noticeable difference between it and my normal federal 115 grain range stuff.  It wasn't anything I had trouble controlling but I could tell it had a bit more oomph.  In my m&p 2.0 9c I can not tell a difference. :shrug:",zshguru,hta96,fj4zyzj,What is it about the shield that makes one feel like an amateur shooter? Is it the compact size and the contrasting kick?,fj4y6kg,JiuJitsu_Ronin,41eb2yzq
I did the same with my glocks not too long ago.  Tired of fighting the grip angle so I went with something that worked better for me.,zshguru,hta96,fj4zh5y,"I actually just sold me shield this weekend. I realized, I was not as proficient with it as my P-10. And I definitely would rather carry a gun I am more proficient with and train with more often. So I sold it to fund buying some more gear for the p-10. 

I did my first dot torture a few months ago and holy crap it was a lot harder than I thought. Need to work on it more for sure",fj4x6ba,motobox14,24ealswx
"I don't have many rounds through my shield -- and this is my first single stack -- but I upgraded the sights to truglo tfx pros and I believe that really helped me.  The stock sights are nice but I had trouble picking up the front post on them.  I shot this thing stock last weekend (didn't do dot torture) and just noticed a lot better marksmanship today.  

Assuming you have decent fundamentals, the sights might be holding you back if they're stock.",zshguru,hta96,fj4wz9y,Way better than me with my shield haha,fj4u138,motobox14,24ealswx
thanks!,zshguru,hta96,fj4wn7f,Nice work,fj4vzep,tjwest13,2zvxnum8
"Curious, what didn't work?",zshguru,hta96,fizd8r0,Have you tried a variety of different ammo? I've run into some defensive rounds that get caught on the feed ramp,fizb71j,wesdawg4,ikqzk
"This cannot be stated enough, for just about any body type putting the belt just under the belly button (aka where it's supposed to go) will be the most comfortable.",zshguru,hta96,fizaapo,"Where do you wear your belt? Appendix is generally more comfortable if your belt is at or just below your belly button so your belt rests on top of your hips. That gives you more real estate to keep the muzzle from digging into your thigh/junk. Also, I'm a bigger guy and it's more comfortable for me to have it around 1-1:30 instead of right at 12. That might also help.

If that doesn't help, look into adding a foam wedge or Dr Schools mod. JM Custom Kydex sells velcro on wedges. I started with one and it makes a world of difference in comfort. You can also roll your own with amazon velcro, a yoga block, and a bread knife.

It's never going to feel 100% the same as carrying nothing. You're concealing a hunk of metal against your body. You'll always feel it, but the goal is to minimize it as much as possible.",fiz8f36,JethroFire,n6qgs
I found it very chocolate or fruit cake flavored,zshguru,hta96,fiql4r7,Is it overly peppery compared to the Laphroaig 10?,fiqksmm,TheAbsoluteLastWord,i2xoz
"lol! A little hand soap on the outside, a little everclear on the inside and it's fine.",zshguru,hta96,fip4wa7,Forever UNCLEAN!,fin61jt,TKColo,16hicp
You're not wrong.  I live alone so it's generally not a problem.,zshguru,hta96,finmty6,"I never understood people that don't keep the lid closed. It's literally the only place in your home with an open sewer hole, why wouldn't you make it 100% certain nothing falls in accidentally?",fin84ak,betamaleorderbride,qpsmv
Nice pun 😉,zshguru,hta96,fim4c0l,Oh boy. That's a shitty situation. I feel for you.,fim4agn,swanmarshfarm,13lf2y
Sig had quite a lot of problems with the p365 which seems to be be fixed but that took them over a year.  Just might be less risky with a firearm that has a track record vs one that doesn’t.  Smaller version of the same gun isn't the same gun.,zshguru,hta96,fijz4t8,Doubt it. It's just a smaller simpler version of the striker pistol they've been making for years. Only real new thing is the mag design that holds more rounds.,fijh5q0,crazyScott90,52ili
Might be risky getting a brand new gun that doesn’t have any history.,zshguru,hta96,fiizxn4,Save a bit longer and get a Springfield Hellcat.,fihtt93,crazyScott90,52ili
It might but this might prolong it's life.,zshguru,hta96,fiat9ty,I thought the slide stops just broke eventualy no matter what.,fiadoca,TheWheelGatMan,a35gxhs
those can cause mold.,zshguru,hta96,fi55xy8,I've heard of using Apples. That's what my Dad used to do.,fi4zc4s,nthrvctm,2vtu7w1r
An awful lot do.  Intact men can be pretty rare.,zshguru,hta96,fi2olgz,Do all baby’s born with a penis get a bit of it cut off?,fi2k1y6,gsondavid,g92d0l9
"Mine doesn’t have the safety.  But the whole damn gun was very stiff initially.  

It also might need a clean and lube.  No telling how long it sat.",zshguru,hta96,fhzhr4k,Does that include the safety too? Seems *very* stiff.,fhzhfs2,Charlie--Dont--Surf,p1cat
Yeah all the nonsense people gotta go through in certain  states is just ridiculous.  I can't even comprehend it...,zshguru,hta96,fhr05r5,"I didn’t know that Glock made a single-shot 22, especially that small. Or maybe I’m confused, is the Cali-rule not single-shot but nothing before 1975?

Sorry, happy for you OP. Just really feel bad for you CA folks sometimes. It’s like you are living in another country sometimes. CA seems like it should belong in the EU or something.",fhqwd0l,Hoonin_Kyoma,pwnd5
"Well said.
I can only vote once but I take great pride in voting for Trump for two terms!

MAGA onward!",zshguru,hta96,fhptq0s,"As an old guy, I remember when ALL politicians in Washington were considered thieves.  Now,  someone who does not need the power, already has the fame, already has more money than he'll ever need and cannot be bought arrives to put a stop to all the crooked politicians in BOTH parties and some people are losing their shit just becasue known liars like Lemon, Cooper, many, many others are screeching ""orange man bad"".   

If they had a single hint where a clue might be located that they could use to figure it out, they would understand no matter what Trump has done in the past, he is STILL draining a swamp that was about to sell out country and is STILL trying to sell our country down the road to communists.  

Our universities have collected hundred of billions from communists in China. Do you think Harvard and Yale are NOT preaching communist teachings?  Governors of some states are partnering with the Chinese, accepting billions in investments. Do you think this is just for fun? Infiltration. 

And you have the Bernienauts running around thinking they will actually get free college. What value is a degree if every American has a degree?  do you know what you get for free? Exactly that.   

Free healthcare? Why not take better care of yourself and it won't seem as important. Who ants free healthcare? Fat asses, smokers, druggies, people who want something for nothing.   Think people.   

You are being brainwashed every day. Do you know WHY orange man bad? Not becasue he's actually committed crimes against us but becasue the crooked game the politicians, Hollywood, the rich were playing is being DISRUPTED.   

Elizabeth Warren lied on her college application and job application. 

Bernie has never worked a day in his life and hasn't done shit while in Congress.

Pete is another come from nowhere, thrust onto the national stage, told he's another ""Obama"" as if that isn't a slur and people are rallying around him as if he wasn't hand picked to mislead you. He's just another puppet of the crooked swamp.  

Trump 2020, Stop the Corruption.  America First.  

My only regret is that as a Republican, I can only vote once.",fhpo7iz,Bacore,3wgqa
"You're not wrong.  I owned at the same time a m&p 9c 2.0, gen 5 glock 19, cz p10c,and a sig p320 compact.  The m&p is really the best of the bunch though the sig and cz aren't far behind.  There's really no good reason to spend the premium for glock when pretty much all the major competition is better.",zshguru,hta96,fhjigw3,"Basically,  every comparison video I have seen in then last year or so, has found the m&p 2.0 to be the best 9mm pistol at this price point. Around $100 cheaper then then glock with better made parts.",fhhf34z,workingA-aron,2zuzdeyt
Very well said.,zshguru,hta96,fhj0oyv,"r/politics isn’t even about politics. It’s not even about Democratic politics. It’s mostly an echo chamber for a bunch of broke Bernie supporters who want to differentiate Democratic Socialism, Socialist Democracy, Nordic socialism, and whatever the fuck form of socialism they decided to splice. 

Yea, the country is going to take economic and social policy advice from people who don’t even have their own shit together.",fhj0eo3,MGT01,vg059gi
That's cool.  I only asked because I had a weekend vehicle and it wasn't until I sold it that I realized just how much it cost me to keep all vehicle that I only drove a dozen times a year.  It also has sentimental value.,zshguru,hta96,fhhajfx,I sold one and I built the other. I'm attached to it and won't let it go.,fhfz8ad,Seethesvt,px7qf
"As someone said to me, it's not designed to be released like that.",zshguru,hta96,fhdxatm,I've burned through 350 rnds so far and that slide release is still hard to manipulate. Any advice on how to loosen it up.,fhdos3q,kp56367,x10spte
"Ah, that's probably why the slide is cut like it is for that release/catch b/c it didn't look like it could release.  Thanks mate!",zshguru,hta96,fhcy6m9,"Just so ya know, the spice lock is not intended to be used as a slide release on that particular firearm",fhcxxxc,thatotherguy8,2z4bfoll
"Yep, couldn't agree more.  I bought a shield 2.0 last week specifically based on that reasoning.  I'm sure the sig will be a great gun but the shield has proven to be a great gun.  Of course videos like [this](https://www.youtube.com/watch?v=GEYBItRtgyI) from Tactical Response also helped.",zshguru,hta96,fhctah8,"The M&P Shield has been around for longer, and thus, it has earned a reputation as a dependable gun in the subcompact category. We’re all aware of the issues the P365 had in the beginning, and although Sig has addressed those, if given a choice between the two, I’d go with the M&P Shield (which I own, by the way).",fh61pb8,tattedupboy,5n7svvyw
"Maybe.  It'll be closer to your body which helps a ton.  But every body and holster is different.  I had the bravo iwb you linked and could not conceal with it.  Somehow a Vedder lighttuck didn't though...same gun, same clothes, same position on body.",zshguru,hta96,fh9yder,Thanks! So will the holster fix my issues with printing?,fh9xjnj,TheodoreWolfe,2xkooyqf
"I can see that.  I got to handle all three yesterday and while they're all about the same size they all feel quite differently in hand.  [Guns America](https://www.gunsamerica.com/digest/sig-p365-vs-glock-43-vs-sw-shield/) has a nice table showing the differences in size.  The sizes are kinda all over with one bigger here but smaller there, etc.",zshguru,hta96,fh2qcom,I have a shield but I feel its bigger than these 2 mentioned.,fh2nmi4,Bizzyb843,goknk
It's not exactly clear.  The web page mentions new tooling so neither model will have the nato serial number stamp.  One of these days I'll email cz to clarify!,zshguru,hta96,fgrjbcj,"I might be wrong, the last time I looked into it beyond browsing was a number of years ago when I got my P01 omega, mine doesn't have a nato serial number so I assumed it wasn't tested or didn't meet the standard",fgrhfeh,aRampagingTroodon,1707ud
This is exactly why actual defensive pistol training is absolutely necessary!,zshguru,hta96,fgra7sh,"I came to the same conclusion after taking defensive pistol courses. For any drill in which you have to engage more than one target or you have low hit probability (like when shooting while moving) more ammo is always better. Even if you shoot only 6-8 rounds to complete the drill, having more has the side effect of allowing you to focus more on shooting and the target, rather than also have a small part of your mind distracted by the thought that you may need to reload soon.",fgqe11y,El_Zalo,ku3wk
"As far as the omega and nato testing...the web page for the omega talks about the testing so I'd have to assume it has or that's false advertising.

But if you can get the og model.  It's so cool having a commie gun with a nato serial number on it.  Plus the trigger is better IMHO.",zshguru,hta96,fgr9xw6,"I carry a P01 aiwb with sidecar and a wml  as far as the weight and size go I don't really notice it, but for what it's worth, I have also been carrying it for three or four years now so I might just be accustomed to it. 

If you do go for a P01, I don't believe the P01 omegas meet the nato testing  which didn't bother me but since you mentioned it as a quality you liked i thought I'd bring it up. As others have said you'll want to change the rubber grips, but also the rubber base plates on the magazines other wise they'll just grab at your shirt all day and you'll print like crazy. They do run a round short compared to other pistols but if you have an sp01 you could always  use one of those magazines as your back up magazine and the smaller capacity is no longer an issue.",fgr8t9o,aRampagingTroodon,1707ud
Everybody is different But my experience is the clip on the Vedder lighttuck is very sturdy.  It's not going anywhere or flopping around.,zshguru,hta96,fgo8vr3,I actually ordered this one yesterday because I havent owned a full kydex yet.  I've been using the aliengear cloaktuck for a while and didn't know if since the compact is bigger(than my shield) if I should stick with the hybrid with more support,fgo85bo,thewrongbaron,1e3od0a1
I believe so but I'm a Missourian.  Will need a Kansas pede to confirm.,zshguru,hta96,fghfrj8,I would assume a huge contingent in Kansas as well?,fghey0x,dakin116,mda7g
That's so bizarre!  Wonder what's going on there.,zshguru,hta96,fg77fpl,That’s the issue I have been in contact with them via email! Haven’t had any success with them at all. Mainly have just lied to me about shipping dates.,fg6x1t2,Andrew199722,47zcs5t8
"I wonder if you got an old set or a bad set?  My tfx truglo's are significantly brighter and bolder than the xrays on my legion p229 -- and those sig xrays are pretty nice.  Come to think of it, they're probably my second favorite type of pistol sights.",zshguru,hta96,fg2iwki,"I've noticed both the CZ stock sights on my P-09, the sights on my buds G19, his xray3's on his P320, my 2016 P938 stock night sights and novak tritium on my 2011 all glow way brighter.
  
Also try it with a weaponlight or bright flashlight. You'll see they wash out compared to fiber optics, which is horrible for CCW (hence why I'm posting here). Most bad shit happens at night and that's when you'll need a flashlight the most. If the fiberoptics would actually pick up backsplash then I'd be okay with the dimmer glow in darkness compared to other night sights but that makes it just a worse day sight and worse night sight than either option.
  
RDS as long as you have it adjusted for light use is the best, provided you aren't like me and genetically inferior. But that's personal preference, I'm not willing to completely retrain myself for to shoot with something that my eyes will still get all fucky with.",fg1kwi3,Asymtech1,1xv9wwxf
Her ass gives me wood,zshguru,hta96,ffs07jl,Pam took the wood  to their asses.,ffrxgl5,soldio101,30hqxbsd
I knew the hunter thing was bad but not this bad.  How could a president not look into this?,zshguru,hta96,ffs06s1,"Oh my

Impeachment over. She just devastated the Biden’s and Dems",ffrx828,PropellerPowerCurve,48l5pri9
Best way to save money and lose weight all in one post!,zshguru,hta96,ffb8e7s,Totally agree with this 100%.  We just find ourselves saying no to a lot of things and staying out of Walmart and Target.  We even shop online for groceries and just pick them up at the curb so we don't have to go in.,ffb85ss,AnchoredMech,1ppy9ru7
All they need is Jimmy's or Eddie's signature on the bottle.,zshguru,hta96,ff3uodb,"They don’t seem to understand new labels/bottle shapes aren’t what we’re asking for from this brand.

They do a hundred things right but their “branding” people may want to do some new focus groups.",ff3p9jh,jdpaq,12gl30
Same they run slightly narrow.  I went with regular width and find by the end of a long day my feet have swollen just enough they hurt in these boots.  Specifically the awesome stitching on the moc toe digs into my foot.,zshguru,hta96,ff1q7dq,"Hello all,
I purchased my first pair of Thorogood Moc Toes recently so I wanted to give my first impressions. I’m not an expert boot guy, so take what I say with a grain of salt. 

First a little background. I have been searching for a work boot for some time now and based on my research, this was the best bang for buck boot I could find. I didn’t want to spend a ton of money since these would be used for work in the field, but I also didn’t want to buy cheap low quality boots that wouldn’t last. I thought these fit the bill perfectly. I really liked the Red Wing Moc Toe but didn’t want to spend nearly $300 for those. I also heard a lot of stories that those soles wear out very quickly. Once I came across the Thorogood brand which I wasn’t too familiar with, the great reviews and price sold me. 

Sizing
The sizing on these was extremely odd for me. A ton of people online said these ran large and that you should size 1/2 to a full size down. I found this not to be the case for me. I have never considered myself to have a wide foot and consider my true size to be 9. Long story short, the size 9s were extremely tight on my forefoot, but the 9.5s were much too long. After trying on 3-4 different pairs of both D and EE sizes I went with the 8.5 EE and those fit perfectly. (I still refuse to accept the fact I have a wide foot)

Style 
I think these boots look great. As mentioned above I’ve always been a big fan of Red Wing Moc toes so I really like the look of these as well. I really like the branding on the heel. I wasn’t too sure how I’d feel about the “USA” tag, but in person I don’t mind it at all. I wore these out casually the first day I purchased them to see if any break-in was needed and I loved how they looked with dark wash cuffed jeans. I’m tempted to purchase another pair to keep as a casual pair if these get too roughed up. Even my girlfriend, who thought these were strictly work boots, really liked the look of them being worn casually. 

Quality
The leather feels great on these. There’s definitely a lot of variation in color and texture but I don’t mind it. I’m sure I can even out the color if I were to condition the leather. The stitching is really well done and it was difficult to find any imperfections all around. The soles seems to get dirty pretty quick but that’s expected. 

Comfort
The boots were very comfortable out of the box.  I wore them out of the store and my feet felt fine the whole day. I have yet to wear them for work for a long period of time, but I have no complaints thus far. 

Overall I’m really happy with these and can’t wait to put them to good use. These have made me like the moc toe silhouette even more and I’m looking to try out the Thursday Boot Diplomat as a sleeker option. Thanks for checking out my first impressions! Enjoy the photos!",ff0u6w5,FriscoFlo,zz8cw
"I had my cz p01 in mind when I wrote that as that was the gun I needed work on but couldn't find a gun smith willing to touch it.  Ended up YouTube'ing it and ordering parts from cz.  Everyone said they didn't work on cz so I'd assume the p10 line would also cause me problems there.  My p10c has been flawless so far.

I've seen sig mags in stores and around the $30 range.  Can't see I've seen any hk mags in a store.  Heh I was training yesterday an hour from my house and I realized I didn't pack any mags.  Luckily I had my m&p because the range pro shop only had glock, m&p and sig mags.  I would have been going home had I brought my czs.  Its those experiences that push me to really only use super popular mainstream brands and models.  Got tired of fighting unicorn problems.",zshguru,hta96,feyohgw,"Are you talking about the CZ P10C? I always wondered about the internal mechanism on those guns. From what  i've lightly read it should be very similar to Glocks considering some call it a ""Glock clone"". 

That's true that the Sig P365 series are more popular but there shouldn't be any problems finding holsters for the VP9SK. Magazines from what i've seen aren't hard to find either but they are pricey. I'm assuming Sig mags can't be as cheap either?",feymsvz,noobiam88,5fk0gj8
It's amazing how hard work becomes intoxicating and you want to keep at it.,zshguru,hta96,fefc75y,I worked three jobs to get out of BS2 and BS3.  Quit a few months ago and went down to 2 jobs as I am in the long portion of the steps.  Started my 3rd job again last night.  Need to get that house paid off.  LOL,fef6col,Fish6092000,imal5
Thanks!  I wish I could get it to 50 or 51 but I just can't lol.,zshguru,hta96,feezg9g,48% of your income into retirement... very impressive!,feezdhj,watchoutforsnakes88,534xfdch
\+1 for the suspenders recommendation.  We fat guys already have problems keeping your pants up and wearing heavy guns on our belts does not help the situation.,zshguru,hta96,fec2mma,i'm 6'1 315 lbs.  I 4 o'clock a sig p365.  a good belt and suspenders helps a lot since usually when you're fat you've got nothing keeping your pants up.,feabbod,PrayingForSevens,3fbjimq0
"\+1 for suggesting to wear pants at the proper location.  CCW aside, wearing pants at the proper height is sooo much more comfortable.",zshguru,hta96,fec2agt,"I'm 6'1 and 315. I carry on the hip-ish. Best advice is to buy bigger pants and wear them at your waist instead of underneath your gut. You'll feel better, look better, and won't have thigh chaffing. After that, be sure to have a nice STIFF, thick, and wide belt. This alone, IWB, will be a godsend for you, both comfort and ability to draw.

Appendix ain't gonna work as a fat man while wearing your pants properly. ((and, no, your current ""waist"" is not your waist, OR your waist size. Waist = Bellybutton. Hips = just above FUPA.))

If the gun or holster still fuck with you like this, stick the whole getup between your pants and belt. If that doesn't work, pocket carry. The best ""upgrades"" to your carry gun will be either a thinner one, a lighter one, or both. Shoot for 1 inch wide or less, and 24 ounces unloaded or less.

As far as revolvers go, .327 federal magnum gives 9mm 4"" barrel level bang with less recoil than .357 or .38. Not to mention that would be out of a shorter barrel than 9mm. Not to mention the +1 capacity per cylinder size of .327 fedmag. Not to mention the .32 H&R magnum, 32 long, and 32 short that can also be fired out of it.

Or, if you're willing to chance some rimfire unreliability, .22 magnum is cheaper and provides 5.7x28 esque performance.",febi42m,Drunken_Hamster,e6h17j
Totally agree with you on this about sig!  Kinda funny how sig's first poly gun had problems but cz's first poly gun didn't (other than an issue with a tough magazine release).  Both really only had a history of big metal DA/SA guns before but somehow cz made a good product.,zshguru,hta96,fdyb4pk,"My decision? Fail once, fail again. I don't trust a gun that has a reputation for failing even after multiple send ins to manufacture. Also, they stated it's not an issue but they ended up changing the design. 

The sig p320 had issues. P365 had issues. Sig should just stick to metal frame guns. 

This post sounds like I'm preferring Glock over sig, which I mean, yes. Glock poly guns are better than sig poly guns. 

But in reality. CZ for life. 👍",fdtkgnd,DillIshOn,ntd7b
"THIS

Every single point is spot-on.  The only thing I would add is to refine the training suggestions to include a series of defensive pistol training that will teach you how to fight with a gun, take a low light course, and take a combat trauma medical course (not basic first-aid, you want a class specifically for treating gun shot wounds). (This is \~40 hours of training)",zshguru,hta96,fdm80ye,"To quote one of the most intelligent people I know on the subject, “ Buy a Smith and Glock 320 SK”

In other words, buy a mainline handgun with lots of support from a major manufacturer, a good quality set of sites that you can see, a bunch of magazines and training ammunition. Buy a high-quality holster from a reputable manufacturer Like dark star gear, PHLSTER or something like that.  

Focus on fundamentals like draw stroke, he, reloading an empty handgun and the ability to shoot at a reasonable speed well keeping good accuracy.

Keep away from lower quality brands and guns that are not used by major law-enforcement agencies because they are uninvited and there is probably something about those guns that make them unsuitable for their intended purpose.

Join a shooting sport like IDPA or ISPC so you can practice regularly under stress. Also, take lessons on a regular basis from reputable instructors.

Also, there are no secrets in this field or Shortcuts. There may be ways to shorten the learning curve but anyone who tells you they have all the answers or can give you secrets is selling you something you probably don’t want to buy.",fdkp05y,WalkingDisaster1001,4w4ch7ky
"Size is one quality.  Smaller guns are harder to shoot regardless of shooter skill.  Larger guns are easier to shoot.  For learning, assuming average sized man hands, a full sized gun is going to be easier and then when you have sufficient skills the transition to a smaller gun won't be as difficult.  Less recoil, easier to control, easier to manipulate, etc.

Another quality I look for is popularity and reliability.  Odds are if you're a beginner, you're probably not comfortable doing your own gun smithing and some brands (like my beloved CZ) can be difficult to find someone local that can work on it.  I would stick to the more popular brands like glock, sig, and s&w because it'll be easier to find help when you need it locally.  Glock, Sig and M&P are good to go guns that you can trust your life with right out of the box.

[This video](https://www.youtube.com/watch?v=erejjFtnz64) has a pretty unique take on the question ""how do I choose a defensive firearm.""  This guy knows his shit.",zshguru,hta96,fdfwour,What qualities make a gun suitable for someone more advanced and why are those characteristics considered advantageous compared to a something considered a beginner gun?,fdfein6,blackjaq_12,30e46edw
"Thanks.  I just assumed it was an epic bit of ""fan service"" where C3P0 basically didn't remember anything from this trilogy.",zshguru,hta96,fdf5p17,"He was talking about getting to join them on the adventure they just went on. 

Basically the events from TRoS.",fdf5gpe,tanders04,khch6
"I originally read ""head and penis"" lol",zshguru,hta96,fd6ujo4,"Im just curious to know , with influx of body armor and it becoming so affordable and available how many people have changed their training from center mass to head and pelvis ?",fd3nt2z,brunny75,2hz5w7tx
Oops I looked at the p09.  You're totally right,zshguru,hta96,fd4906h,Not according to the specs on CZ's website. Though it feels like it's more  than the listed less than an ounce difference.,fd3nfj3,cbrooks97,umu31
"Edit: I was wrong, p07 is a bit lighter than the p-01.",zshguru,hta96,fd2mh1a,"I love my P-01, but if it's too heavy, go with the P-07. The shape is a little different, but it's still a great gun.",fd29clk,cbrooks97,umu31
"Ditto.  As far as YouTube goes, John is one of my favorites.  I feel I get more quality information out of him than anyone else on that platform.  FWIW [this](https://www.youtube.com/watch?v=erejjFtnz64) is my favorite video he has and feel it summarizes his teaching style well.

Be sure to subscribe to both of his channels, Active Self Protection and Active Self Protection Extras.",zshguru,hta96,fd2jwp3,"These *Active Self Protection* daily uploads on YouTube have been invaluable as a resource for CCW preparedness and learning from others. In case anyone isn’t familiar with them, I highly recommend checking them out/subscribing.",fd02zlx,Nonious,sxdo5
"You're most welcome.  

One thing I'll mention in case you didn't know...the firing pin retaining pin is known to break due to dry fire.    Supposedly using a snap cap or putting a rubber oring on the back of the slide where the hammer strikes can help prevent the breaking.",zshguru,hta96,fcz8rwc,"thanks for the info! made sure i got the non omega so hopefully it will be bulletproof. if not, i should have the full CZ warranty since it’s new from a retailer. 

Forgot to touch on mags! figured it’d take the 75 mags as well, so gonna be looking for some of those on r/gafs.",fcz4k8r,dontblink182,6lcop
"I believe it takes the cz 75 compact magazine but I don't know if it would accept a regular fullsize cz 75 magazine.  If it does that's awesome.

If your local gun store carries cz 75 magazines that's awesome and I'm a bit jealous.  Hell I'd tickled to see ANY accessory for ANY cz pistol.  I've only seen glock (obviously) and sig magazines (226/229/320) in any of my LGS.  Not even m&p mags.",zshguru,hta96,fcyz30y,"I always just assumed that the P-01 and SP-01 could use regular 75 mags, like the 75 Compact, PCR, and RAMI. Is this not the case? Because I find 75 mags in brick and mortars all the time.",fcyyh8x,Shour_always_aloof,10ax44
Can't just buy one cz.,zshguru,hta96,fcv24r2,"If you want to go down a very expensive rabbit hole pick up a CZ pistol, anyone will do but the hammer fired ones are my addiction. 1911 style pistols are also a pretty slippery slope.",fcuxodd,ANARCHISTofGOODtaste,3vum1ig7
"Huh, I would disagree.  At least with my stock 2.0 and cz p-10c the m&p trigger is smoother, crisper, has a better defined wall, and zero play.  Once you break that wall it's bang.  The cz has a bit of play.  The smith does break further back which took some time to get used to but it feels like a better trigger to me.  Both are great though.  Both are AMAZING when compared to the shitty ass glock trigger, even gen 5 sucks ass in comparison.",zshguru,hta96,fc438z7,"Even gen 2 triggers are nowhere near as good as the apex. U pick out 10 polymer pistols, the smith is bottom tier trigverwise.  Apex trigger puts the Smith up there with the cz p10c and walther ppq triggers.",fc38p4c,swissk31ppq,28pfotjf
"I agree, the stock trigger is pretty damn good.  Beats the hell out of any glock trigger by leaps and bounds.  Beats the cz p-10 and sig p320 triggers too to round out probably the most common striker fired guns.",zshguru,hta96,fc431bx,"I own this gun and have over 5,000 rounds through the stock trigger. It works well enough that I don’t really see myself upgrading. Needing an after market trigger is a stigma carried over from the 1st gen I think. 


Merry Christmas though! Good first gun, welcome to the club!",fc34tjv,BigAngryPolarBear,i1525
