category,comment_body,parent_body,poster_name
@AndrejBabis,@AndrejBabis @GiuseppeConteIT @MorawieckiM A?👎😏,Telefonoval jsem s italským premiérem @giuseppeconteit a polským premiérem @MorawieckiM o situaci s koronavirem. Sa… https://t.co/aCxWHFYw8z,1081229879109128192
@PiratIvanBartos,"@PiratIvanBartos @ZuzanaCaputova Už, už jsem to chtěl lajknout...a v tom jste do toho zamotal ten blábol s… https://t.co/FA424S2tGe","Zítra budou naši nejbližší sousedé volit nové složení Národní rady. Přeji jim ze srdce, ať dají šanci lidem, kteří… https://t.co/nioSfhG4IR",1081229879109128192
