category,comment_body,parent_body,poster_name
@PiratIvanBartos,@PiratIvanBartos @IvoZelinka A dva roky starej tweet? https://t.co/6pTOth7pNe,"Izrael je náš důležitý partner a přítel České republiky. 11 let starý screenshot, na kterém Tomáš Tožička dle mých… https://t.co/wpfsOKWz17",1556903462
@PiratIvanBartos,@PiratIvanBartos @honzabartosek @PiratskaStrana Zkuste v Teplicích navrhnout Adama Bartoše! Třeba si ho lidi spleto… https://t.co/aXYaYdjAdV,@honzabartosek @PiratskaStrana Izrael je náš důležitý partner a přítel České republiky. Toto je 11 let starý screen… https://t.co/BGFmunHQCn,1556903462
