category,comment_body,parent_body,poster_name
@PiratIvanBartos,@PiratIvanBartos Využít energie Milionu chvilek.,"Slovenské volby nám také ukázaly, že se liberální alternativa musí jasně a dobře profilovat, aby uspěla, a tuhle le… https://t.co/pMpzTFSK50",21079246
@PiratIvanBartos,"@PiratIvanBartos Piráti mají dobře našlápnuto, ale potřebujete mnohem širší a lepší inovativní kampaň typu door to… https://t.co/nF2wzetk0G","Slovenské volby nám také ukázaly, že se liberální alternativa musí jasně a dobře profilovat, aby uspěla, a tuhle le… https://t.co/pMpzTFSK50",21079246
