category,comment_body,parent_body,poster_name
@PiratIvanBartos,"@PiratIvanBartos @Radiozurnal1 Ať na ty standupy (tiskovky) nosí ta jejich sestava roušky. Ať jdou aspoň příkladem, když se jim dílo nedaří.","Dnes jednáme s premiérem. naše návrhy míří do těchto oblastí:

👉Dostupnost zdravotnického materiálu
👉Léky v lékárná… https://t.co/5faEB6iTUM",2480372604
