category,comment_body,parent_body,poster_name
@PiratIvanBartos,"@PiratIvanBartos Ombudsman je mimosoudní kontrolní úřad, který je státem pověřen k řešení stížnosti jednotlivců na… https://t.co/nI9LyuieDC","Špatná zpráva. Ombudsmanem byl zvolen pan Křeček. My volili Schorma  dle podpory našich senátorů.
Lidé by si zaslou… https://t.co/I99yoefcGd",2547373766
