category,comment_body,parent_body,poster_name
@kalousekm,@kalousekm @CzechTV https://t.co/e68fS43ycQ,"Oč je hnutí ANO ve vládě méně schopné zajistit včas testy, roušky a respirátory, o to je ve sněmovně více schopné z… https://t.co/qHE1GFf9yJ",2769019151
@PiratIvanBartos,@PiratIvanBartos https://t.co/NiDZW95YPX,"(Opozice se sjednotila, shodla na několika jménech, ale ANO se nebylo ochotno dohodnout. Zájem strany je pro ně mnohem víc než zájem země.)",2769019151
@PiratIvanBartos,"@PiratIvanBartos Nezapomeňte to nahlásit do Bruselu, to umíte moc dobře.🤮👎😵","(Opozice se sjednotila, shodla na několika jménech, ale ANO se nebylo ochotno dohodnout. Zájem strany je pro ně mnohem víc než zájem země.)",2769019151
@AndrejBabis,@AndrejBabis @Mimoradnazprava Stejně to tak časem budete muset udělat.,"Někdo šíří po Facebooku nepravdivou zprávu, že budeme zavírat obchody. Není to pravda, nic takového jsme neřekli a… https://t.co/GKV8BWPAMg",2769019151
@tomio_cz,"@tomio_cz Ať si udělá nejdřív pořádek doma a potom se může rozhlížet, jak to dělají jinde a lépe. Zmetek.🐮😥🤮😵","Neskutečná arogance a drzost. Francouzský prezident Macron zkritizoval ty země EU, které uzavřely hranice! Připojil… https://t.co/UEOARS848J",2769019151
@kalousekm,@kalousekm @ivan_pilip @MirekTopolanek Asi tak. https://t.co/qFG3OHbSgF,"@ivan_pilip @MirekTopolanek Národ, který se dokázal vyrovnat s neschopností svých lídrů zajistit mu ochranné zdravo… https://t.co/MMq2ubRJTb",2769019151
