category,comment_body,parent_body,poster_name
@adamvojtechano,@adamvojtechano Kvuli skoro chripce znicite ekonomiku a zivoty statisicu lidi. Data jsou v jasnem rozporu s vasimi… https://t.co/qJeTBZKYWR,"Současná epidemiologická situace vyžaduje, abychom nadále nechali zavřené obchody, omezený volný pohyb a také omeze… https://t.co/QRXYfRgCAi",28559086
@PiratIvanBartos,@PiratIvanBartos @UniverzitaTBati A přitom by stačilo dělat to samé co funguje a je používáno v Asii a sice podávat… https://t.co/ztkIaMZW5f,"Chcete pomoci hledat lék na koronavirus Covid-19? Nemusíte být vědci, stačí nabídnout nevyužitý výpočetní výkon vaš… https://t.co/OJGGvgRjk9",28559086
