category,comment_body,parent_body,poster_name
@PiratIvanBartos,"@PiratIvanBartos Tak či tak bych to viděl na postupné uvolnění zákazů, ale pod podmínkou, že se budou muset nosit o… https://t.co/u2FN3fbxlz","Lidé u nás jsou solidární a dokážou pochopit, že je v kritické době nutné fungovat v značně omezujícím režimu. Pro… https://t.co/MyXihjb7Xo",785820143230210048
@PiratIvanBartos,@PiratIvanBartos @PiratskaStrana Oof. Ideálně by měli podnikatelé a firmy lobovat jen přes veřejné meetingy. Ale to… https://t.co/loJKWtqLcN,"Piráti již několikrát vyzvali české úřady, aby dodržovaly české a evropské předpisy ke střetu zájmů. Apeluji nyní s… https://t.co/e3YNkdtt3a",785820143230210048
