child_body,child_screen_name,child_user_id,child_tweet_id,parent_body,parent_tweet_id,parent_screen_name,parent_user_id
Arent you tired of losing?,Absolute_-_-_UNIT,4bfthftz,fjfg3yr,Do progressives have a place in this country?,fjffy2w,Harrison19m,dvjlb
Welcome to most achievements in wow,Absolute_-_-_UNIT,4bfthftz,fiw1qsg,"I guess, but I never see SGC and think wow what a legend

I think wow how lucky/what a desperate idiot",fivs25b,Flexappeal,83l3e
Welcome to wow,Absolute_-_-_UNIT,4bfthftz,fivr1mv,"""look i did the same exact skilless instance run 400 times, respect my status""  ???  

ITT everyone replying to me: ""THATS THE GAME BRO. I am intelligent.""",fivqxzs,Flexappeal,83l3e
Status symbol,Absolute_-_-_UNIT,4bfthftz,fivj6rx,SGC is like 6 dps better than cadaverous chest lol,fivfouq,MightyMorp,1672fi
"Admins cucked the comments, what did it say?",Absolute_-_-_UNIT,4bfthftz,fivgip1,Imagine if we filed a class action against these faggots. Mommy might have to kick them out of the basement to find a real job,fiuvaor,Perziant0ker,osn1z
">faggot

Btw reddit admins he means a bundle of sticks, don’t be little faggots about it by purposefully misinterpreting what he said",Absolute_-_-_UNIT,4bfthftz,fivggnr,"this faggoty shit right here:

&#x200B;

>Not have more than 500 karma in quarantined subreddits (aside from the\_donald) or subreddits banned for rule violations

either you are for free speech and think quarantines are bullshit, or your a faggot cuck. there is no middle ground.",fiut2g6,anotherthroawy,4qxm1yl9
False,Absolute_-_-_UNIT,4bfthftz,fitvnsd,Lmao. You skipped history class every day of your life.,fitukvz,fogwarS,2c6x1n9x
Lies,Absolute_-_-_UNIT,4bfthftz,fiofv9n,I... I'm on my 3rd alt to 60 and didn't know this existed. Holy shit.,fio96no,Pynapl,cvm60
"There’s been plenty of times I’ve wondered if I had time to mess around with banking/AH housework before hopping on the zep, especially when trying to get to an instance with party members on the way",Absolute_-_-_UNIT,4bfthftz,fioalgu,"This is awesome


I mean I'm not exactly sure it'll ever be useful for me to know this info, it's still really cool though.",fio3mjl,Tekn0de,13b2iv
Shitters like you are the absolute worst,Absolute_-_-_UNIT,4bfthftz,fiena3v,"Abilities and classes in vanilla are not really balanced, he used a potion to become immune and started blasting AoE spells/bombs until they were dead

I'm simply saying anyone with half a brain could this this, vanilla pvp is overrated",fidu1l5,MacTrackB,3mskvabs
"I am super pro meme on principle even though I dont think the memes are all that good lol

&#x200B;

Edit: I would be in favor of ""memeless sundays""",Absolute_-_-_UNIT,4bfthftz,ficf1bc,Agreed! I’m enjoying the meme content. I like popping open this page to find a good few laughs in just a few scrolls,fi80gmu,owoah323,3eiyen83
but... REEEEEE IM SMARTER THAN EVERYONE AND KNOW WHAT SHOULD BE ON THE SUBREDDIT I HATE THE VOTING SYSTEM I HATE IT I WANT TO BAN ALL MEMES CUZ MY TASTES ARE SO MUCH FINER THAN PLEBBITORS REEEE MAKE THE MEMES STOP,Absolute_-_-_UNIT,4bfthftz,fice4do,I missed the WoW memes,fibyivz,TheRedmanCometh,elosw
Nope,Absolute_-_-_UNIT,4bfthftz,fi8wcrf,Really? Then you must be QM only.,fi8w4hg,Kotlolish,2yi0jh92
Ok boomer,Absolute_-_-_UNIT,4bfthftz,fi7ejuj,"Sounds like zoomer talk to me.

What can you expect from a Trumper though?",fi4mbuy,Stingray88,346h6
Lmao this is nuts,Absolute_-_-_UNIT,4bfthftz,fi4ir23,">You're not being malicious whatsoever, who am I to think that. I did read your comment and whatsoever appears unnecessary in my eyes. You can remove that word, have the same impact without coming off condescending. If you have the comprehension to understand that I am trying to do the same thing by improving the community through improving the awareness of a hero that doesn't get much love, then comprehension is not your forte. Just go back and re-read this comment and notice I'm not being salty, condescending, or thin skinned in this post. If you take this post any other way, then you are being thin skinned from my directness. Its funny how logic can be applied anyway you want to a situation, isn't it?

Imagine being so thin skinned you get butthurt over ""whatsoever"" and write an entire paragraph of passive aggressiveness.

You seriously need to grow a thicker skin kid.",fi4fbxr,EvenHeroes,2iltxfg1
"Boomer isn’t an age it’s a mentality


Boomer",Absolute_-_-_UNIT,4bfthftz,fi4hxdp,I’m 32. That puts me square in millennial territory.,fi4htxj,Stingray88,346h6
