child_body,child_screen_name,child_user_id,child_tweet_id,parent_body,parent_tweet_id,parent_screen_name,parent_user_id
Hi pede 👋,ChironInTheSky,704b7xo,fjeo8eq,Hi,fjec4i7,Whynotminot6969,xp4eh
T_D is my home too!  I’m in for the long haul.  God Bless you maga_espanda and all the pedes on here.,ChironInTheSky,704b7xo,fjbs6cd,Maybe I am old school but TD is our home. We should fight to keep it. Also it is much nicer to scroll through TD on Apollo then Safari.,fjbrbju,maga_espada,q0jp732
Thank you!  Good to have a news link on here!!!!,ChironInTheSky,704b7xo,fjbrw60,"MSNBC's Chris Matthews resigns from 'Hardball,' apologizes for inappropriate comments

https://www.usatoday.com/story/entertainment/celebrities/2020/03/02/chris-matthews-resigns-hardball-msnbc-following-allegations/4907195002/",fjbrf5l,ontothefuture,12r9k3
Saved.  Hope we have other checking in.,ChironInTheSky,704b7xo,fjbi1qg,"It seems all posts are locked but this one, even Tom Fitton's new one.",fjbcvrp,KrakNup,3u6za
"Yes, definitely the money.  It will be interesting to see where Schumer’s virus cash grab ends up!",ChironInTheSky,704b7xo,fjaji1m,"""... there might be some connection with those cities and the virus....""

And the money...",fjagbus,KrakNup,3u6za
Very interesting.  It makes me think there might be some connection with those cities and the virus....,ChironInTheSky,704b7xo,fjaf4si,"I found this interesting - https://imgur.com/a/63ElTEj

https://imgur.com/a/PvOAzwJ and https://imgur.com/a/qHt4RqO",fjaepl8,KrakNup,3u6za
I know.  I’m not leaving.  Rally tonight in NC!  So I’ll be sorting by new and commenting.  MAGA  KAG,ChironInTheSky,704b7xo,fj9w4ok,TY ♥️ wish i could have had it with a unified TD fam.,fj9v24f,DragonsAndDiamonds,3bwtf3kq
Happy Cake Day!,ChironInTheSky,704b7xo,fj9uq73,I feel like the mods just gave up.  ☹️,fj9onn4,DragonsAndDiamonds,3bwtf3kq
I’ll stop by for lunch next time I’m in Tucson.  Gotta support our good folks.,ChironInTheSky,704b7xo,fj6ncop,https://www.kold.com/2020/02/29/restaurant-owners-face-backlash-supporting-trump/,fj65d6e,Bailliebugs,79yv5
Great video.  That’s for posting.,ChironInTheSky,704b7xo,fj6mvd9,"They know [""Without Free Speech, We Can not Win. With Free Speech, We Can Not Lose""](https://www.youtube.com/watch?v=b3FcCs0v7SI)",fj6hbnz,incomplete,3dbse
This^,ChironInTheSky,704b7xo,fj5pc81,"Everyone, don't forget to change your donation "".smile"" link on amazon to judicial watch if you use amazon. Easy way to support Tom's work

SPEZIT: And then don't forget to get the chrome/firefox/etc extension that will change all amazon links to .smile links",fj5o7ea,TinkleTinkleLittle,5ap8cf8t
Ridiculous bullshit,ChironInTheSky,704b7xo,fj5nhs2,It is utter bullshit,fj5lduf,MAGA-Lady-Ok,4gqt4vuu
Same here.,ChironInTheSky,704b7xo,fj5n3l4,I was able to comment on this one post only.,fj5lljq,MAGA-Lady-Ok,4gqt4vuu
Thank you Tom!  Great speech!,ChironInTheSky,704b7xo,fj5mspt,"My Judicial Watch Update from CPAC https://youtube.com/watch?v=ABZBRR6-kQ4

And my speech: https://youtu.be/jtfMKSjWf8A",fj5lyx4,TFittonJW,7wo4uqg
Thank you Tom!  Great speech.  Your post here are the only way we can comment and share links.  Please continue to post!,ChironInTheSky,704b7xo,fj4i08q,"Not backing down:  [https://twitter.com/TomFitton/status/1233844584087728132](https://twitter.com/TomFitton/status/1233844584087728132)

Here's my CPAC speech for those thirsting for traditional content on the current crisis:  [https://www.youtube.com/watch?v=jtfMKSjWf8A&feature=youtu.be](https://www.youtube.com/watch?v=jtfMKSjWf8A&feature=youtu.be)",fj4fh0d,TFittonJW,7wo4uqg
True!  Poor Nads is worried about what will be revealed.  He should be!,ChironInTheSky,704b7xo,fj4c4vk,"Hahaha, you bet Nadler  wants Durham to testify.  It's just killing him not knowing what's going on in that investigation.",fj4bvqk,The_Litehaus_Abides,tenmq
