child_body,child_screen_name,child_user_id,child_tweet_id,parent_body,parent_tweet_id,parent_screen_name,parent_user_id
We’ll get some sick Daddy tweets out of that though and the accompanying seethe,D4rkd3str0yer,9mc0u,fjfw4sn,Definitely Biden in the primary. They’ll just go with boring “rigged system” shit if the convention is contested.,fjf3u9u,1-900-FREE-AIDS,4cj5fxpg
We have relocated to http://thedonald.win,D4rkd3str0yer,9mc0u,fjdegr5,What is happening with the  the_Donald administration?,fjcjgau,IceKingof74,t294p
"No need, MAGA on. Join thedonald.win.",D4rkd3str0yer,9mc0u,fjchryj,I apologize,fjchl11,IceKingof74,t294p
">was literally mod for 4 years

you have the post history of an average redditor, I would honestly rather be a fake conservative than that",D4rkd3str0yer,9mc0u,fjchdbn,"I went through your history, you seem like a fake conservative cuck",fjcbg6q,IceKingof74,t294p
That's due to the quarantine. Restricted mode refers to what people can and cannot post.,D4rkd3str0yer,9mc0u,fjc04mo,"What is restricted mode? Is that why my own personal homepage doesn't show a single post from the Donald, nor does it show up in my own subbed list? Is that why I have to actively search out the sub, which I am already subbed to just to see content?",fjbu4ah,Det_Richard_Nipples,f3icl
Pretty much.,D4rkd3str0yer,9mc0u,fjbzzjr,Probably so that they would be in this exact situation where they are not capable of moderating an open subreddit,fjbwase,jefeperro,92jm6
"they were all the way at the bottom, downvoted to oblivion. 

I'm surprised I wasn't on the list. My account meets all the criteria.

1. Over 1000 karma, 500 on T_D, <500 on other quarantined subs
1. Has not been suspended within the past year
1. Is not an alt of an ineligible account.

I wonder why they didn't include me????",D4rkd3str0yer,9mc0u,fjbzyh0,how the hell was there 36 people approved in that thread,fjbwgtp,behemoth887,77qqo
"Unfortunately for us, the admins weekend starts on Wednesday. And of course they have *so much work* to do until then, which puts their decision two weeks from now at the earliest.",D4rkd3str0yer,9mc0u,fjbzsby,I wonder how long this process will take.,fjbwd5x,parrot157,gswyd
no,D4rkd3str0yer,9mc0u,fjbzop9,So you guys are going to hand pick fake conservatives,fjbwu3u,IceKingof74,t294p
> Please visit https://canary.thedonald.win/ - if that page or this sentence are changed then the Admins have taken over r/The_Donald and silenced our free speech.,D4rkd3str0yer,9mc0u,fjbzo8v,Notice that this post doesn't say new mods need to support Trump. There's something fishy going on here.,fjbwppk,Hlodvigovich,nidbyaf
"It's already gone. If the admins install their own liberal mods, all of a sudden the internet's largest pro-Trump forum will take a 180 overnight and start shitting on him. It happened with redacted, it can happen here too.",D4rkd3str0yer,9mc0u,fjbzkou,I don't want this place to die! Letting this place go would be a victory for the leftists!,fjbww0y,Rogue_Leader_X,4z3uu6r
/s,D4rkd3str0yer,9mc0u,fjbzd9q,Well after accepting the admin approved mods reddit would have no reasoning to quarantine us anymore I’m sure they will clear that right up.,fjby0bf,jp3592,jnd6f
you have to go back,D4rkd3str0yer,9mc0u,fj9zmow,I am pretty sure this is fake. Someone on twitter pointed out that the sewage system should not force orbeez out of a rainwater drain.,fj9g90d,atblanton78,z26w8
"yeah it’s botted pretty bad, I’ve had over 100 downvotes in like 3 minutes before",D4rkd3str0yer,9mc0u,fj6t1cm,"https://www.reddit.com/r/politics/comments/fbmblb/megathread_joe_biden_wins_south_carolina/fj5xrcx?utm_medium=android_app&utm_source=share

Jesus christ, -13 in literally 30 seconds.",fj5xw38,Tonygillard,qojdi
"I hope your grandma kicks it soon, she sounds like a net drain on society",D4rkd3str0yer,9mc0u,fj6sa0v,">	oh no my grandmother who hasn’t left the house by herself in 40 years and doesn’t ever go to the doctor and owns her own house and pays for everything in cash and doesn’t collect SS and doesn’t have a phone or internet and lost her birth certificate and never had a driver’s license and lives 100% off the grid won’t be able to vote unless they fill out a form!!! 

A vote denied is still a vote denied. Especially when it’s for a fictional issue as voter fraud.",fj5r9qz,RecallRethuglicans,gmxyi
/r/drama will singlehandedly revive the cotton industry,D4rkd3str0yer,9mc0u,fizwvxe,"If we harnessed that energy we could start the most profitable company in the history of man.  Thousands of workers toiling round the clock, for no compensation whatsoever...",fiysaa8,companyfry,u5moc
