child_body,child_screen_name,child_user_id,child_tweet_id,parent_body,parent_tweet_id,parent_screen_name,parent_user_id
"Devon Island, Canada.  That's the best I can do.
[Here](http://www.whydontyoutrythis.com/2017/06/nasa-mars-hoax-rover-on-devon-island-canada-you-decide.html), [here](https://www.reddit.com/r/conspiracy/comments/7cxjac/are_the_nasa_mars_rover_pictures_faked/), [here](https://www.reddit.com/r/conspiracy/comments/8ha2rv/marsmoonspace_anomalies_over_1900_images_sorted/)

Only god knows where I have this stuff saved on my computer - ***I could've sworn it was Arizona!***  Guess it's a post I can't find.  Sigh.",SchveebleSchvobbler,j5dq6,fjfuute,"There ya go, that’s what I was thinking of, someone capturing the location in google earth.  Thank you!  Let’s see if we can figure out exactly where that was, now ;)",fjfotmz,fromskintoliquid,82lu0
"> There are many people that claim to have found the location where they capture the curiosity pics

Vaguely I remember those pictures.  I want to say AZ desert but don't quote me on that. Someone used google's satellites to pinpoint the location.",SchveebleSchvobbler,j5dq6,fjfl6hf,"There are many people that claim to have found the location where they capture the curiosity pics, from right here on earth.  Can’t remember for the life of me, but it’s definitely here on earth.  That would support the idea that there’s a malevolent race sabotaging our missions.  Or......maybe that was a US Govt ship the Russians caught on camera???  That would make this sooooooooo much juicier.",fjfjprv,fromskintoliquid,82lu0
"Happy? Love them for it?

Learn how to read sarcasm, you fucking walnut.",SchveebleSchvobbler,j5dq6,fjfioki,"Look how happy they've made their conditioned users...oldest fascist trick in the book, take away something from people, then give it back and they LOVE you for it

TD = Stockholm syndrome on steroids",fjd072z,USA_akbar,zrhuq
Precisely.  They were both also retroactive.,SchveebleSchvobbler,j5dq6,fjcr8oe,Well that just makes the warnings system sound even more arbitrarily enforced.,fjcr07p,bh506407,6rwcj
"Yea seriously, who knows?  I mean ffs look at my karma - I'm a lurker, dammit.  I am on a list though.  Warms the cockles of my heart ;)",SchveebleSchvobbler,j5dq6,fjcngpf,"Not even sure how I got the three. I think it has to do with criticizing China or upvoting criticism of China. That's just a guess.
Could be some lingering Admins taking/gathering notes on individual members/posters too. Who knows?",fjcikat,MrVagrant1000,34dlxuqh
"Neutral.  He is neutral.  Neutral like Switzerland. Or Sweden. Or Germany. He is neither good nor bad, he just ***is.***",SchveebleSchvobbler,j5dq6,fjcna0d,"Pop quiz.  Complete the following sentence: 

Orange man

A) good

B) bad",fjc6186,MissionPrez,f2au8
"> I think they’re going to go after the most active users.  However, my account barely breaks 100k karma with combined link and comment. I’m more of a behind the scenes/lurker type user.

🙄  I am hardcore lurker.  You are a mod.

First two days of this bullshit I racked up 2 warnings. 

Look at my account age & karma (!!)",SchveebleSchvobbler,j5dq6,fjck37b,"So far, as far as I can tell, they’ve been selectively enforcing these warnings. Just by communicating with others on here, I’ve seen the links that Reddit has provided them for their warning. And in both cases, I too had upvoted those exact threads.

And guess what? I still haven’t received a warning yet, either. However, my account barely breaks 100k karma with combined link and comment. I’m more of a behind the scenes/lurker type user.

I think they’re going to go after the most active users. That’s how they started with decimating the mod team. Wiping out the most active and technically experienced first, and then anyone who defied their new mod call right after. I assume their next move is to start going after the 10% of users who create all the content here. Subreddits live and die by how dedicated that 10% is to keeping the content fresh and flowing.

I guess we’ll see what happens next.",fjc1205,bh506407,6rwcj
No clue but holy shit am I post happy today.,SchveebleSchvobbler,j5dq6,fjcid93,How long do we have to comment before each post gets locked?,fjcf9i3,Supachoo,11v8bj
"ME TOOOO!  WE WERE HEEEEEEERE!  AND EPSTEIN DIDN'T KILL HIMSELF, MOTHERFUCKERS!",SchveebleSchvobbler,j5dq6,fjci84v,just posting before this post gets locked too,fjca5cs,Darkling5499,3md08
"Immediately I got two.  Now, crickets.  

Jealous.",SchveebleSchvobbler,j5dq6,fjci5m8,"I UPDOOTED you, I'm working on Warning/Threat #4. Going for the GOLD!",fjcf9ga,MrVagrant1000,34dlxuqh
"😂😂😢😢

OMFG I can actually post . . . pigs are flyin'.",SchveebleSchvobbler,j5dq6,fjci1pp,I can’t handle this much winning. Two posts in a day? Dragon energy.,fjca2wc,redlaundryfan,h9w9w
"I am so sorry.  We are here for you.

F",SchveebleSchvobbler,j5dq6,fijijse,He was my uncle,fiiock0,captheavy,17ay6z
"Awwww shit.  Take your tainted upvote, you dirty bastard.",SchveebleSchvobbler,j5dq6,fijieiv,F... now he’s going to be Voting Democrat... SHIT!!!,fihl1uh,ceward5,2d7y3z7a
Gold.  Pure gold.  I'm ded now.  😂😂😂😂,SchveebleSchvobbler,j5dq6,fijh2io,On pace with Coronavirus,fiilwj1,KebabDrogo,3n86kjqq
JFC you'all 😂😂😂,SchveebleSchvobbler,j5dq6,fi00de2,"Ooh, Rump-o'-smooth-steel you say you want to get up my slats?

Well, try me, try me 'Cause you ain't that average groupie.",fhzcw7u,IDontBrakeForSJWs,yk7ao
I've always been fascinated by this staircase!  Your efforts weren't wasted.,SchveebleSchvobbler,j5dq6,fhrx5lu,Thank you for the reply! I dvr the show but can’t finish any episode... it’s not enjoyable anymore...,fhrvqsl,FunkyLittleShaq,3bsu99dc
