child_body,child_screen_name,child_user_id,child_tweet_id,parent_body,parent_tweet_id,parent_screen_name,parent_user_id
Living well is the best revenge,Shadilay_Were_Off,12pepw,fjh8zfh,Give society the finger by rejecting all this propaganda and being the best version of yourself.,fjgo1tl,TmacMGTOW,2jggnsm9
"PR is kind of a big deal. Lying about your operations like this should be counted as a kind of fraud.

I'd also like to see these companies be treated as publishers (which they are, when they pick and choose content in this way) rather than platforms (which imply an openness that doesn't exist here).",Shadilay_Were_Off,12pepw,fjh7sla,So your only problem is how they handle the PR. That's fascinating.,fjh7hfa,Souppilgrim,tcs0c
"If they were honest about it, sure. If they told all oncomers that conservatives would be subject to extra scrutiny and extra rules that liberals don't have to follow, I'd be fine with that. At least then, everyone, including advertisers, including prospective users and customers would know the table stakes.

But no. They don't do that. None of these silicon valley companies are honest about how they operate.",Shadilay_Were_Off,12pepw,fjh7cf6,So you are cool with social media deplatforming?,fjh77jr,Souppilgrim,tcs0c
">How is religion and excuse to discriminate?

I place freedom of association and freedom of speech as greater concerns than ""discrimination"" for one, and for two, virtually every liberal who brings up this issue claims he absolutely refused them service, which is false.",Shadilay_Were_Off,12pepw,fjh75dp,"Virtually every conservative who brings up this issue claims he just wouldn't write a gay message on the cake.

How is religion and excuse to discriminate? Do you support it when it's Mormons discriminating against black people? Do you support it when it Muslims discriminating and using sharia law?",fjh71c7,Souppilgrim,tcs0c
">He refused them service of selling *any wedding related material* with or without a message.

Which is pretty much what I said.",Shadilay_Were_Off,12pepw,fjh6u6p,"> The thing commonly missed in the ""gay cake"" issue is that the baker didn't refuse service to the couple 

He refused them service of selling any wedding related material with or without a message. It's against the bakers religion to wear mixed textiles, but I bet he doesn't give a shit about that. I don't give a damn what your middle eastern mythology tells you. Discrimination and censorship is wrong.",fjh6ej9,Souppilgrim,tcs0c
Not sure about the last bit. DMV site says that you have to show two documents to establish residency (normally that's something like a piece of mail and a utility bill in your name),Shadilay_Were_Off,12pepw,fjh6280,"Interesting , I've definitely read that all you need to vote in California is a driver license and didn't they just start passing them out to anyone?",fjh5dbj,twistit76,4vfwi4g4
"Creative input. The thing commonly missed in the ""gay cake"" issue is that the baker didn't refuse service to the couple - he'd have sold them any other cake or any other message. What he refused to do is use his creative input to create something that his faith wouldn't allow.",Shadilay_Were_Off,12pepw,fjh53wl,How do you reconcile this with your stance on the gay cake issue?,fjgxbwc,Souppilgrim,tcs0c
">It's legal for anyone from anywhere to vote in California,

[That's not what the secretary of state says.](https://www.sos.ca.gov/elections/voting-resources/voting-california/who-can-vote-california/)

>To register to vote in California, you must be:
>A United States citizen and a resident of California",Shadilay_Were_Off,12pepw,fjh4mlv,"It's legal for anyone from anywhere to vote in California, they changed the rules not us, you don't need I'd you don't need to speak English you don't need to read English..it's not fraud it's following the rules they put in place, playing the game by there rules.",fjh4fop,twistit76,4vfwi4g4
"I gotta ask- why? Doesn't the ult zoom go out further than the max camera zoom, which should allow you to hit targets that you wouldn't be able to see?",Shadilay_Were_Off,12pepw,fjh4bpu,"I used to be a Xerath one trick and the ""QoL"" change they made to his ult (zooming out) legit made me stop playing him.",fjh0jzu,Ksanti,ae2q4
"Conservatives would get outvoted hard in California even if everything were 100% legit, the same way liberals would get outvoted hard in Wyoming.

The place is a liberal enclave.",Shadilay_Were_Off,12pepw,fjh3rek,"So just sit by and do nothing? They changed the rules we would just be following the rules they put in place, it's not fraud in California anyone can vote there.",fjh3nei,twistit76,4vfwi4g4
"I couldn't give less of a shit about being well-mannered (that's part of the reason I voted for Trump, after all), but this is not a can of worms that is to be opened. We have rules, and they are to be followed. I will advocate for prison time for voter fraud coming from the right the same way I advocate prison time for voter fraud coming from the left.

If you don't like the rules, get them changed. You don't throw the foundation of our society out because the other side is composed of cheats. If you're going to ignore laws when its convenient for you, you are no better than the communist left.",Shadilay_Were_Off,12pepw,fjh2nuc,"Voting in California means nothing for conservatives anymore. They overturn it with their cheating.

What has being well mannered and playing by the rules gotten us? Trump supporters in California get their properties destroyed for displaying their support, businesses are going under due to the prop that allows shoplifting up to $950/day, homelessness is out of control, gas prices are awful, taxes are insane. The republicans vote by the rules against this but the democrats shit on it with their fake votes. 

Do we just sit by and let California burn because we need to play by the rules the Dems set up in their favor? Some of us live there and do not want to give up our home so willingly. 

They burn California down, then they’re going to go after the other red states while we sit idly by (see Texas).",fjh2h9h,jasminemilktea,6jjog
I just got the PM that the admins took action on it.,Shadilay_Were_Off,12pepw,fjh1jz0,"Well, archive IS has been down.  Removeddit doesn't have it.


https://snew.notabug.io/r/ChapoTrapHouse/comments/fd43ke/2super2tuesday_general_megathread_3_march_2020/fjf8nkn/

ceddit is hung up....

This is a ghostbuster thread....but...",fjg0m0a,IBiteYou,8is6t
"Dude, no. You do not go and fucking commit fraud just because the other side is doing it. Leave the illegal shit to the dems.",Shadilay_Were_Off,12pepw,fjh122b,"Normally I'd agree 100% , it's happening though either way, maybe if something like this starts up they would be forced to stop the voter fraud already happing",fjh02na,twistit76,4vfwi4g4
Let's not advocate literal voter fraud.,Shadilay_Were_Off,12pepw,fjgz8jw,"It would be awesome if 100k people or more  went to California to vote for Trump, I would love to see the re action, we should organize and get people to do it, bet the whole no I D required would change the minute they find out it's happening",fjgwpv5,twistit76,4vfwi4g4
I think he’s a bad champ given that he’s not allowed to be played in more than half of all games.,Shadilay_Were_Off,12pepw,fjgpzoo,I don’t think yasuo is a badly designed champ considering many people play him and he’s not op or weak,fjggn1j,ilovefishs911,iw6vrg9
100% nice,Shadilay_Were_Off,12pepw,fjft5a6,your*e about 69.0420% correct,fjfiokb,_merikaninjunwarrior,49dyl9pu
