child_body,child_screen_name,child_user_id,child_tweet_id,parent_body,parent_tweet_id,parent_screen_name,parent_user_id
Nah I was asking the troll for his sauce... not yours bro:-) I know GEOTUS donates his cheddar.,theRealDakkath,11jzb9,fjgllc9,[news channel cbs  ](https://cbsaustin.com/news/nation-world/president-trump-donates-portion-of-presidential-salary-to-help-fight-coronavirus),fjfcs7t,deathangel35711,5albmwe5
Surely you have proof to link us right?,theRealDakkath,11jzb9,fjf9suk,"Meanwhile he pockets millions of donor money by holding rallies put on by Trump companies, and millions more when he golfs at his properties. He donates his salary as a distraction for the rubes dumb enough to buy his lies.",fjf34l4,Rental_Car,48jy32ol
"TheDonald.win 

Far superior to reddit.",theRealDakkath,11jzb9,fjd2ww8,I am just fine with DOT WIN.,fjc1riq,OrganicVandal,yqnt3
Same haha.,theRealDakkath,11jzb9,fjd2u7s,Thanks for reminding me to buy more 5.56.,fjc7uln,DegenerateWorld,5637nshf
"This.

Why we are even placating this idea is beyond me. Keep this in restricted mode and move to .win site.",theRealDakkath,11jzb9,fjd26j7,They don't need to approve the list when they've already approved the approvers of the list.,fjc6az8,Odkin,4a3ee
Thedonald.win,theRealDakkath,11jzb9,fix4swo,True. I totally agree. But reddit was a place to disseminate info to normies and folk who wouldnt know an alternative POV otherwise. Sad we are being squashed. Proves they dont like broad spectrum thought or alternative POVs,fivpds7,bondsaearph,cibt2
So use your phone.🔥,theRealDakkath,11jzb9,fix4pbx,"Unfortunately, I can't access that site from work, get an error message.",fiw959r,Notinks1,5dkg1l6p
"Thedonald.win

Read the sticky",theRealDakkath,11jzb9,fix4e0h,"Mods locked the sub. Fucking hell, my comments to the explanation keep getting deleted.",fiwrgsp,unsubdefaults,ggyxv
"Read the sticky.

Thedonald.win",theRealDakkath,11jzb9,fix4det,"me too.. you have to apply to be an approved poster.. some dumb shit.   


this is reddits way of trying to turn the election.. like they claimed they could.",fiwpl96,Healnus,1e1ezzem
"Read the latest stickies. 

Go to thedonald.win",theRealDakkath,11jzb9,fiuqge7,Wait what the fuck is happening right now?,fiuq390,Funeralfire762,14ry11
"Ok. But that literally is just your opinion. You’re both taking data and making public observations and conclusions. 

I have no dog in this fight. Just observing from the internet. I would wager you both have solid points, but insults are not the way to move dialogue forward.",theRealDakkath,11jzb9,fituol1,It's not perceiving racism.  It is racism.  I'll call it out on both sides because it exists on both political ends.,fittb5m,BCSinReverse,4rij3
"You’d prove your point better without attacking someone. 

And don’t justify attacking someone because you perceive them as racist. That is what antifa do. 

Just my constructive criticism.",theRealDakkath,11jzb9,fitswqj,"You're a blatant racist. You're scum.  Color of someone's skin isn't goi g to determine anyone's actions. 



Your numbers just point to how you're going to have a higher crime rate in urban areas where there is a high density of people and larger better funded police force.   Poor whites who commit as more likely out in spread out poor urban areas whereas poor blacks are more likely in dense urban areas.  Poverty leads to a lot of crime.  I'm sure if you moved all the poor blacks out in rural areas and stuffed all the poor whites in to urban areas the crime statistics for those areas would remain the same.


Race has nothing to do with anyone's actions unless they are lowlife racists like yourself.  Again, you're a complete embarrassment to Trump and supporters of his policies.",fitptq6,BCSinReverse,4rij3
What the fuck? Gross.,theRealDakkath,11jzb9,fitqv56,"##**Funny coincidence because there's some news regarding Madeleine McCann just today:**

https://www.mirror.co.uk/news/uk-news/hero-london-bridge-survivor-wrote-21573848

> 'Hero' London Bridge survivor wrote rape fantasies about Madeleine McCann. John Lennon, who survived the 2017 London Bridge terror attack and who stopped a motoring van which was headed for a group of people, has been unmasked as a paedophile",fitcozj,iRubGuacOnMyArmpits,1gzlg958
LOL fucking iphone... fixed ;-),theRealDakkath,11jzb9,firsema,"> during a crossword landing

Dang, I thought crosswinds landings were tough, but trying to land while doing a crossword is a whole new level of difficulty.",firl0eb,FleetwoodDeVille,15pllb
this,theRealDakkath,11jzb9,firko88,"Make this sub private with a message that says ""We have moved, join us at thedonald.win""

Fuck this place",firaiat,DealArtist,y56ln
"I sort of agree. I would create a bot that makes all new posts link to the same post on thedonald.win site. With massive redirects and shit for everything on this reddit page to that site.

Eventually, everyone will get over there.",theRealDakkath,11jzb9,firhsj0,"Then T_D needs to he deleted before then. Otherwise itll be weaponized against us. 

This is their plan: 
Take over, then make fake posts. They then point at the fake posts and try to use it as “real” news.",firbd51,MentalyStable,o1qqv1f
